BANDS
8 8
NANOPARTICLES
cell(1), 15.002
cell(2), 15.002
cell(3), 93.761
 3.956060010089261,  4.975350188661259,  0.491100268826600,  4.357494241167822
14.093381933578938,  6.697227358281058, 12.852541717647485,  3.886244519547250
12.238318638451878, 11.652500091894087, 79.170218536869797,  3.944639099924283
 8.039690175233828,  8.763064521141478, 25.144235122960698,  4.042009793762440
 4.950613986147189,  9.883573974120786,  3.516651682998480,  3.836003677099293
10.490958001560308,  3.429208369301794,  3.562062228409864,  4.570974140253920
 2.001249446008200, 12.167407811821931, 12.659627605723731,  4.186289309606117
11.234355687576528, 14.832865361245537, 65.852180109755366,  4.041809823472280
11.220572872596923,  5.549261302556268, 42.478694088808723,  3.828337408127955
 5.907472583288962,  8.657255166307094, 81.206978207676698,  3.680678600369133
14.330809257404111, 10.197431534275504, 76.174192593261537,  3.863134562002633
 3.032808901410544,  5.777959843625151, 57.054847537736066,  4.362231381788222
 6.010077743320561,  5.863687684800539, 72.408719794781547,  4.270459365801798
 6.907188792489959, 13.660594900405789, 20.044064311387615,  3.884078489536263
13.899133375618241,  5.667725162473682, 64.054821038989616,  4.021534811709883
 6.877280772600167,  5.439629979551326, 64.883810861937334,  4.063317392623429
 6.312015911091740, 11.990559306723062, 36.691432366399944,  4.169433024752576
 3.431517830666373,  2.770039941953087, 28.331153978620208,  3.983337428573699
 3.181989431223675, 11.494378587821757, 75.803080951357998,  4.143788816752748
12.969835069752630, 10.457626447423021, 63.978452638756863,  4.392701682443112
 4.679829174950068,  1.442663811095287, 36.616182345427184,  4.133575525515375
 4.658286626456389,  5.950394406193795,  8.803534173862856,  3.974235406645657
 6.716950574772018, 14.756197844538514, 57.111858940030899,  4.044207672512371
 9.203321814001033,  9.335040877235619, 78.210728950358188,  3.908888363283118
 7.166682269338788, 10.429734983012613, 51.596190153335797,  3.850244664752697
13.527642546372190,  7.924483707541593, 88.142133880157488,  3.939746214033719
12.926430452059590, 10.065017889997490,  2.234340379624712,  3.948216961684740
13.534561814736305,  0.017637470953684, 62.612742549888317,  3.901795474980458
 5.932906808624240, 13.060800406275172, 61.051637066992534,  4.267293153500535
14.896650000240800,  4.979058881643399, 80.468192911432411,  4.065296851966440
 4.078133343232755, 13.543090358478429,  3.588409797360482,  3.658262292173983
11.275513496566434,  2.865898354573556, 36.360337784575620,  4.102393791162684
 1.685121781537210, 13.956966869455345,  6.526340215580355,  3.699593400472579
 6.923188158187216,  7.388493545919602, 58.068843927359133,  4.009078423129120
 9.428412220360256,  9.651938535943497, 13.325884153409094,  4.140511661628472
10.940543007876164,  2.203000529013896, 14.148325086844848,  3.852256715220508
 8.341618401432369,  3.906445466981329, 93.289027293991737,  4.380579092956131
 8.805707530684508,  9.082418585906549, 85.555989251164078,  3.995228999241898
 1.019804325602466,  4.917736014488822, 21.429748393198516,  4.399352889440983
 8.169945374564493, 13.145622560329082,  9.820527843226115,  3.567969926105999
 3.203138045730634,  6.276822919708968,  4.831001830770253,  4.092400854636861
 9.068535110313958,  4.924262149713376, 25.829354858302338,  3.988647568076352
12.315973578773262, 12.324464512786165, 56.144318593726439,  3.755666871368750
14.076297158599672, 11.722824921395780, 89.181612313857428,  3.917809712298964
 2.844863084607575,  5.095664764989853, 64.718127320422767,  4.015856610559859
 6.762048896099099, 11.918358266071863, 83.304827976889896,  4.247900120561154
11.823863991596809, 12.227936406623432, 16.220084959247348,  3.893613192114667
 8.023348743477621,  8.716325473089704, 38.534315516048352,  4.005112539392979
 0.109732074573103, 10.767114274147565,  9.094761744902490,  4.253107551066086
 2.892022546297802,  3.203693747407446, 84.598126544710894,  3.944867562036856
 5.293829043946571, 13.645105134673907, 40.251906187078298,  3.938841259394273
 7.513851858855417, 13.095543834610984, 72.382342452404387,  4.280338163542499
14.872878279264906, 13.260966417627735, 34.740531533807115,  3.867766718328857
 4.986446582001655,  0.935464138343124,  6.434298057934217,  3.980413174996543
 8.250579889316365, 13.863896622513177, 53.293544692126069,  4.101867555864422
 9.264411066195331,  1.944884322570450, 10.386690542435884,  4.310856298342035
12.565178754898305, 10.991022191348531, 60.007921492716747,  3.653797147824407
11.453871016986652,  4.137227455248941, 78.636090586534280,  3.908481055437193
11.431812736118761, 10.826193364803906, 30.852490610316806,  4.377194659563022
 5.797908275412039,  5.915002430104703, 31.524010875409058,  4.210723296589680
 1.798889043168578,  3.669169278509544, 50.116883189019376,  4.111198071370017
12.041665979009743, 13.579350113002052,  9.854447035016637,  4.203349275474228
11.971766251727770,  3.154659000825031, 67.854109369603279,  3.766165835666150
12.012508784085027, 12.662482927922138, 52.043825725842495,  3.997876781732059
 4.181645874448972, 12.379910700473918, 65.259718706794203,  3.960831715764653
 0.424806718660171, 12.894685466628262,  3.140432366078604,  3.803779543267856
14.033871458561981,  7.613972942550744, 30.460844455640167,  3.829180376758198
 0.893628857618379,  2.129364403343637, 34.860452107229200,  4.035146261681573
11.177175977890053,  2.111337179233843, 40.726777489587377,  3.847002436134224
 9.266980011250245,  2.477953657775079, 22.769955641594777,  3.847313832032504
13.808344845448074,  5.871619285624710, 57.750747757031910,  4.183580044309600
 0.424929868737862,  8.903870876205939, 19.983925790287962,  4.157581736805032
 6.263313742544420,  3.933238542505024,  3.758451392065812,  3.904413593473206
 9.300803719090972, 10.240826339939415,  7.761961999184248,  3.889944842799439
 2.391793042101742,  2.779547825511485, 17.788920285042387,  4.465426797239106
 8.391907570095089,  6.034160037835666, 75.690711434468341,  3.844846788751056
13.401480480563700, 13.981378594062972, 28.612325574993797,  4.278106781989862
 5.087815802864663,  1.449514366236595, 51.444533466844874,  4.026320015558520
12.646820462373826,  5.207811698669006, 91.312402246506295,  3.889151287291726
 9.865111703988820,  2.461527682289271, 47.788321993059739,  3.706983655487417
13.453238872077174, 10.826038223857442, 43.944538725521681,  3.802791926429156
 1.671040042279484,  8.490964414774485,  1.588732092538100,  4.255209779207024
 7.556927889408779,  7.025961495846997, 53.930819240320353,  4.365152820975588
 3.592409710030746,  1.008245433403939, 59.352069276768262,  3.871994955513873
12.096782300611608,  3.240869452856150, 60.448898828641020,  4.088056771478737
11.934740822981590,  3.832952199784808, 20.084857045523187,  4.190464921714700
 1.291328436446429,  1.491457118820201, 25.072842091230726,  4.211073837439103
 5.060995952638854,  2.217650824947622, 10.254120574684389,  4.067693507165514
11.500849126438805,  1.567771574460853, 51.619662432138618,  3.919269780084149
13.910510946577189,  9.574663641858001, 82.164911503158365,  4.068602959968301
 0.363273778180388,  9.777036672359962, 57.510883627590914,  4.210411742145195
 3.505333520014630,  0.144949361266870, 73.788922790862443,  4.149182254304100
10.218327943984432,  3.666726679442904, 85.326102872815909,  4.038948385347898
10.774063396583756,  8.504028572551789, 57.322498544974586,  3.893032178539181
13.956464070281026, 12.846600560865934, 93.127638486067610,  4.290831831305890
 2.725473145091863,  5.165225411949409, 42.257250760309354,  3.981384961062296
 9.165653967947136, 11.906850112628360, 58.513041876797018,  3.968883963975399
 7.966619126316153, 12.371446444979433, 16.384354013754731,  3.827350092371028
 1.537053913961927,  4.537260138161685, 31.257330563563023,  3.807112153341403
 1.179446089154591, 11.203857146635144, 46.962872536698846,  4.353133279326488
13.497598951277915,  4.917795249972588, 39.422914422366802,  3.875907216450888
 3.367422052391617,  0.505002672716724, 77.632848433914660,  3.560380551124793
 9.643642082267986, 14.862875343676562,  6.862887118469875,  3.822904467473528
 9.959630543664435, 11.301626278935037, 19.419296880017310,  3.705308748860880
 1.936117688784424,  2.639960535288911, 70.352506006878542,  4.000830699749707
 1.824798520033781,  4.266779989234363, 11.372646424807691,  3.874753079022054
10.312770315473369,  5.758559689000552, 12.689751463536110,  3.905528117254370
10.877477504280183,  5.530765295840824, 29.355038098814894,  3.986392628865197
 2.878668644924889,  7.852682133332881, 74.110881783384315,  3.892334928653459
 3.820703815698411,  9.371408693758829, 25.496922567834041,  4.490161916403251
13.245420141546905,  8.485717980565994, 54.212480709360896,  4.017961413500799
13.344949782735066, 10.543390079471489, 12.726180216635756,  3.757973451111755
 4.990773413470023, 13.445441564602914, 23.909990078712728,  4.477003255900009
11.240004511399436,  6.927892025283946, 36.855875706121346,  4.025791218199649
12.103064812579134,  1.692241426326162, 93.299684137595349,  4.233068701914851
 5.409853723247330,  8.286716055554392, 77.239480116626268,  4.173556546523754
 2.188274007517217,  3.936812203908144, 38.547656201873330,  3.905150952549462
11.183263554660433,  4.558801819283429,  7.670787377419504,  4.055531665958767
 9.932573775268038, 12.315633643202364, 43.814963828679915,  3.836413760235206
 0.359279027712408, 13.383137526884690, 65.850618239292373,  4.023199082862978
 5.958395654098885,  4.668540460921339, 16.908953884332419,  3.719416186033620
 5.676164631550115, 13.156150703571273, 49.165878380211211,  4.035550190315791
12.332505858588592, 11.074843659086550, 85.626302314067289,  4.095275789692812
 4.458493595142749, 12.114637053889016, 86.781929533766174,  4.035303475338216
 9.373269310253836,  8.470435262851332, 44.305460180813675,  3.959391456936282
 3.280386520730117,  4.812921222481801, 77.698390511012150,  4.008325723952277
 5.365963744905918,  5.978459518851279, 38.135537828577696,  3.651258029407321
12.988466633508191,  2.557060386804560, 30.812100940022383,  3.766664413818153
10.407598490659673,  6.843506386797900, 22.780846250784673,  3.632823471775017
 8.189116082159334,  3.627270991598118, 44.360769294941299,  4.257386098792150
 1.304492825971042,  6.836575482615370, 91.543440217830295,  4.072891292015408
 6.387988436323011,  9.164847417872606, 88.809790892957409,  4.083715980637105
 6.401079254668169, 10.714435953017148, 55.807153992910457,  4.046592962285482
14.616111649172099, 10.085619521292040, 27.531199913045604,  3.840650168508539
11.887373356909608,  7.422551941383127, 61.121224384067126,  3.891896661637603
 8.110740744726067,  2.128837629982396, 67.206133311052781,  4.149617036678823
 8.724721036996399,  5.938421608106020, 68.450161592475624,  3.922742519851225
 6.471637466439306, 12.237418029370410,  1.125331610955895,  3.521910630330540
 7.688933967975407,  2.395725032163271, 74.307166099816200,  3.958118747127326
 5.907148332299264,  1.650469009013863, 70.715012405592333,  4.188968810621469
 2.809039659996266,  0.555471563706438, 47.593270215652240,  4.061682591155087
 8.553100280808911, 12.941612457482453, 79.651217809024061,  3.901453789125835
 5.518908457965127,  0.083975264669150, 80.801418666697572,  3.872327622370754
 4.409399141552618, 11.408952198783371, 17.852324288369761,  3.870997737150463
 4.664691088711303,  9.180751387678940, 67.688423798342896,  4.026509962785188
 0.572875300235962, 11.545717992920228, 31.210258756614913,  4.062518483554440
 4.924827189409359,  9.054580480770298, 92.687380480754669,  4.200186536003975
 7.274074661388693,  7.280282828807319,  1.719646662633593,  3.896373892612509
10.187165639190267, 12.966206536799914, 62.203809310048086,  3.897730658773039
 3.764452487202474, 13.302588966385498, 33.649405608079888,  4.163479542140363
 8.598777840600246, 14.789305802185106, 93.411356844386489,  3.741631302193634
 5.085521325542388,  0.899971667961415,  0.473205177836112,  3.795237942546180
10.253516070980130,  2.561853820230952, 89.542009784031976,  4.038093059028372
 4.666825056309750,  2.248964342777019, 32.670730478126821,  3.737386681494803
 4.804530107271252,  6.459584446405114, 22.458206885696715,  4.009607531049358
 2.710117582809915,  4.023989068444743, 73.931404527625546,  3.751102708724599
 2.380755478941889, 14.821243176793827, 62.814163568186999,  3.811256106345101
 0.018638036975749,  7.242727524307926, 44.403172053834012,  4.068292119715138
 7.193763106776323,  5.879675106326994, 83.627321321629964,  4.088461480738077
 3.209177717407453, 10.173177315820613, 50.636085823327598,  4.243460228800719
 4.346711983253228,  2.264475891104509, 44.339479409730380,  3.859391535373429
10.329631556423729, 10.237500073436308, 89.124218991799381,  4.088673432645010
14.337957572631590,  1.096194631071957, 38.507047502552162,  4.137717352676493
10.958140010445998, 14.740471433446096, 20.684255593245947,  3.797531294992830
13.693942230013869, 14.446289070349900, 13.531197795568131,  4.017507084861680
 8.636839585892970,  1.112647816168778, 60.393951323773550,  3.992450521817956
12.342738096850585,  8.510736286255908, 15.677655094636240,  3.680979408675415
 1.082006565517645,  9.604117316588891, 15.925503541011318,  4.094402764575261
 0.141764146732702,  8.864927502955354,  5.403241950278679,  3.992393125983325
14.269020684565811,  6.462972953557107, 84.560938725878330,  3.813425770391533
 6.510663322611932, 13.799505067873287, 76.357333853325940,  4.023822861518955
 4.711255206128659,  5.032206726557344, 68.426072461459142,  4.270540608718012
 0.105374014120138,  2.408964245714948, 77.379090687044595,  3.963250031740297
 9.620911564685008,  7.038106106449747, 32.998870177416748,  4.268523236949841
 8.423296601302869,  0.144579627207872, 25.763865030052592,  3.790631888744862
13.396172256638280,  1.125588310914180,  6.791853394499607,  4.078696783267066
 5.603951549178646,  5.998015683565645, 27.423486106882990,  3.911910903270886
 2.290370702361170, 13.564269050292097, 37.843310308695052,  3.740597695851235
11.391227547758627,  0.949814684594424, 44.523374709166909,  4.092624872342276
 2.281442444556644,  8.140893341026873, 32.650680370958071,  4.062086560106845
12.983133875283844,  0.874213451858758, 17.401800694097830,  4.066667905119075
14.299487837681765,  3.191850873444901, 42.866606653892788,  3.959507561950025
13.448910163699619,  5.252476697723705, 33.724402226322432,  4.209356072126075
 6.328422760092207,  9.771873085856939, 10.509709408442383,  4.232166747654077
 0.216344679886558,  6.505034251363233,  8.585809167287469,  3.907697819542442
 7.710344826182808, 14.725628155845795, 46.032177331050967,  4.067848997376554
13.737998323491910,  1.435519405177597, 48.122943881971537,  4.308714079839429
14.710071738205585,  1.602662831287980, 73.504160948952162,  3.979866954416768
 5.903663060138125, 13.359643879748772, 13.209468788044923,  3.929392105750459
 8.088997000100040,  9.671025883921333, 69.860142369734461,  4.139070035767555
 3.845378785268892, 10.245725026971217, 21.467312630145543,  3.756386205394846
 2.562552739974659,  3.137393560200733, 90.034779937786624,  4.283096910111797
 1.060402197335292, 14.178239887050280, 86.829686048208018,  3.883343948432338
 7.895530183247002,  0.099289687539126, 34.466364373521813,  4.052877550547217
 9.964398331109315, 11.111718979547080, 93.310191750496159,  3.966546591042636
 1.134491836875719, 10.257091992230627, 85.981119957440129,  3.717336139015567
 2.788590958207224, 10.868505020660201, 82.465454388385425,  4.119278200117741
 2.281716692191986,  5.451505429186301, 25.353774533783362,  3.890969972547351
 5.663151633559313,  5.703000655585834, 90.593356473709846,  3.816268546798012
 2.079379649242226,  3.286610246528778,  7.535321956082449,  3.810910854072365
 0.357701339575068, 12.550320114249255, 72.931415823771729,  4.183571806782366
 8.399106383757029,  6.531835154764733,  9.495518889892054,  3.677334081982112
 8.757365809562383,  1.747145872902605, 17.803027267018912,  4.477487175780797
10.933849044339588, 13.837414118562295, 90.615134051305944,  3.781195396307442
 9.983240812965523, 14.625668802872465, 69.607761014118410,  3.710051233935778
 7.444300304664623,  3.723272798237216,  7.338918317269332,  3.622001079032292
 7.136052451817219,  2.847915604645802, 54.588388333201969,  3.974219459246552
12.764647617678719,  0.550499400338462, 80.121644648535849,  4.150396890417809
 9.323223735643467, 14.230130002919438, 29.488948231577599,  4.056030378165167
 5.552897535547197,  2.282054993864459, 20.460225735805782,  3.858728621471920
11.434121688389203, 11.461056093113962, 71.732818231450651,  4.259760724663598
 8.527879826447128,  5.194686041128374, 61.121822145046920,  4.156505770938800
 6.445414479527465,  2.520070965163236, 77.979020008840649,  3.775881013825825
 0.209097662785428,  3.997559520995341, 54.274161840611349,  4.107024034517267
 4.209850366465952, 10.319529144779336, 29.715720914506168,  4.163683366364344
14.858919857270342,  6.204964607683111, 76.103726073117755,  4.038461335100512
 0.465760952784491,  6.944797281048598, 36.780428238851094,  3.814807331397686
 7.303443720783966,  2.566634487776952, 28.412777564956162,  3.718864261617533
12.994277760855249,  9.056406419507635, 91.864023867563859,  3.904955773072001
 9.223953791183195,  2.853712634237256, 31.832378477358343,  3.997621143838853
 5.190618709379895, 14.971549861766382, 16.658564917410200,  3.782172773077691
 9.851256258237367, 10.414441093248113, 35.389124532463740,  4.003017206733548
 4.447712073534230, 10.424934654019658, 71.588500950024894,  3.943280090241367
11.139844663371003,  6.059406827277299, 82.173736520979986,  4.061458108521907
11.230977166912609, 13.799082855535374,  2.314598173785655,  3.938555722934107
 8.855564835627474, 10.563260633914101, 47.894517508025288,  4.070725495625203
 4.366930287835113, 13.020929513211390, 53.267781979475330,  3.841530802099337
 0.533869624535598, 13.317811018735469, 59.671828628987669,  3.893396534649498
12.816924926366575,  3.900668070662444, 24.269437881401661,  4.338504883170835
 8.818884491409712,  4.680279720118757, 39.071125180233139,  3.859089532672078
 1.752623912761515, 11.109013976789424, 62.560894439756687,  3.718442126583321
 2.997451716073306, 14.278899972119840, 20.247459752998161,  4.023780746586002
 1.098416429724870,  8.523378506951081, 65.979370184851433,  3.977067016712283
 3.568772878312206,  5.132669547270129, 34.912446395551505,  3.890048822716379
 9.451981354896036, 14.101592460420436, 49.501251166004167,  3.767709979166264
 0.976543737859304, 11.296197296929069, 53.817361070827914,  3.842349263721395
 7.380698872790213, 11.578512216660050, 32.249376322932996,  4.313953055717886
 6.344481556476921,  3.451337544675541, 58.319069516713618,  3.743941746444770
 6.634613148293994,  3.948903765701125, 87.200122390028753,  4.065673183956974
12.968570232802682,  5.147945724256893, 49.967972112972554,  4.097537164940043
11.585261305132715, 14.532227540947646, 32.869911565537315,  4.052699804113180
 8.095773968230347,  8.629843574057725, 29.263377726433216,  4.199559248788771
 1.301934693967496,  1.201962756183106, 93.449781558166052,  3.920049912149876
11.268988888919639,  4.974086716244878, 53.725039543635170,  4.078005650351313
 1.302282080953350,  3.913349971925463, 46.138625879944883,  3.832084574828162
14.916693150764974, 10.925802444931357, 69.073672721378813,  4.129154418835213
 8.222968650062814, 13.607193225570915, 87.661727040834151,  4.224799445523291
 9.008687203339663,  1.992112153038690, 80.942997541274750,  4.061065972111709
 2.546130485313776,  8.224243860460078, 11.416427101223507,  4.138128170058435
 3.988801646233445,  9.751841926856155, 59.481983987631423,  4.010162817003437
 4.700710357263033,  8.698596602123743, 63.607303604582036,  4.170238603131597
14.122376199754134,  9.829809199115100, 50.283200386314455,  3.890116653049515
11.525532832430049,  7.794127773362131, 19.317990388653424,  3.884901331256166
 6.933372396543990,  2.284631244875306, 13.918097975252111,  4.158330895095801
 6.038087739583515,  3.006387132875564, 47.847917953006451,  4.023220999874099
13.799372192910496,  2.549644697369512, 83.632539651427109,  4.186837110083192
10.533910107411740, 13.690980640110666, 83.044529530211307,  4.086140570635260
 3.335027833589505,  1.384239834417305, 55.299682585412782,  4.283139225328518
 2.876661376444950, 12.245032033047035,  0.286054288502811,  3.825493453627858
 5.491304848422360,  2.846475260594863, 24.619260615225436,  4.497686145023712
 3.876614758028500,  1.312118434642037, 66.615405383270698,  4.006200877524717
12.259154142844372, 14.621700297958238, 24.524023863063668,  4.302079056367401
 7.145569677780093,  7.365270778396893,  5.813967123953247,  4.260990038578393
10.563460697005043,  3.443358380276401, 64.197943203501481,  4.001599126976248
 6.963628344615866, 11.943939201917187, 27.259777759897762,  3.855811598653183
14.495297553122661,  4.674249735454290, 27.981377365253092,  3.916180978090559
 6.314144122756446,  6.217911989846095, 12.758922935310357,  4.091608926949685
 0.145217740691462,  8.293291688372603, 23.905929919869799,  3.775448593250135
12.179043210352656, 12.695392101635434, 47.114673999228174,  3.968847484780276
13.685282306052619,  9.437086250375112, 34.213648690426751,  4.174227271698511
 5.614538632004336,  2.176792724413178, 62.909377526454897,  3.964682069158683
12.388737052751708,  4.707134800735360, 46.046395878297211,  3.864014566961540
 0.606401240184227,  8.027467790334073, 40.515318020146566,  3.947479496024194
10.939130123654783,  0.270520071908885, 73.312165183175637,  4.023107543740404
 1.605665866030678,  7.228796076053120, 48.142762930687752,  3.939194945578749
11.685813032897876,  4.039417622737190, 74.634443205332502,  4.094125341703298
 0.901884422105196,  7.591028048359939, 61.032664862869488,  4.136684580811960
 4.312397367744532, 13.279284760320843,  9.402066536138536,  4.088949670843147
 8.178231075724371,  0.275575849610957, 42.186760058392046,  3.731641023973080
 0.141745920010690, 14.553688080402546, 44.741043151383032,  3.908232750157401
 4.854846046771141,  3.853651007444178, 81.168422376904061,  3.815702922647059
 6.555304038557203,  6.660452285198208, 41.842969367961153,  4.250748025863560
 6.386556663075629,  1.295039176219225, 90.435723529972293,  4.240168172065800
 0.824487211959614,  0.457819128652099, 10.128633623301006,  4.259650512294799
 7.612595829634057,  0.166587645252724,  3.442206558872646,  4.120564583815860
13.969904186584770,  1.319871233675683,  2.974048358340629,  3.616202279719468
 6.752113925884752, 12.323059140145206, 91.199962861294580,  3.832906456945939
13.914868845353036, 12.597366514097505, 19.480505973701998,  3.878764360681293
 7.900360794861348,  8.288901379072660, 17.142661756631888,  4.451671073774706
 9.806093070095072, 13.653245040879971, 13.224863094063512,  3.827399713187990
 1.958888989752682,  7.574364506886104, 70.251037843138022,  4.060008996079934
12.068355122940917,  7.518274389357138, 26.113331949725623,  3.907013080426525
 8.083554527855664,  5.294738375401827, 20.143115441476823,  4.028309994230675
 0.267580802023821,  5.062946602365426, 67.699402923934201,  3.855047940842684
 2.733332835018089,  6.743363425569966, 82.742620160641067,  4.014416582773891
11.443074390298955,  7.521015214150527,  4.998815840077814,  3.860070105719725
 5.450515465596101,  6.720273070608093, 49.584351973460976,  4.253589131108051
11.370585746401124, 13.835626993162535, 36.849128771692442,  4.021266925513134
 4.005828580008187, 13.189847841410538, 44.350381581193204,  4.302611164457330
 1.108985327982352,  7.061610000380967, 52.004426690886753,  3.725719460541618
11.396790463113515,  8.093090250526805, 75.524986491062165,  3.444970373195647
 1.392823783581321,  0.573185121270175, 31.114130910278355,  4.130088759242537
 4.858262931523239,  5.986120367868319, 45.521255970297489,  3.801010636617327
 4.429569001623286,  5.512313677921924, 61.022997365222807,  4.045827138423931
 9.611074890437875,  3.148662792304913, 70.998971514055555,  3.794658122326977
 9.995517806337496,  9.938072098668254, 81.938051300941737,  3.803636512076055
12.386965576909512,  7.640116287300009, 68.792316562863562,  4.176151668282871
10.416976432454826,  7.343855887338605, 65.151471709734537,  3.990025704653992
13.069228174552231,  3.355231722755741, 10.953781141624162,  3.873244338682244
 8.304332057481494,  9.342536257220726, 61.585538255248274,  4.161600300891677
 8.379964644605135,  4.109476540385327, 50.976815484992294,  4.059637443331929
 9.055088458171729, 12.261254302930309, 23.122674489491484,  4.112432342272644
 3.138623379225893, 12.636041536926429, 56.898214183045155,  3.831008011258375
 4.951471465961450, 11.674277714047870, 79.292638406576742,  3.665161824636780
 2.110137373585838,  0.707578591952185, 41.483063251127241,  4.033183604155696
10.472077683513131,  8.284239909671600, 50.967871896322961,  4.125480198641940
 0.296357123727152,  2.206506407354745, 65.198931941740753,  3.737178673251796
 9.027353300915559, 10.544069084381873,  3.599081401301279,  4.325238540554946
 1.770497112333399,  1.398438914580174, 80.993277387926881,  4.073100797113129
 1.630644618350826,  8.549032221993063, 79.147758437130079,  4.300315089520591
 7.497271514266234,  9.062511353641757, 21.242060549087139,  3.842230354516653
 7.050049847668104,  0.965266296898168, 84.403319007590568,  4.140766869620648
 9.855746143212530, 10.376349368493729, 54.204596762892827,  3.599387290463687
 2.798575175851922,  5.985973785356751, 14.899585548774363,  4.147195490281183
 7.490357696072294,  9.324186402126523, 73.886294452852226,  3.787434105733288
11.154972422907290, 11.313344123159036, 67.671816643421025,  3.883887398809622
14.704956031128068,  4.694819034285503,  0.989802661788452,  4.189597850320041
 0.745748311549134, 12.357950232102811, 23.264258873699561,  4.377863084129401
 4.344137257906044,  0.890389410109928, 87.151877904383596,  3.531766662419551
10.085103085569475,  6.897253089890525, 72.171744734660194,  4.094503879836696
13.857577626117296,  8.249519288434715, 72.738066389368299,  3.996959709956225
12.492749933587177, 12.063756293414821,  5.872356981481020,  4.357591531194482
11.947644101921133, 14.537180972081762, 59.155056834350702,  3.742978998961090
 6.683825484174409, 10.699622396992618, 42.458450610834888,  3.910482677218805
 5.085504816343212,  9.759175898095126, 46.522475255910585,  4.014469997772631
14.958285282299313,  1.848421865528260, 57.808275286441415,  4.173878774587805
14.542134895492696, 14.962912895578624, 54.177896989962782,  4.049015878144737
 3.329814407239731,  8.821492768835631, 43.287594528947700,  3.563689619478449
 8.639442896190936,  7.796732611974793, 91.764965335126362,  3.811134183501885
 4.064027631093729,  4.955521924250646, 53.148981897122724,  3.881274790229651
11.111513613482883,  2.117197957666931, 27.550361521953462,  3.746175756285663
13.976356981109502,  3.858899168283890, 87.652363428109425,  4.267357898216587
 9.071665065008460,  6.240519122176470, 47.604623366771776,  4.017947828227754
 5.223313260886634, 14.439637929669372, 29.894274463432133,  4.192678441960450
10.010092332325186, 12.111265074056467, 75.535233886422546,  3.916430292726744
 6.457028506729326, 12.324245013444562,  6.198093276934464,  3.805969225298166
12.296357751522939,  8.622423627313491, 47.017285598474530,  3.969678850761805
10.669832082310208,  5.236280227537461, 16.529197956419484,  3.861327493838065
14.184696457705460, 11.058679685456644, 38.080489728913953,  4.250290655058868
 2.492852499370830,  6.514823882846557, 87.210555674716218,  4.501104998777342
14.323108224257043,  4.742199072874615,  5.097146068407899,  4.057005828871468
14.576930288897778,  1.001237695546422, 21.350957968863657,  3.950250383389049
 2.697059758805005,  2.136219650244671,  3.350082295045291,  4.051948754492789
 7.475256155270388,  4.204033962385784, 35.276530818112178,  4.156691781169892
 9.767920287248218,  4.801437645490484, 57.352974632824839,  3.776700530329980
 9.017860071513926, 12.380486459992930, 39.752582453914201,  3.966215434635105
11.461730147765154,  9.233958814826693, 40.809269876445967,  4.267653519021823
14.431341677093332,  5.852840616726681, 17.480812342859053,  3.978432207001204
 2.984444508046791, 13.900988212944378, 90.400468398256436,  4.071296583916325
14.733285928486561,  3.180630013323195, 14.528856948924311,  3.987215381138457
13.930118249200817, 14.999615809934188, 69.401685881797334,  4.227273662198234
 3.459495377932475, 14.478900334646832, 83.904855692181940,  3.663069288584460
 1.041188192016266,  3.317359623122261, 61.515543618138913,  4.075571396921695
 1.133135041379056, 12.778188918357971, 79.160439696591482,  4.124622684028656
 3.688128867877401,  9.600217013201851,  7.271902369934909,  4.102232071805298
10.839939349393555, 11.282965378255062, 26.686454299581818,  4.087045593735536
 2.276225749661946, 13.051427263206902, 27.265864085052943,  4.116950123372927
 0.691932476031728, 13.528130103954142, 50.491871382048060,  4.150096493773666
 7.476366653463048, 14.253150838825363, 64.579244739929038,  3.731957023451590
11.134111083928502,  6.761407098271150,  0.871950262990462,  4.039030383645161
 2.255499242777274,  7.133211820886766, 28.690870740296521,  3.574387302606935
14.651075305538425, 13.495416157962197, 83.119815378505550,  4.008024746168673
 2.893847386481096, 13.712921736351957, 69.838338585957672,  4.111687490679357
12.652031908375143,  7.799817871205160, 78.896288234365187,  3.758473524660388
 4.968536531745098,  9.660650754463257, 14.384501337355651,  3.972802737251661
12.081584425355475,  0.133170935835833, 86.672351664394668,  4.304242384899516
 1.398379326413407, 13.718099299633575, 16.515361636290145,  4.167829573035566
 6.171691014785122,  8.125670412663974, 35.021464696888813,  4.016104958555075
 5.051004573105901,  8.777134598524414, 84.998571670044569,  3.612616757848591
 8.366492060841971,  0.935223355216843, 38.291327526616115,  3.828492881009872
 5.554466127094589,  2.767517049504763, 40.514070934083861,  4.207513793116386
14.352652022283339,  0.566497612162383, 90.079138935541607,  3.920509858834636
 7.903983890292437, 10.488327395507758, 65.523045373158226,  4.074627516977710
10.813393338254453,  1.251467056532663, 55.679350465458953,  4.322937535142517
 2.735205959416223, 10.112979187130041, 36.126826504110383,  3.981203377245113
 3.028859674817381,  1.104835295341280, 13.607500554078536,  4.019701667595736
 3.995767695011891,  7.533016894486040, 18.586566733617936,  3.984099156463189
 9.727555358993875,  6.332582430643405, 88.293638145933713,  3.973463519861399
13.612476095011752,  4.598628396082587, 71.174519626133133,  3.890273415666257
 6.626956473371043, 13.164215459421602, 68.316181331927197,  4.021752902916262
 1.377065005960653, 11.782205516635253, 41.490378373945425,  3.956646044017982
 9.910410483693054,  0.778464640086546, 77.189430863218817,  4.006040184113315
12.630958778773644, 13.461449817018648, 41.143781445874758,  4.048068730525767
 2.584197368458191, 10.031571600739426, 89.559120261800231,  3.852084232618429
12.361171999024181, 10.266177560192665, 22.168651589661117,  3.833522958727035
 4.246293893023855,  9.319355783735586, 39.695802216801020,  3.913722452561261
 3.635217394976121,  8.575999430519197, 54.201809332285549,  3.616923549943585
11.912824558090396,  8.225478407425781,  9.934509576939330,  3.983442347898564
 7.945000493596156,  5.767674365604100, 79.612287681617119,  4.066406113135787
13.408748015463461, 14.013216851343646, 76.221004843588290,  3.964379239068873
