BANDS
8 8
NANOPARTICLES
cell(1), 15.022
cell(2), 15.022
cell(3), 93.885
 6.291671847849878,  0.634283077296460, 87.336647124902612,  4.225292788953784
12.047640356894036,  9.417168424844744, 52.318176532267316,  3.999333668566301
 8.772430506359473, 10.484714509052948, 92.252291029674112,  3.830555673714125
 1.413754707947364, 13.323602779676106, 78.959202836994820,  3.934639527088176
10.748984113672961,  1.809057686071982, 92.297417713865272,  3.903717143787598
14.915571978987888,  3.560599470341000, 12.853385771969341,  3.999971163552361
 2.714830227284698,  1.463451422805105, 23.135147687513555,  3.951470589103925
13.033233141888752,  3.547611182724863, 57.626767601855597,  4.309570842282977
 2.829270364846031,  0.505139655908282, 31.926032281482417,  4.053009196735935
 5.621085093188956,  6.576973851324536, 16.431347850291459,  4.025071241693358
 6.026030893497405,  0.623572911430129, 21.263903479316305,  3.812603895507956
 6.868194059473292,  6.028364981665796, 60.144050715678780,  3.719698470938543
 8.562100594930454,  2.369981757511527, 58.920557155987673,  4.139994851644928
 1.843629788646316,  7.954023348236597, 14.752416393382070,  4.180707501002884
 7.950582264010799,  2.456159173192201, 84.055305365621777,  3.961848085558357
10.459957598515023,  0.911006769844104, 30.349057518587184,  4.141034517359779
13.167363688610436,  4.274095363577175, 76.916107629680582,  4.073641356166475
 2.012246477531567,  8.267430531860397, 78.785367908564012,  4.312838090752439
14.840221002673355,  4.721934325514701, 90.841710547374390,  4.245275190101128
 8.787166356588193,  3.983669939357924,  9.222992880904236,  3.821704939785426
12.236864187266761, 12.687072484405844, 57.202104307991355,  4.159749481234289
13.368867740704413,  8.101833877149723, 22.989705892386745,  4.228609711000118
 9.912539198151563,  6.217584867924953, 57.847682153314281,  3.913310673457511
 2.458314912762976,  0.619000105289277, 36.528140561323760,  4.098778987502319
 2.552116389358195, 11.985599664458826, 15.118004610990720,  4.023676678801112
12.976664407484417,  8.900520930161386, 68.156761452590331,  4.200965238477599
14.934910156494873,  0.351448070278343, 67.180832752188707,  3.975495955445107
 6.073015337246471,  9.453511308971329, 32.139363069992818,  4.164435635439931
 9.423315566132910, 14.295345485510154, 66.452200133816532,  3.835837914324844
12.542145182161722,  7.861878774514565, 18.964573938134578,  3.996893414550444
 4.985808733533924, 10.990195330081054,  4.545733930751276,  3.892980148128645
 1.939303574044348,  9.557288899509649, 50.482688728729876,  3.737414301853267
 5.154083544055434,  1.035842760328856, 61.857339920134457,  3.848853986362201
11.253218331774610,  8.235684842416530, 27.847030673867096,  3.696749299991168
12.995576652565752,  9.766565898264890, 15.268129984286936,  4.335856422695739
10.105005786905018, 10.521110314524355, 65.655000973059543,  3.993911526784602
13.942735082327214,  6.846358699110500, 83.575997358258874,  4.287744423538066
11.365539055793421,  3.582206118688859, 73.272293475029883,  4.161884541901636
10.287716600129604,  1.664576002412538, 87.800436249083575,  4.071270008468732
13.195045009888418,  4.458664556312312, 86.974491747012962,  4.146924314382440
 7.941533258771426,  3.053321107149692, 37.608154164098075,  3.928484725328413
14.517043442374137,  6.709662225988742, 36.078575092509489,  3.990736269050585
11.132821072645251,  4.554549438760803, 61.210509965855223,  3.968000197562739
 3.509753934940414,  8.383786322050790, 29.149749730403929,  3.971102810659581
 9.665426784131672,  5.278799440077214, 18.109135225223323,  3.889976102011527
 0.413627747819898, 10.169888609211796,  4.608173843730510,  3.848908445138858
 9.204834208857900,  4.088592174214681, 41.236093318623190,  4.007617947581475
 2.737189268219739, 12.521373071966430, 69.464426940296391,  4.033683694774076
 9.667046370688389,  0.781175994742027, 69.865174594510805,  3.588168627268117
10.845218419983272,  4.060234942800853, 48.561653345267338,  4.018471815708973
10.977174723104692, 12.488060241138664, 34.993967708097600,  4.143480845515959
 7.901018061574527,  6.983886881358551, 38.627171221370297,  4.162981977117441
11.543525430525412,  5.214064003149444, 34.031968551261208,  3.801793151375991
 5.178179753752786,  5.021146622339374,  8.904012540502743,  3.711669418843769
 9.702201833989108,  7.736590256765865, 49.574917115122723,  3.936442618178562
10.199351789041975,  5.422228945297774, 69.941795682514567,  3.794888921498423
 1.606753228831802,  5.635068194850174, 22.456880972188522,  4.011292826657735
14.236295135018565,  8.228028072227250, 88.693428239995200,  3.959673741963394
14.720605503226782,  6.337003872615351, 32.149708198114276,  3.911460726187910
14.217442518688623,  7.292994181660170, 11.769380563434778,  3.894643433800222
14.584242319398633,  0.231975263560509, 75.842765211599868,  4.053448504162647
 0.339580038296306,  0.150618063231754,  7.516204341684657,  3.846329498670380
 8.559642129933369, 14.033276620412972, 90.429720562656684,  4.100783489561318
14.599604617940246, 13.707512800990639, 33.507919256144056,  4.022865814604319
 6.602008592805282, 14.518575090559869, 14.196748898206705,  4.119394798689009
11.884807124012065, 12.350750034495350, 89.106767133494500,  3.792238415673761
11.654823914115163, 13.095355993028068, 82.678815773893390,  3.790646314670777
 6.213337797368577,  0.863718036555992, 53.799784871028670,  3.876351686455133
 1.222968652147194,  6.867462115059372, 64.013831502174313,  3.969273116964275
 9.279996282544611,  9.943354173223813, 54.869101868821069,  3.596055676856704
 3.102539636837862,  9.046652225460344, 88.800555122531250,  3.948863164743673
 5.337427765136792, 11.617111613372803, 85.095316607897331,  3.833752807156917
10.332730671736030,  7.095006075705363, 93.549785133578084,  3.755930093938114
 3.240676667259069,  7.151494603395253, 43.271777766670674,  3.586210199671792
 5.797346020145233,  9.653500964503799, 49.836057923432470,  4.072712369544099
12.914967452207064, 10.433307993598572, 72.159376327282928,  4.355559921343859
 0.670655455851793,  9.139995195344582, 44.869640278958812,  3.636470482841779
 4.280584403925299,  5.268144540858892, 89.219582211349078,  3.997908287546285
 6.829214856131062,  2.671290385457598, 18.121728672756991,  3.807199311795360
 2.543353480712722, 11.211383800400617, 26.660631059003727,  3.778391924349936
 0.399525869389568,  3.502721973375114, 73.745951517578163,  3.851677845444451
13.304728112306504, 14.244730580411973, 86.017114677301606,  3.989319581835124
 9.811257445232579,  3.174484572558228, 66.722756965574746,  3.961440512035480
 2.295900522735319, 12.899399076402753,  0.224083238886474,  4.001945038530342
 6.063257442050540,  3.913399759430523, 43.550624113489292,  3.803006270592515
10.418419407827884,  1.810542697709728, 25.052704177208739,  4.068935495843538
 8.546337416058240, 10.826284440133465, 28.875579792020666,  4.062831400577920
10.838439537205414,  5.096965204405802, 90.172990551397007,  3.898680940366801
 3.545985911066734,  3.556266493746021, 46.591446936939668,  4.083831896692612
 2.603976517116665,  3.976669040708603, 15.793799004304750,  4.033994271007693
 4.968165868826802,  7.773174620415480, 46.388916225337539,  3.640921614461265
 2.334046907407878,  1.614896020345474, 91.456690480312247,  3.829201606550994
 0.560720575828709,  7.295824175451258, 74.945194591685336,  4.080361014474952
 8.196044710735686, 13.691970410710100, 23.501023333916528,  3.542735099147725
11.309058491189782,  3.862925387422947,  5.980320983713591,  3.971808686246388
 7.412125918394048,  7.318381822666209, 52.935990132762505,  3.898455621791518
10.490302006837078, 11.776780403682627, 49.192981489268142,  4.307455735409454
 6.074376615649156, 10.269536123646009,  8.407060255841374,  3.958080937751983
10.730740330802579, 11.874439020855089, 78.988983799270386,  4.155252449212237
11.569574690515610,  6.604344451447969,  8.778933639215841,  3.857226606586841
 4.942169654253656,  4.819079297441154, 27.381949895588452,  4.226706857553562
13.823676141533936,  3.452221095177594, 18.980399123551507,  4.014863685177114
 7.861007350678300,  5.672371001158789, 72.969523864150759,  3.871441942004742
 2.155958874198053, 10.984949758028918, 32.142284292261053,  3.951290031829494
 9.715865542709420,  7.043239883175779, 21.581522931720759,  3.855102983704065
 3.906079161725839, 12.691143543235283, 38.912214243282072,  4.016743318055098
 1.822743578643769, 10.910469705496725, 36.066885525628273,  3.825752167649270
14.986775085804988,  5.343760675112438, 67.520850469846394,  4.066031226255985
12.385416073480181, 13.068936075013257, 18.012223483463607,  4.327462486151759
 4.468745361643943, 13.653288791867272, 90.335898841692625,  3.823686919742413
 8.478023561153277,  9.307083753879652, 85.394313654775019,  3.899504506833670
 1.588442886314624,  3.737589933049265, 29.678126080378561,  4.172814509233013
 1.209103444973087,  3.772959710787143, 25.779669144019909,  3.643279852971469
11.047539765560050,  4.633418972142343, 80.393067193089649,  4.101152011779357
 1.774401157811471, 12.661528924448799, 43.845770291588195,  4.020700106006991
 7.851515208941828,  1.624501451880805, 73.307180505535058,  3.833193853368038
 3.410434069054367,  7.334341544446269,  5.967232202119388,  4.532729071060911
11.994310666069554, 14.378078815764651, 42.316907568188569,  3.861268975383624
 2.800408660119795,  1.585863243699778,  1.509689692507295,  3.797906354464851
 2.301275720507116, 14.766468412775481, 47.878611937189710,  4.034213465451103
 6.849339046402228, 10.343682358331270, 22.059500129514941,  4.219142194417989
14.306425545385800, 11.729815578676146, 60.442215752438962,  3.727347183005715
 7.025592154800755,  4.626918667174730, 80.711417221398236,  3.933746398849409
 2.567022239416366,  7.665015689124514, 60.354582371792155,  3.944650607547930
13.800430237287063,  0.776237134900126, 89.754009463832702,  4.161517888467001
 0.918652446219720,  3.194633508795152, 83.901228700245269,  4.053069104227380
14.578984976444577,  9.335771885711052, 29.519096159971362,  4.053957338184882
13.372903204002109,  5.930320040023253, 50.993578803054284,  3.887546994962073
 9.596268603978015,  6.179465347352012,  3.319462511327326,  3.864139488751658
 5.593559122246581, 14.401302168115130,  7.503390160853191,  4.435559228113439
 8.337336295175241, 12.513100156704622, 10.931085792568412,  4.165316148370982
 7.446344335184127,  2.189336666193149, 46.974593897980071,  4.213216588030749
 5.460014871933813,  8.184713469553174, 64.053610204456959,  4.034944452697590
 0.334793964368518,  5.770227570697366,  8.382243949142143,  3.870764084401797
 4.650836021514431, 14.510573337723910, 72.479039439856535,  3.997955362103756
10.978566671921801,  0.692864061549346, 38.741469871057362,  3.927418001021788
 7.706927790638654,  6.977448814273350,  6.708706852283824,  4.044391448583963
 0.974460867145569,  7.578775008650062, 26.170467421294703,  4.009375624565042
 0.127219182499329,  5.003711562141552, 80.218566546616131,  3.741917842529086
 4.299058567085995,  7.054798789702737, 73.481983616703715,  3.823634461300474
12.467267809665541,  0.365888930848251, 60.347062767317531,  4.135512438850497
 9.822245829714438, 10.497448329297651, 24.991099934096699,  4.128858408886267
 3.755216494585222,  4.148956637656918, 58.406623293233771,  4.336620199211469
 7.873854123367638,  5.829919994672654, 87.451642853246511,  4.085791889599388
 4.897051767962848,  5.409589974972469, 31.597785120364343,  4.173980508487899
 6.614259251725708,  8.308193194175928, 82.058691779920750,  3.923486819946285
14.127744784478212,  9.590023741668821, 38.728157984790968,  3.831015540727198
14.221735402133882,  5.200481674607978, 44.888577448357665,  4.079709910602343
 7.523630233588024, 13.443461707095040, 59.899167872261486,  3.895322868336930
 0.201546417844848, 14.369874881219893, 25.126746326637793,  3.726670921923245
 8.263908080466761,  3.973034656292456,  0.452323992065312,  3.842425062647826
 7.979097290257570, 13.172965962510224, 32.207035828093630,  4.154385207322804
11.966789491377835,  2.206808160623425, 83.600160087912272,  4.134849403695587
 7.919778684719339, 12.063638241117312, 82.171003118175634,  4.019546080526275
 2.804347653465937,  8.465372710314895, 10.191672703991594,  4.248069728972777
 4.142757670267299,  4.760579752317790, 62.464942983578140,  3.868518669535356
 6.396953746295731,  1.364044805670219, 30.225335360626136,  4.027286043423593
12.364125567559034, 10.292399390316952, 85.751444950210853,  4.134988640730554
 8.573343860291786, 12.773061268830338,  4.878102699227457,  4.142537320549499
10.410167852094188,  1.530589043348887, 18.698001564564283,  3.790286001894609
 0.804650409010824, 10.614556805090297, 18.549784738141472,  4.143331898649195
 6.866503076775802,  7.851776234860007, 42.509048836927548,  3.944313558505794
 4.280477394707854,  8.726018365195499, 38.134282827644157,  3.795019310772371
 2.224525311538485,  3.466290247251736, 42.656280304484973,  4.123340807459162
12.629539565158179,  9.822980527628648, 91.988470609922729,  3.997960322383185
 5.536228683581881, 11.449762357827076, 43.336178377859412,  3.901514342618135
10.066701739339965, 10.153738539549259,  7.729344188292760,  4.126114042792564
12.844359497274977,  7.899941675529595, 78.735964253853339,  4.058178685552710
 2.282804616400952,  2.679177679057097,  9.802417242593235,  3.937946781519812
 2.381141298266660, 13.913227695725281, 86.799252735860250,  4.373653657597615
13.591368957906692,  9.075979072541173, 48.645760256796542,  3.971638354731204
11.186511555090286, 13.558728977641980, 27.191456327687970,  3.884278780859323
 7.327906302678016, 12.404846494972135, 52.343293256991380,  3.962132737178893
 5.041862736765190,  1.616539373211072, 50.183616469539004,  3.860499841281332
12.631166914610553, 13.354792712633483, 64.817396569434905,  3.592658763494255
10.448937889313852,  8.333633826800163, 31.862423365144000,  4.105786163523701
12.497302990701005,  4.139415985549975,  1.229163342491004,  4.194349527585225
 2.333852648750341, 10.691658637705014, 63.073622301502795,  4.203383201078254
11.012935945359125,  8.633606707192046, 36.337327073309901,  4.017951211838668
 4.603411545970905,  5.133458115819250, 66.569400012307142,  4.055763183713350
 7.446160458704941, 14.149905176658393, 37.788062309261242,  3.953629582778909
 1.085074597319039,  0.054653009227419, 40.643150458598114,  4.112900465684781
 5.827181304003189,  9.726129971742148, 13.839798105871020,  4.133296053321133
 2.977775958634575,  8.761196243617041,  1.872747758714401,  4.136520087385623
 3.328087601428634,  3.322980275189297, 19.687165940245926,  3.971947793268741
 1.445749444912792,  4.089027859200034, 38.608749874762985,  4.209636162611424
 9.101212091446927,  0.822643523715066, 62.758061337128105,  4.195099176928545
14.587440281163081, 12.706162110008991, 50.238766268659028,  4.152604006779910
10.244365817859137,  8.801999013105458, 88.901937215326626,  4.019399264286560
 4.537084425181533,  3.885872738091603, 85.488231811470612,  3.968671186711334
 3.844306636052547, 12.585405242508616, 20.370627416457594,  3.902331047520119
 2.062644516542133,  3.813279152587418, 34.081730286254128,  3.986941235871187
 4.329057026439605,  8.947249438280327, 19.264945522814379,  3.759485426631363
 0.415517585228486, 13.396352764664986, 29.276161451141402,  4.251135177731179
 7.913729732771039,  4.642139324058849, 63.571832209002181,  3.958298802851242
12.604586526139306,  8.698651592979449, 56.266348906332667,  4.031831324202550
 4.835873151463881,  0.251596831342371, 44.385250313675812,  4.086799218951207
 0.829138575499369, 14.234844833891231, 82.846362322349933,  4.121160819908135
10.348539361247497, 13.441686164201295,  0.246733025767899,  3.821973758427139
 6.904523998552962,  4.200021199661117, 55.691518659961183,  3.912193373837400
11.494204609412966,  7.533032280287711, 74.912469231127105,  4.070040696143902
 3.672459798718479, 13.683560826977157, 65.664789994911260,  4.126065946589704
 7.513709506134679,  9.243922735936989, 74.844777194566518,  4.206935383757159
 5.702007132781102, 11.723632306723923, 17.232698026951457,  3.554075430160169
14.971333096059672,  5.235789101808640,  4.431596939237334,  4.121469686665544
13.448582791810070,  9.876521282837041, 63.674523960127971,  3.846689836245095
 3.428488962555961,  1.749811808402082, 68.064845028356004,  3.693802820491867
13.722310670252243,  2.166183143981976, 36.203589825717835,  4.034979877739350
 8.696640709500111,  6.379382457526802, 25.384756580148743,  4.123819326919215
 9.791172320534555,  1.155875578380475, 11.723707780760448,  3.849456312892778
 6.343095847122548,  1.663244925280871, 65.625696826105994,  3.905744191378895
11.419012220021852,  4.972825081292593, 37.972620137186766,  4.041084169878005
 3.110443889054109, 10.946446501471058, 47.143653516147900,  3.859048173234390
12.859753450315866,  2.192052626714390, 64.152060237395119,  4.234239476047168
12.893837583465057,  2.687967874811878, 69.631371169323401,  3.904404439227003
 6.553923570713562,  8.055713716373576, 56.778518582939228,  4.012197356300146
 3.032629326633310,  0.976009967661758, 13.300394412050490,  3.801153730330684
 6.284580314939981,  5.826156144956054, 20.235923386357669,  3.843032114365249
 8.156741855195463,  8.925232800047084, 18.450647085071150,  3.963329235274311
 6.046119722273497, 10.539563102150238, 67.387733365551469,  4.092298014035534
14.795276604848940,  4.177286417175374, 54.075935893756011,  3.715889488703378
 1.650429586746491, 10.436154600296176, 57.431713479748751,  4.289377966519704
 3.111200834969827,  2.604752331429641,  5.703985775249533,  4.394208651415562
 4.401766865056255,  5.575340804233233, 12.608947210732973,  3.931366583923967
 9.283788479610743,  7.555969425610486, 14.759487210485371,  4.204349817309941
 7.377358158366523,  3.079997524837220,  5.683510659337798,  3.961712287732790
10.675230003690361, 12.045576444431601, 61.828025221466845,  4.004666596844848
 1.336946494970000,  1.160646156025723, 51.589024134494579,  4.098971235534960
 9.367987855195395, 13.147521779230523, 85.966606398510066,  4.058227585560291
 6.123787473075617,  2.402703534496461, 77.495533048755803,  3.857917706630888
13.886587385699183,  8.072643622768757,  1.562732409266966,  4.149760716138134
 6.305782728657445, 14.314572994681788, 68.834883273782978,  4.010138020266718
 0.716734731281716, 12.057544008568170, 90.357551248536637,  4.300785582630592
13.704096367278851, 12.110896823358948,  1.691433383242234,  3.933678388795933
 9.595766172906426, 13.865506507481831, 45.599439934900737,  4.191980595843698
 9.172664068746903,  4.663413231996312, 76.524924679861314,  3.971357693620144
12.999418943546374,  2.724874969354445,  9.412291794511168,  3.996314713740341
13.731588239140574,  9.814519660906514, 33.689130972276857,  3.931363679217183
 8.566242193597377,  3.718616357879752, 52.215129163498986,  3.756126420605852
 4.073496610251291, 12.613431004926799, 11.243625967791997,  4.387324649498743
 4.786396146324350, 10.188808341423586, 92.310015599557460,  4.157386862908685
 3.507934525732245, 10.376031171706808, 75.476513182565483,  4.047818004850400
 3.460842788794484,  0.008874199204839, 76.163266732152792,  3.762326826917144
 2.526947711951203,  8.485759092414760, 67.452772389938062,  4.010170968822854
 8.331179681175948, 13.039311316147874, 71.998999000764627,  3.883972656423093
10.301592199112127, 10.012593782281355,  2.325696282693448,  4.133154520123308
 7.654966976581215,  3.641812796836519, 14.261066741044520,  4.321348885859992
 5.994751597848192,  1.827399747880500, 10.911094793522548,  3.987617611323260
 2.990318902409721, 13.685894781252015, 54.989317777413454,  4.077862341854119
 2.755496811065303,  9.599014276622029, 22.960336813880151,  4.293194906748131
 4.868380684513252, 12.464333706623741, 29.573310127066620,  4.080937041728927
 1.240791646764415,  8.298706756712612, 92.164328304436737,  3.883570129594078
 4.733721545596243,  0.150154080640819, 83.543757608337543,  4.016047475983982
 6.216159597333339,  5.483028581531197, 49.423097640561693,  4.350556660225773
 5.370170113663361,  0.524990325016242, 57.508735881104862,  3.749955204634136
 7.764127591034904,  6.962264218701824, 29.286953649161919,  3.815646020454926
 0.941877152623925, 14.691878536355361, 62.612377101097010,  4.308776156699760
 2.628592238825683,  4.655972546679863, 70.601113280068304,  4.179546816665407
11.850468398192683,  8.554981082588492, 45.021444869125112,  4.127500822203627
 6.954336516262082, 12.091565349490779, 63.616776115675371,  4.088047239389442
 4.951124696054914,  7.788813993007347, 85.631413575918501,  3.786649732640940
12.230719010816582, 12.826827714772355,  9.815026509763920,  3.913922298970347
 5.775452683643993,  2.018285262572394, 34.350054234840542,  4.095248859778371
 8.921584138488395,  0.390610034232602, 50.302035911670515,  3.906788337462466
 1.755465022501859,  9.105515937241018, 71.323385262205534,  3.973108396929707
11.222557622249500, 13.359069301830651, 53.079512639901310,  4.187986663882709
 9.117732817386679,  9.378595175333597, 70.311860537403078,  4.327302182425588
 5.964656938474693,  9.806500327951579, 60.376001244519806,  4.059689215872975
 9.213102109536212,  8.276954846350023, 62.347452307135768,  4.128984443300397
14.656557751340916,  1.023780614251544, 44.936455368052734,  4.275187200546101
 7.475254544163494,  3.097297311999541, 90.364665957237378,  3.925987624110741
 3.581978117323749, 12.962855770462889, 51.137194040642051,  3.764725251570125
 5.133915988056978,  6.373585721774194, 23.764919404484306,  3.652822032933908
 0.156300523783904, 11.159791729716583, 11.953424073692668,  4.075655165608217
 3.391431109559118,  2.675275454050107, 80.526373670658060,  4.293543798128810
13.514917214478444,  1.730409025500850, 27.716960463439673,  4.084485955512152
 8.706961600269585,  3.550210137989004, 28.054019623311277,  3.649729303576117
 1.572932204543433,  6.820030477363005, 47.623290472866721,  3.780744308308294
11.105304138187812,  4.836595133842709, 12.263027178713267,  4.002280731821143
 9.195149006602774, 11.634426389981417, 15.626861243325642,  4.133078622362529
12.997062238861611,  5.606749552840870, 15.700891653217814,  3.981582323916738
 2.098455529993832,  4.337829373293101, 77.070569156110778,  3.794267412921902
 2.134157662427471,  9.919475687408136, 41.060200425046048,  3.821552925213474
 9.325275840493985,  0.678002754494642, 80.457479977443541,  4.488576811459734
11.450698408535773, 14.592142647521040, 21.881515929387525,  3.945696043406956
10.019218868901127,  5.791461418256784, 84.075652793876728,  3.883070708203807
14.197561167298719,  0.450156136734414, 54.961876240534245,  3.989130277632251
11.923167708908810,  4.895023327755372, 29.712877382083438,  4.033826578174388
12.280732163427718,  0.359518073006524, 48.256060472261773,  3.941507241886929
14.993476744466468,  0.003019856852820, 11.316237428491347,  3.746626097358813
 8.383495667068248, 13.452466522652038, 56.045813082420054,  4.000901649116753
 2.100487223753361, 13.773136452649148,  4.186893940961469,  4.119195107543765
11.235576249246705,  5.583466315470992, 54.228732880906279,  3.894473640700343
 0.320734378946893,  4.010088841871715, 61.195276232840186,  4.223026408584404
 6.521846652033975,  2.275629412596450, 24.696419547243796,  3.792969647208385
 5.288817239170903, 10.683007656656484, 71.816750373753194,  3.820800410035618
 8.397560243018276, 13.312958540763002, 19.274381442684330,  3.914789142483181
 8.667968161115263,  4.143036355723449, 31.773272811544025,  3.779739973206139
 9.832033953620728,  1.310280792570136,  2.995560972031190,  4.009501157292854
11.841642324207029, 12.087861029751103, 30.958752082987811,  4.099335257811265
 7.039173912848398, 10.633236238796826, 39.863883548673428,  3.717154237800892
 1.262993652847876, 12.592715055563131, 73.109081234307467,  3.830002790221607
13.665591130896418,  1.259583896480213, 79.824901189922045,  4.349310306526188
 4.809890636041469,  5.226939029374865, 36.572591548099403,  3.940270153709542
13.881111387136741,  2.583591539549487, 22.915845858779818,  4.034930378765718
12.283294035486890,  2.176439502720592, 51.848407078614045,  4.081512542273496
 4.320030547392849,  3.171318352493805, 74.063670816881853,  4.020102521715018
13.438974738057828,  7.765696678582932, 60.255587462631794,  4.091944273285544
 7.205301112629417,  7.045635971758424, 91.258249218253269,  3.951918667835113
12.228496317286631, 14.606401622207015, 72.544327563259500,  4.130724398045004
 0.714348247106437,  6.517273521289755, 57.179829059240731,  3.740939087209422
 4.616293745041052, 13.012404291109966, 34.429825576541326,  3.888901978182616
12.628108983214243, 12.764693470234159,  5.780898229113602,  4.141641457433741
 1.127822642606627,  0.823917944443944, 58.511411310536459,  4.140929089628708
 7.049007460259359, 13.596105295757321, 75.811266834063332,  3.924726526809569
14.472451423569645, 11.982376837584933, 22.165728109455920,  4.003001343909439
 3.655457623123517, 10.888742749596046, 81.543326313356957,  3.971325355311233
 4.712030647142648,  5.483669173650648, 40.382725683485035,  3.688339672087142
13.434587994363691, 12.210790884892939, 46.082343495081531,  4.084822900451162
 6.180723328125723, 13.384085763069862, 48.128851389801667,  4.156339613358155
10.703605835639465, 11.670979205302531, 39.008939822607829,  4.063353218618336
 1.537234495614653,  9.987193261668214, 85.037390771287548,  4.392946257615677
 1.082900189952421,  0.827494678482503, 70.961136629115444,  3.978938476969962
14.335708233853564,  0.663204711268113, 93.835515261905385,  4.038715908672347
 9.948891144095374,  0.443387287741968,  7.745792243243015,  4.190814082466258
 8.794153513911670,  3.273206751634000, 21.719453544012698,  3.895018140090550
13.856097174582148,  1.283243946611415,  3.970196924144022,  4.136035507463012
12.227233881185999, 13.608448940912357, 13.714980751175922,  4.004065413172169
 8.024854765065992, 14.591632580776437, 41.787130293957908,  4.148405948677550
11.275529873519472,  7.795727588900613, 40.950805758466849,  4.148958428477185
 6.911609180033719,  8.093478283962396,  1.176052153910100,  3.956414454099538
 5.533269393699770,  6.385203619931125, 77.245687479830679,  4.207252398086892
10.871103799572827,  2.788235734361936, 44.703988350716649,  4.084602903084606
 6.055597481621040, 10.199400042431389, 78.510415925712763,  3.882306990120107
 8.274686201074344,  7.052747413245457, 66.833762956071340,  4.185674254621572
 4.902331614225022,  1.571741887308069, 39.876848406951048,  4.191033415732265
 0.069765411927192,  6.728691593803973, 41.351204964789915,  3.792572409454948
 4.863161385718032,  4.342440602884555, 92.864242674875285,  3.602856597266706
12.300476226053107,  8.103233047599071,  5.200615996821714,  3.742682574452755
14.565199383025194, 10.611113782376531, 81.309028083634573,  4.152175262594310
 4.584550464579347, 13.197928484918002, 24.150082617758621,  3.779623289482013
 2.333618304495202,  5.205473658459851, 51.199496073146157,  4.203161489800774
14.946042851886167,  3.326514917550164, 48.424738146030762,  4.038438920947001
10.111019182187080,  1.898813819212464, 55.221892324061052,  3.914895596032550
13.733871139773942,  2.377858034368585, 32.222113608814375,  3.938548828765305
 7.659823126136240,  7.414879050663052, 10.841689616053920,  4.093770860127345
 3.474339849138655,  0.727426250520936, 27.210455261234682,  4.465004644412792
 3.929270818210863,  0.119169664736603, 17.275494472666932,  4.101332488638025
 5.385132516782057, 14.050800701545997, 79.593290774555541,  4.220506118066641
 7.938727821438372, 10.176825921888723, 46.323654419483653,  3.998050840221810
 5.541563700982767,  7.373443937100799, 69.814385136842063,  3.917246685699428
11.942433148033894,  6.301795497732296, 64.840818883987836,  4.247845329163694
10.808715141181819, 10.766175947265062, 21.079628022413239,  3.951628161936202
13.808796383308659,  6.335170012983892, 71.347402212539180,  4.141540370150051
 5.983300960774263,  9.415209396568528, 26.017162581456560,  4.078308351267174
 9.514212104542031, 10.954981117463815, 42.764173408705680,  3.933529694126189
10.452838262463331, 11.964174191564608, 75.018591712247371,  3.787665720454707
 8.924893342426358,  7.680209793919079, 78.982198780006044,  3.791354850512721
 3.714310470732849,  6.187612671611221, 54.827549570523978,  3.799365248817796
 0.744338831464920,  0.067445870638129, 19.964682345219131,  4.019325106469469
11.340154604933369,  2.152480456663355, 15.078008875821126,  3.780010796783884
10.779506507826204,  9.183465430683546, 82.120103081699639,  4.080145635035676
13.256740410170273,  3.111273558615802, 41.250058239240289,  4.318347694407619
13.789707969248708, 10.907086848668360, 25.930309648650649,  3.935428831479890
 5.170665735965295,  4.845214127534880,  2.769009682330745,  4.060632680412101
12.588273844313923,  5.151322926325578, 25.755128095042512,  4.002989164103938
 7.875323576725267,  6.722625627473745, 34.567168556865965,  3.967872764533421
 7.404266024303284, 10.524936103665372, 35.946155512701949,  4.153138740617935
10.033308167318966,  1.517281066090621, 34.460910931080505,  4.210138158065282
 1.660830559382914,  2.739669078836103, 87.878150112806068,  3.741700926789219
 6.677439416868519,  3.387459799870743, 69.772812959727219,  4.335706841488022
14.103931304708730, 13.359450296533669, 37.512669257365587,  4.072752695067317
 9.519693647008438, 10.050484232904145, 58.610673963304599,  3.889064038117328
 0.453891525858134,  7.921213931456042, 53.627969204265916,  3.903210723685239
 1.665088809915907,  6.214961137875329, 86.528441731798395,  3.707056527038003
 3.054056744455492,  6.407597972495273, 82.435662432836992,  4.110175335447996
10.464202849879690,  0.753992766893354, 76.260146439408146,  4.210263428313616
 5.327245783540723, 11.572407177767150, 57.032892186981101,  3.423177597306481
 1.554787002570803,  5.165915418099464,  0.652895024607177,  3.970839117402770
 6.718995604420400, 10.789937058849919, 88.720432488435534,  4.080806937948952
13.605288645769233, 10.879797246020871, 42.302012243769823,  3.838850291389010
 1.292433772792693,  6.564514328885861, 18.571770063056963,  3.987206759044191
14.212567033597963, 11.050142832849634, 76.294819422136015,  4.355755410350747
 3.621668386671708, 13.019894342863060, 59.962338900885442,  3.933444338286131
 0.395511146928814, 11.592791251504639, 66.476270720672858,  3.767651047283650
11.029318716417411,  9.558581939254413, 11.621105980468577,  3.928688140182373
 2.976112822241332,  2.530088538616342, 54.824643781339823,  3.626781336767716
 2.829276647673632,  7.669377145006613, 34.215544981001948,  3.867330841394965
 4.270019966080471,  9.974912509320308, 53.677009131334714,  4.191727548784127
 1.742564029736750,  2.958885921266688, 64.900138067186035,  3.858944015438238
 5.809033221310997,  0.271946014081187,  3.467949368378530,  3.831373091526268
 8.529773554000647,  6.127025398253786, 45.830478866569059,  4.242130802836128
 7.387994766428190, 14.261164248415925, 27.061512321855083,  3.833399617324703
 2.470441068049762, 11.620828484796128,  7.552419983950966,  3.894869560783084
12.223166289840622, 12.904711423333655, 68.835951762997524,  4.019617309152876
14.719964193744989, 11.687474494555365, 54.096669638438563,  3.821020644129291
15.011686639236654,  0.749102775765747, 15.935777108224885,  4.254318533804756
 6.837537941130488, 12.121470126268211,  1.315612323916771,  3.875370741496349
 6.148427871271281,  0.692145110318911, 93.371771065265264,  4.197516026239827
14.111515178005892,  9.626918870475846,  8.319739273982140,  4.087098318670043
