BANDS
8 8
NANOPARTICLES
cell(1), 15.021
cell(2), 15.021
cell(3), 93.880
 8.676714829146531,  1.496946266883688, 88.913102585357137,  3.943338019984955
 3.888194476845593, 12.230621586345114, 23.522941580090105,  3.823226175065416
 8.748691998566251,  4.437051679724830,  3.242952870246184,  4.235855625585231
 7.489522916321556, 13.317016592706544, 36.722987339233555,  3.645786624588273
11.229158379094450,  7.764671999586562, 35.547262727260119,  3.831160794983153
10.111182396334794,  0.923507005194387, 42.779540087941562,  4.296340611486312
 4.377241136593367, 13.951513035420930,  6.052326480127794,  3.832164984000390
13.825094876616337,  0.835556373523133, 21.712053974577216,  3.946561525895848
13.647538395556696,  9.772439907665069, 26.067790318193843,  4.335268810597738
 1.895261359033851,  5.872051817228284, 72.892247601837184,  4.161035178762482
 7.530268089027685, 10.272235228145551, 17.954743712404042,  4.318103416443633
 3.020708391476797,  1.653139827481470,  3.813873472540907,  3.705682325406631
 1.375365334597662,  2.459637373596149, 69.659564581460444,  3.991233880444585
13.796843770151076,  6.823656170758839, 81.752410188709192,  3.786543106739632
10.370298706433095,  5.173007232006232, 89.953776120901807,  3.966674264249480
 5.551793291200737, 14.414997390181291, 90.296611958263270,  3.985758266611728
 6.676808241202208,  7.756319009158560,  6.128024792570199,  3.788999555296046
 3.525727774139254, 12.119994403676234, 61.779432470558483,  3.915020258615275
13.686310153219381,  5.398126347336146, 92.289645386234014,  4.152800439049718
 0.339260752768577,  7.815199081697415, 49.855390871801909,  3.971083219522066
14.556242944412690,  1.602264704813494, 85.560683406438599,  3.716095118657159
 0.069932538870589,  6.050887456256256, 26.127386928671392,  3.647389877143515
 2.998533521935311,  9.549424748215042, 12.002152193111588,  4.392250385862256
 4.418841109805207,  6.465455827138076, 37.858269607295064,  3.917465439001096
 1.510481629155894, 10.734385897649448, 88.674489500264244,  3.764498389837079
 3.170895294082544,  5.179673518242256, 48.934838568734129,  3.951884350980489
 4.907146520138778, 13.827005854527334, 45.583236120495719,  4.276200990385536
 7.265609184742608, 14.060455873026136, 78.703169315763219,  3.950233814868697
 5.313314808064825, 13.547386438385720, 11.701886554647194,  4.339929352935363
13.197413570926928,  3.966476388924452, 28.511430157533148,  3.718589380264202
 5.723726469556496,  3.934116737978464, 22.121823853472769,  3.861664035181988
 3.219146830448731,  7.342463403263460,  8.153549916403172,  4.243403288730934
 8.117516296591587,  5.699248202044422, 54.305019539945683,  3.658230340222111
 4.496197329703478, 11.671419533223307, 15.374666434877939,  4.051483231776675
 1.683721548853665, 12.796941051437486, 91.858863557197566,  3.756803355172222
 2.453703540140401,  9.068371621258475, 40.000102948015268,  3.851802890099549
14.240794432049746, 13.381062163207060, 79.887424374549568,  3.958864869810943
10.593467152098762, 12.127731298738425, 34.999766310920926,  3.842058843838645
11.779176699125466,  6.916927402853906, 67.099520357789444,  3.960055206412866
 3.904279906509692, 14.468893958377471, 37.541712973300150,  4.052679548369673
 1.233685784733032,  2.456270032481053, 74.828027622253316,  3.718208975297534
14.438244878416345,  2.935350790744565, 32.063556515925058,  4.031098305350010
11.442096557368918,  6.431531806095181, 26.250789057026196,  3.661788356527556
10.859494835836957,  3.687417386683142, 15.002170625757001,  3.851742918234674
14.905990610201565,  5.295314768227072, 85.125996020448454,  3.753112941902049
 6.123043355180815,  2.571743584752296, 25.855594848389224,  4.038913675679507
13.536192875114374, 10.430386344398128, 37.403816894363878,  4.129820594003477
12.776699314123970,  5.326459719536867,  2.500453666208861,  4.015819075169588
11.850410678633219,  5.530806266382291, 54.795446634920516,  3.777115632871358
 9.777329402572640,  6.643553325682015, 46.696991050959440,  3.955678039244047
 5.592803397231839,  3.624229972042243, 90.084639106017633,  3.878892659023861
 1.666581836651642,  7.328039829098225, 45.244994068697338,  3.993921938397423
 9.345479737435882,  8.433117188110435, 64.502679982819629,  3.761545239316638
13.002148672526038,  8.594322654990513, 30.076288493594564,  4.094990414051806
12.508869257096217, 14.879531664232013, 82.907435088527308,  3.620813199315442
 6.081879943962621, 12.262626270607146, 49.457787689592990,  4.146360527009998
 0.796776639870304,  9.982677121412650, 81.173476715748151,  3.778577868618013
 8.379150461423825,  9.039062392735715, 82.989823641485529,  3.993410855368181
 6.035280213758606,  2.387518066354929, 10.811538861160559,  3.712585578208409
 8.844061213205242,  4.486798836196010, 65.336223091136645,  4.366095604926278
 7.508978742099850,  2.604725938727399, 45.667492777133660,  4.173262011862493
 6.177698076101573,  0.707882191315175, 42.352423504454364,  3.624631575162806
 4.180413196587971, 10.166400019201886, 20.177718329461303,  3.626666456373490
12.041807096246233, 10.276229150286220, 87.095660967365973,  4.074228869820050
 2.370651158414557,  4.371837946109419, 79.548161511840036,  4.066684266627210
 6.103634545400280, 10.492295004862214, 64.280171681131520,  3.929120053189703
 4.420577365369158,  2.452643831017450, 66.314179416722567,  4.391462770948992
 2.996312237052475,  0.492944384064767, 79.094335490825756,  3.829870368268784
 1.185406023011528,  6.067284519917853, 29.848524792527794,  4.075566697991522
 1.049297433257263, 11.366347930437335,  1.592764876867561,  4.089227304520968
 1.035113135956057,  8.977536194479841, 85.271867879425585,  3.899695772126484
12.122834182840432,  5.223700594296131, 78.606648218193243,  3.985612441235959
10.722954306366189,  2.771977812355952, 48.182855986746880,  3.990056819043974
12.718369565994827, 12.676979399666255, 67.116377490007110,  3.972663784269258
10.164038722542344,  3.585626111812848, 51.973816908751559,  3.843667160731922
11.585529832335409,  4.421175304034533,  6.151580005723578,  3.870970124732680
 3.937486005053796,  9.023311435902972, 48.103900527599059,  4.055247137405678
13.111873311783501,  3.195845395354875, 35.825419823212833,  3.958551885141849
 1.071676790522885,  0.784166263409159, 35.147181230314906,  3.824718269785029
 4.969408313085244,  5.050638991883266, 28.815602499020383,  4.015795829051687
10.064869521757068,  8.627232465783838, 13.202788993257489,  3.880910920160183
12.562190115845361,  3.544764152776774, 58.849947280417702,  4.170547109550180
10.903758883141705, 13.098248694143251, 23.961934036787216,  3.959295136133596
 7.376547602426047, 11.598493653411662, 21.874407132684180,  3.878561675892211
 3.752044752631275,  5.742770192316505, 25.042355877491051,  4.029077390247430
 6.694488265825708,  7.227961674137709, 91.501676987438316,  4.104478950266615
 3.779857373957130,  7.095308109489826, 32.914374101662403,  4.207293347094994
 3.278849816231673,  8.019650146504153, 17.254495774612241,  3.846758602152465
12.584803839994791, 10.141485783314760, 83.178883273263509,  3.826359053264655
12.834697467771397,  0.727446594696094, 74.731602542457395,  3.926335764096890
13.609071354513912,  5.445598973569930, 47.084945359766813,  4.105557134210769
 7.250820213875821,  4.731456570185630, 49.345750198871315,  4.286327283340801
 3.294156878862978,  7.286317639067877, 88.699466526413062,  3.919424543794210
12.072980131622060, 11.965340477910786, 54.457373223798847,  4.072574725601590
 7.876043828526560, 14.193298499428707, 93.592923904950737,  4.086348582933702
13.172743566746188, 10.610503760640512, 21.951343377171913,  3.882975744719523
12.422837943790794, 12.373326017347893, 60.176087030223719,  3.877045244828283
 5.803770266463490,  3.117726479045448, 52.775554777142148,  3.816520595842492
13.023416884825417, 14.524274624110973, 33.296987444896352,  3.781728709626532
13.072536049508575,  8.926884735365809, 63.478986633777083,  4.016034481411423
10.407258561424182,  0.755881347141352, 61.201746791463670,  4.285851167911899
 0.320229173958137, 10.791251746772165, 47.015844815473052,  4.234066241290598
 8.106258552330869, 11.652418152012521, 75.794967948401151,  3.784047501033358
 9.854742375187556, 12.011846778654142, 51.081534467472501,  3.738792959275127
12.292624203213627, 13.512091069285695, 13.942204290764437,  4.188018519372412
 9.587748313974554,  2.578719281943296, 56.128196484995520,  4.118667834790860
13.347031444052897,  7.552963797023629, 73.552092365550479,  3.746668862855761
 2.064747058094050, 14.349091090612708, 72.481773264483834,  4.247220797355921
12.850343753148120,  5.818310462608172, 12.196494527275341,  4.235821391266464
 2.082666193700966,  9.241025032637788, 75.015062091539860,  3.792062490270469
11.951322205131930,  1.478919799659894, 91.237392473517659,  4.086244280316778
 7.936975203287274,  4.741458639490677, 87.076537287635972,  3.618970372600606
11.311981637116698, 13.137314207150615, 77.284345253111823,  3.856789910449968
 7.986503784554324,  0.737616666178470, 50.362587463250392,  4.012663677241375
 7.594763942521537,  6.418528847668899, 26.068931553539539,  4.033541414983606
 7.087825609583835, 14.897062429473040, 72.146620551571274,  3.682876301182871
 1.856603483086904,  9.632244362252285, 70.858164930418226,  4.377012974329411
 4.920886080892086,  4.926123937019944,  4.350799955585044,  3.760109988923776
 3.870830498587376,  5.750462684017652, 69.120097673813291,  4.334589418270171
 6.456488262710890, 13.501962893860419, 82.656015249939600,  4.194835832312532
 2.096087142566905, 14.738533311781435, 88.048929325170647,  4.282790506245775
 7.012265952377347,  6.755562986770854, 61.922558665124704,  3.874851800622670
10.411660013928923,  8.501343090001976, 76.028645046736145,  3.999935494184526
12.027991268837434, 12.622544713633257, 44.349140750693273,  3.987740752839456
 9.074585541543213, 12.540652526142482, 10.302769859456534,  3.913663722917938
 7.334858935776303, 10.134627799341347, 79.296779841061976,  3.988523219549178
 9.495949432900552,  6.369890911563303, 58.004043234593823,  4.333275678882979
12.129631074426248, 10.035537300607174, 10.161697874737650,  3.990094049451888
 8.054437693213824, 12.278075445031179, 43.091627238182078,  4.033195871134766
 4.100044564148609,  1.637736571512376, 83.224009843663012,  3.702439574358976
 6.194420468444675, 10.945862553603101, 33.478104043560563,  3.816484552061389
 6.725324933369785, 11.502267909335741, 70.201859328288919,  3.977510666406857
 2.808581214598938,  0.788672933318761, 62.847166369691131,  3.896761822480348
14.712154818747774,  2.981307793774109, 15.863783420231723,  3.952823499518945
 6.093538020449802,  8.282631251088294, 56.388525595384081,  4.109905797594759
 9.100200688246387,  0.862427069551284, 12.737106946413107,  4.119383801728224
 7.492008662016062,  5.112365567584470, 73.332214359065787,  3.795659425844195
 4.587666862892690, 14.652060349933434, 69.305235400447344,  3.836510856696382
13.754259692476126, 14.699139706095748, 41.168210333386341,  4.009843831933891
 9.984083569165238,  6.416873804801129, 93.739994094400615,  3.972774941576195
 1.762368903043421,  8.796467262369079, 23.012492547129895,  4.303853889954785
10.557153090924647, 12.604057646867119, 19.754879706049802,  4.009621358145873
 6.560161710765078, 11.777901849951792,  2.549741029721401,  3.773888702381133
12.256070883079561,  9.920623007930683, 41.114631471050387,  3.772547894378341
 3.833673751771082, 11.768780930133433, 85.699575605677737,  4.039106847948021
 0.831963600083724,  3.857334201106054, 23.182372391874559,  3.844164979441464
 2.312706950644262,  8.543179442628112, 55.200437091747091,  3.828607485848750
 0.509595968675079,  9.939671305712846, 60.383924375591924,  4.018047379799236
 6.232169610385437,  2.808736277803144, 80.030611039233392,  4.287060649611322
 8.965162323775143, 13.867203843892014, 46.828565885948962,  4.210526856777497
 6.987171841240343,  9.034414312548680, 10.742323830652467,  4.015348952549740
13.944211690954276,  6.908681800441402,  8.263155057910044,  4.171892385470810
12.912130922611759,  8.822411139016177, 57.426969070698540,  4.106616619334904
 0.290298883565891,  5.682297534689850, 56.820722869311631,  3.884446708913981
 7.807815693340157, 11.611734792513587,  6.387400181725436,  4.226480934305069
 1.269156371511557,  5.695611587342619, 65.868969482365188,  3.984723353878549
 5.864476171175123,  1.491936801635128, 56.148337249966225,  3.636256197906465
 6.138283959882649,  9.946304886567534, 59.968454523115497,  3.784959667915084
12.097581643981297,  3.111479340904131, 39.840727127779225,  3.946059509201955
 5.131762225300458,  3.131646242742080,  0.844824912563966,  4.088882257890816
10.482199757023217,  6.742677085130968, 39.692009221485456,  4.000935263244331
11.055621975085945,  4.695307524946093, 74.826282008557683,  3.930499982432791
14.719890318872979, 12.742589963952703, 85.262326109388539,  4.073254274217232
 1.252030505482143, 12.642767186374437, 20.456225632085783,  4.062333602754089
14.401792742107022,  1.979285112414682, 78.174393382277771,  3.988421897454866
 5.259360709668118, 13.869096005813905, 26.702965854279654,  3.742892966154719
 3.403435702112160,  4.034698324789977, 17.020516298834757,  3.826197963980257
 2.187215934214957,  1.979476746245629, 51.289177545128304,  3.856696286979690
 5.836154826353266,  6.439937440783717, 45.494171214573257,  4.198674489919797
 8.476537963225814,  1.455341369119259, 38.868978617739586,  4.236234769963138
 4.521257596003251, 10.338710462331990, 93.279839099239041,  4.250101178080715
 6.861011971969329, 10.694769213481399, 53.194476636868515,  4.036787285283123
 3.457950398361294,  3.058276006426141, 32.138156396891418,  4.037132335131196
 3.630905003695249,  4.695690703121264, 62.753081119748067,  4.061072744777847
 8.394776246907616, 12.105041472289184, 14.241065165619414,  4.105654308053760
 7.608195932476318,  7.765850352714072, 68.736241298611844,  3.921890771313404
 2.969817271219115,  8.173276025746691, 78.632557712180258,  3.815029464749711
12.416064894301169,  3.183316819763019, 68.379550608493801,  4.011854296080079
 9.544141408667393,  6.447405944913755, 29.579993271283485,  3.983955639135873
 3.390238479038745, 13.064192779948637, 65.621219326232350,  3.991687144054155
 6.666265677483950,  1.950119874108733, 62.720773188157892,  4.123321997773544
14.936309001254090,  0.034389472898817,  0.545613963226830,  3.863333046047496
 9.603529342034189, 14.484338357303843, 69.131165521695678,  4.136424200337171
10.143924737581996, 12.474071225963167, 81.046128281759877,  4.083917949602606
 5.847220495329636,  8.454444106402949, 75.961132188560853,  4.046005272032891
11.601513078019119,  5.173021471588101, 43.274340266506904,  4.051418641557384
13.131017162287158,  6.646675389210394, 16.208674452817405,  3.962181607344156
10.902333936388208,  4.840970682290751, 32.964470213209658,  3.978479660238025
10.869279946579978,  2.510501144750144,  9.492220309088731,  3.956510242557817
13.018847716016333,  2.107832291652284, 45.208273594600840,  3.640104647112205
 8.834182749100828,  1.822426235365292, 83.890753590179159,  4.314420068475043
10.561003122736597, 12.141119529275549, 63.726501690047186,  4.120234383454933
 6.010804560648390,  4.908863321667179, 83.817630941993698,  3.928383571368433
 6.054171480284268,  0.130588223780010, 22.447992398024557,  3.752040044535025
 2.669099961013652, 10.660494488716092, 51.730432127017913,  4.280857783578019
13.026665716486711, 14.347250889632264, 48.043524087229279,  4.300159279589043
13.549290842315269, 13.139090661457296, 89.565034787962176,  4.062088872016849
14.405107755902282,  6.765132103670858, 33.429528527524994,  4.043274132178398
 0.849338417699160, 13.828188801716994, 76.340103616087362,  3.898323630155873
 0.076742594530444, 13.135484148282661, 24.212435743784102,  3.869815511550090
10.335174038387816, 12.241586828349012,  3.015930710933655,  3.882981737723857
 6.521276979736882,  7.829016711987969,  2.156085630639023,  4.158566363714979
11.044142299882708, 14.255996070948193, 86.478432209020639,  4.188898947983318
 7.266863949151463,  7.491461784991468, 35.170089163280522,  4.111197371026526
11.910598555922572, 12.734518504979171, 93.270858445118762,  4.079202459703999
 7.280746088023990, 13.154352135116101, 61.696685060338254,  3.851440665606317
12.969383364108495,  4.206396173654931, 64.686965327657063,  3.664056869873231
13.743974633582138,  3.527547966931921, 50.568366161301839,  3.848433870682572
 0.544732708255053, 13.923557175186506, 53.034112442106029,  3.882762931109040
 0.546950359907543,  1.770542062113876, 81.914444637203061,  3.848089384358890
 1.918656445560221,  2.157497108704236, 28.252780779363725,  4.407286280854553
 3.610131981056291,  5.803818110122437, 42.010013751466794,  4.132028533538308
 9.832055238014361,  9.170364010098760, 23.901525997231172,  4.119670006923148
 4.640286596500553, 14.246129666822338, 53.068533431852551,  4.325713198910671
 2.925319643006613,  2.156550314320013, 13.458780585496333,  4.222784678356470
 9.837571519247643, 10.149899802795378, 27.929776656806276,  4.141984314481102
12.906775622634280, 14.471957197862226, 37.221316793800121,  4.043054336639575
 4.992526489411682, 12.276953340435742, 40.675656923940963,  3.762617425096201
 1.920692373701632, 14.357565431585760,  9.204665204887522,  4.179665894169445
10.482499883325412,  1.537340897509680, 79.840337720107300,  4.434636931676558
 4.824961504323871,  5.858257206646707, 11.701523606483905,  3.845999646224551
 8.738028676639239,  5.057648143316424, 11.862751924756472,  4.148013439378966
10.903633376845086,  1.505350043740265, 30.627722535645585,  4.044592400014980
 4.355727080570072,  9.821147143162065, 67.661963279258003,  3.731980382277577
 3.274060006043621,  3.653642649592570, 86.674145482095255,  4.366693806118087
 5.566048190332856, 10.519124146927371, 89.223838639261530,  4.039284574201560
 9.901591637578914,  9.423535026972337, 60.796797036990561,  3.978517889483207
14.838858625018824, 12.696802562570474, 63.478973931717363,  4.300937684836369
 3.551720945139908, 10.139173941000726,  4.777959668835255,  4.371913265114710
 8.727918543299388, 13.249132282403965, 31.482343349089717,  4.005394678056402
14.459026879461428,  9.027876691798573,  4.719284545559026,  4.139795232280384
 2.667317821503905,  6.529619079832826, 82.807581934337790,  3.771658323206750
 9.009815169780110,  1.371674673697695, 75.831841143593493,  4.108446049876044
13.723094404849382,  3.574829832137873, 72.263933568566671,  3.795516192149405
 6.772696326827985,  2.172585545483949, 18.795434656825275,  3.910870830135236
 1.345983597333739,  4.524154707657456, 10.507478179221257,  3.967540418254790
13.861784089054616, 10.726945104724782, 33.382241330446021,  3.950853093040846
 4.851876842951264, 11.601564000308992, 73.696623322429986,  3.947752100813769
11.550862707330285,  8.942693750865887, 90.961310354367782,  4.141698117642295
 7.973183062534252,  8.734213389700020, 49.859928571151869,  3.857837035700352
13.691907169127768, 11.306463306843037, 50.776110753145232,  3.977622098171392
 6.387805198821807,  6.147039467949778, 18.830216213914291,  4.057890907472910
 3.930003285408118, 14.218906526222158,  0.892550532639837,  4.113111008781151
10.437957353405956, 13.086703105433767, 72.925086791344725,  4.079773864534105
 4.686335846930220,  2.880674373882839, 39.444762108593622,  3.937266760565764
14.877172434399334,  8.164986577746863, 19.409921310101399,  3.926063028253800
 2.432203464078198,  7.497911605501822,  1.652352841228387,  4.103394363826848
12.465220014901504, 12.677950757337777, 29.839242795981502,  4.087617996694846
10.739869653252121,  0.333025042057151,  5.813061030232814,  4.501646563575242
 8.158757764419072,  5.542194275751823, 77.538973778005371,  4.018499719414625
 4.705932152849699, 12.916154289459920, 30.316253391899725,  3.812022872864411
14.194327076459350,  1.768591323653669,  3.920861116912695,  3.844405194768857
14.808664416190510,  6.950915292025634, 41.792162918711064,  3.836692021354132
 3.538220868424294,  2.619384708594008, 44.686203845526485,  3.996605773368854
14.123996011243584,  9.402575011151248, 13.423533324080168,  3.742750845832585
14.785873618198305,  6.267747300124459, 69.515204454921431,  3.854256628778740
 0.356052038235861,  6.191537277292476, 76.601651143089541,  3.885586550257106
10.184407837810818,  4.071613561046767, 18.805759577942073,  3.898326077321563
 1.150392945159020, 12.507018629143658, 39.259672112710120,  3.530700443277817
 1.416603923842539, 12.922029952267701, 27.975110494386122,  4.128445647250746
 2.861679718536685,  0.802973800703441, 24.450194838595479,  3.876598815962616
 0.717544110479364, 10.537537897347867,  8.606614117710533,  3.916900823595173
12.225158773627902,  3.203396555892578, 24.420569422958764,  3.918664179561922
11.389217149531394,  3.213336305374373, 86.756948738605416,  3.779165687455578
 9.419935608494880,  8.572308642757358, 43.301963407699517,  3.852166107346652
 5.857387663709093,  3.429794296616970, 35.662857915442437,  4.021942799066343
14.006812236081847,  9.974115349975081, 77.544965908884862,  4.320368532010269
 4.493311698748311,  2.759294587143514, 72.179472276133097,  4.046871500076561
 8.695640099740011, 14.181889794302759, 54.088051440769995,  4.029547144126961
14.467758248820042,  2.280648992320668,  7.806841482117632,  3.997212510399227
11.046393113854801,  0.876428565110245, 65.339853935671584,  4.090465608449677
 5.357875398275237, 13.569696673831148, 19.016369056180721,  3.857247284671013
 9.243058466573739, 12.445904231056932, 89.984818292028692,  4.328194367122492
 9.300482201349073, 14.289233895979683, 27.536551055010534,  4.228247070841988
 4.525695709773669, 11.120029584675635,  8.582072125152619,  3.721036733571166
 5.802402902414435,  6.708368095565076, 80.449138715849742,  3.501851141393503
10.290576481615226,  8.304917559715394,  4.326110825656299,  4.354694067565554
 4.951548034611721,  0.288920700783228, 75.517745120979384,  4.307566875913574
 7.880382319078711, 11.619951912337953, 86.059261174033395,  4.087788661722456
10.645071815280645,  8.182656701636475, 19.944109978638245,  4.153310318176999
10.286746432260497,  2.018234292927675, 72.159821026373180,  3.746358589474462
 8.476371495807076,  2.972164762762951, 92.582667206353264,  3.855507037136286
 0.862674985956988, 14.220385839950447, 59.721918031882268,  4.018806971286111
11.511624430624739, 10.343738818967687, 16.517133844490289,  4.112367360150605
14.138586038425489,  6.412587901214384, 37.954927528307870,  4.024540413738007
 5.516511412824626,  6.857228937616147, 65.529053774919888,  3.812414321991653
 0.458140663852233,  9.610713338778851, 66.790262329311972,  4.214397528414080
 6.609396327989762,  1.445060970505085, 29.977150514649910,  4.239598681477047
 3.345526941177792,  7.081491461114125, 59.329559525487134,  4.290316240562525
 9.746874567940745,  0.404131467262069, 16.889265107381508,  3.986773484540029
 6.196938628353518,  3.968281262225355, 59.142723956375534,  4.114860230877959
 8.251923359931356, 14.244904894331741, 58.048075679821487,  3.928323079072828
 4.714657326154969, 12.267386651975331, 56.928837772169878,  4.309819233031153
 1.141505747580585,  3.700122350326781,  1.153871273043979,  3.962308395501617
 0.677258139464885,  9.001392459570464, 92.101550659739360,  4.087088101532991
 1.224118608753794,  5.432855237207834, 52.974994413455889,  4.038841720062583
 0.659367805713522, 11.031575387205153, 16.680296145811571,  4.150930105391617
10.944433143054239,  8.714557367620978, 79.991744595869434,  3.885564512136745
 6.417471343113906,  8.564796318584660, 40.654328555017244,  4.133450541565695
 0.512547389936239, 10.760317556959476, 42.907414581863286,  3.869104195845384
 9.349688963874529,  6.933971754956852, 16.486918282262188,  3.640193343783415
14.214043460207213,  1.856643849429702, 62.060696155056263,  3.800660220491008
 9.808750122233443,  7.163563533402659,  8.470755990285719,  4.103567247383650
11.827802979743225, 11.404499781210399,  6.498616424938556,  3.773149627334653
10.826858946120279,  5.666826147694560, 61.868512745693636,  3.953371047415584
 0.815921828794953,  2.456667575160586, 38.668120098569020,  3.984829686592000
 9.243665856093481,  5.381033241856882, 81.459257936921261,  4.120581204195935
 1.002052699527850,  5.173494576625673,  5.066834287875441,  4.201319155472592
14.898683208037435,  3.203175918013515, 89.052792388542727,  3.970847130317080
 5.526539990974772,  8.127179738733860, 72.016931060779598,  3.856333205734341
 6.208907233213112,  8.097327512044957, 14.629243010990766,  4.009113709839686
 8.736293137950426, 10.237493396238202, 93.608049677891131,  3.990204943192333
 2.102776605903875,  3.056646566605519, 59.308863146223970,  4.124531554016016
 0.763130506159426, 14.358867087843818, 44.771382170978370,  4.233628740213456
12.488524387063727,  9.744844526406684, 70.073556701904494,  4.366359705257516
 2.720325144293774,  9.094336788318389, 27.114185380407616,  4.115353969053362
 9.144029266022018,  9.386663824263291, 72.415988183376342,  3.824842209076818
 6.393877402598182, 10.256967303615150, 25.775513163922817,  3.977836709117673
 2.813932411041331,  1.579451815378291, 20.335516032965906,  4.427421859172505
 0.134884507653974,  1.162046253413701, 65.950021189882548,  4.237573388039593
13.857851702731127,  8.532415513808287, 53.543457073582616,  3.866089071207717
 7.329060032163423, 14.113897055098020, 65.659412180299839,  4.159552931896654
 3.011309990546249,  5.580162323674031, 92.130209426613760,  3.740979875479734
 9.623901202914329,  9.384631049214674, 32.325218823129532,  4.040574743048704
 6.066074104915468,  0.348426165512914, 15.379124655454378,  3.959193218686981
11.205813866727953,  6.795071533521559, 84.970498606956710,  4.207065972936142
 0.401367718363626, 13.140986167971114,  5.383245680498686,  4.381027582516596
 4.020847663602029,  4.832717100864462, 55.816147254059381,  4.013682180862209
13.354391445465719,  0.357007850323315, 26.950144199429896,  3.996822480634162
 1.567340948067381,  6.128271224423546, 14.205509725014386,  4.088219861786028
 9.487459666205419,  1.081622124174462, 34.588503407520363,  4.351605138131871
 7.339168708028526,  0.139102150193348,  8.122980609679011,  3.726086372073329
12.736982452482829,  9.095443301907833,  1.010764097262393,  4.033448301945214
13.344676609479105, 14.997160848602919, 70.729124916548628,  4.063600312174859
 4.458734693307162,  4.526364559022491, 75.950169775081577,  4.258365233938874
 4.051412079718878, 11.833544274255392, 77.670483094895133,  4.050005255293397
 6.117750519659042,  9.019136482225488, 29.810094969780447,  4.463957974141807
10.647391399095360,  5.934231957769973, 70.940321778637369,  4.248254612570226
 9.241288846859220, 10.972602243418624, 67.296470070110104,  3.766429254310014
 9.688010347782290,  3.262351716687671, 27.336691870870471,  3.797671168383526
 5.863906563199061,  0.194947468580142, 86.356346737295567,  4.031725241455375
14.323073032115381,  7.170513958567109, 88.492983577818350,  4.036427683815888
13.665415178316213, 14.554977191470687, 17.827524963861670,  4.252820201594480
 9.321494854809755, 10.600110693078568, 57.031348544061046,  3.931288007102140
11.466721344245238,  6.942507056711245, 50.328693215935331,  4.046593930880444
 1.156048521372205, 13.081278856919948, 68.795150570073730,  3.755980530756399
13.857392924366479,  1.808900966441806, 12.091696983685081,  4.028385583656292
 9.395839577473451,  5.329871892457592, 22.594292241079859,  4.023719425157431
 6.184349774719666,  7.858933757787372, 22.541215887258748,  4.082240411669636
 7.660835312630909,  4.522597375692827, 41.850486035937770,  4.368474588543441
 1.735056864257158,  8.559829216424481, 36.020589554509570,  3.769363893873383
12.388553231456994, 14.880641856066331, 57.181472456465464,  3.922970838994289
 5.011588520648688, 10.379911623777769, 37.231919164780649,  4.096980286206819
 4.555881845299916,  9.875383408859236, 82.217665137738621,  3.984116381782386
 4.760618030559509,  1.719197114085265, 48.400257997981853,  3.739121229364628
 4.310355762242844, 10.056541926968237, 43.863374984917186,  4.088683262317241
14.102979456318634,  4.252410303932656, 19.638713152389318,  4.056267968069585
 3.704726684822498,  2.827403116921071,  7.567389072712073,  4.273074491561944
 1.938591459428482, 10.208904907826112, 30.942308304046890,  3.978667513154625
 5.656760104537653,  8.278311479222429, 85.713202207147887,  3.834679732512613
 9.778663619485593,  1.325670057966467, 21.755274208161484,  4.191208950314835
 6.917491681729725,  4.194343727722663, 15.355578278974090,  3.906347898373123
12.374148380272743,  3.544971689090874, 82.977258553555600,  3.746832553261875
 2.768454841033769,  5.762879690357152, 20.420721181816646,  3.875355797571685
12.764056432625781, 13.962748624576022,  9.394968185928368,  4.106653234977594
 0.928097983891826,  2.232121474577747, 47.627798873922409,  3.894133255831890
 4.891025656186783,  0.279900697313700, 59.583821838873284,  3.751979980069398
11.960020056567254,  0.105972090193511, 51.963089449713806,  3.971868304888047
10.380589309195347, 13.029835871350437, 39.917178286810895,  3.870473383070305
 7.699051274848515,  3.907400479835355,  7.255722989232670,  4.023087906053549
 2.228624742747605,  0.455824390585669, 56.208852196058750,  3.924720793687955
 2.687340969250104,  8.609863949366920, 63.479063761905870,  3.996515271012438
11.019712404249827,  1.330647283043578,  1.428734643402779,  4.271908970528118
 0.571680703165626, 11.826276461577240, 56.500851033671559,  4.026068892064713
 7.432038483950953, 10.048983301141895, 46.290797378736087,  3.817606123931563
 8.708148120983140,  8.289465617768647, 88.160434307537869,  3.943349104572893
 9.472227135056102,  4.584030960413767, 36.608096084638127,  3.730464463914961
 2.476330019595197, 14.786930166723627, 16.679071827816276,  3.759563650919759
 7.017007173658953,  0.589266133573977,  3.530453721665746,  4.181618327557316
12.976364251951098,  8.537683612638606, 44.713250770773911,  3.749725997459957
 2.635124828620932,  0.162664342165522, 41.301860197609415,  3.819461310705399
 0.353212335920773,  3.195741129524784, 42.472606639184846,  3.820758869224956
14.151396000271298, 11.466647898643412, 73.578290665748781,  4.113527403651450
13.170304941202895,  6.719384567192753, 22.814844845077335,  4.032035202660381
11.157475257046409, 10.396976155606632, 47.705964950989120,  4.177536378074096
 1.358609464219907, 13.315345942563912, 13.193529962240710,  4.125808314271678
 1.947976979934260,  4.536849181283139, 35.509098186371510,  3.911437547036149
 2.499991088453638, 12.108953823845647, 34.476361633283744,  4.112757449775349
 7.053275427500887,  4.845727537713025, 32.175773260647674,  3.867503838770737
 1.519910092018913, 14.667589820464526, 31.519923343988516,  3.771432092945052
 2.500592369062991,  1.670333745713480, 91.773969263170500,  4.161996925864748
 9.003124230392622,  9.986026639529598, 37.863186698059941,  3.971943679986159
 2.381178975901927, 13.344818518783617, 82.312210619554165,  3.973389854401141
14.882230145959090,  5.861401511453548, 61.441594144082615,  4.180871115569563
 4.999852193815506,  7.073899959811437, 52.206778620597589,  4.325389875091051
 5.480389190249986, 14.864635607572362, 33.717074802947153,  4.145579384838135
14.127702120185130,  2.330606815502788, 54.535293797719071,  4.087911945844683
 7.586500283245829,  3.274741516286854, 69.354179509487409,  4.393882550016232
 2.319059414572816, 13.793086000352902, 49.010210755343302,  4.001946788764799
10.103404162875663,  8.669490897400307, 53.561413793393427,  3.629876088002286
