BANDS
8 8
NANOPARTICLES
cell(1), 15.018
cell(2), 15.018
cell(3), 93.865
 3.754453850077140, 10.419665085880490, 61.086350299197242,  4.072923127861853
12.329056536702955,  0.759989175695847, 90.098260814459707,  3.931295167309083
14.237444982557625,  9.440852084827776, 47.439763389967446,  3.961526785312814
14.000551382555347, 12.821536818245837, 79.365434820466277,  3.884724952076085
 9.596709910190402, 11.391294459747934, 58.947858529922748,  4.108212577675047
12.004295650138628,  7.799960498908464, 21.168397679567963,  3.885686061210553
 3.411978938351469,  3.820364029852570, 10.723003700269150,  3.893632985012279
 0.840959951940953,  0.975959098626228, 64.285623837402241,  4.053492564081631
 0.372001626079246,  3.115500935883606, 90.185341623204280,  3.785708401246751
 8.016488727178226,  6.272765243570695, 41.995782520194190,  4.039746349296462
 4.275908760341320,  1.362178192910350, 45.831132525686847,  3.884330632202138
10.396930546302892,  7.885488519118183, 17.461413815712607,  4.081945384703251
 9.170229863762662, 11.468293016166076,  7.467189286179881,  3.939258409367752
 6.199950517014164,  6.158283384975881, 38.438376909773503,  3.928321074965087
 9.674818168653543,  8.779712108644958, 44.720103914979390,  4.063318725255999
 2.156091785129495,  6.795210691585064, 47.871055365587239,  3.971335527874369
 9.278274637262149,  2.598456467268617, 53.228173019085055,  3.832832589047166
 1.680180873155502,  8.449214441087047,  5.896602971996035,  4.438162125857824
 4.157479688829092, 10.905317746478470, 46.235268837341856,  4.072463249896031
 5.874588726551561,  0.726911676636181, 52.139993156502150,  4.210038332581873
 2.236587163007740, 13.650777760947303, 30.811113684349476,  4.217319856325437
 7.633591696041402,  3.892067881992281,  4.778867762622296,  4.018859552320873
 2.542551774552919,  7.533319392813200,  9.874436019243440,  3.904018270195795
 8.104242977141867,  5.383738115358335, 80.385375247527435,  3.730890165577871
 1.514810695172019,  2.919934676937612, 17.801136658616720,  4.079856349652640
12.616807123318138, 11.372939923773393, 18.561204874042275,  4.317771246199318
 5.320464995421541, 14.800345022607869, 42.610021749376394,  3.575093211854959
11.668322337623323,  8.943356593777478, 70.265038648989190,  4.058034266610713
12.839802672987579,  3.317845467064769, 65.510197496542602,  3.965018374966014
 0.554907368895005,  8.033066622934408, 70.618986599073438,  3.944486656676622
 5.942052880152641, 13.068085216992852, 58.983938185578026,  3.896662446959505
10.832993544331835,  8.886388182113077, 84.924578511112031,  3.908794090261695
 0.176375246433319,  5.540421250722364, 12.607230477215181,  4.341674239317366
 0.273768779029182, 10.472291978898156, 36.715011236788399,  3.765559216700118
 2.517224157938386, 13.261782898512642, 34.978458463726319,  4.165180644828847
 5.721727596874094,  5.048823345958280, 47.989911398800515,  3.965228206451864
 3.737203948872855, 13.615925917825265, 12.331657913610901,  4.054186627179453
 2.786374390615692,  2.832108796668046, 83.705379175319038,  3.863147821838670
 2.186112267278697, 10.969600227687959, 25.815153178464087,  3.831002209453086
 9.848706025872108,  7.547124421004987, 32.149753294830106,  4.170574689423334
 4.104226947211638,  9.962902888067804, 57.226847496708977,  3.665639560308313
13.495058115448783,  1.856311870137559, 52.034747464842859,  4.062867498539406
 8.226502872302103,  5.807377908931258, 20.620654332970293,  4.052218660204761
 1.831039184375646,  5.669956176728640, 52.051345074907779,  3.900891886052083
 9.026426621195059,  3.068860649900535, 74.713874414704904,  3.945014028990793
 4.015080652244913,  7.277404147415233, 41.514809624802631,  3.903651693258140
12.169704865559639,  9.112407662234464, 26.733895569460760,  4.229955827321086
 6.366389708505429, 10.105005011900145, 86.760328133513440,  4.015115212310790
14.684101140754112,  8.880535479114263, 66.862770688330698,  3.928675206328500
 7.840184508300893,  3.582849503619647, 35.307554690233893,  3.790943130075161
 6.558449666469158,  0.500420882778922, 76.212029556698596,  3.765955807382676
14.452896822425197, 11.908059130426002, 90.545890790635752,  4.165989576643792
14.234522429614497,  0.263604131997264, 33.223617620940722,  4.139979972403996
14.021765007840278,  3.392100792481974, 84.344819857559784,  3.770364174336075
 4.551290249649317,  7.901128720037038, 26.741043347206741,  4.094250472933227
 9.559804994209864, 14.362242989753261, 51.025318406596526,  3.839396037710791
 8.275154983855025,  8.480125934975991, 14.241791528192843,  3.678521546636057
 6.025864452852630, 11.630172774256888, 26.035369386761666,  3.972564894011539
11.970240525556825,  3.924315623911229, 72.339858421822228,  3.796690175822496
11.386036809438369,  4.881876348147416, 28.376614096692730,  4.129217609628893
 4.446876933104039, 13.322661163722527, 55.250318678313064,  4.154542556395293
13.989579174915063, 12.415164799086840, 86.689312307192580,  3.660730457185484
12.761770176150511, 12.540896199962720,  0.390727062369329,  4.062382756045587
 9.858299539802713,  4.200136083564155, 49.765096774205361,  3.853077386353998
 0.305991770131410,  3.531433484443814,  4.692919456783402,  4.074718125552410
 4.482089516006949,  8.198988327596480, 50.638242441351949,  3.759541169979200
14.792315747814190,  7.205124364887729, 83.951926194521533,  4.039301532894986
 5.097382435925480,  9.928569385414301, 81.704693796960299,  3.762096848435614
 2.383057508424921,  0.020379378993345, 26.739365712476644,  4.383828386480003
 5.829639267599643,  1.586301690218117, 29.452053741310490,  3.967602087025853
12.616103149316904,  9.546325560506052, 81.322550971634683,  4.228377734199626
 2.529525754324824, 10.116959452805160, 53.509344074723685,  4.080132377861238
11.581831819402646,  9.523744649549300, 92.008945247342325,  3.812726783470647
 5.564121970466033,  4.725544637648664, 51.866974436584179,  3.807966873996262
 3.222301377824244,  9.086114311554077, 34.343328628104025,  4.283645094978824
13.171525451761255,  5.594654617423798, 24.721278020516241,  4.094848948414608
 8.605181260537789,  0.135872081384850, 84.731444242384498,  3.775495283494857
 9.232270363662284,  0.149936890607871,  5.461276924847042,  4.191317592843890
 0.660407352573387,  7.195252587779914, 27.335072162219962,  3.824222801877924
 3.875515131036210, 10.594017175845266,  2.902583487347544,  4.055417234928075
 8.264081264915513,  5.224896445699240, 11.476597446241449,  4.013337748117798
13.961933173764084,  6.779099797145953, 90.465552334449171,  4.077892129708134
12.066234996844459,  9.409075010791362, 88.386703402161373,  3.499187597739501
 9.934621546575283, 12.533711939414269, 26.004624886021308,  4.047388435645751
 4.375983936090464,  5.765425535255069, 81.531221968735622,  4.086419710895618
11.937417308339629, 12.318775730311183, 10.353111198853739,  4.212572916466300
 3.015887112590756,  2.562226211960938, 49.726199094427436,  4.119447065361703
14.329203480139267,  2.107334051563786, 39.629558274542575,  3.811896083151054
 0.549661653547715,  9.143333004068769, 93.153803900662709,  3.712297945363610
 5.618610224671508,  4.725312308213645, 85.714089331109392,  4.036463055753321
 0.401223545642829, 12.998574302269763, 61.353225064781476,  4.362996064182052
12.744911418994331,  0.752079106556917,  2.980025759236847,  4.194776243148407
14.260391280315655,  3.740292953383531, 75.476077671201281,  3.977537037420442
13.362945554852704,  1.194580479905157, 19.768071700019053,  4.015227960331389
14.887659034438350,  5.084196955407688,  8.373558711422550,  3.939959120406195
10.883097805054305,  3.838724152500906, 39.968543866290666,  3.930637732034667
10.137707826016999,  2.221279665999714, 13.330606155042839,  3.744504906143677
11.424849600562633, 10.865936985954443, 30.355142924429757,  3.952751399419092
 9.370810335138509,  8.106984597770380,  4.380218449994247,  4.191850639775689
11.907558241900118,  4.150427555866672, 10.645289096645449,  3.751465927745849
 3.802835678711457,  6.216503541119270, 20.353003098361963,  4.107964622061553
 8.324859002572147,  9.578612632148529, 38.506212690608130,  4.111897865800063
 0.763985301028831,  9.028465333245579, 87.521926159453315,  4.157946007397041
 6.430114731143652,  0.942339506727150, 25.390482219528206,  4.343585424756175
 9.269164152416904,  9.324377985923876, 10.715527858243757,  3.839634017058539
 0.372626225992105,  0.639957554547740, 23.111471885328982,  3.869458318799838
 1.910872234465721, 11.079193063386644, 72.841213216267462,  4.052957724841108
 7.684016250573033, 11.804494060944805, 76.941459158121646,  4.120848033017639
 4.258343590459672,  5.187485044523672, 35.117122329964246,  3.883789772485703
 7.230130917533499,  2.296025641379644, 39.107434581931258,  4.171622787489296
13.460141953241042,  9.889821138806521, 59.155302421850571,  4.091189596511260
11.294768990115752, 11.407747550832562, 22.523956254689722,  3.750364835200996
 1.583224423201979,  4.060850668727999, 57.963993716954384,  3.544257934200533
 2.506050962981506,  7.243950381406608, 37.886097478366260,  3.825947115833731
 3.656593807250521, 14.724931967712431, 16.221301735507453,  4.022087897242806
11.604741909674939, 10.594334297040861, 14.166322809487422,  4.173773946141003
 7.923307502570355,  4.836713756607406, 15.507251475310758,  4.044030010714712
 4.744003902157435,  1.410797737906428, 36.068963826592288,  3.871340003559022
 0.355051250132739,  8.973137659946330, 62.488502148216149,  3.808732741718507
11.038682076887689, 11.832312104763874,  3.972114267625929,  3.952611896808784
 1.524996021883620,  8.526897429378959, 44.317835666224951,  3.990797592667702
 9.497023460033521,  3.793634456572899, 24.838388086503855,  4.064499289698753
 6.273284036019064,  7.973622121463326, 17.555635386955942,  4.123000274125983
 6.457891876559713, 13.448030025979504, 73.072770674995169,  3.703960869966977
11.074888921186336,  4.338222394555772,  3.068946002208413,  3.717752166121444
11.251432601086684, 14.321614486362705, 15.322195614215095,  3.659546525401695
 7.765793084201532,  0.770570296043557, 56.331211890800866,  3.972740984690513
13.890277017245044,  5.666182882237733, 37.802137719106220,  4.007263657187127
 6.144136427981511, 14.195499258126224, 79.773560821769607,  3.859760645773901
 1.995528358458796,  0.164226132938906,  3.237197143967509,  3.999402125417749
 8.239444744769045,  9.005090531504463, 28.444485365607999,  4.284053796207854
 8.048645009453102, 11.983542282874161, 62.677358503169039,  3.998897196593632
 5.892515381935458, 14.401546253882504, 32.832777081046679,  4.100862317658651
 3.475595025311736,  2.041995268828456, 93.793939600693662,  4.157845027983509
 5.217038023449872,  9.222766306688772, 23.056136969224529,  3.829482215916484
 5.969023263766542, 14.425860119909311, 19.475273878837985,  3.826612818764070
 2.320358216682042,  7.268945530257283, 73.978036446677791,  3.796593875047682
 7.525724414708360, 13.292707742230638, 45.511830183837851,  4.303490564607850
 8.403580265726019,  1.802425734585387, 88.369597156467961,  4.167629224086054
 7.417842818780078,  1.395112233442290, 48.349284052573495,  4.081339808526435
 7.178892509257343,  1.093497661901887, 92.257082736200360,  4.067931747841985
 2.343604186653279,  7.065322005876319,  2.096171669541428,  3.735023064850184
10.125116076940364, 11.590970730035592, 41.614583781007745,  3.870898327949786
 0.546219624468053,  5.589877024275755, 33.189328740428159,  4.110276259416215
 7.948813877458393,  4.279998388385521, 69.653247162473093,  3.973000297359337
 1.514468032469207,  5.067424984274509, 86.963326571828176,  3.979577745402727
14.209122438752296, 14.161889786861172, 37.133168126337985,  3.934415091661745
 8.470006657911110, 14.720644928762196, 36.074783406331576,  4.184980829215117
10.881641851133107, 11.712211875307986, 34.365799022944998,  4.230133355421184
 1.853908828408981, 14.423637900305751, 19.684519030958821,  3.794306571257796
 8.638852066608841,  9.256697109172405, 80.078477137003958,  4.110773750509587
13.158094237331310,  2.931984785612083, 15.517480128345051,  3.840353540134137
14.152350901115923,  0.706933028772571, 72.500978611334133,  3.963985140030460
 1.648612152718717,  0.509127340845057,  9.435725955829261,  4.034514341056211
 5.775033140305945,  7.204944784188679, 31.364490275645466,  4.135002171780145
 8.988554950413571, 10.432374519432972,  0.901213978148547,  3.926352820174778
 7.699168299983891, 13.116062184947637, 29.298951935332244,  3.940238642484132
 0.490363037680517,  8.404994572952610, 19.473533788981875,  3.962828179437738
 9.892139534387528, 14.321383040824138, 19.599361203286836,  3.883269193603275
 8.284943669854854, 12.048587856117706, 55.225091027472743,  3.885604096500774
 0.939622066472134,  4.244807747143588, 71.810531025181561,  4.029590652519898
11.110567783948310,  1.708022348188296, 68.911267976280456,  4.311951717698673
13.334985406507830,  5.723632434822845, 58.893486515098836,  3.989634783367957
 3.031454007590784, 14.846592287378492, 71.654703533416409,  4.126033567831525
 2.033115699089223, 11.031370433735285, 49.660371694171879,  3.863739751860496
 7.821211701586061, 13.186954147603917, 22.698714581034505,  3.871917320624891
 0.823672695297797, 11.103011310204861,  9.682978187326569,  4.019945806841434
12.857746071097907,  8.109357306971008, 34.826379490442910,  3.960889615127698
10.616488620771479, 10.559456010001442, 52.184798955139890,  4.315041571357485
 5.423877705009483,  3.609174357294146, 78.247006718054621,  3.981517848966167
 1.261146601930669,  1.580436366418410, 13.505689185241135,  4.041205330372552
 2.459917060552165, 11.168916119178260, 65.008206616491378,  4.084732156309066
 1.582707704907055,  8.607756398183392, 80.567705493969541,  4.082714592671259
 7.174289986622658,  0.454560708397882, 68.957104125035997,  3.935532360724992
 0.294034770323696,  2.439390544470275, 46.533307140357969,  4.263948383222043
 9.831922807312845,  0.894111267657539,  9.571828496573353,  4.243505077006883
10.215489399212670,  6.554997072953595,  8.089603177830821,  3.975959603660780
14.162707201705141, 12.082758643574683, 53.326948332850755,  3.730892331374179
 3.285995452540346,  4.756512979932141, 29.115043843696938,  4.171492434806850
 5.752345529921465,  3.309865024565190, 42.536412387295911,  3.483781760839994
 4.945957801945921,  5.330397762518008, 59.155119632620199,  4.016458448478174
13.148773480847225, 10.259104542560603, 43.538672218183493,  3.754313605769034
 4.323216269700187,  3.385847480103164, 15.094347100878050,  3.745790261530992
 4.130176990494069,  1.172529961354456,  6.293484522696752,  3.707556156886664
 3.599288037840675,  8.048748028841757, 84.757651078887946,  3.950197264998495
 3.914675941219966,  3.911604474833750,  3.324219374852833,  3.631603098568443
14.447801071946602,  8.074626611307314, 55.502118862672766,  4.277807498289057
 1.446732088609597,  7.799979783673461, 23.422988942442149,  4.246273277884237
 6.308545531513995,  7.046416492243688,  8.501594230743473,  3.940984907724297
 6.050786669348012, 12.576095895241762, 93.481394580432521,  3.707911752591059
 2.808893940298782, 12.248187538059984, 79.563632536474856,  3.849665796096211
14.783451632238334,  2.905099910923114, 30.118531107509913,  4.030768990455026
 0.439934844856394, 14.671683612389092, 76.151010351748837,  4.054342739496343
 4.003319702260336,  3.114185883345532, 69.085474045563373,  4.327125130044106
 1.848246432943490, 12.682998411720702,  0.119640522695210,  3.997224485528168
12.347144206910130,  7.177670358343716, 64.210199907889418,  3.899297334579873
 7.109964081704722,  5.055384571604447, 90.945055237970990,  4.245468639363746
 0.230038727338322, 11.618274558313280, 22.047336987401586,  4.221452650543719
12.406505979828335,  5.843357743647675, 86.854385276812053,  3.949648724608393
10.049642312011224,  6.276332507089103, 36.993409483285681,  3.929870157233954
13.437226528898679, 12.211521718278256, 73.994602458941827,  3.635887456467078
14.745403870711350, 11.104399323746796, 32.865004625977953,  4.000546969868795
13.984552798897941,  7.549272186748665, 78.039650214194111,  3.493509766991925
 8.109949384363201,  3.990345442248971, 31.530681079139224,  3.813862804540273
12.998983327246172, 10.192471839244670,  7.013945917695671,  3.975658129968298
 7.893473934612808,  1.964194561910490, 21.667010835337091,  3.898547187807717
11.972677269214255,  0.053546863561928, 62.905192705763504,  4.129029950802111
 7.116289922007303, 13.266567996670961, 39.658605662805073,  3.981133477653598
14.146771471992496, 13.208973349494540, 41.095234537866574,  4.006407704679908
 9.768800191902267, 13.023778674868824, 91.508473673945417,  4.091947689247100
14.963955718606224,  0.535925521506614, 55.484284054695948,  3.661392380000747
11.523261389587574,  1.057386650335804, 47.833405113858177,  4.204301756111485
 8.230000383278762,  7.389539372740463, 51.185275394420970,  3.851376588808125
 9.961199522653068, 12.519103161467742, 87.395837509986848,  4.136982587041838
 6.560503566167368,  3.105109889377327,  8.518941783837887,  3.919061213250205
 3.787807948897213,  6.950630535216729, 63.433054569927982,  4.301985586517506
 0.364173004244056,  4.308803423865694, 21.444167021868157,  4.039825855734267
13.522147314337843, 14.327516005800273,  6.919693172913317,  4.337977921271963
 8.418139382948866, 11.587846308355493, 16.851526268452620,  4.388544100347923
 5.760212250819893,  7.517554754955412, 44.974666104757752,  3.828523168969338
12.712259313557997,  8.713011090682294,  1.954839092490377,  4.117588992121190
 7.650129974288405,  8.338645886037176, 69.107356001194447,  4.091449714873622
 6.208623572072683,  2.069209724611644, 72.301773412203886,  3.728485810600197
 5.381211058175826, 10.224578559452079, 10.777635881060800,  4.093956635546268
 2.695674966746476, 12.093974274806079, 42.679523961075489,  3.957950585228994
11.030397347787313,  5.066972408687841, 77.681292392081602,  4.247960545148179
 0.975725876852603,  0.962677529882246, 86.841229934242421,  4.224822608348468
 6.018205553018736, 11.577679262890644, 35.864970835001230,  3.798225267068000
10.331894828751132,  7.749135245773836, 60.750959696254760,  4.133696343523731
12.920589782293037, 12.726959866070096, 70.276151141339554,  3.896662330651539
11.779344859334277,  2.425757243798584, 36.141449685337328,  4.387796188226678
 2.386301896789617,  1.181724959637959, 79.391548171119737,  4.094238058100431
11.830312486236121, 10.957767211966123, 55.885262295434330,  3.512484908968852
13.581166715315767,  1.932001072191510, 26.420861471814568,  3.979599827232888
14.860491090563539, 12.838213124763493, 13.168768105772768,  3.966788958607562
 3.181233479408418,  2.552693805578639, 74.902989280953861,  4.305777588058811
 1.951617251264542,  4.010142368577392, 25.224807264899024,  4.178589908294910
10.439956849182547,  9.926931306461153, 66.467955168037193,  4.162107178153895
 9.928373629219365,  1.114706190736651, 27.834173054066579,  4.012826030507049
 2.826501318156381,  5.930864873653526, 92.037105713915295,  4.459177110037475
12.033409802864075,  0.761817591568727, 86.226465362598759,  3.801354363196881
 0.544541986202078,  9.475634457609150, 40.507226332097432,  4.056285823760373
 0.078761987197637,  5.561683839884986, 41.717594592577143,  4.181409684270562
 2.330152311263073, 12.919957279289022,  6.575062699603778,  3.777660388392224
11.607966891534856,  5.947723642273527, 53.043024785638949,  4.334343213523084
 3.012089140060834, 12.411344532691881, 86.958065107057621,  3.995835023082546
 3.476192317820876,  4.858047771211047,  6.914234594173358,  3.844209301865645
13.091660977293190,  5.418022071025848, 68.908626293949226,  4.007411598458824
 8.935362551395002,  1.174495249977275, 42.741037989159182,  4.156572538716078
 3.783478313431193, 14.457439731720219, 67.041272274060006,  4.080199364898747
 8.756441117607610,  4.539990341116063, 59.007582844197174,  3.741506507639281
 2.054243871498513,  8.150074767800367, 30.668740695475602,  3.645127175265461
 1.743612464637360,  7.634081713703534, 59.112696695362793,  3.845441976683041
13.387742471112670,  1.841811825764501, 78.933246551072443,  4.097080142233070
 4.348728881051025, 13.973654062584846, 48.832257675856496,  3.775389861345846
 1.618652179234855,  1.030928241096196, 42.749550330521274,  4.231679044694665
 5.416245752176998,  7.184801742458143,  4.478146321258346,  3.928327155243281
 5.869372696718520,  7.884522344872487,  0.522665889524918,  4.154886166147498
 6.172550026018573,  5.743198593895371, 66.545759710028904,  3.745882460625252
10.100062448445682, 14.850870679706441, 72.540119078680291,  4.099851783531977
 3.589528282228629,  8.432585226401525, 67.892633412499265,  4.180241288138180
 5.172892085828398, 11.318798764702896, 70.209272253176252,  3.853279281565008
 4.087125107054922, 13.505413250216147, 83.056877142376464,  3.998896021488492
 9.520420542718233, 13.956916541623041, 66.044174119499814,  4.132017945574934
 0.551681798631759,  4.570170479498838, 80.985706171156295,  3.982936353234386
 9.803738793986007, 10.763479394889423, 73.494226873356880,  4.229227203803453
14.293947336533574,  1.884068110250033, 60.060780453170032,  4.054569891051516
13.046016119252325,  8.429122133602634, 10.548718614369959,  3.830965524945715
13.669361408089749, 12.880399352246947, 66.170890448890589,  4.436734187269239
 7.661943833703097,  0.706495319515840, 16.014245991692782,  4.161227261125549
 9.131004847887560,  4.268578509439913, 45.692081588705882,  4.364949938863899
11.306049818787315, 14.379155635421165, 76.436311118403367,  4.070753260212807
 5.980074892716081,  5.539061160470395, 74.785699959474243,  3.879275439981048
 3.167259360876662,  3.544270911728096, 39.554434564870974,  4.369210005127738
 7.089016752770730,  7.953925144459964, 35.076689503842331,  3.859498667029381
 8.277218874042083, 12.909013915683270, 12.619766418839506,  4.474746347821227
 6.847742550282144,  4.630306579967881, 55.608287293162789,  4.054772892429734
 8.882530819991272,  1.870614061570282, 79.005229617427503,  3.893214620212010
 2.474333562680282, 14.722164931281201, 90.525039588427177,  4.112243220058697
 0.919400344384098, 11.935886354739154, 56.714728460673875,  3.890033241133109
 1.047262744590609, 11.012087827069228, 83.775679048532666,  3.988405590313429
 9.878090317778888,  6.058860673166918, 66.861928875254051,  3.679608689308600
 7.405191309029070, 10.730542090207285, 32.384452730272592,  3.866187512427437
 6.489789025175156,  2.326328135616426, 82.227097439413299,  4.102669254174288
 4.048035196147420,  3.095366234933875, 89.203954688261703,  3.813842223919826
 7.411516058141908,  9.391000627355421, 47.969229690486195,  3.898767315565103
11.941802912669809, 10.948286487133636, 62.784803199794240,  4.050421299931596
11.809730316942606, 13.808129013460258, 44.402320027096792,  4.005006711521379
 3.027842765116133,  2.684974659435901, 61.233962343578568,  3.705209286224465
 0.190500363152525,  5.038386912304102, 62.452391674521934,  4.058768151526408
11.342028817917607,  1.455191826563136, 82.362929548466099,  3.920302355864706
14.831358703249851, 14.681055244253814, 16.540425043298178,  3.684275451632735
 5.996128041570531,  0.674799625850413,  2.904528454164627,  4.085829663930490
13.097299980855924,  6.055803998020662, 45.403058602777840,  4.256705622084755
12.790563826108146, 13.721679557090308, 58.195410226721812,  3.908597813536893
14.240646752746736,  4.908290925226129,  0.565512835810359,  4.421705732363508
11.543011840383972,  4.077110146006972, 21.548668702839116,  3.655018897469886
 5.384646679761476, 10.489744903755312,  6.710907502311931,  4.022418684974504
 1.554730388769027,  9.341266985908522, 13.141123013300730,  3.814597065573610
 8.357236607669897,  2.707686287006631, 66.058948825750349,  3.733584594972164
 7.268947999510468, 12.157321741557816,  3.794472593806671,  3.616836832732716
13.259417190672636, 14.266095159164397, 29.388772370288404,  4.008219734089893
 8.533176083568526,  7.941695100020211, 76.342575394426675,  3.791910246265296
13.427543781080162,  7.575875619714274, 30.440622897046985,  3.747006303128251
 3.263493988267291,  6.508956009832085, 55.640276072021777,  3.992206484844997
11.813201509884030,  3.135895935280299,  6.705090964452913,  4.029129129667030
 0.021133503366187, 11.675855179069336,  3.649152100758089,  4.073342008825561
 8.595441565285670,  6.838541774354018, 87.479581282604897,  3.990744903011563
 6.127429247651483, 13.917817996144695,  8.934354115951811,  4.264201892867893
 5.694988245059410,  9.574994885057921, 73.904941787581976,  4.362670426610136
 4.828563189538770,  6.511643796099906, 71.203285165027665,  3.822915760682200
14.138112707541161,  7.932177696481984, 15.827338536781697,  3.883091627904167
11.338821882942080, 14.514041864013288, 54.558255342385458,  4.074698114127929
13.159684187373273,  7.664890950417790, 74.098862486846954,  4.554496669454757
11.884400235333629, 12.785758772504519, 83.670096336042747,  3.725796196879207
 6.791725735318089,  8.693913520840475, 59.375978281962745,  3.668912602990885
 9.352658272193235, 14.239412839069240,  1.434485517339174,  3.790117630200929
 8.156455681337565,  0.788218110212372, 62.887699064922288,  3.641638717064687
10.028994328612978, 13.168341460211188, 80.175667713315605,  4.186074382248112
 2.094503578323972,  5.612827050662672, 77.485149987571063,  3.934973471396686
 4.021072664414112, 10.924424390950627, 19.682164158655183,  4.088081560180590
 3.870279566865807,  2.070165830986541, 21.826088248503083,  4.108922176526574
 4.329861044983584,  2.796154813639696, 64.950554325633917,  3.902712166356679
 0.973804784485033,  2.669560267343217, 36.044937746814313,  4.046531225859117
 7.475120239525481,  7.508326157395919, 83.497974677347656,  3.873483970972962
13.895664939385833, 13.029349049982239, 25.650610921472964,  3.966554417069371
 1.329815982490636, 11.112528618546126, 16.649699988148210,  4.022910621373931
 7.002144186374439,  4.442999433117090, 62.509562010131027,  4.039783545297819
 8.271770785379246,  9.838100549602125, 20.666493321216532,  3.996594685327958
 9.637269845762757,  7.680944674894312, 56.537150774108312,  4.397217917629021
 7.638121527110431,  9.391392983955468, 90.743354297900950,  4.464270792390957
 0.300152975282035,  1.067517273856385, 68.573625722857201,  4.189047010290630
14.014305492616561, 13.629489156541627, 49.853107864377790,  3.776921674563448
 4.193265829864034, 10.566912018828932, 39.174443173543857,  4.013367723501573
10.054022417550692,  0.319062754488088, 32.039189942473719,  4.533408776092048
 9.507647548690612,  3.905360179706969, 84.896923325915608,  3.976411142265477
 4.449504557907166, 14.236012382861874, 62.810054508226031,  4.408404231872105
13.332351348931955,  0.816765588666279, 11.257048350792441,  3.525550893177419
14.746770890525406,  4.170238413822353, 54.874844704711215,  3.651773247281764
 6.800080985243812,  4.059024477260139,  0.973348360916943,  3.766154932411126
10.003416998386843,  1.004095390490735, 59.578681113811669,  3.823261308300026
11.727751481469678,  5.474475926497163, 81.887012567517672,  4.112919132792482
11.285490263886263,  6.164518855375761, 13.840314028236925,  3.884845565693057
 6.410656012169733, 10.555996232420602, 42.553513738594866,  4.045017860699411
 0.029904703357806, 10.806346586583162, 28.973405229292592,  3.798196624031263
14.672232220619506,  0.880480113342583, 93.240029678592052,  3.906288190723635
 2.969787946451679,  4.821141092027125, 44.503680427587575,  3.969838376315150
11.426089048688064,  3.077845269574788, 56.518100588777038,  4.065991881919385
 9.795096183677154,  6.484560225119043,  0.017779824010049,  4.163858778423557
 6.523057398485355, 11.627074165749285, 51.281021083742282,  4.273686971148888
10.197704664114223,  2.975832001816546, 18.196331353254951,  3.881111344316940
 9.182602040448883,  6.718861872997935, 72.639967382309266,  4.108028622136028
 6.235216682346922, 13.329166165777782, 89.331415815857596,  4.210184219158265
 3.918849286672063, 12.751191955935848, 75.877862691037961,  3.909985666093966
 6.265271443833153,  8.786343407277673, 54.287110322222148,  4.000171690548885
 0.133533971261140, 14.904916727792603, 82.695568358799477,  4.289398163265117
10.875020115192923,  7.687492732500607, 48.387458250605654,  3.846032865652262
 3.047290337955245,  2.374760637891370, 32.516920299268619,  4.141331238147133
 9.084130007952810, 12.069426153812502, 69.669029660521659,  3.975111334742068
 1.555730531566810, 11.746643926440196, 68.933129381069151,  3.859414793461527
 2.830609120841461, 14.380680279033715, 39.059687569582586,  4.070643519589080
 3.384333232624018, 10.406679037326061, 90.600355089779853,  4.268556293398833
 5.899139502637465,  3.290273639434971, 18.582137799901457,  3.910386586249620
 7.754592819346698,  8.154997178604594, 63.918966117116767,  4.042260509219926
 5.057988226205031,  0.757856029856720, 86.226940024851785,  4.012669133854808
13.172104351695840,  5.339493423245031, 18.432962415895975,  3.695579855033643
 5.733445070744796,  5.164457031104094, 23.870401300256031,  4.175436956189857
 1.355049663328185,  5.167981707717781, 66.435603941864684,  4.208594100317947
 4.879342114850757,  8.520268303621778, 77.964420902597141,  4.136517533897604
 6.303358976993542,  1.760255422282996, 59.748827690853481,  3.709239297287551
 8.914942107491813,  7.906937692678655, 24.276353023877892,  4.259852845051269
10.931717971855367,  4.349343036081886, 90.071365891526554,  3.715424770682349
11.909255218763368, 11.227641859320968, 38.225217112355743,  3.779704136706891
 3.890972191872328, 13.209004463300094, 23.062886201682566,  3.997441958399938
13.783407241471474,  5.084118592678696, 49.465848992493299,  4.201922847081343
 8.208181228076976, 11.471265011807901, 83.461566949896195,  4.018518802189702
 7.180390096675496,  5.039472259856681, 27.893829875766009,  3.979747260171181
12.778649160383710,  2.518616734919860, 43.235336975793963,  4.045446063218732
 0.716593050814226, 10.556504899531497, 76.672326456083965,  3.936247124522917
14.323971982791983,  8.707644794868015, 51.379228533683730,  4.052733269660305
11.643949423578324,  7.887002593932794, 40.577571276696844,  4.392127425896647
 6.406358180489571,  1.703857738389603, 12.240580686360065,  4.034327221367697
12.998338917779829,  6.663132916315982,  5.348551726500370,  3.827412200872316
 4.853422792051627,  6.832868815791939, 13.147048825960026,  4.225805979361805
 2.677397752281923,  6.512018906221195, 16.534223756488988,  3.829391519606054
 3.251566933312709,  2.493418348511890, 54.854339824313854,  4.104243950199439
10.883508906641040,  2.410175447584099, 93.493744314211440,  4.148896414244036
10.815942117712918, 11.814184922992892, 47.989326583081407,  4.438419339221597
10.896325151302955, 14.873966907081662, 39.392171382627595,  4.037397931359955
 1.913773929215362, 14.601953498777981, 52.283180622458090,  4.026696199327600
 0.579503465652735, 13.160759089294437, 46.114495540739242,  4.379984190758386
 4.424729727609206,  7.197154265327810, 88.452029779205702,  3.709577779535919
11.853378125891906,  4.116748275889322, 32.418897014358734,  3.782267181362160
11.316181651645874,  3.948138374335569, 61.868242155393524,  4.026505174515717
 4.681649466132273, 10.641934888613486, 29.630241773516040,  3.868945957828907
 6.394715698786999, 11.195623348846681, 66.361872669831783,  4.207005893376702
 4.871594288869304, 10.623174773359050, 14.793677229637993,  4.017314162690999
11.543387813352469, 10.386031108641149, 77.310834575296610,  4.110498023508639
 2.549817566634289,  0.166990018656100, 58.335449357450265,  3.976893164594105
11.316397308033649,  0.359722624736828, 23.289768093158525,  4.288129817535695
