BANDS
8 8
NANOPARTICLES
cell(1), 15.037
cell(2), 15.037
cell(3), 93.983
 4.116279161598261,  5.310981358837399, 42.554106156796053,  3.950038240795516
 4.535002185304412, 13.831372885462038, 61.195242487798488,  3.603000059014418
 2.316012060401212,  7.235058405997898, 39.299025143852909,  4.279673623358211
11.543416395804313,  3.979491325421430, 45.142529931428662,  3.887227966622127
 6.196833327955266,  2.342152652893331,  2.163423165957428,  4.185590968857880
 4.568271501940094, 14.018865807990025, 68.317506222668072,  3.711164587309715
 3.137772958218718,  1.353203334092150,  8.711394901219800,  3.935661851038828
 1.650000042102236, 14.586154622562033, 16.337823895611187,  4.197226233673165
 3.608164186777950, 14.891469758981387, 38.818535337745161,  4.122493861713397
13.934205874289628,  0.701977519795961, 45.108277413090413,  4.194433163376779
 5.371119904983297,  0.786180858963124, 42.392158805689164,  3.873246980261437
 5.454054801961613,  3.841468349139070, 21.850430991405666,  4.340450174182336
 2.000360942815943, 11.316191396610314, 73.085141465499618,  3.993144966650077
 8.377109536426120, 14.063480254350138, 60.537438785807844,  4.039487650451005
 2.903837713140015, 10.816031348991428, 10.438855888202205,  3.697473517248261
 8.936188873263662, 12.597834148142669, 90.265967642201488,  3.715969807086594
 7.702059332237001,  0.695513866113983, 88.483641235679542,  3.896839969195940
10.039359797223584, 10.944448525141214, 44.274521242905649,  3.753225508922152
11.752268358225468, 13.704504407526032,  6.578481268632225,  4.105508809912313
 8.328368132767988, 10.655383262910862, 47.619224525242082,  3.781082500002930
 9.321394773302078,  1.147972456178895,  4.513165195742022,  3.972583776350020
 6.854090851479755, 11.088483373352123, 92.984848659464404,  3.768224667726272
 5.466881337237514,  5.093821572591267, 28.986991008053739,  3.728788809464445
 0.331999928922480,  4.157748613631537, 59.302138023313006,  3.693177182539005
 3.679803357599768, 12.128116884471702, 54.170701485064001,  3.973996393425382
 0.282305536718614,  2.305017010525578, 76.749943634524612,  4.192312860719601
 5.301663319941254,  0.133066467751985, 47.088295011487105,  4.118616084659664
 7.605400995815439,  9.731117866996703,  2.497063054221500,  3.849671856936814
 4.163559066448584, 12.879368169941388, 90.825697766596804,  3.984361977291011
13.961954988196187, 11.268546462174397, 43.703388149147344,  4.171597946177159
 5.646904453989418, 11.690404522042964, 71.212605455648571,  3.875112215788819
11.117556850727601, 12.203962513297988, 57.180144182995527,  4.085172020597399
 3.996068893336475,  0.182601209636005,  4.920117787598719,  3.949272221031200
12.201127920669204,  7.234405561386393,  4.217800528936182,  3.799202640351057
 6.172093137732444,  2.174053897996351, 61.534827724532128,  3.901334766392118
 6.533699659352179, 14.962369313233511, 54.109513389187136,  4.044547484582613
 5.243063496248194,  0.108996152048712, 85.459388952522133,  3.857281110200859
11.648283748377839, 14.144180845489450, 41.995208323101203,  3.952682420632109
 5.526375591068794,  8.020031343418749, 21.563226776539725,  4.029948934087831
 7.112567175182001,  0.359335613744385, 23.125129348145144,  3.772116146038709
 9.183447710805714,  6.354013853794283, 12.833587749343476,  3.916463241721079
 7.217008519934060,  7.428641128162131, 93.488749600456856,  3.627898349090562
 1.741783592630959,  3.474694593807801, 23.301417192839356,  3.650114127306458
 3.820760506052001,  1.255717698077694, 88.894503012524254,  3.873088802279561
 8.217905673543026,  6.442489017976512, 61.579770130935735,  3.869480380200054
12.024340761385156,  5.036137294807872, 91.752058714057739,  4.091017389028511
 0.819457416263252,  1.629796011742463, 69.283004841346425,  3.633198580452969
12.593957599274869, 14.925523081456941,  2.744666012526708,  3.879444840314483
 6.592831557891507,  9.260001213642568, 43.506550661818935,  4.065962560573096
 8.864192790544251,  8.280299887628365,  5.975417064759317,  3.970773100161928
13.288689256642458,  0.985542305945752, 58.156811223507667,  4.226200614581253
 2.740560829510500,  0.510223506292519, 52.453892524861182,  3.870741176564969
 2.280434744883594,  8.573816730439637, 75.993321676888002,  4.012120364020369
12.988228937141452, 11.776080286087380, 85.938693046389460,  3.758743234359025
12.471895949459286, 10.508013468857211, 53.806694524281347,  3.905737297800107
10.983200813588326, 11.020254411501098,  3.694292679565509,  3.756371265113145
12.601199351977186, 14.397709693815990, 34.362479640382091,  4.220343693894044
 1.317012311222376,  3.382812281519185, 40.460741508501869,  4.011316227850199
12.077949881625026, 10.639191525087497, 32.067854808278355,  4.140497243140196
10.437334798344626,  4.695450914071944, 64.342535757787275,  4.005039489890555
 9.929095403757158, 12.813509758957723, 29.335361059199844,  4.049001625387914
10.524168541252855,  6.674754116533800,  0.926266048735206,  3.622959716113098
 0.056448456053742,  1.002642577248046,  5.761227732957829,  4.177793858957537
 9.553283168231022,  7.544507044690808, 58.203135666227070,  3.712223748030331
10.934284873891844, 13.966663787254889, 38.089453262639893,  3.987719658937686
10.600917267736383, 14.895215560659469, 21.361694468607634,  4.086680998394288
 2.498100740546779,  6.250506391139554, 83.960669997856087,  4.027295141052948
 0.126065190418328, 10.517722465707870, 78.740711734141684,  3.972892940341667
14.175203511019289, 10.037034904837368, 63.200504144790351,  4.058696242880194
 8.735604659794443, 13.040308215896204, 18.064295957988946,  3.946588803853576
 6.251011397138337, 11.860955302945323, 87.498774096048507,  4.120589136908624
 3.018884326611387, 11.336379159961753, 36.855413908292704,  4.060904270683618
 7.697740630522833,  2.897818347265961, 74.609823525454388,  4.129597216559556
 1.739845870236076,  3.608946366772558, 65.319847586388690,  3.972028897023614
 6.148080574394062,  0.929488097584358, 18.914683152552222,  4.043847795071947
 1.180000983841863,  5.388271077131560, 51.035990212833276,  3.876688117151442
 4.955314778841653, 10.704349104724617, 24.479331529199293,  3.976070862330456
13.944551842784737,  0.795850265358975, 23.581566160612706,  4.137873011647303
13.367052790999574,  8.173979213904575, 57.066781093036404,  4.310129764687996
10.892231648654660,  7.269568165004499,  9.391623644053897,  3.981210130555586
11.757130050098864, 12.906166071971521, 65.603664947545738,  4.040074727104552
 5.293616073245074,  6.052258937030937, 70.099046240950017,  3.492992896821764
 3.366954018604492, 14.601933862281781, 71.779636704590914,  3.582502063122657
 6.456339372287680,  6.642460375940788, 82.646164720371175,  4.347146240595655
 8.476902564032528,  9.143254385865385, 79.878552622802019,  4.119882298773684
 1.310730332687968,  7.731979212149171,  3.518424875345624,  4.075693073741326
10.910265190932257,  0.269542734404770, 77.697568652368815,  4.252190312563300
 1.033392140980648,  3.462719694726725, 81.386468626469153,  4.006680192980354
 1.626282793555156, 14.338070312506552, 59.026198453656953,  3.485543973665191
10.919544390219320,  0.670125591063506, 73.601551656513834,  3.905185735163392
12.845331972862887,  8.205018909881733, 89.405591600162438,  3.802777417746162
10.348765368243399,  5.392292783602789, 38.990739469018649,  3.981862465670623
12.330459125267625, 14.170816665710678, 61.759937663740686,  4.083213364421836
 8.407197499610241,  4.849386166939951, 42.425966159665435,  3.966299238178122
 8.492492990103734,  1.606920062282194, 39.967902064363834,  4.172655969108471
 9.198463459307783,  8.663718050876746, 75.746731945613732,  4.215276485242760
 0.809705660952441, 11.365011755712548, 33.451772479616551,  4.001756003613100
 2.958789631008447, 10.831458936629362, 57.951240344355512,  4.079302813809563
13.573124003304741,  9.968903598345292, 36.468343848437385,  3.925521819327708
 3.038852976283376,  3.395523750286608, 72.080601409813852,  4.052951324550030
 7.025348232827857,  1.478552581474351, 78.409402749438115,  4.004673293483997
11.699283401157574,  4.512097806074350, 15.294398017784843,  4.022116242308705
13.073989242109921,  8.002349176766691, 85.603491136434315,  3.795179066500128
13.770659488923553,  1.242352837771042, 13.806057778437816,  4.224542451783130
 8.750646756966217, 10.894453167013902, 25.911557405550120,  4.145922889765954
 4.852654763461816, 13.238957364065817, 33.755234045016728,  4.000331963728401
 0.472477101567439, 12.404600170207230, 51.747600942438247,  3.986710874458004
14.103711523290684,  6.110396551033349, 37.107263824740713,  3.867875961601720
13.876149053035387,  7.646581019509978, 22.082994133416268,  4.102821442255896
 3.086454850176267, 12.463314791682023, 76.759653329660921,  3.969334644775060
 1.518529074481501,  0.531890133869939, 34.348646774388449,  3.989224061142516
 1.627307837368226, 13.491101025957047, 86.634821547118591,  4.414284498325231
 2.791360409852431,  7.472739627978246, 72.315834228706748,  3.725154547000162
 8.181050030254614,  1.440169641446838, 29.095813444175324,  4.081190934104832
12.552559728743098, 12.343892230706535, 89.575621323234401,  3.653234364131219
12.198122851987929,  3.420032359034936, 80.148503764612059,  4.120911776205899
 2.436259116887557,  1.634826171896831, 20.060060029689616,  3.844516874827614
 0.765843972439199,  3.581584294070212, 90.414080677633279,  4.369675187075629
 7.178663194012977, 13.287012131384868, 11.701903765090135,  4.213471073793620
12.768537909534389,  4.676603565267463, 87.747561827936124,  3.983631733019425
10.299228931553266, 14.841914061942969, 25.586562904363969,  4.357001570543372
12.065019080101564,  7.586247222558689, 78.577362164673687,  4.107840140559583
 0.144261235853989,  4.911430930123434, 55.166195851415466,  4.014583109316320
 5.753736515846902,  7.545525741871676, 77.480352646743057,  3.808316397800361
11.258971178963440,  2.350019469181296, 31.758198259773458,  4.123756011801023
 5.845460806190518,  6.995035357783802, 32.247853930638612,  3.793147477565332
 0.582227391951605,  0.165582140738200, 27.224716600395158,  3.948002752860927
 0.559077938165847, 14.487281695302928, 90.648500071784568,  3.898328084579227
13.763040087039101,  5.654697563683522, 11.875839388871618,  4.268221262543464
 0.274166057897007,  5.414213742383708, 43.815767625808427,  4.102052551186859
 2.257651709683229,  1.837357265764087, 61.684290273856497,  3.947842841991922
 6.900759478649277, 12.065005702801722, 57.145098079276679,  4.305622246854928
 7.017392365771983, 10.323610042350481, 67.678419232791327,  3.695424234984536
14.159182969214598,  3.659545442464041, 34.157009714407643,  3.795844584940552
 8.559941968849278,  0.490050649989287,  8.467065354424337,  4.109729428500553
14.983985438624154,  0.764051632157245, 72.948944301837884,  4.022617408951960
 8.048964632700338,  4.690961834530500, 54.284587626116824,  4.050468328452861
11.394306471052522,  4.428386816480119, 56.657737139883707,  4.157524663857463
 3.343313940236052,  1.407776520673714, 92.944904744744463,  4.058104611230922
 9.070984649002780,  2.827696177500473, 48.018552246053993,  3.979123021275345
 5.207363214588096, 12.906846401759898,  8.024541862376083,  4.157961249951149
 6.276604964301503,  2.724722224533350, 51.084560533609441,  4.206748590353987
 3.977004438434801, 12.784641068290998, 50.008733481416520,  3.865367340925927
 2.251094377355168,  0.018632345972593, 82.851924540041480,  3.860770436268971
 6.613531307502359,  7.014413590878874, 25.334127035445881,  4.028748847115369
 4.322151740305215,  2.830116297079435, 68.303517481977806,  3.991212587745116
 2.862865093850443,  7.549949194640833, 35.008479746997203,  4.367128244382056
 0.218560993271474, 10.160421629022407, 29.669645152969871,  3.873937967679899
 6.234022421001782,  7.538391488084228, 48.897843379230913,  3.719441942030218
13.113571398149114, 12.079063837804147, 26.975550819828882,  3.999024579595554
 9.741075437858868,  0.150284642879333, 14.310812014377069,  4.023250823947390
 2.639009250375911,  2.277939234941719, 44.790009019331173,  3.947114243613020
 7.908416851067275,  7.771944177222232, 89.863837241385482,  3.673268933656360
13.647631893119446,  2.340409648292300, 37.724281580230851,  3.807275641094686
 3.885035846774603,  6.526146550981133, 46.197973058028872,  3.711938397653300
13.202026748488645,  4.564390605757711, 83.849195886665356,  3.862046014477526
 0.011707745418885, 12.978142062431036, 55.788867302415305,  4.222501706067209
13.162496904039150, 12.388389478856780, 72.406843309596809,  3.768012345891749
 6.683513894153707,  8.333385149684766, 64.529838571946271,  3.778318535406649
 5.677192994589794,  6.846938987311902, 14.643064576163214,  4.023274914183042
 6.480921824024620,  7.324529999654355, 39.864643014856746,  4.117677021267039
10.678807754996487, 12.268346025850775, 75.174118702597426,  3.658000850502332
 2.792568523512501,  7.580608852264056, 65.076774185104739,  4.210735071240007
 4.884961685573557, 13.529640537195402,  1.379349396170778,  4.093392572589527
11.472652372095954,  6.939562611223129, 72.878075215605463,  3.870647149411892
 8.526233718654820,  5.188565780272816, 78.761035464143347,  3.906465120502570
 4.787835632755860,  6.386689847906504, 52.349393410656972,  4.055742136665182
 9.713341422691508,  3.018377560265078, 18.805035055988874,  4.093653205690808
14.261819533872414,  2.057795580006589,  9.722354788266690,  4.155038076010965
 3.462190960824743,  5.845698573093717, 57.499404024372780,  4.277518222381679
 1.449756933024335,  8.691867659024606, 54.157339360677049,  4.218291923948864
11.830994465808205, 14.763128284618544, 54.199913162440652,  3.762780564075190
 9.491914976572472, 13.443304811156386, 85.636805793506355,  3.988894591320809
14.995967174579004,  5.338871064784457, 73.913994690786637,  4.052299033572683
 3.194666133931216,  0.658376285420815, 79.097968393459695,  3.931008964055868
12.339370215699436,  3.492980155480358,  4.472048902264684,  3.653247026317334
 8.343242175197970,  2.859412243233726, 82.055448210194186,  4.169924722174171
13.923410000207786,  9.613527557763202, 10.640321124086437,  3.998792386085172
11.275297345527031, 11.778431640613078, 15.428345458189796,  3.750434009724533
 3.405419175429039,  8.410088896432086, 27.461537557026023,  4.130918604513844
13.585005755143985, 14.044784111391900, 30.411690348321940,  3.945240320138222
 8.532275285049140, 13.791199374690530, 67.757312125942093,  3.855027118275485
 8.966125952377894,  4.987304236217298,  3.884073156643276,  3.808194409333658
 2.283784628320034, 13.943409203631651, 31.026740205497049,  3.536095381675398
 9.615048853012196,  6.623639970716347, 31.481394452142744,  3.934357882941777
 6.759980852727879,  5.642649567946274, 35.992773226122758,  4.339556005721440
 0.638801002174415,  5.945266212417773, 78.386947630281682,  3.819247894486740
 2.116932582220698,  3.741216506000701, 36.587836229675261,  3.894081723960120
10.256211415673276,  2.356750081427913, 51.882997045579792,  3.907044584745945
 6.247476138136815,  4.293770884527435, 65.001014528831575,  4.165005763356201
 5.249028481881509,  8.804206350843851, 55.407788614473759,  3.763786251388589
13.123471820282749,  3.229660248074076, 67.030067109353666,  4.126074732480503
14.009126749551884,  6.327241239471896, 64.659438673866248,  3.872196152566360
 8.976777751453898, 11.368335545720067,  8.532057519787626,  4.015479426626909
 6.365044335998581, 10.146348529208140, 51.854410454106130,  4.149582471432585
 7.812265379233397,  3.525683577045035, 15.207656967817716,  3.943562599114192
13.093813407267907,  0.694482766902140, 87.863524091396556,  3.989344740752855
 1.120570103146882, 13.280258015287938, 62.422186046751023,  3.680812505100185
 3.232931564778539, 10.360464439165039, 84.242702582106631,  3.926021525021760
12.552984097394948,  1.174399840048765, 48.885604152807090,  3.895738784426026
 0.995835187455341, 10.937674274448128, 40.190664990512445,  3.778690193293649
13.179382624040441,  5.682137737461830, 30.131351530011280,  3.911637862324911
 2.443351611999888,  8.962511903400767, 43.371359434968397,  4.245441068101900
 5.344244707927140,  6.827832708837096,  4.275315758595311,  4.321316112027003
 6.308173982081540,  3.202694460744430,  6.267114079955918,  4.120036060365252
 6.016716755735874,  8.576591933806318, 59.151524685393532,  3.884990593619499
 3.961167041119679, 10.286196249968302, 31.108954797847179,  4.124581404070826
 4.459578509519435,  4.427612874175892, 79.485857409908846,  4.030966684989450
 4.859566130245828, 12.395733028287854, 17.610997624392432,  3.951931677342841
12.210930197377847, 10.803844872970028, 40.033397086127472,  3.861319086836154
10.471795628762727,  2.859685340563388, 11.267718179956733,  4.094435808094433
10.034401601880242, 14.002073627756840, 47.001172820164683,  3.791046046449049
13.226012195607666,  0.462220396978284, 83.722372276006425,  4.309694486940455
14.898968758582829, 13.686548145849107, 37.686956053896864,  3.981867979660820
10.707241070897130,  1.112175262603359, 91.140128873570802,  4.155109234193247
10.244937645350165, 10.109422091173792, 12.093994477641690,  3.953737410035733
 8.426865334792122,  8.860860823557108, 71.075561456154588,  4.057565176799088
10.100513413768317,  6.779000784237804, 20.571089503079474,  4.211485280734246
11.185178976808020, 10.240731763672869, 82.787686398695271,  4.113350541647041
14.952712270856210, 11.852502404808332, 82.543388001326193,  4.087606939874727
 1.528035089616051,  1.510305028736455, 56.122007704598666,  3.553859476000596
 4.103481929083494,  8.547329121630295, 17.883710593032031,  3.910891366699722
 1.058944339608106,  7.370955946961331, 92.462963586913645,  4.262972032659375
12.460793697091255,  9.832351170042951,  6.942077970172252,  3.736439337187661
 1.341283221508900,  0.095922682269938,  2.085499745012337,  3.811552542659752
 7.048577191879008,  5.835153390460997,  9.415135569567626,  4.208502372625323
 1.085288412407051,  5.678791670664438, 69.025586599806573,  4.497401026727798
 8.950536184224031,  1.222605694589229, 44.013504775616212,  3.999907825138496
 9.410353957665578,  5.134249745680647, 27.684447809626327,  4.182510313144431
 0.207441422221288, 14.962803649834820, 65.838259548499991,  4.070619744278363
 2.439213397490261,  3.731043806969024,  3.574316556574616,  4.237897094444230
 7.836667308137569, 13.933542411759820, 50.338499475228765,  4.192384820231111
 7.156643243136474, 10.918548625039477, 83.432145279830493,  4.156403948048050
12.521758961865830,  3.467132750514794, 71.274119013819103,  4.011371165793608
 0.998034650974559, 11.647562584057706, 48.092325086059660,  3.533667067012512
11.626850559124813, 10.406798009325412, 19.123523024914675,  4.152053793980222
 1.381426803412581, 11.949657957721326, 93.670672680628101,  4.153670390975795
10.708389827768549,  6.634521567226310, 35.248857159528654,  3.908686516780209
 3.404232631671888,  4.841504207086270, 75.732207160310423,  3.787210383340725
 9.117734724505610,  4.260169077463371, 89.145190903483993,  3.867564134905456
 4.049294441579804,  9.088279019549899,  0.854937064169288,  4.008532039127664
 3.114151693227137,  7.136858975815704, 11.552063593085180,  3.993951554278278
13.932951133431892,  1.549798177841408, 93.486947155226105,  3.861727088672152
10.453438519897803,  6.450640895315368, 81.996490708491237,  3.756398850855019
14.078120225052379,  7.473152290894223, 33.480213873276654,  3.863058005138943
 1.190508606787741, 12.357334724404820, 24.288697648841151,  4.223691136792048
 6.521408963901339,  9.788534084860789, 35.580247245753220,  4.006445532586572
 2.768330074826660, 11.737031548206433, 65.653478527395677,  4.168604994643341
10.433916930863962, 10.350915700468168, 61.096048533251206,  4.520740035876532
 9.157920228680110, 12.243467089027714, 53.598979267291092,  3.576990050279997
 9.504974923576672,  9.037596098412994, 37.991631439667387,  3.761259836900761
 7.751803174352995,  9.365120868207491, 18.683558661215770,  3.729055352964846
13.413501323998696,  6.859264045035422, 18.098511743477822,  4.048129876362635
13.557180468085686,  4.773898933701245, 24.884033581685998,  3.937315940466598
 6.995329548600205,  0.123441229216299, 92.230261762060351,  3.807130777822192
14.419288703486044,  7.830453974253222, 81.910278648877963,  4.064754470810213
 3.117784720507027,  5.343916609023711,  7.867414255071979,  4.193817974619294
12.498513414029329, 12.949059581577142, 93.337650980277601,  3.962632037074139
 8.309222229636520, 11.962281310934852, 40.736490408825063,  4.377561835511432
10.669912949347507,  7.531028258784574, 24.592746590699065,  4.035139683569046
 1.089132803375289,  7.962644382648589, 60.254858462603131,  4.116285985619220
11.887866422859457, 11.192845561133439, 23.197915249018052,  4.131224221252602
 9.009900982156582, 13.646861710528249,  1.332842739528753,  4.151541562626562
10.225695979532096,  9.266782547238932, 50.755493489913526,  4.057391500193479
 1.963508026306359,  5.708546276709141, 19.982516762970810,  4.340373885060077
 5.877071789555049,  0.144497346913798, 15.039668401782860,  3.835221726736893
14.690822767125683,  9.356940853746893, 67.224648905545635,  4.167818490196612
 6.359174593992032,  3.749549430662179, 86.382995161181455,  3.973364168913189
 2.944425342288343,  9.024593691039867, 50.223895903389788,  3.608813984526928
 0.908045400781959, 12.736734966013262, 69.380742498850310,  4.230558555978867
10.439654896193501,  9.553620388661505, 92.276905114689598,  4.155885486656389
 2.965136431062021, 14.331431321216515, 12.285978065360665,  4.184838050849558
13.125153128347634,  3.803646330487427, 20.852968956963320,  3.971083324776494
 3.575089984680833,  3.971792264028097, 32.962705282162709,  3.895198675808123
 9.258442751293755,  0.885570052322936, 57.001983315609003,  4.130968787827305
13.647450931105517,  2.774194793148044, 62.929018622368766,  3.981993117347648
 5.303728219940849,  7.781740953895144, 86.757739964841591,  4.375287355274482
14.056388690067715,  5.089450362245511,  1.344856986621002,  4.112869514988700
 6.712327440250600,  5.651080074138083, 18.341624829649842,  3.934764819432698
 9.957103721930380, 11.544449580562203, 35.251795444711661,  3.720741567752874
 3.278840442406566, 12.410091809650435, 27.786148027586453,  3.876021309492841
 4.239818888716250, 10.913513736832709,  4.495054654142614,  4.142462587484203
 2.120978375731539,  3.369915274531551, 12.698970400676348,  4.064765588516306
13.436755138523138,  9.512783532870802, 75.216492803399646,  4.100615975995046
 5.906949753802714, 14.741336111274723, 81.699910888857048,  3.792984749003467
 4.971433390207752,  4.999032010246488, 90.080225806047750,  4.309863372886410
 0.999365200575481, 10.569335889052590, 89.719163668313954,  4.156339768390716
11.499932793588208,  4.222644909261465, 76.020824575953498,  4.402582155612181
 9.872733937091215,  2.453017993488668, 35.895723921116314,  4.569179080945151
 6.372906439658075,  3.031157545932597, 25.845236766255354,  3.993645138070572
15.036148901214244,  3.951237480769448, 47.575601369141872,  3.979708917528065
10.100125056968169,  2.391282932082469, 85.761749443961307,  4.072098097775404
 4.481165462126701,  8.976005153300473, 90.889553708006673,  3.843107211026673
11.368249438672605, 11.487237692491359, 78.703897559478648,  3.680612334172871
10.149858692731987,  7.886677589914326, 16.292637759360669,  3.650585316068691
 1.368244643509990,  0.327477130190825, 48.578159071478510,  3.997291006252090
12.188275553861255,  7.769116758921554, 44.567156807440924,  3.859731352929972
 8.030069740763548,  6.676748832629629, 67.709448615088789,  3.866228891647236
 9.972799518828468, 10.058420055553649, 87.621793553127134,  3.897909318886254
 4.436725356665273, 10.373518327993404, 46.833878930792842,  4.157932704554648
13.382618226725045,  7.168303139403028, 40.775700632316841,  3.901009133297419
 9.855855367101290,  8.314117293705234, 41.635587811404264,  3.688313678863594
 3.363752083672460, 10.408595392181354, 14.344618616369496,  4.209481842071423
12.007812919822079,  6.133199831143309, 52.906593409579806,  4.106590176899669
13.163168128056395,  8.741286626908670, 14.357793858584811,  3.707195053584074
 6.130784933414158, 13.430100254526844, 30.172690530024973,  3.573625332710255
 4.429803499511977,  3.198992019444855, 54.608630467710739,  3.787672279117579
 8.697917169710175,  4.743901189827259, 71.106704614663997,  4.025220603449433
 4.499147398903949,  3.049990505225978, 83.099646611113982,  3.700564106028279
 7.192127972337938,  8.641248095810239, 28.966775760039166,  4.009373719856303
11.889573833218835,  6.736604516284057, 68.881482009612142,  4.167619478422993
10.115024589720580,  3.991582735929676,  7.440651947768098,  3.787043658651678
 0.034491949729744, 13.404282022251241, 20.336828422671601,  4.272897276317979
 7.483481537156845, 10.715485612994797, 14.993477616994932,  4.144351172496048
12.321063968697867, 10.745146742756011, 47.521064587320190,  4.192952611598392
 7.980954928192356, 11.723976548176788, 21.858640949214379,  4.179038154342713
 6.426526496645301,  9.321640097016827, 11.382044069977232,  3.870833363998976
 7.144676268164414, 13.448552177190855, 37.029993301254670,  3.934477402343717
 0.225679254788378, 13.024500379926828,  8.619031988496024,  4.107824484089384
 4.106987701348229,  5.183833820418235,  0.126393017516818,  3.930654345931658
 3.472085489485084,  9.269179975545420, 68.903317843697650,  4.083456262579069
12.480076696810423,  2.472161637283310, 27.905913452612939,  3.948214699893555
14.234057055428822, 13.395397863680275, 76.083037597019725,  4.009397907381650
 6.640693189345780, 12.535540859311078, 78.571899379241358,  3.986327978967430
 7.806161923743633, 12.627071704637498,  5.010076260916842,  3.820724390768642
10.695696962131253,  8.798278501191000, 65.288336648463670,  4.426578123625756
 0.644684872279503,  2.506935185553734, 30.573836517847777,  4.213590601677685
14.426430049409248, 14.787746418838426, 79.820613524811620,  3.976812882258617
11.729879594369208, 12.958193972688431, 50.839219783870696,  3.864791578621717
 1.491212525968733,  6.649877764597110, 15.338159229906731,  4.285091554153493
14.559475198506446,  8.440418689119497, 26.121448148177318,  4.010033576234580
14.433768640710054,  8.929253065312453, 71.251990563045766,  3.946994541541905
 8.002605292463496, 10.806946557669532, 32.115634647016549,  3.796552981004583
 9.772191955472696,  3.572548515053782, 23.419026647381035,  4.390499111728232
 0.565913493185786, 14.614393837901837, 41.522966756323783,  4.023803211322895
 6.233300469542121,  3.658060808868080, 45.441802965942408,  3.833332241874539
 1.198084507529941,  2.834360887208716, 86.075063567549449,  4.411045772270495
 0.382688915434603,  8.048360040718283, 46.959582575441146,  4.074502588213961
 1.869974200178474,  6.808002430103223, 30.853322578105569,  3.950908893411184
 4.274191165085924,  5.721619912262213, 61.631103050571276,  4.132717780509267
 7.444505143252342,  3.473014935500700, 32.502898107693881,  3.956753991447893
 5.392969952760803,  1.700109718956865, 35.646100720787935,  4.012329358710715
 3.353438036652316, 12.151062486720987, 80.614124116069320,  3.782505715087233
 4.296290809594741,  0.592419765797632, 64.852104573530212,  3.950528151866843
 3.569694039985703,  0.538052468256305, 24.737205816661554,  3.818629479284497
 9.021207507644762,  8.580216955161317, 54.536253553023634,  3.977630351128401
 6.479131985971405, 14.039207793251670, 26.566761817641606,  3.692055149590467
 2.031162503463359,  9.859954477920610, 20.975030451714119,  3.953056626312906
 7.308115547534716,  4.306157432068084, 58.307320087849995,  4.154682762679035
 7.010527099395602,  0.913152752383418, 70.901604914791363,  4.356204121904245
 5.064404764841083,  3.589621709204901, 39.143801111129378,  3.908492091180520
 5.572786120451553, 10.280036206555646, 74.755761572287298,  3.751364076408464
10.261067239174684,  2.595377671654415, 60.524109025209711,  3.940934630015852
14.302370292420319, 11.454272567820524, 59.478875114894691,  3.899953881868645
12.439660283399579,  2.999679843233812, 41.428866705382724,  3.998838585375456
14.194253656813286,  2.208188053662508, 52.347306011231161,  4.025998624988611
15.022320778892981, 11.863539118689095,  4.355683393338659,  4.573938705997945
 1.931801924230924,  4.490747669150479, 27.084480163503997,  4.164635268016915
12.284218044100902, 15.025746752261535, 17.559716272281435,  4.230256895885554
14.213107164682556,  8.752236161738276, 50.748406864087727,  3.959144157417138
 4.125971422586747, 13.343555698762664, 21.477498965618476,  4.130669262473520
 4.129647500010991,  1.290906774213155, 28.700755373823139,  4.056224142038020
 3.844656306816413,  1.015516528110428, 75.215087034586773,  3.936331477501139
 7.811873046467544,  3.817419539612788, 92.752698944954503,  3.828991582460283
 1.195022897266147,  6.886506996425208, 87.774688489162088,  4.127471938322313
 3.943533285437547, 10.168724900744161, 62.084823460464172,  3.969894167974409
 8.882709165725155,  5.658304507253883, 50.650402590799764,  3.631308529818322
 2.418158485756602,  7.128128261817846, 23.814052524993176,  3.834773947068069
11.735896513758680, 13.822222448721963, 10.859384296873506,  4.378692216286126
10.687232504508920,  2.869635479604602,  1.151511421238268,  3.867960820426451
 7.172654454768067, 13.856128865942569, 74.771521140543314,  4.076621221435968
11.245569861981020,  8.785106262237358, 28.455516333550396,  4.120316521017458
11.903387734731202,  6.421635442932204, 48.328496201843521,  4.139718004450319
 9.403027380597324,  0.817970909050382, 64.015100184789759,  4.028322470546882
 6.969187798551063, 12.976256440055177, 44.362737845719131,  3.594597912925946
 3.183889054601959,  8.205874085904593, 80.433532283865247,  4.121791291635238
 4.984434966617348,  0.834911596151065, 57.860292853626603,  4.242467281485347
 9.344781243102059,  6.493254365834761, 85.797832365757202,  4.161045034613113
13.997420369569429,  5.532801398917661,  7.375850193478489,  4.180134456054519
 8.583754875264683, 14.565599199107398, 33.002829500055718,  4.011999016181783
 3.941868690600061,  3.374653114646067, 16.433436087203393,  4.172409540028520
 9.364904941664090, 12.699268378360626, 71.703973122028884,  3.802909754795102
 5.181797970731311,  8.957488105079403,  7.796021158188324,  3.751513866862977
 3.710480317895542,  3.475906107083641, 48.221403324617398,  3.612656553569920
 4.308285414791754, 12.168371289823265, 41.695817208161408,  3.847088262596908
 8.626635291335516,  6.742167229004249, 45.937873710300508,  3.992739772695170
 6.041031790630689,  2.342676891364335, 11.619247788745987,  4.283137719049006
 2.312910558489121, 13.332710097160204, 44.935967850225794,  4.049724503076082
11.286839175517761, 10.753845169932168, 68.947698875222116,  3.954698918652705
14.949917972185373,  3.178010161155095, 17.316215688435619,  4.076499547993299
 1.236099080828756,  9.018968190588541,  7.397435838440410,  4.097524929158399
 0.344926637107059, 10.442667567076905, 17.291220209531449,  4.204518425876058
 9.086093687417645,  2.704788820980449, 67.614014707139205,  4.098060048664085
 6.914747105775978, 12.421518948814512, 64.180833195871941,  4.438896811341823
 9.849597460327303, 14.003806496754502, 81.587026323523972,  4.216448998428856
12.184680996261211, 14.820818386328172, 69.319208435551275,  4.327500282268245
 6.285595090914757,  6.608785500786529, 73.710599230232717,  3.991724987367548
12.294270944701674,  6.235777113886156, 60.902170660901362,  4.381735379637960
13.494064308070415,  9.383511967046296,  1.094338274670633,  4.106551287740343
14.703823778239972, 12.224190245821038, 13.596160889945727,  4.039676441264416
