BANDS
8 8
NANOPARTICLES
cell(1), 15.033
cell(2), 15.033
cell(3), 93.955
 4.087932018212509, 10.864913317070631, 87.755940170727200,  3.709417168532084
 4.948236237022489,  4.485170095669381, 78.090506857054308,  3.859575887773214
 4.622295608448622, 14.031512741073486, 39.162176507281373,  3.863959764471872
11.552759458768374, 13.164888911084940,  2.315256330086595,  4.331104389228167
11.044659784027019,  7.770012960894672,  8.145644230760968,  4.014403604780922
 0.584264964612073, 13.868741580765022,  3.010815940138818,  4.017662894810877
14.821992760256510,  1.172269067227007, 10.165370149398202,  4.163984577227970
12.619813620192112, 13.454933863561024, 53.743654791157624,  4.202195953270820
12.566243144153463,  8.992214791722935, 80.675007862148291,  3.769559737106661
 9.727254443719442,  0.970513685103567, 28.858431559531386,  3.976302343901802
 3.751067243947456,  7.769285700933377, 90.085944267518443,  4.063183419766291
 3.350769066848084,  9.330865948618857, 81.213041039225388,  3.812860115821174
14.205072582831756,  9.677686564999117,  2.533386496419121,  4.084173506022372
 3.029166139376815, 10.134255791077177,  9.508094037898246,  3.948994432270939
 1.122318688645899,  2.443189362705753, 24.106094506573296,  3.646510369308463
11.421323313263560, 10.242578943576831, 67.943840867633355,  4.001541886416127
 5.308445549507676, 10.218324241480417, 52.660064009793544,  4.001246030851087
 9.053764113043851,  5.581476591981221,  4.483687690512994,  3.903431539797078
 1.286286667731731,  4.739567844556730, 49.002889851254238,  4.095352325624943
 6.510874551975350,  3.383657177661890, 39.392181601371490,  4.093870295287544
11.977685108381525,  6.266897647911461,  1.755007442469588,  4.200282269310914
10.103144538572426,  2.597521103243010,  6.620577315615864,  3.695686577801565
 7.345279955437479,  2.628483084281660, 44.167218991426282,  4.415701585886631
10.170160827685377,  9.417324043278796, 87.292604872511589,  3.724293014900248
10.674413597580184,  0.940585641771441, 93.002974333569497,  3.989224928340405
 6.576496027993041,  6.523353660007749, 25.690499224980158,  4.107657124882190
12.285732054659006, 12.954790635914490, 80.132751572321837,  4.167877645725480
 4.151205368220294,  6.253641029022182, 35.937372377933166,  4.019727747270061
 0.493017508354223,  6.668309312151109, 81.731869232925504,  4.039501833840650
 3.754769523146608,  6.788834587680170,  7.393546656506084,  4.011069596204792
 9.267372276670516,  7.149353799906553, 18.401067755414793,  3.810523834832289
14.764905884719477, 14.434007286727622, 61.434763538234115,  3.865892125020458
13.042325783314055,  5.106274128073513, 71.265315186138011,  4.087197709598079
12.807054995015617,  8.995435229572026, 71.863313154456563,  3.775741641568684
11.781462914296302, 11.010755991765464, 90.472292764133030,  4.009410250555425
 5.182648158356495, 14.436682806048340, 88.450346208663618,  3.878088846609820
 0.392539996397004,  1.356933064416629, 19.023742224580154,  4.144667928200009
 7.798065784453101,  9.496036017219055, 15.376619556089665,  4.365988594178956
 4.905577139207266,  5.576198555460829, 11.267510692953024,  4.339053629753781
 8.543688249302424,  6.791076120790273, 57.878409700808739,  3.944171256354273
 2.823054386841810,  9.807346288425217, 39.766394695532327,  4.282009635346864
 5.894850461657317, 13.642855174471997, 10.670216684527603,  3.730525211558697
 3.664299049828343,  6.864274634030591, 63.340189467296923,  3.919663179211986
 4.515647607816559, 12.747608111741746, 58.748430301202973,  4.122177400420772
 3.497404942449517, 14.413526380539164, 23.444924478294240,  4.043563318224406
11.577163659712056, 14.641985160012247, 19.247041166020043,  4.302177610982858
13.226884740129455, 13.678923464081224, 67.998081851389742,  3.694363850446199
 5.902003192751732,  8.084087375480221,  4.124225441400785,  4.133458617256521
 8.987052855014278, 11.586671076290411, 53.395314293164986,  3.964090237556016
 3.230822170039171,  4.923080518274716, 85.483368902587600,  3.725308728400865
 9.229666424033555, 11.070122231873249, 19.456427577066105,  4.247530439248870
 1.117539489430890, 14.861937916477615, 15.350982599709429,  3.911251682980172
13.611282255548248, 14.299418022438054, 44.051429076198986,  4.050045124088878
14.935793486958950,  5.793585230530795, 29.251040187552526,  3.844265995344997
 5.695335029008985, 13.795544290624871, 54.765957999755187,  4.332234137064868
 3.766125166060388, 12.341910124864015, 30.224542216766544,  4.055550057517668
 0.910758939823776,  4.028280386937182, 66.761945621227909,  4.088137419742305
11.911440745477488,  7.232859790086819, 42.572873484861319,  4.195199791502381
10.998492695840300,  5.423590344948458, 28.871428901796808,  4.097295892018662
 5.540193847144971,  6.216160845661163, 82.666702709585607,  3.983517857511662
 7.276200725005880,  8.424608351591022,  7.698396948931912,  3.535974544587093
 7.168106918738153,  4.156842288543396, 22.294067111089287,  3.901698706092400
12.778925394093518,  2.603907249475708, 21.805490978986505,  3.913871714221683
 3.605844167298639,  1.905753305721319,  0.957277090822382,  4.369608530162140
 6.754144248112758, 11.148983139681922, 41.003746108195557,  4.195354573874846
 4.587739402917678,  7.096926913309976, 56.439555052676965,  4.006140013411065
10.149747298476672,  2.285582266553547, 71.831565459122260,  4.054257195619865
14.514026085547096, 12.194011392094673, 17.709241371989510,  3.916133791845937
 8.347931662156009,  3.948625030100796,  0.760822140683042,  4.325775022451642
14.029895216862220,  2.852195610539900, 74.454531251456885,  3.960678475336707
 1.064394740686190,  0.930468797742973, 39.244348800061836,  4.135358582708411
 8.656001920876795,  1.251804333211032, 75.156472393803810,  3.519691969403508
 0.107726627280050,  6.819977702449157, 15.494558638546286,  4.034941433274030
 2.948736114219403, 13.163209421598124, 19.566431215918939,  4.157797158557646
13.619121642877349,  3.836177146637402, 90.798116914003401,  4.219605907269789
 5.926394867456994,  7.897904706296091, 86.218511329632918,  3.905897672207650
12.956694280507460, 12.918995822244703, 35.821014611698381,  4.099827626160577
 7.898481876111641,  3.569915808093165, 68.639647807432027,  4.163920122782090
 6.057262261431325,  4.829434713844228, 18.486973884081962,  4.107034925211674
 6.238713186990080,  0.651680733054332, 71.355642962517479,  4.302003543670835
 3.709918816185067,  1.703284418764353, 10.743542689743327,  3.830991364361023
12.347277975791126,  0.700045348535253, 40.589562689210261,  3.842120606487453
 0.156998143209588, 10.614245615951715, 69.242179184407874,  3.996117598581401
 3.489625074703367,  8.131495490361321, 49.693212499568347,  4.107957100494330
10.538940709448289,  7.353222949721863, 25.326704282199945,  3.974809791177411
 8.165726953885070, 14.475149981840056, 57.968165175990450,  3.869279142873881
10.915355916032317, 12.419189211064380, 23.040429151614401,  4.117392253974937
 9.758620058912522,  3.363135554158510, 19.333516800506796,  4.028478285375924
 9.805678530031544, 12.721674665024823, 64.950635924483137,  4.322425873412199
 2.988178364250728,  6.375616904539470, 45.812694944284146,  3.731512675839295
10.497082981073433,  9.386830236550074,  4.381684751483338,  4.220936713634465
 4.248131762433625, 14.857577087856706,  4.688272949067869,  4.265564183693408
10.547063502159086,  2.392077321752872, 12.953885197168994,  3.875614414944075
 6.818537215235956,  4.672906560038975, 60.556784520665438,  3.672489261408045
14.200401757665770,  7.999567665023867, 49.638737495287145,  3.775777938386434
 1.683914856666353, 14.894892785063110, 27.156315894296661,  4.122055352669747
 3.553004469474593,  2.417492878800378, 46.323056072185125,  4.318050737967742
 6.134760289743133, 12.676945640297935, 68.860484784213597,  3.512365390572219
12.265910236385603,  0.461646843512924, 32.492320471465050,  4.214389764772440
 0.581531968161541,  2.762371710420109,  3.644832871756087,  3.901483368478914
 8.745306821867855,  3.325326865054330, 48.047252199803268,  3.841545211095476
 7.411351596243589, 12.207740341449000,  3.518749660221637,  4.304767330766005
 0.728070380150574,  6.051889032282040, 88.138469705328774,  3.901711649352242
 0.261892751735450, 12.646727718736212, 49.709838579389761,  4.197564268623642
 1.246071558616849,  0.033960235872188, 57.810355282391285,  4.075528723032793
13.425205771045816, 11.931788205544954,  5.841193258485194,  4.023498005193153
 4.793616875943853,  5.948661325436314, 67.060570948973478,  4.068555827158063
 1.231026936266131,  9.073850241130993, 35.548551751133459,  3.664554221979979
 2.691816944711898,  4.629217926428995, 39.280128903467173,  3.940524462125525
 9.345961262850862,  3.425290547443340, 32.071473977438927,  4.130939649097742
 6.879579014146695,  3.592800731395929, 55.715369804482556,  4.366124141336003
 8.374690743384143,  4.063730293611576, 51.837530371645734,  3.912526424952338
 4.032997796703130, 13.540181068219377, 50.936115691435582,  3.884800559588044
 0.790534514854373, 11.990937451181743, 33.043450188981289,  4.075480357431869
11.585059592753383,  3.216354155872866, 45.096738270415344,  4.343858977633033
 7.103479971016488,  4.080874806844225, 28.787822161867634,  3.815670277455738
 4.705041347699559, 11.391141153854493, 47.799872304168339,  3.807964444813485
14.416055170426638,  1.205906850877664, 47.636267968914581,  4.253259571501792
 2.146254296077550, 11.869686635210817, 76.062673808579248,  3.977565941604418
14.636173351828210, 10.613564150847434, 13.972080403181247,  4.191775782466445
 5.613002391700692,  8.572817407752840, 60.168542547410226,  4.267258334622698
 0.225264816947478,  1.177602645103425, 35.267039423276373,  3.997901306952784
 1.542559502931729,  6.860721099789705, 69.689298640282516,  4.003557222471342
 4.257363076192194,  9.596414000537125, 43.949902147335003,  4.125278732200834
 1.785905432379643, 13.532866798627325,  7.778064257838464,  4.021366605104373
 9.407316882791912, 11.482166602833367,  8.678908319223920,  4.166828092280343
 9.436849495152879,  3.421510943987352, 25.583402450731128,  4.196476124969315
 3.987626660326125,  1.624787049892938, 41.946040053979679,  3.882416009982689
12.118810252055656,  8.946187768114159, 35.598223169168122,  3.817890925225385
11.112795917735022, 14.322594338617474, 49.218871063475504,  3.894313045316985
 5.197756966172786, 10.307765204364870, 36.185134526877150,  4.356485762111795
 8.913753042980003, 13.933843204729834, 12.939340131306572,  3.832610908650241
13.529053636008602,  0.700500477271303, 71.008877636283316,  3.588248359234022
13.217900415805101,  4.439174754814601, 32.497422369315174,  3.917190133441471
 0.721498689307665,  5.289166344419436,  0.244342869820085,  4.121827254459400
12.670099709473577,  4.526369490268241, 64.542806126625266,  3.666664514369558
 8.364141178358876,  5.050091521891186, 85.252512048845404,  3.771349889171333
 6.625076435388869,  9.811601522104093, 11.178139660005970,  3.998398255469873
12.002609552338910, 15.004501706903525, 83.554065101233959,  3.809790466662342
 5.269428220503923, 11.830846040528174, 79.050105763294525,  3.773474851559215
 8.053747472075294,  8.414309020598477, 29.143644592685877,  4.279940381803296
 6.354420080786097, 13.077485339931238, 17.177562785434574,  4.090017004587136
11.502469436751564,  2.093548663040788, 77.325055254205736,  3.831558115226163
10.621383815338897,  7.688553150531314, 47.541283288658278,  3.992519035943320
 1.759004015833793, 14.319617856397560, 69.436256841865443,  4.084926636385884
11.817458034677584, 10.801884326925061, 50.770894037345812,  3.913091281225902
 8.463306116422441,  6.474496168473504, 88.629642969593505,  3.554348541522156
 2.733129252890940,  3.623322456705675, 56.001447922430266,  3.856019424559715
13.432439595904809, 14.743073638887099, 90.033336417120879,  4.177100903632800
 2.086916193652566, 13.626590543264509, 46.089123313628832,  3.875106626450657
 9.155781816199498, 11.531622706427013, 35.191811809448694,  4.078804269358591
 5.587658456795051,  3.197344641146175, 74.492615240449211,  3.866623728245963
 0.490164156781407,  5.461024927312330, 21.818730377476864,  3.979054536629091
 0.879710984757671,  8.101330316801247, 65.901108551902183,  4.035206830116505
 7.900095887788803,  1.289023012470719,  3.798108812058842,  3.793172611122176
10.889418270199485, 11.529602094189407, 57.383131655559495,  4.131084031316743
10.346567331361209,  9.746737823854557,  0.118252870992620,  4.142801407180203
 5.979974564168296, 14.706688127361321, 65.500391025466115,  4.341782672330815
 2.288996563913992,  4.884627211257826, 32.467539197225747,  4.309186906909284
 5.593934847061533,  0.596083023647250, 13.901936509565690,  3.822887148777693
14.548575001980275, 11.380484466016368, 83.407656453652038,  3.713619566549473
13.876329420406034, 11.610282905134806,  9.936346218453895,  4.227584857667503
 6.530761639290129,  5.449576554672850, 91.483921065257363,  3.623761629214437
10.576190907934985,  5.825757588502325, 61.141640611128651,  3.980037397522348
 8.798727541416094,  4.637884245781153, 79.093540752190762,  4.104110255477203
13.501065199160738,  0.841706894827512,  6.336361447209518,  3.919602629618126
 8.124697853812931, 10.512844546126441, 45.591124552833271,  4.471372239931267
 9.502845967549765,  3.186836883873543, 89.833205065680573,  3.735672388890958
 7.602213910257110, 14.782501398092814, 25.702730024735743,  4.011666300985903
11.675784725072608,  6.350277026459247, 21.686594916800093,  3.897122819358851
 1.641603485827600,  8.209285166600273, 19.200106261147404,  3.903942065290649
 2.218111596510675,  5.090489994545142, 74.018060205033777,  3.908586153805024
10.678308048806423, 13.602430411588347, 60.933116891392686,  4.085474256257576
 2.603678976296665, 10.881678028071546, 62.140939269605397,  4.281631836040307
 6.675520327835448,  9.947209130610915, 83.010584866579521,  3.843307238311095
 7.470113493981041, 12.045335716470193, 86.267386586735370,  4.046994125834348
15.021527807701997,  8.451555962330902,  7.377671489176498,  4.198267569823749
14.131957177264537,  6.425850401480336, 45.992342343407643,  4.040911046283687
 9.563037048971678,  2.973396669296049, 58.706779988453462,  3.764493963598090
 3.130443681759512,  8.878978118300466, 32.296576191024322,  3.836419513257588
 2.728357873123931,  3.278737569099818, 14.210559151607987,  4.016980354242719
11.667689817751738,  1.976755221186465, 51.979308672755742,  3.882952280603889
 8.300027605555714, 10.091094520444354, 70.347454260230151,  3.824641488212262
10.910810246419700, 12.803372644340969, 26.983817152218197,  3.806148729229604
 5.661933652328205, 11.968116430376902,  7.236711596079734,  3.912058229976018
14.724805961270174, 13.678676117586614, 22.078464623798745,  4.131449048223955
 1.343289898357080,  1.375131459378988, 51.271526396756705,  4.006240740874100
 4.654311813758340,  9.267003174557743, 69.238114716430417,  3.872509930885468
 4.142620715898743,  1.417300157620117, 17.448258425604561,  3.968130920343034
13.317501309023370,  0.751306507451274, 64.830198189985737,  3.911714538419268
 2.159792161859237,  5.869718138509476, 25.600335840980776,  4.039832363943058
14.544668718237375,  1.380479918463750,  0.054699496763150,  4.051801359708438
 6.438719061026461,  1.534750267814313, 91.726814485674709,  4.183642843741089
 8.563674823434679, 12.843261894065288, 73.030209221020229,  3.731719585465308
14.698219616701584,  6.928484020358586, 61.827251988028124,  4.618858773559562
 2.683507482719970,  3.394654807248256, 28.498674862277195,  3.644379484914228
 4.436542367784597,  1.215971133110146, 84.933803069577138,  4.133214162831806
12.788729843416505,  1.844863865437267, 16.046902729405126,  3.838679297030994
 5.287142688840540,  4.524390752150228, 49.421368094255939,  3.911019752359804
 3.773364921556976,  7.810063645269267, 76.305869188070218,  3.836491794091496
 1.472874761453562, 12.761622820820683, 80.036674721533871,  4.277001773072532
 0.077448006354157, 12.779576017539428, 72.758844028561285,  3.968928079203648
 2.162040926782545, 10.403728052105736, 22.489077671342951,  4.030067649614932
 6.232193600125555,  0.191270101437356, 20.431661162927959,  3.686647168890614
 7.404987286683591,  2.331117313187039, 10.880085183903059,  3.650645509855122
12.146742169210626,  2.312974433184114, 86.897743168152374,  4.354642903328241
 6.928737185230683,  6.398649645430707, 46.192908393497127,  4.181217053900291
 5.621972121465224, 13.716655688727823, 44.137021836265731,  4.143158445758703
13.504983473512976,  2.169295614135597, 28.913702647481099,  3.945526144902275
14.029387087784491,  8.280192981228389, 38.979042076584086,  4.046896732310597
 9.680621312722996,  0.938795408253021, 54.930354658935165,  3.507099584049229
14.269136645589557,  5.023555262255474, 52.362511852797979,  3.781514675504445
12.746671718589125,  6.590195040851154, 67.636991219299119,  3.768459106083855
 9.403732199819684, 12.969152531734167, 77.042270038703847,  4.202147524084816
 7.042562667001384, 10.292231519216349, 56.652669917208961,  4.051891908730223
 1.182351765165835,  9.825703932850116, 52.689082191555848,  4.175463859452287
 9.044883889609096,  7.204480769648128, 67.787621850175000,  3.630655513584391
11.217596032809151,  4.692098771038588, 55.237364574896596,  4.622545233617946
 3.928519292952598,  2.060198461694059, 36.566636191023576,  3.931334491615081
 0.540437484033908,  6.915082197494651, 55.554949081688711,  4.070517077978280
 9.795271301353290, 14.444630725385748, 45.461790256194412,  4.068855164370167
10.456783216756973,  8.052874303842204, 77.376963818096144,  4.213258940121934
 4.862678407024971,  2.771722792841663, 25.316093311923510,  4.167867086001554
 9.035876265964449,  0.897124987315338, 16.293174636415316,  3.888636532993931
 2.191072947096297,  4.671483095844251, 17.931885530520638,  3.680992655197771
12.051485367729192,  9.345368819836967, 28.458488347382527,  4.041131270956437
 2.867140005273416, 10.680043517267963, 16.381030094298428,  3.920167906299524
 6.340561371209295,  6.307554528674522, 32.434212800088524,  4.220636034499576
 4.159331139202446,  6.925559753068359, 28.964667909797868,  4.066001756448035
 4.741625372500048,  1.757160690858796, 58.740987034553051,  3.893839286591459
 7.990132844341972,  7.722073657106352, 42.587842112475542,  3.702009956135667
 6.572054206544341, 14.957779991754704, 48.032904093354389,  4.224618494536640
13.424225859179321,  4.834514764717347, 18.508930119154570,  3.944757896676561
13.848009135001531,  4.266893487901775, 39.982813881887935,  3.968961741706762
 7.426969370765695,  0.027757601438809, 36.570980387645044,  4.013913339880365
 8.224550370409657, 13.633128872426706, 82.520657600032621,  4.188484518659334
11.182348028330201,  5.672903821121326, 15.211595709084030,  4.189976615537629
 7.877962628796924, 13.017784512944004, 93.354450720865358,  4.132895548786689
 4.644166505483130, 14.695292630776429, 81.375510008880525,  3.619440216762802
 1.824685927071197,  8.852292826644286, 58.733778033954700,  3.793789726244973
14.051843865491307, 11.677874938628481, 64.522793520271051,  4.451417806731119
 1.657092004228952, 13.616644679520361, 54.040385691249924,  3.877350985479395
 6.221311569284924,  7.447067040647132, 39.161979357881137,  4.006687968046918
 1.080612297651176,  6.872197063664816, 42.313353746385438,  4.235621229840382
 7.444330053251448,  0.983912790080113, 61.541283045891198,  4.035767956027242
 2.591328121395651, 10.664760645373429,  4.798854722132469,  4.340098925057925
 4.924009424048457,  4.042471862490341,  4.484859216466377,  4.208423769235072
 8.086951921961777,  9.566497563513579, 90.718687125552179,  3.915026146226436
14.525089671714460, 11.750907786075029, 25.704815518927063,  4.072187420667777
 3.122660422253889,  5.303168045190042, 59.738284250433423,  3.991467448450098
14.070691107655701,  3.850972847787695, 13.069488861734223,  3.747996250052812
 0.046958263337343,  5.294625319643003, 36.151377927502345,  4.318717908397932
14.473007146232383,  1.927864278382818, 54.736461973298105,  3.970454295349505
 9.550957250176925,  9.690202851836069, 60.845809842406943,  4.023851607495125
 3.751646036442021, 12.288950000889551, 84.189750768344155,  3.986933919200789
10.288782211346870,  1.137012217283971, 80.596144116117870,  3.400108607734752
 4.672385298203038,  5.931930507987769,  0.786606562085178,  3.934829483425608
 4.031252033721957, 12.733359810121645,  1.107882344006991,  4.043026103094825
12.828979899440229, 14.208287201183053, 13.141198758950367,  4.020528809328349
10.686381662913924, 11.551509984589202, 31.496197351441449,  3.917267858904431
12.329838479640815,  4.429900961295126, 49.016368535672129,  3.905206904969580
10.086048324483581,  3.829510221181369, 41.212055366452390,  3.976130748134883
14.488974794440306, 12.306543580716781, 93.289774568396581,  4.208650492877911
 7.078366964583101,  0.944973466956531, 78.687924528200938,  4.071079767062652
13.086977672135202, 11.094393826471007, 75.966862366660564,  4.284970248552224
10.179190409922102, 13.125304702253445, 38.709245228969465,  3.905944858226706
 1.323921136187790, 10.845254044424008, 90.184452707902267,  3.601695452476441
 2.303955746581284,  9.172354502939662, 93.755748329932814,  4.281029145679593
13.299459103852159,  7.342918203114489, 11.846790347057926,  3.809538940997694
13.386265768167473,  4.553367093155233, 25.697881528640195,  4.006471758859467
 1.001556440860515,  2.927816374244546, 62.699092334090324,  3.950158133321440
 2.982107952827015, 11.670992854028912, 66.387377564474690,  4.298412363101414
12.242202053430754,  0.347607009528278, 57.648872513842825,  4.010695959327105
14.942119279416968,  3.632845061853326, 84.199313409168909,  3.848734478592173
 2.415883074750716,  0.859979271974156, 73.754667883264162,  4.068530630106456
12.315048887012331,  9.045685672614752, 17.079293839811552,  3.822858454181292
11.314773497915226,  8.304574721181469, 64.327957296693043,  4.205468396884483
 9.139404803371214, 10.550096505105730, 80.182949124729248,  3.743869389609029
 5.623630953170469, 13.926930309915521, 75.425444995066059,  4.153249049944286
12.025297309240734,  6.407271923132321, 88.294874120932519,  3.570114655967383
11.993380685000332,  4.140463219874746,  9.678002256994191,  4.087973876663313
 7.767598963380157,  7.333139054765882, 53.996532920265068,  4.015563177653743
 1.021026213290652, 13.217102762426462, 87.065787337707420,  4.139739668594235
 9.443215483756077, 14.650777936421699, 68.734872257768060,  4.190546347322452
 9.334819076643845,  0.965896751952996, 22.401655954056455,  3.786559113869765
12.475386782249048,  7.735805374911196, 58.094701556865544,  4.021309884968034
 2.015004263117624, 13.193591171649771, 42.131648778646799,  4.082997894533336
 7.246035485981233,  6.403330971646688, 75.723110143047350,  3.721960910550234
 3.132097401764055,  0.937652660268776, 77.962584881731189,  3.943788981097898
 6.638784540783766, 12.114848407436419, 62.265929553152127,  4.049033690264988
 4.918421317596979,  5.498828055427010, 42.401236636009756,  3.885970427518075
10.628957130371667, 11.853471515124207, 42.435056586029951,  4.014814865475767
 6.344452231379065,  9.441587248045092,  0.369832292196434,  3.881886278169974
10.990997255028876,  7.037325142716274, 51.639731661742410,  3.961868480902629
 1.348771635051757,  3.082604195015146, 70.674606802144837,  3.809380909834033
 2.281357598118972,  2.440971044725121,  7.191625320520524,  3.963109870965860
 2.991699438862699,  3.831745277674497, 91.035808056109246,  4.169417355357965
 7.814945561961308,  0.018709315354789, 41.028349357448739,  3.753456063295617
 9.478143785267287,  2.186973425890489, 64.970513907226632,  4.290569445035978
11.232081518667060,  3.773322870560067, 82.986967819895739,  3.959963159315333
 4.065920546091408, 12.091303886730847, 72.038726579422118,  4.156661180485616
 4.150267929040945,  2.202748546795200, 68.187679104487231,  3.859245552609558
 7.130347043259402,  4.664711110294978,  7.879480777366216,  3.959498155386085
 8.198051115442157, 14.993714174050504, 51.746800039056076,  3.746593109818376
 3.671611737516361, 11.307643210468720, 26.218176578056870,  4.200374351410789
 6.792981695716365,  9.795709306986154, 65.804140329213894,  4.247611729626567
14.333686011314022, 10.440639478937488, 43.254485236460958,  3.958468620306033
 6.770421521231990, 10.147018380262994, 76.026463097756547,  3.765169501585009
10.764270370549308, 10.348874023868518, 12.440736429116058,  4.143345711475795
 9.203383048960189, 14.183852648209944, 89.473859846550269,  4.388864578730593
14.006762874051590,  9.504517547652394, 87.539449572494433,  3.933763207787340
13.580476921787643, 10.834881272714236, 60.398060569369967,  3.990650806231524
 2.032723617371899,  8.666798880817762, 84.999333569978035,  4.185995323827988
14.008853395423966,  1.860604049467336, 80.446429116528222,  4.158696061313955
 7.052412096999994,  0.537099458572305,  7.608640312570597,  3.844449802939573
 4.279259904496805,  6.966585679998112, 15.337512365700039,  4.293219409844111
 4.770140350801348, 11.448870526707134, 91.420872479954610,  3.815731407528223
 3.554185309291843,  2.952495054713489, 21.117292232873424,  4.051966950513024
 4.845223011389045,  3.197380489241481, 63.757456030882395,  3.799737073644322
 6.608272579840252, 10.526904352582807, 32.310775762435036,  3.858282352707628
14.286941751844221,  8.225908839545280, 32.411194150654332,  3.920101652195723
12.997555995519615,  0.580824605825260, 25.229809597183731,  4.016378856925651
12.573646951147104,  9.339172096157618, 54.441171909630938,  3.940384234830396
13.901630113221053, 13.009016239638989, 29.574743577988439,  4.111096050322467
 3.074913255908743,  5.357454860285564, 52.545538164302776,  3.892549096195436
 8.353300322817804,  7.627653484959183, 35.763185197405924,  3.965193537941266
 5.259217634308849,  0.704153370996191, 28.711093555577609,  3.785200259146433
 1.523802228612175,  8.991956002316270, 73.197661384830283,  4.182097369299259
 0.659499514166568,  8.976338787147135, 78.380428244574574,  3.984952295655708
 1.570712047138956,  0.755687878173159, 31.315977750890454,  4.382128326963369
 0.975173587500864,  4.350756427428694, 77.776535203414284,  4.093607716396561
11.664628587966263, 12.436766541730645, 71.078137465236594,  3.636096540231346
 0.913468120626903, 14.997283273282935, 83.443475636857173,  3.892338485813112
12.393561331819015, 11.322537709534213, 46.759910446363783,  4.236613783943906
 4.842268375168058,  4.969624505950335, 71.018164929449767,  4.051643652996018
 1.789115881502733, 12.591013486769858, 36.893370685396370,  3.943011062720203
14.554833870561540, 14.779152951175703, 76.994815399026763,  3.885661781181608
 2.144026897333873, 13.285662262166044, 11.855829557271173,  4.024133188854448
 7.836690161801196, 10.589753345434705, 25.387848567201406,  4.407029243802153
 7.328059890973867,  2.618751265667642, 82.373169803965268,  4.031780612893314
12.626074212915226,  5.435271559281524, 79.457400535378326,  3.731103911722003
11.643989375329625,  2.307953961261311,  3.004405058967580,  4.127577815116560
 3.281199106766242, 10.591208369838776, 55.837962073581899,  3.515752841484793
 7.494473234678287,  7.809073758837858, 49.974945949947283,  3.932644734435827
 5.954027108178833,  3.536621194018780, 88.061247357242280,  4.221660317400043
 9.632213409278053,  9.390905114804063, 73.779257828563033,  3.632223728618828
 2.890845837701855,  3.239032181099502, 81.415287117008006,  4.346797079746051
 5.488782873280712,  2.347631819080901, 32.168002379761823,  3.878757850565246
 6.386928999310406,  7.976968527927422, 79.199586198114886,  3.958989379810481
 9.098670073785065,  6.517984122730923, 11.611028988543890,  4.282725271929948
10.816047389229333,  0.215706786620669,  9.618289347532318,  4.087549942417948
 8.090030647264735,  8.025518842481283, 22.043832566515334,  4.035357334139325
 5.515913804047380,  8.373937943533639, 72.906651916980223,  3.830702889182751
 1.232853507323374,  9.797008162595414, 46.717555903968709,  4.067735506006551
12.158761908384870,  2.685924683976246, 68.085341663720939,  3.987721489010374
 8.682138253795516,  6.337650191849334, 71.598309970483712,  4.084684495880674
 1.908422856655978,  7.933334038517122, 12.337809072010737,  3.562869597318681
 2.023142755775592,  0.462068001691633, 65.576386365823453,  3.721318751046581
 5.055122137114769,  2.035415689396545, 52.386232524082942,  3.840214068696596
11.824623179692683, 14.572238625278048, 74.191862325552833,  3.907029293563625
 4.385462054057590, 13.929377253112328, 34.020094712617663,  4.226231761673243
12.046779123908275, 12.819091704592674, 86.747759087830659,  3.922208169999583
 9.381746043772019,  7.227325856831496, 82.171681408632466,  4.005387805879798
 1.570197847902770,  6.664582057497865,  4.002209455707752,  4.055150206620439
 7.638439706842750, 12.603201906224198, 29.115890822872977,  4.014603145188887
14.220826861524378,  8.099473890362214, 24.323725974876119,  3.726370838316026
13.071327810812077,  5.097291581505917,  5.764258356053094,  4.199377212179419
 7.772571692251902,  6.006592635435884, 64.173638895797779,  4.226011339704089
 3.596972577784043, 14.923354963569210, 62.065331041836934,  4.021191250475773
14.390645323268593,  3.950192207158153, 58.418400464621627,  4.429356963309207
 5.574119584340724,  8.905825015171269, 18.939818927715613,  4.088839543305719
14.847357692476718, 11.503697250208834, 56.746838774299221,  3.848883093179495
10.435246495263224,  7.404302349458738, 32.376398483931297,  3.950209550836095
 5.955626644568102, 11.677290049492468, 21.825444779470519,  3.922892901521506
 0.464287464265139,  2.873741725745788, 43.448759721988473,  4.165527973637090
10.738280957213068, 12.374452816998723, 15.935258913136641,  3.834183597843057
10.518894644105195,  6.358708203356679, 91.803783882296969,  4.004109161165756
14.204293236925945,  7.893947560131283, 91.324217431257097,  4.029023708519349
12.130949969940545,  2.239887519587226, 61.442646718904420,  3.853416777989867
 1.461608061099311,  2.200708100548391, 87.591206202744573,  4.007521677148184
12.687636352285848,  7.161050455473950, 84.562596998526715,  4.032729229802503
 9.998041888184408, 14.067856063854084,  5.848443699880916,  3.588704066162024
 8.393338921634676,  0.982662752334279, 85.812961395153451,  3.876525837135631
10.658848476325730,  4.904110316485927, 74.793237850320693,  3.913666419932676
11.252554566986843,  5.735740479914718, 37.511457713263063,  3.771548841915081
13.948090400934714,  6.915606712594350, 75.500498905607415,  3.847320777733412
 0.922057591342809,  5.176562601801125,  9.857030829245994,  4.104078153254997
 5.094565509010120, 12.018902783097488, 13.772152218052293,  3.444379030945281
 8.228914909270850, 11.617341221726665, 49.583723004395345,  3.808280466834312
 8.239366643721000, 14.556862780575496, 32.621257461728355,  4.052037236747618
13.950767934399915, 12.255075598350697, 39.709163325786470,  3.999953779267065
10.759965981639443, 10.653104251480430, 83.691684690064605,  3.977002843943220
 7.307537268480946,  3.843886036794747, 35.508396524934838,  3.886618626986432
 4.201187794740433,  6.924825332948265, 22.242394056355295,  4.042116100522581
 9.969318623628070,  9.113820883125957, 39.235762191956375,  4.195674392798049
 7.333995766768993,  4.136321420821786, 14.610378241162723,  4.149965758005346
 1.054460430895668,  9.580825234493647, 28.936827897762992,  4.096136276537040
13.405539272896684,  9.918063296920705, 20.866662384134425,  4.169112349287852
11.268017017795673,  1.751122296653656, 36.562400584753092,  4.400550181575207
 2.390022805260640, 14.706554630436855, 91.402920615769247,  4.243628020345794
