BANDS
8 8
NANOPARTICLES
cell(1), 15.038
cell(2), 15.038
cell(3), 93.986
11.256908712337149, 12.057914392914936, 45.764880196330964,  4.124235787108977
 1.793339132137630, 13.642322390185742, 56.933756064058095,  3.923011626959346
10.575508658293677,  7.698158494833001, 32.157437942058706,  3.945868632594479
 6.565646007127776,  4.203035364592300, 92.550188758817427,  4.026599073112147
 5.729755634863579,  3.659059382571452, 55.974941685646463,  4.196372467184792
 1.685415425073849,  9.216507305141912, 79.348486483474659,  3.748442367398444
 0.011586176812552,  6.580461731460991, 40.868785023319283,  4.038106749226370
 0.202425631619754,  0.209027733418849,  3.124467703236404,  3.950549956440516
 7.694082971207271,  0.918826072291855, 50.629023628800397,  3.809613753920615
 4.594731373051727, 12.833472988709605, 69.159349113028966,  4.261541591958506
 9.574197843945161,  0.721019375820820,  6.093853632144250,  4.002741325636937
 8.541988076286147,  6.246172102990713, 20.362998585357850,  4.301612570297979
 8.356798070818447,  3.041003598891679, 37.609484411710945,  3.987268268244338
10.456673890567521,  9.945411364763753, 74.123340527209038,  4.214817030125999
 2.676183102173098,  8.005839917075683, 43.778798139173524,  4.228862495415276
10.747331901738658,  9.042089893401034, 85.459781021903851,  3.936136344448645
12.914154210318864,  0.048124738463750, 35.508279780311383,  3.936306877288872
 8.451450071042341,  5.501259897251092, 79.658829578815272,  4.019752407352306
 1.211885590837262,  9.478972655861785,  8.230009628223554,  4.279418389610942
 4.685952788481813, 13.901562360709683, 74.598188846713896,  3.662364870754120
10.662594101138758,  1.992788027616041, 17.570543305323280,  4.062324679446293
 5.739987471301847, 13.874479726059043, 48.003297924745340,  3.909842635135676
 6.018892395597302, 12.750454894965353, 35.437795517988377,  3.715302766606155
 7.804257342602868, 10.359690625129650, 11.147890508276163,  3.895089867967648
 4.758277101696373, 13.692183413693973, 28.495089607062923,  3.661060688208128
13.077763724220473,  7.869420915332437, 88.567680804729449,  4.163548808962741
 7.417105882718053,  4.530780600350242, 52.261415824501633,  4.122804475289430
 0.477563227380246, 12.056773164473226, 29.755736359437574,  4.255801590261822
 5.234119925753318, 12.919765545924195, 23.680920422630230,  3.752885238422853
 0.242631066724695,  3.750048682903258,  8.272256747467081,  4.194780331030822
 8.402586583758973,  8.033956461939670, 24.689902205411514,  4.112417812900860
 6.639715222234845,  7.972616568704769,  6.689221003021917,  3.770203354078089
 5.936776427602597,  0.117655774224506, 78.093266366244336,  3.996300052555995
 9.878215193225941,  3.236475220171016, 62.983691631864851,  4.219694336389107
 8.855536900989312,  1.301596214679079, 54.463295828290796,  4.190533005000488
 0.217471717503214,  0.681005278475406, 74.036104630052634,  3.927796878427904
 2.842615033162688, 10.334924728053752, 75.621856892970754,  4.230651418436029
14.602918166234351,  4.805289690236142, 34.271136342807772,  4.033612105712196
 0.881980843367747,  9.547058844508809, 84.278853511246638,  4.236511634986459
 2.029515201090988,  8.398960371597004, 52.231877828320947,  3.951061093143593
 9.648505839803679, 12.881588915787157, 49.876876674556456,  3.601850074444275
 7.605278602744779,  7.134011082588277, 72.750203778483638,  4.228948761287392
 6.240864652171999,  3.669303748738711, 26.963524881662920,  4.117764080317784
 0.279048748303079,  5.515259679043691, 65.448033952230631,  4.159421328088511
 8.622399792021181,  6.964833611311112, 36.428862995578271,  4.203963767781283
 1.900439647622431,  5.947942479808439, 37.365157775765290,  4.016102541035191
10.539172286459246, 12.317162839391223, 40.745117922364194,  3.953994693065081
 3.550861827476734,  1.285904984884731, 82.466566806480358,  4.361580275811091
 5.373905233265065,  5.608912766363562, 23.141494173243494,  4.210114085370145
 1.022184198296424, 10.516264001120570, 40.864330049283474,  4.076923434848686
 0.526435890489927,  2.157857904870147, 37.648378496874123,  4.061400922005828
 3.422694978542724, 13.178530249540616, 62.923290913849129,  3.863525698028046
 4.379797286020725, 10.523601780707672, 65.757060253805605,  3.963694539350405
14.815578797476741,  5.695286162044547, 54.230898687622897,  4.107041689836153
 2.937025289509081,  1.721905572137902, 29.445798130251251,  3.715699698009857
 2.668642907675885,  2.871895138421981, 32.964822582530225,  3.669391269674427
 1.546543732804632, 13.721135608369169, 66.297531576811735,  3.924812973616726
 5.202967946786711,  3.788870105396007, 72.429150542764347,  4.016955352697567
10.457000714131118,  9.919046219775780, 78.245043361751669,  3.968550066827381
 2.159143001744207, 13.015076806713505,  5.985767768629712,  4.292419333731947
13.900605371557701, 13.779977576687623, 83.933493710552455,  3.882998885256183
 1.529921703864930,  7.720780319179533, 23.966680115962991,  4.614860566258252
10.237327275973099,  6.034520383135439, 59.847874501475602,  4.201949064126853
 0.018268438441927,  0.247887894957689, 32.205726928933103,  3.899259962816654
 2.767038603913829, 11.484061220863159,  1.762991346212799,  4.340935894369329
 1.016400443214835,  8.183857677326388, 28.271738789608861,  4.085442292342094
 5.129525709032725, 14.743567937401993, 55.106349905602158,  3.980797099141328
12.054109906566962,  5.488103005704301, 10.155305800079173,  4.002142255424394
11.060469020772135,  8.505884932598384, 39.122743126538758,  3.677657707849697
 2.322700276931248,  6.219514042658562, 47.530913304506662,  3.934083906004140
 5.701223043382423, 12.669244122254190, 82.791778951329803,  4.135987978377159
13.975540076786425, 11.799480027872800, 78.419928944920386,  3.993648144310595
 5.326870052706022,  7.365896911143274, 17.786707435271634,  4.223697948546066
10.853284738830149,  1.413142575019113, 84.361325025673509,  4.108729209550784
 3.443483518084208,  2.395339387109052, 75.849011644030924,  4.111759441403410
 2.045292047265042,  9.937357623522221, 17.939591034889059,  4.109348208361700
 6.699305698045162,  9.324837500057061, 68.840845384348398,  3.944745375703869
13.686551425660634,  0.840141297383268, 87.436748528777969,  4.291505370029321
 9.842856311705836,  7.308791037852178, 13.103081789698114,  4.198981140440583
 4.238365792888884,  4.370502045987721, 11.268712490571390,  3.976500848376740
 0.222354286270427, 14.621160336502516, 22.603592686589938,  3.783741649021787
14.278070102894176,  0.293637962192109, 15.442281305058289,  4.216231777352641
13.041341655786656,  5.396542916340425, 26.862505006055301,  4.481375746047368
 6.193890755387989,  6.280753740624690, 42.686944412717288,  3.882377467359829
 2.398482395036583,  2.504405348546930, 63.779991405134858,  3.912647008441337
10.128190149582888,  0.854828507779088, 42.908415019760000,  4.355308386832938
13.287685481743424,  6.990969675371859,  6.409947802517732,  4.252515610937565
 9.592193050986960, 12.832050955193564, 83.464912599952001,  3.750931113214791
 4.294243327219887,  6.885902118102859,  0.476170020121955,  3.953230566705305
 7.494604042156327, 10.794609073664752, 85.534834399709197,  3.413529935513990
 7.058356046324882, 11.104560193432905, 57.213340401736161,  4.005571696982160
 5.058859104370334,  8.636275517420097, 90.898974897789188,  4.071441190733348
 7.917372248229792, 10.586005200515896, 38.288664530917508,  4.020794579231942
 8.714963443116988,  7.609088219995426, 92.311398910500458,  4.032176340092274
 8.434691100242492,  9.631614010572678, 88.897398068199436,  3.922001256554530
13.931424306161967,  1.334127465008573, 11.397194099499869,  4.152136327462336
 5.029413521551822, 11.683914045166897, 88.208203854196412,  4.050214961349203
11.814138430462176,  0.869692151194765,  1.002590369057739,  4.209855081707096
13.437429760136164,  0.676097375219807, 46.852725421021837,  4.155671179952535
 8.082520811308834, 13.502081067271382, 21.118308718565068,  3.817214347268083
 5.454385108538388,  5.707414021008056, 38.971578997800165,  3.738464494980836
 4.299455236343348, 14.357984982398570, 19.890717287424255,  4.178707942664242
 7.382064336407386, 12.202414698047656, 14.431279236637225,  3.656788524873667
 2.450425599405744,  2.371085415841348, 21.532241412451441,  3.661620571805690
11.290984381667467,  2.064596761299078, 49.996568565336538,  3.734699354311721
 4.237796952450184, 10.108873444226026, 29.845138067603969,  4.035176637826456
 4.851612199359321,  0.993580364385670, 37.286293766304453,  4.101943133182486
 9.631145448688008,  5.099559531432500, 83.404019368228077,  3.862779456004325
10.736607367098385, 13.455120588323963, 28.319248890977764,  4.126553847021944
11.840807343069883, 14.225492900626149, 80.665278672818275,  3.874941875926828
 6.501528740403823,  5.701179779372967, 61.985696493951323,  4.187382078354261
 3.806207267327215,  7.347140708098391, 71.440061020587564,  3.793940386114563
 7.124651578648986, 12.273312381708172, 63.640142581010558,  3.798750611519302
 1.264231853824031,  3.376159238493734, 13.864871126555123,  3.799924834481302
11.375342981796800, 13.169610112542459, 10.394970482028114,  4.278336919686839
11.843212482290639,  8.938231915683810, 48.197964097364128,  3.848874383186518
 8.540275071111417,  8.994966022195213, 41.675839309199816,  3.559330726042725
10.496803832619706,  9.577944657865054,  4.585047686423404,  4.168384159699645
 2.752475278537037,  0.887511452018354,  9.681064099507370,  3.820048351287011
12.308517487626869,  3.347244357020791, 90.441811271508911,  3.994756222355831
 6.038671326533134,  0.970886327702360, 89.526425101490403,  4.121745839348447
12.627820153047853,  7.422513231662971, 92.524933913432690,  3.812105040689081
 9.574176014721049,  5.372221291417732, 55.738285137554264,  4.226703656165687
 5.245211992097580,  5.106440364700372,  4.572251302744012,  3.874392819109695
14.172832928481780, 11.057560762133377, 55.563714286477037,  3.980590987026661
 8.911238635419895,  5.782969126623594, 40.181683060294965,  3.548976254727869
 6.590572884058089,  2.773176852707940, 41.103609731050348,  3.851096986440627
 1.851502790765360, 14.177392223411321, 35.460155790756218,  3.839944694265615
11.719510204764447,  4.074057483252459, 30.850475931930522,  3.794178419768627
 0.390028996919753,  8.939980140414642, 72.516891400479750,  4.034250827438407
14.571122830285127,  8.554392055884364, 32.144586761120912,  4.207242684004833
 8.338327052723619,  4.964991937364363, 16.543243213844775,  3.755623377391471
11.701425571647858,  4.981138024153451, 42.960821172312357,  4.475724657207188
 8.162026854712222,  2.743642821042211, 66.703370544196858,  4.027860808132129
 5.043834412505224, 13.925477012809104, 59.224727100660537,  4.006097700929947
 8.031892983584813,  7.011044539904215,  2.346148842539028,  4.207430836629424
 6.820640541514311,  8.744651082861429, 76.610442782253443,  4.246811492305148
11.559691291528496,  2.855292157659757, 74.565191620886537,  3.804753240232620
 4.166795550232777, 12.320508132379581, 92.001916084218053,  3.821892368484654
12.987356707609090, 10.723101584154506, 17.555999954980106,  3.799511325272566
 3.330014302129779,  6.975808983275146, 55.705157766224872,  3.992497651267410
12.294542540486590,  4.702338497314444, 47.221715042903718,  4.139472494485812
 7.956838234768026, 12.797443141578213, 32.004737580975899,  4.039959116824931
 0.723008181801134,  5.410751093191212, 17.026825181175557,  3.763351104808213
 2.821962404879223,  0.319506912866554, 40.782752270092210,  4.091334843062537
 0.599377339426213,  9.428706037947682, 48.774526821918371,  3.763463645218184
 4.235670408060222,  3.858543144384546, 45.170699493032394,  3.684702628923575
 1.357948082677384,  5.474876882299612, 80.929373460600146,  4.397823229015891
10.625708080427877,  6.340204231050041, 76.278313205970889,  4.179918864299519
11.697349024791249, 11.378297188522602, 31.571595595742711,  3.826766377003082
 1.731447655661945,  3.152736483068623, 57.166429404221809,  4.195418121527609
 0.757966657389176,  6.412060762410328, 11.402708657139733,  4.068084908817222
 9.532956834022054,  7.901033762890977, 45.174846947573627,  4.034780456865517
 8.112677370174771, 12.567409368683487, 76.104861023344000,  3.843720517547343
 1.739291950128542, 12.630954641949391, 81.366162804893293,  4.119674816157567
 3.845602702493670, 12.260865941764399, 12.073159645166408,  4.145460445107337
 2.856449821012117,  0.588585933154610, 25.543188004827634,  4.352812653657113
14.832536120473137,  8.320057477005310, 61.167471078701830,  4.060069159404647
11.370712348405410,  5.754650036027845, 51.967755320554211,  4.131565247515720
13.356021537049555, 14.485512234097216, 91.390072810678276,  4.108978034145443
12.298595897317851,  5.003621296597646, 22.006450034687287,  4.237182299804944
 1.086676636291932, 12.297763394017517, 52.247367757967879,  4.002479495816651
 8.209946764364526,  3.998847248370042, 45.359032296527793,  4.203710248378721
14.966555115837423,  2.987473525738160, 24.152658091754844,  3.706022213070028
 5.197072130855032, 10.068055779690647, 60.813791587922054,  4.339318885527839
 4.249955874605122, 14.432284450185408, 32.301476173460159,  4.079039248632330
14.775206610410551,  2.705329149391133, 83.785068876646562,  4.192656653912726
 6.615305980166061,  7.155568723262693, 58.088128745708687,  4.121830185315218
 6.733262886060790, 11.093235146980655, 26.627309140837298,  3.776912728191722
 9.433974860092887, 10.435550836088487, 66.185259003901592,  3.977632551268058
 1.390612619175505,  0.490308900717048, 60.453103145480057,  4.059765788679394
10.368860943428981, 13.237424678356506, 56.622710234638987,  3.948642722601654
 2.997528033184323,  6.361301827040548, 76.922761088348068,  4.133589748467601
13.553129483241941,  1.991009999489343, 64.443878973927269,  3.971414192259183
 9.332784669945392,  0.416112313557957, 47.069404366673766,  4.035210715121096
11.481296546628519, 14.509644893764568, 72.657826152280052,  3.940331837449417
 9.700709627325693, 13.038948647183755, 17.462517122350047,  4.139997442781813
 4.178417335066356,  1.010740578543481, 13.234679416639558,  3.794581588015624
14.296976360135327,  8.298726769955683, 76.387424517230983,  4.124424395998764
 9.387612458924220,  4.173790993353583, 24.628450120010196,  3.763422213793499
10.518534914221091,  4.444521674086701, 93.732933766163299,  3.771190150765234
 1.636449473454394, 14.721105363100495, 93.545588623675783,  3.797561557027716
 1.165613311346000,  4.937362682859388, 73.396447043375048,  4.286089569466062
 5.924220578039042,  1.577976849725184, 22.857911104673537,  3.938855620789324
11.955049502538131,  6.759152346352964, 63.505475904194348,  3.972320257690644
14.798086527723687,  4.213993040990427, 61.220420874184882,  4.130704752370070
 2.196601771658498, 11.363423694481975, 21.736871475338706,  4.006589485719761
 8.522088291581770,  9.757619621116520, 29.652325161658855,  3.721450552088332
11.897228713781082, 14.514918451204089, 20.588734074858866,  4.050672608555093
 3.151847062669395, 13.404331740058703, 16.001451892900878,  4.126587189397526
 3.839021902165684, 11.015578411111941, 54.841763484844776,  3.915188075247134
 2.921292483222589, 10.807803880210434, 33.654204117089449,  4.097042466865155
 5.574721852264674, 10.725945767811947, 72.578927513867512,  3.979951790441556
 8.614423234250237, 13.268235700440103,  1.803341803346964,  4.235375546725502
 8.341855559013416,  9.135680891697753, 81.732833629732781,  4.326281023681194
 6.362660142761686,  8.688087415338206, 14.225452376445960,  3.616175828726275
 2.048472846543699, 12.511019416305045, 72.300773280400449,  3.837886790407976
11.629959413538735, 10.846603613172134, 90.921642564986470,  3.941663916170704
12.134114365047827, 10.840575925678461, 62.754024751297116,  3.848206631008835
12.259492785163125,  4.738018379534060, 38.265529481958460,  4.370317891435744
 5.055039745439194,  5.030237333721290, 65.689126510750540,  3.871482710861412
 9.976231097749148,  7.386459409350557, 69.523642963692666,  3.785891182705639
 9.597030953111256,  3.793437319182024, 71.302421107967362,  4.014828584702157
 1.751558698547340,  6.678333553345691, 91.598060600742770,  3.680387747798113
14.491209323191423, 14.207797214044920, 70.051716805177932,  3.772456932931123
13.518445580054058, 11.478826960819219, 22.097226810008312,  3.453299239009394
10.903437063010037,  3.327228257216637, 34.566567772137866,  3.951773698731412
 2.733860372595469,  7.705985485167164, 14.646132507813553,  3.934241380865461
 2.835388980393669,  2.091963818982732,  5.514415861239757,  4.067707555683622
 6.945971739121195,  0.713594717108216, 16.046447054003682,  4.064798335047472
10.572927843156210, 12.647118073311052, 87.299441515866718,  4.117048955406214
 6.711962589438214,  5.436536605772558, 69.180896440616436,  3.836130201867536
 2.130358274258935,  2.376789555171342, 48.460606839401876,  3.982186813535865
12.826065098715747,  0.237731831758431, 77.036736316597128,  3.823325890599759
12.692535938947223,  3.488792526131018, 57.715231513044259,  4.052341166946376
12.756768765396727,  8.399903745066883, 67.034720969744100,  3.946081485014928
 4.285222784829815,  8.350197875599545, 11.015200429973564,  3.998603301699557
 1.025862928894151, 10.574518969819360, 68.799297543939133,  4.178684701852575
 0.164505052709291,  1.084078323740623, 80.083681227370178,  3.910986148609390
 5.868011958483483,  7.154693200400340, 46.391088803665134,  3.743454967696829
 9.185885152740676,  8.871642407995077, 16.958323446230970,  4.210559265477019
 1.951544376627461,  0.512211234016272, 44.774529022297877,  4.058875495116749
 3.241317971058421,  4.272802917419130, 69.221367346393578,  3.445330827901957
13.966305107970873, 12.521702485599976, 25.782195937816102,  4.256186897607055
 7.843845237705542, 13.891314887866903, 67.016487366918568,  3.800019453814152
12.495019208335192,  7.944557343371608, 35.608364298092688,  3.949564830840844
 0.281790633124862, 11.419291014528344, 45.251623136813514,  4.159113764486192
14.355932407106922,  7.646654071768107, 45.769125624236629,  3.591556766558452
 9.979831769101150, 11.940324460384270, 24.340137144115456,  4.281477848489662
13.921207921785619, 12.035148563769793, 74.487291503365114,  3.879850729587663
 4.962086754717963,  9.379099145775974, 40.646851700236901,  3.915324157322254
 0.477755230596798, 10.196468962645541, 64.719580598555908,  4.076687096987943
 4.413815699087670,  5.718583767149359, 30.374538411744865,  4.259621086603233
 0.768653384392574,  9.780406219532210, 36.915093815123484,  3.970967447152904
 3.097882889018870,  4.256297881077527, 41.615804187380306,  3.785872529909891
 8.076003372872702, 12.642998224071690, 91.544306638236435,  4.045428495259899
11.870168394068935,  3.134558794947045, 80.815897969728027,  4.024405358133543
12.148277163883400,  9.487986997243095, 28.074905785996709,  4.158944181753997
 2.244127364179852,  4.561524633299787, 26.858356060177609,  4.063855184852996
 7.996147976909658,  2.585781114745623,  2.538229994718859,  4.614007926096635
10.414261854032329,  0.138980777454028, 13.961463570030686,  4.064665616951124
 2.626837693185820,  5.765185995366277, 85.021913794098765,  4.185272582363950
 0.637058702625290, 10.462404663161179, 91.566316305598178,  4.191297535530988
12.220724925060805,  6.671302187613645,  2.372382869381281,  3.891335065565905
14.099077411933548,  1.191004013148063, 28.229269034677380,  4.464065491399052
 9.323219999613777,  1.317023097176451, 91.890481923876877,  3.766581603178177
14.674349927683483,  0.574882151443698, 50.687188012653642,  3.613146633739527
 5.678765736282363,  3.290656361978866, 19.087744021540857,  4.294917246615354
 8.690899386110061, 12.431906456418480, 70.600062989492784,  4.111524739210320
 3.220614262967576,  8.523787275829438,  4.689789151578382,  4.032209306660138
10.484806186746983,  9.404108871176884, 55.019126314072444,  4.160182520548223
11.666142370429327,  0.835253437691902, 24.482213837731219,  4.201706216591008
13.950777812169582, 12.233711028878986, 59.460230077046212,  4.170389047277659
14.283514753802100,  2.586241143718338, 19.295596810410039,  4.005105041200415
12.863969639888685, 12.413070612809465, 66.938691059959339,  4.061566550515154
 6.955106702541703,  1.037558518979692, 70.108353604392121,  3.953004723006195
10.139334043776444,  2.339945938063443, 27.863701825447247,  3.781070369076229
 4.772259645631624,  2.781443431844856, 59.803082802084539,  3.876815600874670
 5.881287368056128,  5.207678309638228, 82.812703067260827,  3.732374805047479
 6.228571600090447,  1.186239102962676, 63.349875545241780,  4.182243673977339
12.576344822871205,  6.945534906926020, 79.804899044104758,  3.969005253065871
13.849106421820098, 12.342738350089581,  0.795149376959508,  3.968133477857960
 1.165524987755347,  0.841671632682223, 53.966423545902735,  3.584913385790388
12.326586990671574, 11.592636180168112, 37.327423345048658,  3.893623178462096
12.634839077177578,  3.128468262682406,  4.566992739822988,  4.357668193002891
13.024059360388851,  9.357378566642602, 10.890235734431803,  4.084397230167370
13.636624197763997,  0.002849010898717,  7.336541182204540,  4.199259105321278
 3.222014841588420,  4.091853151264037, 52.491744233989593,  4.239238105077740
 6.645187000627589,  8.339231271724165, 53.735195735313923,  4.139401095245594
 8.808014115926403,  6.237548140926153, 48.799019738961434,  4.068656408902915
 3.590533426431191,  2.994407305813270,  1.551411319107754,  4.193854683603514
 3.486818561171701,  6.130498650766647,  7.854410000491291,  3.848594380778368
13.301779304147532, 12.439690159855054, 49.200986434400249,  3.876564123560139
12.250642383547818,  3.997102828030497, 14.175136810336884,  4.239425326010814
13.471048809034457,  2.770868512432953, 71.156358545387548,  4.000605381677257
 7.758573053980229, 10.447798109094972, 47.688530803498956,  3.951121815465902
 6.109394176362309,  0.498433363254965, 44.352214582862210,  4.138639855222479
 1.866978499414544, 13.516674181005341, 48.286092803179379,  3.834352206681010
 6.410401712371809, 10.194392221231881,  0.327859588420657,  3.881211803480698
 5.393855234017254,  4.546277544970440, 35.207217573252002,  4.134302564544168
 8.799948030325998,  2.317028860295973, 58.535187686202697,  4.184932179454684
 9.312677852232083, 14.196323574984092, 37.081246568457303,  4.059705541202068
 1.974642374639054,  9.873104074841768, 58.142270146242545,  3.992411107489422
11.147801204959588, 11.144336738437064, 14.070788115305602,  4.118641645684524
 5.064604590103206,  7.585484418475017, 80.002435575659064,  3.675678345817965
 0.119759722747104, 13.557225317694305, 38.741442304024893,  3.552463313671254
 8.393226325312277, 12.754539610736009, 79.900210895303829,  3.761398423973874
13.701702494195231,  7.916298339470753, 14.724078656047427,  4.182570944866002
 2.690873613013689,  1.067395134081786, 70.966295511523001,  3.935461004259716
 3.128485506446296,  7.513513327191734, 63.361497873360449,  3.938725211019818
 6.206478240684939,  3.581376690985635,  7.853514454757711,  3.603326605172976
 3.843510643210509,  0.107981571456166, 51.313092177224107,  4.057433304054847
 8.650001500111308,  6.576554470628289, 65.684373379005137,  3.952785428127216
14.296512579027706, 11.874349294488672, 34.151410606260583,  3.557598103491448
 0.168541863035391, 11.635182440602428, 13.863070619386990,  4.016750387262091
 7.770015297330613,  1.760660756968122, 81.581367424953100,  4.221421415485681
12.218256359202687,  0.738097828791111, 39.317025867412163,  3.899281862355463
10.051779691888408,  8.418497332134470,  8.416287856405022,  3.865437462693928
10.407336933828022,  9.966923770337665, 20.720004623406929,  3.992373331426491
12.359487875263834,  0.772871914315545, 60.740426500239785,  4.064895383985403
 9.152664715845614,  6.116342438151166, 28.438831824896759,  4.028554836103733
 1.066450627914454,  5.272860152342422,  3.792584104790453,  3.945087292850972
 7.957498663628569,  1.063387283600768, 74.103802239673556,  4.281599901359016
 7.985474584653995, 12.347823330086074, 53.383119482382781,  4.227329392777037
 8.034998897696056,  4.612422231470551, 32.082370582911373,  4.047079520129779
10.541221673007234, 14.292388600745024, 64.111389926722453,  4.162072036352265
 7.276822837666531,  7.034956053319635, 86.022484992164252,  4.155363744645313
 3.164674382690388,  1.970342014707650, 86.630282647732457,  4.106790357499158
 8.730121399361488, 12.019614195388119,  7.386636039275038,  4.055651877974745
15.026086982175812,  6.180408260794396, 69.529477572131370,  4.109893313265101
14.912934433013342,  4.975302708110584, 50.311929520470123,  3.830169279204481
12.436207064260445, 10.427923370255630, 81.991722331765885,  4.252923171533012
14.575066484340383, 13.599786619679040, 63.158457632517020,  3.532777967640611
 3.864424632183090, 10.415177895078193, 46.916910545966232,  3.981857954839210
 2.909962567397264,  2.762678328613831, 91.459618460317884,  4.052402338977044
 5.030047331111856, 14.613507366220640,  3.275235385792893,  3.950823544432872
 9.447208546945012,  2.016505910758756, 77.835406848249860,  3.973450152128228
 6.535564675156308,  8.455580635642255, 32.964993336068773,  4.388652152111122
12.723204198914576,  2.290024700504438, 53.598242869985341,  3.969244334171511
 4.834866027494784, 11.421822542685893, 79.036619747471946,  3.964331191193833
13.197920338366446,  9.491419315305526, 51.896779902166280,  4.104450428962527
13.266411557597111,  6.494405368195004, 83.685017164023364,  3.934806509386106
 2.555662930529960,  5.905684041567251, 20.307865918897274,  3.804614419834863
 9.348557329707392,  2.379212098256736, 21.272784142636183,  3.774487638548059
11.938818975651438,  5.882032494042618, 17.896709053278638,  4.123993151741835
 6.078343870627935, 11.362465200418429, 17.864999901573416,  3.877853696076787
 6.321925670817298, 11.012918238456761,  4.321592958837541,  3.930754020752707
 4.859816911975179,  3.745703183619955, 79.387703840523841,  3.943340270757853
 5.123266089329650,  7.093179061442698, 50.161074247740387,  3.934410106711142
14.697120238737476,  2.700261493103002, 41.369315029283769,  3.621978083470264
11.750722118169655,  4.520538390341670, 86.720682474367621,  3.887048749587500
 4.886864840965769,  7.632839820903778, 26.719390743259577,  4.044464337713580
11.811322287342881,  4.467653443852822, 67.469081358457956,  4.170422623734693
 0.558749434604591,  8.067408818839256,  0.967548017692481,  3.927614729397673
 6.881218978395920,  4.615856947244618, 76.022059641870797,  4.066300743511872
 7.343320602618584, 14.519803511266687, 11.162956331561956,  4.346224846219682
 2.713104855076373,  6.951168779776957, 33.753011192711490,  3.606578436765755
 5.760740493055475, 14.836710344876018,  7.243133007538414,  4.109867908564364
 3.658525464003521, 12.267979034213200, 38.372855112367155,  3.877659870367123
14.372372101284375,  4.075884994150607, 77.285388961348545,  4.386753456269104
 7.188212860255308, 14.305704602814895, 86.170477009748069,  3.744170417162846
14.575230286339075, 11.676167372580155, 87.659451707684042,  4.131887519536726
10.268028749494754,  2.005282035585407,  9.757028182471524,  3.856544569734325
10.710268694456333, 10.040933679385864,  0.648988067735790,  3.763965228883996
 9.666746797046423, 10.507963077499657, 34.733962918006171,  3.846023342967846
 0.425592104623398,  4.829423805815010, 30.393054162695186,  3.888838318578488
 4.796338571294834, 11.114467279511532, 50.869392776989606,  4.257912843302996
 9.366580153791425,  9.381859540516862, 51.058514575656574,  3.732750223313883
 5.937019289202543,  0.377817878777448, 93.507062656213861,  3.917537450077597
 5.856128432734942,  3.591344119299121, 48.609942703431031,  3.806263977641915
 7.423380172027120,  1.169494764850544, 34.115161835765058,  4.042146814031601
10.473203913037501, 10.082999549229656, 59.096947676418104,  4.038833483096061
 2.175515360040788, 13.947174383222912, 77.479243341817408,  3.974253050368804
 8.758301422933503,  8.991847009450595, 62.561528278835830,  3.838127654968366
 0.616351501235652,  4.596446043373524, 88.504075210614701,  4.104115597377890
 7.710357458556873, 11.733555547705622, 44.035806838440060,  3.786048952051478
 1.975521362589390, 14.397639651829953, 89.502615626432515,  4.009964890337630
 0.539612339162878,  2.154398688195438, 67.839523533747183,  3.932990790720273
13.951867512521821, 14.141275917350121, 42.501212561221642,  4.020104047218206
 7.236398978515663,  3.043326922323338, 85.636468799025650,  3.857884876487144
 9.340956828442041,  5.155720103555487,  6.257951583406308,  4.078003434495152
14.575903028911771, 10.270497368984310,  4.184753183683188,  4.081542603618007
 2.096554919272170,  8.487433634388099, 88.103186002437326,  4.063680738302272
 7.134213372962994,  1.216894052249659, 30.092318999013091,  4.020037471957678
 0.402725049564346,  4.191745269934867, 44.783783020312477,  3.882223052975392
12.532110124752180,  9.330796046261517, 42.715529005973650,  4.223020686872928
 2.548476835835325, 13.184755443906335, 85.341109564354412,  4.037174850271319
13.528916023200543,  0.091659659112665, 56.447124862302672,  3.382397476634635
 8.740977380725667,  4.988161618811686, 89.247981247364237,  4.021809694214297
 4.374167467838123,  1.376567518767905, 67.071457360080800,  4.036266476012107
11.955178664633126, 13.300959540725408,  4.105945205761085,  3.869311986886743
12.397541007175757,  6.374388108945010, 72.595512648434863,  3.905616135092517
 0.338559489234848, 13.468899028386147, 18.914048438037025,  3.947472512640910
 2.911000969363209,  6.268810205974733, 59.606381286972670,  3.976342770224440
 4.742957258537882,  8.781206629183812, 83.537497196010079,  3.752794337675982
 7.403278255929790,  6.244573172093159, 10.096309038695328,  3.738336487822457
11.086747756945602,  0.333179361994184, 31.916404853778022,  4.053470329662117
 5.971100615272896,  9.543708137719729, 21.561726362933843,  4.352098565145794
 4.669841142569327,  8.800263183621686, 36.726031727216302,  4.022421889291412
 9.745656204580250,  1.382447441523729, 88.142066847411371,  3.767730846600917
 2.829567745953845, 11.188706975372074, 26.220437733285106,  4.028681793749582
 4.684015489009020,  5.201219232253158, 88.686072737770147,  4.127604642071221
 8.021470833915895,  3.398549828888778, 12.852566707289718,  4.273477699803927
 8.923877413337197, 13.629001700944901, 60.369014923955795,  4.097865021837237
12.067034348553507, 13.361645256917351, 52.927857279684822,  4.176959990057582
 0.405144638081458, 12.908867050203618, 10.178945061052117,  3.764471151244105
 4.774969818395343,  4.292224025072194, 15.174105105132600,  3.901622642344443
10.986826334083023,  0.568903201576490, 68.778460551318702,  4.153162324831285
 2.406184234861952,  2.053675190923632, 17.173127534444244,  3.671443174639137
13.255914029911420,  7.622148761749857, 57.481456979085195,  4.062733970946399
 7.590525169961824, 14.914699043401351, 26.106964187316294,  4.099968118606716
12.365418741500326,  8.575933752389277, 24.116232007448229,  3.961216557279831
 3.851714655164154, 12.248226040820002, 43.282145990949758,  4.117576404252868
12.700307947469456, 10.973858550815050,  7.429128190700539,  3.543550375823712
 6.702370532356528, 13.801724365572776, 40.602089852667994,  4.197219819810251
12.291847585898973, 10.459015732924536, 70.453783860382060,  4.040370693236476
 3.195878158960492,  7.507690313088765, 67.778670746402327,  3.582216550194911
 4.975427472383114, 11.048810527293428,  8.220272050431905,  3.865605643822666
14.245319970851899,  8.244910150252990, 20.329672345855492,  4.030282869349586
14.675373914694315,  4.039990048070041, 93.957690627335737,  4.562615316482096
