BANDS
8 8
NANOPARTICLES
cell(1), 15.024
cell(2), 15.024
cell(3), 93.902
 7.021386427650754,  7.802075584454861, 26.092332817204262,  3.560366883617941
 0.797473286648296, 13.092211756155514, 81.900685296416938,  3.856823855457393
 1.182093165281079,  9.436866760388554, 29.197729841430586,  3.817503038057290
14.369810140384196,  4.141651847626228, 93.680777492682026,  4.146608178708571
 1.814763539344551,  2.310383034123633, 75.628309097224076,  3.945766014503958
14.914494226500375,  7.764317768969589, 14.732199134711454,  4.144929492612279
 4.883314742382640,  5.625919120893983, 60.240031970960672,  4.147709267818200
 0.005271197869122,  6.604628195868112, 62.473681607815060,  3.732042508697079
 2.296391721502717,  6.391635922827902, 11.957513818085101,  3.619669868928096
 0.668318855283209,  7.946649783508022, 86.769203963040241,  3.672103686390885
11.700223641243719,  5.104129515990293, 80.736764924772785,  3.880624068190908
 1.449582328375133,  8.919378915327551, 49.346669339624157,  4.019394371660402
13.867349262126616,  7.773637712469074, 52.852333686256884,  4.031081396384393
14.834547585785211, 13.847023516964821, 64.736289695363766,  3.881021975802102
10.817652720331070, 10.850538962790145, 85.956247275786453,  4.068622993557158
 7.455827080662921,  6.240298383642111, 22.452840116076331,  4.243267754857182
 8.779311054440029, 10.590517819753908, 27.859284081385805,  3.903880722551371
10.618098537653944,  1.259352947141036, 17.446882792422404,  3.953259562699236
 8.266659666410321,  4.890161771156633, 15.618407754126688,  3.642092224710359
 4.854478286606338, 11.430166812147915, 19.782629762786360,  3.972458899875100
 4.561696665245988, 13.735728869901278, 22.998054711916325,  3.953593774697393
10.538297416544792,  8.722700112909161, 24.646697295439512,  4.242407711641711
 5.768806965817145,  4.310236901867031, 25.818858265736200,  3.812893549390513
 3.658099189075665, 14.170804368491137, 53.052289368234511,  3.737424732303364
11.053242752212634,  6.757592550421871, 13.693644033215456,  4.086124725425348
 8.178691186253747,  2.998053259281484, 61.263589592879711,  4.523913676921407
 4.327806303748775,  9.013168718817607, 62.343072100641869,  3.748284073090759
14.858132070816163,  7.252492137328097, 45.422265535897765,  3.977297319033895
13.486391064876814,  4.819098841698342, 77.283743193474891,  3.680259293806345
 8.415131945384877,  1.854089846017914, 52.668023986117461,  4.197521186649046
 0.432074841215332,  6.704865748007444, 21.832436542280405,  3.983584830947735
 7.954922426633763, 10.131796590026543,  5.454321477411910,  3.821073470636119
 5.923742098687033,  5.333996688315416, 45.553704452697858,  4.074224526273332
 4.620322429715769, 10.462387607525688, 42.151360577129751,  3.931825740970811
 0.746439079858745, 10.208050471754721, 42.902554693835846,  3.973472936379447
 1.178971517731002,  0.203732826005175, 68.250448058459071,  4.140142693519170
 7.779100569016180, 10.209239116573622, 48.885521602162768,  3.969338875741574
 1.028147018608761, 11.517873986652159, 32.360481052782433,  3.740351101607955
 7.413103151914865,  6.727989212510535, 63.332407857537405,  4.138286145270447
10.321597565215512, 13.935538887108436, 14.346353659266827,  3.846477144436061
 6.924811464554654, 14.537376121385472, 63.660219803599546,  4.291120731201617
 6.709839761930770,  3.300694716493694,  1.758696855607910,  3.838126607914900
 4.500118155348823,  2.674039246799341, 35.893964840173005,  4.376130654567259
 8.102558697312553,  7.020000321012399, 87.057215477012747,  3.935750135671134
12.303603180148329,  0.210981412082877, 51.829670649956732,  4.380764812635245
 6.117621762377931,  4.101888835770230, 88.822053663768401,  3.941270868393954
 7.784391506293557, 11.496241459120979, 35.470053965745450,  4.014648423028195
13.319382943821905, 11.273692470023988, 50.704683479980268,  4.102268629341208
 5.288028237131308,  7.043638619056123, 66.860562391810646,  4.105691947264593
 9.304312972986432,  3.946823679968544, 34.698621948206146,  3.890434126015057
13.618531659531435,  2.381993504930768, 31.835981666978505,  4.175168781218437
12.621332612674840, 10.968344563085447, 13.496482721185158,  3.847480917291651
 7.198998766192471,  0.346047109267955, 88.331559171086923,  3.919981767582319
11.433462899798092,  6.590217442983575, 21.200678180723653,  4.045127301642966
11.903504763599543, 11.886915656884600, 62.294213236254244,  3.710773850649321
11.096509216557294,  6.696263579101087,  7.910945751919044,  3.967817825240322
10.089941734479510, 10.426008172200195, 20.438425588269073,  4.192729237766984
14.585920952224017,  3.681974892767078, 14.613528106069330,  4.020987786631418
10.896382795456315, 12.996324565469619, 37.843387781267239,  4.319574048153018
 4.637129743772858,  2.950602281560243,  5.098266868161232,  4.053834941526016
 3.564123483252067,  0.291943640625110, 26.491832647510595,  3.955505948404585
 4.066215448991637,  7.764480117256341, 54.241501716698878,  3.980949027588078
 0.308033715740559, 10.346842025598084, 62.203285755472436,  3.792701257214437
 6.946759015316058,  6.355133593343361, 70.541106631479309,  4.075352440706783
 5.987922074008199,  9.420945434926942, 16.587032311582952,  3.906366594185739
 4.494017724763105,  3.008079548289121, 53.748132832047062,  4.246293323174625
10.420398138286489,  6.543057446069016, 40.906862052588842,  4.026862485297933
 2.591214712055913, 10.493458925623697, 35.792333137914383,  3.997812931276235
 8.188897795652482, 12.322038250890765,  8.722661469080672,  4.054830336219975
10.548888765356347, 14.052465848978857, 28.297423269577148,  3.851822101650844
 3.165305686257673,  5.035077798554246, 83.072595487326481,  3.961609106687177
 3.646637514545741,  6.321645829441811, 15.644186144509391,  4.081753990760594
13.466880866094195, 10.752676269056138, 35.343029919202330,  4.077234779652916
11.977038689291675, 10.390416170518471, 72.889996426212974,  4.078922743439473
 9.239645031724020, 11.322160234290504, 82.249408394261849,  3.923433409181088
10.019303121091514,  7.625301470867152,  0.114498784993039,  3.828757397306215
 1.071105286451471,  3.763808647273840, 60.061827619843775,  3.916357131562470
 4.346110216565049, 12.882660827012200, 83.845906284783894,  4.227801436777016
 9.514587001104530,  4.310696417879744, 68.434141808392340,  3.719549525382794
 1.073021103803095,  0.986525265993810, 51.433424609466506,  3.368586629808185
 2.788863481542642,  2.240852949725961, 89.539598545308280,  3.817859068397085
10.037056809963318, 13.571938804738679, 48.630952446506789,  4.112403125305965
 7.765549518310442,  5.616252671355962, 29.131243855778720,  3.978870868105778
11.866511589619975,  3.364824681544158, 28.181379845563839,  4.119975047823266
 8.199973619133397, 14.536042621487232, 42.762771826636850,  4.005272529451245
10.513699420005052,  0.350421222034123, 10.420630496488346,  4.308793104270986
 6.749810277511823,  3.194177205347839, 65.739976734732906,  4.141642591205152
 1.413704411093161, 10.825989274345659, 78.318675672789510,  4.236257449723707
 7.713832574172032,  4.912229062223309, 38.269859501056239,  4.092019976340239
 4.932846916078365,  2.163842410577046, 85.484345973571706,  4.063425339119085
 5.313281127939338, 13.653959242133812, 67.706956484128426,  4.029017572197162
 6.402078890565731,  6.825052487085800, 41.724931211266764,  4.192139241165523
 7.370833777825768, 11.452180686715250, 87.948904484335230,  3.944311480739974
 9.635225540544738,  7.934504923624421, 66.728216566531700,  4.293656362310357
 1.903778932654862,  8.124333001829628, 59.624354351199976,  3.725128596356887
 6.296821329638062,  9.100646686435997, 84.018264226489379,  4.242274420267440
11.060594458864500,  0.370974611551845, 63.796185270262434,  3.997198412239354
13.884996804241506,  0.818456585146311, 38.779983990069397,  4.143630803655430
 0.853551087326533,  0.213683114206533, 22.626302127072645,  4.075188661245793
10.058484675075807, 11.001404195861594, 69.407913464585263,  3.858679263594481
 7.554991164042319,  9.972741311286423, 55.159503590294115,  4.063862153596462
 0.486437153885263, 12.239126496180706, 25.712806857274128,  4.284073979479930
 5.266383835635400, 10.783944799328319, 51.937292330912328,  3.984718126528326
 1.795955958794072,  4.140301386708427, 79.220012583543834,  4.107097715005635
11.184568653387839, 14.666572067811053, 71.294775860289576,  3.646958424621398
 7.071861557060394,  5.786678348222559, 92.266589385011571,  3.948799534327021
 8.054065885627518,  0.456348515854578, 36.036559706527385,  3.986450527010552
12.804718432523135,  2.422439829721328, 67.594885805734094,  4.048373449928715
 1.499578920232189,  9.609286826907399,  4.070741442388451,  3.835758442122312
 1.199251524406782,  4.109746663971098, 86.478768831495657,  4.026692843451213
 8.226907326917138, 14.326310736755017, 21.603293529039753,  3.848064700191819
 4.551065558038899,  0.291193047044341, 19.367133160783492,  3.864218530464586
 6.404375313096173, 14.113328402470129,  4.572885508207515,  4.152683333961941
 8.050268619976155,  9.679257303311733, 72.459193178402018,  3.903768711567698
 0.434749156085055,  2.677556921476183, 54.716652491115489,  4.110347506036614
 0.158158442317120,  3.674208435009167, 35.664470446625529,  4.477653788680523
14.836884025951340,  3.120647414987219, 45.653620863260258,  4.247093543627749
13.569723876917058,  8.542600068334622, 76.125781130260322,  3.941874380523786
 9.122853419302455,  2.612919965892286, 74.086270660949239,  3.912427832987742
12.131864565648080, 11.854301000802803,  9.039362103040634,  3.904972334123931
12.705775549994671,  1.051764638018812,  1.805465356267383,  3.932962443279382
 8.848856356686204, 12.836392764189121, 52.484678838857008,  3.937513691245398
 2.472074918954702,  0.055205794650823, 57.282932950241438,  3.979392708826271
 1.296614875194776,  0.531105198961831, 84.908706578129028,  3.764856786460032
11.663783021406386,  5.132880244878028, 17.420198201292681,  3.971608412898578
13.899599601414263,  6.177701696517487, 66.106237704113383,  3.924191055078015
 4.238598716730393,  4.750782124303893,  8.866221192405744,  4.309844842130276
14.180097059236383,  3.457617918962608, 89.741089880444306,  3.781602726391717
13.694167148670212, 10.308614945858324, 22.429045393349391,  4.028122071324253
 0.808911337510596,  1.743497563482800, 71.900719338227603,  3.777392039739654
 1.953215496083819,  8.380002934113199, 65.230578653939205,  3.772329372526373
 9.975320071215380, 10.810978245544524, 58.201032586452200,  3.848515254659616
 2.313958736797919,  4.546700629145686, 32.137920768733871,  3.711806789699499
13.376635569918399,  1.618258277264237, 57.994981124411154,  3.930550905912821
 5.400265990303158,  8.577191461085844, 89.917067533461761,  4.049181286871501
14.419885032603963,  6.034892226195119, 30.044679543082257,  4.047717172088230
10.002658342900069, 10.997501512705194,  2.186352174574274,  4.077704500284709
10.232957987376675,  3.631194058623009, 93.775363683748751,  4.177502066234291
 8.434724870663068,  4.348034059620524, 10.723820373191316,  4.394960327028479
11.822612383954066,  3.383951889876040, 71.335255935660356,  3.919224099129054
 3.035782889568102,  2.370598762665348, 16.359935298078728,  4.012215785503590
 9.413057938593326,  5.108787949369735, 25.726427166568890,  3.625085078977828
11.163050633865259,  0.990679120064616, 45.259050354499166,  4.281192708854162
 9.701464031905726, 11.982862242888910, 65.543948434955922,  4.135395728045447
 1.564491031103725,  1.965211834149596,  2.539520518029494,  4.167105467178334
 3.384360306657253,  1.263428862980155, 81.665253135163198,  4.078730235334525
 6.178745081159625, 14.112617628093117, 29.093211588393117,  3.753036492627558
 5.311441931571237, 13.189575057640891, 91.148877109119695,  4.133323097809448
 3.286213664562674, 12.593156895145386, 63.368559333962438,  3.980304268805234
 0.335970950731819,  0.002778212831599, 78.495719926071970,  3.968598881599190
 7.149495003520580, 11.690956312441244, 13.488777967472666,  4.111114888005316
 9.439536015898332,  3.212196648575307, 20.614224180208200,  3.849021194099320
 0.852740410375243,  2.556489187619325, 28.388955197542550,  4.062372066188286
 3.577153777771025, 14.033695394287845, 87.639980200751310,  3.835641691634710
12.630422886451171, 10.167427429977954, 40.420162408370587,  4.032362601781975
 2.780300699537894,  5.939521678562330, 43.221104785746959,  3.829517889017034
 8.203295232960979,  1.976049169608964, 27.605119895390342,  3.798979281092234
 3.680413148704624,  8.905527191426552, 45.847987480893629,  4.271237464281503
 7.484703547560184,  7.238863829326587, 80.599009239899090,  3.881289263682427
 4.025485979095728,  0.393525123655903, 70.792724745871951,  3.425155692085819
12.345504734375151,  0.800435931430895, 91.825611168942984,  3.836919505746322
 1.403103482342543,  4.021453374839780, 39.874322656655899,  4.290731538307747
14.458177237263452,  2.797533386090289, 63.738790648059485,  4.345987976498280
14.338649303458141,  9.262230446615071, 69.691731629092175,  4.170575519229081
 6.861547192299214,  0.341482168135756, 11.941118964122696,  3.598013094760152
 9.614707220397166,  1.557645587570844, 39.584615231323298,  4.046936159259386
 6.559368004783646, 13.379730400296475, 39.198657705777535,  4.171467268391137
 3.843441340370337,  3.550634564756317, 68.689301042109335,  4.157886866609229
 5.092737804359253, 10.647658941809926,  2.844248536323837,  3.943472220745737
10.854663572901089,  5.297362278483178, 31.467808921737188,  3.767577392765916
 6.689120049667054,  7.162459194157589,  2.023505878569355,  3.894028904830126
 9.537961457476227, 12.887769617892713, 91.356878554053822,  4.298136327577236
 5.665236610268255,  9.331684908588153, 58.707887892358229,  3.973203437503720
 6.165767858196701,  0.812584088561717, 32.551224446303301,  3.966522027905623
 5.092628724574206,  7.473074551828680, 49.828313568430595,  3.855491767502634
11.625317745225558,  1.656683394337844, 78.660600275124651,  4.152020053119402
 0.651893231625542,  0.446140509403881, 42.399923135604517,  3.957442756682311
10.676054801472201, 14.517364565107274, 55.639213745074258,  4.026021033189361
 8.704637075802827, 14.087572206742932, 84.967091744808982,  3.885397900105778
 7.412313001822484,  7.391357520971148, 35.151089274605731,  3.893979691583208
 1.522397292798266, 10.588831405736522, 52.841371725198648,  3.724914172888436
 0.157779934272506, 11.867931275223720, 86.145093583442062,  4.333321562756370
11.368727819043665, 14.394692112058340, 87.922002755292766,  4.044886670026736
 1.809565781151357,  6.043212198204768,  2.458832952410843,  4.000410734879031
 9.771418400913490,  3.386150565339246, 57.055455178912339,  4.169430135191850
 9.373093694193809,  8.848107037904152, 90.300255778656151,  3.930183738399442
10.521013430309232, 13.661970095749988,  5.463970111265404,  4.289437990374348
 2.081804938541867, 12.839302481945413, 49.767264244726597,  3.959956253559971
 0.111698692714523,  8.548507494990771, 92.367237223470539,  3.724075211786888
 2.702404815395616, 12.851577855983745, 29.305376465648525,  3.635820158427447
 8.636656352995731,  3.548602446569846, 43.017065646138555,  4.111123755281690
 6.684496443450060,  7.493571401599886, 13.087673700359643,  4.192364816630850
10.352170423471915, 14.541145911734342, 59.752595868397513,  4.217775816334114
12.526292187463572,  4.554737107358419, 10.835375613134529,  3.704932326221800
 1.041660590307517,  2.882575514924858, 10.903272833249424,  4.125681519420259
13.892368099076833, 12.288806413162510,  2.615916475796286,  4.163619960190045
11.207789489406487,  5.904011937157696, 74.357344205089674,  3.891961476573160
 2.489096846031000,  3.364646861917095, 20.669132697919451,  3.975193316006318
 4.408682009931960, 11.242955230974921,  6.698428217881458,  3.971404021646966
 9.760981922704689,  9.643806989084304, 11.237480432721263,  3.907504479248362
 0.966283564884200,  3.664650504318464,  6.565046246348728,  3.961661755101467
10.286672495246046,  1.888111297880666, 82.464491073833159,  3.924985432021071
12.061631944069411, 13.883055532427036, 41.830958490056702,  3.966818672957409
 9.846812606762130, 13.683993742507148, 74.744198295327720,  3.982056765298465
 3.273011515761178, 10.015725856280985, 13.520871131747034,  4.328838011291327
12.158607971728127,  4.613294488559281, 60.626637706062688,  4.159756175774355
13.965005842877265, 14.660408630857169, 48.004627770272087,  3.998736787378566
 6.872360707404157,  1.288795861988312, 15.660555538050632,  4.074703961380060
 9.730539923849992,  9.122219714151734, 75.905174390357132,  3.831653285519845
 2.380937355504245,  8.086982033784219, 40.139475421989545,  3.707099995875452
 8.846422290811812, 12.871109992973910, 31.757042045539041,  4.169434615405573
 1.784873998432891, 11.290243197592639, 90.084936508966422,  4.131912649737695
 2.915259925640794,  0.135091475618981, 38.805842289422145,  3.953734402990951
 0.009487250246334,  5.332779352722043, 73.869442959315677,  3.876733479118667
 6.902643818760294,  1.252347880475374,  8.135514332284661,  4.227573109741386
13.778559101556594,  8.341795819597179, 10.609988716087424,  4.279731231236556
 6.624014532303548,  6.140515315636565, 56.682535902853836,  3.789165317917392
 7.430048520031256,  5.956218802920399, 52.782702817111861,  4.181376435648554
 2.725890639263960,  0.020660560939118, 13.175124734804498,  3.919346342342418
 6.029013197961628, 14.251860418916223, 49.778412006152266,  4.325430154023078
12.170667694437709, 14.261024342853862, 21.163526470736567,  4.039130726604346
 0.144031388957614,  5.155200001278104, 69.833090239819626,  4.199529793629143
 7.468880175446849, 13.444860375244982, 71.211298165862672,  4.094568940777224
12.761079465438788, 13.424240349318460, 32.486201200142460,  3.866302052930204
 6.319361913651267, 12.277114200155451, 45.654560093989382,  4.229017712912294
 2.685560428476233,  1.426079498007990, 48.122012905630477,  4.049207283913622
 5.130557066851295,  4.289345705945478, 76.791383313926715,  4.115233970338122
 6.320933976944610, 10.140135655922720, 69.065744653325027,  3.768657431131317
 3.237229872219778,  4.786325401684159, 64.011296546554334,  4.237209199008883
12.689539328002127,  3.255524213570087, 41.984068990208407,  4.245589039792490
 5.737059235172506,  9.319603045977598, 38.357734375736030,  4.274461525447956
 5.387260989499683, 10.890341851771607, 80.579689766110917,  3.630150212410754
10.092452850801109,  9.039016910749309, 51.987388819414392,  4.114727945384953
14.346699781582570,  6.214824081087146, 83.532628242318125,  4.129726978645375
 5.302032970049591,  2.739852383138103, 40.759607294043683,  4.086638089186077
 9.861023157209260,  9.824719140289316, 16.011643736868315,  3.960644898076072
 2.842816623009143,  0.131987292647918,  7.581991909055103,  4.266675850983602
 4.827380760031213,  3.504956348674212, 12.863740314068455,  4.140632272509847
10.150839746868137,  6.828705516650383,  3.985756899254756,  4.070777545354155
 8.083949859898539, 10.661864835273825, 61.834141531741921,  4.346536087218832
 4.525610850044632, 12.669524217346638, 10.488408168197855,  4.090667406641544
 0.513585786852287,  5.512131558650859, 18.009204827067300,  3.899543883536200
 0.281142653867775,  7.455135358391249,  6.967509544268098,  3.777637271722656
12.291296862555782, 11.129923525005958, 54.497655230044337,  3.676142866876999
 2.811616116609847,  6.103789915920363, 27.781266442445215,  4.121782720260845
12.667995004160286, 10.679176221672199, 28.191808848487838,  3.849657660864770
10.109445050287572,  3.369318372585794, 89.593401218277307,  4.136867771345548
 8.123409536824129, 13.023477022664439, 17.811938489723659,  4.156260517717289
 4.672108037547514,  8.737773332798431, 73.722271394204370,  3.541342421396104
 9.803975102780239,  9.002534265281909, 37.826798348980354,  3.947343384231074
 3.524348957781536,  3.878429303476647, 93.213395925401031,  4.277950675573775
 2.062093294564647, 11.385457128800144, 67.578107685774100,  3.856827684860728
 6.125411404606067,  4.751669211738321, 32.611075055261509,  3.862220954762579
 6.221930150120425, 13.722222583356828, 59.516933784416324,  4.163217467175652
 4.270356096038288,  7.466023041743145, 20.101941535620323,  4.020636298460872
 3.810312756139375, 10.355137913881089, 86.849521665127071,  3.695605243319541
 7.155124928162475, 14.638651336602660, 81.304980172794885,  4.119896018918383
 8.648534898586121, 10.497215361739118, 41.478145941392803,  4.221010814506197
10.190684719314040,  7.540057003633260, 83.573949757256131,  4.181472868036104
14.645693151816774,  7.455093312834187, 79.738605906715151,  3.874558020793568
13.455587413823332,  8.207895893518614,  1.977939435058230,  4.075136841875696
 3.846781674351958, 11.459740245056198, 55.832571994224864,  4.030637127957890
 5.958998859329593,  2.380402584913005, 22.435884497373220,  3.977146521132971
 4.932811345896143, 11.919914704667608, 32.441334722730424,  3.968601745798035
 8.474207750361320,  7.188731375884571, 18.604435066393801,  3.895428001353241
 0.067538414780082, 14.687306101127170, 89.040637593970629,  3.739532260675805
 2.626227656311404, 11.868613302435657, 59.561401243915711,  3.856024738751147
13.451107241152824, 10.187262357566503, 65.717332375689665,  4.180912700322887
 5.999363741355279, 12.203429503697516, 74.902975809273897,  4.227627093902838
 4.252116622986967,  6.613662574478444, 86.486701275266896,  3.865606820281273
 0.427398416343009,  9.168102324337124, 56.239115094036329,  3.944104691432305
 4.477098700719585, 11.505064659980631, 26.241235856435697,  3.887848462514980
 0.121375470314818, 13.735321507651271, 54.437494333362274,  3.864221754549956
 3.722571265318933,  7.950741398317786, 93.480131413321843,  3.886120898711157
11.186169247267948,  7.216988825403383, 28.282873142798717,  3.684314529894503
 3.876255901380105,  4.752145730559001, 72.849417438226510,  4.180979367810822
13.469956243701917, 12.524765060901940, 76.000040902272062,  4.017811239392020
 0.392285823000827,  7.474296243503066, 33.773540827553205,  4.000674332139855
 2.090993076070110, 13.132913098648148, 45.581244386961558,  4.391930170881222
 1.071512676539977,  9.719874704278720, 73.315166943768517,  3.931349881629833
10.114394215580699,  1.635525112766863, 24.135490544160362,  3.977505817227554
11.554133256441750,  7.248632366375465, 34.738996931831082,  3.964376796145570
 3.597030141226594,  7.610176057424469, 80.141702853880076,  3.883476508665886
 2.357368177382317,  7.300184260912112, 76.360256732356746,  4.019239162360593
 9.847179626137311,  2.693323624425155,  4.067311641445272,  4.037187423582804
14.265412046171031, 14.092716035191939, 29.054751549136029,  3.724792332180503
 0.528823059586173, 12.068014381157584, 11.236899285967507,  3.870501433621994
11.640282175305712,  4.457466443224201, 37.756625806263258,  3.867504132098479
 8.945814003338901,  2.716593734597143, 85.941999553187614,  3.632085572697917
 8.584145872662049,  6.316574639392803, 48.437554393302378,  4.004778183211739
 6.003637101306298,  3.984737456979704, 18.680916341107121,  4.185041254902283
12.267644619556668,  6.412404321791522, 91.174470798273802,  3.805670346205185
13.790697364371024, 10.871112523191790, 46.704661797917261,  3.956461591165737
 4.666811653254094, 14.850821868484372,  0.936107516622069,  4.019339900119127
 6.600664998995268,  3.495514195484466, 80.389868441759120,  3.814719106325964
13.516915831975954, 12.110689489874892, 92.432721875676521,  4.043419370491484
 1.102608442189051, 11.693045757041926, 39.255171000682836,  3.902702104509275
 4.131739080573743,  1.646860156838781, 61.436536408928191,  4.010607428901784
 5.298914843254737,  9.053358235190462, 29.348810636938904,  4.193202264314639
 8.813561421003120, 14.882987417222965,  1.190583332849408,  4.287585827919989
 9.998926220033511,  2.600588989818521, 48.966565992122298,  3.985999990001343
 9.130090802198806,  4.927735949346051, 77.668182567165999,  4.127970752904658
 5.704198547303010,  2.439726365526687, 57.749521090457627,  4.104983374045446
 3.532114435100688,  0.992485419250143, 65.202415311563925,  3.709697062648376
 4.446359244567515,  7.175760950267714,  5.383466964406366,  4.184498681167648
 9.746819335160239,  1.681265188167356, 31.096606378617697,  3.817383160333922
 7.070885458086971,  2.398312104243330, 70.787997977325972,  3.851705074396270
10.589402188380596,  4.364019997124149, 64.625283622506416,  4.184318855520616
13.279835144721194, 10.111280416202318, 82.857104451437294,  3.982184453777955
 2.584556204934354,  9.254622290244729,  9.543392619150126,  3.859177613130627
 2.094972507355620,  6.144013189434874, 89.946655145239575,  4.151300053246551
 2.498322220572686, 13.346336034131825,  3.962877718886531,  3.852522813868956
 3.803668583925208, 11.819467950224574, 71.429303284440010,  3.885753746016769
13.121553926587703,  9.720744867868227, 89.148502079045542,  4.099168476599455
 0.583072892415793, 12.514841307297692, 15.412846670721283,  3.849572889765596
 9.054713035726355,  7.170295865398296, 59.597098536865303,  4.052961790020492
13.545470758091609,  0.741119847512943, 25.747196989927783,  3.779091567253673
13.417886595541786,  3.060429412314128, 20.428001880726139,  4.114052229513010
 7.037654301509021, 10.143059460354639, 93.282631549247483,  4.058112598087491
 8.434232590552311, 12.034710392942269, 78.335368851705141,  4.179584126973266
11.519695841038228, 12.664983670274912, 24.739358461480368,  3.874201826712595
 4.793660202626945,  2.878121039160250, 29.370292545043846,  4.081343080888642
 7.425547152442690,  6.442670331517523, 74.423709887324819,  3.744909771679018
14.060377218475443,  5.395770646451402, 57.210636990494102,  3.762617952963035
13.725905436849295, 12.460159581568128, 58.072373494160807,  4.342760589206890
 2.831823419635030,  5.082715561442203, 56.833160002670716,  3.875140658210744
12.251198023005067, 12.751431990515284, 79.912388265711769,  4.188262868106157
 8.225286747703288,  8.634832152385160, 45.158907076281054,  4.007453624104206
 1.980339513326988,  5.545707403766464, 51.644475594790769,  4.021527688114541
10.957569480606271,  8.858509338340040, 79.630663621852563,  4.011681529289887
13.384832925831317,  4.492415061873039,  3.714475895954535,  3.917790799443940
 2.208477393595648, 11.669446873044093,  0.250770881304360,  4.078769093834553
10.915323885989329,  7.207510793162564, 70.617923827003310,  4.014746219555017
12.148127727494387,  2.759538434020629,  7.407749631847599,  4.069013653660764
 6.568869941263919,  8.413376112020430,  8.906071474297660,  4.370678351306495
 2.525158791677242,  5.415459554466879, 47.693979552900778,  3.945830154586520
13.013772998780864,  8.578629744849568, 59.278705259088085,  3.903249916988428
10.936541007641985,  7.581029857235686, 55.861470897113271,  4.325185388562072
 7.047393443555302,  1.389067845607008, 46.237859172985033,  4.215945196322644
14.542882772326180,  0.782928709343639, 17.311384374465362,  3.897714115059263
14.349181383627922,  2.095831545281798, 81.842402535903730,  4.166905108059487
 4.675684303791935, 13.696693079678997, 35.781265711262591,  3.611851450886451
14.773814780461688, 12.995581691595627, 71.356894037431630,  4.014592948390750
10.426180978250358, 11.958712043870641, 44.902637978474452,  3.978972983799172
 2.169540079120515,  9.631893463436247, 17.500895267153194,  3.938133961194667
11.313993757686260,  8.054215152571578, 62.880123656066729,  4.103286256817785
 6.677361257137938, 14.259490680600685, 55.487788957149043,  3.956661943611453
12.428541829021370, 13.875719353069824, 83.802066718868303,  3.902744168904881
 5.422879427676433,  1.191879625355007, 74.162283225005780,  4.012939265704482
 0.761642809917097, 14.300298638114578, 35.297607258302641,  4.352279608614598
12.414205342317791,  9.823295089405315,  5.596469912584093,  4.097385770327516
 2.163241554106261,  9.304763710030960, 83.449176979976315,  4.082175516425053
 4.279770610937678, 13.929248860863378, 78.349176631067181,  4.210947775919616
12.548649208709694,  7.545855742455569, 48.874352714239521,  4.342302815063699
 2.556117391417450, 10.439455252764910, 22.754148030187107,  3.775636154501961
 6.997440596441845,  5.117673967012003, 83.842594604370191,  3.840857076030252
 3.760801269071091,  7.028278148771752, 23.998201165244556,  3.861370154563075
13.084457281171494,  4.455550008825465, 24.339323706056341,  4.216511421039670
 9.061397600200083,  0.388184049102852, 67.874910569520381,  4.254150447590929
11.832724014271912,  4.217743501275350, 53.355739941321453,  4.210852026817677
 4.202439966491228,  8.114927966981861, 33.102122287545242,  3.841068426858955
 7.738938789929860, 13.687594996360428, 25.510655509976964,  4.094296455495717
 6.897425972397256,  1.822744327430279, 91.986392744451422,  3.983417397024096
12.223705386823640, 12.636795535986630, 17.498513099120270,  3.961320010774376
 4.397478994950725, 13.048842120461089, 16.157055412581713,  3.994678535760663
12.735162074005039,  9.385893125209385, 31.749131116233787,  3.712151221631299
 5.863146794305656,  3.503563723709840, 49.753293598216501,  4.213586658919187
13.928752088816008,  3.598939449013784, 49.749288834255808,  4.179308528210766
 2.299178139364580,  0.728348498578330, 31.730880843086172,  3.940305815828977
11.762337016813291,  8.623629707599200, 43.775315576597826,  3.546430527108747
12.136479896132164,  6.171908850036719, 87.126523452041241,  4.301456212883957
14.302046946617279,  7.491084116088657, 37.760356266248458,  4.200593078738706
 7.728122525518727,  1.067054663758517, 77.496246622320513,  4.066781631329139
 6.040089921640996,  8.806903607081811, 77.258051518086177,  4.036462093570647
 3.127961359865794,  6.592261614928528, 36.598121597837356,  4.041078654032243
 7.731523862354817,  5.004569366361290,  6.638006685123229,  3.977877371365477
12.727674057123711,  2.356638801330141, 85.595040461735607,  3.988273165655909
14.271298724718102,  6.905208519307237, 41.670501300461133,  3.648370784976292
 1.282535819050683,  0.360000609943194, 92.647568106293633,  3.977982062975911
 5.995855966257020, 10.608796971549577, 65.336651006768662,  3.774626734519082
 0.561155779059301, 11.820938696351005,  7.205314800096966,  3.849413677166534
12.978849320195653,  1.373379777940107, 74.677379058457802,  4.214891136877550
12.620403210811865, 13.467119047938759, 67.910825454666281,  3.854372010738154
14.421636153576497,  0.121054582057515,  5.423487606935547,  3.862865254269224
 2.067218803771957,  3.519767498982246, 24.648801614197566,  4.033850795829436
14.267099648453589, 14.948846942718527,  9.171503858036740,  3.614365222788037
13.791776526099504,  0.122690323744852, 12.959038920295018,  3.978045036672230
11.266532926777364,  5.321353754938007, 45.566192291813138,  4.026432695270027
13.344965977133951,  8.854085288777730, 18.392638329115087,  4.109171753766988
 3.586469552812890,  2.344272565557813, 44.363381089932282,  3.877120798140365
 0.524865866318145, 14.910796904868441, 60.936146703030282,  4.015739064332117
14.785886609421420,  8.052545993947790, 25.712234665629467,  4.201787618770450
 2.106177154560781, 13.484912935088634, 74.653706999644996,  3.981936272824613
 8.818254119741185,  8.708276022314875, 31.612893389950212,  4.156982495583492
11.900880071070015,  1.040080294059173, 35.261691089203069,  3.944886509254960
 4.293699961566908, 14.268404284427071, 42.302448231177721,  3.700090415016495
 6.873106834313451, 10.361772789732498, 23.175586461039458,  4.205634057802943
10.802974774228799,  2.746525166021101, 13.772407268021952,  3.946511719294234
 0.674053712191251, 12.727495319247845, 19.447504566965399,  3.938005479743521
 3.204082495575880,  7.978870175775196, 70.275355763566168,  4.097388228239121
