BANDS
8 8
NANOPARTICLES
cell(1), 15.026
cell(2), 15.026
cell(3), 93.911
 5.986692119649104,  7.430392694922396, 81.146754609599284,  3.902394463004173
 2.720466554474744,  3.315409670365905,  0.166118200310714,  3.899685438606227
11.449659413562609,  8.168458665227554, 76.143533958444863,  4.044014957005808
 8.268870122548657,  8.418760664429564, 54.415826986465817,  4.072822312231465
 7.206230579476972, 12.662897191675540,  2.805873726745282,  3.838162205497560
11.524131070527506,  1.900779530121847, 37.125951696239454,  4.215471486434948
 8.709791781878677,  2.417407831607045, 45.852328328911348,  3.853981654806491
 3.270935910486681,  4.032781364957088, 51.177231056026294,  4.002865236838420
10.407813906148462,  5.074953128920405, 43.670216619336230,  3.814276642717618
 9.052857372357481, 10.594843001016379, 92.699998304142852,  4.132079911454239
 1.357782853752213, 13.795049067535356, 38.109334196176427,  4.180299939927342
 1.313810588701905,  0.519896619717945, 24.000602347760392,  4.146004045739446
14.292634391220254,  5.083761607427990, 43.299293374704973,  3.955799530774447
 2.537734131382105,  6.314872691824236, 28.954947543535219,  3.789401889177642
 3.330446182874321,  0.125539571556446, 50.162946704230450,  4.039430925969020
12.821988891769850,  4.707346645172753,  7.984480579329274,  3.752775078102799
14.803714481267889,  3.858722110745674, 89.128066550459224,  4.237086718042967
11.461302276089189,  6.374172008620623, 19.034370119066331,  4.213127746054371
12.457653030449457, 12.670085577708877, 36.606794879171986,  4.441719297945345
12.302849261054476, 10.950776761136639, 70.320881167747316,  3.563550644925698
10.538652979624125, 13.897094521529741,  9.743849992140056,  4.131741546582117
 4.019865316777150,  0.416580697344187, 35.476037787422072,  3.947025946645253
11.418437350905245,  4.386316244114685, 47.853099482571508,  3.932294907902615
 0.235830698830124,  0.763037291857389, 20.026808688193146,  3.981982949257674
 1.897990212142542, 10.356327925493057, 71.215580714270118,  4.068120601683418
 4.885240760761787,  2.868396232599054, 14.760772295979272,  3.926167635405290
10.308599579596684, 12.946511524220803, 19.581256054590312,  3.726193622873474
12.898939179046797,  1.079991117996061, 68.741642009339913,  4.216391824736676
 1.446859746065323, 10.389370304973651, 15.705768831103374,  4.178943623182566
12.614766778483878,  1.036328683138372, 78.404374765938286,  4.149134023768504
 1.267481875686271,  2.753100956497926,  7.643885918656153,  4.240377832848807
13.049995330154951,  7.087278731270032, 82.780917704081716,  3.642701735713985
 8.409497572010743, 12.765850550447034, 68.784149848596968,  4.343581788094690
 1.103632037348873,  6.304014860899438, 32.607293389820491,  3.992691279644064
14.094315315832679, 11.534278899007237, 30.705554575839678,  4.329875988054019
10.788080580294009,  4.898065735687294, 92.586569870518616,  4.052989321644803
10.807503622562123,  7.298937774518187, 32.771815068956933,  4.006821084662740
 7.113618859174819,  2.680863228604896, 37.117099671373403,  4.143310466908103
13.225060016675835, 13.272512488669438, 40.955467554289932,  4.380034576058492
13.246119397757242, 11.082259460844341, 90.564985327820921,  4.135675047070115
 5.641212762712913,  1.851223583584831, 18.538433402345433,  4.030378379008812
10.050635921676617, 10.291253303785378, 22.730302025905825,  4.138728150154234
 6.854723310564752,  8.188956462416877, 22.003975361234183,  3.603644184955482
 3.396280396154538, 11.218910767135437, 50.017468478527469,  3.776790406992549
 1.287513623103272,  8.597740033071656, 89.345974277223917,  4.103311326685729
 3.008814199638829,  3.929004120067305, 37.034726761489402,  3.943749616421112
15.025458729035760,  2.221489942032615, 14.238830891751096,  3.991594136350203
 3.334375455302570, 10.969867021253270, 75.087956952836564,  4.186452898490770
 8.614915012693050,  8.123787055414995, 88.440221280727386,  4.003474537862242
 4.950965811868942,  2.623732823344993, 47.353246060636515,  4.123823039763215
 7.934467231467426,  6.764687488905497, 58.067219897768503,  3.948685648643738
 5.533870125018971, 12.203442672242394, 34.018561564771588,  3.770212556450445
 4.060709016529477,  1.119455277294031, 59.246665473199364,  4.069825023258068
12.334302209590458, 14.889490304708461, 32.978376977867995,  4.005071420953051
 7.544380648413677, 13.183012179902034, 78.067018550538293,  4.009349977291586
 0.778025850194992,  3.402776558069923, 46.737643225773198,  4.120209354329694
 4.501719484178765,  4.694689259243405, 67.457281980808986,  3.792846411751007
 3.650964913679155,  2.462318639119955, 28.211952612426412,  4.338000938410108
13.203872632676454, 12.534594588753903, 55.134352017425122,  3.959077526329570
 9.337406295948933,  5.527728299573172, 62.843967543373772,  4.003817691051699
 5.095409257577638,  5.924705773460296, 19.478185501116130,  3.899663273496116
 2.081933685115748, 12.408911797686192, 90.854070208932413,  3.962659047498663
11.961410838196425,  8.677738211567595, 56.106055101062680,  4.059438668480731
 9.599822018812691,  2.866511033623018, 24.383061987082918,  3.907437910485871
10.758886731203694,  3.202348616578318, 83.663981777511225,  3.881758340738491
 1.432494697713218,  9.842002826834165, 27.622525935157370,  4.068600435126565
14.264718732846784,  8.964536586762646,  3.232459599707686,  3.956514324612415
 4.743954410008882,  1.299907103229571, 53.755394196264291,  4.029523714096299
 8.868257360356978,  1.212497374700703, 86.893091697293059,  3.836008651860195
 2.681131555419926,  3.463454358232929, 56.339404527268222,  3.852821034099943
 0.798153171923872, 11.918622765284159, 19.440618898539597,  3.919129347181645
12.675403710871525, 11.594729770289582, 59.214245921775039,  4.420234705424061
14.066930494273270, 13.006448210694918, 26.415252888679106,  4.201814694819892
 3.678117743296109,  5.912766679524507, 84.058934617861809,  3.819757942172500
 0.336368348717287,  7.642907931156826, 61.973406794976647,  4.236965054266814
14.617789126122032,  4.540146704206999, 20.709485557891938,  3.792038967509929
 3.423234448692948, 13.769142115017049, 31.265687719313004,  3.821422566566544
 9.591817522417323,  5.299191772681954, 39.512571959207150,  4.154305184876140
 7.663359729189538,  6.188492513398421, 84.978442311406098,  4.144596469254640
 9.795000829831897, 10.684360596767776, 73.313522951350706,  4.198236233259362
 1.970390764274421, 11.232093060209804, 23.522042740900407,  4.617739937203519
 4.678509376803246,  6.843050796203361, 55.695367375852669,  4.088560908204025
13.964486939987758, 11.953121058276878,  9.679742419619666,  3.742706353307081
 3.443163806936869,  3.252129432712968, 73.081257640012808,  3.640834776192158
12.082089352278775,  9.938419812797290, 63.022139955692168,  3.966717197306949
14.820844089249828, 13.330013755287242, 13.252560605701849,  4.091084049193968
13.889578910885179, 12.635258205228231, 44.883481538428846,  3.662138725183252
12.008622781526229, 10.277308821512843, 12.714837407830785,  4.207873732647908
 4.227299919835639,  7.085430347792284, 34.980808380435874,  3.969866953552296
 6.063926545602553, 14.827155703119274, 44.421213343192782,  4.069735091480325
10.200450276138533,  5.088891203819639, 54.725122996079719,  3.625249748339307
 1.268432450762172, 10.006466325862544,  6.482574937288240,  3.922309286543187
 8.779671453219619, 14.423413668488360, 35.104802008823057,  4.239231251832641
 8.626594356221808,  4.279859381304210, 89.272166214503272,  3.779138955618837
 7.923530657642525,  9.837481882969424, 12.740750212439439,  3.934852333766168
 1.942217448220466,  8.654106041798370, 65.612133694386401,  3.970729854251789
 6.632747561403856, 12.610366454169874, 10.111728481257598,  4.110166922488657
 6.421741214065703,  4.213236841196427, 60.543419947647088,  3.776704294833614
 9.451641511878595,  6.592087205440428,  2.065925590405883,  3.978409821772378
10.798341262145485, 13.194055047536574, 85.177300151637851,  3.828188342373535
 4.278965616377538, 14.849390758155470, 63.200678362944096,  4.253226016160031
 3.788505617138384, 14.224378826873242, 20.991124003046203,  3.989752360872067
 0.719718761278068,  8.236137806669735, 85.302818310424882,  4.065634000356442
13.470918847671674,  0.272382363153878, 82.916264546111293,  4.181966148229229
 8.569638307830330,  9.580473442121182, 79.180992810896285,  3.750608489043731
 4.153146101297311,  9.966179017385764, 20.059152661028037,  3.941299982292750
 7.946470685490782,  0.839108491251983, 59.850081666847295,  3.755633610585979
 5.834875201814835, 12.753835546408105, 60.151700346025144,  3.670507756598449
14.618594621812257, 13.688497772566871, 71.621515628298710,  4.036036487655927
 9.616925240709000,  6.694251758362173, 50.673544566198068,  4.120803552519077
12.489023316446293,  6.621129952424288, 65.235712090726125,  4.043169855888550
 4.236750640169247, 11.133810663496085, 12.918161192219932,  3.833127787499455
 2.044614833761950, 13.293845417144283, 82.604292397339535,  4.068939749178806
 9.845961320957750, 11.773993707152497, 15.906905017824775,  4.040333857641861
 4.940148765567986, 14.325483718844355, 85.135436781578520,  3.885968668479544
11.453691584948169,  9.549577010330053, 48.565156324911172,  3.775191450690096
 8.757483230317845,  9.446039412782884, 18.990336965361639,  3.943144975279252
 4.777061110445765,  8.008940217544422, 87.148964840420561,  3.932486024596325
12.581116386268240,  1.041243818841662,  7.137431974417605,  3.778499243265347
 0.228679655480439,  0.410386730374851, 29.599141034271899,  4.106071823539211
13.286166054949653,  1.338087852826721, 74.428082508815308,  3.937186824175131
 7.694036397807589, 10.432976993627964, 50.786994743486481,  4.287072838084448
 9.377786134474350, 12.792409234483642, 61.938466415795034,  4.188950182054411
12.335636285194726, 13.475628680236259, 93.883007458628200,  4.215230519371216
13.475482486334208,  3.350609504493640, 24.190213476364782,  3.899776453822756
11.903670283272195,  1.477939260688839, 27.406436749688481,  4.159321923463789
 0.567021287889648,  8.797273047799798, 57.994910717015209,  3.974915438500447
10.429058528185132,  3.533684194109231, 72.588309355587384,  4.144860901031673
 6.301251306198306,  3.635036848243162, 82.165786893724317,  3.925525206159025
10.795734532103655,  2.840965852749556, 10.695591770490298,  3.975712215962079
11.651397171703078, 12.263160627240172, 76.799972785529803,  4.247570045201387
 3.019118545390667, 14.598948515886107, 73.268923127659434,  3.763413665812097
10.153891917690920, 10.863319720417872, 39.660720164038395,  3.838073368056086
 5.683207877272095,  5.457340922451026,  1.503165182605460,  3.838597152957846
 5.353264918275269,  7.173169310488388, 64.021184564445889,  4.071741976311603
 0.325441351520780, 12.361564710372019, 63.690343300160684,  4.163813483339869
 0.415572893106595,  6.153678123819288, 92.509851324980161,  4.034378363119456
 4.126330955947409, 11.293249966984094, 44.348373783287414,  3.977539444999758
 9.642671028662901, 12.684244417239302, 89.109149974099154,  4.249685417595709
14.633605243789194, 12.853092884729323,  3.237735306827457,  3.811300152209162
 8.207190310727661,  0.268865825460252, 83.157903250472231,  3.932208505697506
14.136753699556792,  7.205884660994302, 46.790418305760639,  4.169881611232343
 6.645337228945947, 13.303296508523374, 74.099464735058845,  4.104936261782062
 7.057504885991780,  8.776797008534865, 32.694694485775166,  4.051691033623068
 2.065885530234162, 13.762956663463843, 42.183540558160608,  3.772597766058976
11.531493196083739,  4.969184541393826, 68.878747635463768,  4.009474734302901
14.267274368285236,  9.512754534435018, 34.289833294840442,  3.894232301065426
11.640020633919294,  8.096436269415118, 37.101943897511120,  4.259519984868127
14.359582078041784,  3.845460876074016, 71.508390526818744,  4.028901525177217
11.171829794627294,  5.454593686303537, 26.973233560820606,  3.942726623612422
 5.014399825987658, 11.251681782608799,  6.407161640035442,  3.953862375029292
 8.579277450231610,  8.361510564262403, 42.368782722775450,  4.129909823747252
 1.630509000508558,  6.491519403892981, 40.462794525968832,  3.945901409246886
 8.346573691830505,  1.690331974971523,  7.404009545139364,  4.375306509585210
14.928531757413690,  3.982116076335327, 27.656481796437987,  3.705729143326856
10.705727514690681,  1.294608414181617, 90.766461220467534,  4.009859299987786
 2.433998254367130,  2.501058512596117, 32.362395974736934,  4.070288161539922
 9.774135186394513,  9.794802400803766,  9.022789697124063,  4.323385433161560
 8.901117755889581,  4.183286180673051, 30.174361038261313,  3.729617486327331
 0.397814832659546,  4.245383927131131, 67.707195621083770,  3.871430101400176
 1.420031671181478,  3.193025981927101, 76.404110389963165,  4.101309364133258
 0.027307430515641,  1.127832710413712, 58.164413673740405,  4.094665930702397
 5.098900661056938,  3.239541502614621, 78.423537264238163,  3.808044832775373
10.692119227129215,  4.017911292826713, 14.665504447034300,  3.896358150388238
 0.636976443866133, 13.833556741414101,  6.831590753908814,  3.853268882723096
 5.412870144254132,  8.672509224210552,  9.550375778970905,  4.161491243184711
 0.854530524024105,  1.852592435191674, 53.371494275603737,  3.824547956175428
 1.984016717288186,  6.646311821406555,  8.774714258637243,  3.924979406593866
 5.020783670104940,  0.750555437637070, 67.234072957664651,  4.155736271295554
 3.284153346436138,  7.629464417912207, 77.903077689932601,  3.906856040338286
11.642449530758064,  9.590095301846402, 44.686637327152859,  3.904375783380872
10.084867219205234, 14.292234161846906, 43.451929157571755,  3.872010292527830
14.313621659187888,  8.027010466949072, 68.685962707191493,  4.246286483485695
 0.038489671219581, 12.103910744405653, 67.853952969720439,  4.177439830883684
11.693525520616218,  7.268187144920828,  5.498621255603701,  3.689290988401025
 5.586204774298016, 12.556506419549438, 37.711495253033640,  3.621652085750807
 9.776703800311491,  3.315309875573521, 33.781424035105381,  3.828008690853730
 1.705625637447503,  4.276712822375337, 60.025739081886123,  3.936673752271291
 5.637431562076277,  9.085117346315156, 47.387843971492828,  4.100515848909262
 8.443627162553572, 14.477010339845659, 93.442823062034208,  3.840073031217062
 7.749787409402648, 14.143188690537997, 65.129191941118918,  3.430584269623279
 2.324236457984268,  4.278236952067795, 24.922407778393783,  3.592511625632167
 6.588686060090542,  2.841551723716743, 92.391640055004871,  4.162192839282282
11.594542526602167, 14.155349466586392, 51.736310144904785,  4.039155140750109
12.698901176754269,  6.740341104288032, 52.845108550668826,  3.398597393804715
 6.750036134490263, 11.873587380962709, 41.363365346791397,  4.035383687887808
 6.834228948801333, 14.098910926993357, 14.128465500156514,  4.334447222255323
 4.475335759743672, 10.801670108375436, 56.985237416920228,  4.033171862750160
 6.604611062702668,  9.142725963407557,  1.522571583150011,  3.733326017194754
13.204610612091507, 13.103293915514158, 22.293472736689434,  4.155224302701622
 6.505359748768888, 12.788585910603587, 18.227670566976343,  4.260778181454092
 5.057581750359825,  0.151615694446894, 80.772502322715610,  3.916931779492768
 4.894758526917430,  0.610567303963955, 40.055853935706025,  4.230669916545226
12.211881293794693,  0.688237735510453, 46.517923678222822,  4.066001087032848
13.809284970267351,  8.975448197571941, 21.459288687527788,  4.208176684615297
10.423895064428443, 14.545213357216243, 57.173770969810697,  3.993901998219274
 2.024958484721791,  3.523584199351778, 17.529171194983302,  4.118615185407126
13.646790781008340, 11.185807190056540, 83.231127033558110,  4.055166810585961
 0.343015160421689, 10.873672110597608,  0.042373399912743,  3.777848232041008
 6.874083258664182, 11.940207030756822, 81.744974844231606,  3.757094694146023
13.204499199072872,  4.945310499476706, 34.940311205212183,  3.961528288368311
 9.038619492168241,  2.057131442482053, 67.269406945856971,  4.268559717251104
 9.115601868287149,  8.764695925300812, 69.749702623690098,  3.911497161430433
 1.598806156641240,  9.835693263510839, 54.190042325759741,  4.140278663078254
 8.131507941615117,  6.385198873963609, 35.747386811973705,  3.981667271001385
 6.242203059215949, 11.787403197566677, 23.151432173866830,  4.025154715071341
12.905022238352712,  2.693328450525733, 65.011703534700061,  3.862112411641985
 9.561958573428804,  0.633144737148540, 75.635343057989658,  3.993419051392760
 0.460883604170449,  6.688751032992158, 74.342671585324481,  4.232356104758368
 0.205945035019184,  1.650804065671921, 35.540784456143165,  3.863857639816773
 3.810108397945057, 11.382519344913357, 79.226088528426871,  4.110405386995252
11.279868026584984,  7.674704004127070, 59.907130954735955,  3.892009920176089
11.519063865515053,  3.229783067218402, 51.657603882291767,  4.005995185215796
11.687040992415747, 13.785120611951760, 65.370318237785540,  4.308778797021815
 0.447141023267324, 12.975258476585488, 51.917235899596108,  3.934488781813307
 8.955803083369727,  1.517858452479572, 54.120678360407297,  3.872072537508730
12.381137699455881,  9.481999780600102, 79.814975855243546,  3.945588678272782
10.991048043662556,  0.076051387906019, 13.723962636522991,  4.230389143684734
13.811723013678698,  5.272893355027428, 57.290851524175039,  4.029945628586482
 4.964971208626818, 12.627478362195534, 93.539246916203254,  3.910100913194390
 8.129319169167054, 11.315118312297008, 45.092268086252759,  3.955265396400231
14.600511076774307,  7.063040353250842, 25.218933862736055,  4.113499967776137
 2.241379860357571,  4.397050062772572, 64.094434046144684,  4.244661450980113
 2.839741190400861,  2.149486699945244, 83.392089508249057,  3.993275804511410
14.558025236463839, 12.801059974796495, 86.684003628071210,  3.686935499576010
13.584981382822310, 12.662521480897411, 48.580915864776514,  3.751553129678868
 0.340583629596517,  5.953283015005764,  5.384703342248273,  3.726143602465237
 3.029818888716944, 10.200075321802123,  2.693201097171444,  3.871156406492882
13.880083796330270, 10.438332312991763, 73.859467780016161,  3.976742234527610
 4.213707267323752,  7.677597462568539, 59.892589277533233,  4.513820343356365
 2.267275469716703,  4.880949108977854, 80.542094776352755,  3.974576932320423
 7.634724902188483, 10.353151280663795, 65.364195095455329,  4.164416654122970
 7.249683397205243, 14.576163166994391, 51.093700383065929,  4.063517909118620
 9.973245050591419, 13.888690829813125, 24.798664385298142,  4.157512638333081
 3.799034925490347,  5.211281997750888, 90.124652276211918,  4.447452758395513
 0.405429403621971, 13.547219652176059, 76.049004672091272,  3.835190798162281
 3.340228797139361, 14.800802169528120, 12.049475687054189,  3.900798800914486
 9.796012574481786,  9.431455523606088, 83.092130237122348,  4.398419627321248
14.144177687646357,  5.356992199503928, 11.700492217077031,  4.241185903954511
 9.912115698378424,  5.821783617172741, 80.486522194690750,  4.497958568749077
 8.848088029638564, 12.534732404640627, 54.096258493087895,  3.852787691894072
12.577744486947894,  2.142637408880999, 55.265101574673288,  3.793537145087464
 2.025923602084484, 13.711960703666337, 55.548517941791395,  4.097488356086180
11.206982512747127, 14.313455612648138,  4.095885364047471,  3.739872078534873
 8.231979357373525,  3.038441028350135, 49.589170375764432,  3.769707884916853
 2.887993745387514, 14.469653818092988, 16.268107186767939,  4.545450827187060
 3.491937776250419, 14.230384306752985,  3.829499449041490,  4.468129787071441
 5.932571243597197,  9.815080940276649, 71.994041823082767,  4.139950323792332
 3.145208837843207,  3.104620214728864, 21.403944657004896,  3.964103831180195
 0.464262211395896,  1.193441105354597, 62.190925410043178,  3.993867702427411
 2.091118835885127,  6.566077702405220,  2.065586390342645,  3.704607096429266
 4.591270477575245, 13.076964980477815, 70.180781993538901,  3.778142703243617
13.908548278484286,  2.395629459407299, 92.885050383625668,  3.935081381059137
10.654798559242129, 12.818266962277868, 28.708297490195292,  4.027352722153941
 9.112921645322970,  8.254702097435807, 29.185316209987068,  4.147136470017592
 4.631064155481066,  8.346411028621645, 25.282397662759902,  3.983754331125942
 8.111240599228871,  8.902926483257120,  5.202066969518119,  4.179140589804660
14.217339496370986, 14.852309474319947, 90.102651727048325,  3.638048762085756
13.545074920282746,  8.358239653001984,  8.623283482043869,  3.785234767735687
 7.357000971779214,  4.963873244428305,  4.862892631070785,  3.729991341967730
 5.354490406753071,  4.559407140401754,  8.194719453586877,  4.050692124268660
12.053449678654360,  7.356873070366167, 72.084657776995556,  4.011392897880935
 7.042564608162063, 12.590693779661239, 30.415677950305067,  3.972274710203665
13.517463504855806,  4.952380813019764, 38.800925810174427,  3.776122651774120
 6.760440492414733,  2.181708392801069, 11.293748107036262,  4.067878707853772
 6.844144664637962,  4.758584057241098, 52.934744591490762,  4.008990233324805
14.354111667768970,  6.377695661018242, 78.283648298978520,  3.991066208093965
 6.261498403232496,  5.665963590135192, 27.783420858877118,  3.971087766264771
11.502557540524771, 10.200869306149118, 52.396897457937740,  3.976720004269113
 8.475164685240152,  7.685899050764206, 25.299085526799523,  3.808201520708104
 1.078483429044963,  0.657914015953382, 66.134553869579847,  4.027691405520289
 1.046196711017830,  5.868956393391884, 53.834471240320219,  3.824091263949952
 2.745689671007959, 11.974804763196953,  9.491625889210527,  3.813134509709142
11.529301122140765,  1.659597465916256, 21.127505679623322,  3.972509696459015
13.606137004850339,  3.810345627103961, 81.088630628625779,  3.756102471287433
 7.195324949346915, 11.128388774252162, 86.063627130774321,  4.146399692170608
 1.408256629384261, 14.615662335053296,  0.174749603137169,  3.954623681003807
 3.220951878671647, 10.885061396899237, 40.056393522323667,  3.746583774784181
 6.412357921653530,  5.322451295964173, 44.311628829188152,  4.158846357700403
 9.501120947765786,  1.095172636060699, 17.475766417162554,  4.046855691999504
 3.955647924357030, 10.740625135460956, 62.816333197476595,  3.939864606616752
 2.926378369824796,  3.682544611247259, 11.345117078190173,  4.076395316501810
 5.334637585632371,  4.774309835094843, 40.261569402464481,  4.129905005407602
 7.624081227385616, 11.161312108682925, 26.800121341367905,  3.863894220065774
 4.083546803669926,  9.899121987185660, 83.658137854471391,  4.094278230516175
 2.258503529436600, 14.517629098131797, 46.170054479021388,  4.313494755835515
 2.276047688020293,  6.344594217056867, 14.353288652234170,  4.055613101713252
 9.733636695304641, 13.057050772608571, 48.296126587309509,  4.006988683483473
 7.973619118815932,  2.367515439222442, 42.059095930434360,  3.864753087357117
 7.568543386971953,  4.794150538810076, 16.731523896410252,  3.744435266739539
 6.855012600319131,  1.461392178489305, 71.144318945975243,  4.585746736323577
 7.673739919027255,  0.817663608684788, 27.826046782223997,  4.383780906297602
10.643534808015543, 13.022209913366849, 80.831228078417340,  4.176515005543999
 7.042915135368049,  6.488214498982177, 77.439150213606396,  3.972359903349199
13.345316757372968,  5.139518222829084,  2.033599499825952,  4.254802747308578
13.650974269944351,  7.441294347267244, 29.548158911770940,  4.198968759216129
 5.540446412859885,  8.657417075913914, 16.163761315711646,  4.725346083564803
14.177133270129673,  1.050306320758754, 10.559018977248920,  3.652173427419373
 0.282429259071689, 10.008958279976390, 77.402583644249489,  3.711264875820039
 9.767339537589571,  7.744838950880544, 15.555401950998403,  3.963018667257108
 8.254845603293621,  6.170365037704700, 66.764197268891948,  4.138771767148620
 5.910480540505939, 12.992917207154830, 47.858291654274545,  3.601772773330007
12.812413089491837,  3.535329435005965, 31.063054621761783,  4.325081415153319
 8.514452944501716,  6.867428832661165, 73.799366544968024,  3.905310096536228
 6.507508985569974,  1.387130622521789, 32.024960934393725,  4.382807778580981
11.250166812147816,  6.304742151999560, 23.057269995970188,  3.833738539320553
 3.347307642691106,  2.687698879002518, 43.476243927862100,  4.064839837900812
 5.018535624169841, 12.186436981590061, 53.346949396842916,  3.826762631960939
 0.814780766852578,  7.074190911028015, 36.758990752297549,  3.724035652897700
 0.596467047611182,  9.545607762638028, 43.064590682533357,  4.255636212723091
12.769871795883471,  1.146167345796836, 86.825592550242689,  3.949791555657888
12.483363937118883, 11.220230119775964,  6.118693651567023,  4.080186360285237
10.275945307665562, 11.374259806212779, 32.588137928701066,  4.169040272776563
 8.872245182868991, 14.649034076117800, 39.328630287815606,  4.044919484059333
 2.372036284005243,  7.015076859683941, 22.209277115952290,  4.080131928647244
 6.051167342057048,  4.778282028250542, 23.777810661943800,  4.236820176913285
14.673470399852828,  4.225685412897123, 84.925038342290790,  4.203209869128743
 6.485309232169299, 14.246782927254865, 56.677340464204534,  3.937580673057315
 5.127083559296544,  9.239663564878262, 29.173963651060980,  4.024360868127646
14.461204942485088, 12.815890866046971, 79.712016222134963,  3.746215538459538
10.807814344340651,  1.953686021056872,  1.363139179209105,  3.917049919812276
13.052054462609425,  2.933378943605081, 17.584442305091649,  3.889125793240090
13.206457264437216, 13.880442812603926, 17.079688048122069,  4.148711551429826
 1.708878980109278,  0.918734479122748, 86.990376718183711,  3.937421804834736
 1.069432113478338,  2.335794552680857, 40.139244381388160,  4.013000137211174
14.732104812418399, 10.028841920744066, 38.867324545929101,  3.841521115901534
10.921051419601092,  3.643183360565409,  4.889656315474761,  3.806194743106691
13.509301019962278,  6.573230509338557, 15.539825408338126,  3.876518025969720
 2.085511253220218,  1.380138632068005, 69.974847536296778,  3.965644382423419
 7.923230276374430,  9.010164555211075, 61.475926112326896,  3.968144071272981
14.634844106757404,  5.154825507774601, 50.211319903125300,  3.867231335528740
 3.909008046369165, 11.955407429223843, 66.558171089977492,  3.912658996239139
 3.113599268443620, 11.562402215635066, 87.164911618607036,  3.877295429177581
14.735705298096400,  1.711948826584509,  3.927184570889990,  4.043918998143430
 4.584724987244842,  6.712263332164787, 74.277617249740032,  4.003813784070605
 8.588678030513513, 10.860865835722652, 57.828638513597447,  4.309477045645072
 7.265694699739012,  6.926981742145477, 92.073610651051624,  4.109158228717151
11.850092264980358,  2.308267744711769, 41.229825268168099,  4.055863284945243
12.348256511950346,  8.447512118801749, 93.691653679298440,  3.980550745519050
11.709986303692371,  9.650837530259487, 26.388638645378222,  3.964801651881813
 2.608321741228047,  6.265445886283803, 70.672743754122891,  4.249537677424543
 6.012729703256921,  5.920437019512573, 49.455923765564371,  3.488461461309508
 7.762819842192171,  0.144710792320108, 21.494652707519116,  4.001567903357280
 5.270805874201438,  0.878386823666002, 24.444411369649309,  3.819710144729670
12.904743597545462,  9.886939081181586, 17.601807277368117,  3.888523747096817
14.942617888002269,  9.227041575804313, 50.443610210982165,  4.161274526065844
10.327929254257196,  3.471747134478366, 58.196367635144355,  4.015448689936099
10.760036092161796,  4.273190210464973, 76.633552948602855,  3.919597899601703
11.345332913539119, 10.021725545758640, 66.837287760686735,  3.795692276311366
 9.606737714680364,  1.601117856819782, 63.218677909188962,  3.852643779301701
 3.393136929918696,  3.476441968300637,  4.135050325656992,  4.085880025453145
 1.105701937591472,  8.737328433586102, 81.092473130585446,  4.101829672768289
 5.779647649444377,  8.417731826972528, 38.445327471180683,  4.038677685487894
 5.919828372444350, 10.799109214330581, 89.982516680774154,  4.101834410118416
 2.573917370636584,  1.288024501695744, 90.776520600252269,  3.839317538342583
 6.241622738289626,  3.270576322994748, 64.296918113733540,  3.947589830561258
12.635472190288453,  7.182172567123486, 89.921786824153500,  3.855831837701216
 0.842390289759127, 13.092817660256184, 34.111868815601881,  3.953436779232626
 2.717822987709534, 10.004806259386472, 32.343716098453058,  4.083074592997598
 4.008989193713523, 13.185907950245186, 27.215916937020506,  4.340168335461012
 2.596695588777853,  6.474702381738086, 44.882012643754599,  3.827682533666904
14.745444243097630,  1.283117369734795, 43.609395556678081,  3.712654277973905
12.888864970162425,  4.245377113542964, 61.299724773455367,  4.144810794589222
 8.405872857311483,  4.034017939751614, 20.472497453574846,  3.978856031256448
12.066480705361361,  9.690503320958346, 86.776061917996671,  4.262077415150176
12.044553561624831,  0.381727683067752, 60.569765155133084,  3.726685898069224
 4.658066961060647,  8.143220045859334, 42.178052400337648,  3.733123240364601
 8.626497023600109, 12.728843755149336,  6.395971962556623,  3.849021799920683
 9.106255624068455,  7.297420534562843, 46.550643168622685,  3.874013171008677
10.654868075254766, 14.498607044310473, 71.917995393694810,  4.075705148191238
 4.458258048827124,  8.120462618578562, 51.956886452748371,  3.823013710015437
 9.188816313588427,  5.845544335951019,  8.053039916835289,  3.828497644196104
 6.882151859116105,  1.694411357729292,  2.565738000112046,  4.308019708472426
 1.866337785886207, 12.590160179844526, 59.723254069413386,  4.284487764601265
 3.597681768342902,  8.791338070908603, 92.824194871587750,  4.250186128099369
 3.983972631565845, 14.767263571148506, 77.009760525021022,  3.939021688730095
 6.603770267799526,  3.266397502074678, 56.746735066745657,  3.977330948295604
 1.038154589695159,  7.367394691648395, 18.420025561457891,  3.984916777091534
 6.291785916426625,  6.026389090637124, 12.671852529578072,  4.145691610102208
 6.981618824530559,  9.916869684036454, 75.875589623604284,  3.560022791469391
 6.090454435439208, 14.951852455381269, 89.429110819766152,  4.107227125608154
 1.360760005102106,  1.095166451384894, 79.845941663505201,  3.887881928895518
10.648394376550375, 10.764370508447529,  2.546319994336343,  3.985684579126345
 4.435672037874626,  0.146590318789579,  7.880742081120306,  3.975630055892876
 5.148387614850497,  8.512602626665483, 68.091785345251481,  4.001648857792104
 6.715197917202452,  5.723929032830108, 70.475199358854212,  3.935475218955498
11.309926674422986,  5.676442768527151, 86.609963696192153,  3.859592281380531
 0.911519755487925,  9.214455097033353, 11.736303380706969,  4.160250621486116
 2.777951831661499, 10.481805294361584, 36.298152009629725,  3.861642123839987
 5.270622145493238,  3.086078798040262, 86.618200863409555,  4.265123219061429
 6.805292902593248,  3.422327152510039, 74.941332946951306,  3.948105549057656
 8.376095274993528, 10.443230436149095, 36.127122991202597,  4.011674501711145
14.420959478389584,  1.225687074285715, 49.828893357976206,  3.927963434675571
10.229885445065106,  6.660583322493496, 11.747258935166634,  4.006742672272035
 2.615088475370313,  6.922939816527109, 48.660067391281245,  3.749514834419464
12.404913158642749,  7.852865923476356, 41.151024675752531,  3.959890824294599
 4.192526837751251,  7.375477705659872,  5.361389974590543,  4.234270460263226
 5.256733565748637,  5.331299237677650, 31.592946160209724,  3.929233655873481
 1.252356751226490, 10.580925972095915, 46.917227889392528,  3.823211081047255
 8.671220545169483,  1.817223398232276, 79.454687320887246,  4.134558073437034
