BANDS
8 8
NANOPARTICLES
cell(1), 15.000
cell(2), 15.000
cell(3), 93.750
 8.389620850033070, 12.368080609654253, 23.564020906192571,  3.886311086515703
 7.142005741097448, 14.983524484814797, 27.766820369691768,  4.000020954768048
 6.669572083108973,  9.994125471953467, 46.479398126244448,  4.105190727379313
10.095304865429508,  1.348345361284669,  5.266160023725861,  4.083149162183182
 1.542933785174376,  3.692824934064086, 17.937007557918736,  4.252579777345475
 6.743514564171265, 11.179642379471737, 26.837980766322946,  3.814581630455493
 5.160073175554044,  3.283350676700698, 35.977515590561154,  3.888092070951749
10.925141712050523, 10.349736706469615, 55.833091861363158,  3.402899320197926
12.836671916541658,  6.495187431939772, 90.545538002969934,  3.910083627647992
11.994839671570130, 14.655527202313523, 88.299922522050394,  3.871314859886527
11.819331346098311,  5.504807077405117, 74.846508170409749,  3.745444806360968
12.350322566776446, 12.913266694722250, 16.207361292021467,  4.063842636096037
 6.958000137462701, 13.024333204665847, 59.753325619230473,  4.124035952183041
11.768581798814823,  5.759883961942546, 85.339370369102625,  4.296034130408898
 1.826897290052516,  0.206112439963367, 75.221619181216298,  3.933334363425721
11.864418020525711, 10.039788994265487, 85.205426722034289,  4.265640413582164
 3.354017114998105, 14.177049735609984, 69.296752498215383,  3.605934409386848
 4.187226040057744,  1.727083007432445, 49.077795801883745,  3.906556789466325
 7.198830018285789,  3.223096634663985, 82.710183414828947,  4.116395078514747
 0.630339927983378,  6.240930360073318, 83.815592368733704,  4.052160625838781
 1.991038941045641,  9.609535247046718, 82.300893130852359,  3.817742861374834
11.920877316698769, 14.072778586596012, 84.392845954796982,  3.936216795722883
 1.607222767770976,  5.903359794410555, 33.744571302597549,  3.569965310982468
11.394572547269240,  5.260884758462585, 36.811230258714176,  4.077716618080131
10.468259133952001,  9.176017298944556, 92.283383724327265,  4.040795009989140
 2.933689437666246, 14.696301766985595, 45.065125043551802,  3.908265130622551
14.104348094756476, 13.067827511672011, 45.717434000553645,  4.215591260399900
 5.498945223846444,  5.962866450097991, 32.842586770918373,  4.373255572616535
 9.635027329987736,  2.400844472021462, 75.495194797367674,  3.922947241285853
 6.888033909184063, 12.008362594737740, 79.548498821996958,  3.628748090091001
10.223344030416714,  2.341323647020169, 28.239586316917425,  3.816784080048325
11.096015786146848,  1.800686415633282,  9.124244537840166,  3.894318994533558
 8.936850282790569, 13.483645556498367,  7.810606055294071,  3.880269048852294
 7.294766853304677, 11.633609305233506, 65.951716737186061,  4.123697297210423
13.963059235608204, 13.000556713067326, 77.170810987265654,  4.018189311541303
 7.950539561757728,  8.239653233033142, 79.088923384029357,  4.172522908523961
 1.151155473706773, 11.232282582982327, 36.161018399042653,  3.738026770917319
 9.466490523390721,  5.658297460755632, 40.593342867333817,  4.273319000470105
10.608987565919538,  5.574403729606098, 26.046079337221954,  4.028066763590292
 0.366828147985811,  7.185869195620469,  3.411365350584449,  4.249138984650618
 9.891038160546872,  4.207224638407133, 89.402002713492237,  3.741325616195113
 2.987047015699627, 11.352014995067119, 13.719471704821778,  3.670262561293460
 2.615637472284825, 10.873427672891381, 46.384340724056955,  4.171034470408403
 8.446712698253062,  1.743765201162457, 79.179344847230766,  3.914889641199892
11.562927085114556, 13.759809321665795, 73.870069573345063,  4.250309158248514
10.568719354804934,  0.747078995571236, 66.526010277691455,  3.944922774119917
 5.195552999775836,  4.173418789935369, 89.962788017428153,  4.081357624936797
 8.075047627502956, 12.483013817219861, 40.924749515746839,  3.737522612982086
 9.220575634034248,  7.729538748689367, 33.717740451342699,  3.913143081340978
11.524277353866772,  9.502925952986597, 31.027430618926562,  3.793745748856689
 9.870201626373358, 14.884798299958629,  1.595925630973408,  3.830089967377152
14.575768383812100, 14.651182940383899,  4.421818730474797,  4.253616179610713
 9.238429728029329, 10.708193801476916, 82.159254031078291,  3.858185018229352
12.994989347174693, 11.582060455276286, 28.215594233930972,  3.778927558253165
11.666098900408757,  5.867945263576948,  4.219156086789654,  3.758773082736182
 5.642814734835683,  4.940830446616855, 79.371979393255188,  3.877556579245262
 7.458929215895421, 14.554317299555686, 69.229721686348526,  4.634073446390225
 3.950386573998157,  1.621837802855016, 72.164346845535420,  3.995614239330262
 7.667629822556002,  2.825666280040436, 50.757933556084268,  4.067747227464729
 2.704170837071053, 10.157743749631049, 20.486417634333172,  3.850298550939649
 6.404610727775209, 10.441431869630046, 75.685304399575998,  4.425079393770375
 5.659259352217851,  4.307527535817733, 39.689644245701253,  3.839887062833232
 3.478270203340795,  8.157013495974079, 36.127803753096202,  3.958151057949335
 0.060413010945751, 13.352100431160411, 67.579179039660275,  4.001909797996849
 5.015637561260046, 10.280526955430039,  2.676723693009872,  4.318134230524367
 4.556239222925734, 12.207420715870457, 86.752339990337575,  4.207191681089502
10.341101453820011, 13.227445381058905, 91.705377524344016,  4.138427591030339
 0.687831372051365,  0.711298813008715, 15.184373980323951,  4.000823134846923
 9.385181587276747,  3.174478472766614, 61.811150725011402,  3.703627965561443
 3.492163174643988,  5.752591770384891, 71.575665508298613,  3.733392632741358
13.598851492847873,  6.370975074829523, 40.104421099953321,  4.130744575282066
11.343407102975867, 11.815239393297439, 67.183744320060512,  4.067878486352087
 1.967375176643055,  4.820504576466140, 38.035489762453082,  4.299878084276154
 7.495521531029174,  3.585523059168262,  8.930592319429341,  4.130414432872185
 4.629712692517680, 10.663671844663423, 42.654540307343517,  4.006433516262343
12.102761662099812, 12.005890501044442, 63.238878427454424,  3.864636611484142
 6.240743228589458,  8.135130061789031, 40.051392838701744,  3.929463679224580
 4.571874888736083, 11.207729251543004, 56.896745992053880,  4.057618143402158
 1.509076077148959,  7.289419046796986, 44.458911931440632,  4.252523397817280
10.717224006360057, 13.957238453721823, 80.633655175208801,  3.794974974777953
 3.632812714341728,  3.874050045939632, 64.915340601440178,  4.127893426202244
 6.851873555158444,  2.198143450363738, 46.197819611940993,  3.983808167295229
 2.301291600051711, 12.408100285799694, 39.709032238872787,  4.037526695911189
14.381896564979838, 13.647263825308753, 52.505238657300943,  4.132130347013113
 8.556967663962368,  3.325137991457252, 93.269878398771539,  4.614565941351693
13.276028257471090,  6.355252218655902, 50.222300330032517,  4.198517460522504
 2.325337854357093,  0.693628453107778, 37.217798319160686,  4.143226271686482
 7.317599045445143,  0.030229437649145, 73.451768788107529,  3.843583450614188
 8.770354345345899,  2.002044965190109, 24.758239832358807,  3.735798552176174
14.113415289688090, 13.316943970426555, 19.795210056245004,  3.929752822754089
 1.342025861009166, 12.183783366644320, 30.189114160415407,  4.076853341469857
 2.056351888665211,  6.784227492214995, 48.570615374733066,  4.095171817782345
 2.013121736740036, 12.834679062751542, 79.768797419740707,  4.001530516480251
 3.905109983819454, 11.561257886313342, 53.053796644416138,  3.755904333286924
 2.601870581052178,  7.570766764134627, 13.353748703792437,  3.860877042654595
 9.405247616671126, 12.223216248440666, 29.366713278214160,  3.810384611062478
 6.873815852022027,  7.626525474780310,  8.678741327105335,  4.061212764035912
13.224674215173515,  1.998478816659509, 77.265512694940725,  4.111774101445296
 7.642443133498331,  6.761047553978917, 64.774061544637888,  3.983803633489905
 8.781466431585242,  0.489285429540003, 31.344341310976844,  3.926330557909787
11.427471115938181,  8.972943202189624, 16.819692275960573,  4.114450836945587
13.510783637811960,  2.335826008438835, 54.182176700124160,  4.145153607322055
12.128943527135975,  4.927288437968296, 15.431043833854023,  3.909689014220566
 3.532661913891329, 14.264953489150292,  2.981436752482447,  4.202476085862582
 2.982206873966775, 14.037669769335650, 59.373160979028249,  4.102593654333074
10.671745394099357, 10.023083438312284,  8.623997895207816,  3.880782386123720
 4.194162868074585,  8.599643787797458, 92.693413314563571,  3.923199805611969
 6.447738182551129,  4.109576631754003, 54.430230551111237,  3.988618996670468
 9.913787450879274,  8.845458488666639, 13.130046552177461,  3.848870154791270
 5.371290255577481,  5.235680279441587, 19.287490907526422,  4.328411471020968
 4.762149888049588,  0.069492552753477, 65.884099448027925,  3.967485600762769
11.099208835346657, 12.537613511189535,  4.503843113789170,  3.882925582661557
 6.789196449403859, 13.563518209913100, 44.459989997012343,  4.060436392789441
13.697841172139741, 11.657140028590886, 81.785888144486847,  3.998856015301726
 7.868600817384149,  6.901047236547621, 51.446914317721316,  4.012047020857139
 3.232949810101060,  9.429564637625893, 32.401470929719260,  3.915272879745756
 9.265157403101020,  6.953431231827444, 55.317368497081830,  4.200357227443921
14.121908904955957, 13.696678901549921, 60.358570383766192,  3.885966930105804
 2.824749452808487, 12.790051438242791, 26.551904775111275,  3.871018791257445
 5.350595208852587, 14.652083208462754, 24.287674492129707,  3.850627103410571
 0.111903280966083,  9.400927944236189, 78.716107033153534,  4.123522915087192
 0.344025103582107,  7.461965300744769, 30.345395729977096,  4.042426775791177
 0.359441502503444, 13.540346008630079, 11.631918005805920,  4.325132370098993
 1.836908210012694,  6.602597089065227, 60.533217069119075,  4.310609307295510
10.790105073180916,  5.105268804923175, 78.743394356415280,  4.314330077041810
11.235352418875417,  0.350642472878955, 34.832580133271357,  3.916906945855514
 0.144504925753078,  7.315680034683376, 16.423281394591836,  4.018692083474316
 5.350465957782271,  3.061162017242353, 26.091335412434749,  3.847928613394880
 0.596656069537515,  4.374112558102110, 13.887884864411564,  3.755187282062609
 2.224846898305418,  8.345419740652739, 40.330051966651304,  4.122544999966862
12.116588859216296,  3.236068841298056, 42.934575442719677,  4.299007478534871
13.892205907011766,  9.167298329104096, 47.195606968456659,  4.132306648937902
 5.106612256908483,  0.216918372443401, 80.819116809527259,  4.081153695557191
10.173051867352250,  9.558856386614359, 39.093906130241677,  4.116425943994368
10.623393918112374, 14.046920338359081, 26.227365189999251,  3.831387754176813
 1.520109389038022, 14.232615254686696, 55.740605259329094,  3.699966180641175
 3.527939134672101,  9.181072591415973, 28.291493182368555,  4.263652023157069
 6.638513537297944,  4.204254751411302, 72.437358984033708,  3.460996908155413
 8.803290804753113, 14.293327588624521, 63.210510767118038,  4.089316539024939
 4.950313973603201, 13.960709823956412, 77.112004328132130,  3.696197974970092
12.625044454948158, 13.746392365742532, 56.297731002571375,  4.223465917093183
 0.745576320951684, 14.238556972408722, 33.694467892254245,  4.064327586650459
 1.247326454148767,  5.244464358365334, 68.335918466924710,  4.202434351156874
 4.171551496163398,  1.254913882251701, 32.667868933514526,  4.118071856287059
11.706069819899769, 10.657705565812691, 24.671588209362135,  3.870251424101191
 3.518018374003783,  8.136752485630277,  6.106552068805407,  4.234764494523773
 0.953023861081088, 10.204189267724134, 50.698131097977331,  4.254577335335229
 8.823064251414271,  9.189395294372865, 43.014915115471588,  4.206117625571162
 7.280075238486643,  0.243643374427504, 34.920284519887488,  3.802136455025468
 0.099747962445469,  2.055094100075937, 65.948385708014413,  4.082979940290585
12.713863071624292,  1.514341413936308, 12.704687140703202,  3.899904459551780
12.627993496038187,  2.092348176486290, 92.021612696867791,  4.045966799746733
 4.922970555493069,  9.252421102735759, 50.073142422914593,  4.005362759651813
13.514684454009029,  9.786845151962217,  5.964845302049349,  3.915604120480454
 1.856260155054049,  1.161625706946977,  7.718054832847646,  4.303806873313281
11.091923120574734,  3.967644783864217, 22.460125443053514,  3.885077653352772
 9.385092248198379,  3.692424881316452, 18.920470655073668,  3.992971933599808
12.269700445150177, 12.267625508002901, 49.346166364602787,  3.936666259566179
 5.250941629274310, 12.940137679562079, 30.632537912446331,  3.921867617504130
 8.574976771649119, 12.973571014572048, 56.190873743263353,  3.671724775081279
 6.926233823695987, 14.020929913821137, 52.250186739693589,  4.172589305225243
14.958386764382841, 14.853214876013254, 42.014325336719288,  4.143456191989271
 8.668040572045392, 10.307579621306663, 62.375790010796358,  3.982834093747369
 1.969158680691138,  1.373736490030076, 25.146340853490987,  3.910498464994318
 7.579853913638795,  2.906366688869123, 58.246003153953303,  4.254216637088219
13.543864556551320,  2.379346346610667, 73.172272448834065,  4.110515359689410
11.045812529520182,  2.534851837357733, 81.959489782329882,  3.822538317405381
 8.026764167606254, 14.228435058898603, 83.435509805042713,  3.971002892435844
 9.603728960856522,  6.858181760146908, 60.268856399950153,  4.275315500046627
 5.489568694305168,  2.750682877280235, 75.891837371657743,  4.326676284413684
11.122458301340661,  8.940742209490626, 52.385074018370524,  3.795247068576722
 8.763076273973095,  9.035414684480783, 68.823845866037260,  4.143662942621711
 2.111650280601771, 13.532370984611138, 22.384021690574567,  3.974319348582148
 8.884664533222560,  6.809211157685748, 82.693788716905345,  3.803412917453846
 8.892338458506471,  5.178591134809892, 44.575314972098958,  3.764477464564639
 1.224697050044717,  3.815168843256264, 42.084815758169846,  4.146452299673867
12.779260563489006,  1.635627824430947, 17.913619138580746,  4.144467550529753
 1.554844713306750,  3.224240707771646,  3.696910150176586,  4.037389211830622
 8.231167666558850,  6.213246667287206, 15.834481852144696,  4.294137753260193
 9.462324481309574,  1.386028789507950, 54.530921542323092,  4.120886176136191
 2.187510316558440,  6.362331965882262, 80.186236084251021,  3.764333680540491
 4.727929904552981, 14.811733268733292, 14.128262371858224,  4.112281975139607
 3.597511153142160,  2.987301819349507, 22.108176716344815,  3.678628461535573
12.359310638677012, 10.368298535541181, 71.531062251503258,  3.926209735433331
 8.096198617664342,  0.212764555701346, 11.423712171143441,  4.289840536604047
 8.512327841534258, 11.481264412458701, 72.115581675692169,  4.054168029837720
 0.997952243460063, 11.148706275065772,  3.002930556117815,  3.817883842500865
 1.196904351486413,  9.882782560777303, 69.467563905739695,  4.202056724055542
 1.796173953009055, 11.970767486841538,  6.974260495745803,  4.207212408801182
 7.516689171200380,  2.791142089239094, 65.113315510199143,  3.916716754907120
10.294840283916415,  3.422968010302383, 47.777179442913159,  3.965778853405857
 4.380962861289502,  4.141988707867628,  6.377660415731650,  3.955112500527833
 4.993542906792476,  6.682223150503447, 82.835535204455837,  3.979272219509361
13.055980804161845,  8.474379922963749, 61.926521590345764,  3.696442347347503
14.428589949714242,  2.933430390712357, 35.133093954310915,  4.266414766784387
 6.922011208944951, 10.155014521982832, 36.666099166215830,  4.069328430951090
 5.769089796408930, 12.735500749451944, 20.522936770101406,  4.156189015367841
12.443124631865519,  3.505090854953797, 68.647466478364848,  3.959101195912246
 1.126471768443729, 11.276146662348783, 17.095770439930988,  3.940717146491287
 1.747297000538745,  6.337500986337547, 21.199192226635059,  4.151358238930874
 4.799682365895472, 12.069105782518600, 16.828649509815609,  3.582576965310310
12.100831468018834, 11.579754187830000, 42.292175682678852,  3.947603724088022
 5.528240381229218,  6.870498649617695, 43.730845497015004,  3.947875899059631
 0.656460489471621,  4.830763612264636,  0.067427788350511,  3.948962472595374
14.893261121835017,  8.982235477948777, 93.123127130135757,  4.297755900799647
12.142012416602128, 14.600314953797806, 69.930013521399303,  3.889417472512016
 7.696297762954427,  0.787385706483363, 89.630849333694727,  4.309565441549350
 8.725427989077348, 13.713653610779810, 76.777136737097194,  3.838083734680641
 0.465380386511130, 10.963914901621887, 57.692891003310578,  4.197651864601918
 5.051548282815364,  7.937236620043479, 88.989052182835124,  3.611538002543043
 6.996459122735925, 10.951645165491509, 90.638814397413583,  4.187903555877133
 2.646413847159007, 14.732849190689510, 18.573833263858742,  4.062717374349140
 3.487662862664147,  9.619455273926970, 10.028059571707848,  4.129522948454873
12.189083297957042, 10.741873555231614, 35.862428264356268,  3.792246081396948
13.501709260447992,  3.316575564998284, 88.242120362047345,  4.044272925795186
14.172329624228572,  4.232944332128110, 80.770556146766395,  3.676447008652909
 3.078674160911840,  3.099628408181914, 82.912444760427164,  4.114432774438630
 3.725045613527560,  7.990821643366595, 64.152685858257087,  4.192442644625417
 8.983822915796903,  3.681629774779025, 33.827868844415711,  4.172924859065693
 6.822088049442348,  6.593891180806992, 27.423343747047298,  4.252423039592277
 6.051512519409074,  9.133264600583653, 14.013405544131947,  3.826325940023122
 0.609269041507628,  1.602225350367941, 69.882340546448305,  3.809152377516203
 5.051259381310533, 11.811239899147715, 82.785686308869529,  3.781575460386729
 2.496404325947490,  3.229193318441535, 55.035587610521183,  4.196353045374365
 5.107196499607769,  7.035401377880149, 68.070227575560750,  4.323713207238566
 8.038194649031396,  6.042420318295618, 75.610378552108173,  4.010730947383883
12.726232989770825,  7.617466502750183, 68.486876094594962,  4.290075398700933
 7.400147171659810,  6.911591938861847, 91.563753540814631,  3.626899680633280
 4.305076849601846,  2.468691700280123, 93.553023204227344,  4.041384425181213
11.439043986435138,  4.049669049117166, 57.256837616809698,  4.016917335506623
 2.390449224391809, 11.379293777845353, 76.125797164795330,  3.826942924765855
 8.433815788942228,  7.294758884070422,  1.524195691067515,  4.107702227923683
 5.334818961577114,  0.184955494833188, 55.946024072503640,  4.167499802017602
 3.910277687377357,  0.881861922054485, 40.977649355362786,  4.025149667873513
 0.611100497049621,  5.104709379046465, 25.191292077270408,  4.017709393671296
 0.851903445335482,  3.151181535815228, 50.874744566017441,  4.116218058893177
 6.028794733203960,  1.567223704244107, 17.529758395726088,  3.909481265521108
 6.605858603212853,  7.936618174502819, 72.301817446894816,  3.992833375780484
 3.601418171980507,  3.310746359005661, 58.904755839185455,  3.837053601086537
14.259484552633474,  0.461850121254460, 80.813680571207854,  3.853950482006778
 6.481301535929789,  5.788393753043282, 12.174694080231429,  3.845389570658375
13.090271094643901,  7.368183460169611, 22.938418568527986,  4.058788629359148
14.289538896697236, 13.524417988203918, 25.124950870968579,  3.888681406245971
12.441700401337632, 13.433188773708878, 31.555666619529539,  3.933130479088184
 3.836644619988320, 14.279746691985862, 90.257340527168324,  4.053225229628872
 8.731677834504966,  2.335008598612477, 38.001687262383768,  4.181314272450157
12.441669786638245,  1.117933778847321, 63.015603566290402,  4.032770775926187
 2.195458814832756,  2.491685982673096, 78.739071742170552,  4.382574406346492
12.615499241809754, 10.838922433142603, 89.234807043013149,  4.081936900641549
12.571733271514276,  7.747177917859049, 81.533123162705550,  4.151712041559913
 1.059474190943810,  3.255340389075067, 31.202695406567965,  3.826361896183123
 7.527210289608884,  6.227055700744733, 36.893807157811587,  3.883360259728672
14.440640950227971,  0.534061328669497, 28.726898147190521,  4.156195545269996
 2.985585681638332,  9.201742431647290, 73.015748435043008,  3.801461574536102
 0.699436853005063,  0.920479896716196,  0.548135119047928,  3.929591318512795
13.709683269390238, 13.886071932792373, 37.523550447582942,  3.940688546711825
 5.206007255198768, 12.952927722571587, 48.727796269002226,  3.875437137640929
 8.305573671317081, 12.505118068795873, 14.895772146404925,  4.455169176325386
 3.154363337133655,  5.475722287423908,  9.994765299032951,  4.133354256631328
10.635519908240623, 14.649621459337807, 44.306651424600808,  3.912261758555589
14.728622842715959,  2.323967684878403, 21.557769180303577,  4.147207605921399
 8.967164921076954, 14.208894088259903, 47.993484301161338,  4.170537719560329
13.806913056134693,  2.472696136934763, 39.182596964145731,  3.869390715510092
12.967809496097400,  5.495516996204693, 19.302876453031139,  4.064800223877870
 1.416702800923918, 13.932245771330738, 49.001149085113617,  3.960619534091877
10.588802876542053, 11.129318912496636, 46.048075781664330,  3.803284412786465
13.174398376585579, 12.858109909065016,  0.877663202969761,  4.016788900718605
 5.776899650591985, 11.312546392301122,  7.211000010851417,  3.861187941329356
10.168352439803988,  6.404164669885734, 71.525343536103776,  3.881856987150299
 8.686836104745272, 11.278836934013079,  1.302597133573847,  3.766632702593428
 5.695902406592007,  6.620648466493685, 57.500160445152872,  4.065485379980482
 9.814428687544979,  2.418102774750636, 71.491374928017805,  4.045247761369079
11.267232760643330, 12.439879242417492, 11.786102924272214,  4.065322955496780
13.106566331687608,  4.606601698432533, 60.951837959497539,  4.163470517469097
 0.087406672763373,  6.627523482333589,  7.655174914125850,  3.873009284886221
 5.214751598345086, 10.854502180483809, 69.822908234044661,  4.074935600240996
14.552887951774180,  7.706922643249119, 36.331106983708864,  3.951684095136281
 0.811376137936994, 10.887032146576484, 42.913804728181589,  3.645389743033451
 4.115830771695991,  9.508930874734208, 79.043334309155284,  3.903775571514533
 5.336414831386522,  1.324505595389930, 85.993940317559520,  4.306454202986290
10.582000284690494, 12.646130587708672, 53.030804264296883,  3.788722135939183
 3.879551969054657,  8.446839887586787, 17.151735877009713,  3.915049345149191
 5.863567696629020,  0.581220649786690,  6.971957459759460,  3.741172511839334
 3.194609403564424,  8.530708568242780, 85.792665268304162,  3.860981189490548
 0.925350867435029, 10.051839411681206, 24.066911413302712,  4.054081367694239
10.468552125600091,  0.167072152112164, 59.570680306580854,  4.100232348456746
12.862837412141589,  2.142702627894339, 25.400089567394890,  3.875449784471346
 8.502299313628683,  8.586262902232210, 24.333636607193643,  3.785504577533592
14.256118159933225,  2.386969178062623, 84.324410569065847,  4.145622676960414
13.525285279025729,  4.468858232590297, 28.485786200231651,  3.813952536721301
11.358578885844677, 10.998358015421532, 59.495467659242493,  4.011891747196096
14.641205196495573,  9.886137927086160, 65.491476161359628,  4.129675355457456
11.939888966710566,  5.820785327371429,  0.465885467699098,  3.765854004258660
 4.080453582534998,  6.848836330339242, 76.024808892096331,  4.104613872466185
 6.545641142726877, 14.084819339401232, 93.313498265735149,  4.068762903179238
 4.846286259096570, 12.490653054286897, 63.009032400514904,  3.700955676217804
 9.594157484587406,  2.094256969314950, 85.986626462699775,  4.305029983545916
 1.829338632517099,  6.394767036808338, 90.368178436561152,  3.974089590852592
 4.627358705733414, 11.033491571446573, 23.808372781441367,  3.571219495037716
 2.968203463854322,  5.126031873231295, 28.374050013888084,  3.901881228848583
 6.361628332502117,  3.315881174181551, 29.800475340031287,  3.831490083480344
 1.293453837513853,  2.246654139097530, 61.985057746720649,  4.027497320366013
13.590751910525984,  8.059098665374263, 26.832615312184526,  3.847301230788641
14.864342121374079,  5.673334420897989, 77.193905875244752,  3.932828296983947
 9.074433146383225, 11.869811487547798, 33.443171068105755,  4.389766699800909
13.522509255089501,  3.197625613981220,  6.325533277241852,  3.984081789130170
 6.128116063053888,  5.998716716114848, 47.743232818596766,  4.342368145249823
10.686732142032490,  4.496254293816674, 52.527060712303047,  3.668118988993775
 8.645168787743634, 10.652411585523005, 49.943300221336798,  3.952182304174625
 3.915844893230784,  7.339337729457448, 24.579173753413524,  4.012509166248229
10.107666747942691,  7.537872315865223, 47.727895080269342,  4.162631511046610
 4.429389481911364,  5.971041249091174,  2.213259838004982,  4.426571653254232
12.591306942482106,  2.550281795929725,  2.352154971609176,  3.887651748945272
10.927991940233410, 11.099411133101349, 20.784005430595080,  4.028121468656757
 8.524522687728581,  9.533263779247033,  4.952284011061506,  4.064797590728512
 4.199508908284716, 12.835554150170594, 73.090674979377624,  3.811930062881661
 5.191638295333026,  9.353108429943907, 60.536980766571141,  4.048037905975661
 2.021155683641461, 14.206115971449297, 83.558682456854413,  4.047067248524681
 0.369390917216133, 13.180886725963274, 71.956087443122996,  4.202328264570568
14.130847971088848, 10.177528204174379, 13.786740641881998,  4.017554435987720
10.014448731194808,  4.197100610872615, 11.979653551385399,  3.847946058200083
14.670757621909720,  7.915916208473288, 87.368583096209548,  3.956641735983548
 7.884079196475365,  1.921021223409381, 42.168007834491640,  4.354240849370423
 5.349059481757856,  1.311182070772948, 61.975630420178376,  4.263287118271370
11.911884301787554,  9.295114071870891,  2.332153551829311,  4.076246732217910
14.576760475947079,  6.255827716013547, 72.061623162635698,  4.208352679586199
10.998363693278547,  8.579404756187643, 65.041180415383394,  3.655298646749447
13.456152361359406,  5.254537317251821, 46.284644317477856,  3.913474575923393
 9.607470228411497,  7.264876772807743, 20.788152327223024,  4.081679913926418
13.104961311310994,  7.621788701176006, 58.153453271724352,  4.035296614294786
 9.284347281762253, 14.273272017748019, 18.727096943971969,  4.206275938134411
 9.463508632907672,  8.156354417026918, 88.288288371823327,  4.407527521743490
14.613167692833276,  3.630656960335320, 10.067599521851589,  3.843932776791887
 2.624714350537026,  1.950976913149967, 11.622446058386966,  3.701373329826227
 4.644536546684693,  3.390219561330039, 43.508678137600228,  3.243711560244763
 0.565350675009683, 11.506242676209631, 86.079313778682362,  3.856038856656499
 7.303494586478604, 13.350655327775243,  4.215144488762354,  3.888289339808919
 0.074203822440535,  5.916641138705080, 64.369859998980814,  4.140977789338995
14.424173578354390,  9.895698793821063,  9.808970978351153,  3.977186812004362
11.255517542048269, 10.584791946004639, 78.811953477364753,  3.944620273827720
 7.508461398993530, 11.072937143551071, 10.851369416716242,  4.135332260491999
 3.449960298848092,  0.980981786353149, 28.735458021889549,  3.877880527043100
 6.810801703360468,  5.354938896354462, 86.294948201215490,  4.257161965832016
 6.991534583371675,  9.322317236425434, 85.082557743797864,  4.009990359438900
14.574223152854067, 10.189161356837518, 33.003108427520360,  3.599365239900925
 4.364255555960040,  4.920167517046280, 51.233015406854122,  3.759191827715320
12.601417563332728,  7.949668680732529, 43.624698936443899,  3.834085275271990
 7.636712341205642, 10.284003828621557, 53.716213544566578,  3.873166344596619
 4.303381159079494,  4.019430899850482, 14.908407320254710,  3.917572303321953
 9.478774859331388, 13.044400837712747, 37.340568852892972,  3.748035195058653
 5.813166633303598,  5.429081868208517, 61.425439529239320,  4.091112947298672
 9.990877360261178,  5.884692365262511, 30.159885421313117,  4.237138520602956
 5.732067347115272, 13.707689482055109, 38.119202268798972,  3.940592861159038
12.791546727742558,  6.156898907538944, 33.128624317423274,  3.939985516807965
 4.974604038675319,  2.963463138603688, 68.588874393155237,  3.873640184014362
14.892886233946442,  1.970796710101986, 58.106816514861649,  4.206541267703773
 1.077242716398862,  0.250295510232768, 87.381333756007194,  4.093532065484426
12.231134965126456,  2.464774744868661, 31.619501887690397,  4.028986867508687
 7.070538902884492,  1.529083652857595, 21.326205031011927,  3.958346238385325
 1.779803197124210,  7.202367178178451, 56.294631725916432,  4.200883134947355
11.364711912469556, 14.913333740348149, 22.354544130685351,  4.230295256178752
 1.559448748784627, 13.966554157726007, 64.073138060652425,  3.709154131984260
10.511906482189346,  9.282966226823401, 75.004642985273478,  4.216077309687812
13.274370746552639,  6.479244824068657, 54.382337039080340,  3.814727910237123
14.506383147703788,  9.382766423083130, 74.592031279106550,  3.804013309785390
 2.337949715230522,  4.187307181335963, 86.958018084034165,  4.187980102070405
14.030226508094568, 10.352994032896243, 39.146215042214585,  3.736921133092539
 8.047407318748842,  9.720873304880996, 57.903441915791674,  3.755028908877083
13.066480105294183,  6.738266128916037, 11.956434726813510,  4.054527371883649
 8.770689282122527, 12.464208297319788, 87.110717527461873,  4.266842848340946
14.112709840493400, 10.154499197420058, 54.152468104613753,  3.548699216504766
 7.042962925549475,  5.124348864468423, 23.159719520132175,  4.080616345389482
 2.081972743187792, 10.467209373614262, 89.710124597279673,  4.234855710744713
11.031442955061195,  5.898034510060677,  8.348874887335562,  4.391968096721563
 1.463707907832418, 10.685545278446034, 61.795183370251486,  4.259687409934006
 4.402509112781074, 12.613902952103642, 34.523503183790204,  4.030602838460866
14.131601506114714,  9.204409730627146, 19.655335930314646,  3.727435638858012
 4.845797056497528,  7.666733959978494, 53.779870662104273,  3.770193219861771
 6.502713425901056,  2.273236179775159,  3.329123903803271,  4.276526905221966
10.046697474191683,  8.984001983450179, 27.674996250456100,  3.595810214037874
11.374675278374630,  1.006451804069489, 50.880125937302047,  4.155697196746869
 9.458701845764731,  1.746019680195039, 15.229375220333342,  4.351717904376221
 5.986698060832421,  8.527666421907895, 21.530388822777663,  3.726283010182503
 4.344611073796059, 13.695302195889735, 10.128681698297555,  4.196912606675277
 7.018395429802505,  9.306819217045875, 30.678757293707598,  4.146672514228321
 2.058556760843838,  3.467999442155550, 46.134515654311542,  4.124366869000960
 1.483453193128695,  2.464154406439854, 90.741450652713652,  3.920614635400420
11.070671740029189, 14.902464588294267, 40.367620926398942,  3.998526415126027
 1.431448540412031,  6.763352801859700, 52.460841815755927,  3.520247950545468
 7.973449723158709,  5.554946401119067,  5.387400056660876,  4.007409803398145
 1.891409539263463,  3.967152158344951, 74.431313465375297,  3.715234931875401
 2.628069741772734, 12.146730325567340, 93.395436191813161,  3.891153989886444
14.858404874887878, 13.765981053782495, 91.012734299641465,  4.099515483249614
11.237902093311343,  4.637542343052245, 64.919192577653234,  3.988141581466900
 8.699053846734490,  4.967456722469914, 68.180558557191844,  3.953729172110373
 7.578222746149971,  9.704989783717632, 18.127132707655761,  4.128642019493896
 3.062469729814319,  0.209141537457961, 52.449935258585803,  3.823295711910074
13.815033191907334,  1.610017851369324, 47.715574334636948,  3.913454230713652
12.961993750532105, 13.331981358216485,  8.111518267568046,  4.194403559926262
 3.288086318595840, 11.408851095109487, 66.323094067556582,  3.930412042413692
