BANDS
8 8
NANOPARTICLES
cell(1), 15.036
cell(2), 15.036
cell(3), 93.973
11.577642226847702,  5.418225286830036, 47.276857193190494,  4.026704584376324
 6.381047080561518,  3.638181915686510, 11.444596136882389,  3.866999957986882
13.042389682112404, 11.803066157305405, 11.290441779846297,  3.867066754084735
 1.676527285929273,  0.050816606531430, 45.346707032259175,  3.940485933984059
 1.618073729651221,  3.062661579057694, 31.430133552619267,  3.784548587208714
13.915021368059831,  4.313253443445983, 57.167160340661617,  3.779296420182823
 4.868878923209937, 10.323484823604337, 36.963008879056765,  3.642678598648099
14.463647499099951,  3.217796781652523, 53.509721133100321,  3.895200060405280
 8.145443144925080,  2.254824412637721, 29.719614638160589,  4.169462538421399
 8.267050213582200,  8.661791764299789, 66.193612721007710,  3.830643297163988
 2.072126336274453,  8.000152648179466,  8.015163949809432,  4.138963884806792
 6.095118039141656,  9.367309285945669,  7.591198475168014,  4.373651561872840
 0.590163579993950, 11.808015855535347,  7.739857647421328,  4.046382728844878
 2.778010818111166, 14.683993231956849, 25.034666253359987,  3.892506554002286
 5.423538365656011, 12.817796977482269, 49.701630106292271,  3.544612249226563
 9.943804049126506,  7.623172834175262, 44.197942614474613,  3.804889427347127
 5.767469056483594,  2.784995169999853, 91.392867968388387,  4.253955469044684
10.668384271115722,  5.264546700490789, 87.147814562808293,  3.696539190755897
11.898306985457422,  2.928296807827502, 44.045524151243022,  4.115678921009184
 3.258184094126846, 13.429234354907017, 15.002521555712422,  4.192313287227106
 8.752409989863141,  1.918404919394043, 76.941017400101344,  4.282711009406186
12.978030455433496,  8.676966173368980,  8.664192267782154,  4.294284519726659
 5.099710000232689,  9.497262462795094, 40.915717026587906,  4.378210447852675
13.324609642056981,  8.771025435386351, 23.223892697324711,  3.972020157936776
10.263557080459252, 11.462199955996965, 73.238857791100983,  3.950519194664791
11.242769657674556,  7.598136152535594, 30.598554432129212,  4.119648404408101
 6.665783855401014,  7.571579479180390, 69.681672332199753,  3.810175348375718
 2.627750552798482,  2.733309576059814, 38.225384210560335,  4.226560378614357
 1.733783691365862, 11.132718592604370, 34.841265249245083,  3.969666832568376
 3.469353400762258, 10.240484423052038, 81.432259896588931,  3.955542445778062
 0.813517353225232, 12.803750207307310, 55.280470609418856,  4.378269423660066
11.866228911063669, 10.313973013901036, 19.719353161044893,  4.206788342497172
 9.814354046422670,  8.962394978880837, 87.164699120320861,  3.892427602691832
 5.386888192857301,  6.557871266134591, 89.991399839442138,  3.744229103701916
 9.029390939918482, 10.985111765054794, 31.620925445553446,  4.186639882868997
 9.907066936651125,  4.353880898478103, 64.083745793464587,  3.708874891042587
13.682326246780653,  4.734456210156898, 64.861550600317173,  3.987221529714347
11.107700916585978,  3.469450030678183, 40.057259764593709,  4.082365903125864
14.566511411399633, 11.191633346505281, 80.665851459156073,  4.274495738728833
 4.350015459295697, 11.301336488393826, 86.463487402549347,  4.398709709301803
 0.496610860453183,  7.880729823162169, 73.509181985243018,  3.982422462556022
 2.899375393832944,  4.007395407009249, 88.306913947553667,  4.048397557152595
 9.827680888593477, 10.513400583036850,  2.599477173460526,  3.809300540006344
 2.983176052172941,  5.459132260871261, 57.660156213195044,  4.168155809968765
 9.619952402166644,  4.648999816193068, 13.489054724771046,  4.004503036403777
 0.760783330538416, 10.059934073735063, 30.761032362697300,  3.998275209223015
13.838387191771636,  4.784267732799763, 75.496004390990691,  4.059450752249519
10.300382543473310,  1.552675482309284, 88.252739735232467,  4.081694094396411
 2.486439000085720,  7.009546246142353, 15.172212070916908,  3.641547861175663
 7.020192506901820, 13.744975863823367, 16.235830686394173,  3.748571176358175
 2.881382642598409,  7.778612779382335, 44.405779410308625,  3.733408361172188
 2.156861108890594, 11.169976409022828, 49.841978132767210,  3.670629667549094
 4.553831986844727,  7.967516581423935, 54.647607768790458,  3.862083656773552
 5.068193862522796,  5.175364789778887,  0.932495725122321,  3.922316811432225
 1.999846811699511, 14.201142437892640, 21.093608118661066,  4.078584550808454
 4.016841420299666,  0.820376884521664, 85.762649536191702,  4.229538963206371
11.553884928113456, 14.126343704361316, 85.429458227699655,  3.730927131181002
 8.303004962555686,  7.615570359959944, 47.875272295817560,  3.939741643447759
10.634385718287106,  2.042271748520759, 53.014287500119117,  4.068715166782698
 4.351924721891844,  5.159902278601829, 41.361634410005671,  4.412606644829904
 5.321233232497002,  5.695205790603660, 23.395445824039939,  3.936150708541724
 2.988803436091759,  2.772627933990908,  9.728560691550328,  3.887560497556546
 5.876820036677093,  2.857409062717761, 56.637893480455759,  3.864460474158366
 8.728758073174504, 11.558450950909808, 48.370493050682470,  3.987959740031556
 9.150488558857505, 10.373896988358748, 41.559325835429412,  3.973379648464499
10.619758082614725,  8.375121761138738, 34.337102285409429,  3.607224781640070
11.509373039977874,  6.509124257651866, 54.368303001178120,  4.078703833448962
14.827271754720316,  0.676174728361565,  8.569846036415218,  4.090356665220122
12.963592421623124,  5.002896766411965, 21.948509856330833,  4.002695242168916
 8.537992456611031,  3.344392758242833,  0.415496014555843,  3.961453346450035
14.177225888368989,  1.041320908555232, 39.383660620603600,  3.856443203956882
 9.379207151321184,  5.942825828196627, 23.783782553896966,  4.194698907645193
 4.796228312277771, 14.596704674487814, 55.336609026452834,  3.511606777629775
 4.875620458998896,  0.060417463060087, 71.882086860499186,  4.198672592454454
13.550448400170540,  1.291610938459723, 20.228434352959706,  4.191481636924682
 5.665623836690017, 11.215822203665567, 56.866589719108205,  4.075972724662089
13.074135877876488, 14.925203625045341, 81.888710230679138,  4.129818298505214
 8.822140148125456,  7.506475824249564,  0.349647470103722,  3.916822046654604
 3.661279732124394, 10.483345324417126, 10.727671304727327,  3.872174200129829
10.614602642855642, 14.053385421333928, 18.186585230797668,  4.229273381256155
14.990542371836591,  5.765062071825454, 25.343904174678478,  4.042469817726571
13.843349231028194, 12.967752924900877, 59.105462734695713,  4.239118565005503
15.016017482499139,  1.400911954776503, 85.253578740313245,  3.903600273680425
 6.718277841654721,  6.124340777617620, 15.794185128789154,  3.938387228372711
 4.702657867560310,  2.259013460758468, 44.316273927755489,  3.819289972226854
 9.479400687136765,  1.873604256217289,  5.644648005062109,  3.882204192095148
 3.114010711480510, 13.107835866934105, 31.704686271848342,  3.925230458848914
13.655796858452200, 14.679200196611284, 52.436911009283158,  3.693282402641673
11.980542195199869,  4.977723203122228, 35.623812065969304,  4.142002166131712
 0.583670573466343, 10.552640880595394, 85.154320219955025,  3.665554545912043
 6.454247059036646,  8.862751408318832, 51.299798386300132,  3.901173600027499
12.321317084424484, 11.212557025590103, 29.345163977800294,  3.823692195409787
 0.532231285532217,  6.891880970493822, 54.730082179634486,  3.985902270909934
11.421969184428004, 14.087678556463043,  4.070312609882471,  3.621874130082235
 4.226711709651865,  8.613572555592578, 77.749939215908284,  4.216082418507517
13.356098824838989,  9.317498904081281, 56.838867332982339,  3.687660541395976
 0.490406844673171,  8.488793170500822, 63.581438440115718,  4.597255125447877
10.291298056072247, 13.102940634568833, 77.873524842489488,  4.217877450995401
12.487605496524488,  2.667262203366364, 78.789556242343124,  4.170981858179983
 9.485942014179995,  0.383842325078154, 49.375045927751060,  4.099152549666796
10.265411996666961, 14.992243058737392, 32.520800114978819,  4.180364245194101
 8.204713186683003,  1.268975412131464, 62.301158531812099,  3.868113768075473
 2.907219237173286, 11.236504214823926, 90.270788643601136,  3.728545785113843
11.432404267371215,  5.280639708477612,  7.033461175501312,  3.848790128960617
10.852814166815406, 12.478301672890636, 89.097006019015012,  4.374336259442000
 5.118086565535872,  9.775620650375068, 15.353268578680968,  3.985154780248777
 1.619172503381869,  3.699527018687085, 50.254873440037890,  3.912419488825027
 8.583607196481086, 11.202650402004007, 93.084823285301511,  3.720249349307891
 8.519689552613158,  9.261595916397376, 54.718871591541991,  4.051598769278455
10.703872448181471,  0.351783673757292, 37.370627455050567,  4.158341671133297
13.190822614907439,  1.885276241854264, 67.871011950281044,  4.184047581941010
11.318527451718129,  5.741614585682242, 81.053893907203488,  3.788330200414951
 4.033678432846570, 13.954051172765578, 37.670701785043526,  3.920765472538415
 6.996833630604115,  4.500120205832861, 26.655496511422921,  3.766045166190011
 6.131565684191159, 13.510733726075388, 75.945519031653930,  4.260701317249437
 3.561681280408363,  4.226740870491366, 53.696949571216976,  4.053022420651591
 3.509158976009878,  0.610123860059332,  1.110859307279169,  3.729125103109190
 9.583625299622561, 10.556331736035952, 10.040975471585263,  3.891518354041584
12.016455092136761,  1.919140715344206,  1.617695261760473,  3.905374721862267
 8.082305465031746,  6.838643228834740, 40.731395857955214,  3.593456852360014
11.190983478952701,  9.204356036382674, 79.139680865632485,  4.128174684699673
11.795735296473104,  4.302131394230339, 18.147097763648013,  3.895387023439272
 1.933940544098165, 11.147160837253018, 60.742839220702365,  3.671329174919622
 6.553397281904225, 14.966049117989668, 79.700132190417861,  3.810634656708848
 6.301861815072677,  8.659509384843336,  3.396915415871074,  4.136389391491559
11.782010630283004, 13.131180646037233,  7.786248827888192,  4.025359859933247
15.030793867084105, 11.619443744848557, 46.594748248748473,  4.159663333701547
 6.924690828514640,  3.864775186145241, 87.454331216699060,  4.172341825250360
14.267185922166739,  7.565107474333148, 33.484406042829249,  3.965860102851966
 1.763823988983346,  1.745553211605596, 56.381966449405901,  4.051109254860764
14.537629762027862,  7.478933763249664, 82.825652857822334,  4.313399601111527
10.962674977098878,  4.629777256562800, 27.558863097668009,  4.371487843066042
11.053075812503485,  8.905801383084764, 91.302957483783914,  3.794971466769017
10.542463390766489,  8.953009698004568, 51.089721543328061,  4.226065803799807
14.126185197201988, 13.491277998174699, 36.534679175048481,  3.773842868973244
 9.594938725272081,  0.993758246771905, 66.010039109091295,  4.059663574206077
 0.846444577727090,  1.126486238049596, 64.616713544467871,  4.388133322098356
13.688780931654785,  6.217773529123461, 50.988707213462916,  3.983447282276042
 2.855847038625055, 11.155267179634814, 74.690963745809711,  4.183900066595323
 6.163527038377418,  2.192326655579364,  7.623601146300816,  3.811745141559338
 8.067730962163994,  3.594238185668961, 42.783030756691616,  4.037985137789168
 9.895132307062765,  3.575284224510885, 56.901435044572167,  4.308200891223158
 0.983420511458403,  7.775025047560452, 41.046265552397735,  3.972540407259009
12.406941429660586, 12.315734780952095, 49.700057887020613,  3.950271621233678
 1.678672078442324,  6.428266355424832, 21.561044986256036,  3.663001993432993
 2.332930584959310,  9.963342848774928,  4.388900213934942,  4.121146233069630
 6.368869269123442,  6.549084808950031, 44.580263096582691,  3.664612823543194
 4.857759454737756,  2.334315553207047, 64.748467644342256,  3.972374550714259
 1.748926511456226,  2.850303848841112, 78.030249586117662,  4.454682482454539
 9.121524494800367,  5.368483364859221, 90.813681324694713,  4.263015691071242
 0.357214519101699,  1.690090899382880, 60.263692248318620,  4.150667795453341
 8.608570182125021,  8.571612231692676, 61.365649431114456,  4.097834653185860
10.333958116039701,  3.951116260868588, 73.674683565031799,  4.002869589952796
 3.710480672907670,  7.841591730134511, 18.635278367503865,  3.880726477076526
11.592516903588066, 12.049673327062987, 54.642447373614701,  4.150034168293280
 4.324174246776618,  0.782842770548958, 18.246293852125728,  3.907813445167248
 5.680399822205128, 13.121462853413902, 82.965054842482672,  3.885456847387579
 7.702365382791818,  5.409158333665381,  5.765623099712792,  4.014232610166741
 9.307434946153993,  6.886192471209132, 84.036320063735630,  3.668113155231902
 3.943595004252970, 12.306354595574607, 46.522872718610508,  3.515727591859296
 5.091653667898123,  1.365264365386647, 32.126811877574745,  3.789846347094912
14.886340155168863,  7.135439292456372, 59.591134011163781,  3.904933644625317
13.900184680220780, 12.101504419779074, 74.755444911742870,  4.017876264330570
 0.824759862022870, 14.623379639810826, 49.175243849458660,  3.844197667476747
 3.629811441020345,  5.669510851768194,  4.821966907683998,  4.359125148391498
13.542307563644478, 10.374708607185674, 42.969044233076296,  3.964609444030873
 1.206601790127415, 11.472555565762738, 39.271404834043537,  4.234103775970633
 7.227916947896471,  5.693405100631376, 76.037833469263333,  4.006379026072220
 5.668756829155391,  5.066802380791570, 50.308125218337274,  4.064700416216174
 0.044412158976409,  3.454722435432664, 81.865470535407383,  4.018564816828873
 1.542202904960233,  0.253752789114343, 74.525663752331596,  4.265895576048804
 3.033734631730804,  6.812574584976842, 32.016230905551929,  4.304980758985481
13.232485089353180,  1.444366893474688, 34.558466990542932,  3.597604980105969
12.537013942735651,  3.692363854178315, 31.454649087065732,  4.180517356568162
 0.280147687851922, 14.028177402140285,  4.054496349607800,  4.118717953750323
 6.364948035480573, 10.685872099110762, 72.417205698953438,  4.133639298467850
13.447209618912943, 12.331740573386968, 63.733136917478291,  3.788830715726505
12.244724610604150,  7.901433493955230, 12.662001474186273,  3.936854603774118
 8.482227875382684,  8.792015271275854, 13.377861529496590,  3.915666313444500
 8.963085691112063,  9.092959511212831, 37.734672129452150,  4.083364729406818
 2.884835852386596, 11.709410564163706, 70.671955735228352,  3.916561862249729
11.905082011103838,  7.532559757436810, 40.534863290735863,  4.150457701201410
 3.890255412801248,  3.134652860702426, 14.721210088839751,  4.393251590709174
 4.721328140326179,  0.356619772605046, 11.989578812329119,  3.566651926412935
 7.466593311684703,  5.351985351888157, 53.990892717672757,  4.060347042609363
 7.911413504789469, 14.033432922436143,  1.886401701734035,  4.315187473907891
14.400244060163537,  6.819327870768841,  4.746490791091731,  4.183976915784295
 5.700398304541203,  3.630070582903455, 78.983340608639026,  3.798898524365186
12.609147460569080,  4.395027099666475, 10.869346686359197,  3.916302312213014
 6.110790365712249,  8.993100523464648, 21.450530443035362,  3.860167027455430
 8.343699273206207,  4.100439412734197, 37.195634005081281,  3.965400134223300
 0.696303901798955,  9.643008020224229, 13.104375037022788,  3.905704534845686
11.729109901079141, 13.171876847641709,  0.293262963330941,  4.053773486787200
13.065838081211563, 10.707560454812214,  4.818582629839294,  4.018536564366860
 9.423246611438470, 13.301677127960939, 81.826527911769602,  3.854372690722380
12.401287182505660,  9.722845888391708, 61.037321884417601,  3.820837068291207
13.691049929257547,  6.571128346228987, 44.091676991757780,  3.952468665680633
11.767548344210534,  9.368270982476178, 47.200046756678859,  3.857434642689283
 0.269275558673524,  9.315102363342806, 77.144646058745479,  3.834649434908992
 9.749722807523085, 12.524690309933648, 62.208274148810190,  4.211678941734611
 8.094222226404177,  0.970098580866076, 84.595212085783118,  4.224406772639218
 6.605868559050212, 15.010902390818501, 59.045275528881334,  3.682573464978387
 6.252392367180726,  7.683161163625833, 86.522786197374231,  3.741872961146711
 9.428691318978030,  3.009262270779739,  9.284412787023298,  3.693070903527177
 9.562895230797695, 11.314772629943624, 58.194199342094542,  4.098637449929052
 3.730846889378696, 14.829560978393008, 62.066969799591405,  3.751342249962657
 4.466486292965312, 13.510252687201122,  4.278465302766814,  4.136152235371361
12.095596051069487,  0.840324705823382, 62.806731505455822,  3.988124920312913
15.003420088132760,  0.539294313710027, 93.015471669751818,  4.440277131016146
 4.684581302680038,  4.109854685967995, 29.561077164577714,  3.689256108070443
 8.539464111096333, 13.283132288703969, 69.765146267255645,  3.890608007391346
 6.376233258569031,  4.496791498848361, 83.306300397353311,  4.024669657016717
 7.688389064596760, 13.529826302627313, 20.679262192973312,  3.490752278784611
 6.877932625872817, 11.181921920114021, 79.897982870340769,  3.737191903316033
 7.848433839333675,  3.512631577676244, 47.017964396285450,  4.356273530142262
 1.103086469908473, 10.190229377875854, 20.632529440437377,  4.165792781745530
 1.433411659912262, 13.522559965665460, 11.415820323152138,  3.787917641435825
 5.039522206835778,  7.197858675730414, 12.325212869655536,  3.935967522996347
 6.664694202326485, 12.208452131342751, 12.577170479371116,  3.974968059139107
14.404124380867669, 14.765744049085825, 31.258195505092946,  4.194651905057921
 1.851970916287791,  4.394552315143356, 18.345619153781069,  3.896922791751467
 3.174349345223726,  6.143634123319226, 66.208640542335175,  4.244915698104981
 7.544678585704696,  7.139787404433732, 80.148902898965318,  4.453456124509232
 8.258328987197423,  0.712166385486961, 13.134011553469465,  3.859391121717557
 3.125146202180936,  7.946172111044680, 84.492184285392099,  3.715420290244546
14.792116767258490, 13.311679396280562, 87.756408270518818,  4.095395052831814
11.825705705418869,  2.765207986515017, 91.946961550829229,  3.572158672601366
 3.366635851542248,  3.405246623190806, 69.555754642513875,  4.406665833947674
 3.273691435543891,  3.525157739623932, 26.023978920421939,  4.015463468171088
10.441176869836365, 12.011743990743069, 66.314237385805285,  4.156973747213386
 6.905162787933361,  4.586366365164627, 67.252334443637324,  3.901364099588503
14.714517547559275,  2.381526444717328, 27.890254341866605,  4.399166770840835
 6.998145101106629,  0.639822949147780, 35.541979301982344,  4.119078824242602
 1.828457121935941, 11.852180920540787,  0.586961580531092,  4.425022058606718
 1.928866947982594,  0.518470229729475, 34.653205221400256,  4.080739811072813
 8.355689636080010, 12.405757624219053,  5.720709836544727,  4.059904507588396
11.990295118150797,  8.491234371468824, 75.189771810001560,  3.891006360086913
 9.390127121503452,  2.213734833969374, 20.829032770966663,  4.412836803653648
 1.732207724363505,  7.213011440868401,  1.459915451361589,  3.951125072480901
 6.584279962372396,  4.357640994801707, 72.201954505943931,  4.088902858651795
 9.024575557208491,  2.633791060966056, 80.966519942627031,  3.906209724835493
14.568501711143581,  6.146489594587927, 79.049410050116464,  3.689226695328236
11.620650782488836,  3.117780410709382, 84.014820748586445,  4.096608765916343
10.515295760897514, 12.332092181013616, 44.820720291079219,  4.100987435964635
11.676150951886711,  0.475101031086781, 11.140791379345547,  4.029431034526806
 5.993696954398159,  2.338480348720337,  3.644460358385238,  4.138089167422146
12.871782368947999,  0.671529842274162, 56.130264186387095,  4.064359393127058
13.386996230258481,  2.405100353262755,  5.254484185625660,  3.920733394688011
 9.218750442589490,  7.039503322262773, 19.732428897529999,  4.202731678705353
 9.611701052643893,  5.057375262424801, 50.663368556385670,  3.827818193665035
 5.017164417133528,  3.245544422545001, 60.577548163237296,  4.187437691162311
 0.496719407204434,  7.589838873647285, 47.589804719267171,  4.201621280264384
 2.948988365939294, 13.353997643561051, 78.781226408558723,  4.259224448103687
 1.910590413385880,  4.408152124364197, 92.351483088881650,  4.316802995554627
 3.658803298868260, 11.613240165942800, 27.327178975897041,  3.959511026878588
10.097250214598670,  9.582049909294531, 69.662642024835392,  4.133938250103652
 8.238763697561794, 12.526327499957981, 52.273792049081699,  4.102213663212422
10.417870585055404,  0.235278718393213, 59.256772563227052,  3.925631305712474
 1.005280719975629,  3.352232808559922,  2.390429295209246,  4.105967025277559
 1.255982846803182,  5.939975934647186, 11.535146314463312,  4.178802836192253
 6.792206296026227, 14.208629740517015, 88.487752778667257,  4.167093861724957
12.979265439336713,  2.516959057894020, 49.867553841018477,  3.795617938241807
14.147323039668240, 14.188621867994749, 78.029713326169215,  3.734829416975679
 2.473890966112343, 14.941129159943523, 41.352224989973926,  4.206147741605111
 2.824866342895174,  7.754594626905620, 70.291248345347768,  3.959697718501551
 0.541843338548318,  3.478950551078713, 42.287054231244532,  4.106739744174758
 4.454403398510181,  8.775095017240210, 47.838273697468694,  4.075956500563608
12.028440052602846,  1.565630487170916, 15.115501488026114,  4.227267002366635
14.209672239537918, 12.977448686407911, 67.512978352454965,  3.983292861703660
12.155423319848802, 14.409356403938782, 71.136252147096883,  4.159075079618505
 6.522330864549904,  1.407614979663558, 52.275203816110299,  4.380455924559541
 8.875143994994051,  7.570032384147927, 72.937482252120290,  3.932116212280619
12.253996171776279, 12.289898833072295, 25.659754893497929,  3.793119619129195
 6.270482411848510,  0.883887403354804, 68.108061157921739,  3.800391868477795
 5.218828018359782,  9.984458290819946, 30.557194125653687,  3.911058974412907
 8.613266932318899, 12.163138867869982, 26.989645456029901,  3.952617401264446
 4.205852140747592, 11.615270555478947, 53.086543482582094,  4.034387304058511
 5.841342950282085,  4.421082191485918, 19.483921964536378,  4.354760279838546
13.182254021628550,  5.840042482144170, 90.205169665829203,  3.986002063079364
 0.745947364608744,  1.110242403310437, 16.588065663373943,  3.831806489170109
14.844228110236212,  5.609837090191667, 68.672067805125096,  4.096814379424945
 0.086409527786544,  4.560641138579465,  7.951812713426754,  3.787649826329335
 4.977803877200976,  2.375020311329867, 75.343535621565564,  3.960467931909075
12.374775341089046,  0.758876459245017, 74.990377894357920,  3.945867300568783
13.223351602636299,  9.131014945438546, 67.131892890663906,  3.960607398470448
 3.356731171140875,  0.644788457184661, 28.766110747143109,  3.898146323195583
 1.771888209727750, 13.598326099201982, 83.165372033409227,  3.986749169833997
12.171626734175330, 12.340259811076674, 39.731430131004188,  4.038093826892087
 6.533957627255482, 13.627636429287422, 29.945027084747313,  3.807584994197748
 3.145000039175102, 13.816556508162224, 58.494398323469454,  3.704139098732925
 6.051055862439927, 12.197592428550223, 34.000232988145655,  3.718760463016573
10.760735579919569,  5.875645326749754, 67.739475661014779,  4.259595571008630
10.999762290021961,  8.715552917879389, 26.670299977318994,  3.950266282955591
10.374431102755219, 12.514626340881067, 14.259628518026876,  4.189390846553480
14.323872084361037,  7.343191249268270, 18.385168646557570,  3.915715762481633
 4.056668801453851,  7.911606781017379, 60.771162366453787,  4.037771860789281
13.595434118506443, 14.397886609834352, 42.932971441764444,  4.036866334279631
 4.400893124224845,  1.337303410658676, 48.418529971867379,  4.256942351245309
 5.332936290246082, 13.296129030836479, 92.550265436959506,  4.078607676971684
 7.367001593103129,  6.795440785349967, 29.846538738610501,  3.896565961778362
14.425288955717836, 10.011391093296060, 52.365898073737903,  4.167423036690361
 6.023499533270845, 13.273305558643164, 42.311652097732214,  3.858804199293797
 2.313555439963623, 11.395597892968485, 43.307885057947246,  3.886951024572249
 4.882149037404276,  4.256945639880358, 34.950069635483565,  4.281768707281230
10.781172626562510,  5.395526917634891,  3.131312544554765,  4.065064539997170
 9.514885309822018, 10.213855118520096, 23.194836134141852,  4.169013473545931
 2.107848186867582,  9.432561470512930, 57.345403424497512,  3.933383731317849
 6.346250665089840,  5.872489854868698, 63.501229258182136,  4.095281957695100
13.970337635508594, 10.629073782834331, 70.881711920915208,  4.237132921910631
 2.726375095226008,  4.298613901289343, 84.475980836645959,  3.621936089793453
11.058397397446818,  7.020006463833035, 58.692467231012735,  3.784501480917069
 2.654123334830460,  1.729373042237394,  5.894481119922688,  3.966107059266693
 7.703080526748758, 12.833260172087803, 38.732431755015760,  4.033948597969067
 6.405848240839602, 13.537995750543764, 64.809333976893029,  4.282777961248451
 3.368801048948400,  7.673132904383615, 28.017369751291973,  3.882524144659310
11.581874067248794, 10.449688942751498, 83.771273578745323,  4.271034883254761
14.954715079462126,  9.556482908875244, 26.833285394508653,  4.097345223575524
10.733017307018377,  5.811860988134788, 77.423011204470569,  3.521599059011136
 8.612350873956553, 14.734376270555115, 55.713131503387572,  4.095350359480416
 0.240714084735623, 13.373294156725560, 27.610713843544715,  3.712978697622866
 2.515962560882047,  7.516840461860472, 51.235275295378472,  4.133290770732087
11.316928727137235, 14.935347236943880, 28.461430681492455,  4.082855559445972
 5.122978812712706,  5.621036735368210,  8.549572562034500,  3.588004466845251
13.797197404431058,  3.138015759716337, 71.758044609126273,  4.062482033982858
 6.631694417083748,  8.149483943197211, 34.072565647000260,  4.394510079143603
 5.842714785214228, 11.672481214547881, 60.961450130607233,  4.143703174077151
 7.208855776648343, 14.479216078544667, 45.947503433685362,  4.082027214566270
 2.174926634490101,  4.314409933079159, 73.418940190636135,  3.866137063822624
 5.744198054969526,  6.859354801208691, 37.899475903646717,  3.738140341433736
 1.584950498492917, 10.319333701571340, 16.739200832974717,  3.666265704314622
 9.545115642775857,  2.426623703132063, 69.912297236339441,  4.236899428384859
 3.095984616111871,  9.031960882708855, 24.174659925245596,  4.216508250676664
 6.879825919571142, 10.392561219047117, 44.940586592796507,  4.120992876286150
 4.658776981602973, 11.821192442326712, 18.917317816162360,  4.199451363967254
14.107274450644482,  5.179458108528572, 14.991207736884983,  4.112269685268001
 0.446447108009111, 12.011208326497508, 23.954080050990939,  3.520327061897010
 6.805583811465080,  9.535054224739890, 83.323632739763610,  3.618559421501563
 1.824603117532875,  4.623539625158585, 62.585303953475197,  3.816704477319489
13.059354033729722, 10.093925420073818, 15.841658360634144,  3.687921823504722
 9.692929841844510, 14.979285806407796, 41.732013361940403,  4.197646188671062
12.379911115923278,  6.833749547875398, 71.508752542545210,  3.755012605788370
 8.741143045913367,  0.125085717237216, 73.217491009060552,  3.972704549809767
 8.530683063792388, 10.370329190669068, 17.353202964508771,  3.963108861942313
11.143888716856107, 13.745620073089011, 22.196761618380989,  3.861017644249393
14.310156542058211,  2.123350340092512, 89.121729647788925,  4.056077442799554
 8.699244167166626,  4.709517891465013, 60.579798494765456,  3.733901478860879
 8.303926798797308,  2.465532156294532, 16.684160292829400,  4.050139249955968
 6.891476404713826,  8.503624524575653, 26.125738429004635,  4.275924260461471
 6.913553107742827,  7.008699749538168, 57.832174392504690,  4.271404127643440
 4.132924313787780, 13.819584518310965,  8.443326967207167,  4.216582919299947
14.908218130845203,  6.346490914802600, 29.340553573350874,  4.024627083490221
13.398743068039900,  5.322175138314922,  0.170208277105811,  3.836822563481812
13.182978546307092,  9.443999593527844, 37.026101133472260,  4.123215216509088
 3.693410146608924,  1.760738682396410, 81.758517983270806,  3.985023813853946
14.155952822865494, 11.835481512842300, 91.440627856281779,  3.799198268207514
14.518388404874724,  5.228424555468007, 86.407555694987451,  4.137569334404467
 4.840260359796703,  9.605622074465428, 64.405484974764960,  4.126216570656860
 1.022361568093169,  0.099325097388935, 70.469768433595561,  3.885178052654841
 5.064450140129418,  9.069002691177584, 93.245384849782468,  4.501373753536098
 8.685043013463766,  4.517542207646929, 33.152769723470648,  4.120773200975758
 2.875006590353078,  0.143674072825097, 89.781236807392915,  4.210660397268938
 3.140794625772692,  6.058834449154090, 80.959795815701838,  4.265507062252609
 8.099209532789379,  9.740023946213952, 76.340573698480142,  4.279378043838343
 8.513082134423730,  6.727182172861150,  9.964347874372510,  4.054404679788530
14.337265151927037, 13.309982438626603, 14.527072391395263,  3.715719235980107
13.288330937995909,  9.335816905404229,  0.864487081541293,  4.280740493811041
 4.423871820827686,  7.468628162034265, 73.859392109139222,  3.874023847369736
11.335615508579860,  7.789439989757199, 64.080854519670297,  3.682209672418232
10.180071201965955,  1.462709384381597, 24.906000122052856,  4.010345996540775
 6.993696439231120, 10.226266225675628, 89.631654848299036,  3.990912108092781
 1.608719628119950,  2.828147790701973, 22.539384481260491,  3.799285472858276
 1.930068899491224,  7.641500766406406, 36.997675793521715,  4.245881274588291
 0.285026934389207,  2.030092903735879, 12.646160935366357,  4.055178000186115
14.022263200383007,  0.459596070957997, 24.217897215331934,  3.990465511060493
14.485855955129063, 12.974859129541585, 18.266086525809101,  3.796740807917597
 2.067150838780989, 12.219004146990706, 64.154483138113122,  3.482225151780928
 8.997829483915197,  0.114411902893886, 91.903572645899715,  4.179954170499575
 2.384932231305001,  8.036578231379098, 88.190955047959008,  3.830710301143879
12.535379990172267,  4.401431065663463, 61.090281056800137,  3.881430237644347
12.733247063548628,  0.063787750442443, 46.822153480840633,  4.034560214303525
 9.863177961823151,  8.714748146722416,  6.006782675248144,  3.880492144703628
 8.341913885456739, 12.079533351249669, 85.499256469249929,  3.735179042724255
 5.861918233301365, 12.247933577304897, 23.881872326965816,  4.266172514569320
 9.544222478745695, 12.166723332915055, 35.376496835880168,  3.727917586136829
 3.790425623533968,  5.007504562547890, 46.824325201559184,  3.831667644034201
 5.438543996789887,  1.196955971693756, 22.338007961400770,  4.270926167806769
 0.819218025546915,  4.306844632983330, 34.971076674876187,  3.829049501736455
 8.189689287316741, 14.266682971477945,  9.377637832531274,  4.135220733458127
 0.815130729380786,  8.358078761503842, 91.750536552703295,  3.958495418471828
 3.049520177591304, 13.876925174428225, 67.335587402052397,  3.953433705384412
 0.090203560240605,  3.556756954633905, 46.543721325197950,  4.107612384245188
13.671036396362100,  9.399219644832217, 88.319778321634459,  4.113160399030416
12.880438970091058, 11.423596310414785, 33.333260800849736,  4.230184730942480
 2.409914830839426,  0.554303155432624, 52.602019927375842,  3.949563113273295
 2.004170969024467, 10.085144652418192, 67.218418767754656,  3.900011636984499
 6.371262753974778,  1.546114533059126, 39.673414693557874,  4.135960563698582
10.681345014229574,  7.280337145145354, 16.079268134053518,  3.677785149114610
 5.771728730407842, 11.071403133451724, 68.070417312058538,  3.946205727367109
 6.506757395564340,  0.526636414029094, 26.328880669651113,  4.064138069668900
14.448802643662235,  5.063010337237110, 38.751660445904420,  3.760099433877822
