BANDS
8 8
NANOPARTICLES
cell(1), 15.038
cell(2), 15.038
cell(3), 93.986
11.256908712337149, 12.057914392914936, 48.220668544052458,  4.124235787108977
 1.793339132137630, 13.642322390185742, 37.051792676325327,  3.923011626959346
10.575508658293677,  7.698158494833001, 61.828110798324715,  3.945868632594479
 6.565646007127776,  4.203035364592300,  1.435359981566006,  4.026599073112147
 5.729755634863579,  3.659059382571452, 38.010607054736965,  4.196372467184792
 1.685415425073849,  9.216507305141912, 14.637062256908761,  3.748442367398444
 0.011586176812552,  6.580461731460991, 53.116763717064138,  4.038106749226370
 0.202425631619754,  0.209027733418849, 90.861081037147017,  3.950549956440516
 7.694082971207271,  0.918826072291855, 43.356525111583032,  3.809613753920615
 4.594731373051727, 12.833472988709605, 24.826199627354445,  4.261541591958506
 9.574197843945161,  0.721019375820820, 87.891695108239176,  4.002741325636937
 8.541988076286147,  6.246172102990713, 73.622550155025564,  4.301612570297979
 8.356798070818447,  3.041003598891679, 56.376064328672477,  3.987268268244338
10.456673890567521,  9.945411364763753, 19.862208213174380,  4.214817030125999
 2.676183102173098,  8.005839917075683, 50.206750601209897,  4.228862495415276
10.747331901738658,  9.042089893401034,  8.525767718479571,  3.936136344448645
12.914154210318864,  0.048124738463750, 58.477268960072038,  3.936306877288872
 8.451450071042341,  5.501259897251092, 14.326719161568155,  4.019752407352306
 1.211885590837262,  9.478972655861785, 85.755539112159866,  4.279418389610942
 4.685952788481813, 13.901562360709683, 19.387359893669522,  3.662364870754120
10.662594101138758,  1.992788027616041, 76.415005435060138,  4.062324679446293
 5.739987471301847, 13.874479726059043, 45.982250815638082,  3.909842635135676
 6.018892395597302, 12.750454894965353, 58.547753222395045,  3.715302766606155
 7.804257342602868, 10.359690625129650, 82.837658232107259,  3.895089867967648
 4.758277101696373, 13.692183413693973, 65.490459133320499,  3.661060688208128
13.077763724220473,  7.869420915332437,  5.417867935653976,  4.163548808962741
 7.417105882718053,  4.530780600350242, 41.724132915881789,  4.122804475289430
 0.477563227380246, 12.056773164473226, 64.229812380945845,  4.255801590261822
 5.234119925753318, 12.919765545924195, 70.304628317753185,  3.752885238422853
 0.242631066724695,  3.750048682903258, 85.713291992916339,  4.194780331030822
 8.402586583758973,  8.033956461939670, 69.295646534971908,  4.112417812900860
 6.639715222234845,  7.972616568704769, 87.296327737361509,  3.770203354078089
 5.936776427602597,  0.117655774224506, 15.892282374139084,  3.996300052555995
 9.878215193225941,  3.236475220171016, 31.001857108518568,  4.219694336389107
 8.855536900989312,  1.301596214679079, 39.522252912092632,  4.190533005000488
 0.217471717503214,  0.681005278475406, 19.949444110330781,  3.927796878427904
 2.842615033162688, 10.334924728053752, 18.363691847412671,  4.230651418436029
14.602918166234351,  4.805289690236142, 59.714412397575650,  4.033612105712196
 0.881980843367747,  9.547058844508809,  9.706695229136784,  4.236511634986459
 2.029515201090988,  8.398960371597004, 41.753670912062482,  3.951061093143593
 9.648505839803679, 12.881588915787157, 44.108672065826973,  3.601850074444275
 7.605278602744779,  7.134011082588277, 21.235344961899777,  4.228948761287392
 6.240864652171999,  3.669303748738711, 67.022023858720502,  4.117764080317784
 0.279048748303079,  5.515259679043691, 28.537514788152802,  4.159421328088511
 8.622399792021181,  6.964833611311112, 57.556685744805151,  4.203963767781283
 1.900439647622431,  5.947942479808439, 56.620390964618132,  4.016102541035191
10.539172286459246, 12.317162839391223, 53.240430818019227,  3.953994693065081
 3.550861827476734,  1.285904984884731, 11.518981933903071,  4.361580275811091
 5.373905233265065,  5.608912766363562, 70.844054567139935,  4.210114085370145
 1.022184198296424, 10.516264001120570, 53.121218691099948,  4.076923434848686
 0.526435890489927,  2.157857904870147, 56.337170243509298,  4.061400922005828
 3.422694978542724, 13.178530249540616, 31.062257826534299,  3.863525698028046
 4.379797286020725, 10.523601780707672, 28.228488486577813,  3.963694539350405
14.815578797476741,  5.695286162044547, 39.754650052760518,  4.107041689836153
 2.937025289509081,  1.721905572137902, 64.539750610132174,  3.715699698009857
 2.668642907675885,  2.871895138421981, 61.020726157853197,  3.669391269674427
 1.546543732804632, 13.721135608369169, 27.688017163571683,  3.924812973616726
 5.202967946786711,  3.788870105396007, 21.556398197619071,  4.016955352697567
10.457000714131118,  9.919046219775780, 15.740505378631765,  3.968550066827381
 2.159143001744207, 13.015076806713505, 87.999780971753708,  4.292419333731947
13.900605371557701, 13.779977576687623, 10.052055029830971,  3.882998885256183
 1.529921703864930,  7.720780319179533, 70.018868624420435,  4.614860566258252
10.237327275973099,  6.034520383135439, 34.137674238907827,  4.201949064126853
 0.018268438441927,  0.247887894957689, 61.779821811450319,  3.899259962816654
 2.767038603913829, 11.484061220863159, 92.222557394170622,  4.340935894369329
 1.016400443214835,  8.183857677326388, 65.713809950774561,  4.085442292342094
 5.129525709032725, 14.743567937401993, 38.879198834781263,  3.980797099141328
12.054109906566962,  5.488103005704301, 83.830242940304245,  4.002142255424394
11.060469020772135,  8.505884932598384, 54.862805613844664,  3.677657707849697
 2.322700276931248,  6.219514042658562, 46.454635435876767,  3.934083906004140
 5.701223043382423, 12.669244122254190, 11.193769789053611,  4.135987978377159
13.975540076786425, 11.799480027872800, 15.565619795463041,  3.993648144310595
 5.326870052706022,  7.365896911143274, 76.198841305111785,  4.223697948546066
10.853284738830149,  1.413142575019113,  9.624223714709901,  4.108729209550784
 3.443483518084208,  2.395339387109052, 18.136537096352495,  4.111759441403410
 2.045292047265042,  9.937357623522221, 76.045957705494359,  4.109348208361700
 6.699305698045162,  9.324837500057061, 25.144703356035020,  3.944745375703869
13.686551425660634,  0.840141297383268,  6.548800211605460,  4.291505370029321
 9.842856311705836,  7.308791037852178, 80.882466950685313,  4.198981140440583
 4.238365792888884,  4.370502045987721, 82.716836249812033,  3.976500848376740
 0.222354286270427, 14.621160336502516, 71.381956053793488,  3.783741649021787
14.278070102894176,  0.293637962192109, 78.543267435325134,  4.216231777352641
13.041341655786656,  5.396542916340425, 67.123043734328121,  4.481375746047368
 6.193890755387989,  6.280753740624690, 51.298604327666133,  3.882377467359829
 2.398482395036583,  2.504405348546930, 30.205557335248564,  3.912647008441337
10.128190149582888,  0.854828507779088, 51.077133720623422,  4.355308386832938
13.287685481743424,  6.990969675371859, 87.575600937865687,  4.252515610937565
 9.592193050986960, 12.832050955193564, 10.520636140431423,  3.750931113214791
 4.294243327219887,  6.885902118102859, 93.509378720261466,  3.953230566705305
 7.494604042156327, 10.794609073664752,  8.450714340674224,  3.413529935513990
 7.058356046324882, 11.104560193432905, 36.772208338647260,  4.005571696982160
 5.058859104370334,  8.636275517420097,  3.086573842594230,  4.071441190733348
 7.917372248229792, 10.586005200515896, 55.696884209465914,  4.020794579231942
 8.714963443116988,  7.609088219995426,  1.674149829882966,  4.032176340092274
 8.434691100242492,  9.631614010572678,  5.088150672183982,  3.922001256554530
13.931424306161967,  1.334127465008573, 82.588354640883551,  4.152136327462336
 5.029413521551822, 11.683914045166897,  5.777344886187008,  4.050214961349203
11.814138430462176,  0.869692151194765, 92.982958371325680,  4.209855081707096
13.437429760136164,  0.676097375219807, 47.132823319361584,  4.155671179952535
 8.082520811308834, 13.502081067271382, 72.867240021818347,  3.817214347268083
 5.454385108538388,  5.707414021008056, 55.013969742583257,  3.738464494980836
 4.299455236343348, 14.357984982398570, 74.094831452959170,  4.178707942664242
 7.382064336407386, 12.202414698047656, 79.554269503746198,  3.656788524873667
 2.450425599405744,  2.371085415841348, 72.453307327931981,  3.661620571805690
11.290984381667467,  2.064596761299078, 43.988980175046891,  3.734699354311721
 4.237796952450184, 10.108873444226026, 64.140410672779453,  4.035176637826456
 4.851612199359321,  0.993580364385670, 56.699254974078968,  4.101943133182486
 9.631145448688008,  5.099559531432500, 10.581529372155343,  3.862779456004325
10.736607367098385, 13.455120588323963, 65.666299849405661,  4.126553847021944
11.840807343069883, 14.225492900626149, 13.320270067565152,  3.874941875926828
 6.501528740403823,  5.701179779372967, 31.999852246432102,  4.187382078354261
 3.806207267327215,  7.347140708098391, 22.545487719795858,  3.793940386114563
 7.124651578648986, 12.273312381708172, 30.345406159372860,  3.798750611519302
 1.264231853824031,  3.376159238493734, 80.120677613828292,  3.799924834481302
11.375342981796800, 13.169610112542459, 83.590578258355308,  4.278336919686839
11.843212482290639,  8.938231915683810, 45.787584643019294,  3.848874383186518
 8.540275071111417,  8.994966022195213, 52.309709431183606,  3.559330726042725
10.496803832619706,  9.577944657865054, 89.400501053960014,  4.168384159699645
 2.752475278537037,  0.887511452018354, 84.304484640876055,  3.820048351287011
12.308517487626869,  3.347244357020791,  3.543737468874517,  3.994756222355831
 6.038671326533134,  0.970886327702360,  4.459123638893022,  4.121745839348447
12.627820153047853,  7.422513231662971,  1.460614826950730,  3.812105040689081
 9.574176014721049,  5.372221291417732, 38.247263602829157,  4.226703656165687
 5.245211992097580,  5.106440364700372, 89.413297437639415,  3.874392819109695
14.172832928481780, 11.057560762133377, 38.421834453906378,  3.980590987026661
 8.911238635419895,  5.782969126623594, 53.803865680088457,  3.548976254727869
 6.590572884058089,  2.773176852707940, 52.881939009333074,  3.851096986440627
 1.851502790765360, 14.177392223411321, 58.525392949627204,  3.839944694265615
11.719510204764447,  4.074057483252459, 63.135072808452904,  3.794178419768627
 0.390028996919753,  8.939980140414642, 21.468657339903672,  4.034250827438407
14.571122830285127,  8.554392055884364, 61.840961979262509,  4.207242684004833
 8.338327052723619,  4.964991937364363, 77.442305526538647,  3.755623377391471
11.701425571647858,  4.981138024153451, 51.024727568071064,  4.475724657207188
 8.162026854712222,  2.743642821042211, 27.282178196186560,  4.027860808132129
 5.043834412505224, 13.925477012809104, 34.760821639722884,  4.006097700929947
 8.031892983584813,  7.011044539904215, 91.639399897844399,  4.207430836629424
 6.820640541514311,  8.744651082861429, 17.375105958129982,  4.246811492305148
11.559691291528496,  2.855292157659757, 19.420357119496877,  3.804753240232620
 4.166795550232777, 12.320508132379581,  1.983632656165367,  3.821892368484654
12.987356707609090, 10.723101584154506, 76.429548785403313,  3.799511325272566
 3.330014302129779,  6.975808983275146, 38.280390974158550,  3.992497651267410
12.294542540486590,  4.702338497314444, 46.763833697479697,  4.139472494485812
 7.956838234768026, 12.797443141578213, 61.980811159407523,  4.039959116824931
 0.723008181801134,  5.410751093191212, 76.958723559207868,  3.763351104808213
 2.821962404879223,  0.319506912866554, 53.202796470291212,  4.091334843062537
 0.599377339426213,  9.428706037947682, 45.211021918465050,  3.763463645218184
 4.235670408060222,  3.858543144384546, 48.814849247351027,  3.684702628923575
 1.357948082677384,  5.474876882299612, 13.056175279783266,  4.397823229015891
10.625708080427877,  6.340204231050041, 17.707235534412529,  4.179918864299519
11.697349024791249, 11.378297188522602, 62.413953144640715,  3.826766377003082
 1.731447655661945,  3.152736483068623, 36.819119336161613,  4.195418121527609
 0.757966657389176,  6.412060762410328, 82.582840083243681,  4.068084908817222
 9.532956834022054,  7.901033762890977, 48.810701792809795,  4.034780456865517
 8.112677370174771, 12.567409368683487, 17.880687717039429,  3.843720517547343
 1.739291950128542, 12.630954641949391, 12.619385935490124,  4.119674816157567
 3.845602702493670, 12.260865941764399, 81.912389095217009,  4.145460445107337
 2.856449821012117,  0.588585933154610, 68.442360735555795,  4.352812653657113
14.832536120473137,  8.320057477005310, 32.818077661681599,  4.060069159404647
11.370712348405410,  5.754650036027845, 42.017793419829211,  4.131565247515720
13.356021537049555, 14.485512234097216,  2.595475929705153,  4.108978034145443
12.298595897317851,  5.003621296597646, 71.979098705696131,  4.237182299804944
 1.086676636291932, 12.297763394017517, 41.738180982415550,  4.002479495816651
 8.209946764364526,  3.998847248370042, 48.626516443855628,  4.203710248378721
14.966555115837423,  2.987473525738160, 69.832890648628577,  3.706022213070028
 5.197072130855032, 10.068055779690647, 33.171757152461367,  4.339318885527839
 4.249955874605122, 14.432284450185408, 61.684072566923263,  4.079039248632330
14.775206610410551,  2.705329149391133, 10.200479863736861,  4.192656653912726
 6.615305980166061,  7.155568723262693, 35.897419994674735,  4.121830185315218
 6.733262886060790, 11.093235146980655, 67.358239599546124,  3.776912728191722
 9.433974860092887, 10.435550836088487, 27.800289736481837,  3.977632551268058
 1.390612619175505,  0.490308900717048, 33.532445594903365,  4.059765788679394
10.368860943428981, 13.237424678356506, 37.362838505744435,  3.948642722601654
 2.997528033184323,  6.361301827040548, 17.062787652035354,  4.133589748467601
13.553129483241941,  1.991009999489343, 29.541669766456160,  3.971414192259183
 9.332784669945392,  0.416112313557957, 46.916144373709656,  4.035210715121096
11.481296546628519, 14.509644893764568, 21.327722588103367,  3.940331837449417
 9.700709627325693, 13.038948647183755, 76.523031618033372,  4.139997442781813
 4.178417335066356,  1.010740578543481, 80.750869323743856,  3.794581588015624
14.296976360135327,  8.298726769955683, 17.598124223152450,  4.124424395998764
 9.387612458924220,  4.173790993353583, 69.357098620373222,  3.763422213793499
10.518534914221091,  4.444521674086701,  0.252614974220123,  3.771190150765234
 1.636449473454394, 14.721105363100495,  0.439960116707638,  3.797561557027716
 1.165613311346000,  4.937362682859388, 20.589101697008367,  4.286089569466062
 5.924220578039042,  1.577976849725184, 71.127637635709888,  3.938855620789324
11.955049502538131,  6.759152346352964, 30.480072836189077,  3.972320257690644
14.798086527723687,  4.213993040990427, 32.765127866198540,  4.130704752370070
 2.196601771658498, 11.363423694481975, 72.248677265044719,  4.006589485719761
 8.522088291581770,  9.757619621116520, 64.333223578724571,  3.721450552088332
11.897228713781082, 14.514918451204089, 73.396814665524559,  4.050672608555093
 3.151847062669395, 13.404331740058703, 77.984096847482547,  4.126587189397526
 3.839021902165684, 11.015578411111941, 39.143785255538639,  3.915188075247134
 2.921292483222589, 10.807803880210434, 60.331344623293973,  4.097042466865155
 5.574721852264674, 10.725945767811947, 21.406621226515909,  3.979951790441556
 8.614423234250237, 13.268235700440103, 92.182206937036455,  4.235375546725502
 8.341855559013416,  9.135680891697753, 12.252715110650641,  4.326281023681194
 6.362660142761686,  8.688087415338206, 79.760096363937464,  3.616175828726275
 2.048472846543699, 12.511019416305045, 21.684775459982973,  3.837886790407976
11.629959413538735, 10.846603613172134,  3.063906175396957,  3.941663916170704
12.134114365047827, 10.840575925678461, 31.231523989086302,  3.848206631008835
12.259492785163125,  4.738018379534060, 55.720019258424962,  4.370317891435744
 5.055039745439194,  5.030237333721290, 28.296422229632881,  3.871482710861412
 9.976231097749148,  7.386459409350557, 24.461905776690745,  3.785891182705639
 9.597030953111256,  3.793437319182024, 22.683127632416060,  4.014828584702157
 1.751558698547340,  6.678333553345691,  2.387488139640648,  3.680387747798113
14.491209323191423, 14.207797214044920, 23.933831935205486,  3.772456932931123
13.518445580054058, 11.478826960819219, 71.888321930375113,  3.453299239009394
10.903437063010037,  3.327228257216637, 59.418980968245556,  3.951773698731412
 2.733860372595469,  7.705985485167164, 79.339416232569874,  3.934241380865461
 2.835388980393669,  2.091963818982732, 88.471132879143667,  4.067707555683622
 6.945971739121195,  0.713594717108216, 77.939101686379743,  4.064798335047472
10.572927843156210, 12.647118073311052,  6.686107224516706,  4.117048955406214
 6.711962589438214,  5.436536605772558, 24.804652299766982,  3.836130201867536
 2.130358274258935,  2.376789555171342, 45.524941900981545,  3.982186813535865
12.826065098715747,  0.237731831758431, 16.948812423786290,  3.823325890599759
12.692535938947223,  3.488792526131018, 36.270317227339163,  4.052341166946376
12.756768765396727,  8.399903745066883, 26.950827770639325,  3.946081485014928
 4.285222784829815,  8.350197875599545, 82.970348310409861,  3.998603301699557
 1.025862928894151, 10.574518969819360, 25.186251196444282,  4.178684701852575
 0.164505052709291,  1.084078323740623, 13.901867513013244,  3.910986148609390
 5.868011958483483,  7.154693200400340, 47.594459936718287,  3.743454967696829
 9.185885152740676,  8.871642407995077, 77.027225294152458,  4.210559265477019
 1.951544376627461,  0.512211234016272, 49.211019718085545,  4.058875495116749
 3.241317971058421,  4.272802917419130, 24.764181393989833,  3.445330827901957
13.966305107970873, 12.521702485599976, 68.203352802567323,  4.256186897607055
 7.843845237705542, 13.891314887866903, 26.969061373464854,  3.800019453814152
12.495019208335192,  7.944557343371608, 58.377184442290734,  3.949564830840844
 0.281790633124862, 11.419291014528344, 48.733925603569908,  4.159113764486192
14.355932407106922,  7.646654071768107, 48.216423116146792,  3.591556766558452
 9.979831769101150, 11.940324460384270, 69.645411596267962,  4.281477848489662
13.921207921785619, 12.035148563769793, 19.498257237018304,  3.879850729587663
 4.962086754717963,  9.379099145775974, 53.338697040146521,  3.915324157322254
 0.477755230596798, 10.196468962645541, 29.265968141827514,  4.076687096987943
 4.413815699087670,  5.718583767149359, 63.611010328638557,  4.259621086603233
 0.768653384392574,  9.780406219532210, 57.070454925259938,  3.970967447152904
 3.097882889018870,  4.256297881077527, 52.369744553003116,  3.785872529909891
 8.076003372872702, 12.642998224071690,  2.441242102146993,  4.045428495259899
11.870168394068935,  3.134558794947045, 13.169650770655389,  4.024405358133543
12.148277163883400,  9.487986997243095, 65.910642954386716,  4.158944181753997
 2.244127364179852,  4.561524633299787, 67.127192680205809,  4.063855184852996
 7.996147976909658,  2.585781114745623, 91.447318745664560,  4.614007926096635
10.414261854032329,  0.138980777454028, 80.024085170352734,  4.064665616951124
 2.626837693185820,  5.765185995366277,  8.963634946284650,  4.185272582363950
 0.637058702625290, 10.462404663161179,  2.419232434785249,  4.191297535530988
12.220724925060805,  6.671302187613645, 91.613165871002138,  3.891335065565905
14.099077411933548,  1.191004013148063, 65.756279705706035,  4.464065491399052
 9.323219999613777,  1.317023097176451,  2.095066816506550,  3.766581603178177
14.674349927683483,  0.574882151443698, 43.298360727729786,  3.613146633739527
 5.678765736282363,  3.290656361978866, 74.897804718842565,  4.294917246615354
 8.690899386110061, 12.431906456418480, 23.385485750890641,  4.111524739210320
 3.220614262967576,  8.523787275829438, 89.295759588805041,  4.032209306660138
10.484806186746983,  9.404108871176884, 38.966422426310977,  4.160182520548223
11.666142370429327,  0.835253437691902, 69.503334902652199,  4.201706216591008
13.950777812169582, 12.233711028878986, 34.525318663337217,  4.170389047277659
14.283514753802100,  2.586241143718338, 74.689951929973375,  4.005105041200415
12.863969639888685, 12.413070612809465, 27.046857680424086,  4.061566550515154
 6.955106702541703,  1.037558518979692, 23.877195135991297,  3.953004723006195
10.139334043776444,  2.339945938063443, 66.121846914936171,  3.781070369076229
 4.772259645631624,  2.781443431844856, 34.182465938298876,  3.876815600874670
 5.881287368056128,  5.207678309638228, 11.172845673122598,  3.732374805047479
 6.228571600090447,  1.186239102962676, 30.635673195141635,  4.182243673977339
12.576344822871205,  6.945534906926020, 14.180649696278655,  3.969005253065871
13.849106421820098, 12.342738350089581, 93.190399363423907,  3.968133477857960
 1.165524987755347,  0.841671632682223, 40.019125194480687,  3.584913385790388
12.326586990671574, 11.592636180168112, 56.658125395334764,  3.893623178462096
12.634839077177578,  3.128468262682406, 89.418556000560429,  4.357668193002891
13.024059360388851,  9.357378566642602, 83.095313005951624,  4.084397230167370
13.636624197763997,  0.002849010898717, 86.649007558178880,  4.199259105321278
 3.222014841588420,  4.091853151264037, 41.493804506393829,  4.239238105077740
 6.645187000627589,  8.339231271724165, 40.250353005069499,  4.139401095245594
 8.808014115926403,  6.237548140926153, 45.186529001421988,  4.068656408902915
 3.590533426431191,  2.994407305813270, 92.434137421275665,  4.193854683603514
 3.486818561171701,  6.130498650766647, 86.131138739892137,  3.848594380778368
13.301779304147532, 12.439690159855054, 44.784562305983179,  3.876564123560139
12.250642383547818,  3.997102828030497, 79.810411930046541,  4.239425326010814
13.471048809034457,  2.770868512432953, 22.829190194995874,  4.000605381677257
 7.758573053980229, 10.447798109094972, 46.297017936884465,  3.951121815465902
 6.109394176362309,  0.498433363254965, 49.633334157521212,  4.138639855222479
 1.866978499414544, 13.516674181005341, 45.699455937204050,  3.834352206681010
 6.410401712371809, 10.194392221231881, 93.657689151962771,  3.881211803480698
 5.393855234017254,  4.546277544970440, 58.778331167131419,  4.134302564544168
 8.799948030325998,  2.317028860295973, 35.450361054180725,  4.184932179454684
 9.312677852232083, 14.196323574984092, 56.904302171926119,  4.059705541202068
 1.974642374639054,  9.873104074841768, 35.843278594140884,  3.992411107489422
11.147801204959588, 11.144336738437064, 79.914760625077818,  4.118641645684524
 5.064604590103206,  7.585484418475017, 13.983113164724363,  3.675678345817965
 0.119759722747104, 13.557225317694305, 55.244106436358528,  3.552463313671254
 8.393226325312277, 12.754539610736009, 14.085337845079581,  3.761398423973874
13.701702494195231,  7.916298339470753, 79.261470084335997,  4.182570944866002
 2.690873613013689,  1.067395134081786, 23.019253228860421,  3.935461004259716
 3.128485506446296,  7.513513327191734, 30.624050867022977,  3.938725211019818
 6.206478240684939,  3.581376690985635, 86.132034285625707,  3.603326605172976
 3.843510643210509,  0.107981571456166, 42.672456563159308,  4.057433304054847
 8.650001500111308,  6.576554470628289, 28.301175361378277,  3.952785428127216
14.296512579027706, 11.874349294488672, 59.834138134122838,  3.557598103491448
 0.168541863035391, 11.635182440602428, 80.122478120996433,  4.016750387262091
 7.770015297330613,  1.760660756968122, 12.404181315430311,  4.221421415485681
12.218256359202687,  0.738097828791111, 54.668522872971259,  3.899281862355463
10.051779691888408,  8.418497332134470, 85.569260883978401,  3.865437462693928
10.407336933828022,  9.966923770337665, 73.265544116976500,  3.992373331426491
12.359487875263834,  0.772871914315545, 33.245122240143637,  4.064895383985403
 9.152664715845614,  6.116342438151166, 65.546716915486670,  4.028554836103733
 1.066450627914454,  5.272860152342422, 90.192964635592972,  3.945087292850972
 7.957498663628569,  1.063387283600768, 19.881746500709859,  4.281599901359016
 7.985474584653995, 12.347823330086074, 40.602429258000640,  4.227329392777037
 8.034998897696056,  4.612422231470551, 61.903178157472048,  4.047079520129779
10.541221673007234, 14.292388600745024, 29.874158813660980,  4.162072036352265
 7.276822837666531,  7.034956053319635,  7.963063748219167,  4.155363744645313
 3.164674382690388,  1.970342014707650,  7.355266092650968,  4.106790357499158
 8.730121399361488, 12.019614195388119, 86.598912701108389,  4.055651877974745
15.026086982175812,  6.180408260794396, 24.456071168252056,  4.109893313265101
14.912934433013342,  4.975302708110584, 43.673619219913292,  3.830169279204481
12.436207064260445, 10.427923370255630, 11.993826408617538,  4.252923171533012
14.575066484340383, 13.599786619679040, 30.827091107866398,  3.532777967640611
 3.864424632183090, 10.415177895078193, 47.068638194417190,  3.981857954839210
 2.909962567397264,  2.762678328613831,  2.525930280065538,  4.052402338977044
 5.030047331111856, 14.613507366220640, 90.710313354590525,  3.950823544432872
 9.447208546945012,  2.016505910758756, 16.150141892133568,  3.973450152128228
 6.535564675156308,  8.455580635642255, 61.020555404314649,  4.388652152111122
12.723204198914576,  2.290024700504438, 40.387305870398073,  3.969244334171511
 4.834866027494784, 11.421822542685893, 14.948928992911476,  3.964331191193833
13.197920338366446,  9.491419315305526, 42.088768838217142,  4.104450428962527
13.266411557597111,  6.494405368195004, 10.300531576360051,  3.934806509386106
 2.555662930529960,  5.905684041567251, 73.677682821486144,  3.804614419834863
 9.348557329707392,  2.379212098256736, 72.712764597747238,  3.774487638548059
11.938818975651438,  5.882032494042618, 76.088839687104780,  4.123993151741835
 6.078343870627935, 11.362465200418429, 76.120548838810009,  3.877853696076787
 6.321925670817298, 11.012918238456761, 89.663955781545880,  3.930754020752707
 4.859816911975179,  3.745703183619955, 14.597844899859581,  3.943340270757853
 5.123266089329650,  7.093179061442698, 43.824474492643034,  3.934410106711142
14.697120238737476,  2.700261493103002, 52.616233711099653,  3.621978083470264
11.750722118169655,  4.520538390341670,  7.264866266015802,  3.887048749587500
 4.886864840965769,  7.632839820903778, 67.266157997123841,  4.044464337713580
11.811322287342881,  4.467653443852822, 26.516467381925469,  4.170422623734693
 0.558749434604591,  8.067408818839256, 93.018000722690942,  3.927614729397673
 6.881218978395920,  4.615856947244618, 17.963489098512625,  4.066300743511872
 7.343320602618584, 14.519803511266687, 82.822592408821464,  4.346224846219682
 2.713104855076373,  6.951168779776957, 60.232537547671932,  3.606578436765755
 5.760740493055475, 14.836710344876018, 86.742415732845004,  4.109867908564364
 3.658525464003521, 12.267979034213200, 55.612693628016267,  3.877659870367123
14.372372101284375,  4.075884994150607, 16.700159779034877,  4.386753456269104
 7.188212860255308, 14.305704602814895,  7.815071730635352,  3.744170417162846
14.575230286339075, 11.676167372580155,  6.326097032699383,  4.131887519536726
10.268028749494754,  2.005282035585407, 84.228520557911892,  3.856544569734325
10.710268694456333, 10.040933679385864, 93.336560672647636,  3.763965228883996
 9.666746797046423, 10.507963077499657, 59.251585822377251,  3.846023342967846
 0.425592104623398,  4.829423805815010, 63.592494577688235,  3.888838318578488
 4.796338571294834, 11.114467279511532, 43.116155963393815,  4.257912843302996
 9.366580153791425,  9.381859540516862, 42.927034164726848,  3.732750223313883
 5.937019289202543,  0.377817878777448,  0.478486084169556,  3.917537450077597
 5.856128432734942,  3.591344119299121, 45.375606036952398,  3.806263977641915
 7.423380172027120,  1.169494764850544, 59.870386904618364,  4.042146814031601
10.473203913037501, 10.082999549229656, 34.888601063965325,  4.038833483096061
 2.175515360040788, 13.947174383222912, 16.506305398566010,  3.974253050368804
 8.758301422933503,  8.991847009450595, 31.424020461547588,  3.838127654968366
 0.616351501235652,  4.596446043373524,  5.481473529768724,  4.104115597377890
 7.710357458556873, 11.733555547705622, 49.949741901943362,  3.786048952051478
 1.975521362589390, 14.397639651829953,  4.482933113950916,  4.009964890337630
 0.539612339162878,  2.154398688195438, 26.146025206636246,  3.932990790720273
13.951867512521821, 14.141275917350121, 51.484336179161780,  4.020104047218206
 7.236398978515663,  3.043326922323338,  8.349079941357768,  3.857884876487144
 9.340956828442041,  5.155720103555487, 87.727597156977112,  4.078003434495152
14.575903028911771, 10.270497368984310, 89.800795556700237,  4.081542603618007
 2.096554919272170,  8.487433634388099,  5.882362737946096,  4.063680738302272
 7.134213372962994,  1.216894052249659, 63.893229741370327,  4.020037471957678
 0.402725049564346,  4.191745269934867, 49.201765720070945,  3.882223052975392
12.532110124752180,  9.330796046261517, 51.270019734409772,  4.223020686872928
 2.548476835835325, 13.184755443906335,  8.644439176029012,  4.037174850271319
13.528916023200543,  0.091659659112665, 37.538423878080749,  3.382397476634635
 8.740977380725667,  4.988161618811686,  4.737567493019175,  4.021809694214297
 4.374167467838123,  1.376567518767905, 26.914091380302622,  4.036266476012107
11.955178664633126, 13.300959540725408, 89.879603534622333,  3.869311986886743
12.397541007175757,  6.374388108945010, 21.390036091948563,  3.905616135092517
 0.338559489234848, 13.468899028386147, 75.071500302346394,  3.947472512640910
 2.911000969363209,  6.268810205974733, 34.379167453410751,  3.976342770224440
 4.742957258537882,  8.781206629183812, 10.448051544373337,  3.752794337675982
 7.403278255929790,  6.244573172093159, 83.889239701688098,  3.738336487822457
11.086747756945602,  0.333179361994184, 62.069143886605403,  4.053470329662117
 5.971100615272896,  9.543708137719729, 72.423822377449582,  4.352098565145794
 4.669841142569327,  8.800263183621686, 57.259517013167120,  4.022421889291412
 9.745656204580250,  1.382447441523729,  5.843481892972056,  3.767730846600917
 2.829567745953845, 11.188706975372074, 67.765111007098312,  4.028681793749582
 4.684015489009020,  5.201219232253158,  5.299476002613269,  4.127604642071221
 8.021470833915895,  3.398549828888778, 81.132982033093697,  4.273477699803927
 8.923877413337197, 13.629001700944901, 33.616533816427626,  4.097865021837237
12.067034348553507, 13.361645256917351, 41.057691460698599,  4.176959990057582
 0.405144638081458, 12.908867050203618, 83.806603679331303,  3.764471151244105
 4.774969818395343,  4.292224025072194, 78.811443635250825,  3.901622642344443
10.986826334083023,  0.568903201576490, 25.207088189064731,  4.153162324831285
 2.406184234861952,  2.053675190923632, 76.812421205939174,  3.671443174639137
13.255914029911420,  7.622148761749857, 36.504091761298227,  4.062733970946399
 7.590525169961824, 14.914699043401351, 67.878584553067128,  4.099968118606716
12.365418741500326,  8.575933752389277, 69.869316732935189,  3.961216557279831
 3.851714655164154, 12.248226040820002, 50.703402749433664,  4.117576404252868
12.700307947469456, 10.973858550815050, 86.556420549682883,  3.543550375823712
 6.702370532356528, 13.801724365572776, 53.383458887715427,  4.197219819810251
12.291847585898973, 10.459015732924536, 23.531764880001361,  4.040370693236476
 3.195878158960492,  7.507690313088765, 26.206877993981099,  3.582216550194911
 4.975427472383114, 11.048810527293428, 85.765276689951520,  3.865605643822666
14.245319970851899,  8.244910150252990, 73.655876394527937,  4.030282869349586
14.675373914694315,  4.039990048070041,  0.027858113047674,  4.562615316482096
