BANDS
8 8
NANOPARTICLES
cell(1), 15.033
cell(2), 15.033
cell(3), 93.955
 9.403166481702032, 14.698916449724196, 67.114363424544194,  3.828757394769802
 4.087717269755959,  9.202560824622536, 49.591461854447992,  3.947187885505282
12.636182061367808,  1.176050417793421, 77.172007522375239,  4.217727167782184
 9.075132470119332, 12.154114079900554, 51.741519753103802,  3.919036692620075
11.751288717848961,  3.456442817931041, 54.490901429100489,  3.833267158357955
 9.584726039731413,  3.624996483065733, 41.391496557681577,  3.945468578299565
13.036669097973279,  5.971509030764462, 16.325730708362645,  3.964605749567055
 4.125699749010884,  6.607787913711132, 84.347633447685823,  3.822571167060158
14.108123521314806, 10.683178101588515, 56.199780865887035,  4.318361037889602
 0.574888500628394,  8.639971827166196, 81.801813027351869,  3.990431479771339
 4.655446713978952,  5.335911231871599, 19.295516165502519,  3.962886179867352
 7.116386037996556,  5.267980247712850, 75.360756583819651,  3.710130760541767
 3.855321524056133, 10.141629356955095, 32.596436252781665,  3.855921003630576
 7.442608651905968,  3.792448108373673, 90.236187136327885,  3.956078441954274
 0.116087637129687,  1.471166820855975, 54.115536034799881,  3.918455689166435
 8.911350157371318, 13.077296532726482, 56.530568778421454,  4.216571535868132
 8.594640905737542,  1.131928823018923, 80.564916671605488,  3.995688590168748
 9.532343826832825, 10.771488286871445, 20.538088348514247,  3.988118116948330
 1.539756820773564, 10.843424620294211, 24.455865200356186,  4.184922014902289
 2.477574795474336, 14.139133922821923, 91.088257718993219,  3.754594848188734
14.977064061269459, 12.158280280560446, 63.018104646308778,  3.903023175246099
13.070344736226019,  9.958858511105166, 65.582294072844647,  3.848888051700924
 4.564512822498175, 12.445264568387987, 74.314011188559789,  3.974961437550268
 9.075859207679676, 12.434144115396252, 28.016102529717958,  4.283028622028175
 5.838805408724226, 14.066531760278531, 39.648779393675859,  3.979994897202961
12.003101303121252, 10.873159839716806, 34.182453399212804,  4.201611582737522
 7.640846359574460,  6.616216148436877, 36.055114945343419,  3.947346933731146
 9.821175841182949,  4.722776110230511, 78.544872547797922,  4.566774925608773
 0.857456121458234, 11.475440134782991, 48.933580221570963,  4.058542696429011
 6.968465906664679,  8.521680537251447,  7.071908146772961,  3.859382503471594
11.366865839172311,  7.150186326228965, 28.396966654008860,  4.210919283096203
 9.538296565815001, 10.149606900439204, 10.013640859035235,  4.591504299738043
 7.476893546659368,  3.787378588467277, 71.787358901869553,  4.022503566644428
 7.474989873490617, 15.028664849094520, 49.553870610159066,  3.947599671073821
 1.598321436716819,  3.312135900960838, 64.904695775771287,  3.879576783749076
10.151182183083248, 10.612707554147603, 59.434840729548441,  3.764088569253709
 3.183470083290399, 11.021673265640551, 78.391755194338373,  3.957549276676334
 6.386660921428832,  5.831723360597644, 28.076353085999951,  3.958390742264492
14.366868501521504,  0.887234365692893, 93.191175665582620,  4.116633572696256
 7.422813672851326,  3.084789796897501, 60.837267092268085,  4.114240574688663
 6.505171820028774, 12.584074531872325, 31.189037836636668,  3.867122749114536
 3.051797446140499,  8.878367735823680, 39.270600596045902,  3.833406349246129
10.846460924812048,  6.309711488287191, 51.718652254570500,  4.308511974387329
 2.250182238379493,  1.830975246421754, 43.471574000382148,  4.256139300838606
 9.215522119671975,  1.802892460806813, 87.261695223013689,  3.982912172053142
 6.849150306076513,  7.895110122701364, 12.257726974335247,  3.647045519992068
 0.197040212197776, 15.027446538802081, 40.430260922021404,  3.743744976250010
 8.398432728842415,  7.486906145065006, 40.692635195163703,  4.241711679368385
11.659841211730084,  0.830891751114588,  1.949076457682553,  3.535604609377280
 0.111236202934424,  5.329495802404352, 44.392387787666586,  3.782450148325921
 2.396691219618591, 12.584587979695984, 38.528963180304629,  3.832052456574495
 1.443871481315908,  4.220575571252282,  0.020352914077875,  3.906194105516173
 6.504563439309650,  0.752172122966590, 74.117452037198888,  3.703165307836445
 9.199678581411499,  6.011686631001277, 55.999471097204307,  3.961999891366152
11.859286092420522, 11.183654772798542,  6.756828247344326,  3.575871186894895
 8.869082758973027,  6.982512539777845, 59.864600894114631,  3.979041235137052
 3.113059995764728,  1.636196594268359, 72.408334976543998,  4.059082721687911
 4.222189464823537,  3.199983505089905, 30.365326866150252,  4.250581043055845
 3.206797870277851,  8.329948395510714, 21.338620623478093,  3.843772133482998
 9.958915022372189,  1.837985148757214, 63.837154114553357,  4.071686197914305
 0.179536145991177, 12.491477107511347,  8.017944616211247,  3.919867969472118
13.256957898369043,  5.821172676810145, 40.941400365322217,  3.908449444528087
 3.821983069533101,  6.311160714236516, 66.284997918319263,  4.053771770464528
 8.279049672545236,  0.203204048359049, 25.129012645543714,  3.908953887286495
 0.433685669705889,  5.965491116878756, 19.664812814983851,  4.173228740715001
12.336759655818909,  3.118450874597909,  9.678559084724990,  3.792070268048557
 0.040831911403176,  8.667631072400205, 32.344160078571754,  4.198084130489147
10.819937080568051,  1.450182306015076, 70.991788379360841,  4.260340590373046
 8.367750958734529,  9.690604278829644, 63.021771948619026,  4.209748220808574
 4.691356572215570,  3.185787609974718, 68.874926035038428,  4.117986685114973
13.236383397966934,  6.373443234263876, 76.081354715781629,  4.431821418103215
10.408460210660358,  7.209998732023242, 33.069055766834822,  4.035618131213819
 6.638568208726539,  6.835503969287282, 69.223219217538841,  4.112963187530822
 4.175038124547564, 14.366037301135039, 28.594543102106936,  3.876487860244340
 5.868537190529565,  2.774619722151200, 64.794381787536565,  4.410864265477222
 5.642351849457124, 14.600326531293771, 44.632425106721541,  4.202183917308116
 0.933127031233223,  8.677689662325056, 42.571853592542489,  4.007089342418536
 0.822664192026787,  4.892883145417342,  9.743998326550454,  4.088917658183671
11.820868183235069,  3.774326087737960, 19.626405715694947,  4.313847004578096
14.117669865084711, 14.227144292320117, 33.059848172508183,  3.857573105040196
12.800417250866342, 11.074581794531026, 45.944607600924982,  3.689623096894821
 1.918551806577540,  0.560046887684024, 67.560700208701860,  3.792997614040778
 2.115812478336015,  6.893873748145735, 90.936642601817539,  4.223256404822069
 9.571105155362664, 11.881246256701685, 24.135803187845564,  3.528614499693372
13.748335468550128, 10.233125644771658, 10.949479239652272,  4.033864978155081
 4.683986720047658,  9.447956787286424, 81.746603837888244,  3.864620156584075
 6.151154202470071, 10.606168471602537, 59.524335980729489,  4.187756834121796
 9.700057823397636,  9.756843953732119, 86.840391154967421,  3.861698439800913
12.790890305972333,  4.654961202804103,  1.895415433056808,  4.381652330214155
 3.593746053735140, 14.511868513438921, 48.305730999903624,  4.210588168896892
12.942517129094847,  9.605845684678759, 17.505175301580223,  3.672790050923628
12.422537777714698,  0.367215487752904, 56.918964186092595,  4.126006124035379
14.834720426717748, 10.278132566909193, 76.411282434660279,  3.902429448043362
14.727774473631973,  5.195852282848311, 83.836233091467392,  4.109707520193879
13.024972641376422,  1.807898508186253, 85.600456987867261,  4.179754182209684
 6.128044227198196,  2.822531092104744, 85.009234539362311,  3.905095727642036
10.709898806439739,  9.293903242326843, 48.727611096058837,  4.117241885419746
12.217184775513200,  9.657568820463982, 73.440112968002097,  4.107721377565791
 4.492666042265947, 10.988154291367385, 63.288337060732559,  3.956513077265107
 7.162240169302431, 11.289753205687983, 77.584058475721932,  4.101974760652772
11.407875487103569,  0.831251175679038, 28.322311815269572,  4.000995981192588
12.368512517912313, 10.820607128707410, 30.061603205683102,  4.057104859233046
11.527262735947756,  3.793227251952978, 60.099094682366001,  4.305058521594238
14.490493185099012,  8.774734193608960, 37.465579974146308,  4.111934017206259
 0.194851837261774, 14.811427641964922, 21.571961306173176,  4.021185009608119
13.832364873637271, 10.216725591804259, 86.374576361043395,  3.799058974531503
 2.012118728077664, 12.588202713540662, 11.689044307753919,  4.182920276773213
 7.233697567703905, 13.863157002971226, 21.597099447294248,  3.895144095112719
 2.116290885509391,  4.426439861306129, 75.411253058380595,  4.373267892879547
 3.992891287656605,  5.630828751751072, 71.954638818283726,  3.828384522071782
 8.775408146095801,  5.649794909090447, 63.645863583226976,  3.886992459944641
 1.337563897763720, 11.855046377885460, 29.971237981907251,  4.144439659356979
 4.128839566783361,  7.918546743733169, 24.981184537656919,  3.683522955311830
 5.691732401910294,  2.980611131653530, 54.754644779878049,  3.620567454486298
 7.651549409223128,  1.501905725549447,  1.910013840176471,  4.207960756492784
10.075121870797270,  8.603475399176668, 70.251909889104141,  3.856649794387069
 2.367833829658527,  2.588591076852248,  6.775554862461743,  3.904764996948268
 3.738566786179797,  9.312999118976942, 13.927301664224313,  3.943721444933092
 8.742945367193428, 10.887312541738256, 90.634485398521477,  4.281017914956135
12.401032964836096,  7.351413970958826, 58.010337600204330,  3.991827480573293
10.933351152551621,  1.459066501041774, 12.757807535486789,  3.576547342384267
 0.876607166480434, 11.639394624735303, 72.777592451053863,  4.141810412970526
10.400011423110847,  6.841773315583628,  5.956406581698042,  4.068797605701254
12.302472075190085, 14.007263666330717, 53.179765360909897,  3.856399319993437
10.288652641217494,  2.813705044914284, 92.931743801507963,  4.093094347541260
13.397561908167047, 13.137183624047964, 37.197519728686657,  3.830241461543408
14.070690806056264,  6.906633526361406, 54.341076450656672,  4.083081061639268
 0.187633965429269,  6.933716957034627, 72.264229907017722,  4.213851280119954
14.119496115773625, 12.947917050977969, 79.374182001037596,  4.190042473735315
10.825285858810812,  6.274131090308739, 24.303239651646944,  3.747383659309719
 5.884439038777781,  2.375315418248725, 41.752446494632075,  3.845056692200293
 7.157085900466927, 12.449971989339721,  7.251816379609253,  3.998852301771138
 7.576647755151511,  9.522683235074583,  0.505808321304762,  4.150870239485453
 3.454191504140935, 10.052976909567654, 93.486776986340303,  4.324614286717646
 4.811720243008756,  5.782307780955377, 88.073301042291433,  3.894578382856705
 5.858015146016297,  6.573731476567043, 54.080371175927844,  3.668771006929464
 1.417195747683906,  2.818588627465147, 90.145433146355572,  4.182244253827545
11.263903561714054,  5.655048943288678, 44.370355621028814,  3.983738948911249
14.873768465064169, 11.962472847489780, 93.451347854814017,  3.821869661557751
 6.820585815697542,  6.902181519829348, 48.062209996508905,  3.804559484065843
11.184848449835716,  5.314998829215885, 12.730420205733559,  4.025993588404452
13.238168585435858,  3.975725810752913, 26.418158224915871,  4.108474051629124
 2.294646804449826,  4.844674908689590, 26.779841672371123,  4.281853345411934
13.287958770305059, 13.578512097100493, 67.331537479956836,  4.194087731072943
 1.184484345617423, 14.758909635161347, 75.515923520036225,  4.160855873655446
 5.915401187057346, 13.284293205478836, 92.979283893838740,  3.847164168384555
 5.175524490870332, 12.438854645655226, 51.457598022370405,  3.828001796747079
 9.472621573368150, 13.374035648612701, 36.297854221446329,  4.073782559547227
13.214552633571536, 12.649008974849616, 59.706010666508341,  3.600666691044177
14.633490896498571,  7.039549821120075, 23.958546893643579,  3.908694302799380
14.455233536641401,  3.157397803943297, 13.006909644394607,  3.809937950313528
 8.629729646237443,  5.853065923775726,  9.489365212154683,  4.055656592999151
 9.174583141363588,  4.449672880161745, 30.425788690938031,  3.830533697695929
 2.635952471158185,  8.871634076502380, 53.444476948662711,  4.306291483980845
 4.773786383014206, 11.399865067458775, 89.918234966951587,  3.681991121488663
 4.641812342821474,  3.318604000847261, 35.460932693837805,  4.160819783625890
 8.648816590646517, 12.424042056129577, 73.805675189451961,  4.253441959095017
 3.556427238702387,  5.347284164943098, 50.246527739528084,  3.907367095779225
11.806889114704049,  9.303332484400419, 42.516423610329262,  4.266448064197278
11.118657279721438, 14.618762977765364, 20.461200263985461,  4.333237694566349
13.208014907109352, 10.379265338938428, 51.816151532368117,  4.030045679746683
12.279862773404242,  8.690318237485450, 89.697584935428125,  4.106677090132520
 5.083235989646394,  3.808242327802659, 78.200370946838476,  3.856710811911029
 0.432222394957159,  2.648320217760032, 16.975264845612429,  4.363686351430101
14.579239738789726,  3.917217349769340, 57.228946408873902,  4.074003727685334
14.876574560864766,  6.625138479471276, 67.188282590053248,  4.107836683408603
 2.484335652423605,  9.925205081916589, 17.646315235576370,  3.993082574822576
14.954360737717247,  7.034981671065149, 13.031045217072911,  3.949810512943817
 7.212849220140601, 11.265768502849840, 48.325110089199441,  3.949751863192096
14.841913721344783,  1.075190797842043, 60.141142119699019,  4.053414014292763
13.028925623806693,  2.635351066845080, 67.332475221219894,  3.619857638932625
 4.219709050463447, 10.363268070637547, 45.638936073982734,  4.272784013893432
10.840476410529769,  5.003006155341220, 37.862333893173350,  4.029505349169019
 9.982014751785687, 14.256649881301586, 83.993421320119637,  4.260394479268464
 1.382036632966160,  0.220401055870300, 35.996996900529489,  3.765939945893790
14.893960110476964,  0.288083021030983, 50.196642282108947,  4.275132618084728
11.497312785802704, 13.342178683042402, 48.809363555634697,  4.046913294488037
14.490551571713977,  3.128538932727230, 38.116071367038217,  4.172550583242302
 6.236430986763573,  9.076636301487591, 18.909821024244621,  4.062801917151535
 7.378769173982809,  3.746443670691052, 12.802513290545946,  4.147823239993575
 9.961369946462828, 14.853880609383953, 60.227631547560620,  4.168895021119257
 8.148148229444327,  0.469457416042082, 15.206423222738790,  4.086878297029225
 7.605522518825842,  0.983469284586641, 29.550750855881599,  3.965646641937779
 7.012795438170085,  8.637204817872856, 73.463997499922613,  4.019610737336381
 3.571704691974679,  1.437543036542556, 12.507769196188580,  4.324087192029317
 9.616488461723140,  8.374241096822010, 76.460609382100472,  3.842807540700672
13.964025072390399,  4.894363726452611, 79.897811673139458,  3.879316176719930
 0.228164539527439,  8.538620984550091, 27.660183952681230,  4.121859976208146
 0.534535342333221,  7.745268406690250, 50.134097784996875,  3.797580717783930
10.140072182815858,  6.251008156889630, 73.313169221504879,  3.819283090046200
 8.765756438922686, 14.862188758212747, 42.137011517174571,  3.806341573266038
 6.115019476234370, 14.812901760561108, 58.942816618915579,  3.938041589331287
14.832403289352211,  8.623887592686513,  6.618607878899468,  4.263719094250451
 6.990714091665352, 11.189876512090557, 42.422325279378541,  4.329845052595374
 9.474693523327586, 14.160100579206516,  4.581562885380634,  3.773528321560669
14.295914400169936,  3.332763595093362, 22.744314934869671,  3.607405896546831
 4.945890287365706,  6.814910609761055, 62.088946075011634,  4.687883208809160
 8.783381344347482,  8.778876670473755, 45.243063729349082,  3.908890877437034
14.107433403039494, 14.375760359052297, 14.004564181526380,  4.097414284008039
13.605126310780580,  5.653092979163346, 35.006887299460587,  4.010418385655749
 9.474596433237545,  6.766265532102699, 92.032712134090090,  4.091558302473759
10.737243312000485, 12.430647410287895, 70.296495327998286,  3.909981814771937
 3.113244671606867, 14.752176369089007, 63.966071037951828,  3.940658652124652
 1.146096833517387,  3.041014673968383, 33.228606269192134,  4.132259469206969
 1.170038276114414, 12.751318845826127, 53.197148301664541,  4.000971619103256
 4.503726543011298, 13.813524882884961, 24.599427856719487,  4.201829512890876
 1.119526228035149,  1.111871511853664, 25.262216743657000,  4.033020694437026
 6.757862184640448,  5.129802912558842, 81.682695143039155,  4.214185767276891
13.098513388998652,  2.262013130948619, 42.895556871862880,  4.168289815010907
12.140095850339362,  0.703806558587590, 24.361002928185428,  3.916158443306856
14.903151862306716, 14.991979465393475, 70.780076003348384,  3.915895871163993
10.546002915942676, 12.914528476869387, 13.164232761994899,  3.649070047914377
 1.103467486929355, 14.383597340905512, 87.255562572388214,  4.397737539276124
 9.140140302199363, 10.280950046487302,  4.215060110346373,  4.039400507235682
 3.134801011600908,  9.189087982226674, 70.009923242787110,  4.444083690098189
 2.312573032510596,  3.456091141930662, 86.333114441006046,  3.746359699871933
14.143855225889489, 13.242319204127336, 17.925354311111040,  4.004884540571708
 5.499748008121331,  5.127957657220828, 39.018981267107449,  3.947509669644391
 5.269299152964063,  3.591392549279709,  9.294653883491012,  4.031076188738442
12.544727511276237, 13.898011667161244, 73.754427255998365,  3.978039372185747
11.242269008205072,  6.398345729502259, 82.018685615404493,  3.646819153596114
 2.798586165009093, 14.252177074957796, 16.778433647362665,  3.961785951221414
11.749653291889997,  1.006726190390703, 16.682562738958573,  3.759913292100483
14.974064787723973,  8.176293304645855,  0.042068435248379,  3.692556902593753
 3.111013022784490,  8.680785277984729, 74.696602169723405,  4.131848925774469
 7.606624437270217, 14.201638644529837, 10.959203972048787,  4.136852107071989
 4.919141911574223,  1.030539944864751, 88.504733769137985,  4.246272133823137
 8.145949048902366,  0.513793684347289, 53.400880578887090,  3.838824715038482
 5.649132240521793, 13.640076963931545, 66.796186731166543,  3.968810777770194
11.789025034851447,  6.995948132961662, 85.508677146062851,  3.516611167226664
11.680053339199626, 14.064701194395244,  9.488966997248861,  4.348877548242360
 4.223758366587272,  3.484714820894293,  3.236871725512623,  4.057165327909221
14.951949625904010, 10.407304655122717, 20.702507421755964,  4.027558267131052
 7.978079711198060,  2.000236468416212, 37.689317154346462,  4.274470164968720
 3.457693109899935,  1.652411252384667, 51.862101928279444,  4.103259807642177
12.478023236023539,  1.789540077106213, 89.670497837358198,  4.018920084161221
13.821198084684134,  4.455065314145866,  6.121797284398794,  4.264048313100259
12.276965850325343,  2.495431392463646, 31.890652493884737,  4.040595874477614
11.232211317714807,  9.178775262864502, 14.021930359150513,  4.119999098203664
 3.137860339561064,  2.202187734493706, 57.382066590698031,  3.852748804593211
 3.246379200297735, 14.548117415420538, 32.566912059048050,  4.159930055832536
14.158189813131578, 13.134807599021505, 83.636922266661287,  4.184803050278617
 3.763371260072844,  5.612672118765399, 12.443151318936287,  4.017769000433757
11.491409719821560,  0.687809332110863, 39.464130868694006,  4.011645227670414
 7.713682686234215,  2.181276928132108, 19.301668027822096,  4.260984986134220
10.318449657224560, 12.397455372131292, 16.966042335944053,  4.014240519755143
 5.428571274757964, 10.874857777148945, 10.517183652527118,  3.812136522245236
 9.256027808306278,  3.605921677756156, 34.182480073350995,  3.842217993727078
 0.370015584789638, 13.956735882411442, 45.769488407612080,  4.029038761631155
 8.979580912641564,  1.738638834402071, 45.527949519693642,  3.955132898877783
10.329653941731944,  9.644963306517257, 54.627498611955041,  4.118551714231449
13.823271275136680,  0.770334223946819, 63.969226564154539,  3.892349887902021
 4.529528703261404, 14.185895097848531, 84.770911958220083,  4.064596653718578
 6.328998816300335,  6.448491412001902, 15.801382558858778,  4.063521129507378
 3.555299448110461, 10.619436364414634,  7.042021737622655,  4.010264410086257
12.621246026344675,  1.348409860378976, 81.405715047666689,  4.226667714545720
 6.894902829091578,  5.502357137402902, 24.231225357454523,  3.806072264753743
14.091442449788897,  5.134523523450531, 87.799979765402526,  3.913859597532902
 7.818307546917562, 10.194259889775781, 34.166559276047764,  4.137744434692867
 2.702852984923173,  4.961343156852543, 81.106304257956566,  3.972402221001395
12.419080040588307,  6.916152736247463,  9.364572256719084,  3.781043738267982
 6.968235163817074, 10.546660875726662, 38.357998712354451,  3.848598682166085
 1.138024314754194, 11.542423102097889, 35.005444016144587,  3.918450713751527
 3.530411122860615, 12.458008577356992, 20.698520583418535,  4.210087043670312
10.928772331943001,  1.995576019218936, 50.753847095076473,  4.351005201534645
 6.981522415768319,  4.771271655615452,  5.901125224302445,  3.910351391435392
 9.543105125869561,  4.119023395227186, 16.196461866193033,  3.911440223737277
 2.320105401277248, 10.872897443514052, 84.677814226827365,  3.901283591532947
 4.906122971760277,  6.191413107458610,  0.226493699534567,  4.024120208249860
 5.545478422482340,  9.432617358815399, 86.692454886406836,  4.029715640724511
 0.435942294413141,  8.505937594132895, 46.421436638933706,  3.762816011033502
 5.525028005329718,  7.647858678791133, 78.029256970369076,  3.869071246994074
 8.363136203562421,  6.076594582251174, 20.632579932093442,  4.038552982944138
12.866112704450396, 12.320819058329224, 23.129601846048757,  3.411214469515198
12.143822692013083,  5.265000372071915, 70.097867642257540,  3.996460520748324
 0.864293630416989, 10.748219104151904, 89.757968461434913,  4.199092431334729
 1.502181692540437,  3.144111315692591, 47.547389281964328,  4.167615948446167
11.965565476140833,  1.307179064352080, 35.633752096509461,  3.783596946503477
14.423485227011193,  4.221843251599108, 51.351984148808555,  3.974506506437581
13.841620197478710, 12.922549606948124, 26.824003053334380,  4.135946349544260
 8.521425437239266, 14.999775941433960, 90.677292645568116,  3.891823616842393
 0.548299719455327,  9.651758202074877, 59.989605427654801,  4.049236717758793
 6.436308926530398, 12.958085050414994, 17.834874075222324,  3.987767973237678
 4.677684405369759,  8.890791736908177, 35.970369726156711,  3.520265659653273
12.725695354078830,  1.711468535332034, 46.946098435434280,  4.033977785050636
 8.727475977072435,  2.156241480790092, 57.042808395012948,  4.076791287909701
 8.737489045036872, 14.822440795508196, 76.962289446599158,  3.646215081107553
 9.800022214984999,  3.294404894407442, 83.651437706562334,  3.909341659842291
 6.411952916809825,  6.045750670728713, 32.457255850520689,  3.724152780714466
 1.344222721012569,  6.446122423989896,  3.360504552303603,  4.116134120526802
12.175280069860696,  9.618213122261482, 25.376887478502997,  3.740180291587840
 2.755035060252236, 13.076444717944202, 60.309036298233309,  4.101794988993369
 4.726833050156489,  1.550197695948008, 81.529145106461456,  4.004016346403770
 0.590963783802041,  1.937738519909196,  2.962714197091621,  3.724637901160823
 9.686644117649143,  4.551243846440830, 47.960445660865773,  3.610860250590951
 1.737324394884581,  7.880077200188053, 87.052144910474738,  3.816632389448662
12.207954679112776,  8.342509009132574, 61.983508495851289,  4.182178541907548
11.024748538047371, 12.886630858272795, 63.750442268531486,  4.175395084879265
 3.458680766993061,  6.498942070549570,  6.961118483307257,  4.215359157407239
12.703101400467217,  8.549455691049353,  3.177854456714400,  3.805357723965254
12.377100721026880, 13.338754661324323, 42.893436774469706,  3.871021661069624
14.392794593028503, 11.391150781685090, 40.361506213555501,  3.651406103335992
 4.876880936764446,  8.680941148191826,  3.598271756639535,  4.224755449041889
 2.571518869403661, 12.688209661473227, 42.535530214490514,  4.139895835739538
 5.594797466919922,  9.754416260619891, 66.772102505569293,  3.751980928572967
11.534792077166610,  9.913578299802948, 93.558788356807426,  3.982669082020756
11.431197399089646, 10.044351676365713, 83.262810090475085,  4.063923113372838
 3.601703665636985,  6.262682294975462, 45.923372476951108,  4.021540369534007
 2.472617573906761, 13.384215605846316, 81.461000636689548,  3.810684245635491
 1.267522392264227,  8.473903431036874, 63.819107483742783,  4.082456939431145
 9.755484698397463,  2.642075678957180, 74.772528201225029,  3.822469342203006
 2.494220642295119,  4.838293031895873, 54.046473611372740,  3.849609247356695
 3.092027672412125, 10.899233555593941, 56.946636557444741,  3.819505720983330
 2.312555626937039,  6.262856249113714, 16.096026349047143,  3.894624943684008
11.905161327742656, 13.296046519771252, 91.442227845237767,  3.822006009113009
11.338035787293846, 11.701447470734831, 76.646360359212920,  3.657118811835338
 4.644550693337830, 14.197862075298980, 55.095615752381839,  4.294870275015810
 4.791630990729566,  7.762454523289259, 42.487863126252869,  3.803140810950166
 6.326763788012856, 10.407099362626761, 54.693579049417409,  4.011620515376730
 2.813910636041285,  4.686636419478007, 22.715698746764275,  3.913073616659061
 2.140134209993603,  5.832052295011846, 37.331906694621303,  3.594106367403489
10.092404166483206, 12.426563537621764, 80.240136691440753,  4.083665913390281
 3.210004682890032,  1.898191651194699, 38.958541275985532,  3.898692082926391
13.869684793734143,  2.635169954449850, 73.518794899394706,  3.994598237622158
 2.304985779216298,  8.597958833784515, 10.257599332582204,  3.931807990328180
 2.990625885683905,  6.507462513657510, 33.843547333362309,  3.697752393404063
10.168873418782065, 12.036189610370357, 39.961560390657525,  3.843545533018905
10.809087876896363,  6.954155994545442, 66.743386550090847,  3.967796170756423
 7.699830711472266, 10.825719610999732, 83.849451772400968,  3.621775297213548
 3.214976973110997,  7.209156978795664, 30.068012107666569,  3.992684649345382
 5.587659764815805,  5.441799752879777, 57.873712049380302,  4.250418533359881
 4.868446493068433,  2.655445585197783, 16.300861989661637,  4.051781751435820
 7.620142576815853, 13.123569465987121, 87.258978369459840,  4.086930609086131
 9.278531195163351,  3.657204190158149, 26.636080598999339,  3.827369301322043
 8.295637339392130,  8.782387013529036, 26.032747302314423,  4.167631612730404
 7.224536841716730,  5.184591711783420, 44.298512194118395,  4.149598265703201
 0.346529424460637,  5.685113736214920, 60.810358474772315,  4.060799719856863
 1.238921843396429,  1.464389080795331, 83.278561947870386,  3.773944448684299
 3.331654866896474,  2.778666366887824, 61.333967677436156,  4.127562061024393
10.267581126481302, 13.910461343707921, 31.840720886276731,  4.216882063782974
14.697106417764799,  5.224438580200107, 30.050520021437311,  4.106727647775533
 5.468436978800713,  2.354447642851097, 26.621567525085808,  3.756025755761915
 9.489369553499335,  3.064886874322710, 22.852729641637417,  3.764888176048411
 7.999173661871469,  6.420790472624579, 85.459942295539904,  4.119380904257194
10.454525619516808,  9.025551028912409, 37.478981500109548,  3.959117351125171
 1.678226056322028,  7.409519656256732, 78.224718028426153,  3.846638706561786
 2.119533932294426,  5.175932854836934, 41.078609817045496,  3.961397109527931
 7.501217927627765,  8.619735731329765, 51.404046434159397,  3.820153612876784
10.263443379942604,  2.925704617688786,  4.728742886739862,  3.957542499579815
 3.266485956357871,  1.667812215299740, 19.864511392706390,  3.952772452743768
12.488354573411767, 12.384444478048044,  2.947347950111177,  3.889925015160677
 0.776925068057307,  3.690528190861144, 69.825873404825714,  3.981824853518267
 4.115237219261602, 14.616688031364093,  8.777359382731614,  4.056012840642676
12.352305386095349,  9.053539360239387, 79.357116828818931,  4.176512516578125
 0.108269211937376, 10.600870974345565, 14.606503613514938,  3.808186122288920
 1.257990836858651,  1.577810390731545, 79.275575994173124,  4.203793643550892
 8.012396235866582,  8.958663717323391, 30.193391608402610,  4.176711657563971
13.323256503781325,  0.238902959211003,  5.714703353964840,  4.200946045692666
13.331756495256563,  5.282882141937728, 91.716229466418895,  4.043251313258928
12.023304889086493,  7.705575427183158, 20.932473253495303,  3.944139782903501
12.930532165648097,  4.733762433934256, 64.019778510826058,  4.223402900732256
 3.512687271911894, 13.348813743121774, 70.250658412444196,  3.900289780202915
 4.741492390693635,  2.100944105800621, 92.842924696202019,  4.186661879122460
 7.112826102140121, 14.100036294712570, 63.074570334681688,  3.992891500275180
 0.451204016855239,  0.901855206078757,  9.874285158470993,  3.900341271154303
 1.123360552862633, 10.618923493914147,  3.081022814224065,  4.240729388090865
 4.836413964609657, 14.795752503345964, 77.721294279675959,  4.296964233371376
 8.865512326890981,  1.992341572797802,  8.325137044904006,  3.980998774760995
 7.246200704224574,  4.074586487698996, 51.338379951807994,  4.186910660913986
 6.275860108694145, 10.246321391982329, 22.806063310796471,  3.961544746851720
 8.574736029280183,  5.746176474927934,  2.183574345831326,  4.334861037801288
 9.690940883769397,  7.781946292574081, 17.375647635766988,  3.772539691322731
 0.459890295201723,  1.047447903372398, 29.464597860718182,  4.473239212012074
10.365143839486525,  5.489095582945355, 88.453083473473356,  3.684388403312183
 5.986345923582101, 12.774273089869034,  3.063387117294200,  4.291637610985788
 6.184286675675114,  0.917314365753627,  5.642883728516162,  3.894703042798925
 8.412978125548221,  8.739822375026538, 80.554755914722463,  4.035829767581474
 7.617497037807313, 10.120834586734171, 15.274499577542464,  3.747897106943920
 2.648021478224835, 14.288291224175792,  1.033841586117530,  4.057627778051145
 6.953730463445117, 11.107037872323527, 70.217481043464275,  4.103287198084023
 1.082932754332494, 14.088655010992222, 56.926170790693824,  3.711281369127166
 5.688535057467902,  3.072506531971721, 47.562688799630550,  4.203522232549203
13.314223928829207,  5.616714842088592, 47.798546609585181,  3.951148093227945
 6.268141157933390, 12.980357902240979, 81.151581572769388,  3.841139324329184
 9.400816594463590, 10.737191627625400, 66.915149847008294,  4.094791289019522
 7.009291747634352,  0.431168993707689, 33.804973089553719,  3.962592536639238
 7.000001466213276,  0.114601233808093, 70.267267107166120,  3.940254547620310
 4.998448781580955, 12.648751482332406, 35.673321209170751,  3.890328867435684
 5.308628394448585, 12.936482221366681, 14.023252316670767,  3.924499129298689
 4.743094702168644, 10.411086311105839, 27.996294832825949,  4.201008771398458
 9.405086446011271, 12.804401929246177, 45.398527619551608,  3.974845786809660
13.876439545503652,  9.932831653577075, 69.535536225242780,  4.220430682103755
 9.486172879084663, 13.166908302745918,  0.571937415218325,  3.912545362222739
 2.002086218891640, 11.640190383033072, 66.555011299965457,  4.323911388953510
11.901748505919684, 13.420508349777908, 87.539254807513274,  3.963757345574702
 2.494502165524662, 14.004089243962925,  5.090763404127050,  4.078829012386096
 1.923221931280295,  7.168879286192784, 57.149810677305169,  3.971609896017510
 8.838819178925291,  3.561955450214895, 67.911134904755812,  4.191969460774825
 5.927995546080002,  8.035895389705280, 90.950811162393720,  3.661815881257030
 5.731900613057589,  2.160398496920061, 22.821751686687708,  3.807769523286933
