BANDS
8 8
NANOPARTICLES
cell(1), 15.019
cell(2), 15.019
cell(3), 93.866
 7.390746413612191,  6.110533236341466,  0.901238192635645,  4.364124820781411
10.893489128962939, 12.735602984368965, 21.279658367105842,  4.032058769184649
14.577181204470294,  3.022259407200549, 30.670522689854565,  3.741735977491528
 4.894237591793940,  0.432276561347911, 49.148809043098403,  4.205488994030549
13.333158154980334,  0.989542947337162, 59.774374947058014,  3.815352575849303
 5.190726642810315,  0.566346055778079, 63.730587248199242,  4.159779613192549
 6.961951369462119,  3.748263926972165, 41.725386606506774,  3.836890455016891
13.253887980895749,  8.486743163048390, 35.254552312266959,  4.043493604726375
 9.626015757599948, 14.368311307757706, 59.007988524970983,  4.382855436217148
11.716466887364097,  4.279304095660942, 32.906637744416848,  3.919758622338852
13.083914966895756,  3.853089795133427, 16.840997021747800,  3.759334693894409
 5.889407545510024,  6.823229381867037,  4.600353127660483,  3.741158148604135
10.518631967574882, 10.145022961853483, 63.443543042796641,  3.829789756539048
 9.325650693751832,  2.412184094146105, 16.188877343156786,  4.298616706618899
15.012863018789078,  0.262174184442933, 84.877153785553361,  4.047795478669053
 5.814886361391444, 14.528632921610205, 30.594417270818507,  4.232619595673138
12.576626503257476, 13.669639998743216, 87.691632225099198,  4.044592055307403
14.946387986379250,  6.568009407718136,  9.626901513847320,  3.863031373133608
10.132306566370167, 11.551044069126105, 90.069500263171804,  3.975838945124273
 8.130236491390697,  7.755877215144785, 91.088450068086232,  3.828351177083953
12.299603545692497, 11.914616277059618,  3.915362712658121,  4.115650196803759
10.349237090194091,  1.558808815368767, 86.342471398968684,  3.744171841335056
13.615941784534890, 11.332702251188289, 66.463156218154069,  3.989185203745504
 9.453924556472209,  4.756954648462545, 64.113966771962509,  3.921826893548672
13.167313510887126, 12.525084870006538, 55.911626477018530,  4.592261607022902
 8.555230178508364, 14.212540766618547, 51.985784302517629,  4.391332525216977
 6.543915147296317,  1.883269574257495, 83.609405901836467,  4.456622851981816
11.692278606482031,  3.248593777738186, 79.085562563463242,  3.792230053382879
11.838132502936016, 13.786444064794102, 48.473762008998150,  3.758730526674814
14.148157708697029,  3.495171207318895, 70.239337749115421,  4.037426143963910
13.525132243983784,  0.915364341065924, 37.466933008444101,  3.711030179848165
 4.643516726353164, 11.266180753449063,  4.932228457782704,  4.062522788665647
 2.565063190103001, 12.137579597893817, 66.525272649626572,  4.107479655164775
 6.549929390934381,  8.733873075898916, 35.151797213535730,  3.967844425364201
 6.722480049612151, 13.283619627228232,  1.881349323408573,  4.256831732526114
 1.152887080582887, 11.668233283905803, 77.938469712615827,  4.209921231629276
 2.778982305305115,  6.116785708931570, 25.804197882583853,  3.997785268965389
 0.267752503970029, 14.429529139950453, 52.850732544923197,  3.760546837163493
 5.239347766580481,  2.650487426872524, 17.286163026889120,  4.098239428307491
 4.770009152077811, 11.463188568258666, 41.954457445674912,  3.939868547482396
 1.878672950663537, 10.154752146095216, 17.098851215667956,  4.194625311260024
 9.998767592335842, 10.075689895388054,  9.362262992690114,  4.384479940417979
 0.319033238421880,  1.236488478944539, 56.275994661912385,  3.983833236869384
11.900410616046758,  8.562891220051593, 92.215446272339022,  4.168799191995196
 2.405967331828976, 11.773239869072691, 73.942801605564654,  4.110728981186019
11.007871509627270, 13.646235765929969, 16.974212862538000,  4.008837041877614
 8.303863151532633,  6.244682692729200, 53.616280421544943,  4.128664158054630
12.625261520394865,  7.370861568202702, 85.412713079253464,  4.055871632867805
 5.195164236332984,  1.417521452278642, 21.971621309633449,  3.999846137316149
 6.645172765265091, 14.082093014766100, 76.019477082653566,  3.881178616516531
 6.377105335872602,  8.255017433170421, 48.238343049302323,  3.988899868772401
 7.833084781907001, 10.796794012629865, 59.053487518513620,  3.503365905206823
 6.464928580222026,  8.373898345744028, 56.678896458935441,  3.643763635196554
 8.163594557546416,  4.704284888682968, 80.513158794763939,  4.317695509445787
 4.480736880111424, 13.559254798907112, 79.645156973097841,  4.166119745286602
 8.121255608468454,  7.688071529763158, 87.188540809220882,  3.928906351499386
 9.989925962041719,  9.543794503092039, 55.466893625429606,  4.127395409892942
 8.745827888922577,  0.849515807104418, 48.297097839682074,  3.685834723054762
 6.271836264814687,  2.882537729063618, 70.214348102982626,  4.226764327334985
11.257374876827040,  3.867879032116743, 47.324042417548640,  4.362134390807127
10.400266481174301, 14.083277731821340,  7.827713719966976,  4.222649515604342
 2.449852425318238,  6.809177113336482,  6.539166074908854,  4.122764603559098
 8.449814365397881,  1.491700158792378, 55.534911682106248,  4.063682276219766
 6.219862304179004,  7.658505828560102, 42.353990744890197,  4.216622735585202
 3.107994607784355,  4.448000660728345,  3.408135749749975,  3.829197942437179
10.346444863862747, 10.477168228646912, 13.492072003004491,  3.883922702763750
 3.271650081618942,  8.154054634932070, 11.563308663878271,  4.349422144950268
12.191030107061392, 12.563400109296500, 51.934461292810724,  3.587022646270673
13.422277329893744,  4.676021589292124, 36.522033770669438,  3.983695647745150
13.674006291758532,  0.726570387448720, 45.550766994562146,  4.158423708761567
 5.611141182844531,  2.285028715443048, 38.197166581423893,  4.249326820630936
 2.602177043599307,  1.413329004307328, 81.954621232487895,  4.092308417169296
 7.821808887700032,  8.065668258385163, 65.010900542460476,  3.665344659969348
14.397843713844777,  3.426299930105272,  3.434649994879201,  3.887380968521739
 8.305865616383684, 12.993443718429525, 11.557678950556232,  3.648482397282716
 3.208051627355468,  5.000887589821319, 21.877169681761597,  4.194641553018279
 6.691836866263013,  2.071538292498190, 45.269194252987134,  3.998148604985563
 9.719196008609311, 13.390779017067450, 30.179574353869729,  3.891842384786841
 7.316717559468861, 13.135868914519358, 15.301019867890600,  4.086933005011753
 2.780126944884870,  8.338499249760268,  2.715512934219876,  4.088113810877050
 4.860649625873061,  6.441788366051608, 51.466828084542257,  3.963264772578648
 3.090329822453945,  4.172302840970220, 35.508578411880258,  3.973917879537916
 2.480480790169235,  7.945083923792827, 48.720752180871543,  3.870239055248820
 7.182036219655211, 12.592577991021445, 55.713440178764472,  4.175844911699623
 1.782883014392561,  5.935131642841700, 29.616294137034178,  3.883199870848679
 3.685668392943929, 11.538925810982354, 49.921858253554518,  4.069113384047386
 0.484713042665462,  4.979683871311817, 55.699505540379043,  3.572658693967230
 2.740086005750665,  1.269349834712086, 45.680915403394302,  4.085269828339680
12.779094554976412, 11.754577600039148, 45.215117631347468,  4.043506244512947
12.909973969781346,  3.240799239557630, 75.189057866459663,  4.172550077522053
11.571178991281997,  3.686517884159665, 67.222113722362380,  3.897598470324413
 4.544755365332287,  6.825591259384778, 85.794129496372534,  3.935889718015488
 1.494371805496411,  3.428110287801947, 18.554551308706017,  3.914104495687699
14.658014382842785, 14.698887560883655,  1.916382300568966,  4.158194753397118
11.131111611936721, 12.496908727377864, 82.415644800374920,  4.134442474929296
 7.075204185812502, 13.453176240720678, 91.729805821580101,  3.813777825481530
 5.189767535972518,  7.728001496872685, 28.638833140302211,  4.052238160911893
 7.051672280213996,  6.365901772395831, 72.566489209174080,  4.312149284870947
 8.445740858304926,  7.426111260240738, 61.046982637953860,  4.412758836453972
 5.258631345638725,  5.304780001090792, 14.081785441825939,  4.209980207637186
 9.937686830170332,  6.032158488901319, 22.967222567458485,  3.693130071502022
 0.507730045152295,  9.098195801415869, 27.561821145223522,  4.033749007592874
13.758028909318023,  6.869906867220696, 48.703197056900571,  3.847468605342115
 9.909035002139325, 13.929479091076649, 26.174787309950016,  4.071434722687676
 5.454840893581059,  0.704815981371765, 34.460070167597372,  3.868467101018354
 9.934971905218642, 13.762188508464769, 65.875067686668856,  4.074371482898450
 0.958200145956731,  1.606214253047404, 73.188239573084417,  3.821960016238602
 8.398004238038446,  1.604746200806034, 93.754217770236124,  4.149884734666048
 5.371875224594117, 14.638926035493720, 67.901551757212673,  3.876240559561885
 1.842181368273507,  6.808210789263194, 62.228141271925175,  3.701674196718983
11.222756917365068, 13.569378125711514,  0.008236998705878,  3.999406040136416
 8.505318648430359,  0.665508103822181, 72.621016830051701,  3.666352336212102
 3.900799195512012,  9.001448776214263, 21.480548383607363,  3.956525929439168
 6.277955576079068,  7.152319240650077, 24.088008620267601,  3.828098491512170
 6.043733028268770,  7.745857351117370,  8.412414100172834,  4.071024349383286
 9.933905634717780, 10.026719759492364, 67.679742872023567,  4.178475521630945
14.105302002872980,  5.290418905280308, 90.992777485504448,  4.080635665747585
 0.832588057313259,  6.619496633140067, 52.169646684625398,  4.215426313240234
14.863655786714123,  1.269962719902744, 78.440769982897891,  3.764846477591970
12.416453077900281,  8.799903672522706, 51.807856911887733,  3.938858657616719
 5.248848321118983,  2.389741194101465, 78.783035891954839,  3.859171543345622
 4.644176189202781, 15.002839956635679, 72.697168706269110,  4.038017806023935
14.359072836642994, 10.340809493069161, 62.677338965233801,  3.965470396618598
12.817207263124377,  2.619144623833070, 63.517058677569509,  4.134684132364081
 5.423438568072890, 13.396749870518461, 45.223948065326333,  3.765649124643661
12.321054950694512,  7.304612623872930, 65.612390232958120,  4.159383381104752
 6.833650829956182, 14.530081345197761,  5.807948805446571,  3.935158450094430
12.519991528608685,  7.694491839366209, 15.560931304198848,  4.295268347898369
 4.899076593930356,  3.728522772301048, 28.266738404825549,  4.001447691067325
 8.569627274631019,  8.858618268246708, 75.682182051647189,  4.177005698475357
 0.255178437499768,  4.661647173066395, 45.603852488703311,  4.319473242425819
 6.301732416654717, 13.252305360021419, 38.104597061816037,  3.961241367947223
 2.500021971814835,  3.433040040074611, 89.867045589228809,  4.006574370135858
 1.252202267552503,  7.434456180341901, 83.583341779881692,  4.082499281876173
14.256368661808255,  7.268714517701428,  4.027530768747853,  3.731487156044163
12.596305336445846,  0.953366284817786, 90.990467887555567,  3.979478755732833
 0.319738110057796,  4.698814578274574, 66.565300068352244,  4.013442941329915
13.929242518124509,  4.386533555550745, 22.677000232274455,  4.551767644010231
 2.578945434219619, 10.331718812025414, 87.521184153767848,  4.461745002503834
 7.544264946084251,  8.176567143819707, 12.067994178917790,  3.843899813772245
 8.596564220978356,  6.237937566801111, 27.104038594715941,  3.989791557113915
13.164582284300463,  5.832955658805250,  0.824652058062074,  3.618357612938412
 2.251077290787073,  2.806224244310212, 53.064741400894846,  4.098812484327331
 0.775228167404952,  9.596838208205190, 69.518585204634164,  4.218303023865308
 5.967380714730997,  9.531197104452424, 38.888514135873514,  3.672207884302662
 7.089976545490461, 14.775650627465508, 41.903737739268060,  4.134714807082259
12.582356492594196,  7.641348279765493, 31.373770410953117,  3.669982127221334
 5.332434091741940, 10.297669043207215, 31.784208913272995,  3.831752645715208
 2.305514109081834,  0.147536010962426, 36.815701276625560,  4.053622702605849
12.836802467987697,  4.928841031724829,  6.736497732702688,  3.969012214031872
14.624798486119204, 13.252934060280149,  8.429169322516653,  3.943331246459615
 4.686840995032258, 12.002237886588535, 12.230320070107311,  3.945512762639666
 7.815192572803452,  5.870330394462830, 38.548758987334288,  3.925608288252333
 7.917024710155512,  4.007236242428752, 20.199093936661775,  4.265239811771996
 2.497209141434995,  8.181885666042200, 79.710973586567178,  3.820288610039813
 8.646093622700104, 11.045072145546046, 41.287058051479953,  3.941847459793088
13.497170277318393,  6.657629042886641, 77.469051429242569,  4.032462092430729
10.887771458716369,  9.996585756287420, 48.324699896627074,  4.023909432622251
 3.166244565518610, 14.888154161153972, 40.767358670090786,  3.973354087230401
 4.495307922139000,  9.258934813727638, 63.557363644009037,  3.975530871860055
 0.670882984267541,  4.665981361922255, 80.317467365291279,  4.147666862984126
 7.080372657475198, 11.324593047026450, 27.782675378743551,  4.251412770359779
13.473264796160455,  9.782208074158438, 88.590503177377755,  4.100010330594663
 9.507695772163341,  7.168391860340635,  6.311971024672098,  4.069158052025740
 2.679573332171205,  3.922971530522149, 48.993866564895363,  4.022459953049847
 4.517026639474579,  6.476324637850776, 32.473254497773340,  4.095709280918755
 7.772248970133719,  8.202358805626314, 20.529296003536153,  4.136243193514458
 5.540517351989383, 14.962981927388299, 26.352975506978957,  4.114044958980783
 7.137090161585932, 12.885493100032239, 82.607282238335827,  3.887390076368229
 9.028578929118799,  8.990615603401427, 32.036974824511788,  4.005108430037303
13.462669321686057,  0.707743482307081, 14.598049287224045,  3.989089236987453
10.224207095919162,  2.371511827473847, 35.964461360381939,  3.877527816337385
11.883421064951273,  3.106262802107176, 56.859462225461471,  3.927269842876006
 9.566928695873020, 10.375668954137737, 37.371974374216968,  4.200551368025342
 8.734461100069048,  0.576280508310207, 80.205087952530207,  4.006926504951648
 4.992518534744067,  9.291625495731914, 93.191482499912837,  4.175121309885199
10.493169616405536,  4.410130575046931,  3.486322781220307,  4.058086430578709
 4.245035673989084,  1.041068050225092, 93.461802441125599,  4.115502227480802
 1.145527020332108,  8.944566362450070, 91.519477917930914,  3.989144607431684
 1.176550014964636, 14.961964549548545, 88.636877919077278,  3.831977435083341
 2.972747533541377,  3.024398695031942, 85.796455305300199,  4.223620844346733
 2.107951138568590,  8.381248588786622, 42.209827059975382,  4.127641154710636
 3.523179561136633,  8.379522922571061, 72.246715201940617,  3.787059922430556
 2.744573269081273,  2.328982941068411, 24.871410033041791,  3.795825123048949
 5.475303229142783,  6.334678372707939, 77.411622833338924,  4.502408456573761
 9.412374759702933,  2.938712814959047,  7.050956925845547,  3.917674798614461
 4.367956977095607,  9.688485585557059, 45.305413168600097,  3.562819079472444
11.930215062694126,  1.553288428969284, 19.880941918469446,  4.182888624775882
14.539158877701716,  3.991281706212650, 84.019931929301663,  3.655772713181097
 7.920707410789407, 12.786899865158077, 70.180569533397772,  3.896535221070282
 0.942188150574202, 11.815566064654403, 21.244387223457252,  4.094000097563433
 1.200144930427404,  8.453093621208881, 65.627057025017109,  3.923700569231087
11.661792260613627, 10.613000297634029, 59.616377149095023,  4.210968007249948
 3.828046418035976, 10.002606536836954, 25.381138753255449,  4.090525569200349
12.495603053816772,  0.210020670115862, 32.236132209736127,  3.918042119852085
 1.225087234747256,  3.357330731174510, 38.702535956587738,  3.593552247720107
 6.703990687492245,  3.860056620659419, 87.385044958537264,  4.048756491913859
13.986748089397347,  3.240792575081291, 50.549902500439728,  4.131040846206112
 4.087613261869095,  5.541682482780542, 59.145173632361441,  4.014824381354464
 7.461949584433655, 12.412685993293385, 62.471344708436661,  4.012564092028037
 4.284393125375558, 14.155512801653561, 53.121891578737952,  4.201306437497448
11.673502432632240,  4.843967420700449, 29.085925487707730,  3.781076425739566
 4.305495604084830,  5.824681095466070, 45.732776415912497,  4.103054769030606
13.007201692531732, 11.344525859789334, 25.173632394811801,  4.227062162838465
 1.315496193107302,  2.746165167100235,  6.952112793120190,  4.256907978263963
13.791227209807403,  9.539972941459320, 80.844051773670714,  4.414987000695122
14.150052751920111, 12.302234036446716, 91.596330713690094,  3.837849081407444
 4.808794964183040,  5.017750078193211, 55.129750545964548,  3.788275405805150
 8.429394274182982,  1.876510486209598, 28.468777538700213,  3.970403098190560
 3.317771523882080, 14.252978177534938,  7.522696302087052,  3.887287438216405
 1.884550647558895,  3.051750328453229, 63.204030441202327,  4.059116922473049
11.244205097052500,  3.434078456138067, 39.544280244596848,  3.859798993589411
 2.449874116488157, 10.487726765505217,  8.221188496836254,  3.965344249963247
 8.398933684256416,  9.860457449310402, 45.120640302974437,  4.087333073152442
13.566118664290833, 10.347427993033032, 73.072479462996540,  4.295127692843790
 6.731338132506385,  2.803410469338913,  3.477004025783640,  4.118342757377075
 9.827373078125831,  5.484721752280208, 13.463882665112960,  3.708257086628111
 2.769725671438839, 11.046373174320509, 82.432937077055286,  4.082953241883200
 9.337043477471093, 10.039725620652709, 17.255440820245571,  3.926432010245755
 6.917407058630313,  3.436324636961575, 24.888329273182450,  3.881008040363682
12.365920396007384,  9.408899788154741, 41.793101094644491,  4.243785607889423
 9.238470030878080, 13.771903404964021, 45.181264691450870,  3.868423132583502
14.297335658844917,  1.228993677424360, 41.384540497061224,  4.282819220535576
14.054859078710964,  5.482174817505372, 41.592773043295111,  4.204186009247983
 3.893141508325265, 13.851162112294562, 85.300712217727693,  4.248028932156180
 6.419268001975513, 10.628959548850066, 89.135675925644136,  3.886955304221819
 4.253214374017587,  7.154851235208356, 89.761985039650341,  3.996395311317732
 1.065676894475461, 10.623723888992597, 53.099372771606660,  3.997099242155683
 3.323437538041923,  2.711055903205323, 31.814190509093301,  3.899868355462056
 4.549346642868577,  1.394828680454634, 56.526652976683458,  3.973285204319944
 7.865946615401408,  4.914694844145989, 57.670768399109221,  4.078057538641381
 0.296218576549855, 14.489250423155942, 64.138727257815361,  3.978718554565517
 0.239396650509015,  8.734773501036024, 45.695388002539019,  3.813475769339325
 2.243133993479664,  0.908874541729267, 59.784901781209513,  4.042159816639864
 0.776451088565072, 14.916212250380465, 48.996454271653015,  4.067715715485939
14.836883706507724, 13.629269740002060, 81.250456524780432,  3.928188729514637
10.394128751135167,  2.272559560337831, 43.366619545712339,  4.307349490821748
 5.105147565789669,  0.454736593141625, 88.953559429664963,  4.102729596583409
 7.442876496448443, 12.179854673682783, 48.397681513814703,  4.132757383376348
14.902428769501848, 14.232441648223563, 18.084903472626607,  4.121068430105113
 9.717583570127436,  1.783750539529649, 12.007912163393462,  4.192638941388360
 8.137554789979344,  6.319909959616157, 16.821400592604260,  3.931217884915887
 0.336972300022566,  7.175949831817168, 19.622856844153844,  4.195450095836006
 1.933425477614421, 13.959101563655540, 32.255483757972030,  4.175154590726850
 6.358910511197093,  2.901672065787566, 74.960714851430950,  4.094805038106335
 3.062247121322066, 12.605852919553406, 62.077249450856691,  3.872223713801247
 1.742704659938582, 12.354560464095620, 46.000613371110184,  4.031720908668894
12.131689972371035, 13.452804669333080, 11.554480261656348,  4.057847922786089
12.262703766568526, 11.294726109182207, 32.517325799112825,  3.983379067930126
14.642117115721996, 10.261507932148062, 11.132249469094470,  4.106233284568870
 0.252846222394490, 13.437812585735857, 71.023702852838710,  3.863665283618854
 3.500835135128443,  4.386964381410996, 72.688130989724328,  3.772780950593615
 9.854121178143497,  1.093385478994774, 76.516886279573299,  3.755142311806260
10.677810295464388,  8.391499044147158,  2.414230160473041,  4.183357603872866
 0.945767776861276,  6.379683115709696, 87.518632511818168,  4.083445349027436
12.228860005331770,  5.271151269933843, 53.580287545391073,  3.958221914830444
 2.602689897148982, 12.360024201712312, 56.532835184040998,  4.053435514124834
14.327506817437312, 11.206316003347006, 84.785225641686395,  4.194051447539281
 9.825902216043186,  6.760867600043276, 35.368863358234030,  3.629811355688958
 5.461150472753086,  5.217730382267877, 63.308653142802982,  4.274583961685219
 3.024584690987019,  3.904068710700129, 10.713760416965501,  4.309852313549467
 2.435029439714462,  8.448101084511524, 35.553092650264006,  4.319068947445450
13.893347327068925, 13.977662221850972, 75.369727060449975,  4.060049379745190
 6.992917728231771,  4.306513050925023, 34.869786246950412,  3.931125295072893
12.142105404537737,  2.363912383158438,  0.637073231825894,  3.601058594190443
 9.437498902848816,  4.951791523185054, 84.541163016499667,  4.127797460758607
 9.351843246717680,  9.485658291930536, 24.890952520466296,  3.955610299409393
 6.372618251433001,  2.460507217270384, 60.405870235277739,  3.849010400200147
 9.829215852838852, 14.879238587209034, 38.945585769655736,  3.888341872703683
14.971892193207825,  8.318730083765736, 38.828141282619356,  3.889845729419241
 9.795483438794790,  8.518939699979281, 83.013033127556540,  3.656011215269935
 6.240023299290709, 11.767912132882158,  8.589662617504395,  3.980477108571018
12.399350263276506, 10.451716406677763, 77.008390548688027,  3.916736371339335
11.403502073952753, 13.574308188166501, 42.113902621656742,  3.650717917256032
11.972929365221299,  9.023661369958340, 22.086828920066278,  3.753785608136688
11.705975543632201, 12.478012583779583, 70.202988515409615,  3.696919439614302
13.222714854325929,  1.842388463824120,  9.624001396678006,  4.057942986050175
 2.850924410706514, 13.719128482251804, 15.314511472261767,  4.010361510161521
11.963605824613571,  7.719258485575183, 11.733775377216871,  3.370632088191159
 8.663952047292797, 11.022364920404520,  5.493929122822091,  3.986343206907487
10.445695072476187, 10.680245566480556, 86.084618283800197,  3.962560631417166
 3.755665411910544, 12.111420366805449, 70.262350029578755,  3.715799357794465
 3.774907917952047,  6.275745401153640, 38.962158345791593,  4.173400762296756
11.188731961443342, 13.594860222191862, 35.533286402654547,  3.885328124840854
 3.679075298127487, 14.515473703705904, 18.990775168655475,  3.678962214366020
 5.321729936783138,  3.908267024057484,  7.173581193424122,  4.095516564081874
 9.379655249895070,  4.984982578504929, 76.550561086135318,  3.898755473573071
 9.994694522817182,  3.012559481802525, 51.182561287269579,  3.917916794272310
14.706218667493733,  3.756835373482836, 26.857308328791259,  4.023376783041990
 1.870071911386502,  8.174831703390931, 75.830762554855610,  4.025535800963257
 2.046109367604504,  2.643832730118053, 14.632471295735689,  4.147869172893857
 2.284283852925062,  5.971211395380153, 69.591625958528482,  3.593320916479597
 6.676682718055510, 12.314113585068961, 22.784680511644414,  4.877886075185876
 8.204665434333689,  5.690600890114341, 45.372440962965626,  3.698930829019206
 2.493557974381874, 11.450549139539129, 38.588487578230982,  4.173275813443581
 4.207785735395338, 12.095890114819344, 35.000259804266946,  3.854946430580571
 6.167067351846411,  4.032228023315566, 91.363264459479026,  3.972743716444349
 9.588083391143225,  6.624956649985719, 49.854246126360152,  3.814869235939042
 6.231867551311019, 11.030364880017594, 73.167156825588947,  3.796093378667453
 2.706747764295655,  8.156708900637897, 56.095146762380651,  3.963929241906008
 6.252278134652212,  8.918124617047079, 81.202216734005475,  4.319430290589666
13.756479138444316,  2.947198603701149, 87.664923582533419,  4.073583555270615
 1.485573663505376,  6.651577654593985, 15.024905546727730,  3.977876181117312
 7.819028026478992, 13.625231673087784, 86.534539520447495,  3.979266573436354
11.617153683137564,  7.486594954948264, 45.310712507640929,  3.909375456828526
 3.325784871569679,  0.475261810058964,  3.673815094276740,  4.135615557281274
 2.911843526036966,  5.595098374954673, 93.384468173913859,  4.272896786847856
11.318475242709644,  6.302817594053224, 19.346323225389032,  4.075687053143566
 6.681507143057352,  4.262888474819262, 48.646559820979114,  4.038192649646731
11.811789411517461,  1.551373676134602, 82.674998211843260,  4.120527476404851
 9.087976015491646,  0.990713692305596, 22.732235426151544,  3.945946399724520
12.993593157261857, 12.271156047371178, 38.827658945926366,  4.077087012915172
 6.964085358435590,  9.548493692999067,  2.591908492439705,  3.345052499512484
10.503209978743703,  3.794650176467933, 60.453984603741631,  3.879876849465084
12.817092862295826,  6.751275541796786, 61.702099508491067,  3.744891916779054
13.676699400175643,  4.467450572903554, 12.878328409972390,  4.278176199194734
12.193155210979281,  1.102102773204330, 28.525665876624501,  3.684075289596147
 8.754792302763835, 10.583839889384784, 93.560191918937207,  3.772441373594229
 2.011640784745766,  0.781293208182711, 28.480993371622802,  4.186834022095598
12.369808956594268,  7.183311895084631, 69.793951822926587,  4.167540518338843
11.894143478622656, 13.596544895794739, 62.412382903792022,  3.868516004074511
10.064978866736848, 12.620798590567739, 74.514416663201857,  4.141401529138415
 2.901541426126287,  3.750688162903315, 42.276028319016618,  4.336265535409447
 8.505737607042478, 11.726910289199608, 78.776085145395257,  4.250639915714182
10.865012958504042,  4.900981274493172,  9.964972308226137,  3.538370732603777
 4.186028916438592,  9.716618999587688, 59.539194125095328,  4.130364593277496
13.635652194484873,  9.498672227444509,  7.179865842186232,  4.089576429922286
 8.620070657246893, 10.004279922185122, 51.652147847169395,  4.026431486125100
 8.823111445992645,  1.370039451709854, 32.528047521203632,  3.784757563276933
 8.458272253927760,  6.108346825142105, 68.439041943336008,  4.330784837168255
 0.121396328986968, 12.615897535171646, 59.612570540430710,  3.795731792189684
 8.827926833959683,  1.522503208270984, 89.796392314825852,  3.799704278844525
10.395131416606610,  4.823220916079435, 88.453427151439101,  3.770497211757707
11.393305137151954,  7.118947101689912, 38.658332446568579,  3.655916000912697
 5.679967188471188,  1.313994355926957, 13.546962920532591,  3.872808157374365
11.395110000685920,  6.814421689204030, 58.106879981546548,  3.955949865740160
 5.018220031388958,  9.997333922823417, 53.417049594686972,  3.982714563815772
13.372222154431565,  0.447037542766358,  5.567307775644011,  3.711597197165930
 1.627930674672025, 13.492680740548623, 25.008422493153631,  4.184634837678761
 6.426075833874029, 11.298429991495587, 66.255207650593832,  3.800751021672688
 5.265506132158326,  9.258636745388465, 15.006746371583267,  3.898270699632910
14.497825353708796, 10.001986857595691,  1.118189598975103,  3.947193464683122
 4.993972024807345, 10.558607306761832, 76.867936085329745,  4.061021112401551
11.578852362939958,  6.835120666689979, 73.923997935636578,  3.883030491377716
 0.946788879351377,  9.674240244196602, 31.732662608782320,  4.239388666524339
 0.303196519671783,  5.766520069008133, 33.225178362627531,  3.902599821640889
 7.895807081745787, 12.641528410927210, 33.593243456435843,  3.971279114305145
 0.226965711889581,  6.422656985006824, 72.680111777905609,  3.882033076906876
13.847534900242470,  8.342846354346895, 55.438710366929499,  3.908572850111219
11.899987390901323,  0.850098579294584, 53.733270700599576,  3.778495158059705
10.876089467473584,  3.255856115502092, 25.556622134957884,  4.108698230524127
 4.667100822310434,  7.131134349048669, 66.907604942541681,  3.904793992935378
14.710333897783240, 10.989553525280353, 49.282833771444054,  4.093513792323441
 5.522072776240421, 13.709149964708683, 59.249461611311986,  3.940478183223505
11.954530455920960, 13.946704706255566, 78.747112499464606,  3.698588489354104
11.044465291093218,  9.881827131934493, 28.568230862060314,  4.137178227362991
 0.993635210450624, 12.584461106304140,  4.934159773026663,  3.685815821758461
12.869066119284275,  0.212482320980665, 23.752299081344322,  3.991617770930463
 9.979281656664099,  6.126212313149699, 42.032017010956196,  3.861086198359174
 0.189133822049740,  8.552250448439953, 59.175268131799719,  4.029523326772809
 6.249441899031189,  9.310170968672354, 69.718273181912451,  3.858685596223021
13.074650475229618, 10.552291469952186, 18.638336408241003,  4.074907819493205
 0.155574487455576,  2.062859516598489, 34.228393456344158,  3.688417499538768
 8.170943609700149,  5.069541801624907, 31.027996592757951,  4.218064429167452
12.470588733828057,  7.056591320095636, 25.776358477070652,  4.134254825215075
 4.261966927113795,  6.656461885353590, 18.110343080703259,  4.259252927799079
 7.226691672409285,  4.627524707686783, 10.614167678808119,  3.843736654015786
10.296216538538609,  3.999922506773824, 71.530806128134088,  3.950697802063332
12.187514156938997,  5.871117538702451, 81.797736429128605,  3.815307289229319
 1.852846873702638,  4.059701998136433, 76.339319053507353,  4.237042301773342
 1.170786888245022,  0.871535422860640, 21.592460070438587,  4.039073355924388
 3.126325498304397, 11.862439251703524, 28.927293484857984,  4.036362721896154
 0.507738171071292,  8.498596213222607, 23.511199357489311,  3.965103311179245
10.231160339389218,  8.055105119234860, 79.280134388179036,  3.906847345684511
 3.154415534583106, 12.553576964258557, 91.218387420755491,  4.241472026682898
 0.583288429287330,  2.368385353550630, 93.080467447121791,  3.658897116815172
 9.033399443484909,  1.128864236338498, 62.840107221004665,  3.803032764835714
 9.903757736707613,  0.869247796218584, 69.183436281667184,  3.724828281275389
13.835698536966158, 11.746248013462145, 14.846526993976656,  4.010652053413703
 1.820155205896997, 14.881707077546693, 11.476244435977987,  4.256537855409450
 5.668580795084316, 11.167316143938812, 18.532992797126358,  4.156939747122395
 2.808364180948976,  0.062639063436925, 76.258486165702735,  3.976114754123437
 4.319319562196389,  5.192480351550796, 82.114838481744670,  4.050775991927573
 4.066193849587028,  3.182612251027934, 66.706905689657617,  4.072460090519495
10.349852793557725,  4.760325762349387, 92.260304074571579,  3.838876741382820
13.559889356766382,  0.195646997285183, 67.783395440117431,  4.197670697082740
 6.373579214330438,  0.764639688528034,  9.635270495280455,  4.147883569335281
 0.403131146507583, 12.249943702528029, 42.137697659932137,  4.127016840003396
14.102039441773904, 12.703229100436062, 29.129375974275330,  4.223758426652710
 9.636804340612525,  9.565083522431610, 71.764235347046835,  4.056173310740708
12.247723253763652,  0.632867450041919, 72.186767185788952,  3.849599124133080
 7.651775519638906, 14.812794036870075, 19.102897141364402,  4.208854032324375
 2.787196466826229, 12.160860865557032,  1.423625189381500,  3.969182150967618
 0.178086282161792,  4.480361010940539, 59.497249102019872,  4.109014923959807
 6.061875297286639, 10.348192866963378, 85.286389720865188,  3.797047195037976
 0.052497925930237, 12.078109436076083, 35.365135381048404,  4.007229227850861
 7.802546510500236,  2.079789707917258, 66.330476892581132,  3.715375145071101
 2.482013012505887,  1.273306335587597, 69.732032295572893,  3.711766999806612
 6.232843761212139,  2.683068586373080, 52.358468551513759,  3.983441344683500
10.033610148548656,  0.323151285162179,  3.482327205104198,  4.138113046158834
