BANDS
8 8
NANOPARTICLES
cell(1), 15.024
cell(2), 15.024
cell(3), 93.903
14.963853376298227,  6.918920496802366, 63.142087404444993,  4.012525283194710
11.309515871431307,  7.496202879901070, 76.817789290824464,  3.846471050415415
 4.606646703704642,  2.650801432929368, 19.573939200581094,  4.156828143816328
11.280824850059297, 12.836103115792337, 19.282618819021096,  4.158095883362305
11.335137892626253, 10.985653453136317, 82.393041635118976,  3.716453196109479
 1.622994071632098,  1.062891051076074, 22.959812010766086,  3.887654153239289
 9.674217158962440,  8.924800733955477, 51.379577382994100,  3.925835372997417
 6.518758712515338, 10.291704318037697, 61.168155173778139,  3.875505845237062
 6.945274050021830, 10.798961398276051, 41.142171021490583,  3.933667269763533
 0.613868048820927, 14.795934262397731, 52.886659006401572,  4.240853086815001
 0.416599251700870,  3.733270443111011, 51.486818374669149,  4.084633932121291
13.589275086102381,  0.230732407953811, 15.533196056442154,  4.232424111831523
 4.709874451261874, 14.474586165259524, 51.887294333137021,  3.962954049692508
 3.907627327725820, 11.328235208614759, 30.915858398994803,  4.184457531900951
11.258448337384113,  9.119068407604505, 59.670913586247146,  3.772307141301113
 0.550213864165692,  2.724836611371197, 37.920305161056675,  3.764196122373509
13.372247473793855, 13.035175281839122, 92.656261935944485,  3.674412839477740
13.443749613474848,  0.289630004498125, 75.650910932902804,  4.001937871537583
 9.010230585042443,  6.553314660877340, 47.567584185158751,  3.802858766361353
 3.704637215673133, 11.993760602657275, 12.532807735052156,  4.013081460757903
 4.431491079304869, 12.461843957007964, 86.465754021929854,  4.072172617053822
 1.818548750723374,  3.526615778414087, 75.801207410107295,  4.326888289869886
13.199685298750000, 11.977091527255377, 47.716239573362436,  4.259841586286337
 1.137515070307864,  6.964088814127812, 55.763971640572080,  3.443053441074191
 5.529930586796555,  3.701241109215966, 29.381834817582313,  3.921496817531319
 9.941303402322996,  5.677035009791825, 11.777660970934985,  4.364773820861248
11.969981507513234, 13.028946031140414, 12.275925271567388,  4.196308431804038
 4.270886903863873, 14.698384099589129, 77.323296197935491,  4.540351301371479
 8.643459194772698, 14.850756527598170, 61.619384277144945,  3.829961068132854
 5.832944904321177, 12.013424661655051,  9.276882034415861,  3.756947555215233
 0.495448277661267, 13.720656743253222, 88.840221029846077,  4.290580828426861
 4.322985400466738,  3.838647714299173, 62.061935786394898,  4.099400431983976
 3.983982574990174,  8.495243841305474, 93.634725457613001,  3.955289349709113
 3.931908947523657, 13.006055636329851,  1.945656247942151,  3.878692079661250
 5.417592387987713,  8.369497453316622,  5.884147442390773,  3.793792247808482
12.940434269180088,  9.310328130829044,  0.217707358553775,  4.082299625108038
 1.031429308995911,  4.904711299707256, 30.596009459253132,  4.227177364701197
14.358306941874652, 14.981313272426620, 35.690008655660748,  3.729757199883294
13.087396492489365,  5.551059176930088, 57.204236648137552,  3.900088465450656
11.042976165493037,  3.864949924987742, 15.217912396462470,  3.700826918101128
14.232270644739348,  7.212126429191547, 33.585937086412585,  4.002234658351173
 6.395471304609947,  8.220469821837966, 53.683069371396158,  4.016780654008642
13.687935489516322,  5.758640010116299, 39.706646993824968,  4.221015473222017
 5.709769641400927,  6.898267229556954, 49.620888566600421,  3.862487731792861
13.409928450666632,  3.761880594324058, 64.705094232524019,  3.679454995153358
 9.993242819337510, 11.346242279294595, 62.509121627220139,  3.863126203681451
 3.345256196508472,  9.105770732524832, 68.344499456347691,  4.159267859980312
 1.625515930073213,  3.555496789368266, 44.387666450495743,  3.808318955940537
 2.757296962294180,  0.771434397292680, 40.274635022150164,  3.712178246514296
 4.619523950337827, 10.559895762785457, 50.845955603886836,  4.125629702822718
 6.734837819244253,  2.549902230505382, 25.641041889537174,  4.153377583672209
 4.342499451190087,  4.498711688363031, 33.376579115709404,  4.447634473960835
 9.753264667006263,  1.056159750004700,  1.110027168558600,  3.903996367805475
 8.281322438339869,  5.210468042353249, 73.827936063314269,  4.126371268197192
 2.350837526583744, 14.120947478201892, 15.483255070177792,  3.670399805133098
 6.640934378894463,  9.313055595537497, 33.375536022831355,  4.124528744552935
 8.636023710739472, 14.699554226888340, 77.925087018006167,  3.901025679966509
 6.025167468550380, 14.758983982111316, 28.631633025577869,  4.147255812239750
 0.784836068289943,  2.022443826216895, 62.337503094937304,  3.872252810839128
13.451046802168468, 11.785718015777526, 85.668402352546892,  3.977867626033256
13.557202622649450,  6.825136239767252, 52.975090027693760,  3.724422993460986
 3.385639116710303, 10.351382255420017, 83.038967811612338,  4.240588805675919
 0.980300774720261, 13.693483372817688, 64.525024540293430,  4.134559815015500
 1.311565808034155, 14.719061716069170,  4.715312362032221,  4.368666595997253
13.460209728448186,  9.430734093109109, 79.673194179739070,  3.842445282339804
 9.400621979342395, 14.143755421226400, 22.795045421027147,  4.166026067935979
13.624838888880612,  5.006960536762850, 17.586028091510812,  3.602814877365079
 2.756482979007521,  2.963480897788874, 26.289740228635271,  3.946358171093230
14.506480384478710,  4.402410770870944, 24.512121750055265,  4.033839461113510
 5.114892174388662,  1.509461808213873, 14.880229458682209,  3.755277755459745
 6.908013506071307,  9.704654682262060,  2.344414659913731,  4.220843275830620
 0.715214384084474, 14.675819751457428, 12.035050373514824,  4.030393045277215
 2.334970377692215,  5.951713166889473, 41.412192449568522,  3.883876607864742
 7.027990397537348,  1.986407829579898, 36.525467436155147,  3.801669419508906
14.035679860071273, 13.845254827632415, 39.516852521461296,  4.117990765397113
 2.870766065812230,  8.282297021426350, 33.220292000350817,  3.656263434252423
 1.116553431119239,  8.124904757737310, 73.280509353643481,  3.975302474731899
 9.033267129256931,  3.430818677179336, 78.706477849095691,  3.801124566385045
13.591859410471693,  0.750614551555738, 49.398727775842943,  4.077742377165096
 4.296256039294946,  4.873166224081745, 23.060068796471164,  4.123637495027017
 6.751148194738168, 14.674035801335153, 41.695496573975987,  3.870677449112782
12.550042819834859, 13.450898110217111, 79.307480991703571,  3.961040363790847
14.379358533597044,  5.056746124539549, 13.954205140962044,  3.793039250580454
14.864508582743872,  5.593606064903986, 80.695365082961303,  3.995776918537274
14.205752471588696,  4.049808170258390, 47.421542576684040,  3.677621977542261
 7.900347460079042, 13.033876617483706, 12.349738067008968,  3.920064161630644
11.342088653451833, 13.136277962303360, 89.664549527993856,  3.556607467547330
 0.105431077007432, 11.594614476484079, 18.118805355963140,  4.239600831269531
 2.704646602022655,  2.478202552218136,  7.805155187635781,  4.328427598949010
 7.029005469400891,  7.049109302261012, 68.757009012730933,  4.118904161068247
12.222120766999362,  7.795521958045797, 24.427758092099133,  4.040165994948556
 9.089642956367950, 14.455650594571603, 38.582941743434901,  3.927723590770101
12.208828698316589, 14.992477028837429,  5.195576349289327,  3.938814932697285
 5.824963683245440,  4.616688174888163,  6.305524142469922,  3.784501770532366
 9.456428512046140,  8.150266451850065, 27.245364158659559,  3.879416152013766
12.252971925590451,  6.425844799749631, 91.437669012614847,  3.901658245025444
11.592476428886847, 12.372791619887728, 29.267546904080255,  4.086425626685319
11.671696816811853,  8.447035724408321, 30.618467256898736,  4.209442872818195
 0.402314180576414,  9.908941413639129, 65.734769458515558,  3.860257443449733
 3.890100738383818,  9.149290099837696, 43.057367238778099,  3.942932388280313
 8.512631603699736,  1.835817589075438, 13.060351449396819,  3.945690868431520
 5.069034602548665,  0.354112038532949, 11.033260038282453,  3.874001164421223
12.927555271948993,  8.213364814438142,  8.427335041555640,  4.187640861983446
 7.606080430988772, 13.553764599519219, 34.838171830358355,  3.975760266746432
 8.068447698034399, 10.212308627428989, 17.824597418880671,  3.974097653320850
12.760365620791490, 14.510982297306217, 56.179189779616550,  3.849840353993524
10.613792011380218,  0.957513485042833, 65.427136439807910,  4.366644024561160
 9.676079595495954, 14.117034494041921, 15.665453114674960,  3.907137607145682
 9.684533815388463,  9.454770880123998, 91.071584367161876,  3.951216255844897
 9.456929507830555,  4.997908442414258, 66.126866487576706,  4.120471863860284
 0.855543211466073,  3.037062786437789, 55.601275040401099,  4.252592229895582
 7.926644014544650, 13.568299339224795,  3.799412146565384,  4.281299896700699
 5.189897017451909,  0.916574212021279, 93.611490413455556,  3.916967110442223
 3.404547164880613,  8.152335000409645, 79.391156141466553,  4.251346153208044
 7.783113045733070,  7.038623461941107,  8.551523751559362,  3.813000078941992
 0.926161251021051,  4.310100351650220, 20.647175714242366,  4.197820981469270
10.099686873172846, 12.734730114705700, 45.103683683535778,  3.931014947207171
 0.464456266280816, 12.822902340288303, 29.578523941765837,  3.769240252424025
 4.567914354494645,  9.399947462409292, 46.904100005176915,  3.861660421609156
 7.703175156054862,  9.309777016030221, 57.488785166505529,  4.098834303495905
 8.852167210340712, 14.993526885812498, 55.502382764115090,  4.118147751855982
 1.006037720757863,  7.082077124531308, 91.608454573817397,  3.768714919665352
 4.410268977464584,  3.374855907873986, 51.533975184989259,  3.917276011235125
 4.247044163832517,  6.007637295192040,  3.107042363149812,  3.851587948746153
 9.767126709132237,  9.818671725955717, 10.711010558277875,  4.190826029709214
11.709924093395584,  2.396927063030003, 81.051987266696841,  3.601218211469968
13.643579882706234,  8.138703904297106, 19.671833873886921,  3.893946228232791
 2.607507102284499, 13.835076656773204, 26.279752571390866,  4.345225749258162
12.130968734577896,  4.024585563059642, 31.990303820455811,  4.245226472065303
14.586590943908984,  2.072448339425442, 41.598467834704245,  3.677845740909137
 3.891834094332898,  6.236922525971820, 71.165046934450885,  3.951324851115656
13.599782121968502,  1.837446721047668, 86.864506280999080,  4.016323549438058
 1.168080203038148,  7.935917416466144, 22.947014301382151,  4.394677465331147
 0.776817575328270,  3.527615143683672, 89.732059753114001,  3.935417644334096
 5.851232121113891,  3.546309306885873, 76.547197278140303,  3.869884568510306
 4.623666897298151, 14.844168166172460, 62.652957470305253,  3.879669893204575
 9.263790710331776, 11.438336258505048, 71.590159462221266,  3.935569247209399
13.857803396606139, 11.561247852883886, 22.354848863361799,  4.252918202528296
 9.850263772233722, 12.090914756907265,  0.296117280301064,  4.225698208570148
 6.410439936324248, 12.581618798459807, 80.234978841737117,  3.783087460516987
 5.538832917305515,  7.043947186624751, 36.516458863439496,  3.929065736904321
13.075475645221546,  8.346858248821141, 12.472957590383345,  3.859876805122290
13.447958450831766,  7.211722522701955,  4.568504772029580,  3.850899966574238
 4.226239695445987,  5.852135890103621,  9.555954180237114,  3.834801726659395
13.241275883876757,  0.127197359686618, 32.057654518635857,  3.811719828753304
 0.864900232457467,  7.888545262878906, 16.286710307310305,  4.108967883755777
10.200033812537201,  7.218510607543478, 54.983461205046616,  4.104359692762737
 3.417511261719848,  3.981528983314513, 79.679960460315996,  4.107592370019374
 2.622125747174279,  3.343917521177260, 12.320266367290285,  4.269021674752928
 3.329402726752273,  1.059756802674490, 35.836627050307087,  3.932671341287916
 2.270280886191392,  2.284581355732584, 65.938283948205623,  3.919517286756623
 4.635824723560293,  9.125038617544149, 15.217036561045132,  4.058368263671082
11.714920749622470,  4.066012953988444, 50.298975842266607,  3.749393865247688
12.414589335240134,  9.281309433686747, 73.595883422574445,  3.842079858108780
13.850374454751433,  1.804745998288799, 67.989105395665845,  4.014027022017535
 9.126586338868080,  3.793709140741810, 70.078678671153014,  4.048834462937088
 1.239929270289443,  4.822861148961112, 86.014233771757461,  3.991361255250309
 0.384381078299971, 11.135009867882239, 36.781876234650753,  4.053585533003804
 3.991568834997706, 13.574824347976325, 67.173660994340125,  3.888058325774038
 9.471593963351571,  7.071992881098947, 84.838075965601377,  4.350357783337206
 8.291068323859934, 10.501073322678108, 47.968369893983400,  4.061652751155700
 4.238506140004241,  5.183632212588749, 54.968846657098119,  3.846015558373927
 1.938539678346085,  6.504573829470707,  6.347757571517377,  4.150353142553948
 6.300508007540154, 14.319431561369480, 83.658322803352760,  3.456800248157001
 7.932417722064860,  3.925124064134471, 55.701741782318436,  4.013953738415855
 5.757652872873877, 12.073161539138871, 54.989603869355008,  4.150556819129259
 9.877035133214843, 14.141869976466941, 48.788865404816015,  3.949140957476874
13.518899203786912,  9.582663595415017, 55.736082114675312,  3.997507098361223
 8.543254587087640,  4.563728991285744, 33.988709777272611,  4.021868045873314
 3.596706615263331,  9.176849674605897, 19.391187738079772,  4.539711015619501
 3.129659242285475, 14.268511903991744, 81.612092903546397,  4.086548151347442
 7.633073969673399,  6.954689219709226, 77.930573429698612,  3.911440692672390
 0.544679330670636,  1.091961795237810, 79.023121408223048,  4.107541783812592
 9.886960317510475, 11.377270773570650, 32.632012432845599,  3.701277616611152
 9.374119917813085,  3.482747425117683, 62.458277861330238,  3.813098204924164
 9.355529813278672,  6.259568319477691, 88.871669162407244,  3.834881318271428
 0.816824108470367,  6.904209702705301,  1.530527345240924,  3.897855176796096
14.110175139140045,  8.447680669719217, 83.483266927401019,  4.102226635890710
 7.100691696253323,  3.395201686591971, 48.683815675427716,  3.887121653366950
 7.106280186027863,  3.993057719999851,  1.314990605176527,  3.997470292630548
12.624083132628508,  1.434679397920406, 91.011921946803227,  4.047492663129633
 1.980875943455999, 13.488189131784635, 49.022636815542668,  4.168465995940174
13.703135440673368, 10.004077276282750, 90.024985532774366,  4.314979803124512
 4.542058790922956, 10.006185960178994, 89.690077344177666,  3.864764457190994
 3.126566327956247, 11.117209765206489, 75.060520822342795,  3.936026401817328
 8.606625768111673,  0.231171083774774, 72.408168387356881,  3.925872392790810
10.583476132831951,  2.595198298706072, 46.743443788459892,  4.240006982256864
 3.715996822716099, 13.576318869947260, 19.174614518021613,  4.258201881426452
 7.695686203953565, 14.940343550958314, 19.081245569935810,  4.152273802272360
12.396685494651813,  1.619847374343403, 71.849037095193410,  4.214414450158992
 7.723420566249685, 11.063608169087081, 29.346156189990726,  4.080823840195735
14.510768313715293,  3.961855768431750, 93.342131321023800,  3.780433475749431
10.682086639093995,  9.918059087388345, 68.178824747192991,  4.007083678530681
 2.389172440674399,  1.135852722088750, 29.782416395601299,  3.926531964566511
 6.881179656809107, 11.076851741699297, 68.475314123283582,  3.937333071377458
 6.830846933049202,  2.341057357240594, 59.213945714426231,  3.996662197731374
 5.010584878134535,  3.149539270690601, 42.385273919235480,  4.066814326140640
10.612538356508660,  1.084451560714407, 42.712293479706183,  4.353875123399577
10.791982406718335, 11.389312622002501, 25.433247699672215,  3.951247996558636
 5.991714318118977, 10.295124565156140, 77.364760198557363,  3.590896180161972
 2.008305203511303,  7.786805109810322, 12.306900855950904,  4.104560775525416
12.346088266520017,  8.790720261572666, 37.444088548435182,  3.772672344542838
 2.306172521633742,  1.046231813501989, 69.604784854679096,  3.808456955794016
 0.204734189897101, 12.061487057986945,  1.830913322682187,  3.764195121645683
 9.817224375265491, 12.580308326585945, 58.627904777726975,  4.005915778214735
10.809514859820672,  6.523925407709039, 80.751845004822357,  4.296630066459412
 7.176784591681924,  6.600841988247971, 62.113493214355259,  3.838546299304152
 7.195009486965306,  3.357928495577124,  9.685709587505343,  3.908229617824890
 9.544729267737592,  3.390831704669649, 28.851951092224205,  3.981784610013986
12.532886071246969,  5.321546789346257, 73.727918203448993,  4.075774797375274
 7.970791116483773,  6.636859885561981, 30.587697311861763,  4.019648582282673
10.722798834038128,  1.613233769220285, 58.783269558944085,  3.958326778872399
 8.443911574998586,  9.141794513530359, 74.742785872892938,  3.944887257931850
12.888097127847175,  7.063175860891551, 66.523755555172983,  3.923857314960684
 6.344874194905226,  1.394620589900112, 80.588543210692293,  3.911205734991745
12.705950420889920,  4.870088460412163, 43.784502515861561,  4.346149804173121
 6.827166871697245,  0.608393029515429, 87.074077479292725,  3.927300388190734
10.586427882391112, 12.496175090965860, 75.217739685363526,  4.070083715189503
 5.890152667087357,  8.827178015464392, 11.432149915768822,  3.936356238826480
 9.527484138357440,  5.581350639521485, 59.062376866038591,  4.128846655989451
 3.150867591667319,  1.199214974983626, 59.441668335393274,  3.681381485138900
11.772903233292658,  2.983276967723888, 54.225524357261513,  4.368494226689196
 3.376093818269155,  9.380854734643931, 39.035729131588091,  4.169993896398337
12.851262483749988,  3.866025936234327, 77.578822116718399,  4.175325732972720
 1.719241179833640,  2.882809378832377, 16.433485050978213,  4.201784835774314
13.533674360407014, 14.239451001112698, 25.700044153845248,  3.948532290021233
10.864113049692250, 11.263912388196342, 40.289899052234531,  4.124236366145254
12.802124679989889,  5.077095103508263, 69.783924203897186,  3.712803163565494
14.778333196402748,  4.779331698742172,  9.696533261345023,  4.008754686264869
 2.920085646595548,  9.583164350480294,  3.298935445123442,  3.745496823425165
 1.571347932326602,  6.405279745544053, 36.781857290414500,  4.108195752556795
 5.554663168039546,  8.162184916290061, 85.845784271965627,  4.021209615154844
12.138313827157759, 12.242733876278605,  8.104469431763107,  4.008086307631638
 2.326993175022492, 13.453388121751797,  8.599286739225034,  3.942729201615486
11.702783916269615, 10.491706183842252, 15.733293006230459,  4.384460199892088
11.490735632901485, 12.390508489951012, 36.170392863540542,  4.033950111029484
 5.932998023511781,  2.928294220607489, 90.227769755638278,  4.093873239286447
 9.291739806473929,  6.906491196629471,  4.684636738696669,  4.480509257464543
14.184948222593988,  3.452239858479403,  5.708413017410407,  4.131501804216388
13.707386532613583, 10.503914966954088, 62.336461228484694,  3.750899943010939
14.911933323281421, 12.073620169369294, 82.062869852282006,  3.789070927761418
 1.330164245130059,  5.513468679970395, 68.130621308369854,  4.075289607335109
 5.710481968570110,  6.297269872782951, 26.567986049824771,  3.726985677844045
10.306235496926304,  6.918998736915206, 17.461006858494756,  4.018698811576824
12.425402219096011,  2.181039438561489, 11.900431766337512,  4.214097321915411
 3.203016773800856, 14.963284206506923, 44.173805039594114,  4.094529351499848
12.618985640728326,  4.616952718780800, 36.006376545733957,  3.758721798399849
10.119917527105763,  0.712928626365529,  8.763266883636248,  4.101610008311458
12.779047357825071,  1.329123758766838, 22.450266985169019,  3.929120504025830
 6.264675988892825,  6.750284876189821, 40.644376412993672,  4.270878311162460
 5.196810412648903,  2.581865252447876, 72.609375600316483,  4.326577690363897
 4.190475402424015,  7.324002967616915, 29.864727617644316,  3.797637534556353
13.483686909172674, 12.268768345637195, 43.147047423989797,  3.872609247873566
11.830245248263084,  4.298641688696031,  2.343550013612513,  4.149167326374986
 3.554660903132922,  9.448332432405291, 57.363293260755547,  4.177923697249243
11.829574182465864,  8.980777779907697, 44.967562980005383,  4.318954526832322
 8.419341461704974,  8.482807341505824, 14.338599031892166,  3.798225103200240
12.890862752357803,  4.260905908060379, 60.935946737393081,  3.989878725378115
 6.127830026120827,  5.285623168522443, 13.656834887788436,  4.165473949233919
14.998365077729796, 10.984810035244237, 10.445872604285851,  3.798348071149912
13.840235523513288, 11.266235495188594, 32.944313681309197,  4.232219380351997
 7.738897794802732,  0.408527689281510, 68.416771119900687,  3.969093647958411
13.484412587404266, 10.629963816949651, 51.750396192073353,  4.236244973921480
 8.050169742636401,  9.018030966321209, 65.186281214131427,  4.152315754843055
 2.208104375131239, 12.293385939550566, 41.466788160402750,  3.763463291818813
 5.154931159576305, 13.207769960071317, 38.197312235799366,  4.356633508527263
 3.514806044353399,  4.523425013806470, 93.207276302638377,  4.077367283567768
13.718559597258475,  0.705274165594568,  1.543542962053775,  4.075518216656022
 2.267632277347388,  5.657504467511759, 48.646764373505164,  3.697839392658534
 1.606064926921133,  3.232915918182532,  2.545638951303180,  3.875341494012945
 6.695863228179999,  6.558576750745524, 91.609312932350065,  3.816824860398969
 0.675144499750758,  8.974367739154761, 30.087372366360793,  3.981995878549495
 6.647741127834313, 12.113857340002214, 25.394752905965465,  4.290897349271955
 9.474961282482401,  3.715399830606425, 92.023591862185881,  3.947733443631589
10.963205356427633,  7.109704778990996, 62.984251212211717,  3.982854262055840
 0.486788300268362, 10.763148232581566,  6.188225357429618,  4.111782392863923
11.327081695018181,  1.972948567336220, 18.696505227881996,  4.218593151561723
 4.224676253870382,  3.866424330719528, 38.495739320485654,  3.995444062109637
 1.984388524159160, 11.738686374619236, 79.027229332235081,  3.496451785356699
 8.402103551024434,  5.216409300684684, 51.935499614871397,  3.989727264359184
 6.071851285589397, 13.782477952379546, 48.312107937104606,  3.724192619612096
 0.082676639545566,  8.302914305206091, 59.328585966518645,  4.091916290591969
12.971256985839483, 14.972337057417993, 83.515396595727339,  3.766378487574606
 4.758910711476633,  1.149294467177057, 55.714684370081713,  4.411027822532228
10.303365956944671,  8.081195535747973, 34.346873142942115,  3.744053394476314
 9.677165154477988, 14.968635055461949, 26.806993794035339,  4.023854987993210
 3.469422816685086,  2.086265598325632, 47.646770904071666,  4.072628520838631
 6.033236078277577, 11.749140923706854, 92.825736674206667,  3.901417517453712
 5.518765305987334,  6.072210338639144, 58.589491124464281,  4.001777455854425
12.355072081852459, 12.246492684097719, 65.471095991427191,  3.875971420064807
 2.017937621828663, 11.765121977023263, 92.231744945067305,  4.097742141607306
 1.555270814099962, 13.665344564651539, 56.930524655499994,  4.044789618313140
 8.220817539654419,  3.102593044285126, 40.023043916292337,  3.893706729740404
 5.945165583466307, 12.872987425281121, 15.780407153171327,  3.954487113743060
 7.667665130198422,  8.513255643469035, 44.388808278307607,  4.132364238753980
 4.567784133350950, 12.116576944604020,  5.671312418881858,  3.886145760242956
 4.620164667535654,  7.183258508104609, 75.203893032418776,  4.210687347788641
 4.972374498219476,  1.481930449222824,  3.650445531345810,  4.027471159696393
11.890087239472578,  2.177769307912815, 38.906755985013199,  3.938729700804403
 5.129852858748420,  3.486770489859509, 68.569494639304480,  3.927874955377757
12.613582881368638,  7.650294750479437, 48.906581699235254,  4.138440838569279
11.360675264553121, 13.816855673367183, 69.003813435082975,  4.037157683255144
 1.594245414318572,  9.259968550921279, 86.846580427008774,  4.437091358935687
 8.392998605357759, 14.872760821212283, 91.416638448681780,  4.130929975477091
 0.541770712001033,  3.193510223121244, 34.163038847112325,  3.737502768514155
 4.486367986369395, 14.184932818607098, 90.135975704442771,  3.979170727666673
 8.441961460495847,  6.504718922432432, 23.786122323572542,  4.023842191867515
14.600253167144951,  9.669991787162186, 40.453473342149465,  3.935354611032651
 8.181344098064576,  1.284462173601752, 51.781801152285794,  3.883365022396309
10.192849374806482,  7.423293051464623, 71.122080943956405,  3.764304052863165
10.684448905817813,  1.264892477697786, 35.166877793378816,  4.119661833982455
14.505469664368437,  1.367636607081821, 58.884837483350935,  3.578289015997402
13.643609006905804, 11.922606971971401, 58.844917975653580,  3.770484409004131
12.788622400944712,  4.614303859335443, 84.003155935782246,  4.048645589854395
 8.590258609778267, 10.634114831393418,  6.771879166973545,  4.175170706768065
 6.740267689576426,  4.502933734397708, 86.672699391343841,  3.844754021886683
 3.480834366602649,  7.829151511170908, 61.535608035972984,  3.972058627867535
 4.684016296204179,  2.605330053124363, 83.982279037978600,  3.915922111488698
11.614194986319763,  5.124932235434275, 21.408525266959536,  4.104115856915349
 3.802187716238170,  9.924132014241563, 27.136257460145519,  3.669491510159254
14.404058815941344,  9.091229249157108, 69.704222132155863,  4.197511571154649
 5.427976789723009,  0.050228386267243, 22.663172047455415,  3.972957321134878
13.027483476111358,  6.764505408922298, 87.443418186656359,  4.056534552934675
 6.172387277478952, 12.271337439520369, 44.754725678925588,  3.988512523718478
 1.275833964561364, 14.207834504284554, 84.972661860213464,  3.586971224648713
 9.231244970720629,  0.107142543686455, 31.365880537522461,  4.296355369815487
 4.336704440061712,  5.772377505511351, 17.172245703912232,  3.719999086798832
 2.309085751682362, 11.861682152605905, 60.778692828847717,  4.547014061816981
 1.597380305007481, 11.524437442774124, 45.489320564863320,  3.919325031404123
12.961248248089115,  5.918273978648913, 27.783576379797648,  3.773179411340175
 4.508400478984241,  6.195955316458416, 65.515877106107652,  4.250581000047838
 3.755253590630927,  6.161066240543413, 88.911024376658347,  4.131901457940310
 0.191907584456813,  7.145931497464114, 77.022372363394254,  3.969833638030066
 6.350919552029562,  0.298197930141604,  7.270718794444979,  4.046071062003148
 9.281727381562243,  2.496792029848907, 84.312795925657838,  4.108072708870417
 0.787358231678135,  3.851950320115930, 71.803543685194995,  3.938190280865475
 2.127474606567651, 11.326657221494452, 71.376968634288644,  3.628694806692941
 1.450975051954099,  4.564553002916971, 59.312091866027501,  3.861034789824197
 1.678902235109419,  6.727221464033081, 26.941280656442757,  3.987667226027921
 9.533185388653454, 14.356721655875525, 81.773220038997181,  4.022236978277248
14.114047610854051,  0.627334347334518,  8.558914243014668,  3.883657853275950
 1.431681344521303,  0.735244579432133, 92.479241506743733,  3.922231732135732
 2.905777370906979, 11.712408290626737, 22.734220739245814,  3.929191950859413
12.695976455183301, 14.400143756963004, 61.927190856503586,  4.341326377389923
 6.918684550877038,  1.171181086576438, 45.380262094170533,  4.052565189843338
 3.731761450572012, 11.462437715586354, 34.859718900283561,  3.688256342672937
 5.169084092397199, 13.694252667428433, 71.010729305831973,  4.111101620724688
 7.698364295322565,  3.627024613369136, 17.096051355768680,  3.979279184453919
10.034303102848645, 11.221274452847130, 54.816564932376224,  3.904618217147370
 5.190236966550139,  8.711835624097693, 23.682607542142389,  3.838792705905867
10.306554871998081,  7.376390323458137, 41.428759492964289,  4.026915525852555
10.357468056996527, 14.189628880008149, 86.229253435031893,  3.864263856220310
13.664957210721070, 12.730542353807714, 72.138530922992857,  4.032953978973219
10.001914406553711,  2.511557757205299, 88.271807330257275,  3.812451806838873
10.656998178154295,  3.422877689592826, 25.040569478958233,  3.956982576574781
11.850223638137102, 10.991432258262979,  3.978997305615694,  4.439705766066206
14.015032953472339,  0.631577420553855, 45.272728193306648,  4.194893954942599
11.463232234042195, 14.173513147913562, 52.466241919041067,  4.045059933580689
 1.976338087904151, 14.848889509181802, 73.524734690410838,  4.336497902233736
 9.353449347842089,  6.155345688536173, 37.656164876449566,  4.122165916106260
13.681433755320841,  2.105283552536150, 28.574387084492624,  4.146229273264627
 1.958523657007748, 11.004251400659037, 53.912770839036284,  4.022530373338477
 5.842254723430016, 13.463808544402397, 58.863305410152897,  4.079374648018737
 4.214776949578480, 10.533110810691664, 64.509066173390011,  4.194753520651351
 8.979179036922028,  2.541532028463495,  4.902047023239896,  4.265822763087568
14.347938849634762, 11.391790700281092, 76.334726106112583,  4.078688767925279
 6.639456307699647, 11.531098004551302, 21.297222846272952,  3.980496977991943
 0.317361852866912, 11.121386662318770, 14.145708220096802,  3.630417388700762
14.989077346568141, 10.439969419454000, 26.300348979590723,  4.248777633226178
 3.039727189039771,  1.482478599413464, 87.308922150450002,  3.830353743287268
 5.585173205702830,  9.763344216691189, 72.022373450811344,  4.042746223587013
 8.028192138110832, 12.410989300967739, 51.731588455271023,  3.812156595720666
 0.084167186229568,  0.505475572223361, 19.346631391567314,  3.994921240609419
10.675263196634951,  9.877423513696783, 87.436594826261896,  3.629529399318415
 0.900849023128455,  2.376428568254169, 82.855265520602316,  3.991454262423598
 8.546611724424602,  4.589760669389296, 43.736168138077261,  3.973749070676579
10.088721165955755,  2.119488866713221, 75.368854001763367,  3.648478740249987
 7.423487681108044, 13.174420353082606, 65.040578852105980,  4.166392335475021
 8.149419334717519, 11.144218950864289, 84.730550404624978,  4.192447535326893
 5.229502744267097,  0.549204865398725, 32.465975419361726,  3.826716976028236
10.040774301589796,  9.226170343016198, 21.207158675970277,  4.092649858063082
 6.681869658749759, 12.622163078861330, 74.537806104723643,  3.853441552762973
 8.109970746377856,  3.019895567545914, 21.750828202363980,  4.061963018983996
 1.217644908140445,  9.482428230912410, 48.937640010420914,  3.965303824250384
 6.597395245287425,  2.281297607251263, 65.060974329639237,  4.039223606742539
 9.518318696577643,  7.098132690717148,  0.414056668841080,  4.069794472708380
 7.782538048886823, 11.964107163227022, 88.689397747505211,  3.924998230277960
10.966115548376894,  4.662695363043748,  7.856961705925648,  3.956652165831541
 7.135129569568369,  5.002418587716742, 81.978298670037077,  3.974309809045352
 9.628971025338775, 10.600121640235226, 78.807587136845598,  4.251236773425901
 5.087269673582584,  5.509890930169282, 45.826597516860573,  4.276490255003007
 0.853757973298756,  7.458952582631309, 45.322176684229412,  4.350233635081465
 3.484348614514027,  6.241778519253118, 83.023900538139301,  3.958142931822493
 2.348433535980486,  7.330638430531351, 52.186701529940152,  4.130401908510677
 8.109132078135513, 10.186441199751977, 37.233210518668436,  4.299164486842899
 3.089793336103698,  9.421338158707155,  8.838218521170338,  3.771140977846934
 6.969767158260729,  8.947325428250338, 81.481931592060434,  3.981989498353425
 1.754075562622871, 14.023632679563207, 32.952924711830853,  3.821064924485702
 0.221757305334940, 12.977673982712576, 68.461559523315699,  3.979585352571136
 7.054334260577787,  6.564672507063884, 19.928883820104282,  4.174215784272658
