BANDS
8 8
NANOPARTICLES
cell(1), 15.017
cell(2), 15.017
cell(3), 93.854
 9.517924809898863,  1.667723649560838, 33.452749160835637,  4.086545093323884
14.719055177277260, 10.633827208184037,  3.400743225864447,  3.781092183381066
10.004587245254600,  8.414238405020596, 31.986358927550604,  4.192612661769437
13.397033578985896,  3.321413681041159, 68.849065822387374,  4.206945703831279
12.755163293250876,  1.502037285417124, 31.286298112070106,  3.654776890260321
 6.693239375570465,  7.890353335290915, 74.635172190673771,  4.171893173270412
 5.056353916359277, 10.475506024458877, 92.014171674722789,  4.326557974443983
11.618805207169657,  6.822791763764906, 84.916550430542685,  3.925132590294858
 6.243752711492477, 11.437706790183320, 25.839226170851912,  3.669504598115328
 5.132308632360078,  5.625206452751158, 45.218065912960284,  3.962061178889578
12.478097438040740,  7.713335929224555, 78.212892267819043,  3.593735350262369
 6.481700680337950,  8.235496704501593, 66.693286490566805,  3.998803692195971
 2.565577308531141,  4.055030247456822, 20.667517836050749,  4.112680264389807
11.594837403993349,  2.779714151805987, 50.997514430614139,  4.442442695339063
12.739615455520765,  6.280812751461748,  8.028357583282354,  4.085594661307262
 0.420568475810108,  1.779453215982556, 72.350236254745255,  4.457584822728363
14.786968082070521, 13.163587895959660, 86.879137294535198,  3.968601735565359
 0.365083600308346,  3.087826466791611,  3.919263544391073,  3.834698108205108
10.929031477106717,  9.636823098218553,  2.200382430689369,  4.169079799094820
10.681151140122635, 13.464608780097288, 87.314025116460641,  4.270150090674278
12.308936506632405,  3.070264724289466, 83.893062573907727,  3.916233571030044
12.499715410483558, 13.527100922704301, 83.529452754333192,  4.112212811728506
 1.922006619915328,  4.271283374689649, 88.369983580639314,  3.911850572357802
 7.531436324667546, 13.392578886240456, 90.142808449639105,  4.170194270975115
 1.582519456782608, 11.363525073451884, 52.186053211352920,  4.275391965588065
12.380332798414299, 11.121172517188883, 62.258189184805971,  4.255660048120009
12.778680148811111,  7.724469336042374, 14.174412167735850,  4.334148311725341
12.491978846328157,  5.334885603289957, 44.409893740381783,  3.729948124749017
 5.485857052700023, 10.578305794833019, 87.869731436025035,  4.007376097434209
 3.136700190933486, 13.950298177580823, 65.661430025476037,  4.069478527332239
 0.224065082154491,  5.438280208952516, 85.090876453352834,  3.822075508036507
10.107404399984471, 10.812199337496528, 92.147557994039516,  4.136901004907959
 8.658924930103851,  0.097573794255057, 73.968538289548377,  4.029267296807243
 6.556355551341041,  0.297908006545061,  1.682550001049589,  3.824521381436105
 8.502721442231088,  5.465547462648502, 34.945566561443627,  4.318194679085392
 1.951084742986080, 12.171136692672164,  6.169934685683693,  3.971216529664349
13.879259550551058, 14.393215575714869,  4.539156034200386,  4.240275320514456
 7.117148360772679,  7.789519477697969, 29.088282565053632,  3.973229684245914
 8.966461539428291,  6.533026371270760, 45.350835120169847,  3.915638550157604
14.859404275715146,  0.701853851328806, 57.926843499572428,  4.056520333623165
11.485698693318813,  6.798408417788056, 62.080059507499207,  4.198853755979972
13.504688619155063, 10.854332801627061, 16.810616600522522,  3.976942842022003
12.355450375642310, 11.684448792794473, 36.072374423137070,  3.831487210736341
10.795220044026602,  5.543615747253325, 58.289637298786396,  3.900724792169802
 3.079754044886828,  9.046489281017276, 59.680547966020107,  4.319414669276573
 2.230389225986547,  3.233739540660420, 75.763536703761076,  3.794170616011241
 5.949611389849763, 14.460719925945041, 54.975710814302715,  4.071804592374712
13.661233804839028,  3.724587950623824, 60.266230256952817,  3.949395337425832
11.526243887026510, 13.786524846413066, 28.342232423145475,  3.761337036060177
14.543859350321100,  9.276462190816707, 21.115433284070821,  4.225247863649062
11.885802306960400,  0.740410674953136, 24.839162715941530,  3.929789789184390
10.999576358511646, 12.770983034444559, 58.650162524659891,  3.880581638276756
 2.426412285597401, 14.698304100613342,  9.073899299702614,  3.783485857453523
 8.536333341896571,  3.244439358426193,  3.380685270658662,  4.017658248980394
 5.373980002691599,  4.654680757813562, 68.510947417768747,  4.168884080938683
 7.626770295972929,  2.659532437793529, 79.021601373150276,  4.114834308065952
 8.050198381939170,  8.308976658091098,  8.690703310288377,  4.044547257509655
 0.437258129603333,  4.457579620847383, 14.120259862087307,  4.094020850605538
11.774695396498677,  7.441149491354307, 91.581525746220947,  3.451154201755226
 5.299772662949712, 14.832470977369306, 62.554662302787278,  3.679564019480601
 0.393750876697102,  6.569962153083519, 32.243139252298526,  3.968833068628543
 3.711361299896426,  3.715353885945735, 54.227424275332872,  3.745010734315000
14.234367610517584,  7.539441353484176, 59.079574620562035,  4.047702363056398
13.940513097564159,  6.926182680758173, 81.668029312128056,  4.047921180802910
11.399028397809539, 13.676022497978579, 65.337063457249414,  3.982183603908102
 0.768960341467681,  6.812964676129511, 17.733135625626751,  4.494577338169905
 4.300493879388107,  6.630408690273018, 93.386534060137137,  3.962302474143648
13.609720711479662,  2.607878519821729, 54.655711740476534,  3.913295762656002
 5.655503944654473,  6.625811834014426, 18.255315383921282,  3.788630775575414
 4.893274797325621, 11.966911196677971, 68.589023094305276,  3.771029872961428
10.374038999040501, 14.298440331317993, 77.633020031502795,  4.180721150155391
 8.638378679437176, 10.604889144638298, 77.025732386850166,  4.039844621475067
 0.136377284963875, 13.273015835993238, 30.791194702766656,  4.422992963008116
 7.910461497454524,  0.057823724981520, 25.815423398681858,  4.302936840777862
10.726498958780748,  8.754578920026164, 22.382484487375514,  3.870950245218356
 1.062085238892752,  9.843964037684673, 69.455090563542427,  4.176648155992873
 2.564488179984448,  6.609296111053579,  3.891689318079985,  3.906062568201408
 9.920124396670705,  8.149731112411148, 81.566990074969951,  4.036744830170413
13.904471224802483, 10.145038334086710, 92.287549679160549,  3.570835022713112
14.231181127921998,  4.337845445921015, 47.976669128371569,  4.158465822433286
 5.457685850907060,  7.742721515447541, 36.987774094133165,  4.311868925494689
 4.650727591773104, 14.050342533807465, 51.075316646577697,  4.147141540408442
 2.995737994793988,  5.600320101277870, 48.513234743043562,  3.880020355980294
 1.267424032184780, 14.280620267325341, 81.958347437120764,  4.187584043000412
 6.786381752121136,  9.382903340456242, 40.426960868122926,  3.755550683746363
 8.264340958223091,  4.348229624837596, 74.209541277474941,  3.600709181807996
10.498973329439318,  1.211193973646197, 10.565746969763637,  3.985000983131099
 2.433637544052778, 11.711348696256747, 16.909901085241675,  4.099991637881396
 4.945790782420970,  6.855344834669397, 89.487982076610777,  3.762344948515037
 1.370849500865681,  5.619687672032365, 45.003761847715829,  3.565405812158464
13.500890949963487, 13.290654595263000,  8.356346388507088,  3.638060405109900
12.230561632210680, 11.447712897998173, 69.887644441258161,  4.070135661957358
 7.792723242470898,  1.308177280281941, 49.409083962201812,  4.271319259788374
14.467178167153129,  2.056814982453359,  7.691902183986855,  4.082293308792522
 0.379211024188572,  4.015570011239393, 63.734686800101940,  3.793919800003584
 3.327117029833035, 14.554171747195621, 37.519941100598082,  3.944876330118709
 8.709637114263105, 11.832385264304854, 55.860708195167454,  3.568190564745017
 0.472726510156050,  9.109856286408819, 46.281410954529925,  3.837996808069974
 1.510927887014188,  8.705249773524550, 35.651162843849271,  4.207578113261218
10.712981424377300,  3.481798133473971, 18.550177792928945,  4.241190667847048
13.314376340925127,  9.753288636051197, 88.470003628277340,  4.016443511769888
 2.007118510386663,  6.171949365962214, 66.626291577678984,  4.120005005024986
13.236470777437058,  4.654724939823567, 25.498121860469851,  4.444859991935425
 5.368944442912332, 12.534074485695006,  8.103579041194969,  3.762667000273922
14.149114382030318, 12.765141954884470, 73.342067728474632,  4.226860330368780
 4.012740964639678, 10.394650890137722,  2.992656748154745,  4.277415296848258
 1.286261118602140,  1.613400692894942, 85.405707886869152,  4.121139290470995
 7.227398573455557,  2.772312512726343, 53.143760460642994,  3.815418676031988
 1.982806850603595, 10.332207029599713, 24.595108933567293,  3.566530293213718
 1.631017457061857,  3.009463381793524, 31.154510289478104,  3.736342081570455
 5.474749713501147,  2.732272412735828, 31.492090357726987,  3.915965530148211
 7.847554428355495,  2.529559669153874, 44.099364613355142,  4.184160275712651
12.096308309126977,  9.656700779647730, 10.316989781193861,  4.170075126879899
 3.185989169468546,  3.393774752045327, 37.826420912837413,  3.792766184685542
11.079632067209385,  2.894161272282658, 37.123534362029901,  4.160341881274033
13.230242088070932, 13.110852656714430, 55.397569938902016,  3.903459766958226
14.712953317205343,  1.940616834847576, 38.671259151740919,  3.931328978303041
 8.352621544310471,  0.940737423124575, 64.443327103918875,  3.831016987487638
 8.793773389048152,  4.018702944890430,  7.988576400651780,  4.304960867415892
 7.729619237260033, 10.766607456196724,  5.249238475378989,  4.435391059669880
13.275819099984608,  3.790462744480876, 10.929360231583976,  3.612897949569820
 6.140920248599003, 12.509563105116241, 47.643517999862667,  3.917282890204396
 5.310314926547543,  9.979333787595511, 50.892538741412032,  4.061963826523042
 0.963365557753993, 12.544123155775038, 78.213244193843465,  3.975077680612586
 5.073016312148277,  5.322814482558462, 77.356164184261814,  3.938545520977105
10.929414548566371,  3.301937090108515, 76.722120699261481,  4.016335423273189
 3.712744520533008,  2.376860264824315,  6.015297273821256,  4.189191069827033
 0.819404031054695,  7.808905847687911, 28.383333253049365,  4.007497130030610
14.140457769000607,  0.722260382080028, 76.371190427675145,  4.250777398301632
 5.243157418267388,  0.172806847257161, 71.810461235672506,  3.847041523134204
 8.560327953063094,  7.274379740097531, 15.755404285659173,  3.980584861801846
13.480771314564151, 14.060946898787620, 51.566487034701865,  3.989712239497044
10.442624594553862,  3.365720911339734, 47.053010862960342,  3.853316019873048
14.766392047300618,  2.643580720353349, 18.063813335329353,  4.060251547149858
 2.919777697131458, 11.716198007479676, 84.778172799023451,  4.113554339798389
11.047057003040660,  4.553756046309254, 80.456362327022518,  3.810605706561912
 7.246495613385679, 10.187538933172879, 44.376602511646283,  4.356566436085049
 8.471008760813687, 14.896239878466714, 18.412244356990545,  4.229023459502149
 9.453211523424912, 12.396754908570967,  8.765491963738427,  4.041902305523618
 1.035319744658532,  4.218442061003053, 51.544520322784713,  3.841966910428102
 4.222374752989523,  8.779939521643319,  7.007287563518421,  4.344830741023096
11.663485283548768, 14.868917362150308, 40.055083710617446,  3.913795086092189
 4.602241273399512,  1.808776306575550, 46.659615217000820,  4.201563145051447
 9.424948273279140, 14.173712217589225, 36.872011487033710,  3.984200415456799
14.451375801962776,  0.085307046181565, 11.776898398252248,  4.298469029870162
14.178394833803720, 11.384718752198696, 13.122060958149330,  3.582688683694877
 8.155817988925540,  2.580926591571821, 70.867903718763330,  3.940060590543784
 0.029537563181468,  7.888141450427981, 50.129534626846912,  4.253443813422996
12.076926167329843,  1.996019332286008,  1.761179828287229,  4.034838551976521
10.014339343005238, 13.726678243497449,  3.341641173862492,  3.938181259244742
10.312431028789860,  4.753603529755813, 54.472766672035895,  3.949789796727104
 2.132377174179186, 13.116321263900810, 55.886413776750523,  3.985972146871355
 4.107325003470606,  2.906580421189778, 64.817263795649396,  4.280014968421048
 0.149884828739747,  0.011885665530907, 41.953885593654867,  3.670805851938551
10.772247270098394, 12.792518773745602, 12.492043641749282,  3.886485677519919
11.886554373957484, 10.526336852409017,  6.110601626705290,  4.056646556925619
10.627543775070752,  0.545606311510711,  6.712357480286412,  3.830064961022746
 3.648833479848274, 14.182131588731014, 41.281291076044425,  3.637204436369189
 8.814676761876864,  6.620460767367764, 77.954726210861978,  4.063752704820776
14.140954260778072, 14.429219555673390, 68.073508096964176,  3.844374855818039
10.614261153370382,  2.622100491166526, 28.223434020320173,  4.136105764726242
 9.529180957722909,  5.465987844572831, 68.247551289149285,  4.313759657093922
 3.001276494128228,  9.981567291258997, 65.920110071299092,  3.872491711434431
 3.619544009675365,  5.076186559265979, 34.237545780228857,  4.180339600154502
 3.794682094808814,  6.065612160728212, 30.310382898617839,  3.887071891093123
12.938546882601534, 12.843373388999725,  0.831538887256911,  3.864752458426897
15.015622602452051,  3.755506281321287, 42.085388484544310,  3.815618878081611
11.292459244787718, 10.971622997314636, 45.321219905522490,  4.082410764033332
14.936750381081808,  8.037547856603569, 42.402094977706177,  4.053389992262528
 5.018052067163878,  0.849591779447132, 22.766242422642605,  4.187721691284248
 5.211695796105295, 10.958151110324678, 62.756572886443713,  4.080058279140553
14.237606319126170,  9.893215680275668, 84.471149760212413,  4.127163979131493
 3.006666665225715, 11.113101502159449, 43.762464469839699,  4.353014408528677
13.917385780716039,  4.910817160528234, 74.537785092461093,  3.761634758191110
 6.248481930530437,  0.620657061983763, 67.853963909939523,  4.189302820764895
 9.235196252713370,  8.848910326717553, 70.573510027214368,  3.851746078920401
 7.974156984754065, 14.980093089242182, 30.014126568121458,  4.088714119637537
14.850152683283262, 13.799279133468563, 19.113291396440232,  3.873504797745308
 6.947751472951187, 14.951650828525647,  5.542395650707737,  3.939016498813706
 7.279120034751186, 13.629324207929656, 33.842660556331815,  3.512850931423952
 1.694489511520435, 12.053577873175058,  0.014196134671708,  3.916542582390170
14.559425072379875,  1.228996508087838, 27.792076458543832,  4.088293800353288
 8.417146231107028, 12.878200644176239, 70.071516860670172,  4.082703296520674
10.288179563311948,  6.121860924750486, 11.239219422719676,  3.981757838763328
14.899453147303722, 13.010596597967918, 38.719464687453190,  3.971259126821428
 4.138484656088099,  3.433502061338559,  2.003402165597527,  4.115911611745759
10.604341790565439,  5.711554988458977,  0.889385261686462,  4.123553435544856
 4.305575793890649,  6.620367992094946, 56.621113025354362,  3.860074841944364
 0.263042252241312,  8.796271902350405,  6.557456839903200,  3.603161464423793
11.770791458933612,  2.763332731645991, 64.180805570863157,  3.923959669294935
 3.614840211163869, 13.150296279481960, 59.569073725054302,  3.946113644905087
12.849769984762068,  1.239434256924687, 21.182044546707722,  3.680823532313058
 1.582977189859784, 10.366662749132711, 81.342465643293011,  3.736459880157060
 9.331476706934382,  0.910097950803145, 82.294283017402648,  4.048581556989437
12.489382719756311,  0.145026153070336, 61.361454130764130,  3.879327448167980
 8.010254854786877,  7.268793269879822, 91.952237778697906,  4.078877915264838
11.205632953500098,  4.744170926973220, 71.898063338645258,  3.802899365808774
 7.040044596453306, 12.758655689168764, 84.631051159174973,  4.294349757510126
 8.328843513514570,  4.961734223325448, 64.180885367452191,  4.223423883184273
 2.287589308767580,  4.236285767315242, 26.975712981577640,  4.199140582384734
 6.327939348489180, 12.257233286161593, 38.094419656793839,  3.691421803032143
 1.374969492100064,  5.805912943362073, 70.815459636687336,  4.367226113598004
 5.141101071089556,  5.539983915875310,  9.618559034028795,  4.171048584737119
 2.762741337315057, 12.631886969958170, 12.967855886395258,  4.022393291825810
13.371665904157178, 11.331603916752675, 48.724116607700751,  3.872199364837706
 0.974628041706517,  4.543294092840529, 57.099423437240887,  3.924647135168799
 4.382109530688511,  1.241761627480187, 12.893801641972374,  3.774787042676607
11.567435734431960,  7.662199461952852, 18.553619223178305,  4.263143854119913
10.861301447738851,  7.033637100822773, 51.127807198707004,  4.179578095781755
 7.240228307490716,  3.792697537056247, 57.094899051391359,  4.343472809924294
 9.256276855825780, 14.331782196374665, 46.125389711675034,  3.902442806652927
 2.087297810254432, 13.507409316935007, 70.551252242923496,  3.728643410084663
10.870477244087565,  1.595512087815902, 57.462203157304167,  4.162182854354969
 1.064164849842217, 10.695442921229260,  9.826255662895287,  4.097019699152517
 4.855167475242053, 12.564801464472366, 81.122976575165865,  3.926610583638090
 8.657671818957068, 12.964705311629682, 61.872052939656257,  4.083001886744725
14.229176240769476, 10.977808302768025, 66.005044809734443,  3.946766391050851
 6.327839984012426, 13.797091026550271, 77.638095185064913,  3.912506041134795
 6.019760156807734, 14.019307744883923, 44.154350301293690,  3.689503752280512
 1.518000169029391,  5.406554599388605,  7.419832876851872,  3.797501808215924
 3.829217206146968,  7.468787697033305, 42.006814614254246,  3.884423819286638
 0.777073563989463,  1.721206054671068, 45.289101828361865,  3.918174331849559
 9.830952945926438,  7.041094736013940,  5.259813926738026,  4.086997459298908
10.176650377829565, 11.024661483860895, 39.283656703508200,  4.041140517296784
 4.382813876361269, 14.622102520707912, 87.516613974743322,  4.379659805394803
 1.696364382629538,  0.431745114791471, 15.460165470203719,  3.794601239187605
 4.653468575706078, 11.187573670939756, 34.833114804553830,  3.914261623354544
 2.336103321037237,  7.035532189535973, 79.601876607476399,  3.926296677733337
 4.975422808741854,  8.393045464340579, 70.677281187410983,  4.502582059741124
13.120245143665903, 11.519966775163995, 41.845617000561766,  3.800839864911890
 8.595607326598769, 10.351082318452317, 35.455927545900408,  4.220318194039747
 9.732743758023084, 14.685703590025552, 93.339623594146943,  3.982390883455733
13.896708557661931,  6.572753211655590, 53.959574226147076,  4.152425844430533
 6.043592811874915,  5.545494464973692,  5.315405350628880,  3.787800743632999
 5.048304858839904,  4.740917750838414, 85.729432472888462,  4.289671121447053
13.584624189835131,  6.895754774040459,  3.718607147957977,  4.022965231644847
 1.977593158687272,  3.210659905675067, 10.609976966435173,  3.929900837659895
10.241899048759024,  9.211875653181657, 59.335512853185747,  3.520935019741554
 8.689989114550302,  8.350934069110487, 25.594972968003244,  3.756270556717320
 3.021229264755564,  7.336103773430298, 52.950786836500100,  4.040224552169865
 8.609580838181621,  9.513731345467724, 12.470167565227316,  3.965104931218401
 9.253752076448446,  4.786812398297148, 24.715439827375651,  3.655336741018632
13.603890372336551,  5.097402658537790, 21.213282043501618,  4.170029302323266
 8.817620144164568,  5.573395769553575, 87.996540370786306,  4.448443183110000
 5.246634439552341,  4.999723495124961, 81.265702715473395,  3.896434534010806
14.713989222580800, 12.382044467770575, 26.758247581225159,  3.875652728177947
 2.764973413159494,  3.260198216556871, 92.049919375460590,  3.903036039619501
 7.133050219675518,  5.342160116210358, 48.697362631099310,  4.018435071186537
 4.933697722662485,  1.251693625099880, 83.089671623984529,  4.451687210826244
 7.629139518540806, 12.286800796101456, 65.771693052656573,  4.083503320080257
13.730745889289592,  9.224525376392487, 38.763088806274730,  3.952778581316560
 9.027006626774511, 11.003264338381204, 28.216278241159195,  3.694711388615723
 1.589931641247296, 11.446800713498472, 89.956041295628452,  3.958449327094188
10.090717479251182,  3.435134277226913, 40.922026071249924,  3.762611731275130
 1.511462552868454,  6.560999264897539, 39.073592390885210,  3.784290096280017
12.491401408085661, 11.042066772485059, 76.566330694588132,  3.765397832683818
12.893212057246242,  5.521550058560000, 39.479523593033548,  3.770618414240944
 4.771549974704085,  9.486886493791529, 11.150811991011411,  4.124613412027504
 7.309697591682221,  0.497738594548025, 40.199510253818190,  4.292303497708497
 6.879647375111176,  4.177072689868432, 38.473888798514373,  3.854854597701230
12.793937820279512,  7.499093909866427, 69.692542814269629,  3.895232308899774
 0.467660747917940,  8.159617040251369, 63.122807847333902,  4.493377342221517
 5.538488762984586, 13.940109862317136, 15.733371184019473,  3.894070129272997
 2.796668757442414, 12.618172557150135, 21.723094839239213,  3.898389384826291
 9.349079200269633,  2.600058398788338, 61.041575344787042,  3.848800480654703
 1.237145555203453,  8.409284159303054,  0.873899540827105,  3.604053392066072
11.587457754091554,  0.305310986303832, 71.120630374248336,  4.145793939351877
 1.021807704355097,  7.159731402219808, 91.052118623603576,  4.148419559540032
 1.517564992954730,  6.649730296991889, 23.670069868618018,  4.074443851270757
 8.532797966293487,  9.246566646932296, 48.381980964181004,  4.230498545501987
 7.244418819461323,  8.246938228293073, 85.223554028077004,  3.861937833385098
 4.807801900301311,  4.067839662550965, 72.548121145984567,  4.061274350660701
 4.141557320236816,  3.189947060494363, 41.879916317332864,  4.532585503713535
 3.035387450102856, 13.693343523151924, 25.297800596621020,  3.563031606110943
 1.276406226093955, 12.316045668884511, 62.602287917667169,  3.789241498361413
12.661738749567720, 10.341752136573612, 52.518071878775217,  3.805385099653637
 6.543858351172226,  3.823578117256689, 27.582938998523481,  4.434693411847515
11.377163015172837,  3.653839633384267, 14.344796551601455,  4.198081054992220
 1.575142152725363,  1.637463524545155, 34.727121661098295,  3.870588986672243
 7.516684883979042, 11.629630060411486,  1.209229612929994,  3.832508826332176
 1.921082569710104,  1.289988348207503, 61.364913977098574,  4.060150346332484
 8.712472113727246,  4.774109618113465, 30.954832183508792,  3.789779738075160
 2.903990600637437, 14.314961876379217, 75.015720175392332,  4.264978193631409
 0.361022860996873,  0.713590743536784, 93.790358781003604,  3.898680129302747
10.858352584773362,  8.289063982627368, 42.245922405691886,  4.105185065931937
 9.403209486517891, 11.357405287443198, 16.136132022480542,  4.388077404036324
14.721285981306604,  4.825296770197876,  0.377679393967378,  4.147907700513395
12.663842558921806, 10.140919245944751, 29.328133830662352,  4.078970516919939
 2.752888395412665,  6.914825817805174, 74.576123170488529,  3.944376852626267
 8.537794214898204,  4.753998996145216, 83.463375431275466,  4.031613645134046
 5.127639500128375, 10.326101646158174, 55.074075054998623,  4.329036936736752
 2.475079366722075,  9.882538018268585, 31.831422002879851,  3.888276596626341
12.923360285208958,  1.075838752263988, 80.352487190517223,  4.092598542187175
 8.000425389489134,  9.380549675933295, 19.599596463221975,  3.926666294839680
11.980210195086894,  4.772344470865557, 32.935974671322079,  3.831418433966165
 8.508869166308086,  5.777798415243146, 21.128723867895363,  3.932194974282106
13.120971444068372,  5.637952592333241, 88.494633431579231,  4.183917173931014
11.900870765686461,  3.746559501253218,  5.197727754183427,  3.684324738531810
 3.824711047470842, 14.304749935525020, 32.524286612954072,  3.979307746021732
 7.355038191354340,  5.905595379108261, 41.880392228935591,  3.831287811583988
12.658362329975235, 13.663266958881868, 90.899452037901028,  3.901944657729899
14.641231866640300,  4.956577123715284, 35.939894746927962,  4.201048130485922
 3.170567891132453, 11.057945265816691, 28.122427993429785,  4.012521027597710
 8.559837732068974,  9.080083902679382, 63.280880141661974,  3.553458309927696
 4.320458067516789, 14.648769847864044, 92.366260626245548,  4.003683975747989
 7.736489533790479, 12.585370471352327, 22.409525914027295,  4.138035221869744
 3.005585995314418, 10.436355966819711, 39.353035377658848,  4.175304998097823
10.280405555241334, 11.358556266242280, 73.396842895731169,  3.932423804337469
14.664306713210895, 13.032300992914257, 45.152854567371051,  3.827324420068010
 2.280048527726982,  1.836914644611960, 68.469569646984539,  4.148333681860081
 1.176148926593692,  9.247393585790228, 55.995561728227862,  3.983339826662118
 0.917682042175892,  1.649883971134199, 23.742352147628587,  4.360474114904627
13.201419076462855,  2.678898059605313, 91.226449256512566,  3.832725943000448
 0.472270660554174,  6.838733141775939, 10.877171778357598,  3.908574495713937
 5.360211959471423,  4.900953667634451, 23.627781023878700,  4.090961335958410
 9.914224566185759, 12.779364177013960, 50.135438970313928,  4.106049962252489
 6.014071546268317,  1.194603399483372,  9.166971117986538,  3.952438137305748
 3.707945529719984,  1.659242658516104, 57.487773652741524,  3.944231546112371
 6.785332401565708, 10.820010838487963, 58.974486571230450,  4.003206290227052
10.071773474537714,  1.529308923440620, 67.732719168072450,  3.664842410292255
12.100290690628775,  7.662348254322634, 47.366447543590084,  3.831558391427908
10.865163224588068,  6.671211141046630, 28.336383784438986,  3.971358454861230
 3.388473700258436,  0.439019883875390, 19.043521189223490,  3.969565821495245
 3.750381548128348,  7.935128185591360, 83.430580535622553,  3.979185120564041
12.944517560963998,  1.774305148149639, 87.498818502887474,  3.782323684833172
14.888285821793415, 11.701202683557922, 58.946149856101378,  4.121594641789513
12.755130013729756,  0.223775614852375, 47.789964822306310,  4.025679348424548
 9.948894569373662, 14.878648372312623, 53.747093193689516,  4.218205366372013
 2.811135252711600, 14.607234419318058,  2.984714582195269,  4.215482118563704
 5.736942283311922,  3.058654964669571, 89.454973206278027,  3.987562316817795
10.441090143895472,  9.375110804735950, 66.745388040732095,  4.239631642523946
11.847427771493537,  7.878634485619387, 35.572578447677778,  3.894414967928089
12.251462185205753,  9.442655594846658, 56.230087296185225,  3.869760407604498
 1.634504135264733,  0.760404520911588, 53.079837924829135,  3.812077440029290
 7.235229479549816,  6.906755885634458, 59.930220575965663,  4.078723882854952
 2.111198596507438,  5.280680523754775, 60.649821295100409,  3.630133990199809
 8.828395935034722,  0.507924741942705, 14.433071936626146,  3.856722974728436
 8.874817142021582, 10.038943437159832, 52.712546928680396,  3.684823581141564
 4.189269033064821, 10.440120300707360, 76.817997765488613,  4.145789649232269
 8.877155433809097, 12.081636634988442, 80.862429016942187,  4.191577938035743
 2.605617950461604, 10.736491971016756, 73.181596679560158,  3.799128469434145
11.941213509201877,  1.386162099148270, 43.840321184060819,  4.253127306123594
14.745935497040263,  0.362552231437711, 64.442896494964543,  3.688077354355259
 0.970746448142212, 12.710238814691754, 34.888476102058242,  4.011491577435057
 1.575774396499139,  3.609630886731158, 81.871424506603276,  4.008737300831521
 5.907552047159095,  1.813793874649353, 35.412679853141370,  4.119127311838155
 7.320724270961959,  3.424371561102676, 93.181197185922883,  4.107637732561987
 2.171629008602088, 12.251715799208352, 48.126412493770800,  4.066185133218220
 8.013298018248483,  1.641344568970416, 86.210499393929524,  4.332679879202487
 3.482659741158463,  1.295197544243814, 79.030265261994344,  4.166714564690499
 6.074507918509865,  8.809213985187652, 80.166100510083496,  4.197203095428865
13.508709642726531,  8.911121977961962, 25.238009630390241,  4.076988398650709
 8.511406973094381,  7.993729630534026, 56.072099832371173,  4.120123941877011
10.846996769316252, 12.675889410319471, 32.273241586646854,  4.487843387262788
10.336635190417756, 10.443682487364308, 84.693687407945077,  3.755440672319177
13.734537076953236,  4.546086369603940, 29.523264852725649,  3.551482385090346
 5.577336362926735, 10.109162962033023, 15.029569256587912,  3.880291647358997
 1.051547050022869,  0.368224851104554, 89.921137156238231,  3.976426229419125
12.677259707498697, 14.815022232184759, 15.738714332494832,  4.390589276640634
 3.382785822882767,  9.242719934687285, 19.895680292927228,  3.840879191352576
 9.524991948620265,  1.965839976599784, 90.091001115940287,  3.979112468351593
 4.332036736241897,  9.016555476190884, 47.115206846188890,  3.969488215808763
 5.441057473016182,  3.352625884912182, 60.878464756745814,  4.075748515830820
 5.760012663471644,  1.975586255432863, 75.672375611454768,  3.664564063563082
14.043548407238633, 12.991192948128608, 22.906097176100946,  4.038409994337080
 5.097392827352508,  6.236022631614111, 13.777463954493676,  4.254433701524475
 2.062356574260732,  8.385357443133211, 87.174854722101415,  4.235773109171102
14.299981814916237,  8.603397671275163, 73.228071227568151,  4.096281117732908
 4.648909210258930,  6.851567986833730, 63.239623371937370,  4.261294550015401
 4.297357230164216,  7.686758490385214, 26.382058172105108,  3.839521407908260
 0.558943561452255,  9.003501408505668, 76.858038688353446,  3.637335104646953
10.711942632529439,  7.488359082745252, 74.571880543427042,  3.876822179896573
 6.169510484031474, 11.322073513374605, 30.939239337462492,  4.223144467719695
 9.439550683199078, 13.033135449723893, 42.546715005942730,  3.700568955591413
 1.833118088990988,  8.809867496517899, 14.078009998061912,  4.079399706216364
 7.085279017795211,  0.010992448815567, 58.782161223472876,  3.942673441273426
 4.419619326879640,  2.885095486221343, 50.693211353161672,  3.600536130207851
 1.422715908220838,  1.083404484838358, 49.164225522835565,  4.020495630159250
 6.335603960720660, 11.841088532724809, 73.592841118580978,  4.020399648334124
 6.238015443456516,  3.067169733418563, 19.511307935290858,  3.835441208068091
13.871831946265909, 10.013351498588760, 33.027925999836008,  3.694096062695498
10.807692925540790, 11.863643064827793, 24.951263693006371,  3.939165770797312
 6.993111321054794,  6.647897804913820, 52.536119721434282,  4.028962780190460
 3.569991838299239,  0.568575310410245, 28.646131865518228,  4.184102829154899
 7.211089688130933,  7.751727115947379,  2.143881093623011,  4.164751406169181
14.500181909585715,  4.390109173681028, 78.436303461132226,  4.183716227410310
 3.532853962490988,  3.706803794778697, 16.691939034729209,  4.065742023728673
12.925059153987895,  6.172841134757867, 65.910532336194223,  4.030837172290398
 5.868817719675899,  8.880580762938461, 22.940807018255519,  4.049285428920880
 6.071818084521764,  7.817057229538669, 32.791565132533648,  3.700362342837580
 7.538309942716410,  3.377822476662398, 12.104160411163930,  3.969377832850846
 5.575556465428593, 12.289632784902341, 19.153522287068551,  3.696284057600292
 6.739114714640122, 13.148566680925795, 11.847052134936161,  4.304179056290247
 9.436163065921503,  7.137433615998508, 38.630091620577168,  3.973796119868456
11.188860656697944, 12.044362001974747, 20.022811121809294,  4.275932621527713
 9.345361892194838,  9.717703731611124, 88.339410338469932,  3.924580175633594
12.991709193163636,  0.240014682648252, 34.822234219045306,  3.837850090456321
 7.356127607451922,  3.632734657913380, 15.958275074046538,  3.693812195124903
12.808017637913258, 10.793876872126702, 80.486042003361121,  4.084020780697901
 9.054963234330883,  1.825578403064214, 22.114253584640679,  4.213101711754740
