BANDS
8 8
NANOPARTICLES
cell(1), 15.017
cell(2), 15.017
cell(3), 93.853
 7.444833656125844, 10.334480601133432, 38.884515156726991,  4.121857891204568
 6.441908570921529, 11.921976917006907, 42.677953024919816,  4.339958612190632
11.148763046219992,  8.657072495402167, 75.070085671137235,  3.913813840579473
 4.295642248215696,  2.770755997008644, 83.987453589569952,  4.041213938148040
 6.053042905600654,  5.182696299954366, 28.458559311229099,  4.207549264872516
 4.517452183540515,  7.102152998287822, 91.380898348733609,  4.028157693834110
14.673446338950841,  1.652904117841900, 21.692653273499591,  3.876673236397764
 0.193017706972679,  1.572991287105920, 58.045743039287380,  3.803349457637370
 6.836313008066631,  5.450504868137763, 34.867461720371843,  3.649919203785459
 3.669545569787004,  8.469096521157139,  6.908167977290972,  3.802483345143975
 5.073918325644412, 10.241026349722137, 23.639003102249593,  3.858427458000836
 6.533738086184555,  8.789095704503296,  0.420622880233503,  3.780886571075490
 1.608642097709129,  8.649555704360633, 24.878548928948824,  4.132216524393058
12.469343394673757,  8.445157313190787, 91.007498757443045,  4.292090643617649
11.174118721110597, 10.710353345057023, 19.789794644664667,  3.724775330584435
 2.472218647460161,  8.214737693246921, 68.384996289080803,  3.465505452132126
13.295035466452344,  9.058577009619517, 71.762857909946320,  3.994296386005182
10.035803639298589,  0.129847287737383, 76.958032092613408,  4.303040110658571
 8.754280460036012,  8.972786373296461, 56.482114401521429,  4.215924799539705
 6.752718865201771,  1.050759609740494, 55.587124307296989,  3.776947356260514
 6.831809352879361,  0.446704003834228, 11.319347362009308,  3.870430998496363
12.289194364139933,  0.457583219241540, 42.633360538541680,  3.926433144814542
 3.081279874842765,  3.313536197500330, 20.766017177128226,  3.771306910910135
 8.965781797458314,  7.668963655305345, 84.117720143991605,  3.919777270020699
13.477944009701980,  0.077025350842984, 29.331410341660696,  3.882339259532524
 1.239825079815853,  6.445307870369422, 84.563990207989477,  3.431390624187251
 0.656113257032949, 14.306352148564802, 73.125823606365657,  4.113785248006629
 4.130368969805961, 12.748888907777971,  0.294433290409735,  3.827631387091280
 6.241797095918133,  1.504279567886846, 26.483653552310258,  4.123578690757281
 8.421627422953184, 14.000752265399028, 45.713387059989529,  3.867899129375471
 8.212343595639846, 10.161339058539404,  3.767369656706472,  4.026989733760115
 7.319139628044378,  0.346365608085252, 70.167102039462975,  3.779221602838822
13.580952863570252,  1.748001775435535, 51.053701834429745,  4.707477811645491
 7.802751169911823,  7.009699522938961, 76.088808159524703,  3.811920917445406
 7.837885643456741,  0.972987036081950, 63.558155165696554,  4.112116749339035
 1.532772828662215,  2.404448158224611,  6.437782025834056,  3.945413382996212
 7.501768418119236,  2.968723987205985, 48.144991092394626,  3.941506553059134
 3.972168299717114, 13.114708283019539, 26.191250438624635,  4.081429768535018
11.318929226781236,  3.299681712603036,  0.909176693637000,  4.199357581725052
12.048524822986678,  6.132516897571884, 41.263352729827588,  3.966177687015159
 6.813452338213008, 11.965088239728901,  6.722594936044585,  3.434742662039523
 8.864259891102842,  5.405985378932248, 65.902390649159926,  3.746684852714987
 1.396336685781878,  4.814537871918561, 93.665471023496778,  4.538375893543074
12.912592305770541,  1.891521306452655, 35.425320640795597,  4.051195027545880
 4.445692125071564,  6.698583127855833, 10.417166205764278,  4.194378260586602
10.109871487157898, 13.929494393700731, 13.112819121051112,  4.167099332694114
 7.513278584923644,  8.398514145415945,  7.645245616373309,  3.994664317964360
 7.206117644907066, 11.151275370217693, 13.136578478789476,  3.847096914986560
13.691411814716476, 12.391688653322818, 85.358661897604790,  3.872090812745780
11.484411605464798, 14.528262838516264, 20.604635841920565,  4.070624636611093
 1.462437229583635,  0.823313464100843, 65.187930317439339,  4.043175688237483
 1.638211429645626, 11.716773147039675, 55.597727754877958,  4.133152578993090
14.019281757222924, 14.706582590640339, 54.841322859188026,  3.943768478454838
12.712907974535026, 13.760865650396646, 32.977148353054872,  3.920638832154324
 7.253781383357074,  3.650587789022611, 13.718414721794813,  4.163043292505654
 6.885342859527864,  8.839298089875019, 62.737951420184402,  4.109374967790140
 1.406587192242479,  5.230700679578377, 59.115305087860527,  4.172204784424442
13.378584504541312, 11.496764287683842,  8.539458006589044,  4.005296191434201
 7.965527445551788,  3.356305228419608, 31.734017842083666,  4.112957222221784
 9.021336175429310, 14.546337749011791, 24.043739608078642,  4.252559304548365
 3.200591426749217,  8.239949098593177, 17.389732682414220,  4.164686204444409
 9.720197974872118,  0.600339929989237, 50.027460288284928,  3.559466788011256
14.523154350494451, 10.159181875874415, 16.829308184626040,  4.033065551591753
11.872756506684556,  2.646795652465619, 31.697944070242993,  3.774186038894510
13.603496226508426, 10.424211896848742, 68.075540482155603,  3.859904343142668
 5.290485345243032, 14.455143538697008, 52.506374852991030,  3.749938750735423
13.115812947291651,  5.536349239021193, 37.334037732001285,  4.186168266629688
14.777120899626070,  2.309806236762581,  2.880930477747589,  4.004522765466508
 0.237237544874000,  9.264702605010847,  5.116420368275279,  4.087431528548450
11.267343838886255,  4.118962631433382, 47.983439824853107,  3.907024700848756
14.915098610308799,  0.360855778024673, 61.625713002117635,  3.776220504792456
 5.172375977718445,  2.834590727941379, 58.466331947038626,  3.695933896062406
 0.775257862503283, 10.530953636946911, 74.398512749844514,  3.840088765435577
 6.318092307020739, 13.532747901180551, 66.649232342829933,  4.344924569668378
 5.865945519006392,  3.490643221341554, 23.187930500927767,  3.605062424097739
 0.530239903490648,  3.739019811346882, 78.154136235489474,  3.857430064926820
 2.183953815087806, 13.708713493658269, 89.363389240689983,  4.211134595395931
12.300415346520616,  7.804714251686592, 31.243608695080194,  3.742151906973447
 9.798459402163129,  5.583966382582878, 20.616742632754221,  3.394625610421239
12.990496678492086, 14.009543642073659, 16.249173544391855,  4.329285099991711
 9.727397888743441,  6.790351330104647, 60.736409926733948,  3.876967491822407
 5.044479833962639, 14.750670063553001, 18.850963690131600,  3.913767317641953
 6.922353720616798, 12.354908645081172, 87.230433562791319,  4.336653858230372
 9.709315358529784, 12.946693704328156, 56.583334570265215,  3.940489179130815
 3.471023804872441,  4.759339490778584, 55.806740561159295,  3.683507766420397
10.766393635787745, 12.155448713184123, 36.040905537981835,  4.000880778680802
 4.414469782601907,  1.220904807126260, 72.862931038266382,  4.336111890026284
 5.654787685203221, 12.762674700124165, 62.655835320159774,  3.876749849874370
14.408915941556584, 14.135999976553455,  5.404925578925115,  4.153423681817316
 0.579867225221752, 10.916719351205998, 33.038096487615263,  3.859862284568978
14.225203338548150,  8.799971383709767, 87.153347217386894,  4.182757992239495
 3.614397180713377,  4.633272228255541, 46.430074207360960,  4.091685781057324
14.131556586212669, 14.215801521402650, 69.122164331246950,  4.056346464729189
 7.971143210209084,  4.174763739724341, 82.393748590262092,  4.047524145833337
 4.151043744873398, 10.763052018522531, 52.279541236861867,  3.988086978413168
11.451433121466195,  3.622680455102195, 70.283307855355019,  4.245732674496366
 3.086617947979020, 12.136941594076230, 48.680153619946587,  3.964165775504950
12.563716747943340,  6.789857780415427, 84.402431708955945,  3.371911982509033
 4.635286451731472, 15.001489051146509,  7.239074073196370,  4.080935336481856
14.347342139755057, 13.146500382688147, 48.803483336941596,  3.815086669887971
 2.260259444605577, 13.126830531882595, 15.952281627401023,  4.249490059507437
12.335889091820270, 12.458239206857311, 74.724026899896785,  4.064540281554216
 0.215190254971733, 13.565238657321622, 36.058159937593260,  4.026547414519111
 9.845266496314869, 11.036634670940037, 32.191284071637234,  4.143160503104451
10.517960360275012, 10.445894287388214, 86.558108233714179,  3.876609698882410
13.020876508758695, 11.934387541107521, 93.346068207980338,  4.175338171416261
 7.025705265757441,  4.366478999180023, 41.582833080412044,  4.055636536197381
12.452382618044508, 11.676039668424284, 23.365664114300934,  4.097482246159711
 0.075812277501143,  5.422768324925847, 22.864304854657480,  4.057472052853520
 8.714472878714695,  5.042431579235920, 25.217145829147437,  4.046337875613681
12.694695799805821,  8.837405486889766, 34.950290077833920,  3.968776164089972
 2.476076745833867,  5.006108390458352, 81.261979256891536,  3.887972522798686
10.699379084553307,  8.534185719483071, 52.560927654154327,  4.055353282864310
 6.864284578327375, 14.368781476704710, 59.164051855527362,  4.141842086858286
14.435485443049933,  7.923576563977494, 13.416458019749280,  4.101022930294180
 6.322276507893025,  2.470533819972767, 76.207208158437709,  3.755402809358912
12.882753092387748,  9.051107664534699, 49.289235069773454,  3.766509451608806
10.464419526604862, 12.075608122136423, 48.824359809381178,  4.032824706201569
 2.116578544231215,  2.002832905784248, 43.856517889610302,  3.843419275503525
 3.454867532304009,  8.804195644965990, 80.990048356974086,  3.971791368298665
 7.887249366289147,  9.611081306907328, 66.886581120686117,  4.114759025078402
 8.829747407418134, 10.473611002925288, 24.905292478540353,  4.048149283483227
 9.570561819438145, 14.747306756715281, 30.676754231453920,  3.878921225087416
 6.559363669268434,  6.753944289469383, 79.730596536006772,  3.881363339238845
 4.904641997540635,  0.881071880702588, 87.377443092242459,  3.796179049876257
 2.232319871148559, 11.072301150026865, 42.932745368903944,  3.882078490821073
 5.091164784582683,  1.001428560700084, 40.736880677990506,  3.852473914502031
 0.906286826672099,  1.598627882192497, 17.873439558653050,  4.159604798452698
 8.827717776157025,  8.343043407581803, 42.203583448518941,  4.056055679067596
 5.189453056569728, 14.068069974136762, 82.175523504616777,  4.277422643672694
12.220196928410978,  3.212235357217004, 18.878163081441755,  4.163603915980167
 5.243446315267682,  2.531369949700349, 79.935534398276531,  3.993094518700249
 5.574264619343821,  6.097962994109291, 49.637555858380679,  3.966740634999467
 8.481298373540881,  7.092413163743115, 11.346138080750624,  4.071448121407021
 8.840920912587301,  2.967964058755852, 59.783088023358410,  4.095457232800304
12.883218788399272, 11.038526749020255, 62.170915929279722,  4.016371625928542
 3.163059158488959,  5.379179588883797, 35.049561995426870,  3.698790916693926
 3.629123604646899,  0.827081982719045,  3.248690725513539,  4.219316560963222
 7.630970129215467,  7.522111449340056, 31.600195447100202,  4.234993008328232
 6.641111705862938,  4.756029610683401, 62.690075766088633,  4.009786396920550
 7.469567683176116, 13.929083915033010, 34.036461232740699,  4.156858915277153
13.622118196781070,  3.889715536021864, 44.227412237147931,  4.074749010987862
 5.555395390678798,  5.138092717239824, 73.588864764331007,  3.860117855258899
 2.818093814984275,  7.048924295325431, 52.786587820320747,  3.954642020692513
14.225610093247248,  4.302796262468509, 15.305916988020641,  4.034267590871680
 5.819146355025632, 11.239126645762012, 31.407682742946470,  4.006440571557611
 5.955635010335714,  9.047964266393741, 73.441038381663162,  3.783126250319245
 2.981894169127643,  4.417984702632364, 40.781071647768790,  4.151647626184684
 7.709772337501745,  1.354339465881008,  0.535428884467693,  3.952707360752954
 9.810984484859217,  6.293515466846015,  3.313410062633991,  4.040598033808757
10.331166871182488, 12.845113692781259, 68.065702139759807,  4.273156912295868
10.774474913761937,  2.304753176647150, 15.208503616365254,  3.907235685318017
 3.121161145550644,  0.185737490446242, 68.933281148813279,  4.191239838140389
 0.890170272062882, 12.111576829483974,  2.289904849021620,  3.854282643498598
 5.165500598880898, 10.730616248019532, 35.439526361836400,  4.173485754916623
 6.987822099388530, 10.734009545996283, 80.289491611971172,  4.178999319818640
 6.818501494790354, 13.507563245375247, 49.172777391246647,  3.814100332792278
10.759029100232189, 12.345973180091992, 80.031162985059837,  4.000762251309686
 2.100793570256458,  5.347214010048384, 27.261107680320624,  4.056807616946542
 0.069628037298147,  3.485975911155611, 54.697871982570348,  3.909451660118297
14.114544539302674, 14.441313791684422, 77.915031788883724,  4.192663837753643
12.731223976667426,  6.950677474460758,  9.719625612225345,  4.251311059787997
 6.096639145569808,  3.643989559385893, 89.933032107394311,  4.098566934465931
12.982275055791215,  5.548444774764369, 73.550727853387244,  3.907085561343751
13.362922667683080, 12.177033421559516, 89.283234711128685,  3.979559122783191
 7.274036452048011, 14.040877370517698,  3.694916680024453,  3.933469827335370
 1.372448251720992,  6.893726364116125, 43.819072076822124,  4.125794518757306
 5.337439538615257, 10.544177672295268, 59.453612371422942,  3.892726110362984
10.236703392671181,  1.805323824291534, 27.356549353647488,  4.060370656560500
14.480725677724850, 11.032804426743466, 39.022228860322777,  3.906969742652832
 1.252950390775728,  9.221084815059207, 10.068277545686758,  3.962288415247895
11.508971042291179,  7.597762936022281, 23.395870656090249,  4.257054883041099
12.777103915404673,  4.539701494098158, 25.966361085286817,  3.842939283662512
 2.394104150296001,  7.429402317436167, 72.234533638167832,  4.376202894817450
 7.062421894510862,  3.865872500168606,  9.855990419881040,  3.573766176341359
 2.350665427299894, 12.422291324048210, 29.829536084682925,  3.960540523640426
11.042810597856670, 10.225459968791679, 11.584458838347507,  4.006146718847210
13.316914652627911,  2.370832366749489, 66.930427307997121,  3.789668055183058
 4.391209514990692,  9.069049596238658, 45.752403716807564,  4.245956308769790
 1.546733313922132,  8.770176350336566, 36.344181824638859,  4.245527240542813
 7.445345614787638,  6.031467713420008, 45.388820009989701,  4.279431333113661
10.124053702025870,  5.511778502978661, 28.985964503114143,  4.025659932050663
13.627264151991515,  0.725467105050617, 25.402699388962116,  4.051001104142366
 0.221319750836747,  4.385834351359887, 11.523464437703581,  3.745109495603724
 8.890385691784628, 14.222851590200728, 17.404367719301341,  4.190759880803387
 9.855868682443756,  2.944275376224688, 88.789922341737906,  3.823997697149875
 2.018410454560200,  2.884564892153789, 89.772427648794732,  4.194380573318607
 7.495769804796642, 12.045774929285585, 20.813748548368274,  4.359866159132424
11.152002928213154, 12.908387690255722, 27.099791187507453,  3.884849617745493
 6.742221829477969,  7.801923899984716, 53.073811706124175,  4.038570074820321
 8.701243690156364,  0.604027697852015, 80.806313126923314,  3.874851797781751
 1.691512632124255, 10.214563934760523, 91.930213958689976,  4.439033478922360
13.757142062801790,  6.993764015875982, 61.940932621522244,  4.228622233209054
 2.415786161992074,  2.171494971415044, 24.610607099827689,  4.216784465368741
10.674450040904224,  3.631107821309411, 11.384715513397200,  4.103205088449112
11.447592686901741,  1.852831651532377,  5.186991520916942,  3.831395700187883
 6.006361576129366,  6.917128973533551,  4.278106815158695,  3.884226758326996
 8.455753498934541, 14.211271570187765, 38.539904068181649,  3.901110556194667
 1.491008853385984,  3.873514734295285, 74.321641545851875,  4.040274852309457
13.583083855294159,  1.100195178246727, 12.717520858503857,  3.975224511809493
10.344392666995562,  9.134875596301386,  0.600039337868352,  3.877394827468508
 7.507088937567161,  4.957357946679693, 56.018160178721530,  4.226674212628997
 7.375948025715264,  3.075150182550335,  4.291850559406161,  4.234676726178058
 0.532767700397210, 14.898582108571105,  9.448207040678730,  3.994739799873432
 3.278013835193515, 13.008052924823909, 85.554732918138342,  3.769240669115013
 1.556695014381879, 12.341456004690913, 66.764039273378756,  3.598308169193052
 3.622393105008684,  4.117116950081723, 69.983317932349422,  3.890442450750908
10.932567971414477,  7.491825798664672, 68.715897253549983,  4.155389300525689
 5.994249576487609,  1.882602039826809, 44.596193829540738,  4.000281874335997
 8.858611935914185,  2.308907893257825, 36.012078893393401,  4.160042358168775
 3.896326598858681,  8.169282388502461, 32.749962410380618,  3.673094173833997
14.603885196773774, 12.088004350349619, 12.706065263829316,  4.323436076554234
 3.215706910804614,  6.974564830436301, 62.427245026685824,  4.129066947293386
 5.495207614169641,  2.722981735531219, 66.535192882926523,  4.225487565448139
 6.291950696783348,  5.252147862575348, 19.994295424258244,  3.721061312667802
 6.679098887857034, 14.709381809482270, 90.718676822627202,  4.040436518848060
 4.625980630271304,  3.307418852120552, 16.962456143731707,  4.211650448702430
 8.713776671909399, 12.613144553235051,  9.668672696089834,  3.685965843294417
 5.100079093243219,  7.323260012134087, 37.670907482905150,  3.872190699788910
13.702914374829325, 12.759202512467263, 58.451597618345197,  4.272805578352256
14.622849631869832,  6.101767309940609, 69.494055007581139,  3.879918875510832
 1.259121920976951,  5.847102712192787,  8.173276681676658,  3.752172232107678
 3.976115768660003,  1.049598486323871, 48.303362040339508,  4.026948782853039
 2.806969358344055,  8.437862349240884,  1.919800094012786,  4.273273583973590
15.007545859429584,  0.668096550783439, 92.834090437298798,  4.370069200792481
 9.267675223980147, 10.975955157685355, 60.135223186913692,  4.127368110026404
 0.015920808051635, 12.074433244895713, 26.546578536362368,  4.125502179828981
 4.729328630295825,  8.117986485868158, 41.639181781887650,  4.208301796848287
14.641794937575449,  7.754785542992010, 81.466644608617656,  4.025923221786412
 9.251590346566466,  4.059718756373605, 78.379131400065901,  4.198831043617369
 1.196946758209952, 14.505871841556534, 40.646477142843921,  4.502348970521376
 9.427987937070323,  4.352365780228765, 51.680644662898025,  4.327706803502512
 5.467912542528645, 10.427785839716368, 83.951190507006899,  3.683297143221611
12.951462145419473,  4.263426733586583, 91.042666810496684,  4.123547376591889
12.426619063610374,  4.551161624217373, 58.979853664159293,  3.893330769918070
 0.385843586764430,  2.134002261488621, 47.248275967029691,  3.764128318249591
 1.811102621772001,  4.714282261594366, 66.435174655514416,  4.152557797504546
12.314720673925185,  8.802697231957495, 58.531052799288766,  3.998559682549377
13.778031203290407, 10.115482047286642, 78.023826841003867,  4.484990676610813
11.872173615889260, 15.010869604315177, 83.076997306244891,  3.963300690824262
 3.389528212475444, 11.288575400985568, 20.160665914029543,  4.076516608079041
 9.984470021441320,  8.635897832017342, 78.751386886657016,  3.743158564944312
 3.371274446230590, 13.720991852216464, 12.021962445547230,  3.998042066819703
 1.541639567009562,  0.994859821090380, 81.017101760842479,  4.299312468144111
 7.613704218852083,  7.636933269740847, 22.542599784265178,  3.715076279668710
14.582550535939056,  5.413741211167851, 33.424597712306600,  4.154381446473558
11.502291536120056,  1.178142960177585, 57.520843834355865,  3.684272795016517
 2.102448501774159, 11.943748615939157,  7.386644092552524,  3.862850383112949
 5.745589002184448, 10.872059855356278, 91.133068437551131,  3.882634000205896
 3.260798828940273, 13.751364863601387, 33.464727193797863,  3.980605079612908
 7.979870772124098,  1.852429880908116, 20.497004377956845,  3.915896248318222
12.593591114530147,  6.128574394599617, 77.605349604158192,  3.807164998257726
 8.504147885576794,  0.307364183203710, 42.156705048849403,  3.665075856830050
10.549083664876839,  5.432411640177574, 34.040723891552076,  3.955858281267848
 4.036203999978240,  1.549051622116566, 93.019030976725887,  3.888736819112939
 4.011081920400594,  1.461347935573828, 61.993101322250936,  4.214110376059335
13.134872074678581,  5.951353804036542, 65.786494525049093,  3.727349557653807
 9.329072921739748, 12.193897035078432, 64.045922677226685,  4.052461312077813
 2.846746627410348,  0.688622008005780, 55.287703705131001,  4.048795299398702
10.755744584662107,  0.208784632812302, 91.747374346013046,  4.425486792554351
 1.332432144629046,  9.495634378337488, 59.491679719222958,  4.383780461531090
 8.735326718316532,  8.732778147665334, 35.381753087319751,  3.999360209003497
 9.462391643248660, 10.827019782021020, 71.845130731648950,  4.427346777713538
 0.357986852404819, 10.121016589833472, 46.380436601289631,  4.174911997931308
 3.448562326824966, 11.174782895697382, 39.154215263381573,  4.055839622764110
12.714941741909215, 10.689501850777253, 55.154114247375610,  3.758886486794769
 1.077680817863443,  8.268185658027164, 30.130371903487504,  4.017891124972932
 5.666056549021131, 11.812033067182941, 70.377057831442443,  3.925416661963356
 9.454729473902729,  1.773450597895982, 67.183286861277622,  3.974067891421913
11.858474319803339,  9.994413765625307, 83.018252579503198,  3.736229612842329
13.548824284660911,  9.608522862920779, 42.635943193821809,  4.070454213032296
 3.373601253797585,  9.854919052608613, 13.506063481034312,  4.196422067353582
10.914559355024071,  6.359714486304495, 14.384374704863813,  3.841787433711187
13.587847448292415,  7.282824061694456,  1.943637239822208,  4.050828667046537
 8.751892192283966,  5.827738846962016, 38.197614480489946,  4.064271380751681
 0.231750244419359, 10.004722970939673, 52.204624325735438,  3.970213263064741
 8.537522657074124,  1.024070224637280,  7.781837590646970,  4.055381387771906
 4.956219153458310,  6.616830174789133, 24.920738271918719,  3.700355991934012
 1.670221836828948, 11.268583446292469, 70.519801125735611,  4.142058907497893
 3.403337554252519,  7.422470551892046, 21.416533054896082,  4.038775988331971
 2.497843778135976,  8.381855242029550, 49.200568619628939,  3.693523906856406
 5.261436317420192,  6.737675427821892, 65.889080714754215,  3.915538281111322
 1.499201316350312, 13.426419194104581, 23.020212946579271,  3.978052441103352
 4.243650015841921, 11.550903259703224,  4.144411823915640,  3.889872009296237
 7.795656803751899, 14.123553758349184, 73.724901537041220,  3.813754537929804
 9.035274304739293,  5.918416772332654, 92.097160152707559,  4.500914677764802
11.096155940451448,  2.882019115981035, 22.794928266354670,  3.999548245676505
11.996034720749998,  7.254565096756600, 18.094683451199774,  4.069653268279260
 2.061169466973990,  1.554870184775435, 28.676807663627105,  4.002364221411847
 1.438533943266060, 10.040474316935677, 84.077738258664198,  3.803653822324537
 9.074814631241685,  6.581680878438488, 72.310557656154600,  4.128720915649224
 5.664502189566568,  4.872730307996505,  0.804719067017806,  4.203573299824421
13.231846698096758,  2.999801768285797,  8.401927735893144,  3.852942729529204
11.011100528364659, 14.376000440014318,  2.142126755720472,  4.052051826071813
 3.219801985248029,  9.894857139060393, 87.961290701957523,  4.087936043410930
13.981093422383815,  4.906373285185133, 29.559234660743087,  3.729296558003790
14.638315839815638,  9.072778849607479, 20.875888584515021,  4.237918061898531
 3.938897169422682,  5.039865357871712, 77.283606199007949,  3.575035183661618
 7.525370959584548,  4.070672735364814, 69.691544122133493,  3.739584011695907
 5.062670361832741,  2.163316652458560, 34.257971288599428,  3.902705774325503
 4.730719267068792, 14.450867765806930, 37.129501058288866,  4.035951266713702
14.247538893638417,  4.706606102814775, 87.189236440540100,  3.957565290091557
 7.468647043834631,  4.739410414321089, 86.313421335412286,  3.935648615490523
14.876833776530447, 12.829450124640806, 19.602554151184968,  3.695747120709189
 3.817300578818973, 13.717182807924951, 45.197192574611350,  3.766114753904429
14.237378236329871,  4.104138106896357, 82.884409457967720,  3.603732870068899
13.654365235049752,  1.010910451260782, 88.970619375213332,  3.698395779055441
 0.914768473205782,  6.682833451161103, 90.017666758117301,  3.709350369735806
 6.187655405357603, 14.113025400320943, 78.121355242645350,  3.990057674447764
11.205830306231174,  8.944839641100847, 38.606965397311392,  3.902934088133641
13.684122630999276,  5.285116959319859,  5.342852991032592,  3.793546502930176
 9.550614293573251,  9.355750851897961, 28.590379293905436,  3.784437570447121
 4.077596938346679,  8.506424341340241, 56.244124954165891,  3.956768245135148
 3.708794014518852,  5.846097814925074, 87.375932475310890,  4.133361790680238
14.796787480343712,  6.033077155943459, 47.559085040822580,  4.145742113578075
 3.490261817877716,  2.527271581170212, 10.360749846521731,  4.120439630435104
 2.811311879911128,  0.817171985324431, 76.742898922124397,  4.074665346814871
 8.752391135638920,  4.908588247499932, 17.184825405407626,  3.779051552652096
 8.397024085219847, 10.041225372173093, 45.848178423023747,  3.985174217150265
10.992497101675115, 14.668411558856585, 61.149381441660559,  4.251087698157382
11.053865915110004, 14.771405563277719, 71.663686165726133,  4.001413831860844
 2.999829576126372,  4.624687830468029, 31.211365191921718,  4.082725521890594
11.651639414574309, 12.034407413721100, 45.091389065400797,  3.794968173136556
11.823337302028694,  0.399816067361626, 46.948567544840046,  3.881922962700152
11.062410569597654,  3.426655904053360, 85.043341682014386,  4.103091059963397
 9.363253400745622,  2.766933831598508, 73.769187087331687,  4.058224297929226
10.635391505525213,  8.396274689478943, 64.193870166964743,  3.953868547782621
 6.983464997325962,  8.240689612300786, 88.303847620331254,  4.158943166112540
 4.502967630827939,  9.322710096128462, 27.929249780821383,  4.306830577162192
11.313393820034682,  8.783141567961225,  6.205292914484129,  4.139861812441337
10.275951541116724,  0.820306973507276, 53.829782636786646,  4.108350572979426
 5.556412602862235,  0.204202633371908, 30.393007176671400,  4.221707927050512
13.177344206003227,  8.380616048971625, 27.214698038504817,  4.211130028423009
 8.200472668961003,  8.442253529592630, 18.804663422796978,  4.007217936353333
11.702355884517440, 14.787461148669014,  9.624724584179779,  3.685527138667176
 9.835795877910554,  4.972702274835887,  7.270576425940356,  4.297210693231773
 4.317019315472935, 12.437633637707947, 74.844714793690059,  4.233611518465271
 8.112786164943099, 12.386919042522617,  0.109422107226397,  4.063200090348455
 1.682147059650509,  2.343575982991778, 37.273203752944539,  4.383573344602989
11.501520840109844,  7.214193986486803, 45.353625236908563,  4.126854511321252
 1.723975823900825, 12.102400674881162, 62.828554069321136,  4.089988252742999
11.153703123557559,  6.076266009028068, 81.214577923013607,  3.725797876722552
14.275496860542038,  3.117301536537573, 40.426682453991283,  3.714435907788671
 2.831010725582649,  5.756300342796179, 14.108654846769397,  4.081403539320383
11.224444836076986,  3.498181103193184, 63.231911494906662,  4.304900612447149
 9.577567685658781, 11.393204190837848, 90.321839319994268,  4.003033247904308
 5.053738394403288, 10.763623131926268,  9.823913408653311,  4.088497423783414
12.518574970756820, 12.670518974832971, 52.017659402202817,  3.631272652483642
 5.743068374867090,  6.638075080640596, 59.293000099810264,  3.930678866274261
 0.135826641574883,  7.519458362873682, 55.825907792157281,  4.199905274958728
11.573374893055725,  5.471001458517636, 55.156790979153151,  4.133957556300910
12.491099185429093,  2.399510012236650, 80.076566873478754,  3.823702793985466
 9.828865170122793,  2.799895758344371, 44.630685312230867,  3.836088496095807
 0.901976436897408,  3.771560469305451, 62.741743603511935,  3.675065701885772
 0.566887660562462,  1.136002121240094, 85.326452850784193,  4.528442459859776
12.406503740462066, 14.619664545223145, 38.740506930344409,  4.000773683507396
 0.681044977763884,  8.803151976887074, 65.126184554432328,  4.050179089668512
 2.206513521055596,  1.837939498526313, 14.075579286503823,  3.846639053214080
 5.747287376597414, 14.965986603414807, 14.998137365754030,  3.862711257161942
 5.166896762284502, 14.832835816028547, 22.760183609441533,  3.879459613717699
 7.732921542474999,  0.965571190800785, 84.700524747731365,  3.843625464230609
10.736388490556035,  6.623945240433590, 87.659962605389310,  4.072259313898934
 4.247387563894907, 10.364835697831849, 65.254160340893307,  3.716667656039407
12.851693048589722, 14.031979504035723, 64.909725138838084,  4.076525319453838
 5.777527620728627, 12.198114207161879, 55.757276498483243,  4.203201308679232
10.460097681234098,  2.755112715192001, 40.067310434682526,  3.865099442024515
 4.512761296872815,  8.874095495495036, 77.041731130204539,  3.930621701532604
 8.844975375997270, 12.368649587615369, 83.537650550165409,  3.979018101751395
 5.213081593010187,  6.660535457582515, 83.751163172985130,  3.838860281810101
 0.551308272979508,  5.531739514939765, 18.884081596058238,  3.906926968129527
 8.049202502733429, 11.001834272973900, 76.225011179441594,  4.186519793757680
13.971849022356290,  6.130547696625301, 51.777036064155325,  4.208479123998878
 2.582941946517872, 12.160584545225246, 78.742376557699231,  4.293157185200050
 6.212340138855598,  9.828940747070169, 49.175732353805273,  3.626600582369553
 1.541372721057116, 13.749321630891622, 51.964032840873891,  3.949885015054213
 5.562610307956899,  3.513973847459145, 37.915015558735881,  3.752516367797755
12.404017651957338, 10.936614089418804,  3.183016076083699,  3.568487984833029
 5.966931308167893, 11.299544426029827, 16.936025805008889,  4.107372320162068
13.193411178012809, 11.290732390245724, 30.006852881113620,  3.853945895880643
10.457339144750499, 12.864950386822731,  5.954399627403891,  4.215501390274590
 2.833056869634550,  4.824330273145719,  3.717510720280306,  3.764036305464598
 5.891784231326222,  7.590338528382349, 69.828640179729334,  4.005287953072489
10.632599946263589, 14.453232478589348, 87.008644842683680,  4.160469770208254
14.993030072921519, 13.979519246519924, 45.065983206894657,  3.937408415201897
13.122834996229148,  1.873270536913102, 74.862732986795663,  3.878302071289466
 1.089002865111394,  7.143573197537895, 76.388978336471240,  3.696583974369405
 4.735225353150822,  4.534047047514243,  7.031596543306483,  3.824209242731957
 0.475004690019033,  7.418220458488953, 39.991320136280429,  3.805984376539120
 8.613406649854584, 12.171579727164325, 52.572819684998436,  4.312589662314458
 2.756222489377571, 13.715387479339798, 59.086699584104473,  4.166844724492791
10.468021038639330, 12.014658087642466, 41.277977220559301,  4.183789097672180
 2.166006401119055,  4.067561198658561, 50.234611852010936,  3.998194528683898
 5.391428491647558,  3.391988213832613, 52.667379574804251,  4.165498333147300
 7.425446582713743, 12.505379777215072, 28.053916894861235,  3.844055848428798
 0.246297607417284,  2.504853297122550, 70.889972501748048,  3.730909757607060
 6.670809519201232,  7.610767947874479, 15.055999258898295,  4.248237631518890
14.498355117482857, 12.443853059696430, 81.486878451851169,  3.971679417090762
10.394532868180045, 10.473034721652310, 15.768880498904114,  4.471792914932412
 0.577536185692872,  1.565418588352713, 32.419723462938606,  4.026411734833044
 9.287295077185910,  7.495893930542753, 48.875463985031246,  4.102259300069765
