BANDS
8 8
NANOPARTICLES
cell(1), 15.031
cell(2), 15.031
cell(3), 93.944
 3.152506787177226,  5.443088730673121, 72.801885869612974,  3.954549957507962
 0.455637261232168, 11.046952143698567, 88.538305430029681,  3.949681235179887
10.660258997463002, 14.186016410329277,  4.313594990118604,  4.049333140829438
12.209076437695888,  8.511144953069167, 88.334715725076165,  4.286071939539541
 8.027327181149255,  9.203307247545817, 39.348648742638247,  4.349150139186681
 1.026739888435362,  6.967884262386167, 48.129690339044039,  4.043171619344886
 1.910206544850829,  6.750395063864957,  3.695769841378791,  3.978610418157098
 0.976969636863404,  3.671701737518858, 56.642473268132555,  4.038296447779675
 8.101219735499241,  7.413527965131371, 23.204971086089838,  4.206609867338233
11.166639467940509,  0.857476755628511, 88.247469340292696,  3.945820573035839
12.249209954642266,  9.950420061263273, 78.165354164592301,  4.006223969116460
 7.472594906075806, 14.199920715351583, 61.153382611461971,  4.181916378654245
 0.692543598628483,  1.555229002151401, 73.405992010372529,  4.000202192272798
14.590892123328620, 14.113286993670343, 41.531868700678622,  3.772233910298056
 4.052586219674757, 13.572719555411959, 11.310183343258094,  3.791806967113639
 8.885116708610845,  8.239081546330020, 45.684003245103632,  4.426970392283982
14.287809311141228,  9.633525183979392, 91.966996816703087,  3.815960589527195
 5.161961650583920,  7.811154437178815, 32.903396997160080,  3.771400306747297
 6.237459623156644,  6.308341252789695,  0.079510264275192,  3.592088565379556
10.408714413403757,  6.603213194302426, 70.055622625213147,  4.127561421499203
 6.157035487561579, 11.567103250849016, 32.852918121502825,  3.986931891136519
 7.534091344279493, 11.634880715064043, 76.006118832304338,  4.128831737435966
 0.418622463718427,  8.252027526586399, 85.611162779774801,  4.141231952302726
 8.615943213072111,  1.200756379088700, 81.522397305376330,  3.971664629777746
14.593682528618148,  9.789101423958227,  4.770329947616811,  3.991676942268509
 8.642438786882925,  2.017148474384973, 28.116642573596781,  4.022628769791355
 1.946467602765686,  4.276373804415578, 63.941009763013625,  3.717040167299843
11.100103264855363, 10.611610356841528, 51.909280352065792,  4.236016186513925
 0.832429299870268, 10.857202892509473, 68.736866796072576,  3.892295068597592
 1.480931450566795,  2.925985160888758, 90.561115690157663,  3.990670953415983
 3.931360222496251,  8.104036773949725, 40.404711017765216,  4.317422473228425
 1.932664708761327, 12.701675852181710, 44.344546008502839,  4.074750079073745
 3.227570874400134,  0.844500149061492, 14.545161580822988,  3.890280579023182
 0.765409813574594,  2.428646957839577, 35.841055269031820,  3.958915487573704
 9.073739972040208, 12.327491105576838, 55.216155143188104,  4.238647049501327
14.850607658614850, 14.057953334098480, 27.866474144314129,  4.133395168689113
13.688434914390125, 12.229738727773773, 84.891833585189872,  4.504908536163419
12.686435722893005,  1.964819545253957, 49.687608094124009,  3.956198995065046
 7.053754592724710,  6.207078857166404, 53.061279063262113,  4.052076386843118
 3.512776109522310,  1.461131523389021, 66.623238659549145,  4.042335136585621
 9.308080276254399, 13.669337597189703, 33.578631988227869,  3.699626856018529
12.642294413374435,  8.562004456964194,  7.876454189726878,  3.743185419252044
 1.083015812268126, 11.965636923691374, 62.835063050865912,  4.214503980627738
13.623046998309357, 10.634413996768336, 11.021153370565820,  3.999556915133402
10.410778945556041, 10.230703691891215, 32.060664153575644,  4.129803697510660
14.137579335764112,  7.602974613663513, 81.890394229263663,  3.843997588571678
 2.003329814294625,  1.839652173738439, 60.014537845608764,  3.899932880187117
 1.584709893359860,  5.198832995543240, 42.652875389036900,  3.568112670509514
 5.908619514559172,  4.323051676393009, 29.905290038726406,  3.953820972823773
13.476645265326233,  0.429391889865259, 38.192658730909514,  3.757842938475501
 0.591075087661545,  4.529007597221661, 79.914987344054154,  4.031603466155914
 1.382327205310410,  3.454395710022080, 50.032703732162268,  3.959751945070454
 4.617600866982597,  3.456991815974193, 36.762944188411318,  4.211927193092019
 2.769368131596170, 12.153494240036110, 40.400909505410795,  4.040435413648669
14.183151901140345,  8.753152286915681, 74.750207355724498,  4.140714390122258
14.486516302575252,  7.260598272868758, 57.991017832217203,  3.732176745443271
 3.920621142975285,  5.970166456660932, 91.110131530290019,  3.880130774723416
 1.139495981336393,  4.407837518339876, 84.035395829097837,  3.991566563892145
 1.218212451167717,  2.604705641326972, 11.375946191875673,  4.390714090616446
13.645053263345538, 14.728418864478829, 46.365871619293081,  4.263417661514573
 1.097444389360323,  8.636712168076459, 65.395392579800685,  4.066246473038495
13.377948275070487, 13.023831466555469, 54.775560292611871,  4.490723718820846
14.938155023337730, 12.358974512841050, 58.807877087097502,  4.210305695308040
13.529385610061746,  5.969974431898946, 51.052057158596192,  3.938993436043087
12.304730681196299,  7.026315902527489, 63.797291872186328,  4.182723602866378
 5.297403521747852, 10.297334170953629, 43.897209545127325,  3.873635897850509
11.914366844479812,  0.375968139558973, 73.318024722417675,  3.975571709169167
 7.743412812429510,  7.963981737592458, 15.536635628769293,  3.830238250497896
11.782390677721670, 10.042403126714508, 57.465823549079730,  4.065412830288589
 7.355218475932030,  1.262262331121911, 64.888709007204980,  4.380107789998627
10.203842855997458,  1.207445194341953, 15.613982645734234,  4.174106131477534
14.289125184625577,  1.825826407430677, 15.077719470436117,  4.123589910828589
 9.101857977604226,  0.106138183206333, 91.490098880296642,  3.793729343741717
14.066243505817420,  5.534195588160213, 18.734000938574479,  4.046700456554396
 4.587228433456919, 12.095401892038129, 47.296006132026505,  3.938413244555532
10.579782061018163, 10.054660119349752, 42.417160725305664,  3.780300744911138
13.260416223899780,  1.947306185949982, 76.610564417262580,  3.793912713479032
 5.100038411209695,  0.672574906669228, 50.729814981890996,  3.848764965486628
 5.479511515472862,  4.475762144462493, 49.779342735587655,  3.989497431279370
 6.420628027073170,  6.615493951046111, 70.862751407607462,  3.998016930342594
 0.458918824647260,  0.810273620175049,  0.085991374742509,  4.369706391496562
14.615885915285718, 13.803082761328151,  5.088293379061725,  4.036798452809358
 2.515441218793722, 10.620079620615192, 75.872625571308390,  3.824918115599463
 9.431491609636685,  4.208627282547770,  2.743063123828892,  4.262224257771430
 5.080146927688886, 11.103976307974918, 62.369198372023085,  4.004031409249438
 0.569485779562723, 13.262853408158151,  8.905823027193470,  3.821643034669863
10.717956293585670,  4.722132221424229, 88.712045510237971,  3.887704024823728
11.981159269629449,  5.872410161178681, 84.930287517526324,  4.328212122118226
13.094071149866082,  2.844413415096716, 23.230169886138391,  3.978067302761148
11.286280267824274, 14.831810493152490, 26.165219724835357,  3.899354088145609
 8.575597918600380,  6.852134510778416, 31.118798537384894,  3.786782683402921
14.727422257634895,  9.382167634463487, 14.711941641857655,  4.088530077280708
12.834648507633808,  1.679182993532576, 84.603112124059649,  4.162445488158108
12.543121850554007,  8.858997152721328, 48.544627261320819,  3.878324049234442
 1.975310745502530, 10.431370311637224,  1.559276601680192,  3.834283336819973
14.481822377835448,  5.194423011477950, 67.073863894438531,  4.213229204009781
 9.709555493047043, 13.960750344823378, 84.820068898109312,  4.165245566333540
12.169911474415791,  9.300392965286587, 21.427525466061429,  4.228564873628565
13.776359083515711,  4.169038252056922, 60.962092830240643,  4.323453316292279
 0.049565508691266, 15.007351297545684, 87.881658152818943,  4.108679969055121
 9.373506984493272,  3.437497083121883, 24.470553448307538,  3.930219963461125
 0.373806135972196,  1.781545315049333,  7.455371041456858,  3.780567961047930
 5.566286659455873,  3.127358698404561, 69.459163939573884,  3.681944536193364
11.865652530471918, 12.424360065516241,  7.806474006834022,  4.130835446316450
 8.535704380759849,  2.024359064376375, 49.645956560280432,  3.846877467042577
 8.546252346987661,  4.653116324247898, 56.426519904217251,  3.936529142347218
13.375797656563007, 13.794434610062840, 69.889626254835051,  4.110696565364937
 5.045250295311891,  8.036615895868499, 47.737487525332895,  4.263937703963975
 0.790380995944372, 10.998091000079022, 47.861875115842345,  4.044428392710717
 6.350627025782113,  0.477988961755883, 39.028846005415048,  4.034774548050851
 9.746378307497078,  7.840537248329698, 75.457711890223024,  4.463861421605370
 4.670601721900676,  2.011824680415465, 18.918880564971570,  3.573197967299808
 8.826606950749051,  2.320845682152881, 71.493566467494006,  4.168334958952737
11.976112681862274, 14.258403995944517, 81.556711092707900,  3.802027862308283
 6.732269375381302, 13.100936506499329,  4.452935058300800,  4.100857223360397
 7.530113261620209,  2.054282398564511, 53.577966617436708,  4.023025299301982
 4.530827373789169, 15.003961301378226, 42.547449220861971,  3.727150949124960
 5.106351566414113,  9.750782272775472, 78.665433183963899,  3.985079732332975
 3.697735954700818,  3.723747840417005, 53.462205356711614,  4.323658355475820
14.152504944803100,  6.634552818255467, 11.042151668599919,  4.067593881859551
 0.240278843133846,  6.560619066329377, 90.012363754876915,  3.713056419257307
 6.431329225903132, 14.347754067141132, 68.600059746863693,  4.193200568916230
12.884427307105192, 12.968990466770169, 15.845546614364201,  4.282764493333779
10.141735914154436, 12.803080171049414, 18.799872580499208,  3.781256566065802
 7.426869398590951,  0.054395156294008, 12.728444978680509,  4.120712300932992
 6.295539026283094, 14.256223779445399, 16.657269333096401,  4.221790273531187
12.651266968067745,  2.688782818929025, 91.471374389232125,  3.953503017973181
10.292629809413906,  5.551631917549897, 27.620552101486481,  3.839821570946863
12.501793310467196,  2.651610881914788,  5.033292750293541,  3.971277240394393
 2.536733997570598, 10.153538243419943, 12.057564293491991,  3.835053064856639
11.360368394283585, 11.703108376426197, 74.658992240277485,  3.980305966425237
10.437484705089545,  4.824547464856199, 20.733733514825726,  4.316892858169989
 4.419871524219454,  9.328080823129129, 92.793743124588090,  3.689581936029545
10.178403335938311, 12.087343178293713, 88.362700069586950,  3.901188462052625
 7.486423717060852, 12.364078178494903, 50.278960560135054,  4.396567156910495
10.189025151079090,  6.274449633241105, 34.519453837376155,  3.801482957101560
 3.323546821003675, 11.055457346501697,  5.202684898673541,  3.981007632469686
 4.142479227458502,  8.353131466317365, 29.114313516187000,  4.013032886540378
 4.078767478616574,  6.329491084676500, 23.830236650975543,  4.209346784498293
 2.286287069240504,  1.192630207486183, 39.480616168746657,  4.251524107085983
 1.640141945509316,  0.335809779668606, 52.415456436872937,  3.874988704182555
 8.482591835051569,  8.811498473612902, 62.712140375813377,  4.201589416273938
 1.544978466515406,  3.054300820739370, 21.029580631114605,  4.227086335171448
13.669325154165511,  1.052272310242102, 58.443827733842483,  3.686424833210637
 9.202120385008948,  7.228527720301059, 66.322552543908714,  3.805621514749006
 8.917954213497742,  4.794190607742785, 63.304812747327368,  3.965172945468331
 4.993288148488895,  9.448988126637280, 21.409739901788704,  3.867605262634426
 5.408923279513972,  7.402291978071899, 36.675724297485331,  3.822063717376461
 3.303010860950745, 13.840678269139024, 25.606488894785109,  4.067293506165988
 3.492435482080838, 12.472925643445063, 66.260152165241919,  3.996335926831310
 5.128331799813357, 14.680090663023107, 35.215411871198761,  4.065969178334410
 3.221855240826902, 11.881627498215206, 51.036034480330954,  3.752004616412027
13.156485946588603,  5.689850448957612, 14.841390795028202,  3.939470723464006
 5.231567371074394, 10.517950753767158, 69.537713826620703,  4.047333530602124
 5.831196888293120,  9.221943899634928, 65.798317039781310,  3.957166920176906
14.661759201496750,  1.211982663050739, 67.094087908256057,  3.739223428353932
 6.900317826085431,  6.025273605827825, 18.862676123281233,  4.022833690705225
14.736910585596410,  6.864350866965551, 26.984350736206750,  4.251609966614563
 7.360658492477671,  6.437051658657931, 78.666916741475106,  3.995389188659019
 2.119177540941035, 12.442148902088276, 92.014134919125070,  4.200172641971741
 4.974681072059134,  1.542412427363131,  3.871569869292389,  3.767179844583914
 5.219400868248411, 10.754228303263380,  8.833084985854375,  4.059541704805222
12.586654013917514,  6.052287067185460, 77.909860670102063,  3.824244956909219
 8.280145385871609,  9.459834695509137, 35.319165079511620,  3.733238906105412
12.647474826913802,  2.786899855244730, 70.075062362471314,  4.033920630238643
 5.583359531515006,  5.308248580460313,  3.631922442184148,  3.873235093232867
 9.831990893723809,  2.563420047008833, 59.842248792071530,  4.466109435556401
 4.440781621020552,  7.568258004393255,  6.609489433348059,  3.860022634073464
 1.730575857608390,  8.614784301482802, 44.454241576562794,  4.083768534321885
 1.450331143579096,  0.411221738740358, 18.038295555347919,  3.757828450264064
 9.725479801988861,  3.373622370842701, 77.570746688134165,  4.041844134449989
13.544546337104075,  2.758363949096179, 53.537921858335743,  4.084378161597214
 2.329902644899878,  0.202139223332440, 48.016522036456010,  3.924264820090146
 0.472623494265245,  9.296924098730528, 18.669602829084784,  3.970901603539069
11.772171435480617, 12.373977029982280, 39.632392534428384,  3.844991033408311
 4.989708664068415,  0.725895180856524, 91.467402092468546,  4.487381648468392
 7.331603163797555, 14.940572282905640, 88.059682651596049,  3.929636512476240
 7.831354359851488,  2.695064478163336,  6.290635746549357,  4.065894968833713
10.487923445651667, 10.106975191305272, 91.681487471971479,  3.851616937996595
 2.743965458237072, 12.781924264878930, 79.674965438932432,  3.935219178404961
 6.098133132274754,  0.742199484196379, 46.807750392732288,  4.038109645195155
11.408015713882172,  0.912331941495170,  0.814774362378157,  3.920863725250529
12.695100711122063, 10.722876177409324, 28.740320074877349,  3.971196437546894
 0.604491172778908,  6.887762112984805, 54.330868160122307,  3.916040550690306
 5.987609522879299,  8.058840486695061, 11.907783489818101,  4.229797168018679
10.443768300900544,  9.626586040162433, 84.070823374965329,  3.964190891777973
 5.054571021994387, 11.236138769625779, 37.257574879698502,  3.937818313440069
11.425269081968914,  8.599027177568194, 37.234380912284429,  3.736251802976203
11.852528794800993,  1.254438294198943,  8.558334297196099,  3.722348367746585
12.374688081224528,  6.721572489492047, 41.067755128533271,  4.222215899541580
 7.029209627082192,  8.509527920718483, 81.783907942122255,  3.474981893528764
 5.142550475372881,  3.874208102233585, 40.873184817654106,  4.059117708880788
12.154588499198912, 10.754161517036396, 61.668444236831654,  4.363651120498020
 3.479921551641417,  7.683809298477550, 15.321279158220195,  4.273266299543519
 8.146475024905394, 12.418038351720819, 45.576281869803346,  3.981828014675850
 2.556709469296995,  5.670842631847729, 59.672724288717603,  3.871332590477047
 4.277476458916680,  9.088019861404174, 88.713382824122817,  3.992305953539556
 5.517046220038027, 11.403057316768512, 14.005857446708943,  3.703259640527276
 8.272681957894740,  7.220411703086129, 86.616129333077808,  4.249343409773195
 1.542200572367623, 10.526761856100572, 27.001536479806632,  3.904606760487762
 9.967741370869925, 13.567134008844475, 29.710070865449659,  4.073121244827152
 9.573906808946687,  7.873769064945591,  0.800026245282457,  3.905430579503764
10.400220221644902,  0.092944622107792, 67.494950917822536,  3.958856556964659
 1.272972749225425,  2.774327045232488,  3.766416884548375,  4.029929981835219
 2.928514950980651,  6.173573576969049, 10.030576350756615,  3.859376361335937
 1.336190328034016,  5.867866788488253, 30.731981289685663,  4.144884432913899
11.356117424550428, 14.353067481487395, 22.215754437367622,  4.057635329090925
13.478857366628729, 12.352831455533266,  1.445214584010097,  4.083960957745195
 0.356408353988972,  8.225490874775998, 61.536116391320377,  3.827996256887536
 6.921230903790754, 11.824838712122769, 90.817330061283300,  4.208455350206836
12.411052624150418,  4.319744088243442, 37.437739694682712,  4.425397061368665
 5.256491622355576,  4.185061963129485, 84.734109439466820,  3.715536744521085
 2.733376075673177, 11.501486086120595, 85.000702254690935,  3.778513274780126
10.233277959798610,  9.127632758700424, 26.241961914042516,  3.727935231634277
 3.171304556088569,  5.075684048764908, 27.413553187757110,  3.595113238584422
 6.191850464521091,  9.278425302483170,  2.721125605698337,  4.357342198479987
12.748506491384333,  1.586668664059187, 19.002114764962986,  4.279996978314656
 8.403150564879084, 11.363889320919062, 11.423330553707871,  3.981332691736755
 7.369286952311604,  4.418870759148294, 46.366814218807775,  3.768359375096890
 0.464809376122363, 13.740442913885936, 12.763698548123070,  3.939729572102759
 5.351349064753824, 12.710688748005438,  0.528910223660655,  3.921947747884906
 3.009454020816457,  9.532219617168536, 58.965146503561080,  4.001246708315551
11.463115595713868,  3.620364628091318, 43.942149512998810,  3.957598105692134
 8.365119311622999,  9.917827994911969, 72.029364365231729,  4.010033367443742
 7.463722582824961,  0.998699244690890,  0.959233613776261,  3.970833078928425
 3.929431416535933, 14.586232986865804,  7.169733403285028,  4.187137861078927
 3.933997810337329, 14.867725566380521, 63.019165714624684,  3.904820561961241
 5.534948560458214, 11.887774008933224, 82.340606261233418,  3.977782730911791
 7.840138333974697,  0.531480454304996, 75.012995827723429,  3.936726908376086
 3.765150191529124,  3.384499737744203,  0.642915240618508,  4.024939550339433
 6.729524992577876,  4.010539722480775, 88.934678519016984,  4.224971498038085
10.706003369038379,  6.838375635832838, 59.791043072582930,  4.128272175518335
 0.425503664929549, 14.461169696503941, 22.786921777105157,  4.065555199540714
14.331832240071931,  3.953792776868075, 87.575627492096260,  3.636615077037879
 7.121671324015136, 13.613264565230070, 26.786993889107475,  3.886080620720988
 2.830130681764393,  5.684565032821293, 87.437380821436648,  3.775809615615118
 0.803058839401249,  8.231430124377908, 78.428241182389911,  3.958026811408156
 4.241770070397136,  5.878774201769363, 81.274928591230591,  4.207675187877315
 4.527283395746393,  4.414501018428412, 13.107549619245370,  3.895040883874541
12.913253802777692, 13.499321588304257, 91.286317674003044,  4.489076267544172
 0.229572000125414,  6.723467215869965, 22.402650695380736,  4.027405991889789
 7.702607588963954, 10.258881882595208, 28.981988960292899,  4.065660818680088
10.102381576982907,  3.197750084024966, 31.777996894155134,  4.199863962396160
11.554192839948819,  8.577809169089813, 17.289581562743916,  4.239859751612978
 9.070715404387935, 11.606054363406010, 15.307275050513505,  3.871674439044467
14.374696989244127, 10.244630010541412, 41.653441486824875,  3.959963701050536
 5.288368489447700,  3.513555799923349, 61.818461892099755,  4.279684512865391
13.564388758942478,  4.655981525379858, 33.409154427524108,  3.975111699454091
 8.383254975117925, 10.789429331177063, 59.324075149041768,  3.583860255796715
 8.223238604373996,  5.021386872696290, 38.330360793112966,  4.246336558035657
 5.986347508874277, 10.048570913888362, 53.374321641257204,  3.890303612685192
 4.272438481921457,  7.146213986606986, 55.891760683632185,  4.047985433246371
 8.931116530067868,  3.955752461038103, 92.508506378225704,  4.165498742463202
 8.166511448023611,  8.508037213412615, 56.134527807291327,  3.776244629974492
 9.047957203279262, 10.733855132260112, 68.127546029963909,  4.072254102057151
 1.537604794181969,  2.480266441065169, 25.171883354112360,  3.985307855732699
 6.721980323608740,  3.191087730961684, 16.057828635381167,  3.840865989260931
 3.949532682038447,  7.352447192907639, 62.896669159147997,  3.881543485704761
 9.381980067872210, 12.438012825649416,  0.810497523005337,  4.173961349758836
 1.810160473237275, 14.856458499589774, 56.254091300998645,  3.866714304900257
 9.572549900299594, 13.465271065015001, 70.907589383958225,  3.782187428322522
10.170350147618016,  1.677071597880547, 40.102376629025343,  4.252317667902234
 8.780565294434952,  2.585118752989155, 10.141076943792431,  3.606041600363715
 8.474936012755103,  6.804707356571657,  5.824173448331946,  3.962168027382921
 2.619169354569971, 10.132963798892066, 34.533809517169765,  3.659371063847685
 1.346046805013431,  7.001556662051804, 93.784933582206548,  3.819993791483752
11.977472638008075,  6.535494998917316, 91.926755253693628,  3.901827284639960
 2.015103345188932,  6.218489855554117, 34.893098069278047,  4.201214037281887
11.561363433159196,  7.203807588977036, 54.426989567708034,  4.254830007222636
 8.835180183027584, 11.454601843101072, 23.471764787194981,  4.013698931895248
 4.668954276636317,  1.758763160119664, 72.937284047243651,  3.997481712811545
 2.723654351101954, 12.329057415740673, 19.974812702264561,  4.002723875029098
 6.433048592530661, 14.040485957293464, 79.054788568789533,  3.938323219159752
 2.910623642672310,  6.967982927218713, 68.737051656466960,  4.231362516461767
11.361132455490891, 14.811218204475324, 62.794934848021235,  4.204005957848593
13.981965478193308,  2.944893544393505, 41.025650332204073,  3.863226363377367
11.011479020189443, 12.322470656938933, 48.190052571158624,  3.722628037307422
 0.192571872493608,  5.702037916616144,  7.189664741221876,  4.081970194503466
 6.905253050637069,  4.580748359848586, 33.703223402112819,  3.741640275360000
 3.118917777916535,  1.422073892965381, 28.840779825283935,  4.238557768573233
 5.140803758193016, 13.861416429171278, 54.258847740936105,  4.112895602514016
 6.561333785135765,  5.350936036947744,  8.953965845920857,  3.862380007780319
14.473827927849772,  6.378311509389762, 71.210175302518707,  4.330425570354416
 8.549021711633975,  5.756677957316962, 42.321320744373537,  3.887701838317727
 8.060534235795794,  5.011601597555178, 82.287891046096277,  3.878553291758234
12.500648400468458,  7.124979523537360, 30.451488827836815,  3.990924183974306
 5.396226485042883, 10.124230583638788, 25.443558408637514,  4.349054497014526
 1.679059428275528, 10.310686195889225, 23.151220211751273,  3.801028028168054
 6.714746510030543,  6.501008209584712, 26.814114167680753,  3.732686854151503
 1.313193696171387,  1.635866350602680, 43.864580759974054,  3.971597579091632
 1.346348267340510, 13.245230849756616, 36.582287947185357,  4.214103573140755
12.312209207400533,  0.993011083718442, 34.476576855123049,  4.050005909149358
 5.509771597797547,  2.389429277846928, 25.637431450730823,  3.983009864970768
 1.705420712193697,  0.232534518347764, 84.076031345713844,  4.206705765984992
 8.978057923325297,  2.937833266235598, 85.578579920443858,  4.109494548969217
11.664663233674473,  4.408932043371077, 73.694083907375003,  4.133284885536860
 4.027672183625641,  1.727793083416268, 80.939908059559627,  4.131545452337904
11.741905389248073,  2.930241934112851, 65.215932965044246,  3.777400994463213
 1.100509095921935, 10.311945393208534, 30.969903216908765,  4.080287966331765
 7.496277090213328, 12.666926461807845, 41.638739431582593,  4.012569346684096
 9.240156665402040, 11.451285247975100, 80.578187683510109,  4.269214404542808
 2.121674322765744,  1.957635042009717, 77.169290304238956,  4.063236987396330
 7.239487257751153,  0.082725681846582, 57.342448894705477,  3.662068131351140
 7.185233205857930,  4.525652958176087, 74.523420998599477,  4.006915596310564
 6.662017693478528, 12.870236220032961, 20.468570003956476,  3.921297121726755
 8.679440994359991, 12.771675340613811, 37.310992389892945,  3.926070986438040
 2.314262143805776,  9.317868916519220, 72.127454537049601,  4.085427026303698
 8.557414898916605,  1.311683874284815, 19.419333236100321,  4.041935242076442
13.282657737181093,  8.462308347033076,  1.429887915048491,  3.659686866800656
 4.179931259800421,  0.272572731443642, 22.101295578195838,  3.724908898167142
 1.360636070427784,  5.191777667890306, 38.837393174379102,  4.034812667718135
 5.528950894650660,  5.088487147031516, 65.927723559963226,  4.316029307981135
12.626087709430321, 10.080160463818023, 71.275989386750666,  3.910926057459821
 5.387016452212690, 10.431219461944506, 17.676826759922662,  3.890306610980089
 3.472533688531072,  7.512726379969173, 51.584064802771252,  4.096665846730942
13.763069328229131,  8.708419236189485, 34.021756696934510,  4.210459520961147
 7.704988345316609,  0.157231893318854, 23.352811179197342,  3.756569921887051
13.442337881273316,  4.473774530055570,  1.237029145734993,  4.322621224574695
11.757946553397181,  3.804056690439091, 81.157884749663850,  4.209936681341269
 2.476488781742820,  9.483666430699653, 81.749691443856278,  3.871871371366871
10.515532925542157, 14.373216965431517, 77.818552165100385,  4.150222856312460
 7.501739116098664,  7.699326311545486, 90.682291616242949,  4.055720915598499
 5.516869012021055,  8.296188010354440, 74.558954532922897,  4.179812950288567
 3.598777831439676,  1.866994141426920, 87.339330039913492,  4.005466788911169
 2.198867075658637, 10.767510838906436, 55.004266082445881,  4.446295418062424
 9.949068062544100,  4.981929571541658, 16.760624338834564,  3.668601949253484
 2.234549498874002,  4.013456830615410, 16.797763734202888,  4.012708239222949
 7.939858775228210, 14.147712968552316,  8.422038371637370,  4.256599572044991
 0.188107865816027,  0.897416643446837, 63.325225164662335,  3.880508148961514
 8.638210706536112, 12.392373910217087, 64.551241484389323,  3.853732635404030
 4.940799498169181,  3.231945308078359, 57.556708277383798,  4.135387345250193
 0.591805184407009,  9.197258970108814, 37.832000351448066,  4.305855089747168
 4.326002950450930, 14.011086626067558, 75.772807888426414,  3.855260026130774
 3.871716459406968, 13.052167060035380, 88.371636373724229,  3.975509880354914
14.510023526053700, 13.252157456627376, 77.322402483743915,  4.166889173526888
10.282096104350588,  4.279931946685272, 52.087429300985903,  3.655018581028928
 9.917671634177509,  1.045163335491878, 46.290775970496028,  3.657178427584513
 8.569963105691963,  1.706317241953316, 35.856307003850418,  4.051205693170417
 8.630326262478182,  4.970110434526929, 13.097834235383697,  3.992151034497340
10.481686057727508, 14.704514755964338, 52.139765716911604,  4.027770036828338
10.862345545246431,  8.600473118356097, 13.184789963178142,  4.085228831956159
 6.471582585860564,  6.924651145021937, 59.457841588193887,  4.325720090458478
 6.359994194204837,  3.525159514247208, 21.928604436860518,  3.955447196523045
 8.560393147551157, 10.536727232972964,  6.802642317898153,  3.740945826570928
 1.393618617518048,  9.425040169532769,  8.341911266357650,  4.068080235984831
12.284853662805714, 12.171458912473081, 35.714258471561145,  4.043199492140972
 1.719391337866362,  3.136713643373380, 69.844021714238792,  4.041184398029350
13.256734811762293, 12.659752660343553, 65.879712048475014,  4.185645873557107
 3.702108634253889,  3.690816959037200,  6.838834750748497,  3.982723849423154
 0.181530348603472, 12.572455910726893, 73.327746920428524,  4.054377075771146
 7.691819436641455,  2.012185088750003, 43.357772337507868,  3.954283283168529
 4.562493175354338,  8.027802168367087, 84.803692373450346,  4.073793840610342
 8.483743110355105,  9.519486135913308, 19.798711731622209,  3.821056980484340
 3.420437601192690,  2.882560218318617, 32.781611028398828,  4.179258291684654
 5.755054178786975, 11.163648541316322, 56.927985547070065,  3.568267332137223
 3.663336165759472,  5.712118201828447, 77.181559240830978,  4.039754416716607
11.009893390219181, 13.998723671508916, 43.185803346176563,  4.114429140450017
13.833683222602927, 12.623246041797204, 19.733899707211037,  3.750576861332101
 3.333521779213677,  3.861746426866104, 46.489200013023414,  3.960237731987874
12.112937704056987,  3.209067728291775, 11.902250474653398,  4.026636592010116
 2.297636033905752, 12.240478288981320, 15.977354197620647,  4.026241299488588
 5.930375062335211,  2.589634552631105, 77.621203603489278,  3.704355442364752
 6.839014321689262, 11.202043717183306, 86.215838470994271,  4.229711646503869
10.885827305099406,  5.235059670809144, 48.057321785040877,  4.148204776085893
 4.233026608734850, 12.429205115962995, 29.353165225125363,  4.133690984694816
10.815792863083209, 13.617605963318686, 58.951682844921834,  3.904596139671828
13.264790433875945, 11.585166843758753, 24.789473837702143,  4.176520343931811
10.692939158708713,  1.146958944725636, 55.920581214833199,  4.016326794662157
 2.635232870572858, 13.939600411471911,  2.813403342697293,  3.577650825263381
13.320586850473493, 13.071423123974476, 31.923990136910032,  4.004858118057362
12.923970639720142, 10.926227212854236, 45.239329684690162,  3.757521348779256
 3.868918426317024, 13.440292061604655, 59.316297532608587,  4.031130754560282
 6.514201269477200,  0.381377253369023, 31.299105021892217,  4.302384794842148
 5.101031832730161,  2.011836028047686, 10.153409853766451,  3.803684592377909
 9.290867828489217,  8.022402062230976,  9.579432028985210,  3.851467775275092
14.393890295207694,  3.699373891909597, 46.609984247792070,  3.888332552674731
 0.256863808138328,  0.655307049580777, 80.372882653459357,  3.785553427347593
11.827930812791390,  6.396245323659044, 24.225643669515946,  3.772421125424885
13.052555066411259,  7.063812623564171, 45.092542851827879,  3.962549221460042
 8.576963446056801,  8.094524999119658, 49.868853479689598,  3.965611353029938
 5.057789928175162,  6.383999509615122, 43.982077740814596,  3.927918365658526
 3.089871317911113,  6.557019639553923, 19.661799478406543,  3.833004602740282
14.423135314586773, 11.500357991513981, 80.930056326069959,  3.662625018285819
12.644338670516058,  8.879395602865536, 67.472759554077555,  4.046886521772572
13.897761540558312, 13.305121462623102, 50.543088569760833,  3.979394615388999
 5.862219800972189,  0.347966759011790, 84.349320934481938,  4.085194637086464
10.472566510164542,  7.594626730701465, 80.741617417281219,  3.824999034706067
 0.238372373478308,  4.952225450918828, 75.354549048519516,  3.847821429521954
 6.070892043787839, 13.109685944043196, 72.436851496167506,  3.879499511619076
11.230803814944778,  5.000604827658550,  8.062085287394005,  3.926846040245948
 2.575236408885705, 14.149166124335911, 70.346312630197090,  4.210518050140936
10.819480100833237, 10.141707294265510,  3.773731089603793,  3.840855345637592
12.269071900474282,  4.423500311254079, 57.160519893117289,  3.656304762447828
12.235365967575918,  6.588512270652463,  4.591215150783890,  3.960659997154453
14.638737277280866,  1.690011240550167, 30.983682492152795,  3.976718503811771
11.469948762207839, 14.119828152630708, 11.955890211625571,  4.306134232372501
13.286964917162308,  2.986201051005968, 27.434103327091563,  4.035014200970168
 8.944009185714458,  3.721285656598419, 67.773722130340900,  3.780058019537412
 0.045300080411160,  9.638605517901574, 51.558638331457530,  3.965516156344179
 2.165556477798142, 13.993727578663293, 32.526140638182675,  4.053438471545425
