BANDS
8 8
NANOPARTICLES
cell(1), 15.027
cell(2), 15.027
cell(3), 93.916
14.810160615316116,  3.687514295621210,  7.409459911013600,  4.004508025585705
 6.236441486547021,  4.131117828241462,  4.602753407759616,  3.579221579191076
 7.338692599296426, 13.064171404270937, 30.014640259067292,  3.854576379793960
 7.993582832949218,  1.035447362349846, 81.369569299491417,  3.868176978771287
 1.659085299709929,  8.601362178316835, 55.181075145706508,  3.692597229999113
 3.149438329226955, 12.001618902600248, 53.943473011783041,  3.998527998215792
 0.183469317029463,  3.221944274590427, 24.594362781503293,  3.854624893167514
 6.803949802768316, 11.862920783878536,  6.412552400973503,  4.075414750237018
12.847821842570546,  4.007985489465164, 21.421776682120679,  4.206985878874137
 4.472080765575235,  1.501284090877034, 47.771506994702136,  3.977995766265090
 0.961851148345360,  8.177333517495093, 71.757372752431991,  3.920589218602356
 2.727166519978153, 12.479824832200496, 39.090434145387285,  4.035902301831898
10.700681292040377,  6.702135881520341, 10.771294558689529,  4.497983912142332
 3.547522975799620,  5.102005083060297, 72.551471420103340,  4.205524787714842
 3.403213322201414,  3.205412552004954, 88.328512192882044,  3.893693340200789
 8.866284001149593, 12.648407040613581,  9.746730151729794,  3.910179591511270
 5.908155183465534,  3.434876156050786, 24.681343876693887,  3.954853394454686
14.099198050247100,  5.448560643412102, 35.063402473689912,  4.187144551475514
 6.873658169998196,  1.913289406176526,  7.787947856237196,  4.145406954070078
10.772683237993936,  5.251389782807068, 67.259974577247959,  4.219058545835760
 3.519807887826111,  2.488714973008594, 81.507154215460247,  3.532024392202524
13.217445342778976,  8.051724333364653, 29.758636013905299,  4.124804501892425
12.327281338725667, 11.550946822546676, 49.971387286723683,  4.026725391146632
 6.167072994849334,  8.661871438876421, 49.982681432065313,  3.738580608671948
 8.462671452296419, 11.111482526177310, 81.390065298520909,  4.141982943847159
 6.735588835165402, 14.875898276251094, 44.991707456258517,  3.907560565046925
 1.355313353207944, 11.264418317356716, 35.677058625678391,  3.698490153302109
 6.423476475168372,  2.459178693127172, 77.683718373057701,  4.028970257577919
 2.861737648885626,  8.380935397625123, 38.173371194806599,  4.335305849663177
 2.443454864716176,  5.483315702951205, 41.486460338066038,  4.457381450742482
 3.882663784752472,  8.092268222801149, 91.668538345049328,  3.661504015750798
14.881840142892775,  3.974187687832100, 81.369705501732028,  3.741284988234150
13.591359717074905,  4.810101335082184, 49.883704551382323,  4.125153055723831
12.577190987123979, 12.488299292856736, 28.976424695557714,  4.154792445708090
 2.796184515618054, 14.115629903678697, 89.046004057645476,  3.895694662811060
 8.519133015945764,  1.412837853464001,  2.925272146054748,  4.192419896008720
 1.388920831046605,  1.956111679003811, 14.960851760882424,  4.071513970893448
14.910068032911877,  1.591717155280646, 88.459396486880664,  3.851770649997067
 7.196438872179475,  4.376404405181264, 10.965135120677777,  3.910025696958677
 6.507696594002143, 11.726145015737767, 17.304001316769128,  4.446696986930425
 2.067537364644273, 12.987472011958218, 61.593830603626287,  3.961437607757885
14.842692405702273, 13.463720815793160, 41.523225312465286,  3.776172831882552
 3.222034148142638, 12.445200779804546, 70.606114375416396,  3.811694015655208
 4.817672320710508,  0.883871382689224, 17.095716765203804,  4.281910823088249
 6.488760035516167,  3.628871913683217, 69.720556471889054,  3.929738623037365
 9.508704024612356,  9.970496070008803, 44.191153142873134,  4.127840084917626
 3.176800173538336, 11.901624502802527, 77.818175369063567,  3.985210313832106
 6.808432195247444,  2.805225700990876, 73.674366484921023,  4.045421139479742
 5.692944981323546,  9.328542739626247, 32.061076240729214,  4.411640653933011
 9.613926293995142, 10.202129509291384, 72.211619592667702,  4.148171150602433
 2.970883986846282, 11.205821386086583, 64.815302017410616,  3.608904162131160
 1.558874150715952,  2.646675476414253, 20.387735362539512,  3.932075853616742
 2.225243227738933, 10.737317276375116, 58.282278186813983,  3.880134706904015
 0.251573868961006,  9.563359975423383,  2.320112378581749,  4.389843710502499
 5.473862290148452,  9.033936454865403, 23.362301990583866,  3.810716915340359
13.447575692247804,  7.016220252201555, 85.623815442889921,  3.745947592184345
 0.124692759998844,  4.521473019812888, 31.087948878486760,  4.233240053739836
11.753671892287665, 11.369736595442939, 41.307899598163218,  3.676731401788066
 6.785456380367450, 11.022055919707377, 26.737719422229635,  3.907023622190058
 2.973026532934787,  5.956178955540159, 24.091402331971430,  3.865800099539729
 3.721322999623125,  3.597120058527672, 63.826670267704280,  3.832502269064285
 3.054852039106357,  3.789042780612699, 57.255900706500576,  4.003622840155503
 6.221322919120918, 14.075427252215437, 37.911244413553312,  3.998816152490670
10.992239964408450, 14.438120291315544, 71.609424001519770,  3.800857867069198
 5.756306390336613,  8.769129132013791, 78.861009312477464,  4.288681591131735
14.080552644544994,  9.606254200462617, 75.860342190307975,  4.251099784817743
 5.070407306671599,  9.288499817391696, 82.980689933034071,  4.125557595230648
 8.130710739302650,  8.102168026130094, 68.759749655320292,  4.086414913959205
 2.546965893634224,  0.007628668697137, 35.835130935084180,  4.127249680366549
 8.436652691778002,  2.168185808242689, 38.986461485716880,  3.942556077030784
 1.576078622116373, 10.237687929549249, 89.365729341480403,  4.131231048891417
 3.775649007252591,  1.146963442292897, 71.537313675015511,  3.915002281383572
 3.488945348026712,  6.718905147598925, 52.274463610914680,  3.854002112610869
 6.729209855397731,  5.361676969732063, 65.945989585572406,  4.253386978916834
11.992031243585128,  8.511360312556059, 33.515932318147613,  3.830354411871059
 0.572819743764459,  0.170721853704129, 30.501789884848513,  4.501609871717855
 9.343515557768612,  8.735315726350617, 40.487217894468778,  3.650093901843204
14.559354934947201, 11.222393903555600, 32.295493093271169,  3.973971774797461
 5.283345157359561,  2.448675511556448, 60.374870859908349,  4.081676458158684
 8.032696622200438,  6.123359752929225,  7.400150085752651,  4.171156826642634
11.242771852463481,  2.763074236287988, 64.087849692395622,  3.852842406507141
10.504154896176635,  5.766232099658346, 87.921260251501309,  4.118761485453131
 2.697127644644706,  7.306859536001069, 65.001298933566375,  4.213327921261801
 9.453320911886621,  2.851158271830920, 26.198089655344063,  3.841017474249219
 2.349011815343953, 11.520241485365229, 24.139801919317478,  4.321433738396778
 2.938370968240978,  6.098237995634038, 81.994886393247654,  3.786509872585024
 5.757636420985347,  5.547569321709969, 38.969774650577023,  3.638602053595048
 2.209852415562381, 13.087072101848463, 44.540559861167445,  3.954023160628091
 1.547159155032774,  1.817752743013064, 74.587567760473618,  3.739160798400651
 7.576322954577832,  8.151020353054310, 37.164613621339242,  3.626325566168889
13.389059878088805,  9.970235861652284, 57.558839162696316,  3.927780942066831
11.450294408616449,  8.860929659389074,  3.819082742676604,  3.895166588756753
 9.904224777097516,  6.765431598332029, 48.554687262287288,  4.518233412599394
 5.436673784291870,  2.647466277580489, 36.550573198943205,  3.828888227370818
 3.645733021620599,  8.652258176363478, 26.816474147333224,  3.908005881785731
 0.599509714980028,  0.036515285953000, 81.508189829957431,  4.054450845968480
12.182082603245666,  3.591661743149253,  0.974802274266286,  3.963472129020073
 9.841280268603629,  8.605137618531455, 55.875236714682785,  4.349090520764316
13.581558653662496,  0.658824247651614, 34.397346399473022,  4.325532514446961
10.020959574399926, 14.723514430161748, 61.577330467210089,  4.282199301815215
11.005590703649682,  4.476276758852505, 56.463718935150297,  4.129098872158303
 0.384651547788986,  8.698492984603373,  6.428518948869721,  3.999465999013486
 7.892750490279160,  5.918618044939465, 52.425213390811692,  4.043477029007271
10.050821664260031,  4.749891312993911, 36.165187377413254,  4.254258057229676
10.127965505676569,  3.468065191989895, 79.034514719104578,  4.104651941707621
 6.696983547645782,  8.204868430956910, 46.308730388934990,  3.698603353535121
14.361795112583595, 10.406909556215188, 38.760527376682724,  3.858560733489826
 6.760914459433330, 13.551737053624370, 78.560649138063908,  4.043752164027117
 7.283619655891684, 11.331943766915298, 85.547234976396624,  3.787402403155738
 2.807471103682615, 10.333518155030674, 50.281814091104899,  3.750023501673362
 2.156399214635222,  3.208817316819824, 51.023202512910167,  4.022165919076651
13.402060066479676,  3.504345725772651, 11.120093110803538,  3.900292603855865
 0.418088674799120, 14.070636593839740, 21.437450923075200,  3.834633163639189
 6.566290949813574,  6.001374397251216, 75.975243957560835,  3.821071001135262
 5.562217869803026,  9.413713656954315, 71.714511425464082,  4.160969793372565
 1.621823128905622, 13.995361617115792, 67.418143080117943,  3.903507264010474
11.742057655775790, 14.206272861759588, 65.136091248713370,  3.678923264569295
 9.891300430831151,  5.205391192900715,  3.844350093798392,  4.046658019208127
11.333789388063254,  8.436901623958503, 37.306588879621593,  3.864158589117895
12.652790409429510,  0.673619054036069, 48.988342138242380,  4.516878013596821
 9.927800334328039, 14.964043661229034, 36.109230053738436,  3.869175769931340
 9.211145755849218,  1.308589463433455, 67.312517660648510,  4.217634792037414
13.055383505186390, 14.314047638323673,  2.184801963752275,  3.911463330972806
 8.818251274233004, 10.475163786844075, 34.501656510978655,  3.833126271799437
 2.693016226646960,  3.255644552078865,  4.891609489103850,  3.730716538582676
 3.222515315359070, 12.661433538699994, 32.630801202079695,  3.960787137334826
 4.618605860426781, 14.457956426465230, 41.845320480211811,  3.687520868007175
13.500829543047667, 11.144118588181890, 72.125780822098150,  3.838830452127680
10.631562301013695,  7.359511974693238,  0.049788767579038,  4.377893833247043
 0.728427644859968,  6.036212066954956, 27.315986719279298,  3.984894488156173
 1.667897473329135, 12.268212418977637, 74.158495384584725,  3.945481516223563
 7.004788681588760,  7.481529145282520, 28.526704328067556,  3.983131839988195
 3.269646039154515,  5.143255934192316, 17.731054593463654,  4.093748912761255
 3.177828595518420,  5.056711017630355, 78.064717567571321,  4.310117645420948
10.291442493362352,  3.207924664511350, 70.820443770410506,  4.020636595235080
 4.376856657252309,  9.387837517832432,  1.426690071118168,  4.014486446195034
 0.957406737154644,  6.344971493667647, 88.438586775592370,  3.936405343343073
 8.307511921677396,  6.290552644659249, 14.357215528311063,  4.114011862627231
 7.788466378555970, 13.432869105653944, 13.597129310643686,  4.042490961480196
13.572750280266124, 12.964809133401642, 89.109879956752195,  4.005460939245041
12.302524836383094, 11.421436412927138, 53.987228899491853,  4.001853091964061
 0.975811129736123,  6.565072980789609, 20.751298826879257,  3.997594802378649
 4.877471070524334, 14.524940737852663, 75.083916386163679,  4.099144183720016
 6.077028422287814, 14.532719375624575, 54.702085665515568,  3.787302179422897
12.227135248139387, 12.908167011526047, 11.669445674843342,  3.830344895378872
 0.266116679423434,  5.966606805129905, 45.144244074189693,  4.105108283798706
13.245825509341277,  8.847575908343764, 13.458563068358629,  4.057635373470749
 2.704107572785523,  9.529427271270666, 15.887092512842132,  4.168784112780253
14.652940423631096,  8.959662127835937, 51.939213195810439,  3.918880344938476
13.987282531661643,  8.526091031892783, 17.570488581142161,  4.280506651905791
13.849670069306516,  0.465762597499065, 44.809782801839326,  4.186244036470630
 0.203933484414296,  0.334454314853095, 64.059981379511541,  3.829962755312294
14.454311824972953, 14.040601031437918, 37.894070275091615,  3.588857497407250
 1.385212095804721, 11.105886348995721, 82.416782543873254,  3.817178621569133
 3.277726189428710, 12.298091401957496, 28.620222895095630,  4.083968532922471
 5.707916904345398, 10.605583616575393, 89.039304377859153,  3.990916407312830
 3.125610898843269,  0.630055391816175, 23.880482768383995,  4.106248667831968
10.762473668042386,  5.156847130641069, 40.265106334155178,  4.046209187902005
10.950915945033810,  7.406472130980234, 59.678175730880440,  3.919301030901431
 3.772045720388817,  9.405070518019860, 19.848286123225222,  4.023089362108486
 0.076667730399590, 13.385872132064399, 56.207685546675044,  4.100104385957531
10.251323831989932, 10.077468332583893, 66.017625363594760,  3.867955332273613
 9.310257770452907,  9.496272197073553, 88.130224872728235,  3.720504931684315
12.846282156751126,  7.845295704488466, 42.468344601191795,  4.052401963061560
 7.399791308631478,  1.992486370582651, 63.737350989955431,  3.904030017710865
 3.641983584237210,  7.051269051276429,  4.662414338726909,  4.095891580753374
 3.901121627975687,  8.893733715899701,  8.230544437498388,  3.899882115671172
10.816853887282582, 11.141161944218153, 91.208535934280746,  3.817757785101790
 7.239834131623385,  4.200339142441834, 17.941410606864856,  4.074911874987384
 1.110473261898710,  6.021149141011580, 14.275227929093939,  4.183295628748023
 9.988816881488489,  9.431010677212758, 16.373096872388327,  4.053628406301794
 9.408818578690646,  9.579268336328978, 51.862734923690354,  3.951314000820219
 0.645062294721099, 12.786077659894479, 48.164071047785697,  3.958640567186326
 9.892106783457745, 14.197438828612791, 93.621045760479120,  4.114645128410249
 4.212210447858856,  6.878075651514228, 11.628083512355559,  3.975687783100678
 8.835034162356592,  2.707359995437865, 84.888307689663179,  4.098790787634194
 6.056532902442072, 13.564047967524035,  1.224011342106871,  4.100825155093025
 9.295741493222335,  3.784262135942934, 60.591613679716048,  4.250058716800832
 6.815812100320288, 13.880173969940460, 33.889584374834023,  4.032028482600180
10.928917082590313,  2.277596212983430, 17.686877316083496,  3.949914037565880
14.841126660915423,  8.233298227925577, 24.164186716932715,  3.912760746446681
 5.532412400257914,  6.001833847481625, 34.754240235276683,  3.761646564241421
 3.327060134778641, 11.690318076133963, 85.873280445337983,  4.161124494697744
 7.734584750849860,  2.762953333096327, 33.367092674364329,  4.018219016545821
14.583612302766442,  2.335762271647982, 56.065494251660880,  3.924811781738007
 8.594603744911867,  2.341946817512626, 54.038649066966201,  3.907825060069908
 7.067400824486154,  4.044711255552171, 57.188746243474561,  3.865476253854043
13.319676779879146,  0.123950965156471,  8.461531382169916,  3.823212204663678
 6.132438193585607,  0.023299765589019, 86.467880719114731,  4.116905119311101
 9.528644725812065,  1.362512296576215, 29.885184558159427,  4.095943108054661
 5.346764262107307,  5.990201921602468, 21.031714293918178,  3.858889629802261
 6.695421890388565,  9.299560218551550, 64.427922709134961,  4.065887154536215
 6.103472796897003,  6.158364208490234, 61.885236697421242,  4.095027400389690
 7.329949756796942,  9.089060157212192,  9.974403001772931,  3.801951071059513
 8.332796943371575,  2.047641112628209, 14.867277526859871,  3.728049360049920
 8.751868770413042, 10.938345084180034, 48.139603491330419,  4.048706682853084
12.486306121215376,  1.818264631055363, 59.236639570410460,  3.714850710683876
 3.255949078483554,  8.487272606019642, 75.267682687227349,  4.481977221297789
 3.098824232477296, 14.380986509626736, 50.789633835053628,  3.901674415563622
 4.888491412219805,  6.874849885090634, 87.573373605647944,  4.159850938449352
 0.103184298277688,  4.047821479574104, 65.106633733978214,  3.888465282446480
 2.213645758786962,  4.495320960488365, 37.280648714248045,  3.729557785942941
 9.013937885038390,  3.016145920276058, 92.432178345347609,  4.094962970369320
 7.928869334089807, 13.163605353940275, 64.935397438551519,  4.103951040793850
 1.233190596647327,  9.985808825877266, 68.109898972966590,  4.225006541978143
 9.898704399783375,  8.191438171404398, 76.151957108168787,  3.994080196900439
14.314523761807827,  4.374135063387303, 17.586500627729119,  4.009342903311994
11.092458192729136,  1.968747611398268, 89.144536938161508,  3.938981959544417
 7.348848120549142,  3.285577612349965, 88.635016867698269,  4.022612883388755
 4.275305760684861,  5.271629292287714, 45.563669021414213,  4.052923390387773
12.682005834349807,  3.220059756704943, 85.767798597145458,  3.844754557163168
12.152418365108064,  6.554064074147888,  6.843742864022232,  3.840905809150664
11.130879358826226, 10.646443106914502, 62.118481798282438,  4.183786070501792
13.776706827910715,  8.390576873266841, 48.010874500870436,  3.949928236789495
13.262835893120345,  2.707183708983820, 38.108212488326444,  4.167335079529785
 9.373821450854383, 11.690850339531433, 38.127428497986990,  3.879937303236909
13.521593298490604,  4.873206063935831, 61.503535746604463,  4.167306607650510
11.281070838793926,  7.927214037255559, 22.255387949288114,  4.166522832369939
 2.643849540011249,  1.037672990441686, 54.206499363256953,  3.734358172573120
 4.811005955465428,  1.055159283579777, 31.018677666206958,  4.212336127929813
 9.439618098794400,  2.981678124596796, 50.306021568722350,  3.816266434483504
 9.466547193914996,  7.354546438505805, 80.073228228466746,  4.014637586422007
13.516164027914074, 14.605556670414058, 75.006682513457179,  3.859861883675823
 5.339916112320857, 13.018905102244879, 21.355947847642486,  4.372987379452465
11.715033130839080,  6.617395130448110, 52.864793319254758,  3.776341185009827
 1.487740103254817,  8.671124879151014, 79.370120581781023,  3.891642286250262
 7.865729423077469,  8.833485118170303, 20.117635426523748,  3.913936328534018
 9.654996012884045,  9.901595130974911, 30.638076372667005,  4.048582066520295
12.934363438407122,  8.719433199543138, 88.972980944518525,  3.806481180003830
10.599437996230504, 13.406180226191063, 32.479118700821104,  4.090417954471776
14.527855405093641,  5.551608810810211,  3.732568471756253,  4.239392683137383
 9.813028157720264,  6.829937730505819, 63.499401371260383,  4.081592511227233
13.623784181685563,  8.440173083589606, 82.056013590527229,  3.930001290714570
 5.423859850353695,  2.111442864267658, 20.945989936345558,  3.885894605694899
 6.553481992900376,  4.724573175136426, 81.037293989220103,  4.063218420935510
12.224927356914227,  8.649196114322823, 69.160186828106475,  4.082238177573317
 0.597534233165003, 14.970765044746278,  5.173230596953759,  4.059442096312828
 2.916378498910427,  1.017850364778541,  8.315316439216073,  4.036973240988194
 0.789375534512947, 14.729696452982491, 11.553169426635890,  4.121693305288987
14.241087080182966,  3.673798995565907, 71.666615447942974,  4.089053443292727
 4.936612614656934, 12.248594150073869, 10.107024327162975,  4.000930262146249
 2.074031575761597, 13.276968779714245,  1.845834278640762,  3.912612574971218
12.388169690982201,  4.886076155695163, 91.265079510873505,  3.720710941081479
 6.547938714981906,  3.638185832786558, 28.512746649045400,  3.743689588181770
 9.984179255139360,  9.704821795615537,  7.300499145142065,  3.790327632768930
12.493436440678792, 11.786295536358885, 35.618789854692281,  3.921280544321239
11.338555074549598,  5.400579936478838, 82.911172524168094,  3.826131045031894
13.012003759817459, 11.926799380393843, 23.928536233567314,  4.319552835366749
 4.806954802683183, 12.476726688317637, 47.692650985939125,  4.025598746424961
 8.903665548227622, 12.500180664701032, 68.859420303953058,  4.068161270012394
 1.799156777886912, 10.193650762485534, 11.841960743617280,  4.223776690893987
 6.138596741814595, 11.618785641272902, 57.372916578019243,  4.112763071655808
10.737864923297495,  9.516177384254581, 26.635143642280532,  4.214200319243235
10.741174741501345,  6.151166877255670, 18.600393123809496,  4.012842294805301
13.509547430110164,  7.790055126691716, 65.183516632938066,  4.264283066644220
 5.318252554858784,  0.936300637933373, 11.522408393551334,  3.977666232188736
 0.831510992736858,  2.764786047751221, 47.366307457436577,  3.763894120715632
10.502934620177784, 13.455199153858524, 16.540404430860491,  3.871081863251213
 4.210098879920791, 14.782551089740830, 64.445114018027411,  3.997195829591540
 0.351292060302880,  5.437163466332655, 75.092051569942981,  3.912419774935281
 4.134850598217815,  6.820921466659896, 68.843546718583980,  4.047874829218481
 7.432348437776473,  8.570817096608147,  4.022042318168302,  4.157787484940989
12.328485258804887,  2.373307511746583, 52.843092689600752,  3.931139100885930
11.919464542589981,  1.547503362323036, 82.188806238077944,  4.063382035829228
13.422971396806153,  1.718412493517735, 68.021495036963330,  4.259828726045133
 8.292802601687313,  6.669780519756166, 24.800140121320865,  4.037939360991866
14.288697298543363,  6.525200310865568, 38.967500572681963,  3.913874865944073
 5.254873931685359, 10.705163715438562, 67.870262181804478,  3.829967540380659
 2.001997702683020,  8.035349030673039, 85.111718743890393,  3.754342030054453
 1.612121251886764,  9.783585196131462, 42.112957206395976,  4.330381985765229
12.389248683107727,  2.223057753585641,  4.667228094464898,  3.872621210735978
10.705070813851620,  3.161430074618674,  8.062585959992917,  3.909978833708379
 8.260790009014947,  6.346929862480457, 72.412761843328653,  4.013936868162379
12.123300138733224,  5.159606836325938, 14.401253849528693,  3.841232325708249
 3.574737537701428, 14.797814495107621, 57.798593881620967,  4.073957997634066
 0.279594396152904, 10.255231877192166, 27.330905345337879,  3.615289505555614
 1.274533257307837, 12.270727202228064,  8.225633286380479,  4.180995216452112
 6.928199181633584, 10.918566373912316, 75.377288422272471,  4.214839659379711
12.708026670446461, 12.304518570548634, 81.971379491372105,  4.009322241222259
10.800272826228188,  9.829014711040363, 84.522723978433177,  4.059011081683082
 6.067135142140374,  9.805114752348734, 13.582925990924188,  3.973028269777326
14.688866735992203,  6.114181077038943, 57.589927367577083,  4.205787908694418
 4.623860389400565, 13.721906969128311, 82.264541657900281,  4.509037928466743
 7.175174625417875, 14.362711707283687, 71.858360899266330,  3.790481519192965
11.842541052921318, 11.051786195441894,  0.832472742025146,  3.548382046573864
 0.198680740498088,  6.024956440323303, 68.516360120375282,  3.991880394554369
 8.836239405373718, 11.305198305436136, 23.218088169143922,  4.239913603057213
13.322180823841084, 14.430492361151956, 85.315848527070386,  3.911161997454989
11.604232388791525, 10.312492327312036, 78.885458594526980,  3.658203079446843
 2.936870816316787,  3.378293814675899, 33.747716007711261,  3.818653049022593
 3.208046421793254, 11.034967145132713,  4.857901616813473,  3.926073699849564
10.804724885039436, 11.953645359250906, 75.612874920012345,  3.813693834220543
 9.211026430134488, 12.135899875386551,  3.234421023789725,  3.874938151928396
 2.208730251627661,  7.869637733008088, 34.048003983556121,  3.989349516937996
 9.700346494510532,  5.977353500352323, 43.995098755636839,  3.863454393426315
14.717937113636188, 12.365362830138935, 14.603261776242135,  3.879259996883503
13.041642032925118, 11.908864007646706,  5.764754171945135,  3.997581778629486
 6.902292101162854,  5.658916258191832,  1.131048688727692,  4.076763293293737
 0.749607258311073,  2.107957532081516,  1.768940287776835,  3.970289235341539
 8.003123167680261, 14.818639257497312, 48.684497360449093,  3.889333174208387
 8.761503918003429,  4.195055900355176, 21.690464364856169,  3.961620650219963
14.972962264112438,  7.730605203918351, 92.314402930780432,  4.221989780544595
 7.798135750254070,  0.219213310383297, 58.124892962166989,  3.992573575876127
 6.459188051162474, 12.303894530736533, 51.432319357502827,  4.094030750052731
11.280089610613484, 14.674029893476481, 39.667529741088451,  3.760726404608424
14.941806185976139, 11.861207823788765, 92.722341829403220,  4.026294836989824
 6.237466851162146,  7.340732876955656, 42.458358721653745,  4.187178828309516
 2.647366946217629,  5.635682645407642,  0.885578482656885,  4.207520429477501
 2.173930478688458,  0.644931777611403, 85.290775784671510,  4.191054881836076
 0.191465064833161, 10.321325465983207, 20.977663048339970,  3.687639124078271
 1.201216320690825,  1.834728075631250, 60.484522763307169,  4.170040796452644
10.277576238506072,  5.286936578258948, 29.185907515291788,  3.999992302474157
 8.825234604654755,  0.152600718438370, 75.654108177252496,  3.692688463135004
 0.301535660725544, 14.284036100870566, 26.403462942657747,  3.904744089344166
13.157291555814478,  9.860522425034342,  9.480823485918211,  3.899266913081922
 6.597888099365818, 14.692768032855376, 90.828444089898156,  4.537605030798494
12.077915970931256,  3.835687627425266, 46.206551099898000,  3.891435760838098
11.462057887909500,  3.238810249198591, 74.932902580927220,  4.528128150668366
12.266744724410085,  7.070654346243368, 72.996912479328984,  4.202770646147886
 1.054059502197906,  3.877488890156490, 91.490875325031837,  3.901422728183594
 4.915213492469168,  7.535817058563743, 57.949161305318349,  4.445297044607870
 4.642886562728079, 14.916886217950632,  4.828472851907680,  4.006611620184882
11.279399603237247, 14.988382073377238, 55.949273189088295,  4.203595463115678
12.267773446989700,  0.813541034035879, 24.680724614848152,  3.738091649894611
 2.855162273182885,  0.584185770072689, 92.686462664570612,  3.965648422493634
14.556177973490010, 14.236317949733268, 52.383634561612780,  3.782403063307242
 4.067119244901873,  5.657836732643545, 30.702577080956772,  4.005511640438543
 4.086238707127242,  4.912626910566610,  8.130578193245455,  4.049881865508866
11.491966671640812,  3.661588920151350, 32.547242247857000,  3.823599794804816
 1.112863903739687,  4.421349233805782, 84.845843405435048,  3.699137460830672
 6.061617299403395, 10.441783897942370, 39.748798387454919,  3.890155067222533
 7.673976840812772,  9.491314883974754, 60.378979404229213,  3.862778457591781
13.523286701493836, 11.210048131491224, 44.937336902482897,  4.402880400449819
 0.532986677426777,  6.745978464508015,  9.951465738690827,  4.007372954923333
 1.854439543218067,  1.442199074551122, 39.835268117267127,  4.231924436239280
 9.958392612174478, 14.545243535660919,  6.350032151541630,  4.140007888737952
11.700188310208816,  0.091466528618330, 20.926295685229942,  3.991267717859789
13.004660637449458, 12.622159339324657, 68.442426750071817,  4.062645187560776
13.214576219390965,  6.319937662704961, 78.510427822948117,  4.362527192849148
 5.068999556325928,  3.897042335120253, 54.065063123611445,  3.538975914033223
 7.639389088845620,  6.981951053043081, 90.811094146919302,  4.321890954296694
10.020811343821528, 11.950735508729803, 58.415141634143758,  3.951512759883973
13.064320666124027,  2.602780930849049, 28.060229408189649,  4.053440679110202
14.881548313599419,  8.879375183893201, 61.235714468662728,  4.281550890167374
 8.178901562518620, 15.015225812560887, 19.182197521676024,  3.805283754431892
 7.756810447819467, 10.308233592141452, 93.443978385090375,  3.908519865675316
10.710949500519723, 14.311674921227802, 79.023702040499202,  4.044489182345230
10.038323544966607, 14.200527186410994, 52.068306100263577,  4.085978745781182
 2.540970785623518,  1.998464383799609, 43.931748377079870,  4.040105357138996
 5.022439854845187,  3.892600132578468, 91.904257674818012,  4.054803661308642
 6.033476811895652,  1.723196915456363, 51.292584589789548,  3.699796195316690
12.465034782909251,  1.012288575253238, 14.147885035390555,  4.162636902569325
 2.522139471218902, 12.784950528857845, 18.299665024359122,  3.820654066190001
 8.282424172131860, 13.122128596099547, 41.734027368753296,  4.110652456789873
 2.881912336676136,  2.884049292991858, 67.872051427197860,  4.282763805348240
13.784618837423242,  1.822027731002628, 78.281400113482192,  4.053958427514107
 9.707373639075966, 13.847220814051207, 84.015945514318474,  3.833108830129906
 8.748246443164954,  6.545377374532038, 32.684963257555161,  3.916388622802369
 9.739856566455707, 10.234145617628858, 12.593756375126899,  3.675281920712614
 2.695851837908228,  0.927614516403325, 78.176032822964459,  3.989606508623803
11.559393466463741, 11.228308401166020, 19.713628097892233,  4.152964234361646
 7.964431592566091,  6.781512412394165, 84.665200068783278,  4.214785270009185
 4.807245997579821,  2.342020368848307,  1.679033411085860,  3.826568904315356
 0.182401270662424,  5.361265586803341, 53.675720262955814,  3.820375998142605
13.491864983526753, 13.185364253069046, 59.915461776607863,  3.994609486983171
14.341395718942220, 11.651647613007070, 64.275887557291043,  3.808085400201139
 6.047117348221186,  3.168247503736829, 42.123198298568177,  4.184758347335942
 3.862013032634283, 11.840696585317064, 92.287742529162713,  3.876999779072641
14.416664782290441, 10.725827495764763, 85.950158990887118,  3.918111303163122
 9.662454603967763, 13.671981572729841, 26.454631000440354,  3.907993666074021
 5.905040859051467, 14.890689711815829, 26.793589782197248,  3.992270206023190
 0.040874549982461, 14.701922633537656, 71.308744092323820,  4.104680341696614
 2.079152547046148,  6.434949175097080, 48.683175747539615,  3.879492245697958
 2.828534210502113,  2.537839372314628, 27.618876694747293,  4.195791126318011
 2.263805907606466,  3.468960050962206, 11.361810203396379,  3.886777106905623
 5.161857727118309, 10.888281071171892, 35.865352227969481,  3.863292608892039
 9.629562092850049, 13.410777373835082, 87.981229449132755,  4.133544244006038
10.360830124790059, 13.723053290984288, 45.816239779127784,  3.852995261930007
 4.955219338061566,  3.930750961991688, 84.707246555715344,  4.045093077267701
12.135616831685329,  5.692661755048702, 25.608560530601235,  4.038821601500650
14.207721115518728, 14.875187416161475, 17.732082694234002,  4.140397817854137
 8.321684938098111,  0.459614520005633, 23.140419180466402,  4.094472397512567
 5.653726546795420,  4.927619513102872, 49.297342766474294,  3.882869635575937
 9.541615055277322,  1.199673728314099, 11.296014453566457,  3.992057915199643
 6.107738219855358, 13.130978651970487, 61.224581012548285,  4.157335869727772
 2.343805779599599,  5.692762035657683, 60.650748231400577,  3.871050702428146
10.117590670726182,  1.840171919343779, 42.999232991054988,  4.546373159300575
 6.056567349114749,  9.180434066936426, 54.063605777034667,  4.105942918200090
 5.987719785130669,  7.759327312165719, 17.044055983593616,  3.568581256223834
 3.890605059168775,  9.495966611577385, 61.570041585073682,  3.887729734241975
 3.731500880804699, 13.152887430507102, 14.098199841104952,  4.138012969974486
14.395670520438385, 12.867492412732018, 78.396388797711637,  3.949437647480557
 2.020689387168241,  8.932559677810724, 30.308768035686150,  3.750085107549165
 2.574614414977511,  9.478644162210214, 46.200914448449524,  4.015182581865958
 5.609298462259682, 11.089610190506756, 43.998754251841930,  3.981077594248951
 5.524305289489876, 14.696666591425045, 68.263214191702446,  4.068402233618623
 8.121202611029926,  3.334876368684171, 46.553398934556768,  4.108202412419992
13.545021544304415,  0.735986908224681, 92.218912466826737,  4.302618975618453
13.929066809801574,  3.373138219876898, 42.019789720863095,  3.813893967118651
 4.969921394221537,  3.910702700768554, 14.235220276043021,  4.052277564868398
