BANDS
8 8
NANOPARTICLES
cell(1), 15.021
cell(2), 15.021
cell(3), 93.884
10.675310055966339,  1.869033341546638, 31.938559159717730,  3.972657242993457
 2.027427716990555, 11.931594211130303,  0.557240174746368,  4.156316955123696
14.559801706724574, 13.218860617775762, 41.209550653863481,  4.052155335837351
 7.504829438793794, 10.785874979292492, 13.108008731184755,  3.713450904325848
 8.138012266891783,  3.459007882365794, 34.550975593075336,  3.974779328404627
10.698804767466614, 13.521014395212200, 75.545818621725928,  4.052566536397369
 6.770591509607490,  4.547923640449837, 86.897420049794491,  3.826160539190951
 2.115791823323656,  0.307448683809117, 71.913537122289355,  3.847790254969244
 5.007611855619788, 11.844869219702623, 58.980755494312078,  3.854376601927892
 5.361220896286429, 13.953113968586994,  6.605739222268499,  3.956898928065910
 0.772581091900765,  8.885769970221558, 73.014379912976267,  4.058911380285282
 4.635390675210848, 11.385639228585552, 80.165318983945113,  4.094785719450929
 5.843069827024559, 13.840428970986494, 39.854792816982943,  4.071024081627240
11.472704131186779,  6.285257198080892,  3.485894213306538,  4.222106329299709
 2.426342105011732,  7.734431939748147,  0.559705707359029,  4.270904963879905
10.415221841319646, 12.548814206684193, 65.558274360907319,  4.049899836665901
 8.614474674763290,  8.983018438927692, 24.786800082738225,  4.143597932397140
14.237625864639435,  9.950858674327314, 92.358384469819285,  3.881308832812250
 8.830343479053351,  9.777747837353433, 76.289909608883207,  4.336675894352291
 5.542789778259933, 11.010994119434336, 37.083978973430767,  3.833173541283839
 2.303998232502419, 12.223034159077564, 38.648391562523678,  3.737242257244128
 8.814612070248410,  3.562544425601194, 90.037760996204398,  3.860749866678275
11.265354604799333, 11.472640177579216, 26.662911085050187,  4.027385481522123
 1.438629009617665, 10.016906306614203, 31.079192254072378,  3.704564170636830
 4.537690434963556, 14.346804513589616, 55.936547122791985,  4.062660761068369
 4.252599777880565,  6.044799503552478, 43.125750053748177,  4.352098128158252
 7.011508197133800, 14.362419483132845, 20.838221835330121,  3.672301930617175
 0.519528306353660, 11.416496238509255, 19.484551534250784,  4.016576751413058
 4.246331480789667, 13.221356739638823, 69.290949022673885,  4.110836726798431
 8.833248732026195,  1.080867580081155,  8.841137669705969,  4.157100368512495
13.477422087652323,  5.671027336779173, 38.148178496860147,  4.128735274661234
13.883551038303743,  4.131535424702726, 84.973501156169704,  3.900733721962229
 3.122586926670992,  8.650126250602867, 20.549114798577264,  3.804793238345892
 8.286032239136876,  2.075369186177317, 60.442755166278708,  4.105123253144840
14.211081923078300, 11.620816394791703, 11.718390681379429,  3.654054076353803
 6.874085298995586,  3.324856619612627, 21.310832077438537,  4.104153094330538
 6.978658053856315,  7.073862739989194, 27.864974385828756,  3.796444602060832
 6.110646560475868, 14.045337730582345, 90.441555307679906,  4.039391065416016
13.288938814627585,  6.462091515889226, 10.265964025742294,  3.986703415754201
10.479821944983446,  5.768871205108669, 87.243368474226443,  3.963510463523808
 7.088668863489499, 10.894070406595938, 63.708632865589308,  4.242965487881892
 5.834540651120809,  2.692007209545701, 39.008452237694172,  3.812259874084277
 1.516921209660191, 10.980185803252761, 23.512758978245838,  4.326100124456648
 2.255451281199033,  8.523554880019891, 36.924574994877830,  4.409451057395884
 1.655230736396654,  0.605746133279814,  6.965584521430650,  4.046542570358342
 5.065906656082943, 10.835184176859693, 76.459571439884371,  3.424709745001659
 0.783032882952899,  4.500571913089670,  7.236481729693760,  3.945506261837658
11.672918466581987,  4.275362199891351, 81.635394142658910,  4.101440146679198
12.469545396951514, 10.244588121558611, 23.027925094116114,  3.984078977263962
 9.677305219729472,  2.730245997262799, 51.180567501258800,  3.915510342728647
 7.485197893023570, 14.933870067038068, 50.559610230993790,  3.329191312804674
 2.493895692386970,  9.212383821946107, 41.061373512976871,  3.980867839429440
 8.419337696685455,  2.628555041529357, 56.498794865853370,  3.850907033400129
 4.140557719641816,  1.165424070351121, 49.913649626928397,  3.888375937461566
 8.993826299687230, 11.100797339331145, 90.841915049220816,  4.117858882661380
 8.279071155121253,  9.825634574083276, 58.708024512354584,  3.667617755352773
12.087783928041105, 10.320784003685050,  8.631306275639460,  4.138101228236130
 4.135368983354122,  5.910188690571074, 66.359113745203047,  4.254089847066250
 8.466207962850458, 11.611910320169518,  7.842879633861816,  3.706240481683840
 8.624514203214735, 11.489820393355439, 80.069335321944550,  3.871618434315605
 4.511430923882694, 12.031162488429214, 18.996877356648636,  4.084300021280830
 3.233209630156735,  0.835460318157271, 59.361813259162240,  3.856543833550467
11.549861442006977,  1.448641019869247, 11.764647237817195,  3.697860450472047
 0.802512281939114, 11.993356311199781, 70.811383348730800,  3.526795050543124
 5.496484091285667,  8.837582181362272, 52.065143200648912,  3.774225524633327
 2.352417083243687,  9.205860650278424, 60.041128504075481,  3.921378828766501
 7.203311206506789,  4.880492677051723,  2.985732893592069,  4.052017592831977
 6.077470027243133,  3.829999160288326, 63.316208903660566,  3.945578650371985
14.208121268657486,  4.376074647220597, 13.578696810078194,  3.986450122815163
13.831822666705287,  2.688469057643458, 51.548114186163168,  4.418148981441704
 4.619438901256268,  1.621860709797750, 66.772020610402194,  4.404018639023371
 1.680264071800291,  9.328857243366798, 76.864543050946679,  3.866770514768437
 6.302569824754567, 13.124854556590471, 10.439441424370850,  3.576993282380629
 0.295016086023786,  2.365882484054100, 20.699960855264059,  4.161760427731410
 1.529738291860506,  1.464020741010990, 79.566592487201405,  3.776300318999638
 2.491212637915841,  0.708537829102973, 39.752141620749178,  3.577331768315394
 1.829478147966250, 14.032731636293974, 29.200525415466572,  3.976141127171589
10.148380382575027, 13.587094073467430, 71.538502119928012,  4.036472566295213
 0.479445970355061,  2.343176949234531, 10.469125501084003,  3.809636270298518
10.784126995692608,  6.054066840017024, 35.397898214621442,  3.581842279993843
13.519524672700427, 13.868378199602995, 92.760027470070909,  4.046692504145461
11.885617814244730, 12.191850808358602, 56.511447178354366,  4.335975646628160
 4.620105472150962,  0.221536394487849, 74.800076924649460,  3.776976867308294
11.500101874911657, 12.759374152363167, 44.014546124779429,  4.291851394235850
 2.228479589282140,  7.659457547883044, 69.511975619158974,  3.898849330396103
13.747330774284203,  3.844460983493089, 78.098208584672633,  4.139597397747278
 6.966721384731406, 12.200479004716399, 73.486117706519892,  3.910810738859068
14.185990883255528,  9.670088927984759, 63.479357225886780,  4.233576067820430
 2.028103151094046, 12.270200069166675, 47.058948134580426,  4.123386304209844
14.178125565590614,  6.792263739061428, 52.163485708336673,  3.909882717992705
 8.532913007019468,  9.817041873851748, 45.044621559982659,  4.024949319734165
 8.157183464585827,  0.795742639608360, 64.519449377274682,  3.777301451037316
13.600081186599420,  7.093140551965213, 75.783866561030877,  3.841591235759652
 7.675868405792696,  2.220199725327026, 47.625794905645520,  4.088121830545181
 1.789569454527197, 14.194266205296064, 16.823803854150590,  3.982889184260578
 3.972340001841602,  3.851273016844529, 73.670179631378659,  3.908714117163426
 4.438410752258520,  9.033962212947758, 33.364571332654656,  4.002876958635959
 7.227546260673600, 12.278427680774596, 26.598508044061536,  3.837989587965041
10.845403114715268,  0.656848711366842, 25.927065031156332,  4.262803864599498
10.587959401231254,  2.764350671546848,  1.753152336977774,  3.800442222894652
11.299518107540175,  9.251528003531638, 12.494532412235491,  4.006438662385416
12.074225546786195,  7.090358156172198, 15.744773541194196,  3.949134617783351
 8.346963699209898,  8.423604981445511, 72.411132351134839,  3.891169903244369
 3.107907731661324,  0.602288092868111, 92.794421770864005,  4.196882577286564
 9.549551381506888,  5.465051865008634, 62.307963145441953,  3.976360091485804
13.332314076867767,  4.557333953843048, 69.394599443723067,  4.029678589486266
 4.118896256425416,  4.123228574365712, 79.953357760817298,  3.647991203247155
 0.642693197447989, 10.978107245835417, 80.251880689291113,  3.927319941749888
10.645026801524457,  1.929225146113289, 84.754896689712808,  3.941044580977292
 5.957663781268043,  5.064771255629282, 11.693698362612745,  3.892405602690531
13.363096147958291,  0.876811206382696, 71.050578173986963,  3.940156568830218
11.550437478496235,  5.020756519259278, 65.783752632520674,  3.994862017795058
11.895868067915471,  2.261911316693771, 35.902217563228433,  4.350264152828416
 9.235310412818755,  5.645444029393889, 93.349331185961560,  3.971560691441468
11.516284399505761,  5.544005273861901, 31.879442066440660,  3.532228161588915
 5.850741039691370,  5.890667194887652, 70.331117240527917,  4.278875143985424
 8.620444463987415,  5.910709489010880, 83.711369953239057,  3.967619225853200
 9.889216958703162,  3.138828741878889,  5.513015800279540,  3.881200352186249
11.757572344095518,  1.935715434562974, 62.931791102291413,  4.411006116384199
13.898125843737965,  0.884417528636670, 82.517958806047815,  4.199540265564758
 9.765408050105421,  2.739685044477451, 70.593026366548756,  4.137419745878643
 3.180009565370893,  2.760872230158890, 13.224120893568397,  3.930143948780220
 7.134940227066862, 13.738002110119604, 77.285559634669653,  3.873477408887880
12.737611511075503,  4.875889624241138, 18.904813114334530,  3.876511466463914
14.667911693155535,  7.034910879571085, 21.699815917385251,  4.150693818349604
 7.559934155142101,  7.347318432266399, 89.631633031430312,  4.096009433177881
 2.902865289469366,  6.803524198025495, 54.286941880905772,  4.141429560375838
 7.243489118122671,  0.818457217891596,  3.549026044247461,  4.137107985717301
 4.654431138861323,  5.073367089528743, 35.955575961107357,  4.197687986191135
12.153026805038825, 12.165705766052071, 81.854328969787701,  4.147814237072992
13.193676537846011, 12.990534427145299, 47.683222697822771,  3.795700126718117
 7.522272088310978,  7.958045628140113, 35.674670784573969,  3.953017359348986
14.855425520913792,  4.435009586880071, 55.139184531562627,  3.793020813227704
 4.048166342451011,  9.651755778723679, 11.872854724262842,  3.934550401117562
10.976889700012558,  8.149652523813559, 56.648726714554584,  3.880689589435818
 6.088681352380039,  3.066357693529794, 76.902412712655092,  3.879247503253956
 2.031270338302427,  5.802202815554028, 11.093329697218762,  3.771112406962426
 2.267460378763809,  3.660974117158466, 69.680700136153646,  4.103378407522460
11.276053861551302, 10.110825022902034,  4.728483887188275,  3.797072244461456
10.494794300425049,  3.535474543737643, 14.841004671405814,  4.030369654694671
 6.083055397185821,  2.077283093474675, 53.306403246104594,  4.132569253458657
 9.192668599010897,  1.079289486466297, 40.314783072737733,  4.013234207623281
 9.469376255382000, 13.663848554742984, 29.664819773646979,  4.208391625289244
13.032284133815883,  3.727812724323189, 23.826102584272189,  4.003022326510378
 3.255299931439571, 14.758882252472903, 21.725946742086883,  4.000408373770558
 3.283975307104954,  8.290987738184956, 48.895688149693136,  3.946377057745524
 0.091077628866797,  1.213197998896374, 57.160544329575686,  3.807424600233650
 8.356491424525322,  5.944976588440635, 58.549731816269691,  3.934498334449708
 8.596080429449392, 11.379027065996052, 51.078385428352604,  3.786669028069233
 1.219871116552016,  7.215176466044400, 85.435901389022689,  3.821104231961445
 1.972686064327494,  2.609157830254085, 42.951676554923246,  3.894783036875987
 7.743675151923713,  0.727001683784707, 12.828219443983368,  4.071231245717042
 2.412841775462540, 12.928034218792574,  9.949450371257912,  4.102686072852893
 4.715683326661628,  1.447440014270411, 18.383287116250905,  4.056119541545721
 8.351430549888367,  7.073341339323012, 14.221327587406444,  4.084704718727180
 4.927258208120338,  2.910516540011738, 89.936351086363530,  3.998770069524692
 4.849192047013063,  5.675280555433931, 18.571557424296927,  4.115515543887734
 4.408014816492396,  7.734696860581693, 74.444178423150206,  4.055724538964726
 7.230978163009376,  4.738877399437633,  7.955893425957286,  4.015229267481971
14.985959804626503,  6.906578969592594, 66.382032143704080,  3.925109104010784
 4.326607996304825,  0.216709642669324, 36.361443954268886,  4.028247550383365
 8.040271522760698, 10.149917955269668, 54.800532633657141,  4.123340158469054
12.336161515471757,  3.126914189380620,  8.474015684718129,  3.795343746590019
 6.444995005585846,  8.688860961822627,  1.537739194608256,  4.212100125833995
 6.366903792095870,  8.262085283608714, 81.716594294579565,  3.605556522750204
12.148209328642425,  9.243317615572977, 19.128779694800997,  4.047896219124210
 4.532440097108963, 12.541258384294396, 31.610409319841143,  3.836577533863947
13.549133894544921,  8.392687821826435, 59.589226194169115,  3.947487210334114
10.105565894403387,  7.760582807196681, 38.781733630762822,  3.673800962817208
 7.211870325973967,  8.177395829039289,  5.875256784503864,  3.941744611862471
14.996152080805711,  9.822185454385334, 27.313295393836320,  4.184030166984410
 7.027721480566801,  2.129216473420846, 93.435077630361292,  4.288237776865452
11.774503722504519,  1.121473004921742, 67.230844758285031,  4.330319854506301
 2.342496377867771,  4.728500970348025, 39.483614074762301,  4.263952928901890
 1.180856842399760,  1.812307636271553, 75.596595512860745,  3.960994649217016
10.158524950680189, 12.898698273897525, 11.172265368442918,  4.054153485628401
 9.660805493952163, 13.455360653815521, 61.672878720165237,  4.043231707662436
10.583332142595578,  6.791365519823470,  7.409729193158590,  3.850227919451641
11.744488912772432,  0.559977542804316, 58.984761482243712,  3.944978515229350
14.101404013543149, 13.562295520617695,  2.939509994380050,  4.053023059590424
 3.895165601727910, 10.757563585893136, 28.197390638710299,  3.970038087971634
10.476254382912279,  6.551788660035870, 21.855294437217218,  4.276261256269031
 1.993311498834364, 12.862383956390588, 61.689537783774519,  4.122558633175594
13.109134813040875,  3.871974957907286, 27.781132654891845,  3.897916583541550
10.779965004910494,  8.244125524441703, 29.167772382000894,  4.160303541041699
 0.081000935735830,  8.280085374683502, 13.388082094665812,  4.019612575921172
11.944231942389427, 13.987972050922268, 38.340588490630211,  3.847267611746147
 5.245127137717119,  0.441743352265280, 80.327050282768468,  4.060820119503069
10.931854609955005,  4.648731073614759, 41.527644651673334,  4.001882262848839
 5.751348657089610, 14.330161901120606, 61.902102279397383,  3.921472525848914
 0.935753421550491,  5.838002467378887, 25.706321766395646,  4.122794786477223
 8.001108585523207, 14.541685974607191, 68.233733580938690,  4.071817949492608
14.859252855705158,  0.610800760539236, 86.467228164206432,  3.943776166949216
 5.701385971925160,  0.208053919075277, 28.932786913170482,  4.074651005081988
14.249484644237770,  7.291458082277798, 34.108910854503172,  4.214345266922645
 9.425615447230925,  0.258697909709071, 81.209398077927332,  4.168842889644641
13.607178881519840,  6.443752150449473,  0.020177153376899,  3.882873466385710
 4.981095855187076,  9.807676308491377, 71.154071395615745,  3.801679481897196
14.947028620425851, 14.866152584451440, 44.812046025374720,  3.906781395067926
 0.908957774905534,  2.293462832628990, 47.855617973409032,  4.090790422423503
 8.824943143436840,  1.174244199631364, 17.810182013080162,  4.254387536694407
 7.374326651679998, 11.469388438740314, 33.830319907123332,  3.668806881070298
 9.402127492468932, 12.712350161656383, 23.397186697713838,  3.872876676559170
11.465309835810769,  8.857479738768356, 66.314756163980476,  3.749770466188209
14.555039293792648,  6.791597014476912, 30.027525092630867,  3.991738869005720
 1.001260115721075, 10.710163678189534, 67.224770145555766,  4.099137545725210
 6.209471970293843,  6.929590916838272, 78.056292747046811,  4.159811517064176
10.425333930922895,  9.308805663788585, 61.871431002429027,  3.956356631398068
 2.420654519395270, 12.929025921424349, 83.281730779004945,  4.063298428314632
 8.951447288683534, 10.577190154530710, 68.926130640761571,  4.174526990550739
 1.332651954502003,  5.702102010604925, 58.526613162023111,  3.979310328341017
 4.501097466466303,  9.604797412190603, 45.275214642490184,  3.974228331411114
 9.264779280875452,  7.561779643259400, 51.453127671490130,  3.994768397827143
12.943211923984066, 10.663755493745464, 77.327096223063137,  4.030830129279140
13.865785524557790,  7.562773098620616, 79.615614544620257,  3.891698200696574
 1.792005431750139,  4.409518640008545, 92.065281324905115,  3.980302274890422
13.139356702237164,  0.291239119029463, 29.285760411649779,  3.869017061411206
 5.084868932685093, 12.723372983995503, 52.277274788642096,  4.007163889312075
11.111129720381919,  5.099719150722748, 54.098407861608571,  4.070847879011970
 6.769841280615148,  2.232282247652863, 83.684189304403944,  4.093604081083965
 3.258100626318084, 12.776717040678079, 42.902606110019995,  4.168183576903377
 3.663610507308937,  6.651449416744287, 14.667544639097946,  4.256041601153001
13.603328586729921,  2.115234655478583,  4.822310671372503,  3.938187319056277
 9.801984486983276,  4.761351548855449, 11.062644099879238,  3.911626123661051
 2.822657492028124,  1.869968936188502, 83.179304568132338,  3.893085711155394
 4.893591966517971,  3.840452425310968, 26.057651506796201,  4.287889839573632
12.100321714053329, 10.243278331706106, 52.716833778239788,  4.204735504386566
 9.910572421225632,  0.002100867834275, 91.280305569299344,  3.979651166472987
11.176735110531471, 13.089988675180049, 19.265038070642920,  3.880300760162907
10.688913095802320, 13.323154274944367, 33.614369220439890,  3.907155387799901
14.472897150346826,  9.353780341740643, 48.437309752380465,  4.057275208782824
12.356527905442739,  4.551928266143507, 58.292389649816272,  4.210496250344988
 1.052250358492751,  9.149337617220441,  9.355876163865620,  3.954754729685054
 3.995821170768268,  6.944849187704338,  4.164099816234792,  3.737659939653118
 7.748810685173381, 11.665534625963655,  4.060969087587159,  3.990200661593930
13.354515369049318,  8.614687709811271, 69.750683501898735,  4.106967457138890
12.521028412823584, 12.954214406668294, 88.891379496119569,  4.144710796250361
14.854650946870976,  2.037990027165678,  1.018052203869197,  4.061218033966914
 2.588582047284266,  5.570193280584385, 32.422969752912884,  4.038094600050712
 3.191408266323673,  4.936663394095323, 22.314542266817824,  4.164095771374758
 8.812615340811048,  4.137987172512903, 24.765847742716897,  3.943272740622583
14.525947574906269,  9.300011094257753, 88.391626523748101,  4.170470050614086
 7.877696429854159,  0.824854526506814, 87.344312988645058,  3.947325240544638
 3.702759128627529, 13.858738245088560, 25.646451077952005,  4.059507872380541
 6.455551065913770,  7.256721985141166, 21.869748140072538,  3.871878528644295
14.554702313414841,  6.586670033747902, 42.061270901726473,  4.169135949372087
 1.186266915107737, 12.326456471036046, 57.544030090178744,  4.340530263634491
13.495943490912602,  5.700124862354035, 62.430125170880196,  3.871002013008380
14.452578104393101,  3.146114044390988, 31.711148248755517,  3.996178736019322
 7.181800051400647,  0.131727295801989, 32.665442139387515,  3.895498208812250
 9.783113626677698, 10.290703245698014, 16.105100408171722,  3.871168618982968
12.190039017223564,  3.213694324511883, 92.080370880373394,  4.048476564890257
14.155869121969040, 11.907682868805615, 85.336463049728337,  3.892853687238576
11.786853538458301,  1.828216636474971, 88.442627401597520,  3.693143975731640
13.782277095178694, 13.865882542809191, 22.077437383791054,  3.917478416169795
 0.466543346634365,  5.307169509849444,  3.328470413050488,  4.023722354124718
11.544058306706630, 14.090101172226019, 51.145905397236909,  4.179171673845369
10.609650712599834,  9.724820665351489, 87.389142347901966,  3.934196644638317
14.511468903462559, 14.259751692701222, 32.880999597316560,  4.091637871295715
 0.663461019373553,  4.679178257069488, 81.532228088224713,  3.918775519068999
 3.101929741787375, 10.523241600479059, 86.984983051015718,  3.932409196100211
14.166510716566473,  7.915557773048262,  6.097260178124227,  3.958175354254534
 5.657573134974327, 11.398698294238304, 23.039040839900146,  4.029690247975036
10.173694520191644,  5.335408997657555, 48.247882576019407,  3.958638160527908
 2.298403821492311,  5.394294763072326, 76.896417336600621,  3.907137411360451
14.400768302945725,  9.613692789915298,  2.536483805028665,  3.869386199835816
 6.334788651230924,  6.749606029803094, 39.436825446804086,  4.228611794095654
 0.055277434353202,  3.059195248735595, 65.318506503799455,  4.041337320280507
11.790106717333190,  1.135458879490890, 54.974938368064961,  4.125011415809284
 1.504374617304272,  2.006734914155901, 24.588659324100714,  3.919185822656883
10.173651416893977, 13.790577131968012,  1.315857256134149,  4.233885063585804
 4.934828557598780,  7.527185879945018, 57.724283298979017,  3.760788687027055
 3.256442687630943,  9.128949031060165, 63.907216902020728,  4.019544090697151
13.109712084663457,  1.112517018689123, 17.185350871432259,  4.404915410806095
12.576121951568684,  2.490878139595251, 74.443187162155766,  3.733250842504388
 9.200748904571572,  3.958186403924087, 28.813076022669268,  4.088218361670434
 0.825198372936380,  0.068486340229065, 67.991497724930952,  4.104480593330182
 2.864383372006801,  7.697449237018514, 80.220081520001784,  3.927456270602148
 6.256893389621076,  8.324437572104545, 85.877884915277107,  4.056501871747706
 5.669817600660120, 11.439680946940589, 48.567259449394768,  3.910894523445994
 1.148731753744901,  6.772973737243993, 45.769535830672844,  3.907393260807290
 8.577569422468086, 14.004432719206049, 53.882552372770768,  3.864292681510998
 7.334435154770717, 10.174154395927474, 30.213029154771274,  4.009647881972869
 9.759474501157237, 11.064874622863998, 36.812287324250839,  4.006570495238936
 7.096195883183889,  7.824672545389828, 48.141533932094447,  3.872116391759665
 0.244297954154125, 11.779455645758139,  6.443435442804572,  3.977970581105334
14.722347410643469, 13.687365717902226, 54.027883378136778,  3.763577868081644
 6.616235853424722, 13.083079638288355, 83.458256917844793,  4.237770338011482
 8.218148903222797,  1.165647135108625, 73.933939643124305,  3.839519578645929
10.073913515170938,  1.735727375394394, 44.280949339295582,  4.195821324754401
13.531447431745585, 11.182969491541884, 35.427832607830517,  4.025873011058610
 3.110287597609824, 11.975916216961387, 73.640411810030074,  3.774599142532589
 7.034800548692151, 13.014797832973700, 16.100088721263791,  3.802700205167059
 9.143497482367758,  4.265946994439107, 38.158181948332789,  3.655970214854392
12.760168356807037, 12.446297426528321, 68.761001814710696,  3.886590807950723
11.868911764360371,  1.632208526116329, 47.960368008564991,  3.983889927282255
 3.866172476858040,  6.758590191390637,  7.926259048977477,  3.793297470933822
10.570590144907403,  9.595113964291354, 48.393580970448305,  3.749982400274332
 3.189468275396763,  1.353139227048545, 32.438714388235134,  4.447726585623103
 2.822249972686302, 10.640476436739057, 15.468272155914297,  3.898377447297102
13.731069981970579, 11.500495479226531, 15.691870625402462,  4.352050638372607
13.366307112458951, 14.315964712136976,  9.018323625353430,  4.153252378535161
 8.213032085729653, 10.398914197140769, 19.947945855074220,  4.215867675300558
 3.414316226512439,  3.216119269847718, 56.165207968792487,  4.011781298471274
 1.745350043832858,  3.088699999690509, 28.533429083505631,  3.708748997223382
13.242041945564406, 12.224905812555727, 60.434034516044335,  3.924390476569121
 4.366676331404669,  3.271639906091544,  5.480248754412395,  4.098485868048805
 5.415575678382170,  5.739293531062287, 92.577876699836537,  3.786493157914669
 6.109583272611188,  9.092921436236827, 16.763442807651959,  3.801629298229337
13.834786394591710,  2.087664005200610, 40.155277073440473,  4.090456608893414
13.623022373120305,  3.724434652092977, 44.844844622031403,  4.012585639961375
 4.858532598357269, 10.067696129739728, 91.564104557413586,  4.489269672584124
 4.127664662368732, 10.455613964507592, 55.417284323961930,  3.819015916450534
 0.682085961446983,  7.783845063248452, 17.477562288382007,  4.192030975687758
 9.800153957466561,  6.544842485674142, 69.095658729464361,  4.029009577696119
 4.325151983191514,  5.552884936376280, 83.569263520996827,  4.096847652553756
 8.252648561465932, 13.872829397530527, 57.857625946590709,  4.109578761990813
 7.047978661212155,  0.635817254164290, 24.415234751115651,  3.899398800306528
 2.467917994645787,  5.409718261255136, 62.418306632189513,  4.136034219562252
 7.839067977151854,  6.515484649268624, 31.950417106229068,  4.039813801944717
 2.250632188993225,  1.206518187844810, 53.133882179071769,  3.552145243766261
 6.109811782528627,  7.506036006815389, 61.503321106356239,  4.040243570756320
 9.397985563141971, 12.144857078854109, 40.575825516187123,  3.852908360984983
 6.455942760681188,  3.622763989793211, 15.393756059716287,  4.082181272575785
 9.856500473139974,  7.652628421517402, 80.034797703557942,  4.164355410231220
 4.349170725046627,  4.697725380833823, 47.211755093487966,  4.245598846799396
 1.556966481900158,  3.690869397085769, 16.889060124552209,  4.242882209105826
12.945286983047751, 11.424302408802150, 30.507512001569019,  3.938629901534223
 2.846384333379900,  1.507706017254127, 63.114619827845168,  3.710153914160912
 7.906798114452585,  4.060856660100026, 80.315464369509940,  3.888035462731421
10.073271062715325,  5.939813732870126, 76.477857811280288,  3.704867439170937
 7.974896339835545,  7.281236700938568, 65.554358523428988,  4.056414832557865
 2.490806568887785,  3.676125918455081, 86.758353517899053,  4.138397026935296
 0.130994149121927,  1.400858369609609, 90.241921403042340,  3.791450137795124
14.542029476584059, 13.703560261583268, 25.966434086539799,  3.996922497656830
11.332574374644445,  5.819417973601797, 72.799380224065004,  4.056729296167301
 3.711109425311463,  3.704768418426876,  1.497609148447155,  3.802133844502395
12.746259917214156,  7.785408804685336, 83.451953797916019,  4.047605838781132
 7.261861536862420, 11.897718616726879, 87.312143793741797,  3.887981368035565
 4.741775857139351,  1.797158764830053,  9.548162586176511,  4.258139448093178
 1.458495335197188, 10.380419503778045, 52.156488601686505,  4.606434394956821
 0.220888190991017,  4.857825955102033, 72.966823202121006,  3.983882417436445
 4.143020660260426, 13.892704575404494, 13.545274104835832,  4.103599005324864
 5.786955478339713,  1.683538514929288, 70.861610884504117,  4.047881254196354
14.936867379635061, 10.247948540784339, 44.066819342997121,  4.195195076614834
 3.259881971825075,  6.929155188126940, 28.763708627931017,  3.851819692685235
 9.269488957336840,  9.867285134072668, 83.631082149981893,  4.032660932052695
10.644248174652470,  9.483223032217875,  0.615543612053061,  4.520780321275801
 2.487063482951735,  4.613528514423780, 50.886111377205637,  3.949055473766423
 0.728770023466742, 14.176330393242079, 50.358001398016164,  3.920082635548319
 3.881565698492105, 14.659451074356729, 86.907236073052445,  4.392418061552377
 7.051535316506134,  6.009923919033163, 54.632813691074617,  4.316275367328692
 0.125026376837395,  2.677039628773835, 60.695165587278190,  3.842141044514943
 5.309245432450179,  9.753086240858217, 67.282075051522767,  3.959644667296321
10.630077478347792,  9.283674881006410, 33.214932895705189,  4.200931053628703
12.181039400077958,  7.202336879357623, 25.528192206770616,  3.911860699409127
 0.339754066532560, 14.885441437085710, 36.736978220921962,  3.903095006649579
 3.195899936557706,  7.034854954352265, 89.066023924898275,  3.983789933427423
10.807731896107208, 14.108623602913402,  5.591112118570345,  4.408257222046090
14.178412157691705,  5.096418878524471, 88.938835714349324,  4.282608584756489
 8.906267559779225,  5.481870170273625, 18.203926890647853,  3.879306521892072
12.240531382997986,  7.470702441159992, 45.538228587563054,  4.059093174652193
 7.838528587070807,  8.294399259732549,  9.995431898674671,  4.261345654562611
13.159062949543932, 14.570529644268467, 78.638027024652430,  4.121909736177354
 6.328484214036417,  2.472952106532715, 42.839929231978786,  3.909956959004993
 5.408089224243517,  4.001021574330723, 30.104176458379872,  3.869362973956886
 8.314634727474612,  5.672063204239726, 44.565130827594132,  4.271066685101516
14.186643570610043, 13.702145246241047, 64.506778436213409,  4.022870876770753
 7.304577309027774, 13.586093385031326, 43.742956414232040,  4.251896439669809
11.135697279094709,  9.112169507007224, 42.136208644911314,  3.801875002609920
 6.273651676314357, 10.118150966961345, 41.781306872043700,  3.924386866684217
 3.842511444508546, 12.829355317304785, 65.269758268671481,  3.933853737047990
10.010672254653187,  2.096862234670172, 77.458672763535276,  4.208884590815366
 6.058243442910105, 13.098818885161418,  0.594355524950899,  4.232511940190060
13.955286015042939,  5.537639335636500, 48.601274417449318,  3.647150938917934
10.476135605740790,  1.249941372551111, 21.727036141551796,  4.244505252994420
 8.398808641789739, 14.932657316038391, 36.491565092405388,  4.117090212223919
 3.490554167124082,  9.315569549043330, 83.499501000536341,  3.477128514001290
10.477919683270670, 13.121217668884336, 85.470496484066373,  3.823031121792935
13.842237360074044,  9.661624289002193, 39.254891802435765,  4.173719537286579
 4.210465082539513,  0.652370804081345, 45.847299965020916,  4.292417957672204
 3.113387760991366,  0.051567989471146,  3.128573294420449,  4.233716787320128
 7.666248134390251,  4.930138648747785, 73.814137212456046,  3.726075767997255
 6.421500778227478,  5.024710282346052, 50.689961691510419,  3.774294248478825
 0.820788591780099,  3.615642031940775, 35.483523363873402,  4.031672635386923
 8.163363397406496,  3.643448642342410, 67.078922161775111,  3.752445918451928
 2.254203569813731, 13.277300346822106, 77.334576777203011,  4.167087254255061
11.458288013687877,  7.673278461175364, 90.720037386201142,  4.014643208046544
14.756069334713294,  8.821373154768740, 55.823961098605160,  3.962348419106605
 4.321586001528415,  8.156445887630687, 25.123657677017100,  4.095217706036938
 4.918924012643431, 10.421122381853083,  8.182755341985377,  3.792208521483674
14.733656020449047, 14.988391094728209, 13.475465165593912,  4.006360478824010
14.473711799096636, 13.405641302988396, 74.080591532597808,  3.995339971668989
 1.564877916487150, 12.633551634815374, 90.184168271632529,  4.273254895089199
 3.678332959975886, 10.978990316328202,  4.300872415009120,  4.238456947675719
 2.327642205350028, 12.105218784939607, 34.778062930105776,  3.919097857232163
11.879860596185766, 10.236543251885559, 73.303275240164794,  4.240010482723621
 5.021972152514064,  4.218637000537871, 59.602558098218353,  3.803151939239211
 9.169804415848922, 13.310582133929746, 47.565374506267048,  4.269792553875005
10.505987244935888, 13.887037275624884, 14.934319221229204,  3.709612193532546
