BANDS
8 8
NANOPARTICLES
cell(1), 15.037
cell(2), 15.037
cell(3), 93.981
10.123217242641831,  2.244528122808517, 69.310483609818547,  4.100882826285566
 2.515368310110454, 12.044231072710026, 24.117999383865072,  3.778099456703957
 7.471664743200567,  8.657440137703176, 37.536179879683857,  3.802195756283988
 8.734430625621833,  9.278994830795559, 17.627789078887993,  3.884206377410544
 1.999687010408975,  6.046754428014773, 12.612314398483825,  3.797891264438379
 0.633253825667102,  1.493166831292968, 29.292834626970119,  3.856031590157971
 9.414668743499032,  4.411686747992059, 24.648361099980747,  4.510245311299597
 2.414516610071688,  8.782112268823530, 77.292519470320300,  3.852281531600769
12.443536276062506,  2.402951235735634, 57.839320269822359,  3.738891206412559
 6.658506100061150, 14.920059810898694, 29.816987077306269,  3.766813443339929
14.189001415686485, 14.087440375397577, 90.114523009970625,  3.627682863187107
 9.904888134847283, 13.720235795458775, 31.780035592819100,  4.128765796312043
11.077021189944084, 13.982434893281134, 59.041682080949570,  4.011058791470753
13.098583122751883,  0.599655438769261, 16.186342738448559,  4.127165493694942
 1.697876579339130, 14.554293913591195, 83.571386028654572,  3.762387307579258
14.209534610524630, 10.347309983002635, 23.151886816466988,  3.955939734391883
 2.882198155303543,  9.658826840349986, 47.478909529029174,  4.090683038902998
10.692739602884929,  5.885937411557099, 62.921300156226820,  4.169808458542231
 6.852555302133851,  5.788305639867577, 54.556666772991690,  3.854228973286177
10.321479661079534,  1.068490931072844,  6.676490305570287,  3.944842499054689
 1.081711785496129,  1.784687296502530, 18.725962524808342,  4.107702953746183
 8.249066084906854,  1.306449566330891, 64.619642389719104,  4.277547647371620
 4.694515425342138, 10.464561222918986, 63.767020374153326,  3.980916411041301
11.674843455556195,  6.403376255808379, 16.810956470260741,  4.479065348906743
 1.522751229422599,  4.679508167245788, 31.607967601139048,  4.175018212031478
 1.365603629074267, 13.131182854298611, 80.070906533307109,  3.819580549883419
 2.023484295214428, 14.510929491363742, 70.111470848833733,  3.859408874762483
 6.729442184483309,  6.156196662593252, 81.008795571226514,  3.839336806830965
 2.866796724185038,  1.903622724938271, 48.782159910238249,  4.098348745171936
 0.261014148836139, 11.427653307387976, 16.188362546822592,  3.829611544249546
 2.802198214967550, 14.206850210666433, 45.810028449711375,  3.641416612065917
 3.205677758393087,  6.698049809105886, 54.124191318816564,  3.618754209213022
 5.453853052108551,  6.380949653973260, 31.058363055465101,  4.129859962391310
 1.675460131814409, 12.951489694949672, 62.325626783459064,  3.952404081548097
 0.919386489626602,  7.438846114792932, 16.613000428884437,  4.257810382865828
10.345076360763825,  2.583140299308602, 33.947638146165389,  4.006478720698957
 2.870553963715692, 12.652898941665210, 20.043037638363156,  3.954959632328555
 1.621367140402217,  4.464492921248502, 37.483559637499603,  3.792389884281334
11.905012374674349,  6.782535256522951, 12.587069362508332,  3.890229397054979
14.502471711113438,  6.585662247012271,  8.861033345120084,  3.731516051744911
 4.602117036149575, 13.788814915917174, 73.093910598901516,  4.046476516117826
 5.984653085959778, 10.322353716440153,  3.330275014551837,  3.830470390293701
 6.569649665569495, 11.551859696826725, 70.178906809775853,  4.283547811074604
 8.782007560475469, 13.506792493163989, 47.348113728868690,  4.098985349100197
 8.879874366840827,  2.897777624653385, 52.616954503046522,  4.164211583925543
14.473409256087129, 12.032657493970108, 68.060679702061591,  3.774570161016204
10.902243913825453,  7.636703011213208, 80.226139875285597,  4.093268981093611
 1.861252533710201, 12.556973379410220, 92.349452226084765,  3.998460189425430
 4.820332369338455,  5.792167031387054, 74.350725436079173,  3.958689272348027
 7.178090135082511,  3.747040635972270, 48.186046414770040,  4.126855757106591
 6.042662385043633,  0.794350996993539, 45.953738601176084,  3.602104907105586
 1.577078471485285,  3.128065032528959, 68.275791416563933,  4.299397370370114
12.215631665906493,  1.104125967949448, 54.175385220776889,  4.020754873976389
11.963236191131848, 13.519392431460830, 22.302459258416590,  4.000748938747966
14.045608276807316,  6.938056143595947,  2.586056707762201,  4.063819093856501
 2.885426204594237,  8.689616382756304, 87.340825821970839,  3.958378497829026
14.599312539244430,  4.354185615113690, 48.086589527209469,  4.073981078053130
11.216205710725246, 14.109422309275111, 35.571376988614752,  3.921318991527558
11.368633918460455,  5.362225672940978,  5.487635608676853,  4.403081845373838
14.304693380625917,  3.245234657203935, 34.647847003382999,  3.897937731449083
13.453277576237550, 13.970823157538566, 38.923048827634254,  4.122261685138713
 4.923960359272924, 14.513936220151626, 55.769035095157506,  4.174564603791428
11.487849241074306, 13.542887801347213, 74.825205598527575,  4.212653161799705
 8.456569431865303,  7.465628312845526, 14.227470307499230,  3.834152143704065
 5.977163251366489,  6.877861524156216, 41.091753862372045,  3.709356603215102
 2.779472325916211,  1.323644385705248, 78.244852846098567,  4.119136337316518
 1.540797300007517,  7.096562998353169, 50.188711420095657,  3.829382695727445
 1.476016155744325,  9.340647780442445, 65.933586884918284,  4.095497505895731
 2.417077101951000,  5.060142168347127, 85.498119335053104,  4.226944906505877
 2.098768519494480,  2.015342089999113,  3.001963056615345,  4.252823269372488
 1.138004369433985,  5.761241100298614, 89.218535827805368,  3.754018784624684
 5.593377700484978,  9.839682382576235, 73.993078678361329,  4.262875157773142
 4.784237632412903,  0.192510319000594, 22.499005231918776,  4.126786447046184
 7.442513013165133, 12.450379303342816, 65.679204307640546,  3.788793958358679
12.509526988782236,  4.079335424364833, 75.814129983771863,  4.133743735174666
10.634219076555318, 12.740540269947042, 18.066352496524718,  3.998454174137585
12.933966600791686, 10.521710152950527, 33.632054819577853,  4.392176825697827
 2.178835549137246,  8.976179774373097, 30.887579284696429,  4.228830660519473
14.596958010830788,  2.685833791972794, 83.866522956391563,  3.877260075275880
12.819975429244320,  2.121855964565690, 92.206966326071452,  4.023859589463489
 4.454656273733948, 13.002954999632246, 27.305858045107392,  3.921918409374337
14.248014312298039, 13.427935651541594, 19.203965141781133,  3.694979624476345
12.027392056291983,  9.115896579694292, 93.725419429829088,  4.150403329093461
 9.079505295023466,  4.450378622145146, 78.249281749208734,  4.164492028081409
 0.553126730083029, 11.309100274038695,  7.717418697634958,  3.705862517472390
10.644569159426938,  0.408681215876680, 25.593132247311573,  4.064290657516578
10.973419495071061, 14.359811121541572,  2.911082627367157,  4.002835962783887
 9.502373374406391,  9.178223825192761,  6.201534329364986,  4.168196566839104
 3.693863610080608,  7.074493829886039,  1.232855104012032,  4.233589375705107
14.478316030990271, 10.726496273852815, 45.357542225289620,  4.104660612488917
 3.221021734472515,  8.322414235001013, 24.294257837828940,  3.685290505061594
 3.724439114405429, 13.913134814717518, 89.004493827795031,  4.089816790464146
 8.744087309332995,  0.841019434889559, 21.536326519332420,  4.122251891360604
12.300007692343705,  8.981526400898700, 70.364297678552489,  3.830780750377412
14.384117995685873, 13.755237336222844, 26.187554831361904,  4.194885155426065
 5.071134174549847,  2.666991785123703, 53.496277158497776,  3.636712802985484
10.493454395995071,  5.262162818985262, 93.873436487050455,  4.145910761437698
 1.059370461819909,  0.071065533948912, 36.083700548679040,  3.917103177611663
10.558300428541418, 14.981265001667390, 89.285001023961698,  3.939774660850100
 3.205457841821747, 13.011729658786814,  2.222738842894541,  4.185877064551348
 4.696410705012905,  1.306725354283502, 85.655886833067896,  4.290775710451011
14.264834570982872,  7.765797444586172, 62.195091350387884,  4.000124815196822
 3.396563783953507,  5.211626449484343,  9.133462214900289,  3.836393264054216
 8.439456741061379, 13.712609117216228, 38.368547167389018,  3.972635841315078
14.742958898953239, 14.509185380631571,  0.979719818091097,  3.810527126897879
 6.286674514506586, 13.516092296586526, 11.923116419455912,  3.997542050244524
 7.703692661786003, 12.958210703970890, 24.250182592167658,  4.054259048402075
12.929925248949962,  3.679034995120056, 27.207507639887659,  4.193967506436262
 8.990560685342832, 13.497100790643904, 83.874678690815415,  3.892250079462363
 7.229854871813910,  7.425026146825471, 20.684304716267228,  3.848234375176620
 3.882683313533613, 12.531744283886814, 76.990815368112592,  4.217591052744472
 3.547642946903886,  1.061710924321636, 59.276756601839978,  3.664030216588679
13.999744339364263, 14.624717126104031, 32.539263470375886,  4.349207953439218
12.978395831680091,  5.113577889938965, 51.652693285265592,  3.823399501400210
 6.298582088085350, 10.062655834622994, 93.374861585904426,  4.084798657504507
 3.333070383317531,  0.239873614052880, 31.955440241414969,  4.128476045327630
 9.659378113962379,  1.953646277257724, 45.452790941482647,  4.022764941755797
13.964680544421578,  8.185938977424767, 87.087794288763490,  4.025349305436860
 5.179191061073552,  5.146854838389329, 25.678570727054638,  4.237432546071052
11.119803529127362, 11.484227564116109, 25.560094523421753,  3.811314439747152
10.301827455130521, 14.387839775637755, 51.060729230676102,  4.087365293434805
 2.311690557597210,  8.854344446777080, 10.009938106654214,  3.859780157385752
 2.524637581179400,  1.875662114331226, 62.708579849437719,  3.666779343647638
12.851121630567976,  8.181819152773013, 49.052573722254756,  4.213996756066346
 4.171474260955559, 10.493334699519073, 80.920517078350017,  4.050983442105949
 1.536117877517421,  8.765891608913167, 56.979549633106593,  4.177016370765132
 7.216429030037263,  5.101785710865763, 17.129810290028988,  4.013722645845279
 5.114490591723634,  7.849832270939625, 84.143734085440116,  3.980676846095627
 4.842656402810690,  8.897896473385057, 34.224668005389212,  4.042166684984164
 7.198391103785278,  8.832352069702944, 52.348423385676369,  3.689088010536473
13.005606344082082,  2.890195195820295,  2.309667982318395,  4.284284211117758
 5.757657930550558, 11.748476572209309, 49.330272390500134,  3.919721524557579
 8.873384237788226,  8.815094973825506, 56.075859605280833,  4.020848975137146
14.162525787946603,  1.151722837889336, 50.685272932606928,  3.757952466476365
11.728412222455587, 10.252170243954769, 15.094347999815538,  3.920226623700724
 3.098419060554437,  5.950570049614209, 62.801335503635130,  4.202349689164704
 8.962264667012970,  1.500522625530540, 93.240189385095661,  4.020979704655535
 8.127675207561653, 11.788923111898169, 28.060967706442849,  3.948341521838338
 2.912156383842136, 11.372856989162832, 13.177278853143019,  4.148084870285301
12.615720832900598, 14.816409881298897, 62.591988616765335,  3.894801805086318
 5.308657496048796, 11.569184408317106, 31.142710425809202,  3.900109342544749
 6.287137051198379,  1.990414979295442, 89.462625898049865,  4.020211504055615
11.420684503563749,  7.529778430404529, 22.457053293713880,  4.092784126942472
 8.330857358203128,  1.950422218396896, 10.980823495526957,  3.960771520569799
 9.763955334052778,  3.791289484269460, 14.160229995428420,  3.885114312816583
 3.417673217338941,  8.391791859856877, 38.293011959367576,  4.445621095561825
11.032636746507055, 11.798146419670404, 80.870381860744828,  3.866667463564511
 3.870549766607580, 13.798246464501322, 16.326095078460167,  4.025834120991061
 7.865309786380555, 10.140252589959674, 85.994480927803281,  4.024215932045731
 0.552620600688764,  4.406952133969289, 72.208784589973504,  4.208456588282781
 2.747060902142577, 14.895057846411428, 52.296986272498586,  4.036905921294209
11.110813954390133,  3.760928640808724, 81.947674715093001,  4.345664062208901
 7.081742633455883,  2.940618485346982, 31.883974879555968,  3.658796497323443
 9.001485292829013,  1.282302653911851, 56.552647457445921,  3.915804133924838
 9.225734231890812,  6.629144767807821, 66.571052247281969,  3.829308444494808
 5.268345582535231,  1.825331682223816, 18.697168160271740,  4.194428082915866
 5.985753189698807, 11.274929452858634, 45.362339807266672,  4.058207076596309
 2.483661601319629,  9.354711499976816, 60.788095499582532,  3.755435193968174
 3.668798457030855, 12.960679719443940, 66.804912413023871,  4.144779548612794
 9.155874385122599, 10.638583720159621, 12.266641417432977,  3.753414438583585
 4.804749624327337,  9.576107362916659, 18.303035399050970,  4.078758143725048
 7.143107935884684, 14.978968004026932, 59.732913451075305,  3.902449487049316
 6.101115138786978,  8.867254732348917, 67.105275447835325,  3.931022463311628
11.575248714541218,  5.466295652149437, 72.051715087785837,  4.097039794317864
 8.957827921472466,  2.298004680584084, 86.319459096719697,  4.217767241750488
 6.036975809567162,  5.882944534030324, 87.771920917243776,  4.460943726098188
11.161940049288367,  1.149185395797774, 41.652297953040772,  4.269368116726103
 8.056154918671051,  8.767437752400570, 24.719070530461309,  4.245183138081149
 6.080773986452821, 11.105761386384716, 60.011680813554442,  4.111855947468548
11.734708464185617,  7.666249867589631, 26.590757460562834,  4.191982941602544
 9.147542626871923,  9.182641911406449, 31.021171861611577,  4.174616388517339
 5.632922554071208,  0.659001947580761,  4.327003955062683,  3.751781381465394
 4.058820722467541,  6.500870703194212, 70.469822166408321,  4.073004724583393
 0.653771067359828,  0.077446379713288, 22.447224020566093,  4.109759749327133
14.893336481447644, 12.041072397259889, 72.635809869991718,  4.418036826471424
 9.188087326720453,  2.646806866879177, 28.663554826814149,  4.059778098496435
 9.345229151170312,  1.790866746837199, 75.366739970906039,  3.684627364268064
 4.490498412310790,  1.018402198617018, 37.939999132795258,  4.109314446034413
 5.161656581805484,  5.827174457542030, 50.999587953438322,  3.947960850170565
14.978214876496086,  8.934649381213205, 53.232006514492859,  3.965723602377342
 3.515055583218553,  6.161496427504046, 66.670169095417350,  3.570854717540890
13.389181974279079,  9.574868824964959, 19.228095335388563,  4.197833974753850
 8.558404360295480,  5.878114608493815, 84.416939299687385,  3.912504297101725
 9.504143332348882, 13.913331768056366, 14.377093856311332,  4.060245958852242
10.089011325726700, 13.550955028871719,  9.794212731810791,  4.104512658812254
 7.590412991333313,  5.781241990195855, 34.617691354977737,  4.244801131356906
 5.719248868147924, 10.525909316503457, 89.234108210994634,  3.783051382060693
 0.773773705047322,  9.549106177568540,  0.483697985691270,  3.494386040560626
 2.928389794733056,  8.698732635632680, 91.409408446010247,  4.173682238132346
12.170052758142072,  0.281140331899727, 29.104548597792633,  3.556366293437136
12.698140793889396,  9.647435534648068, 56.403570972063427,  3.829175820553318
 0.622728814080345, 11.972270338493368, 87.282576524626137,  3.972876745268111
14.225897854205842, 14.656184083767140,  9.021235932477900,  3.974655385023270
10.949014246994897, 12.427052450200955, 54.434397042921731,  3.821574829199696
 8.268514575852517, 11.087616334009073, 34.570708875816074,  4.020798478854100
 5.204902695802131,  4.509674001947371,  4.109511127760406,  4.001799344932539
11.036030625356290,  2.838130606474091, 49.153628374501956,  3.953663855719898
 9.631448230244487,  8.511946510205636, 40.750332349262862,  3.917971232035461
 0.490893600807294, 13.946442247726036,  4.996714111079354,  3.787871218650536
 7.585538916583632,  6.780343531713970, 91.547827665924160,  3.851985403347093
 2.873862452439929,  3.874844361495479, 15.745412225281139,  4.005246896422216
13.422772890878827,  3.303491836665436, 88.586344511692729,  3.676235780010129
14.251373304440122, 10.216457612796370, 90.534687036063062,  3.914623257229110
 7.172530304947004,  2.179361704087541, 40.834405122884235,  4.102640667736277
 4.183836528064485,  4.808823359793596, 91.412199450268574,  3.977699568824928
 0.141066749632778, 14.785538282546216, 42.701373576333623,  4.284308474246774
 5.948134493618154,  4.359268141892538, 44.198516325085357,  4.277147870394203
 1.892890737773153,  9.504613969463165,  4.313841900573207,  4.389132204062106
14.755411662465351,  3.691983994637201, 79.743097323027754,  4.146481977719077
 6.357499359758222,  8.699556047133113, 77.958363618160320,  4.128986397333161
 8.471647896564511, 14.762816694812885, 72.140915124249091,  4.147641204226177
 2.663310719492682,  6.756859079893473, 80.766728448334462,  3.951436544098190
 2.635774165505202,  1.255787496255035, 25.847687246297120,  4.104785953682343
 8.096040946169250,  2.258753448004877, 37.053024253913847,  3.676358271738588
12.329589034261536,  0.172094783232856, 85.807356551100014,  3.798605130219351
12.625522605051323, 12.229944535419895, 48.594542409027127,  3.937751729623270
 6.821554704271826,  0.178678773252601, 68.356656921892011,  3.913470302977567
11.486805095602374, 12.774685977729538, 70.355338889926415,  3.899631352650803
 0.349513482154733,  7.004437092782820, 69.024814527400039,  3.951088376541525
 7.189241512276562,  2.660130291816060, 82.655540921046082,  3.917512419326602
 8.786097866281921,  7.041846418871844, 74.848954741706038,  4.396602954038796
 9.267163497604381, 10.746977940847820, 21.257927503190309,  4.007135631819520
 1.228785898286222,  0.750852440966870, 73.997680217656196,  3.996077019942085
 9.364871003170311, 10.409387056015825, 49.740851723246564,  3.780097977489620
14.308584099130229, 10.634726392737081, 41.179165219767555,  4.111699863495216
 6.148325078937151,  5.136743810534623, 12.036419416133091,  4.024827127970321
10.203602793117776, 14.817905328699103, 78.459373393973806,  3.885848304819968
 6.686770775813424,  1.349774124549219, 79.025743332622895,  3.817997405631380
 0.474338255351554,  5.123851460308902, 93.135484301141361,  4.205013553844350
14.407449768949467,  9.815957633731889, 80.567277445106185,  3.912719963499872
12.159964695448087,  5.293213076076264, 68.305174336988699,  3.487568929056106
 8.135045192837431, 12.528113216253024, 56.966126288671752,  3.742336584268593
11.127923959894519,  5.344325446044278, 55.312717912535120,  4.389359627025338
11.242330341015407,  8.843257511428661, 84.131121342564825,  4.105078270614728
 1.739580439138450,  8.246741201071760, 73.381320141872976,  4.147478066488285
 9.707810160902007, 10.671786850708729,  2.521663736751889,  3.717087346027648
14.306443087801078,  3.572404611132603, 40.465754130861548,  4.005582365433725
 1.261961238252854, 12.719714150452599, 29.605949436345437,  3.890568829839790
 0.921539802578846,  7.489711343154621, 34.762033354227384,  4.343957582956691
13.985924167193931,  2.225795553815693,  6.164039336529902,  3.737422100015937
 9.841105673468917,  3.859047575430910, 90.059853569129842,  4.074173351293957
 1.380798921086234,  0.686166006738306, 13.750179590752630,  4.073094582474738
12.656631888094088,  6.572485874685815, 90.733224674363072,  3.754795959439741
 7.623908617113152,  4.194822924733288,  7.528358223799629,  4.389951091177985
 1.596409429286314,  3.747035867090952, 52.237818151973329,  4.022080723011896
 4.222894155438424, 11.986451014796168, 85.327866836105130,  4.216288929212762
 6.315453348811084,  0.487416036025428, 50.497413011611080,  4.046233554505354
 9.713448835118047,  5.545675784291181, 38.134121224103083,  3.959364493344328
 6.235884751616830,  1.729939792449741, 14.547467701030628,  4.322665964625879
 6.699859278385797,  8.080340724100203, 48.006122228275601,  4.094621614878045
 5.777549889881871,  9.009451754581272, 11.796748781094719,  3.761279898119714
14.824228210152167,  9.068586377677770, 13.172623176026191,  3.613062424351341
 5.308607703038661,  7.903421716151510,  6.628459028006096,  4.440106432388635
 4.056835859336306,  8.032400223142290, 44.084199457655480,  3.739543251022976
11.629088408044566, 13.388776683467377, 44.553201685897349,  3.843456885554084
 1.796897830095775, 11.973234394447992, 54.675757615515799,  3.717066975219507
 6.772022271886052, 14.880183768540427, 34.259605674548901,  4.153980890201945
 7.013901134010381,  7.594495688686314, 62.064998369641160,  4.117136777202609
12.636256700402978,  1.624003036374609, 72.477217280352590,  3.914931221227759
 3.553135383804624,  9.875047151341983, 51.987946359925445,  3.900120316932419
 4.246930498607673, 14.986076083108264, 42.416982510601521,  3.890573121426002
14.054530258077278,  3.565030917650493, 61.506694283227830,  4.473655758021808
14.042630976665228,  7.121523430373367, 77.844184491239716,  3.781054235243248
 1.913551097420052,  8.892888106668074, 20.859478100935220,  3.727866882764220
 7.851449736961643,  7.978440707287102, 44.190671702493397,  3.853184868443826
 3.251950217210623,  2.941891195301864, 81.992919145066679,  4.083211690257727
12.738402442230052,  8.715317906539479, 74.375015945923721,  4.220605882202666
12.664858829760057,  8.456537734148917, 66.528973802099088,  3.811256514082148
 6.366302214092469,  4.850300249478225, 64.827295681141592,  3.706027297616764
 0.863349132568150,  0.858618884787557, 87.060046891497890,  3.884226202713720
13.695664673553688, 12.088243113523426, 83.784600180787464,  4.048314722495585
 7.319185765721754, 12.334770333884130, 79.273428786764626,  3.794079016198854
11.430137401967499,  4.258086000807098,  9.555408479293645,  4.021781986657297
14.552531025710845, 11.559029775325921, 76.894796342520678,  4.175950662812535
13.921258953117588, 13.207675117845001, 56.581224687001708,  3.654757959333037
 1.193684090346880,  6.975693748983131, 41.655513473334061,  4.049694343720097
 4.183473188510305,  2.497378401808797, 71.528712367852421,  4.094001284690752
11.233793946165626, 13.752057689754874, 66.326745784244622,  4.330405342003413
14.028411527397630, 11.113633240000983, 59.881268047532060,  4.151140641512334
13.616827829227061,  0.566950172165921, 68.961800792572433,  3.679044666149215
10.038505908744774,  2.318856972573687, 61.007516598872662,  3.978681530768074
 5.667251482025292,  3.213732761913950, 57.110858881553483,  3.767690652272881
 2.267753151466384, 13.084383546728352, 39.597842444247426,  3.854797087710514
 5.270439958498490, 14.253345266869317, 82.014299862476349,  4.050523877098919
 0.760645044503531,  7.033874698846445, 45.518834901457602,  3.713773038646925
 2.379023274218492,  3.749159335198220, 22.648219173010123,  3.999290301381977
 6.535756521824595,  0.272623336889942,  7.968995608722311,  3.766321411140807
 7.925830564055274,  3.759290461552624, 72.385359335902052,  3.988074339681050
 0.501369389121605,  9.578248273238174, 26.996497367063530,  4.316117239751816
 7.605114751903297, 12.974966436757992, 75.560425616712308,  3.758449180811736
10.078200183614209,  7.284433606389767, 87.848376112750984,  4.090835286984257
 1.089399267173552,  1.552997188306585, 55.884658564560034,  4.535519486638925
 9.291267551090398,  5.721906822373662, 59.059964804332324,  3.983467080098006
 9.705223284401255, 10.364277799177360, 67.946871323903594,  3.769909707265376
14.430633240830966,  5.441331611292277, 20.188318912621000,  4.433273070017075
 2.552664331558489, 10.310217951054888, 69.798357944738555,  4.140540847543559
 1.553460793551875,  9.406614610253406, 83.745081020008158,  3.832660349007982
 6.768816096324004, 13.049693709941202, 19.102499659507234,  4.012620367202839
13.395511542319145,  8.793259991854057,  6.118791990019048,  3.646040604074481
13.536468952861759, 11.253200864268905, 63.956246213226137,  3.945000091243760
 6.227579918268757,  3.943150823822474, 21.976262344943166,  3.821372949271037
14.165706597790562,  4.058986325900892, 14.323444685356030,  3.978232887652956
13.430730428407250,  6.502640137811467, 58.551480985558825,  3.866665603985465
 7.361934142613388, 13.790297344312279, 87.409604835758643,  3.844490032075680
12.877167788896333,  3.253950851056803, 31.130817618399110,  3.682954047685403
14.104811018725988, 12.702045527296887, 12.538337210550912,  3.896620282857455
 9.841535735137352,  9.703698718932490, 64.112705772193081,  3.996086841352385
14.067432548334553, 12.686976160128827, 52.194059613595797,  3.849667406531294
 2.660169822238643,  1.438531732159077,  7.138957946520033,  3.971525776497585
 5.247011430825744, 14.221949946546033, 62.972326967840495,  3.731062632950408
 3.299085521715333,  3.552937877007967, 40.950159866322224,  4.086289741706522
10.681328812900666, 12.150393166694263, 41.126862871501160,  3.675869809735595
 3.713116680704997,  5.545624127530713, 47.399277861570667,  3.830484161223810
13.503798037206836, 11.315689078652388,  2.776457815469395,  3.898273931716632
10.366406884509036,  5.864039767077128, 46.512011661671451,  4.190151411608361
13.254872751797228,  7.261417594130092, 30.599765150028649,  4.413192045671970
 5.200399513702938, 10.444166918898695, 55.591095252665426,  3.963033879034264
 4.879267057477406,  4.661997289286045, 78.045841667793255,  3.751389178615499
 6.993462800578296, 11.128901569207860,  8.775297826865136,  4.010041439630487
 2.623645205031875, 13.360302222428809,  9.887268748292398,  3.558050190530069
 0.000624115528463,  5.612939419461656, 65.394110450875345,  3.854970456601799
12.155302107030636,  2.785687039104462, 65.377946975903939,  4.205793014263653
 7.278430468365353, 13.568426214211847,  1.458055550710417,  4.084362448914066
 9.424331948117009, 10.252409679555042, 90.670766456491720,  4.183198259634692
15.004220752711662,  0.046245125939871, 59.593641012516265,  3.710834760633494
13.163145335796754,  0.133398816587325, 81.137480255468148,  4.123089126710446
10.604101800522873,  9.950448310677892, 46.108318881737915,  3.925860777736630
 5.533845883961368,  4.847147748934352, 37.954986557617723,  3.814350702589073
 2.021608534307967, 11.885110982445372, 33.881965484444848,  4.092440089382431
 6.633884324002527,  4.425674979458670,  0.461661478547686,  3.827290573502625
 8.183806303369108,  6.464689468209607, 28.117323357092875,  3.894043603907234
 8.273791357455075,  7.065569757515109,  2.890723578868549,  4.054110255366115
 0.075431772593325,  5.425262460544667, 55.324689464175457,  3.512767711325451
 6.206078320581416, 11.015610640107788, 40.816642175528870,  4.556472344253651
 4.689784867264955,  7.302750445929045, 15.049026417798110,  3.863180417123996
12.089337317632609, 12.466367675453663,  6.359210622700155,  4.133736911952457
 6.636101994068043,  1.373996645402217, 25.871802108154085,  3.855142218006061
11.474223908620727, 13.230598600519999, 92.919663657042804,  4.303688477298387
 6.489751499976598, 11.019170870253236, 14.977792330966583,  3.881928421173233
 1.689835550278578,  5.693236640031673, 27.700805831310920,  3.891558009823367
14.889223464029296,  6.421964847411927, 24.276002132275448,  4.015099855410207
 9.866763148965289,  4.530818305120899, 20.194673164762094,  4.035912863165951
 7.917393246042906,  9.692814053336219, 82.051402007029864,  3.893456755016589
 7.049442180732977, 13.535139254453469, 91.352326530651780,  4.031627499716651
14.237071840362361,  0.446748641051368, 46.783278603404796,  4.165962782976194
 8.797976107760832,  2.742013435959614,  3.308348948528340,  4.076987736963118
 9.790691463937687,  5.341784834495968, 31.354201183410808,  3.624701419569051
13.182743445836556,  3.032800133963968, 23.278401229990660,  3.774886564479501
 3.732798587849907,  5.704696395066386, 19.308929358428170,  4.185467415041200
 1.387212808107785, 12.969577125269030, 49.120549616940060,  3.864184470661152
11.780502740026488,  6.461895171711021, 34.599827731325533,  4.242737462756047
 1.990503855515791,  2.926291276226614, 44.844666781736869,  4.222594287630717
13.989233614918188,  0.618653933647193, 77.239349063941475,  3.903886249380707
12.166733878633247,  4.977459689827707, 85.590774667232196,  3.595373258060834
 4.475501813772876,  1.819063837826556, 65.844361698948049,  3.702509274274801
 4.489573472515776,  1.058099515011299, 93.518542272336759,  4.361896698089738
 6.169495590290097,  3.646289574681444, 61.065921649135326,  4.190702557872501
 9.283089034104885,  1.530773385549097, 17.483858471935502,  4.113860850300827
 2.207674342516142,  4.869783637735806, 58.689670584415339,  4.426649567385653
 0.121236421565548, 10.742582476572750, 37.222917090644358,  3.924646900655577
 5.499417802533921,  1.985434048398876, 75.310418476608987,  3.973093529032094
10.126019234071700, 10.368596333086522, 77.219516417619005,  4.177541056078470
 4.381586883396166,  2.967498660061336, 29.097687021633217,  4.025322130209025
 9.198382790630458, 13.106682482864443, 62.364839037451432,  3.750372152445368
 8.008031268143954, 14.046379987243624, 43.254504235298533,  3.961948884025063
12.542994535171802,  7.653812200669758, 43.410565411378037,  4.128049591765930
 5.406986691170668, 10.515761172755909, 22.124651216628312,  3.876761484621716
12.440163903148935, 11.369438336574776, 29.381675342898912,  4.271036138387514
 8.185770174872763,  7.517520577175397, 70.472234024758663,  4.425018112497545
 2.679946632030623, 11.485372953673762, 43.120668577312912,  3.901294505292142
13.051937397946640,  3.725861148193227, 44.315628079219550,  3.955814255487619
 0.341095694720234,  3.149960086283093, 10.522132106684371,  4.033986595124717
12.171895929642000,  1.191011513644685, 12.179620339060266,  4.176745592029017
 5.050379919496751,  8.997430223845942, 27.775757490077165,  4.192550865616838
10.045452310518497,  9.746096883421115, 59.956190527868870,  4.269013211449460
 8.922869132324717,  7.443009768336493,  9.964553791386773,  4.112856771199598
 1.500596927479348,  1.961655590915390, 90.771141415931240,  3.948399961764034
11.089425317867532, 10.536403152729060, 37.528290276504656,  4.226448812741807
13.541165829285335,  7.147883804961837, 38.446813664752469,  4.329037494301740
11.080309072145706,  8.943270770043194, 52.816591152015377,  3.844270161746253
14.250608732715962,  6.434329884532445, 82.707657860474939,  3.989125246257530
 1.412827368764575,  5.332421312226633,  5.594538334381615,  4.268956064733217
 4.955791295099051, 12.113098833710199, 36.782226233671828,  4.148152394799061
 7.288527823423783, 12.592283077313226, 53.017970953975372,  3.926674605644043
 1.476677407709443,  4.615200777306256, 76.193200655837003,  3.981357832043548
12.403580877888357,  9.917397401509831,  9.848646989386729,  4.356444299773576
 2.577137119250202, 12.468256692117235, 58.441259159831134,  4.029311352156173
 9.402908277505064,  6.313242854493525, 50.454578072052861,  3.976510822217863
 0.386792346299696,  0.114257487349172, 65.490451250924963,  4.169328807756944
 8.142516901959752, 12.930897140349265,  5.354436106556247,  3.990789605410345
 4.129742121707096,  1.733188995301673, 10.882099951152876,  4.078535408862090
12.365382131962836,  1.527173568561735, 19.931312398574541,  3.715798722280493
 5.665781564850881,  7.343238605950555, 58.166864101472768,  4.137136300890465
 9.667983250354187,  4.921625465837923, 42.475124197070933,  3.998566849767937
11.919461375316704,  2.364811924537389, 37.571147161402656,  3.845305782673348
 4.162780055850383,  3.364046508631588, 34.533036672938486,  4.132611241986222
11.546136709128957, 11.554586078056831, 87.281649680881472,  4.219814715949266
 4.042916900470228, 12.643252801609105,  6.337430930532684,  4.217476673371808
 9.489986296295005, 10.625638836353788, 72.885073090999114,  3.844100756934998
 6.629099266938585,  4.094517202689365, 68.565041239050871,  3.926327744820278
