BANDS
8 8
NANOPARTICLES
cell(1), 15.018
cell(2), 15.018
cell(3), 93.865
 6.613244605232380, 13.363892413899936, 11.709514929951647,  4.024980746298062
 6.858037947295938,  9.353680958121307, 19.602810800351236,  3.868373003210088
 6.528538560396726,  0.325601996300496, 42.964616216382389,  3.869368562406847
 8.180291578162249, 11.895948295163976, 22.394513320866860,  3.939285449219721
12.558540468359002,  3.012048822202473, 40.984706637621159,  4.241229329159461
 3.500066496337186,  6.677582767824011, 57.359121131767353,  4.045353063263586
 1.511827369541132,  4.250424017845485, 77.719802118203575,  3.778469606352491
11.269100046639718,  8.205984216443435, 50.885936631543728,  3.792040251220610
 7.655780658098838,  4.308383346750173, 66.807410801816800,  4.220509813336204
 7.106477218957468,  6.448191226261092, 71.458533692972779,  4.286834251437983
 2.527606940538902, 13.656563578375332, 72.586132137823114,  3.767175191395917
 6.762210572898439,  3.791315002224107, 36.087363892924522,  4.219048929101348
 0.156585756732130,  3.451366735760424, 13.447792544483089,  3.973883860212349
 5.479853861206951,  7.738654456569221, 64.046396079813491,  4.123817512464429
 9.955224577232167,  8.873786297384447, 26.147937153416869,  4.130871317782221
 7.090061118099023, 11.626221627323698, 88.763987589143895,  4.048979021277896
 3.574470508628036,  7.065857878695079, 31.274488104762597,  4.054836047214809
 1.330385131509653,  8.662326092371204, 28.431989603307230,  3.859126598883861
 4.769560069061702,  3.563056313967890, 69.623819765400398,  3.979954536559446
 4.962966968131292,  5.471504151966140, 41.212485294948948,  3.647165101399122
 1.562414591743546, 10.975648913985093, 41.887191301798410,  4.257528456241238
 7.881442980791332,  8.651054758729259, 60.663033836097199,  4.365960607079121
 9.445652577688485,  4.272853556764054, 29.073864950016361,  4.552240582908859
 6.775919728854513, 12.144045355913537, 67.787823668378365,  4.002640473009880
 8.751091945422875,  7.185131528420515,  3.547303609355076,  4.156925924132395
 8.178515898391348,  1.284906134017117, 78.928565590601281,  3.909271505515947
11.252442972326500,  5.225335474054845, 24.615728855621388,  4.171294332087495
 7.588340435670816,  6.959610797744959, 56.702204163080900,  4.247190236789599
 9.580892838696627, 14.720874389994774, 89.412347936494129,  3.991435623072014
 3.598815341940667,  4.756746259392941, 89.985151571323115,  4.147420198566051
 8.985812367292054,  6.104436361960039, 18.809950661325470,  4.040547856425881
 5.200270160702848, 10.265363536120713, 57.032366180630611,  3.921632898343268
 1.255831467107865, 13.749252998200381,  5.731319605678986,  3.827433192427401
 3.735021498283730, 13.409533938253208, 82.560745601065364,  4.095173108565989
 0.525035192209175, 14.076274445076368, 15.459656046675907,  3.890876258327349
13.224314585863958,  7.667109707761985, 20.649289881114584,  3.969377950330480
13.209907202059982,  2.664330970938213, 48.267964494542667,  4.073860322805765
 3.512949877413427,  6.648010628064400, 67.430272891796818,  3.993260277975160
11.775682911573192,  3.691094362337646, 62.634712797259368,  4.268359154913870
11.673358249058289,  1.880526959375839,  8.134982968165259,  4.342570285516907
 1.904793244441354, 11.037185813024182, 25.333608803282011,  4.028573156090745
 2.800397132292650, 11.707814792616633, 51.563167439923610,  4.160535279193073
 3.516612980387119, 14.660737422993602, 68.734287432575641,  4.434207879994165
 1.481930961631969, 13.842170411047523, 92.253584440700664,  3.886172011206593
 9.479452020955119, 11.153452223225731, 13.166592005546963,  3.764054170339930
 1.790944250725839, 14.485075044297920, 65.006404837685949,  3.781150504409717
 9.232311029329193,  1.589057192273757, 85.953987860644787,  3.914407452068086
 9.678473862054977, 14.946316540437934, 62.752068020647137,  4.133331746797687
11.004775569002405,  2.018402490221343, 67.609935890904197,  4.032712472482141
10.770007191280957, 12.716593380162781, 92.620468436893873,  3.936632482396357
14.499400928467844, 13.589974665997435, 81.952785253960840,  4.146568678518412
14.146566151942080,  5.906571984039135, 52.027572489173146,  3.812307545555620
 7.496966061006971,  1.475492499392221,  8.955756369179138,  4.167218615043772
 6.049364756050062,  6.003896627173568, 10.415880061212157,  4.031823224036053
 3.010277929416242,  5.373791742755166, 83.132961612932121,  3.969027517995005
 2.759656805169038,  0.131449295296508, 41.882685844585922,  3.846249511325240
 5.099186358890546,  5.115971001347566, 18.554227211713350,  3.957902431529115
 2.827227423357209, 10.115712035030295, 93.120742234019033,  4.189816342005398
14.112841894259052,  9.984672465687815, 38.492518393784117,  4.158876093829982
 0.235213792806119, 11.294285000415574, 21.677029474502152,  4.011143435011896
12.487457534824630, 12.849969187372569, 31.667236047189366,  3.919630656615509
 5.143457873666184, 12.832134343670081, 48.552227329910956,  3.772558035682358
10.525628733228155,  9.144667077737139,  0.438828190419278,  3.961734218179950
11.856458291524701, 14.906298695697737, 79.191788017455593,  3.936963099887974
 3.598433025791742,  1.898840022324084, 93.329406273196668,  3.870060116251581
11.514125616873649,  1.120645860155195, 51.799617229430503,  4.307990340878791
 1.933424427381237,  9.790591165902450, 73.253477900446441,  4.036277979154050
14.746292901548511, 12.536098354584363, 34.839774644152449,  3.804101693708619
10.534950896478591,  1.080715789511111, 18.070351506145805,  3.715292253855744
 6.858045362563690,  7.231364928262909, 38.465999928692554,  3.890564682928261
 1.258220256342702, 13.787280445119594, 85.754898372541859,  4.020777997764911
 6.720095874653640,  5.921869750063010, 87.791053722559013,  3.718492050539470
13.578117722853522,  2.359391908070094, 55.138737627263581,  3.920337132004815
 2.073946013419944,  0.261656882340280, 79.211164280449097,  4.085001098135894
 6.456666778652491, 10.858182210284863, 36.828975762069668,  3.927327334945583
12.825494284409892,  4.746533551550057, 58.091700105082687,  3.810664435006423
 0.806560608504751, 11.668837600511740, 11.432036414601066,  4.073551645568239
14.719948411627534, 10.110321912719957, 17.956472010366223,  3.869778242878318
11.472430507154627,  5.742205935968315,  6.408624138221851,  4.121827621004128
 6.506469955047780,  9.265113176199598, 45.260319875354895,  3.803615938150005
14.415285652382055,  6.462306085231797, 84.435587674733796,  3.960231342696961
14.156842952247029, 10.530105907631857,  0.775653488102142,  3.826951283530183
 5.398299545926477, 12.280974493753874, 29.687208835711033,  4.211770182625220
 9.460657283344585,  5.082180498859191, 59.700962878275291,  3.667788895240978
 0.801109854362315,  3.167716755608954, 66.865386136161206,  4.256466953054044
 6.937080789268169,  5.885898132477289, 75.608828926382401,  4.058775631492665
 6.863966178507964, 12.333922800758490,  7.805144188738637,  3.984032609869014
 5.093324201458627,  5.600102498120489, 79.457658263962855,  4.490511115483330
 9.359713734973720,  6.736190899337440, 64.018298982479081,  3.866460681755497
12.053415043202472,  5.254928743729647, 81.645882204499955,  3.732004926430859
12.565322082621901,  7.731741526423466, 61.856960133006460,  4.096623074025121
 8.416518895468675,  1.416441160177680, 59.203027894680567,  3.962661078893466
14.256599673396730,  2.680563196330459, 80.205850661623700,  3.613429072044973
 7.673270897101036,  3.444896248479217, 62.733568176715565,  3.937805377010394
 4.311358021946807,  0.662460082834130, 51.403260511920294,  4.333876578892149
 6.066979747174207,  8.534760058016866,  6.478449267366100,  4.218810974718073
13.025613941474884,  1.212111457955264,  4.254222692594874,  3.976475522221366
 1.292817369006814, 12.236906953649168, 30.177504260493013,  4.026548741435879
 8.074861820979470, 14.978061436446270, 49.890626728375480,  3.892341052480730
 1.870368806561750,  6.575977527234189, 70.979407694149856,  3.812869707795679
14.789954028786330, 10.071321957572387, 59.127880870657371,  4.311387873457782
 2.225272129397601,  7.724896706233770, 87.226846602439053,  4.330178917321486
13.129501678175837,  0.403708606986682, 64.702510449170120,  3.837336696704408
 0.825138811321338,  6.067952581847093, 60.251889919552283,  3.924913881330521
11.750501162647240, 11.484033610337670, 63.152348945960192,  3.897079559011134
 6.000015769552318,  9.686228871291792, 78.460609368870507,  3.991249890549270
13.070338878947112,  5.186640942100148, 35.112338197668770,  3.858490030347045
 8.122554395753957,  3.816863387708959, 22.164971249907712,  4.171180053982840
10.599216403589857, 12.773696257710698, 82.169339186645217,  3.766868465765010
10.513112608883226,  7.882723365758668, 31.317637856126147,  4.179340960943654
 6.411107946486083,  3.463512002418024,  2.586316853837981,  4.139519280500812
 7.439481576268866,  8.281293348986654, 67.460512750877299,  3.818572970964762
 8.977085175775233,  2.425980703410949, 75.191706206885186,  4.013118529912911
10.172374196582782,  3.850154200703921, 89.332048827947631,  4.330836895650028
10.679227844806222,  6.355561007626397, 73.862428434626423,  4.190100926657010
13.609064066368344,  4.474021222364706, 70.164826321593139,  4.101389303221357
 3.093222086873602,  9.638874431506002, 38.355875511694734,  3.823814211396372
13.471063430183827, 14.507968108833920, 20.034897621263873,  4.007035492021522
 9.962498135580711,  4.536400256599971, 78.520465394389745,  3.550500044341085
 3.220497087905059,  4.995652891614260, 37.847944920827622,  3.905330091132414
11.965361225962083,  3.810468634857088, 20.511995521690146,  4.133404068402955
 7.597710386912504,  0.017074833026322, 82.517629820288050,  3.748779786034219
 4.626292895990010,  5.253964532292674, 60.948017473008946,  3.956193712627315
 4.071067400516102, 12.575634642573135, 62.704470090516075,  3.704941295151768
 5.202136192499489, 14.433145225808442, 86.204006659512970,  4.020554446317349
 0.776496985978334,  7.312751738207003, 91.111930788315760,  3.784280436542324
 2.630132958784230, 10.226826178046299, 46.528274448872097,  4.521218056551946
13.358082743609540,  1.412182369303803, 23.550820751781924,  3.987516750453133
 9.424715457407494,  7.003113046808839, 35.304798482268772,  4.265461058699223
 5.847033776907931,  1.502051670458698, 72.859227195142935,  3.983974841341146
 6.752079713595427, 12.412769093987354, 52.731970466677986,  4.190722362043111
13.622858249255346,  1.187938789335676, 44.702488091227593,  3.627845932342760
 9.528670378319509,  0.193861399151395, 40.327924310326601,  4.115453353787382
13.164877571045331,  2.896886650082360, 27.286365514153999,  3.826800692653169
 6.019034522516623,  1.124897082630683, 46.758721530437747,  3.941912019075943
 4.226562913737707,  3.913542120380769, 64.636502822706177,  3.928944610662693
 0.644127558944142,  2.354805246629347,  6.964299879643963,  3.904649867342481
14.824990961589895,  7.480039880257183, 55.787821671474198,  4.093009046559478
 2.231775676586081,  7.855988213453622, 21.987951773750236,  3.944640199646001
 1.067041999463088,  1.971321340373224, 83.409633050587644,  3.882878357269693
 4.733524706826892,  1.129089994392216, 61.043969549262677,  4.260784307768022
 7.788418945792578,  1.279658682083762, 53.513006485371704,  3.839042290792534
12.268952422971905,  6.445456478535055, 47.655428037653557,  3.806477820414044
10.054391722761357, 12.304653226676637, 34.846057564781667,  4.111801517636270
 4.982675147686527,  2.279081239996900, 76.776624107313410,  3.994476426993710
10.640350074869694,  9.711803754963558, 45.763052341982643,  4.139733799560385
 7.282293659179950, 13.602560186953228, 75.375123373392356,  4.226650607616502
13.791005046158995, 12.418816950396947, 73.022830689192986,  4.124690312535929
 7.080556297877914, 11.263332062268857, 81.976368529654891,  3.874851369131423
 2.504167496837323,  8.094638012362850, 76.998696152511556,  4.218643231413680
13.769086560455621,  9.260785228752262, 75.705096444042326,  4.056641546495209
 6.446233546046432,  2.083485378591991, 88.885449763164104,  3.943456364080672
 3.137732861970823,  2.699464304794822, 16.017793462476426,  4.030953967621230
11.357540913260154, 11.097951344173627, 20.246066873649802,  3.810172157174746
13.329325672706270, 12.486881742341341,  8.214720304930621,  4.192125717090099
 9.389439036642129,  3.216144751698668, 47.371610555624152,  3.833899383148642
14.569801470737822, 13.013667594385273, 76.976835235084181,  4.021647663828381
 9.651759390929875,  2.382649829308562, 43.654784456896422,  3.661292790636175
10.054975555201199, 10.669526233757052, 38.596493802896063,  4.065920381771818
14.185364220580105, 12.388292242850108, 45.114631813137748,  4.113951008317894
10.900367408450011, 11.301247568416631, 88.311627199127429,  3.643629466495476
 9.603413983207519,  3.438791547633125, 56.122729826616549,  3.754813093566204
14.282565967550182,  0.785410281114269, 30.216283576832275,  3.548375601405497
 4.535289079963602,  9.506349511779531, 70.124921408890316,  4.116851007018766
11.713307588547128,  6.356001273834566, 38.708930809976870,  4.021958401072470
13.276806166722178,  2.821077447905118, 86.359519713240857,  4.383233572234140
13.466578808927865,  9.909869753981239, 14.252769634594275,  3.956641271318311
14.244054336359509,  8.391327862541210, 45.075405090935384,  3.641623385001948
 7.168804881283980,  6.048125723832919, 32.216063665954266,  3.590524532562755
13.988866747268332, 14.195006749361674, 41.501283830918837,  3.968771111754271
 0.961402664053664,  6.892935467051752, 48.352670068831642,  3.773921023467385
 2.105113809653379,  4.050104855531642, 54.723197364087447,  3.898326413125524
10.007654296122666,  0.280713380120534, 21.751015780761929,  3.866050443046483
 8.372431972356200, 11.812863128809040, 42.074712708342787,  3.826364852083163
 2.035154730920721, 14.587642572281576, 23.302414050295113,  4.097462205443936
 9.716535805890764,  3.899763972615935, 15.412377665953251,  4.189164504450358
12.043438184647545, 11.520865494128151, 69.516462944638988,  3.912350635769966
 2.869844168870734, 10.469159634398967, 33.533035446345302,  4.145372013825869
 4.577376966397186,  2.139430646953277, 81.665977402530046,  3.781642116180607
 4.420113894963050,  3.229352278373365,  6.916784454091083,  3.844747581488348
14.649515449432259, 13.699761786641641, 61.370730978241156,  4.220069247387908
 2.967277931234019,  3.399676097862251, 10.598822350235787,  4.024768792580031
13.100196584375372, 12.151863376908567,  4.149942553028750,  3.947857632618989
14.059507928304004,  2.347769405911369, 17.111833332500201,  3.995657573128358
 1.904757442370773, 11.169948980441159, 79.687470614251680,  3.998230552075063
 7.825409169440998,  8.359328890782047, 52.781052459028565,  4.074417643734034
 9.679855418795229,  8.246113731424323, 77.523468139938188,  4.125749788446827
 8.481454664774251, 12.591748697603213, 85.261723321103005,  3.725371400625010
11.083583592707463,  9.338541459108567, 66.386757263514681,  3.949612702003879
 4.409309689958496,  6.197531214886947, 46.742985280982346,  3.927416077867428
 4.870585536694874,  7.282793329460787, 35.070352052101335,  3.977681330009164
 5.456864858408493, 13.568392887519215, 33.596589761740645,  3.926114182665431
 9.153360439275168, 14.858207833946320, 14.580357793391766,  4.165033470052121
 5.878119730984935,  4.747861758968434, 53.607518912650626,  4.080421268072979
11.119833314146588, 14.687292715694719, 28.387614270793826,  4.075061546681398
 9.352124774432733,  8.041198574917518, 81.602852717964694,  3.993225222617077
14.400615572647631, 13.932994174157383, 57.280098878578833,  3.937506863076844
 5.518524851311341, 13.554099804367654, 15.514072920884463,  3.769959858803276
 0.808662599500224,  7.498620945164943, 80.658482699300748,  3.895151291002059
12.462161640219973, 13.976549648490296, 37.735201716784644,  4.089259588027121
11.992340996727082, 12.740952354397201, 16.697957868010651,  4.084587816938409
 3.280596987013927,  8.590798608238567, 18.275268306410084,  3.901870724497182
 3.789526782752271,  8.258531725978365, 53.614689834847781,  4.078561751316490
11.607754810585030,  2.127073616506583, 12.274342483503231,  3.942734047718267
 7.187681568658260,  9.923815538921236, 32.913403702852499,  4.234828469510961
 3.506052888719971,  5.910543402281300,  4.153237283653373,  4.061911163805915
11.489019879610868,  5.795892457403242, 43.866419432032671,  4.033021088286080
 6.272413620519234,  0.260182371918465,  5.142726889357056,  3.989017227502868
 4.430364497617747,  6.164770206724366, 14.240170770171165,  4.165686208269231
 0.930218145361624,  2.602996510988744, 62.514925265806070,  4.337551688256814
 2.748028800761039,  6.613661072286424,  8.145688330359180,  4.072007882231108
12.001896997786218, 12.467835567735017, 24.123889897800066,  4.454503167798836
 0.991888361626053,  7.657587303613042, 35.775975846788782,  3.911547771838676
 8.275454550772311,  9.314718446226143,  9.980000659587461,  3.958842918091372
14.168774591252948,  5.082984669747908,  9.639756520458954,  4.295325073702272
14.618002516986090, 13.731818824082472, 53.169804668872196,  3.970974795245149
 0.033421010663937,  2.370251098595307, 37.529811007142300,  4.368746437353871
 5.924740209209112,  7.027064629631871, 22.346948852463417,  3.538077935039175
 4.244989298965641, 11.308942456337540, 22.052622865870315,  4.034143171268597
 1.011477574085738, 10.194656169497916, 83.495732995785687,  3.886266390650269
13.779757250374168,  8.537705919005832, 24.575991179294164,  4.145128754829800
 6.052288448571488,  9.686650015299444, 74.096756185624159,  4.307554845224865
 1.070012241195169,  5.294617186258785, 19.057101973770813,  4.103771665751622
 6.189543810109097,  3.989219585657573, 49.583187260237736,  4.083089831947679
 5.215989018103404,  4.405765404486342, 28.598482319305415,  3.833169500009018
 8.991665975372809,  8.897351002625713, 86.096741718361045,  3.910191478050281
 3.234325858609175,  0.129093663515972, 12.850144771072818,  3.930251224611169
13.082208181373677,  4.259831760065545, 31.297381741249854,  3.925210121671297
 8.375373514061911,  7.007897078234550, 47.938416797464726,  4.048495693503123
11.750507556853885,  1.660686482474987, 92.432270750323582,  3.881372358866910
12.252866829195646,  1.275432216041490, 59.451548126328561,  3.729139025148329
 5.785346130538528, 14.170247652524008,  1.316625963600574,  4.036142877023542
10.177296935822058,  9.140658448246050, 16.438946873000173,  3.991586776796714
12.671969650685927,  9.358715166101161, 34.808990039498376,  3.769324275798145
 3.523809429558567,  4.132585164820716, 22.061568550619580,  3.895955233956245
12.851075505822754, 10.821512683619833, 55.723807819986703,  3.574442776316291
 5.165218143527101,  2.886735578524122, 57.231960539967389,  4.177827851748334
11.061860194718536,  6.616863411112772, 54.449740234786624,  3.996852724751381
12.235179419589885,  9.231650604357549, 10.499892074364219,  4.014106268331907
 6.389024606729604,  6.921204368267726, 84.109887512162572,  3.715500608774074
 0.367282923242009, 10.195965344940396, 63.134844414408391,  3.759534770956815
 4.148773203454542,  8.834448900729351, 81.853623785944976,  3.676696376589045
11.076217347589727, 11.910492881745597, 52.530014899345964,  4.021810489779706
11.210074524909782,  8.279916151988759, 58.101834819441407,  3.946335747683624
12.830520378509092,  6.742903353729674, 28.127195355671322,  4.025599950589889
 3.271506383110058,  6.345957321868100, 25.617462034644220,  4.156296916443735
12.233022651156363,  6.102384728316956, 92.293097494555440,  4.084273040067679
11.077208763606732, 12.191744685592374, 59.201507906301295,  4.179582689823381
 2.940122421349712, 13.001913825782934, 58.929421579515484,  4.118939323998913
 6.486134354683693,  2.689046980784074, 12.912090055762755,  4.311435431041225
 6.205669203347898,  9.656780355542473, 15.667295000099209,  4.131939428603593
 3.680031009109113, 14.763969832699223,  8.803853096886961,  4.191735018638709
10.351935674188283, 13.244036881366739, 66.389271067674372,  3.975104172692921
 4.837871673294367, 12.179404268617997, 43.813476876472890,  3.456027949367507
12.260017250256464,  5.540996230193517, 66.290840876936741,  3.879997221806466
 7.421267811614784, 14.731263422875529, 36.859387500174130,  4.034213767587568
 4.515504123582866,  9.666900980301316, 11.719453980969297,  4.318036574200541
 8.627708710216313,  4.252169657824251, 40.445740925989760,  3.991585105357091
 1.838418446308431,  0.082932670812280, 32.842754037685445,  3.848873675782960
11.305016231628953, 13.931623752147217, 47.710970766935716,  4.167593255024896
 8.494674485850842,  7.221779521267029, 13.374691642148409,  3.965197407388378
 1.648883585552504,  2.151930598693736, 71.471818934141538,  3.793508152351357
 5.117392712407391,  8.797820507938580, 49.750888214489571,  4.097037368732592
13.047681619063759,  1.123611728316730, 33.955934440076881,  4.155010844219496
11.567688811655156,  1.591985823638091, 82.757524261572343,  3.958106458731195
 4.734925669019502, 13.555521115216525, 26.020028919446773,  3.654662325766596
 7.319805167543865,  5.835654220691228, 25.631224106434185,  3.973599329179311
 5.356767690506400, 13.026132768918352, 39.922857533672747,  3.916848411185726
 5.393526163376655,  2.013994277629954, 39.559213622655101,  4.041617599345828
14.791271014003149, 14.374172120561225, 26.692645902108936,  4.032346306425040
 8.249668499658188,  3.976304058340753, 82.057657240070597,  4.301783043841433
 8.701029995992522, 10.901609202899145, 49.296595642785789,  4.217883550868764
12.339309047291371,  6.237315521655448, 13.278732796415689,  3.966842192586018
10.060453186769834, 13.691767742408192, 10.041817009500209,  3.659914813643661
 2.241484451546873, 10.609394894586691, 14.992086013696930,  3.858610385927056
13.066713605497277,  1.396299909603661, 72.771814305618321,  3.997520476462566
 6.046495218639136, 12.856083055530714, 71.581574454213310,  3.702331323067105
 9.862567209918998,  0.104899309031995,  1.949694124902608,  4.152709540522594
 9.945164995064767, 13.901858348147918,  5.842658928715071,  3.953214822463582
12.149447459579756, 10.642472013572764, 42.051962505603008,  4.012980410640468
 7.244699911247729,  0.707106321062818, 28.355670430288573,  3.937300924007652
 9.193070960348798,  8.039196788388459, 41.497595909200015,  3.931055245431741
 1.812938077816422,  4.104690176725323, 33.752583556651750,  4.391547640580836
 5.406738415481239,  2.282927343260596, 25.107907893731422,  4.162015294110091
 0.973953356874468,  6.453909177987376, 64.267986997191954,  4.124389112011866
12.616279162494671,  6.077063939620329, 17.157357712756621,  3.795168355030602
10.496132481335097,  5.508535393496650, 85.052186207099680,  3.770892051296688
 7.145019087082546, 12.786682329998461, 60.351820665667191,  4.041472039504579
10.657381490106744, 14.632132436688234, 55.796152122668154,  4.203733201105559
13.092802181896607,  6.390908360649399, 78.248977210474735,  3.719813165230557
 1.434585764123450,  4.177089821847887, 41.186342932679558,  3.784369094816649
 1.629037513766890, 11.155196804015656, 55.478610353672316,  4.042144103145347
14.234676274993882, 14.955723138010834, 69.100898606450613,  4.205778632224181
 5.326306940641243,  8.847272225767814,  2.179293651503961,  3.885801554443812
 7.756085018917860,  2.023092645761515, 92.769577039126176,  4.161717278988588
10.915324642978320, 13.973843714488922, 43.767131583032807,  3.631991178106131
 6.854238768254835,  8.285640171263550, 28.963610307103732,  4.324583199527036
 0.888636187127373,  7.129548052887087, 15.640050209878069,  3.654710428638380
14.950463618318851,  2.961387838683231,  0.571127236508952,  4.065167595958754
14.258392606606304,  7.356948134924727, 41.496125836300614,  3.787084052762825
 9.337878430447317, 11.428759317210186, 29.822449493715400,  3.848738465507074
13.778977108095242, 10.186497056158236, 48.562129978010070,  4.105007212450518
10.689886926067588,  2.660647016921743, 37.174499267471035,  4.196011614413123
13.679785363525760, 14.530880932204875, 89.429375248562295,  4.160860557223755
 0.111415846373451,  4.682100832491614, 45.151286903667071,  3.985290665419775
10.017439440521841,  5.149788263728020, 10.188929808024724,  4.052228700279440
11.182912754418293,  4.106691112560780,  1.932145215236970,  4.246838038467024
12.117928267823114,  9.654075438642488, 83.894988499578631,  3.873069695631517
 1.498276852503687,  2.720974628748028, 25.503085189149679,  3.658005065705681
 2.418841483158197,  2.765945451995793, 48.073108551222347,  4.388868826179820
 8.867011705015756, 14.750498216598590, 31.846862655254512,  3.975204050139317
10.622601369182266,  7.007650567954627, 69.477083431870795,  3.825457595416830
 8.604276143380494, 10.152025550926478, 70.584254801572570,  3.775455195334804
14.759893184760788,  5.606246402881263, 74.192923074272414,  4.085436194888214
 7.035347234128917, 10.858993448499120, 92.886573291116022,  4.314939241986015
 5.602348777664546, 13.478896737989045, 79.106843413956284,  3.739957758573301
 0.308857810313540, 14.093350863276086, 49.074088200635302,  4.330337808355142
 4.934596628094280, 10.422605195284511, 85.402316397446313,  4.139549098925974
 2.059540137879219, 12.919185105102933,  2.096634386516213,  3.791576781885851
 9.859919477056913, 14.082232130337546, 71.756091804323162,  4.167152000626046
 2.814045182260533, 10.764749187599373,  7.933118002749198,  4.163467076398531
 0.136095909014628,  6.882281157665596,  0.909611335158519,  3.668567759007275
 2.600145565013007, 14.412396463058547, 45.675693172445399,  3.873280056724933
12.204649544949421, 13.788216577705510, 85.629975621824983,  4.119522893796839
 2.655978949020757,  1.854008208444630,  3.482720170747078,  4.180204833807968
 3.429514103329503, 12.234020788859773, 76.117746525877578,  4.047453748713190
 5.548683059667661,  2.436240735067416, 32.216191767256490,  4.321785516302263
 1.332132315326761,  1.191166354197219, 75.288886327036707,  4.035502571447025
14.376967100521856,  8.638894406868339,  7.121512450232834,  4.070072732898156
 1.110652616913489, 11.494846413577054, 69.816982683195718,  3.805522777592587
 2.776810824380770,  0.059822267949924, 55.311029297411686,  4.137299541865561
 7.492542215744046,  0.808892519836547, 68.985554464180524,  3.859099757151204
 2.543553193636404,  7.313508747613044, 43.472433115151027,  3.905625230241778
 9.782134964872109,  3.219383401164735, 71.283197463585864,  4.073665752411244
12.826788623749810,  2.829960934258886, 76.588848379705368,  4.154705235990363
 3.068076428692634,  0.861263187621349, 28.913352774123982,  4.459626606579077
10.392049781574050,  9.823701306561849,  6.446183466734171,  4.311171935621055
14.690155023880305,  3.441224733086045, 90.339945773496353,  4.135387679699821
 2.717484471058857, 11.705631102655413, 89.030157229694225,  4.202287577281849
 0.952596188613635,  7.798682878031218, 12.003576189825916,  3.740695177479640
 2.926878243318103, 12.627170753603743, 18.396540070964480,  4.171846454923440
 1.576459182826919,  9.396222603720702,  3.620098043208430,  3.934850881842370
12.992541133417674, 10.934220002109155, 28.122015185656551,  4.197907914657135
 7.833824753617779,  6.052201422722232, 93.579034369739787,  4.041899756718378
 5.803361130135443,  0.225233840518005, 21.265049762649479,  4.566234197342662
14.067222487795016, 11.997464756638809, 66.222212204891903,  3.856950003118438
 9.674804581135840,  4.698747519060587, 51.314686518089161,  3.795347254171311
 3.709022754639684,  1.136388770418092, 36.062685482652896,  3.869459215512639
 8.343464256725483, 11.384844946749588,  3.055365028262362,  4.185243126730676
 9.158458715804711,  8.173292126693756, 90.180915340556311,  4.391016598639979
 1.257305036830797,  4.724172630614632, 28.894574768921455,  4.069369485939968
 2.132323404985599,  3.792904098966251, 86.511278913373815,  3.609185986319118
14.366095524523708, 10.588512986680636, 86.941580785371400,  3.794021626048000
 3.851790696412289,  3.193074617140124, 44.112138818468317,  4.029843730612732
 9.584016357289414,  8.200894286142033, 22.171769205032685,  3.966463035212899
 9.711540833127495,  3.399590803998718, 33.244481376694914,  3.982833738358923
 6.805347642180445,  1.707975615777802, 17.339201084455645,  3.985128902012331
 9.163641588298070, 12.082747210293007, 78.657445396017451,  3.914157495126437
14.945762797700851,  0.590306661564245, 10.541198240951756,  4.181059429602288
14.421706281185415,  9.724445928835868, 52.509328078751672,  3.890377662573192
13.703988884685455, 10.636003161657941, 90.791407196136731,  3.921455743473966
13.458725115151159,  8.550430816608438, 71.705065934226283,  3.976963713445494
 7.709625969042793,  5.032530819135308,  7.073572037183112,  3.605168574422610
 6.366181257687086,  0.183682429058629, 65.167089949031407,  3.954241297950436
 2.855659323140373,  5.333549193800402, 51.197300256159792,  3.735668914949394
 9.009094392024661, 10.814412612620776, 55.869937902388351,  4.100182627451554
10.194567150646169, 10.686877626178058, 74.196058034647663,  4.187710992355602
 5.667102904789973,  3.269935091746687, 85.201038977572992,  3.952254525769012
 2.593947210132920,  0.856203184171680, 88.983753540924099,  4.116501016925966
13.628267786572328, 14.303122398885625,  0.924619170011581,  3.776808883236152
 3.623730375565414,  4.641958967754663, 73.815698764435680,  3.872216788823899
 8.194065504625502, 12.931902779293376, 18.384742741305477,  4.140062011020431
12.897311694687229,  7.038204028114289, 88.254007482486799,  4.308739718856827
 9.461189405054016,  1.725589352129752, 25.412387925953645,  3.666034282763069
14.795846528647887,  8.296076330548429, 67.812627710057924,  4.201077032224183
 1.974003417121926,  1.380397525328793, 19.670611556887902,  4.013686306707492
 6.582954420563626, 14.042235065339751, 56.536240170845907,  4.067074389139085
 0.438224041744091,  2.264718619577209, 51.683079485464120,  3.900516326636914
 5.030683896804692,  8.510034275542745, 90.136215601755239,  3.880188308970799
 4.672743670248429, 11.775213948195304,  4.580586693611643,  3.761601238337716
 7.900317978718277, 12.833512659975179, 45.789313727919726,  3.912697213510179
 9.301634381608253,  2.544053916553261,  5.005414860932601,  3.601833017613175
 3.651736187174953,  9.215838876306005, 60.622561749490039,  4.163152440477773
14.667794176496098,  4.857900764733072,  4.112434421162074,  3.910137511264293
11.230360466180754, 14.300079903087102, 75.459700587672543,  3.719041778407850
 1.569669571393829, 13.415120987692749, 38.358154989822864,  4.304748178098161
 3.077791203446772, 10.710854117875671, 66.229630152373289,  4.514378485520351
 3.778383998143562,  5.833271591930935,  0.088093087878367,  4.073630179342372
14.699707524967469,  7.830299489968938, 31.877872828035358,  3.959271886829612
12.782612038215559, 10.245189811547963, 79.742075031686923,  4.482903569506162
 6.008743285213165,  9.603997130447571, 25.167581920961204,  3.883061507754337
 7.431326833423744,  5.524995880233386, 44.193719701684444,  4.079965782018599
12.512916570925974, 13.415078201611493, 12.840914315637132,  3.801872728017788
 1.087179767809504,  2.458021124004803, 58.278865851836741,  4.143356314109036
12.762574379000670,  8.208987241645298,  3.518434721841111,  3.871604686733634
 5.390710457873144, 14.206149416107417, 91.250839977845487,  3.814326296878439
 5.400297993274727,  9.277668916720156, 41.514215902348219,  4.006115683651924
 7.825354071176926, 11.201185511626212, 64.023589670329955,  4.032762691129387
 8.403556353718770, 12.611877205669993, 26.247173144529665,  3.892082584507877
14.886802344824718,  4.956866510681467, 22.990241378859267,  3.788369551120645
