BANDS
8 8
NANOPARTICLES
cell(1), 15.037
cell(2), 15.037
cell(3), 93.980
 2.896193868662226,  2.005258164210508, 47.005976903366026,  4.205394537956971
 1.358759801668845,  7.026133979552509, 19.238643193655687,  4.121370797812917
 8.607125053693164,  1.281975393694569, 90.633308527673321,  4.011211505556979
14.971337197361541,  6.293535729067520, 61.802417814810305,  3.970650643851717
 4.734543407887985,  7.937746090275414, 25.418289660689002,  3.952009570058131
 0.248671689897774, 13.547920304616996, 77.878812553464101,  4.303558760351391
 2.831611340142914, 10.584361976445063, 79.653193935366374,  4.280792154637508
 4.569375759973339,  8.425576095098311, 58.047304643311591,  4.043477734595341
11.902190280607071, 11.538196507900746, 84.321545493687864,  4.079560119307369
 6.149513448457983, 13.053864672969482, 44.091709772352424,  4.163873882350203
 4.205777313273942,  6.906210499794432, 72.834752657802937,  3.762038310789667
 7.749528998844211, 13.369899642569010, 35.009923988459015,  3.992926043294143
14.592398107965201,  3.471835186076093, 48.690130685985714,  3.770400468683603
13.714631501580019,  4.120706607018224, 21.224390621412649,  4.006665802930339
 5.076100740714958,  8.898861508316187, 54.161698323733376,  3.805395784827938
11.431008584904527,  6.867177315118938, 70.358068298722046,  3.805652901461995
 6.478340681390891,  5.144102795053533, 56.166945236784095,  4.422597706788547
 7.343242765860937,  9.083687780415723, 60.904046549227026,  4.018332070010031
 5.221785583594113,  2.113093089510665, 92.823240683105524,  4.104336970275969
 5.917735800244571,  0.823673797104258, 49.644012714140999,  4.128258196041580
 8.272709236173348, 13.978254355807675, 47.216547661468653,  3.605285690688438
 2.562568570726233,  6.615496660800090, 12.196824758092825,  4.167466520365663
 6.109551855566551, 14.507873024299370, 70.930892521305836,  4.169431697376594
 2.957509797675403,  4.758715131185850, 16.204738269950742,  4.095455791467222
14.334274645272073, 14.897642687712935, 35.098857617994966,  4.219034145623372
 2.862463419850985,  4.973330775364212, 83.223976674794102,  4.086991662550880
 9.601124109299786,  0.220559365674479, 43.871122321883298,  4.025949800296729
 3.002237053399127,  5.861981899218783, 28.445177537979873,  4.161267328395804
13.179519401016176, 13.293896156052966, 16.796544613721988,  3.767638793526241
 0.272250359411521,  8.470743759469590,  2.790536381697682,  4.177652649997551
 5.977568396686149, 14.595233785015983, 60.162221097602732,  3.972725343876997
10.777160496663095,  8.636072524226979, 73.774576819649042,  3.986480626058717
 3.924989445763031,  6.340597552779915, 68.857791529927326,  4.273888251336189
 9.583261299284386, 10.672974796345024, 37.480988176106791,  4.174680582334256
 4.626869044990190,  2.108473572371946, 29.447471312681653,  3.937808910177758
 6.741212585371813,  4.597145583244034, 26.850785590488201,  4.336812456955288
 3.107104707419989,  1.307824158565650, 76.734163342627554,  3.991050833164349
11.305629970910411, 12.223745967709975, 55.465465803882005,  4.112882122256845
 9.883494709077873,  8.418088038669186,  8.281841834634466,  3.864085040390379
 7.475531503374192, 10.888288290721983, 10.548284287232342,  4.354644230947994
 0.897562330471158, 13.839150331739003, 64.208926317013422,  4.153311715780030
 8.159791760980603, 13.351451846282336, 85.538082004822058,  4.127292649283400
13.393727608894508,  0.575635085815997, 13.698296282291942,  3.976725479747857
 7.705408854446770,  9.206233149544174, 27.222825119124380,  3.405357604138938
10.748605641099005,  1.582116890182578, 48.591980066653420,  4.130487416327774
11.451564362227211,  9.826492465933411, 26.375930151100938,  4.286751417910621
 0.358718936668350,  1.680427396659113,  2.437738477710109,  4.004364581461187
 6.976821647139126,  0.863578049094461, 40.984961450737863,  3.872576168689658
 9.443585078748134, 11.623675904992670,  3.235877716214731,  3.942647147221965
13.213913916304397,  0.057664439308801, 90.188238250047320,  3.960474032820942
12.594100958165788,  8.862098824973140, 39.343897790143423,  3.740131102503736
10.519778122728356,  4.852461705661480, 55.535275281563756,  3.687003244518295
 9.089658678635873,  5.142979582781972, 73.212627953379695,  3.844136630882816
11.556111989569086,  5.342656485611532, 47.000526235718063,  4.104022536669251
11.491159417119471,  2.961395913085230, 69.669410732488288,  4.080900568186742
 3.850655455625468,  4.322674046492295, 50.246293899280538,  3.981793254399829
 0.556562795194412,  7.545346231014288, 81.182956428664468,  3.878754900328887
 6.969280124751551,  4.929265121667230, 41.983290459890604,  3.672886004143391
 3.778641181293590,  9.115643510865395, 93.974117021960168,  4.137827386699660
12.894740303284420, 14.985586439466488, 41.310117542542130,  4.123442930252144
11.819214974758729,  3.258691440640902, 29.568948654181959,  3.912290903807579
 2.625113580551770, 12.642720257689557, 60.790872497688412,  3.851142654653909
 8.731104628608044,  2.522872656431466, 12.178859442597401,  3.661910882884157
11.174931720981972,  1.146731054615400, 54.992680941172750,  3.863360798119327
13.613680861866586,  2.942787040779994, 59.751178016342458,  4.158452880458800
 2.399337307394800,  8.499952421477310, 75.996682890672005,  4.154961211685196
 0.002065561636253,  9.893727697422786, 63.495745537536052,  3.978392151143909
 9.794896774654084, 13.421286428481336, 25.207656686065668,  3.920868919662429
 1.679073329223004,  6.008342809138965, 23.242124444139428,  4.105849694748456
 5.979945344275721,  5.639354381623170, 18.815022689635889,  4.064133406538121
 0.558402645507436,  4.609748732449944,  9.439998228260990,  3.669161106915306
 0.080432897642475,  7.615472947060078,  7.163199326162681,  3.918640987326851
 4.490039444327164,  8.344498959936699, 21.469705450442131,  3.995814036183932
 1.504790936372696,  0.110440533200006, 38.912878938186218,  4.586697253408374
 4.012755342194800,  5.711895722501598,  7.535902817284452,  4.420179000393900
12.091503568472696, 14.709164303122774, 75.560745182077397,  3.891291661402853
11.820452955619226,  0.827501739010030, 86.577091229109598,  3.903650590402395
 4.589676001160306,  8.347643332679887, 50.241230550742870,  4.116640449186589
14.345043812849644,  3.774739986351757, 85.004025953892921,  4.194521264300773
14.953318732114413,  1.974807402726364, 17.374902423849672,  4.442250260671647
 5.705595388721578,  4.351328865867175, 65.749351705118087,  3.726591818651812
 5.495900051321410, 11.381859260248573,  2.918784403157198,  3.983441842412974
11.441746946634925,  8.779678118195983, 62.630253774682288,  3.746626899131930
 2.675676974100560,  3.379103993702632, 36.058753372378355,  4.398646835009572
 5.636505892503489,  8.226863795413777, 65.570933411376885,  4.032024479766069
 4.283998153981580,  0.780356923920111, 84.742827634978596,  3.971045595627718
12.845443659205147,  0.169776669235703, 82.752002475584533,  4.110888089020541
 6.624616564595025,  1.647558405118672, 19.304441460398351,  3.898946801402911
10.763623966432098,  2.581086571928543, 80.305901501383630,  3.869227664192857
10.226429930413559,  3.841534548072235, 76.676147654850951,  3.868839703310186
11.572811364947215, 13.198574675400392, 79.545070672898078,  3.859841483716911
 2.096738023531458,  2.910217531171749, 66.844679617003493,  4.327411417456502
 0.309389105510118,  6.171149965216544, 31.505548287122398,  3.987230855677688
 6.697513603348152,  2.920377464866220, 15.480436560607943,  4.133349904610265
 6.068870202210529,  1.233016631917240, 37.216364429660651,  3.906019184259609
 6.125661415172750, 14.203799413084072, 75.066145193689948,  4.102172902046223
 5.951087939426556,  8.837951850622336, 90.452844766878471,  4.056273653162593
 4.150074567956594,  4.930931949845228, 32.343516993638815,  4.148562878873006
 5.481051271408754, 11.719116738813577, 63.442934107376772,  4.146519096057169
 9.892127836442532, 14.177656170970074, 51.745741673091047,  4.022588967993447
 5.178813157069740, 12.108656554574560, 20.441124956963307,  3.924960187214770
 3.520119090692051,  7.994956108212460, 87.487431409689407,  3.752458920438106
12.905701617277657,  9.412884529422083, 30.597079539015123,  4.291449764821167
 6.054745485503509,  6.895357968619636, 14.529097244737780,  4.125843148729524
11.457813331739031,  8.329703233096657, 86.871117343425411,  4.095661101322383
14.482082896785492,  4.672536223467061, 14.096411757401487,  4.082898080531843
 3.342042059770943,  6.289788375283162, 42.588315671793424,  4.148493422085613
 5.645980444875814,  9.509516370276486, 46.639744908795620,  3.688137638111316
 8.807648218973862,  7.254382386635040, 23.951821144395094,  4.519044023659373
 0.858915464380637, 12.003015358599692, 93.776889864334123,  4.083629129434325
14.225847068872993, 12.143070744661738, 28.035413119304280,  3.643258866131421
10.730018455530130,  1.386032563585626,  7.684477865935736,  4.013130896264590
 1.520182685527126, 10.940896376170221, 37.081180076465728,  3.872724837337270
 4.540725215850893,  0.680616122980793, 63.779591850275537,  4.085277588592040
13.977642654146669, 14.622334157549329,  9.689841149478152,  4.343134232324616
10.190888981703413, 10.166523461979777, 52.116185560160517,  4.039343782188210
 4.986345319141861,  6.764773665377496, 80.269199371279569,  4.023278557634558
12.271056561104036,  5.041194138368938, 40.120765869060556,  4.082245234010480
12.302036500420016, 10.985429582646280,  9.594797751880517,  3.652906477203637
 2.270903637497191, 13.617662812803081, 29.608947288695980,  3.868043087592814
 6.398773293231259, 14.464052047325483, 12.844630078344125,  4.196585615042594
 5.547022643518236,  4.628877267719849, 22.780287875172036,  4.145510588380657
12.358252971350860,  8.027286267707666, 14.471905684829123,  3.884827825532827
 0.556649776717779, 11.375607375449317, 33.212689020293887,  4.143501038284732
13.136284323491578, 12.431511905442783, 38.127487708236849,  3.846059698153126
 7.232836279831183, 12.112740777549933, 53.972879138491670,  3.940742714023160
 9.305009198891385,  4.032114151178600, 21.124180545457957,  4.097368387432597
 1.617615334000636, 11.098072716000507, 84.023232014827855,  3.606565575191121
 4.789434219882300,  0.147717892727555, 53.475945580140618,  3.835904924173864
15.015855586319118,  5.080828509352035, 70.555030278585406,  4.191223816454213
 1.706430016855535,  7.115274797797634, 55.325870239588617,  4.159280059650984
11.064228478353861, 12.334972126650928, 88.211049310212061,  4.017813063955804
 9.630393483994169, 11.593410833239107, 76.380320867333339,  4.216050103467451
 9.574607384167427, 12.439216948881594, 61.412727794310825,  4.099628183787638
12.459431816076350, 12.629588690453868, 44.722312578592224,  3.921268113181400
14.460471123927340,  3.232227514486213, 24.967086046080773,  3.824815132145078
12.821565371098242,  8.359192691798214, 49.745440946311582,  3.900360112165537
11.050367029843095,  9.439118070481065, 80.348119910842840,  3.861440832472022
 7.555319791836005,  0.305539745647647, 56.227501929743568,  3.929082170868484
 3.473500887984927,  8.318509606047940, 62.012703743610253,  4.167608391377355
 0.764669358702511, 10.721774045621514, 48.443176349641867,  3.837780816082618
10.076535111865335,  6.324037653556045, 59.981927171146673,  3.956145455929114
13.414078857195690,  1.233763433659700, 51.695214741529796,  4.078345358613424
14.678847451189251,  7.567919949865109, 42.319800406695450,  3.674994974404728
 6.219228947929180,  9.178085010198748, 42.919283535843455,  3.855801282824728
 3.981117006857334, 11.663060134576002, 26.619099369608378,  4.016185079819818
 0.623534352703744,  8.444173400358853, 72.500348051711242,  3.665870480848549
 7.876153592803156,  2.424413993031422, 62.230558662308184,  4.047274270746962
 9.494387769460173,  6.169105441839363, 12.666397779909225,  3.828341508156412
 9.053001497305534,  2.927190800690656, 58.567430017992905,  3.681211861941423
 1.672787963078460, 11.354916946875893, 18.730066204629171,  4.005015177015537
 0.480353283014857,  0.590163964482243, 22.326049073223029,  3.924310272028951
11.495737127595243,  1.666973109785336, 93.491041093660527,  4.091161433394443
 1.713933992895796,  6.813094176652907, 65.373951017215788,  3.989340664249981
 0.656198020385533,  2.459204108453369, 28.697526745998761,  4.115900197873128
11.965408790878477,  9.627364239945265,  0.532628427286052,  4.215730738606593
 9.328616090196270,  7.598068845176849, 77.322579631132228,  3.952312338677842
 5.042768590742464,  3.385099673009956, 11.819653203526988,  3.946482146256378
 8.105834704298655,  2.205569119861520, 86.723476325813394,  4.008192655835906
 5.893782628122628,  5.376378323339150, 60.337007896015457,  4.009877224302723
11.735307347851684,  5.486891853004727,  6.075693842418565,  4.352776008350357
 1.626807509359434, 14.184743473416422, 81.763705240208807,  4.034288362948712
11.238064606437181, 14.850878880823537, 58.648744616470218,  3.919085394361141
 7.120800365191119,  9.166843735598334,  5.709636822518776,  3.827906005730424
 8.058324875377656,  6.588761878689073, 45.267963515540764,  4.000566503679376
14.646636197149981,  9.559389147680564, 21.960704748644407,  4.089269798837115
 1.555792145087263, 14.724193814419921, 25.976464817844008,  3.837981035334228
 3.164143540095551,  3.094833541389778, 25.592736144924096,  3.731554977432472
 2.697952365813852, 10.825541532935333, 66.226465893438004,  3.917651547764243
10.786353944496971,  3.347800829284289, 15.355981258515314,  4.079616750299221
13.133093688380965,  0.950572504910450, 66.443307464770527,  4.200596814963379
13.319382185988454,  1.783481100638784, 45.166850213129578,  4.444040300370032
 8.465216018678788, 14.506175352820025, 81.607483209801970,  4.041983367387982
13.672609870418610, 12.724058072391498, 24.311144340702025,  3.972169018842129
10.750602703724716,  4.002363593676120, 25.855022751734946,  3.957393915336982
 9.908688362858856, 10.476290408995174, 68.472244494338099,  3.676928764334969
 1.566844805454341, 13.674306837955051, 89.357158727575438,  3.570244626616374
13.441015857300378,  8.865585354723285, 45.797100533276321,  4.148238013276321
 9.157332228300406,  1.200931506856996, 73.279601856217639,  4.025309034359081
 1.870506341018467,  4.994569180166718, 78.254239278021686,  4.198892814901655
13.818646610911143, 11.213826598419132, 74.715746504105169,  4.069858794097695
 7.563710091721416,  8.193448315266318, 70.876770226255672,  4.412316434133263
15.021665791335822, 10.761413659532154, 55.275829446512709,  3.872479010227651
12.939272312047361,  6.747815854244624, 24.186083823289781,  3.817570235428716
 2.055219165725482,  7.484740435113271, 34.968957636718535,  4.170962666830146
13.008771288928825,  1.942163136571132, 38.071615508258873,  3.478674185433455
 4.998625467414470,  0.662068828583212, 88.882250833664159,  4.100305192561406
14.506549403967682, 12.405816185737692, 67.888385553143578,  3.996103338586470
 6.401415006508781,  6.956098395672379, 10.604301550214664,  3.735114992055250
11.145500238027326,  6.160321430238578, 32.919434993686153,  4.366917935614896
 1.166312591269278, 12.689674451076058, 14.685633065560383,  3.702427386639994
 2.204639118183326, 10.138362279995590, 90.360335884756665,  3.872006905350023
 0.545203892409923,  3.253316765835849, 41.802211826306632,  4.153778158471192
10.612305290563807,  1.562901650895439, 34.708134465516984,  3.994590258984796
 4.603841993184308,  4.245272256860202, 86.852577509449119,  4.089274852788592
 6.898309814788847,  1.056462905535080,  9.057452420257190,  4.106607446203550
 9.994258010955932,  8.925598777608435, 90.622772506773231,  4.034967413931400
 0.677611942260040,  9.510189167658678, 59.076825188780461,  4.205795048103064
11.678561693029897,  4.705278338883319, 63.206400519673934,  3.860433752340180
 2.032339201157398,  1.383000590206212, 32.393324603158646,  4.043109123254271
 6.108421033678947, 10.036022090299763, 74.555956995197917,  4.287984153739525
 0.529888808299869,  8.655947368548572, 68.690638409093140,  3.947688547928805
12.090489278550081, 12.409879765227284, 64.718362658331230,  3.974984079467435
 0.111491731654822,  1.103269490769087, 69.958313189105553,  3.851709413949068
 2.563138248505019,  3.315986908680598, 20.362136606935898,  3.971906559938213
 5.375478098867997, 13.990262075597430, 79.053514805282248,  4.020693164195959
 8.868792405996755, 10.286538226235223, 64.911607406454308,  3.743053572738907
 0.071876169331231,  2.992831060426298, 81.182152974155642,  3.752329895336941
 9.395854252312585,  6.861281797259353, 16.858244174845833,  3.990966305128317
 1.199477728535211,  8.822908255750191, 15.504695251589130,  4.156615110654942
 7.354031784655352, 14.315189276532360,  0.902307881075460,  3.984442998267098
 3.271408312561782,  3.642918733505980, 54.052717989369825,  3.822978086815896
 3.407462634251574,  5.529886458550448, 90.638297385397692,  4.203259048672422
14.803501540033915,  7.303274009636962, 89.013504463756192,  4.073995677981745
 7.640097572290834, 11.751962463496445, 57.911980814779113,  3.995230442139195
 1.167351385144190, 13.782104201437162, 44.966816481294096,  3.927630162048406
 2.144625736890267,  0.853551191650013, 50.728154691080306,  3.719416833278569
 9.643255645516126, 14.444955293954644, 68.465162232953233,  4.268358493485480
 2.889455917512338,  0.495089300338208,  5.286379770156452,  3.949335347080114
 3.750817136626973, 10.447230752041886, 70.784082634028138,  4.437668655336313
 5.391275550245588,  0.161213899718386, 26.309579245299734,  3.597754006874379
10.555625695446727, 11.595771753496692, 41.342060633484458,  3.987260185532015
 1.370717849969711,  0.796419429180501, 92.475373277356368,  4.022219429356762
 7.955530063860797,  0.008858859131084,  4.807953176053779,  4.052173570708071
 8.014742878761767,  8.439818547323760, 34.433111036997431,  3.940371140086682
 4.508364057275797,  0.508978432960202, 22.561778545930423,  4.128340086975236
 8.229876177569766,  3.166838695038476,  1.370435321239577,  3.999832237835792
 7.811737860348319,  5.218255266326238, 89.572469009520489,  4.263168218627919
11.476078115296028, 12.116003797600342, 33.779299222288614,  4.167484774775343
14.496223501940911, 11.301651406212761, 41.591365547193426,  3.902769835000183
 7.814758542320364,  4.453884343277297, 35.024402961907981,  4.058409840910477
 3.267971636611441,  4.282025060267642, 62.934986392694711,  3.692447326114005
 3.639337526020541,  9.384111072193800, 39.985486266808969,  3.958498967785515
12.296748641260722,  3.238185715811468, 10.908381011625588,  4.041677148988122
 8.121225791865069,  7.907411438502399, 39.896935133996998,  3.678683354414316
 4.007733920073410, 12.348217351354766, 86.763516873511378,  4.022694549909669
10.861983260998029,  7.844539514464753, 42.689609709136228,  3.988983612375148
 4.311468160745537,  5.863085518039491, 46.560359873627419,  4.056256633414889
 6.201233767451232, 13.124631265465974, 16.719685437939493,  4.008032996942035
 7.317157887159634, 12.496141295277406, 89.470591629109833,  3.881380214356988
 8.868731612345560,  1.189180537315813, 27.947692971618906,  3.976442214882254
12.200800051975607, 14.252341813198656, 71.662955759209794,  3.928803246613465
 6.906345147137101,  3.062645121645535, 82.707446690260269,  4.085549913191180
 0.728414491941954,  9.073401526376973, 25.988427619908233,  4.326369053645780
 5.728312586694317,  3.158475387195618, 74.238641763301430,  4.082029327225222
 1.247414906941375,  6.252240435594957, 38.962264961870439,  4.181127306419964
 7.841816028821041,  9.850317268231988, 93.953754185786153,  4.106199606928834
11.315711231127104, 11.918723278617389, 48.549726926698483,  4.185411045397716
 8.750295063008645, 10.510198833827026, 31.083721935996643,  4.050446404351334
 6.360840932575383, 11.925092072474035, 67.576289807910811,  4.191888862342098
 9.024454125991152, 11.926988009509058, 72.265378182381667,  4.022532343459610
12.505578508918838,  8.868492424915635, 66.299827533211314,  3.816917715046031
 0.171519030286075,  8.032804769551266, 92.844737827295532,  3.724176357678654
 9.388545972673047,  7.071982580161727,  2.783681704504115,  4.323646816683523
 1.233525046617475,  2.152605402994997, 11.934024542270556,  3.429332866582513
 9.733427560629886, 11.928000853344386, 18.232136317502796,  4.022070204177728
 8.110685935128744,  8.825775121584428, 20.030136223982154,  3.842224160030992
 7.748684668764434,  4.499011639882249, 48.847081504758727,  4.236797557449657
 1.226163010031781,  6.870616671072074, 48.777467465771785,  3.787565732493003
 4.174372714913598,  3.378156709492453, 39.931971481110686,  3.903183646100215
 8.613217631862755, 10.212507534383262, 14.648319905333194,  4.151750609532904
13.032924472018911,  5.613317900325195, 17.677613366793246,  3.805441355327087
 6.999343822019301, 11.657301772732584, 50.000088875799968,  4.069030954811706
 4.976210408131452,  9.352373378307119, 17.608969518747198,  3.988858892270396
 2.647576784841267, 12.256143750227739, 74.529833509785391,  3.922718654555181
12.248423748780953,  9.665749924897328,  5.275688595592428,  3.991653552366478
13.454114188856625, 14.634725789374844, 30.987765412716669,  4.203910401755903
 8.016001629624327,  3.936774429731646, 30.899556141129210,  4.254589754517224
 8.721061191964720,  3.662268724178741, 38.845589425381007,  3.940190741895427
11.439950174464496,  1.929252553214983,  3.664519660763443,  4.222448763516711
13.408516226680296,  5.069388050144141, 66.757576231808855,  4.039439269223790
 2.285957963160808,  9.864019153189130, 44.562098730915388,  4.209011416880522
14.613893687069284,  3.240974973096169, 55.659751421059184,  4.271374383230985
 7.817487532503232,  6.858688579988806, 52.244408609580610,  4.010513490826101
 8.887480572361278,  0.332701718540753, 77.735126825232015,  3.921776905362805
13.926209956678168,  5.922901680665468, 27.763371216304314,  3.742847441654262
 3.776869052849516, 12.196727632821601, 56.335991289030858,  4.384214066535986
 1.760591421476793,  4.136464876476667, 74.175976510074534,  4.088249831676847
 8.163424272018258,  6.182400895071400, 63.402422967930576,  3.768994912576139
 7.402951807933015,  3.944814605511775, 69.677834829574564,  4.328090375959170
 0.573920388544097,  0.388013900136976, 73.975229264819816,  3.721697035017984
 0.286857198511951,  5.113293010861455, 52.083046027338909,  3.904239122499763
10.270051548813226, 12.864094976565866, 92.295717339881605,  4.313758993524022
 3.799107633276415,  1.311538041507596, 57.247136878088028,  4.089348038003146
 5.187095692114229, 12.248282265864605, 82.799485077819995,  4.237094238028490
 1.527350497292548,  4.966059832339890,  4.306533783695064,  3.853642975430890
 0.636812500512120, 12.825904282738179, 71.461505984609744,  3.499547169730579
10.378126731024336,  6.723826778669039, 37.042704654103972,  3.888140723235336
10.030783233405881, 14.165058622620183, 10.960500905344501,  3.996409287004991
 5.432383709536908, 10.527538719651968, 36.613787611131073,  3.996043295420546
14.290880160164532,  4.287678888487818, 91.853139244333875,  4.235330615344340
14.200068122639504,  9.343306511073628, 78.079308436589372,  3.655814101836094
 4.494232893631446,  3.008252152734916,  2.709482550581695,  3.928585497857929
 6.967689934664127,  9.784218427222694, 86.794362177477865,  3.746138391917262
11.310089142117938,  4.839821430580005, 51.211549749054299,  4.301242038549580
 6.707846130628192,  2.750855595681058, 45.217932787051481,  4.083161598857972
 5.313254828458216, 12.623493805430160,  7.114969992355955,  4.452526496502473
 2.173546110422807,  4.809448020345273, 58.755317898630729,  4.148245987655810
14.265248709176387, 11.185911721549662, 81.264848950042634,  3.679478338357671
13.189367734864941, 13.156202696971075, 20.530921875226301,  3.697641301470830
12.549904643503710,  5.957033963486849, 79.119276291981436,  4.085615359102126
 7.483717803343840,  4.147552839014669,  5.358352008911648,  4.346503137922028
 3.486430674734385, 13.889469486929984, 35.247055074340494,  4.099007834337323
 4.889359830878075,  8.356020474178431, 83.930429293229153,  3.877582126718819
 9.416843646860226,  2.904100928850028, 66.047780189869542,  4.224093090196398
 2.107455702296543,  1.410734575204358, 60.792976988295301,  3.751435936993637
 1.078322259364579, 12.336887822084867,  3.799428437047434,  3.959840988919559
13.675232840839382, 12.100032138954647, 51.857663067478427,  3.927928497385615
 5.760123804109219,  6.448803897185900, 76.369709681260900,  3.752663028774278
 0.174953391311414, 14.735365369766988, 57.922340016464034,  3.929693426989818
 9.015780479116474,  8.414408623652697, 48.698623667813429,  3.993108772995733
 8.839622430355558,  6.160959951838219, 80.994710813440363,  3.886252264329637
 3.729010514533656,  2.222830144805763, 80.494885742124225,  3.829146456327646
14.491494844346017, 14.356226640199548, 48.403194180063032,  3.810742324777572
 2.329777373125774, 12.235996229027689, 23.096995034615013,  3.845094125162607
 3.247447478646531, 14.929802249974395, 18.639484628561792,  3.803106971408956
 4.021131923496472, 12.925974862976146, 47.575813724928018,  3.990607115666159
 7.090012112268769, 10.263256367282009, 79.491862339358434,  4.229123341558861
 9.845879983914820, 14.783349954880705, 38.344058651639997,  4.237067191445391
 0.398257567312128, 10.289285660731373, 11.743064477660315,  4.036542188173423
 3.712214989920416,  1.105462889789850, 43.112812912813808,  3.929258453568472
13.830242511873205,  6.694269261848722, 75.374886591877797,  3.924128553090676
 8.272773012622626, 14.344040844724752, 64.642651299080356,  3.830614557618794
11.576065365187912,  0.769846986186557, 62.604573251913891,  4.088253268428224
 4.295877178741225, 13.109685527732319, 91.929753922455106,  3.988072967171997
11.690026658259717,  1.192263380919254, 22.977648451474071,  3.923337358136358
 8.492916507261137,  9.737234715706501, 83.285043707155353,  3.902333280194492
12.176338940743319,  6.778635819138395, 83.116737389961770,  4.109129006591232
10.569044513630761,  3.314220033220538, 83.997707751607152,  3.665290532948007
 7.439450691263600, 12.648713060157377, 28.115634583877497,  3.720934142186289
 5.907599664423403,  1.395688987436370, 33.309249951708892,  3.920133797937825
12.839089417056348, 10.443328882972644, 70.908781539162916,  3.939203046243765
10.451411523998948,  5.600460240804481, 92.960726087316274,  4.095510311727664
 3.201988397022923, 12.149821438377723, 51.470897142877334,  4.086303110679183
 2.231627504611546,  9.651329381178057, 29.875101228974355,  4.071827906684287
 7.998829458770341,  1.760535488583490, 24.162986339575397,  3.872359082352604
12.644253550358256,  0.424384328947999, 26.979107251379144,  3.930863603558579
 3.571935333437143,  2.722051368737002, 70.842919165010855,  3.987408866897251
 8.090645040109017,  6.163034138694181, 85.372362965962139,  4.341219818455845
11.428378549407116,  7.242539536858313, 20.789370517245164,  3.611932691763715
 7.960784943185337,  2.679268030592667, 52.867243409224692,  4.327455885491493
12.651778567066778, 13.511686057794430,  1.746994455763597,  4.034469317894097
13.076082054744520,  9.565784959116165, 18.130767397275672,  4.151300020094572
 2.938670653806027, 13.395466584166487, 10.677971770722246,  4.241229943277897
13.347078786903493,  6.474355224828391, 57.811155558110926,  3.889934289502216
13.263889244643174,  5.093208693827516,  1.832503329848298,  3.922615821378321
 0.502605767041910,  5.349866204910755, 45.299192964256584,  3.924730795741509
11.567187360587635,  9.912524887968818, 58.860266158742455,  4.112941549799110
 9.827651629711491, 14.455263185638035, 15.095288828404122,  3.993995665981209
 9.108404881753060,  8.556748881638686, 55.778143538968727,  4.222374016021857
12.827232060150566,  7.644182593115439, 53.990639513066782,  4.157818490968327
 1.221058319490146,  2.463946337876723, 88.547202322602615,  4.273787163786881
 3.667225962954883,  9.473848202168606,  9.460426895888880,  4.027226985566282
 4.517448167336715, 10.730822925426379, 13.705275198644330,  4.297911432534497
14.514894739949128,  2.302193601563603,  6.477491273169494,  4.126333746238216
13.635029931428933,  3.031473163892178, 32.866832263240198,  3.629708622095455
 4.683343544991852,  9.642686451561197, 32.920420992421988,  3.745973453624138
13.732241187462645,  4.979656981154254, 36.093582527202308,  3.906435247392175
 3.174481518559608,  0.939174005039550, 14.880816154983684,  4.000796989266266
 2.187850442374036,  5.257342370091576,  0.504770598310993,  3.877713545090372
11.837406657213274,  4.461101753758418, 88.409568672218043,  4.212601603203929
12.879147338861708, 13.599267509588937,  5.775068455366815,  4.030041047929467
13.818811604307973,  2.471467859228850, 77.621847967382166,  3.865940258416784
14.632074336262857, 10.848294647978634, 87.192127067848745,  3.903794726448750
 3.474658767236643, 14.465853606269137,  1.547984589297096,  3.866233837215922
 0.901475463219077,  8.978391994798608, 51.909908230297724,  3.765444060199066
 6.158312658257849,  0.966787592691131, 67.303064547458476,  3.665066134395573
 3.081017779958454,  1.956801244130020,  8.843040413960166,  3.728540409907953
 3.018474624379825, 14.128830811578636, 68.334257364368526,  3.927884787130280
 9.140361060718405, 10.480977539012983, 45.248120150820753,  4.054581650058245
 1.019428388455299, 14.380662301405669, 54.080885180385209,  3.966261324365575
12.787154432837211,  3.162702762612188, 73.610298355290155,  4.222096082844800
 5.250484058223376,  6.506246804266051, 37.557692971516623,  4.226179031458063
 9.449810622609862, 12.131065966307851,  7.135425430824584,  3.877046548483284
 5.220895186211640,  6.902363693399010,  3.111934873179451,  4.034773993306238
 2.985814576867855, 12.646365954759624, 41.832228441850503,  3.651414979935268
10.948886152965912,  0.955623567484622, 18.798849849946890,  4.278131338586523
13.659863668870756, 12.703752485975025, 60.977537676342607,  4.037776072176015
 6.857123353924917, 11.049441118121393, 23.884800580958263,  4.014262292357346
 9.214961143641826, 14.644458987760524, 31.555912663827090,  3.931684663579416
 6.430963814004973,  6.108291949125438, 93.358150564651140,  3.951731539544765
13.473577309146703, 10.765756267804427, 90.887837540140296,  3.836675855707479
 9.073771233299151,  4.693082842680379,  9.113506808993685,  3.874687422985731
 3.180698172943056,  9.384397421523687,  5.492147469634538,  3.951843823902771
 0.584546981901233, 14.465534175934135, 85.709035835258305,  4.127701260341324
 8.531108947092523, 13.959474710259402, 21.481242798106063,  4.003810766003459
14.944533803174071,  2.816509371133415, 63.463403496727850,  3.702331316829408
10.755058821855297, 10.713427121732433, 22.339145239068642,  4.046058104788133
12.957234023321053,  7.259826755758445, 10.568887473492548,  4.134199304150751
10.162322419073911,  6.824165547259968, 28.896134660986998,  3.962385349988414
13.279932695801945,  8.860027813469642, 35.440535570057747,  3.984109659529418
 0.532628416126321,  7.651059939830782, 85.090246094587329,  3.928592256988338
 6.698442547015790, 12.021442231241325, 40.141222241471318,  4.069986803012459
 0.623543863125458, 11.491148968871006,  7.636290427037118,  3.840713122098393
 6.899795974926868,  3.611365927097236, 78.717588062190615,  3.946427920041363
10.348337718758925,  4.027899703134515, 43.400188118672304,  3.783091541531323
 5.626635368778552, 13.035191974433816, 31.439080813913222,  3.855420650230986
 6.269177948845106,  7.533925560776024, 30.125320333780650,  3.881576829819137
 9.144530000220307,  6.906680826959884, 67.138259428841550,  4.088607132798406
12.093055130103210, 11.749777026179876, 13.327170053946190,  3.878984057202273
