BANDS
8 8
NANOPARTICLES
cell(1), 15.042
cell(2), 15.042
cell(3), 94.014
 1.308545114767362,  1.874223483512953,  9.695181058187645,  3.988672037081636
 4.204858212977847,  8.444886034138587, 20.190791549046960,  4.054985709805536
 8.025638457745570,  5.008448320528391, 70.403849335946077,  3.521834262164471
 8.525603454973202,  0.717692428553518, 63.613393730377787,  3.571577644495845
 3.689097996604162,  4.023668134829427, 70.988896619020366,  4.041416738885784
10.314006067472080,  2.917768197733926,  3.334972568305720,  4.202652984806297
 1.098017081709663,  0.049154113988562, 40.547182717324041,  3.588629168396180
13.043724217387934,  0.786341716024402, 46.966605916580640,  3.840333355263880
 5.421421509393126,  7.452005836578632, 15.280955352184259,  4.123176921316470
 5.216584190501194,  7.019595218489102, 45.253192643045629,  4.099509552789161
12.287295074515420,  3.833875973927505, 92.630099399183379,  4.147676407583515
 2.155810211904723,  2.981532433148147, 78.908433444650981,  3.754684316433978
 2.964517585705304,  3.902291219613757, 85.347232496489539,  4.392020163374311
 7.328431761926659,  7.883710904872943,  6.538137160086393,  4.049657590813938
 2.992212958671021,  5.572720728586369, 17.785310033946207,  3.779889738214830
 4.160400454524754, 12.563393556100923, 46.362108589365882,  3.863008852900182
11.217699757940261,  7.188654653064609,  2.362597939510506,  3.893586722497204
 6.035206301228093, 14.778171888672619, 53.050212995370927,  4.188464102075653
14.537820530397498, 14.878628962424679, 20.597589611765017,  3.735639950427935
 7.873454922796570,  5.574948718311608, 57.815575215113263,  3.919597512353866
 4.165068214419665,  5.695613512707640,  2.174527227856922,  3.936955290590010
 7.064164247639033,  4.151127135877388, 39.823954327674727,  3.831062193283457
13.824369736088284,  9.407461334618333, 76.307907780925476,  3.725474400489223
11.576202580284464,  0.736195613915331, 76.939926667012003,  3.802321040514994
11.974159798790335, 10.721961871177813, 27.170505724243370,  4.219585411579544
10.049426233171969,  1.331922702667628, 17.422150099434528,  4.324017112542371
 0.888121836476497, 10.065184611129704, 35.293391404439021,  3.883567278948442
13.365604249678219, 14.380413069870214, 54.114602469579346,  3.957998778409196
12.214712748648401, 14.240829746796113, 87.494608799744142,  3.841470642480065
12.129095858675457,  4.626390485578652, 10.177801253460693,  4.204192914634516
 3.172816415227930, 13.517801033217845, 37.464278180946721,  4.401825694671103
10.410580936018896,  1.258385517324181, 30.304953099574799,  3.505491566539673
10.802293886321420,  3.669884503282656, 27.474264558790033,  3.941029577138541
 0.868761592664641, 14.934954876555967, 61.231009529139975,  4.049539207239513
12.684213916332926,  7.410807540427627, 52.878023250388736,  4.222248288728162
 3.024627276296622,  1.355650182637261, 46.092686358325899,  4.142476566597736
 0.991672137821917, 13.047178997802989, 17.705808244355079,  3.717910681880190
 3.851507277566674,  4.433279660237529, 53.370490608880047,  3.906947058999572
 8.846221408367123, 13.653399361505699, 74.336158970874095,  4.078836858459467
14.589351202525938,  0.471187223688488, 68.547954590835303,  4.244987530539750
10.810864949148245,  5.259823367607276, 16.593599199094225,  3.842442283721276
 6.223822927704113, 11.576838371494867, 39.759371026912447,  3.955772331341010
13.494827940579745, 11.452212024698275, 92.766579338010331,  4.153677757723263
 2.513480586516368, 12.701890496719573, 92.652925874928258,  4.334426367981416
10.603465424822080,  3.220412171846019, 41.242339901541911,  4.012958044904108
 2.291426613498216,  2.007761506827198, 89.413314721428776,  3.692440467170535
 6.446252634288705,  4.870059195245136, 73.888081008032472,  4.120830091750907
 8.986514971296696, 14.183280537435438,  2.584095747267628,  3.907449152812887
 8.836123635868143,  3.252131100193475, 21.281355049173921,  4.379756810796502
 2.665312222024802,  9.105490921495861, 67.300309174365523,  4.263167163163416
 0.730609814386360,  5.438185069434854, 90.890099609947754,  4.187269085156008
 1.907732454778225,  4.068964180027122, 14.408585950191146,  3.922438077347057
11.578948017353859, 11.890124529583982, 36.498551976772305,  4.111610524169341
 2.164116017554377,  3.934456250853032,  5.203014471808660,  4.128748113601672
 0.869637368854901,  5.100076864074736, 29.801243355411923,  4.313573496592158
 8.089620957674715, 14.932176487171580, 24.144000431374472,  3.967743135020998
13.364335747334517,  8.354792668379160, 37.819535788297578,  3.879802453015487
 6.217027960442159, 13.624262060655170, 57.180871432240131,  3.767219246753681
10.436764739519406, 11.117489951669564, 40.356571453323767,  4.082490425494972
 6.486592728887731,  6.389381519705723, 85.873535244392571,  4.290390514902755
 7.488674421764843,  8.281025712511227, 89.519341149050632,  4.157022887547643
 9.379461738678705,  1.591475020173401,  7.337948632506988,  4.427860956218878
 4.589461377877694,  3.291379898148704, 30.349212094917839,  3.953799826554053
 8.670188156402473, 14.814617716154386, 59.951028714097006,  3.976105465332968
 4.255298086169329, 13.794809817284973, 25.645062297171371,  4.562745701990423
 5.455131387136272, 11.734341356853680, 32.441820885532252,  3.872065341849889
 6.021410757178424,  3.576905407478633, 64.224227601830066,  4.125916046144098
 0.629013926025861,  3.101903511828465, 58.624538378118196,  4.171554437249539
 6.147205730723276, 14.050161685350607, 93.961838664462988,  3.827606067298852
 6.457239002536469,  2.547248211644508,  1.539895618276439,  3.930327577569514
10.256947679355875,  8.315213121512642,  9.401983785497521,  4.102095337431114
10.234978239616341, 13.920713951370903, 13.507827824254107,  3.884388152997392
14.443450662784192,  7.161174702137129, 44.727783767453175,  4.090420952145312
 1.359061252789865,  8.703028550481513, 25.553860464175482,  4.387592215199920
 9.619795017694026,  0.844230785277846, 85.093221634984644,  3.932177369209142
 4.106874846554200,  4.695135153359941, 81.561760158035781,  3.666160346681710
 3.636946973988429,  8.061060824299533, 79.659384339803538,  4.035173803653056
14.924415506521710,  9.328787817069861, 89.405632977673605,  4.263160856210455
 0.290994763991515,  5.019054917692853, 81.574172427322537,  3.921981138375741
13.497149046492009,  4.723794480746665, 35.912261332862357,  4.005699873358580
 0.255351341629052,  0.442701756950921, 13.379465837867324,  4.176868342551602
12.957680975678642,  0.612223936916306, 72.213385993302381,  3.709974988151523
 8.034468838528323, 12.605573619778760, 46.812311001972681,  3.903276545807489
12.544129405451859, 14.206997972411795, 59.127467760959313,  4.013913226091393
 3.699360311437602,  0.496553823962387, 33.422924171864302,  4.456086649205353
13.272419139051365,  6.610436086107320, 13.710797544384713,  4.183159164155841
12.959136663364598,  8.515690582743765, 83.269587458962391,  4.059441318190002
 5.397249665537407, 11.222610341469469,  7.096567998841917,  3.734132726413711
 6.051853443923986,  6.583882263935219, 92.876726131664952,  3.880426868074371
 1.444329251949783,  5.410184006171470, 68.153619638132142,  3.683759810637250
 1.131477515562044,  0.745477169296235, 23.821885208617925,  3.691596163252439
 0.002987711681891,  6.906525730610204,  7.252817367113552,  4.211234587434051
 5.130547492842283,  4.818290281591383, 12.185910530491938,  4.014413949278249
 7.185251465889090, 11.540680214714044, 61.477733489139872,  3.779139144913314
10.350907697670968,  8.140918025390322, 86.419527059551626,  4.076169022201876
 7.201489752332198,  6.600163091901345, 80.572280221571106,  3.862978061624449
 0.152989788533956,  4.820486601125274, 24.340550471652477,  4.031946793040570
 0.160221716156380, 13.256957256806448, 89.503315839867440,  3.606275275397769
11.134982970564950,  5.662115527034874, 23.964605321015387,  4.119910370413528
 0.350307879732126, 12.781032958349030, 10.151944947333083,  3.719623134967142
 7.759140956729224,  7.736237103184477, 76.513550868272375,  4.075921705265601
 9.585077305613188, 11.246106842712210, 23.375484558626852,  4.121890728045010
 8.578835598101357,  4.270992863600974, 90.575860663853632,  4.338088232449735
 1.962918439640869,  6.464516217696769, 37.589436421095002,  4.231600592876474
 6.575638194255081,  9.820846654892295, 58.003208396339083,  3.999772565996860
 3.200427778615391,  3.244997242698183, 40.127937652198568,  4.106006699727618
 0.569852561409165,  0.327553106080335,  4.517925973238372,  3.855005261975356
 6.124347373608567, 11.224925002401832, 75.772966422479143,  3.753672535369073
11.140644453602507,  9.509371464192279, 73.463892548985797,  3.785909657264182
11.144271046173705,  7.856605490985974, 30.523810485117007,  4.370219764996470
 9.475722315311902,  2.768875701753050, 36.479148882182045,  3.882201684415262
 2.261754923151659,  8.278266390021638, 61.023942027379704,  4.015229812200711
 3.100943457858843,  8.601301452271558, 32.232454012768528,  3.975360785710726
 3.434301723490511,  8.315560531107526,  5.221197012183731,  4.216000104890844
13.870079944806328, 11.275858220943828, 66.892520373161517,  4.101418027680618
14.330271382984078,  8.300305722646579, 69.735657632265202,  4.178073170976434
13.662598944584001, 14.358973929546744, 30.363836386638678,  4.054916987435768
 5.332627602383364,  2.061201552746720, 59.428471531903185,  4.059728893692378
14.740093158763141,  5.438577465001541, 61.858435129565819,  3.804228757503014
 5.487764980531189, 10.900888345920242, 17.316781068204925,  3.838783381240345
 4.611016644127005,  5.116635581568291, 89.479609275065059,  4.054841569030197
10.602639001294651,  5.555178269499865,  6.466419313931006,  3.963844237681297
 7.410162487114468,  4.345167948247697, 25.294761821937264,  4.217291883436320
 8.661333474300118, 12.967726071604519, 70.080378110131221,  4.524176721533273
 0.377770563328745,  7.863303361361414, 40.955091832905993,  3.676609608334624
 3.649033777874397,  1.428022607791788, 55.867373713490103,  3.917553077084596
13.495798580451927,  2.395033860815379,  7.007363077494952,  3.875671873656287
11.616794195063397, 11.151949066160940,  2.400274129194225,  4.067189971060369
12.809610715541400,  5.021203767440820, 68.124148298554886,  3.705631010910845
10.285111587589524, 10.789904713895458, 77.078637804775710,  3.917250997415655
15.015212483753297,  8.410459567013680,  2.865518870562478,  4.145013717536076
 3.852504996783682, 10.995023251854208, 28.856609817004500,  3.967144533168612
14.031000283996548,  9.123569253492274, 10.594508434565581,  3.960568656316794
 8.000875625018113, 12.132023390954624, 50.694450556907654,  3.907331297763808
 2.716062196531452,  3.197858467279956, 62.126066684646325,  3.731164440623246
12.126199058880673, 11.785035211245619,  8.260693469918479,  4.038251968070576
 8.128323808148972,  9.011378413152013, 83.348249530640302,  3.692173961557681
 4.802388673201553, 10.934845837153381, 82.875232467306603,  4.044792530089371
14.534265916608897,  1.935494807909943, 27.250130077327533,  4.258896477599922
 5.178119714088128,  4.977898725075395, 77.716285312148699,  3.849804838305900
 7.964369964420403, 12.162623065934030, 26.974946157006283,  3.939019928499231
 7.996582862591084,  5.230725959949000, 29.788984363306920,  3.956107300269574
 7.331771590108765,  2.066645982494517, 67.909196471585432,  4.258194230843412
 3.898911066548481,  5.107007311347432, 57.261607814012436,  3.940631950922104
14.413214573320815,  0.782474043829320, 80.455018724037870,  3.940182625798232
 4.100751388118755, 13.654769160794347, 42.514222207241758,  4.135700590236453
 9.560617497727630, 11.984030663161628, 85.481467389052412,  3.912238500031009
 4.081294512553834, 10.680663180868089, 63.690871767382980,  4.031244642815909
 3.263227025781071,  7.934386417880294, 71.124938027518809,  3.755980818460416
 9.043498779656097, 10.918857085227271, 33.599839432917221,  3.826363034054586
 1.922566060450352, 11.425010782928306, 85.813379902723312,  4.229386721906568
 9.398013671407799,  4.936251608415534, 54.081278496865600,  3.919163443149496
 0.766283461479223,  0.365286369895858, 86.206933907520778,  4.101930272265258
 4.745016069713106, 14.798449060187147, 62.890744108778733,  4.317730817070594
 1.544497651758087, 11.166504878480486, 21.966157640678169,  4.294809799020300
 5.289451533421828,  5.759666279145902, 60.855482779662204,  3.853773567165288
 0.269572926371206,  3.092033321677078, 54.501582165691516,  4.068117882084894
 2.168097452858426, 13.471253809573374, 65.950622538620635,  4.102473689965386
12.426224095107099, 14.978054852483522, 91.241254606087097,  3.782349430025928
 4.704390739735011, 12.239649796422604, 72.297327921977086,  3.913290614646855
13.909144120398810, 10.708668023592036, 46.822252382333907,  4.079800522608357
12.854271953909643, 11.285818634980277, 20.393438562900869,  3.760948494970814
11.012010338737729, 14.750809476467886, 26.898204641147277,  4.057629057717183
 7.147094057428252,  3.753695007508815, 15.637754071933363,  3.777414529275894
 7.560398943313716,  2.041483163521135, 56.061006754574443,  3.978342866762337
 9.670059641876627, 12.249844307637927, 16.851822855319902,  3.672459367389209
13.587144450754611,  4.904628468860537,  4.226529018707748,  3.605904767005514
 8.045127316715149,  7.824721847431080, 41.141339931878591,  4.206178434893157
 0.313505868988261,  6.756894187475180, 73.384010541854693,  3.983803154430114
14.822762879450250,  3.645453996093912, 71.010855837787702,  3.801472469133169
 6.148217073216056,  7.463307204229044, 54.700926381990080,  4.138849553077676
11.565318970713303,  5.872537081683103, 71.807464637865323,  4.244926587769596
 0.270368142550566, 13.744452836568737, 44.288583320898638,  4.308631852550305
14.818428319247232, 10.466878939759090, 50.763606017497537,  3.979998813600262
 6.904755097023852,  7.961159862256323, 64.533480332043126,  3.981034552011490
 6.308338949907323,  1.016430914814342, 72.086627787055605,  4.218226974397516
 2.692678930088886,  3.458515611794807, 74.947609433470433,  4.167204370735202
12.345949399317318,  0.350872423245726, 10.342689327517315,  4.273127959087536
 6.649864085229250,  2.447938859176720, 87.223267784955027,  4.013600314516261
 8.213302277615805, 13.916039624779632, 42.344090989920808,  4.068185443903783
12.710183567688414, 13.843536932413247, 83.572978575430270,  4.074550493268661
 1.085304690946468, 12.362532801343171, 81.771161057800384,  4.192618017256589
 0.404326678933107, 12.335276473480135,  2.142933680716935,  3.858582348926783
 8.985822507703098,  8.652883841571304, 16.414154667493449,  3.695671651012073
 5.336837419003912,  5.839965996728679, 67.663636158417489,  4.200843871639720
 7.101698967147609, 12.411160312713095, 90.195387727162142,  3.741245172092508
11.128543619525553,  5.700823236370805, 63.559422791677996,  4.171615290260031
 7.467046319302164, 14.818028746514594, 31.782623075839233,  3.602103126139791
 2.709868918919509,  8.503030673107826, 52.709087500783070,  4.068681554800444
 3.784014152973104, 13.668239736656265, 88.930724537002391,  3.758280503862353
 4.918304206323294,  2.028403768980352, 22.961315040369964,  4.006257616170191
 7.455242158210661,  9.592762946531399, 29.882342378076949,  3.861489436526222
 6.935419322766537,  7.331736147451807, 33.388163586828199,  4.392946138820450
12.500800174498664,  1.925224321749933, 23.729598972719121,  3.842533940500511
12.405463392397264,  2.293805550931620, 61.656326690441169,  4.032974628801313
10.761552079248702,  2.479881393704787, 69.903197555316538,  3.671114463738230
12.934927154591579, 11.062801063684379, 32.688593403423553,  4.134905288836904
14.803116198584254, 13.895807643217733, 34.992293094634583,  4.055948505701400
10.824575005967457, 12.691186107215673, 62.761151179462367,  4.272299457605181
 2.394284112805152,  9.966398863698029, 43.720553348209400,  4.342429733215306
 3.281440908044330,  2.216059665284820, 66.984672261532765,  4.035734937850841
13.455083558572976, 10.459299018151698, 42.804998679015661,  3.791959392723651
 2.513107780918359,  0.077060470127739, 29.332583166415841,  3.964855480633815
 6.260898952190360,  1.989854231854028, 79.881127452622337,  3.756681740476274
14.602960694538188, 11.828877376574852, 39.284108667352754,  4.050092813225955
13.339277095773742, 13.042115659003604, 23.944568977291890,  4.178181416670504
 5.935103149238357, 10.923481715668737, 86.781394688471835,  4.059962161920551
 3.148357195785420, 12.367098686004919, 14.741902987634234,  3.698026207582219
 1.958653666890702,  0.363684379163241, 72.110827359319231,  4.342851892084191
10.808372871309169, 13.664681711993548, 66.650898454660108,  3.669469127141622
 8.439688318166898,  9.367090207454732, 37.352834149535411,  3.931889851712323
 8.365570807753622, 10.289178060929606, 19.732994818310083,  3.745973684896552
 5.790501933441027,  9.599335309828611, 48.443621590412178,  4.078397095310146
 6.978587363618490,  3.156815380645907, 83.396751216624864,  3.782474186036879
 6.130517025635815,  8.774334556997367, 10.547505454544115,  4.496682378699782
 0.722845594879769,  5.354420349476866, 51.269657417541161,  3.844729496580221
 0.125342179467755, 11.383567551172247, 63.051315652837857,  4.001958646257307
 9.629672561830951,  1.040899130131053, 48.800446347021939,  3.816572977087403
 7.006204736978824, 13.755523038952267, 35.554512644053268,  4.163022394590588
 2.930911276984393,  0.733344354730170,  1.414520730925158,  3.983443323733147
13.668177212409946,  3.416245275475191, 74.755756219485704,  3.974969192090382
13.221647284395639,  6.694125403949215, 27.187764509408488,  3.809710093696551
 2.376270889916341,  8.463071110270297, 93.259476782535685,  4.121783218022191
14.777948590126446, 10.538487796333884, 54.924619552343074,  4.336828047204997
13.586005074307744,  2.700636439438491, 88.708705403083187,  4.041939593337950
 5.723735623354933,  1.273406710830563, 90.861605872729498,  3.850095402202118
 7.785199198473906,  7.541842167886612, 22.485566900983397,  4.104169914743076
10.188955206545630, 11.027462079209032, 59.072876091283810,  3.900254358031043
 7.052433366808443,  3.352928366213872, 51.054374903637196,  4.281119367505365
 2.872839948404838,  9.920277781032100, 39.216377887918938,  3.580098879743842
13.409523213436406,  7.298944635079367, 48.867322212260341,  3.920024189321950
 6.518860406000469, 10.551573337926204, 43.782160275489098,  3.974827684010847
 3.105160213724142,  4.826850493171915, 33.843356242721455,  4.232040706376685
 9.960489803123705,  0.899121965188220, 52.715898626753159,  4.014076954935676
 9.156746245470600,  0.416988923153660, 89.409032092745704,  3.773475902276614
 7.269536112556911,  8.483634853024965,  2.345399167875489,  4.411535960984180
 2.350572342800608,  4.624690259897619, 43.844917987985383,  3.879717263932319
11.003360668998715,  4.521834361888783, 50.445279021492922,  4.043158405812531
 2.770123125585148, 14.004862206960183,  7.425680920676354,  3.926153561153623
12.134123219352757, 13.256842587110206, 49.764954584966404,  3.970448661311386
 9.473193291446844, 14.554293449305632, 38.615683593279442,  3.842236623592173
 5.476473266321293,  2.778506987889292, 36.519148697340349,  3.995622206283393
 9.695739266561958,  8.317396545181222, 92.934157392788308,  3.927356086307696
 0.456335180828477,  4.698110653377488,  0.952714663266499,  3.972019132408674
 9.309950999819741,  1.142503305722119, 93.215614221718582,  3.938076669852887
 7.194087145730588,  6.185880940938874, 18.733412112049820,  3.952052107007513
12.789602949973009, 12.780640055073750, 74.759545744464461,  3.975292134681741
 6.349453636490519,  4.016420678039209,  5.393067847385668,  4.224584365233269
 0.515908667245718,  0.219863513348391, 76.519947950190627,  4.244576652865654
11.956866586766607, 14.209430083159921,  5.121958381214975,  3.895004597249524
 3.852565095116822,  7.998247265700209, 75.079007008076800,  4.238499054076747
 1.946695290932609, 14.840194273432475, 52.772480561659123,  3.823309782879611
11.310448059322681,  7.467286706046796, 79.693001460282744,  4.072803980059246
12.885499590511985,  1.179486764342647, 37.657434902552772,  3.987918955539111
14.548857869791156,  6.606593777652161, 56.566840814469089,  4.183810463665331
11.305701906957580, 12.900862135072074, 44.789460784390691,  3.809877395596425
11.007506710600978,  0.051378330032144, 33.914136122106271,  4.190572502703056
14.569349142386788, 11.546029870584402, 13.639916301602169,  3.851523695947590
 5.677509121305841, 11.632888358874785, 22.209267581079285,  4.035540533586667
14.033785447194226,  1.712099110019203, 50.792098007067914,  4.246046042336797
 1.040598539674603, 10.797772297544478, 73.362941978694664,  4.191473650348152
 5.332204078519281,  2.616957016495068, 18.967812266583763,  4.104351398097393
 2.187542525285356, 11.253298621671929, 77.386164202123638,  4.219651790366973
 0.479738707151649,  1.575285857921479, 92.565322126100796,  3.627035662690717
 3.038482765090064,  2.412274515975305, 50.042631727909843,  4.024350165787681
 4.739472476482510, 14.515225885544258, 85.206770142288903,  4.113718593521071
12.033257951918349,  8.979300111458789,  5.619379518952186,  3.646315330386529
 8.114216270529317,  1.972027357171365, 11.965210670287242,  4.224472792040523
 5.960508282986969,  0.511631671551501, 39.615576359069756,  3.723109174603781
10.688716920708007, 14.475469877870740, 21.107845081257231,  4.064996596815028
 6.787475433841327, 14.886499852419899, 15.260240887683983,  4.032496192687490
12.743044420149262,  3.769413037843923, 20.550592268831849,  3.515584479494746
11.627850613774424,  5.770286127765302, 59.409657962607398,  4.129246307925209
 5.799298354791127, 10.385734751564065, 93.064175871936797,  3.739630028288487
13.988479055265193,  2.604170377361527, 43.575957459806958,  4.053014105546598
14.352071658220220,  2.193796842089681, 17.219586946684966,  4.459345832976419
 2.814133100011463,  1.236345881640627, 82.209389913042443,  3.822894157622776
 2.002749569654615,  8.308606446158857, 47.573018100782441,  3.866873874481533
 9.339663260263237,  6.253611541975626, 67.145734439973992,  3.913225757967888
12.969818541543320,  3.945078451501825, 78.617029942548498,  3.923581508473817
 7.392490826744747, 11.247747045536205, 54.438963043954530,  3.842999826971010
 8.645375898596857,  3.570212727977984, 61.134076754662537,  3.972169806882468
10.406178392077404,  4.181811627216405, 86.915964316360729,  3.823570056828067
 3.286044099755223, 14.528227219976239, 20.391154102924524,  3.879057372506135
 8.550519216064798,  5.065346890466860, 44.094283362244504,  3.922265444932266
10.969290867664988,  2.398504802245858, 65.970735766800360,  3.995856382002046
 9.030180421026133, 11.491449099030087,  5.590832695010707,  4.146925395215054
13.732656530513749, 14.952267187869476, 64.581108995043749,  3.932028830951512
12.718575276118463,  9.803559317295207, 16.723813326405196,  4.136501827611176
14.998652688267752,  3.546498698570343, 65.198573284448898,  3.864734463272320
 4.043505478773471, 12.503836565490374, 11.027653039019189,  3.887718743794885
10.218689161484059,  8.974888376479088, 44.694814446974739,  4.247869003915702
14.042945474125554,  6.262679591024230, 86.578420296497228,  4.197648760968556
 9.004914205587481,  4.987204650967684,  0.373737672513957,  3.464169991971791
 1.022016225748658, 13.748214798911100, 48.619804935761053,  4.193319182112355
10.274655602420911,  9.829123376954938, 65.698354524614444,  3.996519128431732
 2.435366917351584,  9.686008891109163,  8.870023402541651,  3.820391767394679
12.812071229374563,  0.240154956131479,  1.220332276363967,  4.241217258865265
 5.806054667334089,  2.334250624592859, 43.075162349321701,  3.957138653487551
 3.536801918654780, 12.050334843744100, 59.780622362787646,  4.323871392679904
10.352447719290122,  1.729163157558001, 81.041721971363444,  4.476049285187379
 0.033786606854861,  9.276992048895782, 29.603333611003553,  4.174275163062553
 1.549770503733432, 12.192698173940370, 69.643054606731454,  3.798177106895516
11.113158619659675,  9.961515855240451, 13.059249128840614,  3.836833706810589
 3.816309554503904,  9.987104916384453, 89.912729407195727,  3.724903634990739
14.726452600077641, 10.657553995707072, 59.088174264674727,  3.983287610020151
 6.687919402460810,  9.646003595050900, 68.266460839433606,  3.960549747063191
14.910427315683608,  9.041188922259471, 79.883951558580605,  3.742611006036304
10.366143388235615,  9.107753382485912, 69.616695316243067,  3.891775420233785
 1.836105045915112,  9.276908711671773, 16.900587167153859,  4.172059523595928
 7.194320553007119,  8.852686304576125, 72.398286357334513,  4.492706474522394
11.794139042126091,  2.618348893365073, 13.800047409020491,  4.043253917032884
 4.779820463478556,  9.975067783947734, 35.890909879753274,  3.974207626559080
10.092180052165702, 12.585482036197808, 30.261807196518387,  3.919903436741458
 0.928908455713558, 13.880013108764150, 57.103614856993978,  3.972049617000516
 5.347313744730712,  1.827338766283396,  8.805265657836001,  4.123117253258949
 1.596012877429610,  3.264182918273419, 20.772224460588124,  4.255431381915011
 2.766205913440486,  7.656202656203194, 87.063022118838774,  3.857631146936920
 7.594819211984968, 13.807426050409507, 82.381527314571855,  4.008985540791782
 0.579705562763698, 12.460914149115521, 27.207792692656735,  3.857903034476750
 9.488869219371166, 12.235832146932580, 93.202307354253193,  3.926700713426792
11.743498154851313,  6.808586330365928, 89.885803092275438,  3.843317329352880
 8.771376342028040,  8.006551147465633, 51.664894375138012,  3.956441532062498
 7.369609050188913,  3.248023278546226, 33.115895109811113,  3.838074522730498
 1.640498771110233, 12.247852438213629, 31.871862360752790,  3.894218661113003
 8.552931558034411,  7.945607708821854, 60.916563973691602,  3.965088938846287
 9.802475584592448,  1.389975028356951, 44.973110844968360,  3.861545460308994
10.482902573599421,  9.870674730716475, 48.664833697564099,  3.877571710970636
 3.604162025446117,  3.646322598653166, 92.973495936651801,  3.747987875033134
 7.219291780265844, 12.564603081607506, 65.502647022348839,  4.134360130696590
 0.719514480636053,  4.451016071968856, 47.429976490888684,  4.001866509090234
 1.924620853670813,  8.173912339881657, 83.281580553065922,  3.955822520348096
13.095313752350615, 10.858320331367903, 86.268259074429963,  3.550580509965177
 3.986180804406515,  5.983389264121965, 23.477379150200907,  4.155349561885998
11.794572154690970,  4.530664290272009, 46.432544020950210,  4.114885850059457
 7.427168710864978, 11.137500889891117, 13.875849570282631,  4.054294349441907
 3.998984551259892,  5.726600889160030,  8.405438929183822,  4.068460562944537
 9.847697049234011,  2.561297642846555, 73.683799298769202,  4.103885043211022
 3.599654744877983, 12.017213900911637, 54.854908783143117,  3.929392460199904
 9.012859856333360,  6.370790803424828, 13.012585037126273,  4.456383522125543
 2.412070285603980,  8.859887372210970, 12.782371989467133,  4.176867648873249
 0.955055540613443,  5.587808509978172, 10.952032658230316,  3.836844324623323
 7.841621914542181,  4.985629222492843,  9.230655219369405,  3.919329469809668
10.318544387015256,  6.047786401253981, 38.329614447509869,  3.789320446414925
 4.065799837028930,  7.006880565042070, 41.268691001688524,  3.919173993684562
11.893308180035515,  6.879043071203744, 41.680917182307816,  3.784950021659523
 6.056149000018196, 14.860190592836574,  5.255365023280946,  4.127324092852128
 4.311158279916692,  6.169141337474272, 49.864109167386331,  3.913856114132421
12.387814001118105, 14.597281936614946, 41.347569392526296,  4.135855551961003
 2.824958707313435,  8.889977803459706, 57.117762298824289,  3.921320981497742
 4.391119866592863, 14.630196165404172, 75.389760191642893,  3.914602570275484
10.823885924630959, 10.958559065912977, 89.508559013442508,  4.323711545226369
13.503900131933724, 12.427670011553364, 78.656550421705845,  3.951227996900306
 7.111429209725825,  1.959962132492897, 76.310777596317195,  3.534802674899134
 5.583431136958596,  9.243669858647968, 25.521942856320869,  4.130105242612546
 5.759119201018728, 14.808473612389506, 49.062817760122940,  3.794960525870276
 3.012489788904434,  6.277978080608280, 64.360403872961456,  3.895977488515177
10.938306806311296,  7.634298838757464, 34.739138824282485,  4.076924826047523
 4.146908837721739,  1.024307681080284, 12.546997720753280,  3.831295978776407
14.531463215370017,  7.209921234998733, 33.031488617516828,  3.872411710574966
 7.219078122392765,  1.076335093417977, 28.042518894249351,  4.320080514634510
 3.843155767207520, 11.991314955336994, 50.956463684655148,  3.878293512520714
14.347355629804392,  6.297400140555125, 17.511870608342065,  3.735633923866064
11.705382526406559,  2.493694996048193, 56.661824097564661,  4.423174674934144
 0.332950562414512, 11.228564623636938,  5.936507120001901,  4.026256363537567
 9.140836648275718,  7.752852480427015, 26.833698519487708,  4.014771937641084
13.490531080492417,  7.552709678142280, 93.339237785225478,  3.728362704084285
 4.500637291631039, 13.567720889507418, 79.860896769438000,  3.971926734974114
11.184608686694000,  4.169020539693418, 32.600117541975663,  4.058926738193041
12.869320992104537, 13.708720174688807, 16.094030612505819,  3.505979850750585
13.124207821242576,  2.878237446356849, 84.242090844150965,  4.216257921703447
 3.094066209375431,  0.792584943392052, 16.238611586969110,  3.836474973929759
 8.327984279663481, 14.040022758574446, 78.388795107826965,  4.099913454209661
11.327257711457181,  7.469183110368776, 20.071950222593212,  4.457073006526367
14.255107405738519,  4.289720113398464, 39.872372941155980,  4.075235351202974
 8.183896316654707, 12.919453316569097,  9.835651431716359,  4.733057137615385
10.571614084722091, 11.229834340799531, 81.202600640399098,  4.167370818248799
10.078203764997825,  5.595268707126943, 83.186503803558097,  4.112922511725337
 4.485461177901354,  6.998738743670413, 28.789165978430908,  4.090841950979141
 8.443758368477281,  6.491563988566267, 47.889570798088656,  4.164932612123546
 5.882842279438124,  6.570707833172156, 37.191238893162875,  3.627998043199317
12.821571303182269, 12.031288437402321, 70.783387166867300,  4.076967391940294
 0.854975924035657,  6.286529810730188, 77.321388671353887,  3.991780849458619
12.940194988950191,  9.126142126514299, 23.460671050721825,  3.742189187057355
 3.236563187992413,  3.477691881271439, 26.658101041750015,  3.907097179531959
11.088009032859059, 11.220737224383386, 53.053116508573382,  4.040422999101575
 0.441926680400206,  7.236354104521958, 21.113392823856270,  4.035139750147923
 9.952335386043265, 13.728121114876538, 56.095164872214163,  4.013804086232247
 6.939291096936795, 10.379221581892962, 79.479616660737548,  4.020924175296750
 4.800997640765440, 14.084245618332661, 68.875656338189813,  3.859609925250229
11.460769826073912,  6.480063892715590, 75.815818534814227,  3.860913957176626
 7.110555933621301, 13.968923265326362, 19.218901170483189,  4.073206303284581
 9.166048586400606,  4.408146382288203, 78.120871687605174,  3.798139475500196
12.279883423906705,  9.054487571616727, 61.686997797404075,  3.840906279271877
 4.406610643918354, 11.762340167442915,  2.865823068279860,  4.342865696917601
 1.504937004612708,  2.201470283638058, 36.561761908531984,  3.922297861481316
 9.982648110127537,  8.497679189447771, 55.927142034550656,  4.170039782446394
14.336003229560262,  7.454175606737963, 65.471378652228807,  4.078244155785747
 6.719432060109258,  2.900903668853996, 46.925214436383165,  4.030386503392775
14.886458055027687,  2.380752017010106, 32.881416671318050,  4.139235097960762
