BANDS
8 8
NANOPARTICLES
cell(1), 14.984
cell(2), 14.984
cell(3), 93.648
 6.284379236004056, 13.521052990425426, 19.544365470832009,  3.994647732236055
12.885645380461231,  6.175016701024266, 16.003743087079464,  4.180802977715498
11.585296296667249,  7.908177813020417, 43.630176361282075,  4.128062893576711
 2.286081955378408,  1.126308092442190, 78.112582515058321,  4.058561740534656
14.222778512231674, 12.147760259048111, 64.998649984534779,  3.804685024404933
 7.478199867976689, 14.894278471879488, 10.872885801166007,  4.275247407401921
 6.289340723911596, 12.310442802097562, 47.283869395851305,  3.954387171354431
12.232437236144502,  9.083322127300335, 47.782556215660065,  3.876190213690367
13.572223080556540,  7.067339828767248, 36.569576462174730,  4.212549836568126
 3.461018151317508, 12.071765879298399, 70.836663671136719,  3.953708368962341
 6.999012637072779,  8.535654644077344,  9.171918484800926,  3.984545666358623
14.286652164459708,  3.520382579178299, 79.030368740991008,  3.796520431085282
 5.762943672813837,  7.980990980611541, 77.403870415800185,  4.093491092810363
 6.316288598865839, 11.835693040104891, 15.922696757565566,  3.977733391038884
 4.302231628651038, 12.216486704164989, 34.559070946149447,  4.011077015358963
 8.913944907259520,  5.539083689201680, 55.769476795015009,  4.274998245358374
 4.785458313564040,  0.892436613311818, 70.595855235684411,  3.995504714310556
14.584660192043264, 14.394391819699274, 44.081003442482974,  3.772777751584310
 6.191879094601966,  4.696995510636459, 63.056834101772239,  4.019932632644980
 8.195789903328594,  9.808527110730761, 90.305758034545704,  4.051767668493299
13.790035273496818,  9.870078320448716, 79.888329271326327,  3.603597586490644
 1.000314106457043,  0.674771871591686, 51.828366312545427,  3.918911767593857
 3.649239554566852,  7.661512629247692, 61.969926030361165,  4.074521518932960
12.353248148714410,  0.132275378685951, 50.781741516251415,  3.708865903272715
14.227259125658351,  3.051008389971265, 37.672402084765395,  4.153120792281694
11.283627801330951, 13.513521889680639, 82.625521459526965,  3.827895019279115
 0.656884415575752,  6.117382152452597, 68.426405092661156,  3.953378526337146
 6.422203827325117,  7.357424857419606, 53.101189774428875,  3.869050993600000
 7.940701051877617,  1.698452284714548, 21.869175818572657,  4.495332583514242
 1.352369161349886,  2.191940478470225, 61.138116374715736,  3.767894225445989
 2.131606232283064,  0.844658121889665,  1.839197359827112,  4.033959031783813
 6.988280758746631,  6.415878873491055, 43.318663323878816,  3.885885298971494
14.293319304885966,  1.833136639008828, 75.484544190867979,  3.987833888905968
 3.454604449786103,  6.155963321719332, 65.676583029175163,  3.878945070951538
 0.013517861014875,  6.774890223768899, 88.683272308444586,  3.941994854635673
10.611994109553713,  9.624007680823503, 55.534152385806109,  4.157310454929107
 7.780807013005060,  4.494547858934501, 76.996310292545914,  3.989928551658573
 7.590574841291802, 11.084089735477544, 53.399248824626760,  3.778478476549358
 7.724733009080810,  7.756634174793661, 86.900984633005507,  3.945021328382385
 2.231415612279711,  4.902425418481571, 35.281326415612959,  4.197868646665423
 9.393200058790519,  4.154417407053970, 86.872273356803802,  3.970662971918385
 4.477264264518903,  8.286706948475352, 40.982308050789143,  3.922565830256983
 0.775982422183262,  5.245618040898297, 76.110237585688182,  3.544257570190588
12.157671729416965,  5.149503968098070, 74.920971799525930,  3.972026093404820
 3.477796230252053,  8.103445614717431, 57.808148122355824,  3.621860613309199
 9.109673432988860,  1.929076569603220, 90.150403756545984,  3.966242044053219
 0.385241301581820,  9.364931849202142, 91.563281033221813,  3.800674770479509
 1.024164046471854, 11.819506228783888, 51.726623556257742,  3.760107563787969
 7.182906021471013,  9.346854355174235, 33.629062508077645,  4.238098095866301
12.115161141542536,  4.149126343243696, 45.234764482491734,  4.091663423864035
10.144861895865544,  6.250661952448270, 27.197648061354592,  4.000914372810255
 9.427532866684608, 13.640334619160990, 39.778834038214335,  4.321355217637119
 9.435334465125900, 13.384752306247663, 56.452223463800038,  3.919174878572585
 2.563324299928777,  5.170720095229993, 85.069743342321388,  3.983671228990588
 1.401048600430481,  8.859869040160902,  2.014454430883008,  3.989146741801018
 6.790864955084353, 12.548537920224136, 62.654037552363576,  3.798060297034968
 5.060867523357867,  8.187100013087585, 12.782062756710037,  4.133546190538183
 6.670348533985930,  5.207265243347994, 83.978855050215941,  3.988375632200734
13.006200346653257, 14.590241262814263, 79.041260249510600,  4.364781064790220
10.771342007162959,  2.715596117380850, 10.776998704223404,  4.185375612839318
 9.783529876965243,  8.734599615358468, 68.247664542557473,  3.693067773825861
13.576551019364960, 10.535707244319539, 23.231335615503113,  3.482333366943466
13.411867438743631, 11.449847359963346, 76.770603975968896,  3.419434998476520
 5.470449193830216,  3.663281382747474, 87.431345821409678,  3.917012771727193
11.620145132349123,  7.481802280055334, 86.352155006463988,  3.911438841028060
13.080461754949836, 10.336060060949293, 88.616227298386221,  3.905722589064457
 4.085879441218713, 10.259675636638441, 19.405679829974339,  3.863756184609868
 1.213125745288686,  4.349402768912423,  9.045604274739345,  3.864414130729153
 2.299167238346213, 13.757970429157986, 19.419631229284946,  3.979878205042716
 4.393170862756493, 10.704150183458518, 30.747571907320307,  4.152765873718369
 3.555505645299832, 10.063297979528695, 54.457888827584270,  4.139050221011770
 2.409764114841903, 13.902424806465053, 48.558260922936739,  4.020330480965158
 8.450361445424155,  0.165972981592484, 14.959500942493518,  4.130987249337088
10.648580249162983, 10.384728812449584,  2.902388904437859,  4.081741363623192
 6.826002629303691,  2.684342240240907, 73.721701341428670,  3.663653179300826
 1.205275936518044,  0.505256940527443, 64.616429115515515,  3.965858579386967
11.225917441330074, 14.025841356882621, 25.091735246051552,  4.223982419711541
12.797595588397538,  6.301362905110778, 55.048646140978043,  3.760149560179597
10.797768039941165, 13.399997278593110, 89.503882756651251,  3.912907215588044
 2.108126769801574,  8.320689634787460, 71.440854703169734,  4.056916948214299
 5.912623237060716,  5.355491622573832, 33.307916931021460,  4.155319526118719
14.362481798126217,  8.076445264804427, 26.002103725323643,  4.055710168516355
 1.951508613122251,  7.103733181090248, 16.326896642253995,  4.110155822363886
 6.905932883440409, 13.624497523091067, 90.643970763061205,  4.010879209749280
 8.452211083394138,  4.859058809788483,  7.972590855548129,  4.250569990941471
 1.634214488022604,  6.502703684195920, 54.591548280447235,  3.938459796658270
 5.530600800335455, 12.757544408286043, 56.780045464655593,  3.990015271886332
 6.692612024008746,  3.348390704711942, 36.722376432844619,  3.901558919528253
12.057283210838236, 13.847346585248657,  9.860326696443973,  4.108367049840521
 0.285993621627234,  8.327850025320917, 64.438108799539407,  4.190853119566690
14.575617780499991, 13.646246181522109, 61.340149604235677,  4.125677167514920
10.503127074223890, 11.072198851881593, 71.375372842324495,  4.209984724959660
 0.115428696498713, 11.543214444007674,  8.207639716536454,  4.124022266806131
 8.649252644802434,  1.703936229153728, 62.617646502245378,  3.736378928863187
 3.812173563835756,  3.442364723519450, 52.945739134035108,  4.242887384931050
14.983360363011979, 12.239256393164011, 26.576055963152431,  4.381161148775679
13.658446358142855, 14.037667961312563, 39.467511535569130,  4.188453370217275
11.933334652223941, 14.714479314232149, 70.221875543854964,  3.896181151054038
13.962551760794222,  8.659386782254918, 40.318558040494850,  3.946341217901525
 4.210896416917520, 12.673312718169532, 12.457983226753834,  4.218832083092193
 3.473197167711291, 14.046668010990146, 60.006913415915854,  4.068280304537140
 5.514983215420409, 14.561715727463067, 29.989087948600748,  4.016770377479826
 2.446632461246468, 13.549302651270020, 38.064143632481411,  3.917429338661585
 5.021780545253823,  1.281133013455265, 84.361155036420087,  3.863074581708150
 6.529284837919945,  4.538759174061706,  0.615888596039445,  3.826523339238616
 1.110616276157689,  1.242419035244887, 85.340056083949250,  4.150682253240343
 8.914279261767577, 14.793993917108708, 52.694949947028519,  4.172500554259504
14.798217548266480,  5.617164090291189, 29.085728002594013,  3.864186287444733
14.683306981288421,  6.513913955548696, 82.050378568197246,  4.567272205903762
 7.807715103876514, 14.626796011989882, 65.816587918287439,  4.005919669450676
 4.491330612677508,  4.945558095670145, 45.861754275625728,  3.824284963638728
 7.225754667563493,  6.815523453091007, 66.219166335810442,  3.853569772040015
 0.767853487917835,  9.401077350603378, 29.507956166537340,  3.912567369897951
 9.619370523461409, 13.436714757689844, 49.039975879843212,  3.547103227208611
 9.037945817989366,  6.809188465642878, 46.753625702758619,  4.150432212874421
11.538903054642024, 11.426574159727799, 51.858295099302524,  4.132774176988939
10.559475564675539, 12.340544028902521, 67.489314640160529,  3.831569583252397
 9.498803112020726,  0.751410801405784,  7.316947043854692,  4.025406718601229
 4.940463111219169,  2.882862077096030, 59.614626651290109,  4.125342623607920
11.227611941725959,  1.962059844837625, 56.156050173886108,  4.002036629198531
12.028930123165447,  8.134956815180198, 30.085538083350865,  3.854124147685077
 0.345549816645424,  4.630153237704497, 72.266898014956581,  4.267374546334915
 2.902985473878962,  8.625954862145374,  9.263404693984594,  4.166778835570312
 6.350639171333280,  5.119857038458020, 49.314401374733869,  3.938067441383417
11.238864314816059, 10.350429844544855, 37.939810953452366,  4.036134807001836
 9.448382336977801,  7.113532914469324, 36.363049380750866,  3.992071761147959
11.903072127064785,  6.689917950024254, 78.679297293001099,  4.157906875273608
14.532684956730293, 14.649327325064208, 89.050870779254808,  3.974527918809960
 5.538474798754983, 10.372634165134958, 59.837387132828177,  3.718487426912990
 0.721554915211239, 11.322297089078477, 32.970348367219579,  4.006044608308261
 2.815674084726699,  9.741098152255548, 67.439805445376464,  4.142571116855970
 8.900996216835679,  6.384551833924757,  4.143549751750299,  4.033300781647496
 6.775119323070201,  1.991559144432117, 17.968270439454692,  3.661336091984211
 0.495312587851572, 13.787997428047474, 82.188008233840264,  3.693154787401423
 8.736226780858010,  9.025510184138581, 83.391602700180599,  3.756335627849916
11.296270245607673,  3.923084307728079, 30.139927057271848,  3.843658006347329
 8.494129778959703,  2.330399212077235, 33.279757798734266,  3.761557638592071
11.239835892215284,  9.523954255940700, 64.701854724560889,  4.133394035848434
 8.178411168654723,  6.605714967777098, 80.388915041189847,  4.036470193541202
11.530802996620640,  9.824033592691482, 10.944060562623282,  3.933553815509869
 2.246498223344864, 11.250292550553350, 15.924478236736181,  4.241315652344179
 0.078357860397404,  5.975149075078696, 42.964387463279571,  3.904530447069672
 5.072645619948457,  6.383916346877237,  6.160751253211173,  3.991907191622087
 3.235650750185469,  2.670591971432796, 19.297076349679987,  4.001337852163356
 3.675989219344517,  8.186151236682749, 26.861286178158014,  4.303755669131199
10.733331857847766,  5.178352805344820, 83.207711032378214,  4.082113568467038
 8.491211392821128,  1.190149224825874, 69.320706315601754,  3.775415625161594
10.859665441169083,  3.715174948273988, 93.428160440700765,  4.256567373706046
 9.450201842582910, 10.697614782925438, 45.749815952796176,  3.712710671047486
11.842220880304899,  2.418804991316025, 14.719545071163544,  4.006764325528110
11.211766280725364, 12.656157016375685, 13.574224450564349,  3.794982561765731
 1.757320039204673, 13.605724668544482, 29.973331566228865,  3.735666236692623
 0.955496233273474, 13.120486646013752,  4.561185207603978,  3.963316942536027
10.392521323141768,  2.926699599605320, 72.181332630771564,  3.915330700762705
 4.649194338149091, 14.339013787065770,  5.148186699785682,  3.833170477409428
 0.151101401243253, 13.460103051876704, 68.454551426515707,  3.804280277856321
 5.427637577205983, 12.247276737311179, 40.547853418867788,  4.266335899587786
 2.136691828104508,  0.084831934705975,  8.871665487279015,  4.107330357967678
10.645710148817281,  5.831897421507978, 62.888928016665183,  4.168200485661445
 5.743027300173416,  8.029081970420192, 22.581504865944538,  4.019084077030263
 8.086052782250201,  5.475461060948113, 39.693866744833855,  3.912947392859949
 3.180778912560270,  1.170890966485934, 56.317443009950601,  3.983266994134094
12.698490735761721,  6.537269760084165,  4.011025115146180,  3.547359553436042
13.749098332569769,  0.763669162299692,  6.664939554816104,  4.050928884051261
 5.195625866702771,  8.488676914072260, 47.542570907874939,  4.008310817909358
11.490446538283271, 12.416488379534897, 43.072707446887463,  3.816344818372150
 4.782722869803623,  4.291956556041826, 15.359808669501671,  4.093923366295424
14.598330873922500,  0.865227281496754, 57.983012281586774,  3.900546198835422
 7.288162542570250, 10.340364892668664,  5.458473062345146,  4.027893439024901
 7.113223126634747, 12.616578308162191, 69.540474791269389,  3.866252160545010
13.906802863326561,  1.171636332433881, 28.521722449251993,  4.382214206331075
 7.895544043722746,  4.925272057266538, 69.476666884598444,  3.788826826741750
13.771320518089336,  4.427403449363118, 85.560117872264854,  3.712211229971769
 7.990241891108572, 11.517152425125087, 28.856830773939063,  3.998484124587698
11.774334481930143,  0.843262842792620, 32.269830463584441,  3.684418049197204
 0.415493327777996,  0.583777944254705, 71.765474384113588,  3.879151711135548
 0.587154531093754,  4.339072222943322, 92.177590451866877,  3.998784118747981
 1.053985512525295,  6.605950948019137,  5.808588676125582,  4.021674190517282
 5.922264626385780,  7.936797463865318, 16.773144170061986,  4.041336767255034
14.057609711753136,  7.848721938701606,  8.898651375631125,  3.671598785349239
 3.944126417551332,  0.274608073157009, 22.858174727714538,  4.212860815952718
 0.028454566271022,  4.267789943825284, 64.981690098896948,  3.943499394505865
 6.345191457681374,  4.975259354201102, 26.166161283931906,  4.119327196843026
13.625478862359969,  9.706017979630696, 68.139970528014786,  4.232976565659470
14.199251234801279, 14.192599878955628, 15.741781433867416,  4.200638740439626
 1.768823601485389,  3.358967276496699, 88.599874718155178,  3.732891343053991
 8.792681152127825,  4.726649260164952, 16.027583424821362,  4.074572999576608
 4.996404249388469, 12.111997179806998,  8.406628541797149,  4.087838576399579
14.574813795315853, 11.454661943515397, 71.745846406080787,  3.974757432621158
 4.824838748997853, 13.964933882147168, 74.004773717149988,  3.817388800367725
 7.937097353019398, 10.994524838172488, 12.259411500789572,  3.954927650986754
10.371999185071759,  2.980187968366475, 79.734279640101221,  4.134238178581330
 8.467126961775941, 14.418409611415512, 80.084136763268702,  3.943510707229263
 8.619877118707166,  9.405686613666763, 41.028457010030586,  4.274580534893212
10.358951631076636,  1.706767831043120, 75.900937122187585,  3.913457930852918
 2.714259800816338,  2.661529558807602, 30.060283687355891,  4.183733593873230
 7.600637031272067,  8.942377901324106, 25.930892001422595,  3.823765789598996
14.198856977758190,  1.267180808985259, 19.243935288041740,  3.896367085932539
13.535696340105753, 13.936040684009235, 54.572381420305398,  4.198206676571878
 4.696058876750623, 10.945699710800755, 50.658844550573271,  3.984103062145647
 6.007104603777881,  0.453227277654818,  0.527746885274065,  4.106278573399298
 7.137292657338453, 14.416975209676332, 36.388449320339333,  4.001454085794078
 4.607180176502896, 12.178014699942251, 26.954207094672238,  3.863821163216403
11.680927295410104,  0.740254249611907, 86.283282869324950,  4.028727444873327
 4.025940691587102,  6.628976434821411, 81.019799138175770,  4.327226077861375
10.060918218508187, 14.559514467541122, 93.336301016142173,  4.173403032673361
 1.494353784978863,  2.182871551616684, 68.268899429658873,  4.081290304308471
 4.705856796363336,  4.227612726488009, 22.613645327243919,  3.846151306804033
 0.525591448449041,  8.980484112906959, 20.375056221393663,  3.938229894805108
 3.271059897642464,  2.416605340052700, 38.424365274000039,  3.956273443418853
 4.995309305587844,  5.110248783013994, 56.350071482165106,  3.687548866708498
 2.780535558233024,  8.294664178943290, 44.466352514781093,  3.823097671557157
11.648562033044943, 12.461814216220866,  6.137311187235250,  3.817327856949011
 4.895803957494270,  0.789479474666038, 46.057539689860334,  3.866521666073289
 1.571889282403750,  4.427532566716281, 57.972937112650655,  3.980553959016152
 9.653955413745717,  6.372252146001409, 32.579107772661530,  3.730078509831061
 3.902966076713341,  0.197442985892012, 15.885675309564942,  4.272331789400615
 9.522065169235848,  3.391475727496529, 66.128775832249119,  4.247772901315424
 8.897793154593622, 11.871385610198963,  8.651133279982336,  3.710168176718129
 3.879124131562251,  7.744642452698091, 88.026405669387998,  4.052463215722736
 7.756664460695736, 13.912082386468349, 43.755440586282099,  4.318749991664542
13.746745289342664,  0.927808338282627, 92.645797939038971,  3.791821635025698
14.758874129207562,  7.513071572317890, 32.744949496932627,  3.838984118811014
 3.196351831350306, 10.057767013821806, 74.789492649205599,  3.771334995773400
13.282395141428633,  4.262050052692829, 25.789495379830608,  3.880577142989428
11.189484366979741, 14.948293658065003, 59.524480953330915,  3.779836070859985
 9.155789613018271,  5.855311468722362, 23.244837076717694,  4.175196992450410
10.099654085644231, 12.023941397529732, 17.296610136838229,  4.029853950477837
 7.395873417902392,  3.512375998980411, 12.606590715958298,  3.640970775716049
 8.892835864483494,  1.559823628826775, 83.468608146936589,  4.014623563696577
 2.303334622254477,  2.620311700455070,  5.561807919906975,  4.208348827042412
 2.135854097035174,  2.934190455979357, 81.742599832384826,  4.055504861123088
14.783789637130541,  3.032555648454702, 54.721357679438512,  3.911241744833088
 3.955749707281574, 11.253148414023645, 91.910899267296870,  3.963470362514451
 6.868718117468560,  3.371386371067159, 29.872824653096036,  3.997430524899190
 7.440920647688247, 11.378968483286691,  0.397587581314107,  4.179076196931662
10.325734015251182,  2.695633429108144,  3.937779026623265,  3.875176825688749
 9.932083897115179, 11.128983719677324, 86.401304379155107,  3.926665164775226
11.450432513399919,  4.031447042103821, 34.947325090707295,  3.827250039199677
12.203975101500617, 13.708874698897167, 74.047096121203353,  4.010197982914512
 1.759538385783955,  8.356528919571243, 77.995150184144407,  3.978696101008183
 5.331750959842602,  7.205103368915262, 37.101832174900096,  4.312735007043310
11.913693792144452,  5.473997813793934, 49.156994993262060,  3.804834230960609
11.678476822002429,  8.695707514569744, 19.088164070583577,  4.140684902225536
 1.535857994422152,  9.972070701063087, 48.310776052411555,  4.030510709206227
 0.149360240649809, 12.461205156141245,  0.493448467224033,  4.215714336776196
 7.064087440599739, 10.596057846384472, 73.816222652145811,  4.268758938293216
 5.651702075467209, 10.180725825619270, 80.729892545603818,  3.490154432100012
 4.931680053466618,  0.913975600815899, 63.280733759276977,  3.963565568909612
13.285116177484765, 10.230286967306029, 15.728790309350261,  3.900270793692197
14.827052636002511, 14.222667993341982, 22.749985124638378,  4.235550125213170
13.023044228972015, 11.766748645722785, 58.066393226596603,  4.021446760921486
 6.412217364800200,  0.824349504803664, 76.978145030491007,  3.842845459595662
 3.258688912242425,  8.536736217173841, 33.925950845936292,  3.720863698254167
 5.342499156614612, 12.029922893814213, 77.398416117105413,  4.037568458849616
 6.724291770825985,  6.577547737638710, 59.497292649090504,  4.059121786453141
 7.395527696272133,  5.682149515939535, 90.447877427903052,  4.289949801209787
 4.926251466825117,  5.190843614780410, 10.061146682266259,  3.961845302595464
 3.849197122220608, 12.084226052131774,  2.104525548644106,  3.887026098980417
13.554448372050222, 12.303526547730982, 19.330718749607502,  3.999758469842455
 3.709098756418830,  4.445180539565778, 41.992010185192086,  4.131645034035301
10.490868319502487,  9.155883469404648, 75.660734769634189,  3.993501797074239
 3.709348129178177,  7.101477726312762, 92.172440382120200,  4.329714693455918
10.616996162535205,  8.623867414321918,  7.156255745886825,  4.193136752004204
11.626654507971242, 10.708310327857710, 92.499505634302494,  4.276567046526159
13.912442327531441,  3.321326584646332,  2.536024285467492,  3.926161671590666
14.487716111538868,  3.592242165243674, 32.467295078462293,  4.039230506938352
12.465625680945774,  9.893114306742946, 83.398466944479694,  3.897500287794599
 6.118683687480757, 10.087941922719581, 44.111031647606382,  3.769587117122986
 0.576464333574819,  5.949450446335392, 47.167191609234607,  4.550405118520559
 9.023301130853222,  3.384037571426445, 59.211297878155541,  3.827703549501793
14.757402659095893,  1.810551184399636, 11.853623179877175,  4.225666828992746
12.819216505022343,  3.384751027451334, 89.276990255928524,  4.182860683889611
 5.506835383368099,  8.119385558351446,  2.377077412481080,  4.360770032762384
 1.919815758664911, 11.390045497941168, 88.472760812938546,  4.021805624170923
11.145113519087644,  0.204418340754248, 45.961536773737571,  4.149180073784677
12.571950725977546,  4.610774939932606,  7.320765419116562,  4.101542115675221
10.016213202251420,  9.664932638820469, 23.161005852156492,  3.631700894066542
14.212308401053242,  1.962357857885445, 47.962114493942067,  3.967775006469926
13.605165373671360, 12.734375871353647, 48.053646309199650,  3.934530910129318
 2.952624600336818,  0.368204817910604, 41.877304141148336,  4.056799350174883
11.139944903750285, 10.304531320440342, 26.771029789471243,  3.925329239353176
 6.574751333626168, 10.728678631839315, 66.106551668513262,  4.003238170789922
10.057324896079734, 12.995006487684556, 21.236171912048860,  4.053018336400431
 0.188095570680214, 12.749845975157005, 12.102151556554977,  3.849965188567491
 4.030236435636403,  4.879676876772418, 70.313332523721044,  4.080109364890830
14.500645647299452, 11.679705384615131, 36.527583960591215,  3.534538796727549
 2.804489543955154, 11.045379834772545, 23.324658014143523,  4.526226498262811
 0.799171637175309,  3.113897288110581, 15.740658052444472,  4.225923625423444
 6.189747787019557,  2.885918204163012, 80.523818367184134,  4.361174419486873
 6.798338413655354,  9.085678705527631, 56.504556408882323,  3.750538332697404
 3.968917995467096, 13.780713691026554, 67.123588993418622,  4.241306362871781
 3.053499427733687,  2.888456307558395, 48.902559943364679,  4.044270703856997
12.524287555652045, 12.293914801171603, 30.292482711667205,  4.527377843650531
 7.186327557423913,  1.731298982123443, 55.961702355625185,  4.079950445857418
10.372449661740184,  0.839481565603629, 18.433040770169768,  3.897293388843220
 0.995181225929828,  3.153289918610555, 22.742105926137892,  3.883803649733770
 7.511914265783414, 12.737776556218199, 83.654670878187503,  4.067876270177195
10.848598933537552, 13.416893882749410, 63.211652600324705,  4.223777237018973
 3.960158941526817,  1.853592174647904, 12.069088163870562,  4.048239110467061
 3.113913809728604, 12.447356248095732, 44.876391615990023,  4.011338508142175
 6.115808376309825,  8.602671939855391, 70.034108337013762,  4.451638061928859
14.179453850803005, 12.649687294009560, 85.621938554301195,  3.970467965400566
 3.905741683612757, 14.960566625433273, 88.147266313610373,  4.157167279084264
 1.672695664952573, 10.522803747758873, 60.008572981705370,  3.831060282889232
13.997241145206885,  9.813391249316268,  4.870613231294922,  3.692556732489150
 0.460204066946884,  0.151765224962032, 34.748553533311551,  4.422949791896077
 8.464940927342441,  9.793627138927006, 49.599801093084565,  4.139339000577776
13.217822728886262,  7.093309639058686,  0.295806850796492,  4.031172101012314
 0.727406192618614,  8.846397139467330, 12.787853979626204,  4.125500287970616
14.522474670464000, 10.535848225947886, 44.821407193718912,  4.082011029722743
 2.209282184376600,  9.654189790218281, 38.071873253774520,  3.835254444327250
10.267040912751572,  7.237615285311940, 52.236851284766971,  4.012403352604990
 4.946255554308245,  9.060644669359601, 84.332206032406361,  4.053864785034794
13.219038247249925,  9.522121706901842, 61.256670549840692,  3.731435898490181
 7.778562833514336, 14.973916793533313, 86.977744980080942,  3.926940567539004
 0.244940482902788,  5.791596065874855, 61.356392501643761,  3.776437999158488
 0.079107091213417,  5.068180493176600, 19.227614777438550,  3.885916560635586
 1.999775040186261, 10.080141930353708, 81.862173452034298,  3.825640735405712
 6.699316754416508,  1.800481031976080, 40.780680936089198,  4.209246888830110
 5.392277323757140,  2.800368195111113, 66.943417161735610,  4.232352880309543
 4.241764776739997, 13.898595275282176, 53.230663356933555,  3.886620167130975
12.788805241430950,  4.083578938469324, 59.042485615373423,  3.757638760648484
11.090130814806411,  4.647197364759269, 19.385246367724108,  4.061168948579665
 2.638218799978477,  4.936742605491893,  2.056379013825525,  4.214382972801564
 7.110863520992992,  5.415468459491390, 19.698570042405990,  4.039905039802343
 9.389166742973822, 11.288664594450863, 59.908053979326922,  4.158065994681394
 7.059593132659135,  7.525274343194933, 29.718722457621855,  4.324546530176807
 1.094338667249416, 13.319250219579098, 74.906769642427662,  3.948838725614287
 9.406131020826694,  2.339809050431852, 49.137981650145143,  4.221911278747995
11.322548808994933, 14.034013544669483, 35.878107001064329,  4.361141762948352
 8.287463968592981,  6.444567887362795, 73.280805874454117,  4.440696119876772
 9.721476045331949,  2.711442040973253, 25.597415426639042,  3.752908099401154
 5.933514185242568,  0.275165532493114, 49.919570855847347,  3.982544053022792
13.174188973891297,  6.459052386642626, 22.454540572611101,  4.087311169851067
 4.441661950421637, 13.916273217320047, 81.030622218023126,  4.340393415558569
 3.988883753949026,  4.535442498466492, 77.556764387190398,  3.639424480109593
 3.098403061242497,  7.110958202992757, 50.824888863323807,  4.198161955270836
12.035225511071598,  7.114755958307910, 71.125988641569876,  4.288585866103412
12.754610597625852,  3.379669197966531, 69.107328307156180,  3.867324216605018
 0.099978576328615,  4.410148366618171, 51.068125189918931,  3.879975743233517
 8.540202175543630, 13.296342805208209, 32.599968391483856,  4.360541228432859
14.429860019829418,  8.529577829418944, 74.567642685594251,  4.157335979988453
 9.623571732575380,  0.375464878085952, 28.905066994268164,  4.347179062758763
 9.094447669095931, 13.010135608318999, 76.450294485584351,  3.946566424667133
 8.488285545014893, 14.364249678307093, 72.760900972554992,  3.960598676557447
12.103722423805912,  2.332858085535161, 22.538334541996068,  4.013416920209510
11.555152546684093,  3.476390234071402, 52.490152323956821,  3.947806921605443
10.190167360492991,  2.462111609599412, 38.280534518142844,  3.949142297581568
 3.170898885601525,  6.606860046695551, 30.687227215271829,  3.817395493129800
10.620794934394219,  1.832124631765932, 42.245205905210760,  4.001948750530239
 3.089661027615394,  2.433543908020129, 74.410575890331899,  3.949591837750156
11.455712158250742,  9.787325804272125, 33.799962745767168,  4.329372943875242
10.703359246018517,  7.446343860883827, 59.063049861274735,  4.128524246849357
 9.798042670030711, 10.467827622615587, 79.703484652697597,  4.418793487002208
13.323912943357062,  5.669137855723656, 11.967311627038898,  3.972920857176759
 8.471076984304553, 13.952641521947486,  3.662919573868726,  4.341758115000878
 6.386006290569399,  2.727118662706143,  4.101277433338944,  4.002844138285939
 2.570330687242615,  0.500840901125929, 26.656978489017291,  3.876536984571659
 9.646085188699681,  8.632327508861954, 15.058848216810460,  4.128883537228789
 2.036453391847604,  6.904922289778571, 23.320313269192919,  3.845682760669555
13.201535249078432,  1.959962634409505, 82.532575895955119,  4.030376097314234
 2.093173909106687,  5.188399157665714, 12.635924372769480,  3.671187253975000
11.338153089663193,  7.127160902159396, 90.338079509867981,  4.099452984394233
11.980087323691649,  5.225465163624690, 40.606665070958002,  3.983753997026150
 6.496794842195436,  0.568894613411185, 26.106346486293482,  4.050598381454678
14.587652503064302,  7.863893160439369, 58.072592739652514,  3.929601605750162
 1.587934371307186,  6.009940417753747, 39.026082982498565,  3.714051347223712
 1.630213621932423, 12.627288623083837, 56.810436568891802,  3.776528168017423
14.115019529702574,  8.275698682207686, 51.224375825267060,  4.086375864136225
 9.433578522957335,  6.555072229238981, 11.604621786599276,  3.921985517783778
 3.276635297494456,  9.970600649028333,  5.409626282653412,  4.026423492677308
 1.475179300600568, 12.240037079616648, 78.683009269522941,  3.929286438858278
 4.563633584184683,  1.334874792824029, 33.694739148202714,  4.354696176849028
 7.384222414884087, 14.719519743218290, 59.587865550140165,  3.789683004135012
 8.098997635546137,  3.052729717825662, 45.212210704991435,  4.143503656760116
 0.856881663369697,  8.897346782708311, 85.430587709495441,  3.992779633193346
 4.420914155973944,  2.964530652013146, 91.379093449675892,  3.978603228924317
12.214688985716599,  6.277567874518983, 66.678694483276701,  3.709493026700869
 2.290791300648873, 14.777481983523366, 91.749783275086997,  3.692732722854483
14.501215498243345,  2.356628294106500, 41.632597083045859,  3.882068434030041
 5.975616297835090, 11.485147758782038, 87.410354512601813,  3.958791846828378
 1.619221854200910,  2.550798251299288, 44.914036446752448,  3.865414378304511
12.570374595998596, 14.581454910266700,  2.945399354789063,  4.028746839677473
 3.001381711745491, 11.536126511616462, 63.669943952291369,  4.214717109320286
 3.460565679479366,  6.589915331264679, 19.855696290707261,  3.630830851116152
 6.943842058887700, 12.167332554184490, 23.724842280256830,  4.080784411516293
12.588941890420315,  2.177870811399331, 62.489575051810803,  4.125681087694769
 1.400104636156393, 11.623957102125461, 41.356915872962908,  3.978460094036868
 7.931492531227414,  9.923542864845999, 19.864647425792235,  3.895544943249198
 2.230383510851742,  4.369295142222314, 26.277146833254502,  3.920560280872901
 4.163301792904850,  6.216662747172223, 74.167382011329593,  3.928002272891757
 7.699596937218663,  8.737995284749621, 62.781200106956653,  4.031013825030858
 9.136553562648485,  7.548484176881316,  0.193402431920170,  4.180520051694625
14.545535865355189,  9.988702529402371, 54.800095614802018,  3.868654995996426
 7.389894303158128, 10.672237176227416, 37.408261889057940,  3.746905905598444
 3.134962379117757, 12.657498130848264, 84.829552494460344,  4.060908603252313
 7.735692272101107,  3.572848695272700, 52.500000876981503,  3.648641425382116
 5.552470203543690,  1.967821860863956,  7.896475062279720,  3.898675089760078
12.563903324723210,  0.552843253519548, 66.319657046309345,  4.034642328592751
