BANDS
8 8
NANOPARTICLES
cell(1), 15.040
cell(2), 15.040
cell(3), 94.001
14.882150322233773, 13.520596184870424,  9.950636396159060,  4.377238010814611
 4.563524925584749, 13.374454794791133, 68.577042755834711,  3.599197144376043
 8.846842887966872,  1.745447379602643, 41.645722496811793,  4.011586422533445
11.415717364264992, 15.031482007926739, 54.970335658974598,  3.569710778137749
13.407026921888471, 11.822516377393745, 38.818908874614053,  3.922866979925343
 3.873774284323350, 10.104185427767984, 60.827544386516493,  4.076060475851515
 1.536870958192818, 13.150540138922091, 76.939000895984023,  4.062692914158171
12.425650864180582,  8.964189741392532, 55.858039654908445,  3.715406119464459
 7.426017190321869,  3.753989257728093,  4.748315846019512,  4.230888025870811
 0.487075376435153,  0.207301709373873, 35.213441758672694,  4.110904181664499
 1.489771778803447,  3.345730132003129, 42.662324696081079,  4.035087883868393
12.460973663991156, 13.900577082149431,  2.767927127750500,  3.868101008373092
 3.033291616915013,  7.941490851908583,  4.175104735020986,  4.090948558651422
 9.542444440686806, 12.114499227510050,  7.416493370776476,  3.972773314772767
 2.049060724529018,  6.202945729709321, 62.377384378662974,  3.998752350541034
 5.726538445428885,  3.180759952849106, 82.861080616303497,  3.909273532240662
 4.931033073046295,  8.484299424089423, 23.672507725288664,  3.725596511727219
13.044708892852103,  4.746917125413490, 49.085859017877304,  4.382204985783464
14.692416957018589,  0.982120281492924, 92.287251434463712,  4.034400605072367
12.770753270519725, 12.011523686695131, 75.818950999947077,  4.165445548106146
 9.880091580839741,  3.963304166860410, 44.958450913954749,  4.025288564667807
15.029748540758568,  1.730401588438902,  2.354333664966846,  3.823411835262401
11.094843149547250,  4.744626405238095, 32.677850700443344,  4.257527212784943
12.254775151173723,  0.797114816197458, 47.801442440917583,  4.049624977455017
 0.562530644968043, 14.722601653257419, 49.823766866213461,  3.963576273900757
 9.098840428107664, 11.209375640230871, 45.891147564547495,  4.283281856883891
14.608527927440502,  9.431662965040816,  1.820121732070530,  4.302332606023168
 1.595452348065071,  2.592077709835192, 46.994299673949463,  4.399798377489438
 5.526235859405699,  3.258772949059301, 51.246165814914740,  3.747812856038838
 9.961521416398678,  7.118202274213728, 83.543141337304846,  3.529864265558118
 5.487080024409624, 13.724527762135455, 56.024105145953399,  3.799520051731160
 3.813864884261204,  0.247080728650013, 89.216755724667067,  4.020692371894251
11.898581096588272, 14.423747271868812, 89.862757222450085,  3.950537468172869
13.549618883853158,  9.355776248365652, 51.169505581995047,  4.008815103462600
 8.983771272189552,  3.897032253792680, 38.333454620686616,  3.891143981666334
 8.045686782552123,  7.133254059307060, 65.804518001699194,  4.033626741744830
 6.851060282204975, 10.871023316511126, 66.790213142753132,  4.038927427871067
14.131672104013967,  8.366301164158864, 32.585262585628456,  4.196851432654715
 6.973069370799591,  0.872812437549915, 70.246544339359389,  4.046983855068043
 6.808265091723794,  7.210553061259113, 51.848632903382210,  4.271918033665948
 6.973886362944373,  7.831591245310545, 38.527943408285246,  4.186412671645551
 2.403785964493986,  1.631562323505967,  8.830577102093493,  4.042830867655725
 1.920423556233972,  2.772531513268166, 27.665373604172327,  4.014895949051480
 7.209772951894307, 13.152022794522612, 59.549678634330604,  4.129899482501743
 7.077625880544558,  8.188173220801616, 69.780418590913200,  3.972577292653328
 6.707147950494416,  8.271354098636458, 92.017059206375350,  3.744208724907379
11.466005303517354,  7.968915225094451, 44.287177920557660,  4.170569597263052
12.440500871873983,  2.941174465804869, 36.334780611061127,  4.317976604314628
 0.757007945503249,  2.744626414476409, 71.247468522047782,  3.652865278109765
 5.121977758763411, 11.108300172345494, 76.561514666184792,  4.175168111971459
11.160385037277885,  3.523383834175645, 28.624404731498370,  4.205094172037406
13.041171759192578, 12.074965642003569, 34.600642132329938,  3.991059951413520
 5.855156833383655, 14.233868394931060, 92.486986671889696,  3.893170255627243
 6.177533486964684,  2.850798536778659, 22.156561811284806,  4.631749665107243
14.878669557377055,  5.578615933022487, 38.449945086716028,  3.999922928021499
 6.980531701034719, 12.649310242969394, 80.538612494849716,  4.195576455352300
 6.084527429202565,  2.447329647616344, 61.027805917734689,  4.072294806116943
 1.105989710916758,  6.618845613731507, 17.597348075692558,  4.137066210522421
 6.803363477995727,  9.346924101199754, 58.124761440728513,  4.009400204829179
 1.912101722140936, 10.670241771527994, 15.467898873922737,  4.073619195157439
 2.268079789595872,  7.063358317852352, 13.749952741723130,  3.941266847658161
 9.132289425062565, 10.139239202326383, 28.958750320833559,  4.049418983237887
10.741335274654752, 13.831960963574303, 10.887566824256897,  4.122671779278133
 0.410932903283035,  1.900454186410466, 13.233976447503238,  4.117333536501086
10.964381119466035, 14.114245190539140, 22.965832142012360,  3.765635777380947
 8.814973487584131,  9.219330464817238, 80.262656827855992,  3.601492517419023
10.532011415397882,  1.490833902559411, 86.527918470022342,  4.093969187141746
 4.678049754739709,  6.095235295246378, 57.484498742220282,  3.835535362733293
 4.612241540996719, 14.253480706055534, 50.507805058777045,  4.300503355913295
 3.318971442387701, 14.357741678328502, 11.759306644249129,  3.622252986202000
10.447234651472762,  2.469032668040896, 20.835377259711414,  4.273256005067065
 1.459628608715796,  9.229507018126302, 39.160519449187902,  4.096706884357624
12.175733602274885,  9.894994674146016, 82.365696047484761,  3.950253491381507
12.292050225851563,  0.465736205908467, 39.656041389893382,  3.950455430696915
 2.318004261583897,  1.280996303539814, 74.493556623318142,  4.056756111828555
 7.640725316555159,  9.897370438413892, 42.094207902620440,  4.161191921605164
 1.075228391469293,  1.771673353285464, 38.949530450293835,  4.067688080838537
12.872561600313842,  7.374434086056262,  6.313014348489401,  4.025084890533493
10.362499029140222, 10.074450330100287, 68.650650895969576,  3.857186363963473
 8.241842581953124,  6.378005319345933, 23.653408955973774,  4.068617544036277
 3.130920535769899,  5.190587668159028, 86.947862037253387,  3.975350432977299
11.936671273934838, 11.000622938456512, 16.137629616971722,  4.327991000190439
 1.702744453784323, 10.340584564416124, 35.203229800707845,  4.134051740216425
 5.066876492672247,  3.971960325797430, 39.429116448090923,  4.227483008897486
 3.393744512458853,  6.625174966468402, 36.446008787856940,  4.360790622455825
14.543095192930984, 13.680282191018893, 80.570475949335972,  4.320283228764411
 1.302291926786519, 12.858934555295374, 32.027950873657439,  3.983454498415734
 6.746376560632460, 13.718312396665326, 42.973940100910262,  3.877966544490492
11.873492117102833,  7.749226622304783, 78.815003392555923,  3.765671497968697
13.084519041761888, 12.309931384669950, 93.127604749335148,  4.148795546842893
 8.343034407123037,  5.794518288930438, 19.644296446703105,  3.949190929436881
 0.882537074199421,  3.762000780755403, 65.405305272863487,  3.912902275040432
11.899762364245330,  8.774767040705470, 86.290105046630870,  3.864359631068966
 6.983263415919598,  0.064368256207558, 11.429229965690414,  3.879989266578122
 4.746254438562342, 12.827903804222345, 63.880877232854999,  4.125489709671804
11.705955329897460,  7.302075445319113, 29.654983948749557,  3.697036318755790
14.610387263233909,  0.018831895691675, 61.731739641276093,  3.844423260663234
 2.899854614650240,  3.728277292494799, 15.629855985798317,  3.680394125264421
14.447433003207204, 13.233583659192401, 13.993024778998274,  3.637630837535827
 1.932635642675739, 13.108289451444312, 93.563544813002636,  3.790559067070259
 2.130108984942355, 13.047559561913397, 38.152559298832330,  3.906865308635757
 3.014304066696997,  7.600952065965028, 90.227933077230972,  3.894297633949339
 8.934431805300907,  3.638847607945843, 11.662100208758009,  3.988640997717634
 7.590432437219305,  2.294727624654102,  1.182932677363209,  3.435225761080247
13.005599445057921,  0.809366937373723, 77.315233460475596,  4.074493301659464
 0.990216599212519, 14.979084370240862,  5.603988548002678,  3.766672242628641
 4.445991435794256, 13.533899880778154, 72.430166798591060,  4.073422025876945
 3.349484996236352,  5.613555704966286, 53.326235168892445,  3.879004625879834
14.454793041897803, 11.315992399201608, 59.337916824685678,  4.037061319608946
 8.247336970153796,  7.419474933510966,  9.874348082036475,  4.089221921273781
 6.331398234400114,  6.688095194017472, 84.790619884988459,  4.185434081130492
 9.049504087120209, 14.851546578925758, 77.240602105981367,  3.942568513192199
 3.567379485140834,  9.680713158017795, 51.442247989121967,  3.871481760028254
 4.295004899676862,  4.150143540198262, 32.642725046762870,  3.697556455020854
 3.578303276907796, 14.915256354437355, 81.763074787275841,  4.274381344920897
 1.844830267357311,  3.078931322921863, 50.970412031478013,  3.627097415125420
 1.732261436809869, 14.248872720810713, 66.265373538329399,  3.897747835472601
10.914413241271269, 14.712542624558013, 17.800701972162820,  4.030820949226967
 3.218577730270338, 10.384886872145822, 19.348668197384544,  4.131774635337004
12.255287011709992,  0.838713172277693, 43.702314715821238,  4.143999452528657
 4.829538856270240,  8.790756445417037, 54.893292779883986,  3.642561076792841
 1.136546176229701, 10.648226259603415, 73.560111874737402,  4.356325954251865
14.794861905320966,  5.159741084281306, 30.196139479580680,  3.874778360154820
 8.426193981103856,  1.795108827147529, 33.890157046504804,  3.800521289311966
 1.173353169484141,  8.785400833114918,  7.961233555432154,  3.926224977255808
 4.466123030839003,  6.658760031482175, 10.609558979641792,  3.762781219619281
 0.711461689390624, 11.407847551021995, 63.384696316555726,  4.446586624216883
10.361545291443660, 14.466845698283857, 36.207178808358023,  3.849321538937096
 9.769122584557490,  2.869576198757342, 24.864217077353366,  3.894677560080975
 9.828484853241683,  0.276019943984937, 72.648544202979025,  3.423462257859087
 0.118937918263111,  9.227083872584650, 69.790310789329325,  3.939458867192427
 4.836944152853214,  7.989946845540008, 16.558903105800511,  3.889906866566829
 8.911935577161460,  7.931248381167665,  5.918802167409744,  3.970074472217126
12.654962580583300, 11.728101118021799, 30.493593784985777,  4.252562186510013
 3.205957992874238,  2.908515220362252,  4.351729708738683,  4.035453522281292
 7.144426635721803,  9.520737183559156, 20.548214364568345,  4.084699320144123
 8.330016899157647,  5.730585815618497, 41.730758224214313,  3.926804916323101
 8.748901399296743,  1.318154563593266, 80.958680408800348,  4.061152980455594
 1.440359659076108, 14.898084329402362, 56.610005921999154,  3.966256670527097
14.290855178583117,  5.424983392464616, 68.894905837954752,  4.045598833464436
 9.812339950934959,  7.230639941892275, 90.269877155148833,  3.592532688464482
10.129956302953582,  9.510716116191277, 93.420276105229121,  3.948179560026585
10.466467613633887, 10.824095699152828,  3.862237929045044,  3.769652569801319
 3.851978586872208,  9.436677454454626,  0.406586542397089,  4.046895634777012
14.626426474994153,  1.192562506720045, 53.382133515748059,  3.935021006226568
 3.848385626026495, 10.141596109964924, 70.580250811455784,  3.742064492582028
12.596576074008018,  2.452947196158732, 10.262574351441520,  4.171082071783466
 0.807322006685883, 10.921519409239052, 83.325074974808913,  3.896011071320632
 0.994843135909758,  8.688079161303987, 54.332367085324194,  4.109417051882436
 0.875708438761040,  6.564928529103629, 26.558413678912494,  4.025248161492349
10.261720310496194,  6.836376393561989, 75.523822142709932,  3.780836701095997
13.834558675918258,  2.557667574511793, 81.220715619816431,  3.743378248983019
 1.328917851492557,  7.743825327351047, 58.721643380810740,  4.018008560658220
 7.436446355854359,  7.292781354848324, 45.416620476691037,  4.270696015005021
11.071907976279167,  1.903082772376543, 51.588958643980540,  4.152302358478583
 6.756354854113345, 11.319109431621492, 10.226533046194286,  3.980467512072722
13.694525565830386,  1.318994301674575, 68.064863531530563,  4.385582670551313
 2.260482661133268, 12.856644985897098, 86.345023587624453,  3.831322233072967
14.917376191738891,  5.543331906472727,  3.303116696804153,  4.017598965054249
13.662855767059176,  2.747996468690989, 17.081560816775639,  4.338745858868382
 7.328417659681938,  3.314583556134028, 77.767652884889870,  3.901969947995853
13.624013333633346,  2.514097533453068, 25.592177318416446,  3.853462333288936
 9.195747595340034,  9.424711974914214, 72.897180759730446,  3.894738263445109
 8.118382008505268, 12.953282131331695, 33.229629092772548,  4.091929911171040
12.475004490060206,  7.288989799857815, 72.099262166368206,  4.089210010828690
 6.814807324964312,  4.878575886044806, 35.231738613171295,  3.652154766378920
 3.931296337172051,  5.751768352468622, 29.243868884659260,  3.828113266167460
 8.163645131050675, 14.769783781922738, 63.076204722218733,  3.856229724018421
 3.109125050283566,  2.275724054634754, 68.276403629585204,  3.933370547974882
 0.323080440952874, 13.912272098075157, 41.774753317594623,  4.154069355163829
12.121359401414891,  6.148874456227627, 24.904303404440391,  4.089444271642567
 8.342510588061829, 10.520615335989552, 24.486046224404848,  4.372731292860965
 6.816051906594074,  7.640063313632539, 31.147607928041399,  4.025686695570606
 5.543672612029845,  0.447227802524424,  6.564490464126705,  4.050656503120872
 3.326462496145094,  0.161568959064667, 44.128906597053344,  3.841765639383743
 3.687508478620668, 11.561698329683107, 41.655535383060162,  4.053577483220725
 2.262466409404944,  6.310903164676631, 45.197046072007339,  3.891720910324568
 7.564967454311907, 12.003261814121458, 70.504294641969366,  3.853248703256571
 3.167991345950384,  1.381268689455381, 63.463195651195662,  3.743736764501433
11.763496327532865,  3.283561188464346, 71.349103173235562,  4.183567924114397
 1.401422740880288,  9.722760102520191, 29.255354544903710,  4.342223821738244
 3.624261497275871,  9.148676842329921, 86.635268636220545,  4.005155883071199
 6.661765527084322,  3.016521316198174, 86.833320166729010,  4.240026261945659
 8.059323983354425,  0.145781206975478, 89.392421588064749,  3.930418955095236
 8.107799686089388, 11.585858403163165, 90.823706736797305,  3.813461033079546
 5.947788039136257,  6.550563349652632, 61.244172337394453,  4.137281398254155
 1.243788745724677,  4.318513459212679, 56.498542294553879,  4.144113564044289
 8.701799005158875,  4.500098896103764, 49.129014468175626,  4.257333809760629
 8.951689629154515, 13.448742354084011, 14.526473119674407,  4.010279522716027
 4.326026732741075,  3.003859110247899, 12.104891050733418,  4.030328144259920
12.061460499134924,  6.456370526909418, 10.711913266136992,  3.954052016807390
14.006970249428853,  7.900632713928919, 75.686196990839079,  3.801358054045513
 3.170906417644243, 12.278815662100305,  7.562481081366235,  4.160413976400206
 9.847530103139098,  5.527902795594309, 86.909930486595599,  3.868615051467511
10.588077778897668, 11.452120009309590, 20.020802087098261,  3.875246771061495
 6.760160205639866,  0.734557504005837, 37.313418026756345,  4.101441172967686
 2.197249098617137,  3.708139898691841, 90.595399837095599,  4.094152178988813
12.862758133439234, 10.869160178443796, 23.044549729525318,  3.754274311935344
11.130609660015633,  7.085260232586346,  2.567850126752230,  4.219383959547444
 4.207149934665583,  7.419657535971930, 41.765467558306185,  4.269835345597370
14.565043289854250,  3.686373061679969,  6.868448237273956,  4.043104203823503
 5.708867569872409, 11.618887139978900, 38.240792856188378,  3.781706443540591
 4.411534233367378,  5.145777042046173, 25.450878121672350,  3.891868701391106
14.055897946437449,  9.304479455764485, 12.905616151034641,  4.111700850252991
12.664487138448383, 11.787781295411866, 48.047018961055251,  4.101635284144551
 5.714551502685593,  3.482360225107313, 18.055396234861579,  3.714055292234361
10.363657273977173,  6.173065140469711, 68.879383598329554,  3.901121859271562
13.711194841052698,  8.152078056122797, 61.692774074105643,  3.902523883495940
11.068584238703732,  8.398866923947843, 40.000185944685128,  4.397675355098068
 4.636765315655587, 11.449707721001891, 83.600934977497161,  3.851532422084260
 6.290655893795712,  6.264763694159400, 88.979479190559275,  3.571761398874719
 7.864048017194982, 12.756549570134153, 74.218408839019006,  3.746852253468493
 1.553401900688570,  1.673060892174977, 78.734502291939222,  3.833025815320736
 0.931013826027019, 13.319720820755299, 70.174063277666193,  4.266841361954175
13.098921848234820,  6.164905408444538, 81.985734188878297,  3.728878733469622
10.687102077705935, 13.965941261961389, 69.426382565426749,  3.766311565849949
12.309931096394585, 15.035163005790793,  6.921973009419427,  4.126747153155585
 6.331079407948780,  8.790536574522880, 13.107384681277265,  3.730311487320388
 9.239457976201649,  3.713644013697607, 83.788604022047238,  3.418725420476273
 1.323463000688700,  4.061601135236529, 23.531433828848840,  3.659710552440719
13.396347955612930,  1.912859291020413, 58.345413483191912,  4.217519900909038
 5.335482393616780,  9.160847134846330, 27.588095470782768,  4.252249186424802
 3.081275581774679,  5.520288449255424,  7.263404206928391,  3.757437035059078
 5.113006905278659,  5.379153434508683,  1.411440760909232,  4.488933875312879
 6.300508090503981,  9.718369951683975, 48.582967515537689,  4.021665689064607
 6.632510062921552,  1.461547700178997, 74.274516048502122,  4.105787052874083
12.860995337587866,  4.232935617740925,  0.011941873305550,  4.172919909783588
 0.836332668942135,  5.034253501294259, 10.529931330289578,  4.184470741794385
13.576146860090855, 12.195155300997737, 86.146109483499984,  3.743519124043452
 1.347023383554945,  6.328755064434065, 93.614233669406076,  4.066833331200697
 4.176159478696084,  9.706525427145554, 45.130675350968360,  3.857851171188925
14.949634909360647,  7.025521049390956, 42.147982350252555,  3.932193520599401
13.658549873935886,  0.061285656312163, 73.199294600530905,  4.111816678969697
 9.639447063382626, 10.659803288755597, 36.670583068635295,  3.938550055310598
10.004382448925899, 10.085980873404639, 12.478001138520305,  4.140590892246434
 6.302294017364540,  1.264914218156010, 15.048775940238269,  3.849055959470177
 7.402607074880938,  8.883148053852558,  2.303430204765223,  4.069515942676330
 2.514643999471694, 10.595319681597811, 67.102295385442972,  3.757455767202730
11.626088520856348,  1.181835112982463, 13.916015176913859,  3.784465114942234
 8.341078032196819, 12.648527451577010,  1.139789998479588,  4.025524824033052
 9.864144301743343, 10.166643409120613, 51.800215538442558,  3.635492886997838
 4.333426864719375,  6.462368503289059, 20.296699890341252,  4.233162923654289
13.725825651757461,  4.749019502544627, 45.039929186403796,  3.820104052413715
 2.614594107633041,  7.867137184382962, 77.219355789923810,  4.107401642163486
 6.077008801889801,  9.592597346973049, 34.753832259786577,  4.304563533284050
13.802874069289992,  5.409557995181618, 14.012486065360724,  3.769182772160189
 6.747925375472446,  7.338698369022918, 77.513219759801274,  4.238880571479831
10.835064939794847,  6.511592798092900, 52.136570441826798,  3.920189665697000
 4.908873247018726, 11.297572883558075, 31.125595896812396,  4.020987820717512
 8.090386920255243,  5.176689520545192, 72.418151066404093,  4.249833483010301
10.061049886939076,  6.358275765242826, 62.218484013885266,  4.295386254836695
 5.372952573647918, 12.252826755398335, 13.832928773219967,  3.548966248081743
 5.411758382068793,  8.175339605260326, 73.622203558216967,  4.140717466051105
 0.086198068678099,  9.457444804918579, 88.323488245745622,  3.844865829068576
 4.370795992603528,  4.636288718904598, 75.468883478663955,  4.036554921325038
 5.463077585991333,  3.682124287520684, 43.768925621316782,  4.212748508628122
12.499264385235692, 10.136755715716850,  9.237207607997588,  4.017210796725752
 6.524076948429124,  5.191555483315406, 14.511471522271101,  3.815117978650515
 8.997770364219068, 14.870232243149495,  4.484492295510027,  4.098813315637083
13.864271179595340,  0.386632509037025, 28.940783004216502,  4.092433785270274
 8.498020307993270, 10.619379611198779, 83.816660421372148,  4.050494853673055
 5.787988984849730,  1.962468323172763, 47.545214910537631,  4.094030943279482
 7.592778880412413,  3.773674495331567, 30.639858908545946,  3.925092480842004
 1.325347614135138,  6.853678751562065, 50.176308803773068,  3.756274274722127
10.140508025887916,  6.449043496732945, 14.127643217148131,  3.816456769390001
10.674477162459468,  0.652439761432697, 93.619029312640379,  4.211884908296867
 0.859568174277558,  9.915187098584727, 92.160842304072887,  3.488779664513204
14.248304731783577,  3.984972936150668, 74.636445797051437,  4.172170066753809
11.143720355586941, 13.478592874385102, 58.461830372576749,  4.049302090429416
 6.589758864767436, 11.959706227510335, 17.386047046316012,  3.975596783645636
 2.834480571353040, 14.661760557113183, 15.452375178242077,  3.845197349021356
 5.038828854407359,  0.032209461181977, 77.785818241238474,  4.095745150839075
 7.543553665467009,  0.511056190319764, 53.211170254930472,  4.054801138576011
 6.580649571007410, 11.618328463074324, 52.971219988296156,  3.910541945414851
 5.453837612717843, 13.092245172297034, 46.628159655861303,  3.958545076695927
10.685095080003604,  9.489695200554321, 59.385241352814234,  4.157301219351355
14.377900143158127,  1.000558381144768, 21.840379174202017,  4.341442849047718
11.412537277276652,  9.255385877636233, 64.921191246511881,  4.015485007588437
 4.018768660997520, 14.490135397457269, 19.296169461005714,  4.185874523365539
 5.927370128854573, 12.281543180051255, 87.602580376462925,  4.005735020969950
 5.851710927557732,  1.990211597615262, 27.501314320874719,  3.964074301019500
 6.246361413482850,  3.795671630054541,  8.685475301546509,  3.963233225288342
11.973109346052489,  4.719798138265154, 65.672694276025581,  3.828654633350100
14.439725055949429,  8.267130572293231, 47.139758233481047,  3.965614878175704
13.526676859162938,  3.683537924701162, 84.913562981002656,  3.993318276152160
10.593744973097577,  8.217935364989984, 48.476150843422786,  4.168130647789591
 7.980155923859357, 10.268952236547438, 62.651095039065822,  4.448442947586040
14.406156314034694,  5.110416253742465, 53.005588172854978,  3.943069142361609
 6.393904811721313, 11.787917845151462,  4.979959504760223,  4.015095327980859
 2.744256231793293, 11.143973964828145, 57.077960051167452,  4.012150529729908
 0.137480921111042,  7.767146215616125, 65.638041737955078,  4.169686373062139
 0.566391223258765, 12.933990697632748, 89.976063032543522,  3.889067933321708
 2.689224380750532, 13.743230246318630, 28.200135387106702,  4.328205659667382
 5.438100872732978, 14.805125262653140,  2.666439471804333,  3.824870812270295
 5.165743037159398,  0.454955882339691, 31.299540720323510,  4.331714242784445
12.118900422244106,  4.228518426649925, 41.248713502519770,  4.225344092032493
 3.569054527529729,  2.583680495039141, 35.951738927207629,  3.752523221254539
 7.506238604573995, 14.647773877561095, 24.726022531963643,  4.041883073420168
14.839740070369420,  5.206801623203160, 78.528862062451694,  4.061981249225495
 8.927038167772839,  7.721424920317417, 55.270986943634192,  3.799119235171946
14.482449429672570, 13.635323046461455, 25.314349066194005,  4.090496095901720
 9.154792070883165,  0.139785041418533, 29.953661301113993,  4.092219155896838
12.971023740469066,  9.709518527259426, 26.816501966793055,  4.137770916868886
13.106120045384312,  7.584979114435281, 91.888583367445491,  3.761375090531005
11.747966564023208, 12.269782058603141, 62.268362384002671,  4.006097882202277
13.810588831816151, 12.408135466571757, 55.563825669506116,  3.613958174259517
 6.201499239996872,  3.112721214999936, 91.424565024496573,  4.158777194528708
10.817040337059279,  3.378774658694746, 90.301911636475410,  4.363002550711003
14.932787632202738,  1.406670353312183, 88.021967363758449,  4.205404870936015
 4.572373396423967,  2.220058568857383, 57.323767311491771,  3.891789472108784
 5.307697271222322,  8.784315542689660,  7.430589713230729,  4.016793332818279
 7.896557076320077, 14.261522042258592, 20.542146698883258,  3.968825418623649
 9.719648164121290, 11.620378274714039, 55.266640414003213,  3.864413673195145
 0.479513113794407, 10.487293075605169, 44.005523306359819,  3.999917549788142
12.074890845601882,  6.792933868044672, 17.514576596335534,  4.003599844699196
 3.141890889770852,  6.869505361674910, 68.369187759485428,  4.144613595085603
11.174124261294352, 13.811515315842030, 83.292772051495376,  4.326983657501376
 1.827074425377882, 12.691711009675254, 53.316413752828616,  3.966919762730312
 6.916620434355425,  4.231859588769638, 54.782399630788149,  4.089456390258798
13.620412649373916,  3.980861576041843, 62.036292573565817,  4.246233685538366
 2.043894206454584,  2.943350121819486, 60.176169790992255,  3.866043488190020
 1.976957456567971, 11.300377015005886, 48.103594137612639,  4.163760864713666
 8.999052820415821, 13.190304002531548, 39.723829799464319,  4.087494121053091
12.599214715831986, 13.159540649294168, 51.918500347836165,  3.960216083379378
14.035111666016217, 11.422088331661531,  5.606543694253711,  4.251227061406036
 6.092633442579346,  0.802535180653729, 66.167265333129023,  3.869133874439554
14.776606771252418, 10.131106498659831, 78.664490427624827,  3.747234683583486
 3.099824013026280, 11.234352088058912, 80.066789158272798,  3.865106671652977
 1.752680344900730,  6.476251911914801, 72.368168320007896,  4.268599544130583
 2.871625022445865, 10.407133027992550, 11.375951144389754,  4.321815490877995
 6.460753049220375,  4.457899839990134, 68.414612982531821,  4.058318134826728
 8.208696177679117,  9.071649104511142, 87.451240955272638,  3.861599862753089
10.260073853568485,  4.600537278523180,  7.663546333836563,  4.016980967876128
 4.462040611110832,  3.537635592497881, 71.689669595147663,  3.809918614001870
14.814021390652417,  0.111772525778964, 84.289336966572733,  3.652250495751361
11.577337857210168,  3.100003285161387,  3.993634969504687,  4.287715473028951
12.450605859659650, 11.387065768675580, 71.763756829903159,  4.028187756459034
10.856598477211612, 12.246610357006023, 79.523314113308984,  3.832793481061386
 9.960223666718587,  6.820497130248346, 35.978286973116958,  3.861462633687236
 8.669521319484954,  5.216308588449133, 58.390448674447192,  4.153961187867990
11.766607002108488, 11.837127371264430, 42.589129565088840,  4.292612460695787
10.080808392389653,  9.344303932868852, 32.884499630914632,  4.111429024516621
 9.605018192427611,  2.105718435261207, 67.444683448771400,  4.026893090182748
 1.898376734669779,  4.225765036082706, 82.870481216913973,  4.011507513429676
 3.226752443172703,  1.766038098015495,  0.057861894240558,  4.096534618901995
11.033834291376913,  3.966616395402518, 78.961082875144143,  3.982435276930619
14.173858362478859,  9.720621277575040, 19.494253652817619,  4.135269325013970
14.982691174461946, 13.703762462550761, 18.180942179418274,  4.332246290132450
11.127248841954964,  7.910112936480801, 21.428939096146483,  3.823895879548074
 1.121008290658348,  7.885655256421848, 22.668181570968780,  4.183141263330899
 8.884480236180348,  1.096741412644046,  8.359818105460631,  3.611954616942051
 8.647571451620108,  8.646347984798460, 16.910508115820594,  3.872770255714963
 0.316299720318663,  7.317514149298847, 84.967981845958789,  4.084448499826765
12.720058049182059,  6.007488772994093, 58.451642372370344,  4.081213799686023
 8.903329532378534,  0.229198673851557, 45.792945770931375,  3.845038821597443
13.799585570385508,  5.050417013678081, 20.751993812034989,  4.114030965368538
 4.085691740436091,  4.862550656945347, 79.551625317032162,  4.037796445096647
 2.086431230960442,  3.085294305379384, 19.420906979457776,  4.046829473867567
 4.756550927534298,  5.897569016782330, 48.380066615204939,  4.192546293766537
 8.337605071718848,  3.318552977175136, 64.061930407830161,  3.580467605641574
 5.325306705379313,  8.277812615326999, 81.223328509702128,  3.869355810596760
14.095483839052166,  5.550190369084222, 88.542799820320639,  4.243064528406217
 6.576409203806934, 12.898700213830830, 28.018259804271327,  3.625190311060858
 7.055310998240112, 14.635854979285735, 84.353467923594735,  4.243032557490187
10.127046770372564, 12.867831196614436, 65.807849806172158,  3.851925027162758
 9.435989319343919,  3.327732728796459, 16.578294398738848,  4.219027970165233
 8.935390308603209,  5.370450983230859, 93.498953034720614,  4.053840553941961
 0.067942580661714, 13.979083624122119, 45.781107358603450,  3.862444223247436
10.103877566472033,  2.258551013184644, 60.784567106973533,  3.971860421592007
13.332228868091812,  8.658586708543162, 36.534294544475316,  3.874627073080392
12.193008682178451,  0.629299813881563, 32.746614949687782,  4.214293964863895
 9.851387950751198, 12.593569672503396, 87.022823731574917,  3.949761548897611
 3.103312632391875,  1.515290609988189, 85.505976755904669,  3.920508790429512
 1.469936068252931,  7.764840713643977, 81.124791613585629,  3.907950906480732
11.678319143170215, 10.488159562258215, 89.809108036808055,  3.918988035511615
 9.004430015834814, 13.579737968761489, 49.652154816922057,  4.576450267961932
 3.997942509657614, 11.280337830269090, 90.852533778915316,  3.806462105384184
 4.313362998265730,  0.176484746453080, 40.441604302409118,  3.733282935875788
 3.084526494036895,  7.742531340015259, 32.469882840507367,  3.884584227743883
 2.580571024887262, 12.029879220553440,  3.397399707955281,  4.254606284984954
 4.516834794545584,  8.554460593636673, 64.491745772381208,  3.980412057734688
 8.025296618947685,  5.511333091973690, 80.863914109950599,  3.756508172194470
 1.342782390518870,  1.861415934179871, 31.626647513713575,  3.822645019057710
10.309183249555533,  2.962596312976674, 75.167465169960579,  3.993961877622427
 0.430986932290105,  4.773024979140206, 34.110952910659655,  4.040272099194596
 1.086842047827860, 12.387950355538603, 21.981931087775223,  3.738607094526783
11.765715788873006,  1.027049525478826, 64.242888249158980,  3.985752529545846
 3.533296800518889,  1.347379598804471, 53.752561329147952,  3.706654469635807
 9.300923946958218, 10.299267256818560, 76.663889082109250,  3.753332042125770
 3.180489054538708, 14.134916344569271, 60.227308711598567,  4.154474583924831
13.705553667111854, 11.745328717434033, 67.094529424649522,  3.968116119349405
11.141293136346773,  3.864239045861974, 55.275344610061616,  4.191937327555054
 4.404196567014861, 13.440279370797706, 34.889881183541611,  4.058577567781536
 3.017899974363520,  0.548636603227839, 24.316434903858038,  4.295876655697577
 4.854153007558113,  4.591125826148228, 64.739964652919809,  3.941603375901305
10.706339621102467, 13.179217434662572, 26.767530619280556,  4.044052007305394
 8.468244304273346,  1.247783670196054, 57.153670304174945,  4.138409897791170
 4.937698256442993, 12.259166513115961, 22.653760981850329,  4.077227515060772
 2.295954870004914, 10.767140508939631, 25.319493163449483,  3.984078649739105
 8.333046108143916,  6.336912808255635, 27.667798780408244,  3.945801159440073
