BANDS
8 8
NANOPARTICLES
cell(1), 15.007
cell(2), 15.007
cell(3), 93.795
 5.199560900507858,  9.577868486061877, 57.618399753596790,  4.108142601696367
12.882605333833522,  4.852822703988832, 76.166936216781991,  4.448483000063256
13.932873026597106, 11.385466809646035, 80.431607992011806,  4.286834226897819
 1.184239717513769, 14.337769181402972, 63.520391445644123,  3.702798566426365
 0.469409816063204,  9.951484055913321,  8.882966622768921,  4.129234679879829
 1.542373292363574,  9.244802654262109, 59.187858818525918,  3.826832792909220
 4.301699391886844,  1.447526162477744, 20.995098997159705,  4.240433550499346
 8.860578980121010,  4.780113468466223, 70.955692717179531,  3.750177785571596
 0.870746167161473, 12.735444625361096, 84.253495479048183,  3.744870743055723
13.607239422507199,  2.212588303838674, 56.024163061261468,  4.381908700843034
 5.086075266737280,  5.585663123184470, 79.155732032398092,  4.276384664011762
 4.742404854376113, 11.709574844701482, 84.192208734196726,  4.118052977624543
 8.931254477983561,  7.241643590106915, 80.458966126783679,  3.852238075420686
11.171642409851147,  0.409360177102794, 81.194687167113784,  4.276991195030045
 8.458437512964922, 14.449710309302349, 50.832889807983356,  4.100370466212083
 3.073054651589467,  4.769839637873714, 37.705320649306429,  4.299456717940664
 9.497430422408607,  5.376394023970846, 92.549170471249496,  4.044770484558982
 0.091466693850146, 10.884998694928019, 48.219710790663221,  4.026770766844293
 5.454475018935882, 10.192534643178133, 53.325336970169218,  3.988340986621405
 7.352714205501440,  3.854846087927134, 34.150794409060921,  4.195756409480929
 3.682948839303477,  8.983468961245853, 48.131969415445980,  4.101732961652884
 6.345740665382981, 12.884697050264233,  0.976602980070107,  3.892727248093067
12.133065516576401,  4.812628097225348, 27.796321902908740,  3.824181899522163
10.495578530265250, 11.330333042411223, 48.931228657141183,  3.923010321217788
 7.845744417996970, 13.881100394872487, 31.562354839441731,  4.050018644489142
11.014018648573362,  8.659073017304753, 26.587964171209922,  3.781239626400205
 7.499856404904300,  4.588714226863106, 61.913340192002707,  3.972743136237725
10.802664246739504,  9.656647564050916,  7.327566290223797,  3.633334124481165
 4.883065450345626, 12.986236605244168, 37.033016309791144,  3.808116018726853
10.047333961606300,  6.896628927912191, 39.515955669191122,  4.366387673952920
13.519006489174723,  4.968218081660489, 71.921797589651192,  4.131459361562579
 9.426039797071311,  5.482033157635287, 16.400003781155839,  4.254888295891883
 6.239531617360171,  3.535022042841922, 91.239847148911281,  3.811934395340981
13.623274602305511,  7.240179387092001,  6.387188242339008,  4.022793772206173
10.118684231007679, 12.084334140281587, 79.003837432239223,  3.964832833605459
 8.456830809357541, 10.739301167651785, 75.601300852544568,  4.021428077617115
 1.904317280477477,  1.290295396269130, 24.266622709317502,  3.832606052188107
 4.352809493817771,  2.588198551609781, 40.991508098116697,  3.756699219876443
 0.324106721824759,  2.303976484484573, 21.009115044088052,  3.662076550198850
 6.946894880146668,  2.627117999288497, 13.943655841673671,  4.458871055032756
10.109855150232885,  5.047135570875381, 12.282622647347322,  4.123066264550312
 8.990406938270958, 12.177523523414981,  9.212355599614684,  3.619101288471422
 6.311534216065852,  7.015707631706886, 68.145266615544088,  3.942414367422454
12.396197772275549, 12.997815913443008, 39.869798773744279,  3.750429096673629
 3.966579499668279, 12.962013956526169, 65.738144198450996,  3.908678771740535
10.037746122190056,  8.923405254686088, 66.320825656537323,  3.630733829634886
 3.353516212274746,  1.658291651346883,  8.372104930146467,  4.076597087064189
 1.883906392019946, 12.951511733210136, 11.354456674324023,  3.886116062379309
 5.907493614113160,  0.121614252309736, 44.515478676780923,  4.295968245689945
12.748648722433716, 11.549233425626216, 20.383932021685016,  3.506552098568180
 9.410487516610422,  6.347797238234981,  8.584402957063125,  3.834908137154353
 6.867040193761239, 13.993213546979739, 16.102968175477866,  3.755225934762689
 7.776173016110288,  4.368335909811369,  2.096756254950139,  3.663520342809554
 6.977338733234281, 14.972770645202026, 24.034693264287263,  4.212532755203648
 5.679450296091733,  7.088152569199192, 92.919973818692426,  4.119787433577961
 4.330811419249321,  4.360771497187397, 11.168685535339213,  3.904841420450201
 0.275647180387828,  6.100434932746650, 33.854537716684533,  3.929068958109558
 2.585738231299729,  9.098417981688831, 32.646785746839207,  3.718501857824085
 5.045175193845328,  0.267310103940064, 33.977841096405925,  3.819368291073935
 8.894916930881349, 13.492432295004500, 20.534135862720177,  4.299401476025336
 8.292499217357580,  3.875259160821677, 74.714698426369864,  4.022978699661526
12.205771121779831,  9.883473109153154,  3.316660746329100,  3.993291573012266
 9.980723191451759,  3.049390733738443, 44.052102211417804,  4.009557850988028
 6.302298110398164, 11.633775140941440, 62.589431330627129,  4.297190194724014
12.827847877143977,  6.950636368184925, 14.462469800482452,  3.728282063218874
 7.940147890715814, 14.175795601031460, 27.729767091560038,  3.578786906960718
 8.792644948412493,  0.682525011602637, 61.539204522498878,  4.261740748864671
13.623512721323477,  0.348338841235266, 42.772834758790843,  4.083505305881745
14.386512740413306,  8.933535459034699, 40.217684735445225,  3.971002558704593
 2.330795423649697, 10.241542368135548, 87.055637965379660,  3.900532726430800
 8.642740123173532,  8.245137680442950, 61.090632337434343,  3.856382372931181
 3.874378345670531,  7.563328675406140, 89.406671979456263,  3.791593215775932
 0.970736370502175,  3.783467234492470, 27.267204082053219,  4.165087596789885
 3.665586893915365, 12.874347584183749, 80.330854850816394,  4.229798500104311
14.297032245320315,  3.981753992351076, 68.217006338145865,  3.688668871042648
 7.885853341296778,  3.562437765754534, 47.270678120644632,  3.615284221047655
 3.300494028268401,  4.236076905574923, 61.564207788284151,  3.863964073208077
 4.198502271378669,  9.096875112975219, 17.093911118991130,  4.280629844677979
 3.300004348305563, 12.829394197697711, 59.664799410057185,  4.119734176584283
 4.381304129024684,  6.545874498419869, 54.486694902634227,  3.832739344420911
 7.247292046391197, 14.852330902930712, 79.590599580838614,  3.872298002723944
10.305481195598361,  3.492003624260422, 53.774147887842538,  3.996718329592424
 4.421561436118068, 13.083275943211685, 55.759849375417474,  3.795567935189395
 0.431118172059519,  1.849498825437045, 16.712636334477221,  4.023765235123737
11.957343114361729,  3.317530497793791, 40.584838999849410,  3.986422093225532
 3.374968181166186,  8.663425951546655,  6.374505918392229,  3.934183187070765
 9.652374499066260,  2.103214460360781, 57.671942519156609,  4.141488026597764
 1.281095182648351,  4.284373555988400, 65.064843126052082,  3.792567929895604
 8.138016216506196,  9.019097580155695, 11.159376979495331,  3.951654583080300
 4.635414934945335,  9.350324537253702, 75.690787330590624,  4.056515563292929
12.085820388148731,  4.591759175149566, 80.895863180809627,  4.304613201420567
 8.982738433141751, 10.595340149703114, 29.393085058104628,  4.141013397391728
 1.488318276362222,  6.454358286536782, 92.749275288551857,  4.261950196015865
10.783054226473816,  2.736051289124493, 49.767964775170000,  4.210648995723401
14.837759439527522, 11.461140999345300, 43.282482036297743,  4.015928472495779
 8.794814654032573, 11.754213154747811,  4.670510920567805,  4.235341884451521
 1.610207891461938,  2.026735374862681, 70.694132905392706,  4.083397768847875
 1.387042490059832,  0.660758946055992, 32.936243372346297,  3.557790199091589
10.498775993025696,  2.100637496349580, 22.518579220357665,  4.361106585195560
 9.929349002337569,  9.824125465194630, 22.295184239359092,  4.059751013776445
 3.910334777968262, 11.536162046525382, 45.030234768988620,  3.930927527058794
12.148443915327647,  7.959642995350656, 30.472252346905378,  4.352560772566940
 5.016879943348968, 12.558262176281195, 19.275349214186836,  4.048855025027631
11.457946487005964,  5.826740776430617, 57.017004827234985,  4.237886973448067
 9.154327271287123,  2.380509861250315, 26.500067613066186,  3.699175988595784
 2.511356917847390,  0.178413197847118,  4.591831685738071,  3.945598777613833
 7.036874878954615,  9.407308559889005,  7.436242843407856,  3.821384623664376
10.835235779752633,  1.088651914645373, 11.636861378646355,  3.958475193765987
13.471703844786312,  0.926891072114315, 84.790169471170060,  4.292030585963151
 8.286281418790480,  6.943819566763278, 54.229359646498395,  4.007906475599521
 8.139228488893261,  2.346314303908100, 18.922952178700410,  4.182971343706879
 9.010986212737150, 13.621413846614326, 68.898369393410874,  3.886058057012461
 9.038334551399867, 11.308910985670341, 45.372393668736670,  3.707737556061515
 2.143176689587404,  5.275319370091632, 19.631138175897171,  3.795000207457369
10.194018040940087, 10.931673609467479, 33.583635793656178,  4.001679575721849
 1.588555198211877,  1.334504240910203, 58.935145860504093,  3.780030958603361
11.009098448433338, 10.093416470172519, 42.180745861215442,  4.174115476599604
 6.545160920600552,  1.317335817111557, 87.801014486539529,  4.387451811234916
14.211064218727012,  7.337308459360595, 66.120165259382489,  3.831142131496974
 1.371085216787754,  9.757725279799606, 13.915323086824190,  4.298069017562107
 1.492510379318635,  3.098352501998477, 74.632175433058180,  4.068007914523274
 5.901852215644924,  6.593723457084796, 40.960328334324373,  3.793287957115048
14.876234632777674,  8.298604443229978, 69.770183315977974,  3.795962731011555
11.513477468364711,  6.497505806841122, 68.791508290722419,  3.896751355389888
12.982294798075744,  0.648067488901490, 59.671511031904394,  3.628052189808947
12.954899521355115,  0.688281679848692, 77.283103734275414,  4.113964002253033
 6.052965988421645,  1.788155964431559, 37.524457190523435,  4.127852173837305
 1.812916197390633, 12.316074979883547, 34.653414575008078,  4.021022095934747
11.213961553801246,  6.223372688763281, 88.396305057217461,  4.478209296580256
 7.408704428313829,  5.915865695057353, 58.071861513029383,  4.111407027015970
 7.928483107064164,  9.795692562077292, 18.777615197916376,  4.017402914591879
 7.710077652411337, 14.801516513784483, 83.803122859933936,  4.478356648677035
 0.904379618622564,  8.197521338508741, 45.322262288717873,  3.951299940513447
 7.045400438759171,  5.508380631239509, 87.950829422494053,  4.021983702192767
 7.326734468124130, 12.951538920744328, 58.710021887086647,  4.139123469805440
 9.650465983639601, 10.944903124615148, 53.058027857624751,  4.523448395863409
12.680137197389586,  8.611440387380981, 59.899011590362846,  4.123872954757740
 8.948014228465668,  9.287736326534576, 14.987136054785505,  3.876257187758756
 5.660217631953059,  5.825368485330786,  7.807662566877219,  3.882737136351734
 5.853847224550336,  8.821962879102049, 86.502120682407394,  3.577993997320665
14.492307745551512, 11.582304293058417, 17.104865902595769,  3.912180376654955
 2.660597709037213,  2.573209467061212, 55.506963274737245,  3.764085488584712
 6.158532859622555, 11.785530887469857, 72.454918173765023,  3.921696492064474
14.021222777843503,  2.627129061945197, 35.205011221309476,  3.894188642317638
 8.017342104258802,  1.002091066409803, 65.720029556578666,  4.263288500510108
 5.017628848060457, 11.158569068232259, 26.529120860306488,  3.885837584856484
 6.694353555220194,  4.119078073736793, 23.173768262619198,  4.141654919290604
 5.383674339843997,  7.193828528142384,  3.232314736179627,  4.078125276073710
10.835755526569935,  1.303322982255706,  7.703128956962446,  3.915390537080502
 0.382652800795625, 13.215446450380227, 56.553568049774483,  4.438069005594372
11.202978382155910, 13.320729490846224, 57.206466602769943,  4.029910192561518
14.321831922525170, 14.031468022266253, 22.572677152696336,  3.817130336455924
 5.117355721382592,  7.683710279660560, 21.105628991448352,  4.375938280626479
11.402797856881168,  3.973045837966537, 60.924420161532282,  4.128391408075359
14.801423093159785,  1.201801853622104, 10.499086679192033,  4.039429905003258
13.073880363956633,  4.731087740174747, 18.596506503015028,  4.290773249261494
 5.096829290161952,  2.221380780404258, 76.349169508588901,  3.858033209709277
12.531873522448421,  3.313862419150754, 64.860506939594913,  3.942010271502812
 1.069558768474189,  8.897363657106013, 83.211495866907043,  4.172361116257732
 4.678652534080521,  7.753068620096456, 44.403495622251590,  3.866374838953745
10.608780369918541,  1.299139146865984, 33.619618691704801,  4.066774128381843
10.182749973195216,  2.289735568446379, 89.908052063572740,  4.170076084694021
13.240343258260346, 14.347644165119432, 49.427268387242314,  4.193030267202844
 5.723543417463650, 14.413227327864908, 11.213439304146815,  4.331987407247542
 9.402583072108406,  9.559527189923479, 57.282693238010218,  4.301022041715508
13.439505319484393,  9.310041235015454, 86.384322010263688,  4.112222049142906
 2.988787878198146,  6.719223716500206, 85.834498169733351,  3.650834760745747
 0.456826343722234,  7.635130833920912, 17.206175934293356,  3.716925629613662
 2.910601110434069,  9.011668751670836, 79.721658173996488,  3.720049039087031
 6.886688167962606,  5.523862995715045, 37.622323455174289,  3.456397656109790
 4.132136556358837,  3.651327946467958,  0.801957179647202,  4.102051928849809
13.995040106266952, 14.357503748084815,  2.750023205744411,  4.159479686994059
 0.078584537828424,  5.538062706652996, 48.228310902251913,  4.080899487710825
10.111072395398196,  5.539320105378464, 24.618157879780973,  3.716576520462357
12.396007218149226, 10.703960831606770, 13.974269246013270,  3.821373272662096
14.074672361481340,  8.546839976454988, 74.470232184929316,  3.888174350033252
 9.027857236563282,  5.115517024127068, 65.816767020690605,  4.157103090253085
13.477246667323488,  7.813944306823057, 21.431769541622746,  4.090863504493062
 1.183129078031216,  7.424311816399813,  3.088504343946720,  4.230465372633311
 7.786541574221687,  1.091706265793424, 71.772072190104723,  4.065552139700023
12.631802987331525, 14.162017005188055, 91.672561813602996,  4.518135712738276
14.991191076465965,  2.489492374621629, 62.078249517325396,  3.643193305351950
 6.588141860299568, 10.163910814976415, 79.158296287473746,  4.064938675085348
 0.916376297352771, 13.684371995666284,  7.748517924239327,  3.716726016773773
 8.395625605445069,  8.507137455881324, 36.106857036829169,  3.865954952604714
 1.158350234377203, 14.090755340819436, 46.148104051032405,  3.898195772703861
13.157624325473119,  4.565004774806784, 91.583517797399423,  3.676364789033841
10.368442128248564, 14.020112531346465, 87.037812626840164,  4.037123957113700
 0.751032035029974,  0.344654527885818, 52.764717337630636,  4.241898553530222
 0.820421892641082, 10.837834409941925, 66.541327222483105,  3.850473830663103
 9.475208149360519,  9.610497715416976, 86.356675944028609,  3.824176174073902
 0.478001853679358,  3.266511649467818,  2.741905546376400,  4.199106909213684
 8.006084912034970,  3.419542282815800, 81.365418621277129,  4.216364750350922
 5.145398000062188,  4.174622921828180, 65.078010047863515,  3.938893169532265
 8.739235854136998,  6.321911350736443, 84.304847711594718,  4.029452008570015
 9.609568273622697, 14.175920997644520, 42.534148140600571,  4.296135417300169
12.683016628248438, 12.662354394138381, 10.422606384924057,  4.207540070517775
10.486063708169493,  3.990200252613619, 36.675319516079469,  3.782805120731958
10.925686560952983,  0.717150707255861, 29.607946557627276,  4.055513887535749
 4.219055200551127, 11.909153201446241,  8.358272060394915,  3.831349410982856
 6.180857037455564,  4.189844334722539, 43.960322731972973,  3.915271617710736
12.381097638169685,  6.045974944736680,  1.858982237066520,  4.222059223564461
 8.813181110081949,  6.985319891265389, 43.481630319280924,  3.774657368881570
12.418600760998251, 12.966134049408934,  6.272812519745007,  4.016348635676573
 4.948124198920343,  7.109934593760777, 34.894849589776072,  3.915292803982356
 5.075255805619415,  3.889223609788593, 26.931778284208924,  4.020434281212872
 1.639128855423271, 13.153726896379480, 90.867408048417943,  3.915016331779126
 1.640521137019008,  3.247662618792067, 85.797076061651225,  3.788473071574073
13.048391887931791,  0.951711919817194, 25.959649573323333,  4.380216938783315
 8.155251500319675,  7.714755808333593, 32.230188009282969,  4.062200561512432
 8.469832601776741,  1.168719688838078, 93.644735113379454,  4.240246207280103
 3.008110340611759,  2.794630706288410, 89.326282204533143,  3.830384799974477
 8.218767205121436,  9.401026180376650,  1.322416884931837,  4.025623381860194
12.035718105470153,  8.384214623091074, 82.665783291661270,  4.043154941093055
 4.857087802815172,  3.773588560925127, 72.259095734633178,  3.912348331269880
13.779261059534530,  4.511193800135148, 23.810024981335850,  4.061456928720549
 1.967623151460238,  9.569547267525028, 55.156553142963681,  3.975686208573608
 1.776981309983672,  5.300084119397671,  7.868478055240231,  3.822048970651805
 3.965491992917951,  1.811577265208820, 79.946555220237343,  3.718795739014206
 6.851866347933915, 14.743456353886451,  7.045902743141016,  4.321613666533969
 0.858758853415280,  1.893952411240923, 92.569946739125058,  4.144905091582386
 5.422057272049647,  4.003071742944731, 84.558240988612795,  4.073542524829564
12.190935588474121, 12.215540993601367, 83.938480890137342,  3.700400751262574
10.150813784892442,  0.693811121187859,  3.708897396022286,  4.202862116658093
 9.911755471335207,  2.912001391056150, 78.023741250281986,  3.541123548107794
 8.024585209937294,  3.477484516152455,  5.769879658897474,  3.877675098968815
 1.245875099869933, 12.450467798290678, 38.793334672690392,  4.324655557002918
 1.072689383411901,  6.721950327760526, 30.054038569425106,  3.922549810723867
12.863663051018877,  6.418008831752608, 43.177282535340801,  4.290041365260387
14.928940401619425, 14.422254204014264, 73.493135306361026,  4.254877361338365
14.951799751352885,  9.511777342892680, 90.258641838773030,  4.189057864054111
 3.508163192865869,  6.082700196329849, 58.142132156956535,  3.696394571712011
 4.315546268158800,  1.640405312843453, 16.967171777298809,  3.755465398736955
 8.893170811762246, 14.855328029972508, 75.952864273915637,  4.075166777947569
 2.498572085442633, 14.365579935115726, 42.278703891894757,  3.984230611336415
12.645780693810780, 13.036066655073354, 45.882073529219106,  3.455132781504243
 5.106686648619842, 14.077754972833189, 69.391000749253877,  4.010902812186329
 2.776398436192707,  5.407378531362581, 68.845676334352021,  3.944763453340383
 1.993749399250789, 10.853516984219439, 72.995074109057128,  4.043842250099555
 8.031676374819876, 14.474402427742730, 54.939018685522271,  4.096482713479169
 3.817163635217561, 13.258732424172148, 30.725758324603014,  4.173990171662326
11.414775029187604, 11.021388345194222, 89.273117569790472,  3.727667201343846
 1.912233270172727,  5.984315807552052, 41.680742258403896,  4.318996066418531
 9.828764247070266,  0.598866954046644, 38.529941689228927,  4.036052654304701
11.732061906621313,  8.685933742978108, 17.811718986839207,  4.126973766061467
 4.054905341273195,  8.461201088164357, 10.507531117183140,  4.276054251128883
 6.320398691076215,  7.652908931538133, 72.244164175890390,  4.333245975104573
 0.545054156475853, 10.830794800409526, 29.734176968096204,  4.090212040646348
11.519455542335027,  8.556312786282000, 77.736006817075477,  4.032680226653286
14.012070573946751,  9.750245420634970, 33.636042490296241,  3.811787394509732
 9.152650328414531, 12.746469001460573, 13.042289010041896,  4.031748130401778
 8.257630715654033, 13.743823172010364, 35.461133326152279,  3.788639887488102
 5.541412470051046, 10.933360611410688, 13.577131236061224,  4.082204615004478
11.489916595495876,  1.746604693926942, 73.456699595330250,  4.047391466227976
 5.195773992891949,  7.820800788023727, 82.769958370997173,  4.207697155919486
14.408438452067942, 12.244335861478449, 60.613965916448471,  3.955936541777749
 6.025337195582958, 14.127841764043778, 40.525197203923092,  3.885599982080534
13.245219747606262, 11.168305660597458, 71.720578687896392,  3.865535164680354
 6.915146630476603, 12.185817910006952, 87.777059761068173,  3.917589754807659
12.349905791513146, 14.615727253024927, 63.360367850842138,  4.003458208338665
13.278118557651823,  9.730831545340202, 56.203337957473948,  3.687576754150038
 8.188936520185578,  8.837175401755493, 90.099251201133384,  4.196664273889175
14.109488590443426,  4.033826668399717, 51.892903107327626,  4.023851574484310
 0.546495479237843,  7.104484575584576, 62.400713183177174,  4.063570288863016
 3.341931012832607,  2.257328917048977, 30.188682342166747,  3.899949680508134
12.092945086003221,  9.799500206429501, 37.055093574547946,  4.009160965544543
 2.432106263790400,  4.968372843665787, 15.254799161449585,  3.929763406426483
 9.918621808600731, 12.871808146030839, 72.640341839782806,  3.831918483166801
14.772647066621904, 11.181610142209086,  0.272915064800092,  4.025865431027603
 5.913666458571880,  6.833326217590167, 13.950528259404287,  4.183505912468910
 6.859229501145098, 10.781888153596260, 67.194674900993661,  3.885583798696256
 3.068486769534519,  3.945428762945135, 51.933386365627854,  3.901903062356802
 2.802047778876268,  5.361581332726897, 23.849747308913631,  4.138748967338259
12.540282990126348,  0.216398154255690, 19.188234457847578,  4.193484320415986
 1.302383801992116, 12.486038714432432, 26.109961641120567,  4.011064921888919
 4.018900566423421,  0.027380096447861, 73.259103190593251,  4.001388604856388
 6.269847913973880,  3.157148486651844, 68.674035453154971,  3.834990743059904
 3.103646020930145, 12.287390408245505, 50.671509735501289,  4.226048835518440
11.556224993581615,  8.971557205415284, 92.704287006189702,  4.237088742192610
 9.940917852858199,  2.820193910428378, 85.837435703999716,  3.980599300996082
14.547149493920974,  7.515635868038915, 79.866344108067381,  3.610746537950981
12.257646469424309,  9.415788185294648, 45.926562100547514,  3.827058558543250
 5.436339867533764, 13.063574550355129, 76.667933476505880,  3.781567440671136
 3.234499713120337,  7.753675399293599, 65.534552771190448,  4.215718663282106
 1.571370302305664,  7.713508895213795, 51.498200870937978,  4.221049694177927
 2.697367188553671,  1.450851891302707, 13.359015279375816,  4.074532374671152
 0.457892152944435,  5.742445678876933, 88.607631631415444,  4.087546566285168
 1.391256195421962, 14.099950724771082, 19.351718379077948,  3.824671816769186
13.515583867506553,  5.365154972537536, 84.802547509494190,  3.918486915176990
13.438600868931681,  3.256502707662369, 13.610430513467119,  3.872533666896015
 1.613511551324703, 10.182744482762288, 20.213491682530389,  4.106967676287522
 6.987134542259057,  8.195785998908795, 64.465128971393582,  3.634486089104378
 5.145179458188832,  9.285772210465641, 38.233218602901992,  3.983182207028764
 1.966785022502731, 14.897957908482388, 77.124227382654695,  4.078544887423755
 1.092011651301646, 10.952107310652009, 76.937872204896522,  3.965848372559027
14.045528815029966,  3.259827951831692, 31.087548462766431,  4.360898489800443
 4.832811859445593, 10.856160739280584, 91.107834244889588,  3.859450225522707
 3.570977317328427, 10.058897916025886,  0.976606852277929,  4.025697992978706
11.710327556045517,  4.036610201519026,  5.173754648943941,  3.637039799010106
10.748871241244348,  2.551697824341101, 68.439035743189208,  3.932245281238544
 8.647361479773437, 11.332393371719558, 25.596517377577698,  3.617276446480481
14.689959721702074,  2.144387945363667,  6.596187052952639,  3.962092499777409
 2.604986607549019,  9.388053540007386, 24.017821854969878,  3.905827983207111
 9.525003440412945,  6.006129214911016, 20.648068099543959,  4.294353225903007
10.401972977336877, 12.455251761569796, 16.830304100421582,  3.954546825638261
11.511689512409546,  7.123334962946505, 63.402487707471579,  3.829888383897176
14.818831372607697,  7.647569196255162, 26.356370070193275,  4.102168195018641
 4.206345602772672,  4.803222412513699, 48.084424033746700,  4.301497372651530
 0.434251396240111, 14.857768944559906, 29.184288073754516,  3.910801227184748
 2.573811815385778, 13.915201798587375,  0.846661596174230,  3.874229383048652
 9.484327971730123,  0.000967036155317, 46.829558232910983,  4.216142780487713
 0.306257493363471,  0.236660171492678, 81.121765569466348,  4.008338592445472
 4.880478382644643,  0.469980461894455, 52.588765451451110,  4.016957245420604
 6.909570710017131, 10.255954795718978, 42.337931402764532,  3.997427602788909
 7.620825065030366,  8.071029633005896, 47.164861414508891,  4.185667995937925
 4.260357868693117, 14.994305614736087, 27.081810484270882,  3.945807075884090
 7.973542980919690,  7.098853668425305, 76.807875460149432,  3.688894236529160
 4.808175287760036,  0.743867934742400, 62.934158298336804,  4.152013373571919
 3.101597141127969,  1.510268352697455, 67.048634084707061,  3.847470223732108
10.638628711415109,  1.306911633403024, 15.667191915278661,  4.094917739604410
10.475724028417639, 12.613119291666576,  1.104403017852900,  3.832566576184977
 5.528285838428881,  5.236423142217839, 17.707234098070032,  3.975359754069391
14.148361691870903, 11.253329409385096, 52.441169433616565,  4.553011880885153
 9.439490242735355,  9.728947430527326, 70.162090354206654,  4.224196670815669
14.142009083716975,  1.908402707079714, 88.776758019530163,  4.020536735669242
 6.927906083926446,  7.866955484214210, 24.994432557768590,  4.204387229410573
 3.863918700504544,  3.872979615889438,  4.918552843964770,  3.933250039945061
 3.487072581388145,  0.554569650872725, 83.602192508056319,  4.061599989003233
12.124006614130355,  8.336171901652779, 10.756787429610073,  4.171644725447622
 8.040056675505005,  3.459873165982158, 40.564792507176669,  3.831188504532327
 2.303590309512370,  2.819214917803438, 44.680384430589221,  4.434305432037680
 2.936545514201478, 13.156473996776338, 15.824950545442418,  4.089328077578293
 4.693559004300201, 11.852552541375612,  4.404964334383120,  3.985955946822882
 6.497835952330100, 11.919094582978046, 48.280566354159873,  4.035712396147011
10.325125997936977,  7.322313187450653, 73.660323168869681,  4.156804733685521
 2.231617687389752, 10.715563130883359, 62.919127590133165,  3.925822865141441
 4.686608499894185,  7.962073505003012, 61.361848625925269,  4.077487527018510
 0.732672221937608,  3.299493616999503, 78.739815131008740,  3.794983929311713
12.210442098292248,  7.420086269287860, 53.208284041468382,  4.151806879736164
14.941753951561045,  4.886040998295388, 59.056079419152930,  4.045550033669294
10.876576998594659, 13.463698195798468, 23.866072699797868,  3.445513211507572
 5.204418751628697, 14.776868588465522, 91.490804868778511,  4.005075075791083
 4.854049463269038,  5.835857352775735, 30.872569385115909,  3.982487328421199
 1.405040449983065,  8.759887121328843, 36.691615831358035,  4.169019033094069
 8.472929226187851,  6.280794087790570, 28.482785520394508,  3.974250686045876
 7.353577675998481,  2.694564770496894, 30.119646799441046,  4.169014330264812
 8.625901053578659, 12.702657258940349, 91.415167379261817,  3.993856923805082
14.196679036498466, 14.174203250864535, 13.997506909447957,  3.970421203319414
 6.923503608128239,  3.580093461953834, 51.025006465938354,  4.050590089172712
12.769926159639732,  4.439579111164976,  9.221505305638514,  3.994741201082424
 5.098680604344274,  5.690503554569439, 75.341650830311210,  3.352942152816612
 0.731007238539321, 11.203790672700087,  4.746708563159228,  4.073131725857522
13.059248385131657, 10.577309476084622, 63.899182922421097,  3.790398085891052
13.114550781554948, 13.277842403759880, 32.042671429778899,  4.089725991423153
 5.581696963703082,  2.009030072976004, 58.964953919231881,  4.317882814606654
14.244642718136744, 13.092414354681122, 87.730212686786928,  3.905539573173671
10.419430057555260, 11.804108836397216, 61.173786326040087,  4.092062354801386
 2.223821662160444,  0.832378195624582, 36.602234489567259,  3.963850130602328
 1.153625442808752, 13.111899965418669, 69.746550963125557,  4.031232512591838
10.353742176048607,  4.623636682507289, 31.691133608591088,  3.593966034539163
11.488773895992871,  6.921462568473945, 34.417589994413191,  3.861303714933875
 2.991757349004071, 13.020022907526753, 22.633785011721940,  3.783506545689287
13.289376440652539, 13.763187182378608, 36.103784416032255,  4.093632607197259
13.298004724182078, 10.699997654559759, 24.240760166902483,  3.909286259372086
 0.701304238140484,  2.274134990053948, 39.924662089423713,  3.874022528099840
13.295821651409424,  2.282877666582698, 46.412697955888191,  4.176463613998268
 0.642035203075938,  6.135430034958368, 11.690479254090723,  4.314871133432239
 5.597452856332767,  7.168649425370350, 50.964661941050565,  3.586833715408117
 9.407741232016258,  6.610434683159621, 50.438110677322740,  3.818243234069076
14.328211917436253,  0.299079038510091, 66.830621746193870,  4.096570986145168
 6.298650680923569, 11.204477685481010, 22.753832945502179,  3.749012592294434
11.062285837025462,  5.756773387682785, 46.919696656531066,  4.110093150101449
12.488406891588140, 14.652969786410749, 70.298260955242540,  3.782467221914571
 9.623980189365072, 12.374992983010568, 65.030296429390930,  3.785270215124366
 3.330699197169698,  3.695422001047138, 33.778064291566388,  3.829874107424468
12.345075125091222, 11.939970900737810, 75.649799759278480,  4.084001118270288
 1.746756004441815,  6.635298967482344, 76.788226259286773,  4.162878090416460
13.890173544700762,  5.656322918078421, 37.888467765298394,  4.130489130227777
 5.966603183873342, 10.896364958187515, 33.764607156353527,  4.241475937422867
 3.655864270185157,  7.531255468833769, 27.291730553049476,  3.806810875656330
12.604355393902560,  8.239834244974947, 49.426725423576990,  3.585835315571277
 6.484760732478938,  3.263487387533441, 55.070549359583758,  4.049383990370275
 3.055630959061272,  9.944077695372791, 41.524762427581713,  3.904562942671918
 1.478557247846228,  1.820805403828163, 48.957604855930725,  3.952512168900858
 8.759368616441279, 11.551943382897816, 38.839428579004746,  4.325591789073177
 3.021837911708689, 14.103571299840468, 87.307009490765623,  3.949004387980226
 0.548111914835542,  5.844282611747259, 55.193405637891679,  3.988243076818422
12.235332377786891, 11.654329021305154, 67.844328809352504,  3.954500147251502
 2.176489650394116,  6.755424093388363, 72.623095270641230,  4.138478847306551
 5.325361183460889,  0.766966717818083, 48.592275800101071,  4.039949935793120
11.710872484618895, 14.695923037700410, 53.245344142670497,  4.010463039108185
 5.211177666376392,  9.617803017933914, 30.025926040776689,  3.742148932374383
 7.745794849067597,  2.887862918065192,  9.706543651584202,  4.081231195137577
 3.601000687139842,  9.840614849562197, 69.351099548451771,  4.100073939847413
 8.712809447255205, 10.779058186196441, 82.620091050984897,  4.137457917343242
12.255344808068578,  2.221618317049442,  0.641185049195929,  3.769715671834292
 9.366377543693915,  7.173589026013404,  4.618462996545917,  4.254540131394839
12.332976642730278, 12.281628238482730, 27.779665815834857,  3.948213492453204
 2.101494960096793,  4.906150329865474, 82.165766506940059,  4.244891847907516
 6.127191152697204,  1.092134328200108,  3.208544552679156,  3.941371683026571
