BANDS
8 8
NANOPARTICLES
cell(1), 14.984
cell(2), 14.984
cell(3), 93.648
 6.284379236004056, 13.521052990425426, 74.104040849994405,  3.994647732236055
12.885645380461231,  6.175016701024266, 77.644663233746954,  4.180802977715498
11.585296296667249,  7.908177813020417, 50.018229959544335,  4.128062893576711
 2.286081955378408,  1.126308092442190, 15.535823805768091,  4.058561740534656
14.222778512231674, 12.147760259048111, 28.649756336291624,  3.804685024404933
 7.478199867976689, 14.894278471879488, 82.775520519660404,  4.275247407401921
 6.289340723911596, 12.310442802097562, 46.364536924975113,  3.954387171354431
12.232437236144502,  9.083322127300335, 45.865850105166345,  3.876190213690367
13.572223080556540,  7.067339828767248, 57.078829858651680,  4.212549836568126
 3.461018151317508, 12.071765879298399, 22.811742649689695,  3.953708368962341
 6.999012637072779,  8.535654644077344, 84.476487836025484,  3.984545666358623
14.286652164459708,  3.520382579178299, 14.618037579835404,  3.796520431085282
 5.762943672813837,  7.980990980611541, 16.244535905026229,  4.093491092810363
 6.316288598865839, 11.835693040104891, 77.725709563260850,  3.977733391038884
 4.302231628651038, 12.216486704164989, 59.089335374676963,  4.011077015358963
 8.913944907259520,  5.539083689201680, 37.878929525811401,  4.274998245358374
 4.785458313564040,  0.892436613311818, 23.052551085141999,  3.995504714310556
14.584660192043264, 14.394391819699274, 49.567402878343437,  3.772777751584310
 6.191879094601966,  4.696995510636459, 30.591572219054168,  4.019932632644980
 8.195789903328594,  9.808527110730761,  3.342648286280711,  4.051767668493299
13.790035273496818,  9.870078320448716, 13.760077049500085,  3.603597586490644
 1.000314106457043,  0.674771871591686, 41.820040008280984,  3.918911767593857
 3.649239554566852,  7.661512629247692, 31.678480290465249,  4.074521518932960
12.353248148714410,  0.132275378685951, 42.866664804574995,  3.708865903272715
14.227259125658351,  3.051008389971265, 55.976004236061016,  4.153120792281694
11.283627801330951, 13.513521889680639, 11.022884861299447,  3.827895019279115
 0.656884415575752,  6.117382152452597, 25.222001228165254,  3.953378526337146
 6.422203827325117,  7.357424857419606, 40.547216546397543,  3.869050993600000
 7.940701051877617,  1.698452284714548, 71.779230502253753,  4.495332583514242
 1.352369161349886,  2.191940478470225, 32.510289946110674,  3.767894225445989
 2.131606232283064,  0.844658121889665, 91.809208960999300,  4.033959031783813
 6.988280758746631,  6.415878873491055, 50.329742996947594,  3.885885298971494
14.293319304885966,  1.833136639008828, 18.163862129958439,  3.987833888905968
 3.454604449786103,  6.155963321719332, 27.971823291651255,  3.878945070951538
 0.013517861014875,  6.774890223768899,  4.965134012381825,  3.941994854635673
10.611994109553713,  9.624007680823503, 38.114253935020301,  4.157310454929107
 7.780807013005060,  4.494547858934501, 16.652096028280493,  3.989928551658573
 7.590574841291802, 11.084089735477544, 40.249157496199651,  3.778478476549358
 7.724733009080810,  7.756634174793661,  6.747421687820894,  3.945021328382385
 2.231415612279711,  4.902425418481571, 58.367079905213451,  4.197868646665423
 9.393200058790519,  4.154417407053970,  6.776132964022615,  3.970662971918385
 4.477264264518903,  8.286706948475352, 52.666098270037267,  3.922565830256983
 0.775982422183262,  5.245618040898297, 17.538168735138225,  3.544257570190588
12.157671729416965,  5.149503968098070, 18.727434521300488,  3.972026093404820
 3.477796230252053,  8.103445614717431, 35.840258198470586,  3.621860613309199
 9.109673432988860,  1.929076569603220,  3.498002564280431,  3.966242044053219
 0.385241301581820,  9.364931849202142,  2.085125287604602,  3.800674770479509
 1.024164046471854, 11.819506228783888, 41.921782764568668,  3.760107563787969
 7.182906021471013,  9.346854355174235, 60.019343812748765,  4.238098095866301
12.115161141542536,  4.149126343243696, 48.413641838334676,  4.091663423864035
10.144861895865544,  6.250661952448270, 66.450758259471826,  4.000914372810255
 9.427532866684608, 13.640334619160990, 53.869572282612076,  4.321355217637119
 9.435334465125900, 13.384752306247663, 37.196182857026365,  3.919174878572585
 2.563324299928777,  5.170720095229993,  8.578662978505021,  3.983671228990588
 1.401048600430481,  8.859869040160902, 91.633951889943404,  3.989146741801018
 6.790864955084353, 12.548537920224136, 30.994368768462827,  3.798060297034968
 5.060867523357867,  8.187100013087585, 80.866343564116377,  4.133546190538183
 6.670348533985930,  5.207265243347994,  9.669551270610478,  3.988375632200734
13.006200346653257, 14.590241262814263, 14.607146071315810,  4.364781064790220
10.771342007162959,  2.715596117380850, 82.871407616603008,  4.185375612839318
 9.783529876965243,  8.734599615358468, 25.400741778268930,  3.693067773825861
13.576551019364960, 10.535707244319539, 70.417070705323297,  3.482333366943466
13.411867438743631, 11.449847359963346, 16.877802344857521,  3.419434998476520
 5.470449193830216,  3.663281382747474,  6.217060499416730,  3.917012771727193
11.620145132349123,  7.481802280055334,  7.296251314362411,  3.911438841028060
13.080461754949836, 10.336060060949293,  5.032179022440196,  3.905722589064457
 4.085879441218713, 10.259675636638441, 74.242726490852064,  3.863756184609868
 1.213125745288686,  4.349402768912423, 84.602802046087064,  3.864414130729153
 2.299167238346213, 13.757970429157986, 74.228775091541465,  3.979878205042716
 4.393170862756493, 10.704150183458518, 62.900834413506104,  4.152765873718369
 3.555505645299832, 10.063297979528695, 39.190517493242140,  4.139050221011770
 2.409764114841903, 13.902424806465053, 45.090145397889671,  4.020330480965158
 8.450361445424155,  0.165972981592484, 78.688905378332890,  4.130987249337088
10.648580249162983, 10.384728812449584, 90.746017416388554,  4.081741363623192
 6.826002629303691,  2.684342240240907, 19.926704979397734,  3.663653179300826
 1.205275936518044,  0.505256940527443, 29.031977205310902,  3.965858579386967
11.225917441330074, 14.025841356882621, 68.556671074774854,  4.223982419711541
12.797595588397538,  6.301362905110778, 38.599760179848367,  3.760149560179597
10.797768039941165, 13.399997278593110,  4.144523564175153,  3.912907215588044
 2.108126769801574,  8.320689634787460, 22.207551617656673,  4.056916948214299
 5.912623237060716,  5.355491622573832, 60.340489389804951,  4.155319526118719
14.362481798126217,  8.076445264804427, 67.646302595502760,  4.055710168516355
 1.951508613122251,  7.103733181090248, 77.321509678572411,  4.110155822363886
 6.905932883440409, 13.624497523091067,  3.004435557765198,  4.010879209749280
 8.452211083394138,  4.859058809788483, 85.675815465278276,  4.250569990941471
 1.634214488022604,  6.502703684195920, 39.056858040379176,  3.938459796658270
 5.530600800335455, 12.757544408286043, 36.868360856170817,  3.990015271886332
 6.692612024008746,  3.348390704711942, 56.926029887981791,  3.901558919528253
12.057283210838236, 13.847346585248657, 83.788079624382434,  4.108367049840521
 0.285993621627234,  8.327850025320917, 29.210297521287011,  4.190853119566690
14.575617780499991, 13.646246181522109, 32.308256716590726,  4.125677167514920
10.503127074223890, 11.072198851881593, 22.273033478501908,  4.209984724959660
 0.115428696498713, 11.543214444007674, 85.440766604289962,  4.124022266806131
 8.649252644802434,  1.703936229153728, 31.030759818581036,  3.736378928863187
 3.812173563835756,  3.442364723519450, 40.702667186791302,  4.242887384931050
14.983360363011979, 12.239256393164011, 67.072350357673983,  4.381161148775679
13.658446358142855, 14.037667961312563, 54.180894785257280,  4.188453370217275
11.933334652223941, 14.714479314232149, 23.426530776971436,  3.896181151054038
13.962551760794222,  8.659386782254918, 53.329848280331561,  3.946341217901525
 4.210896416917520, 12.673312718169532, 81.190423094072571,  4.218832083092193
 3.473197167711291, 14.046668010990146, 33.641492904910557,  4.068280304537140
 5.514983215420409, 14.561715727463067, 63.659318372225663,  4.016770377479826
 2.446632461246468, 13.549302651270020, 55.584262688345000,  3.917429338661585
 5.021780545253823,  1.281133013455265,  9.287251284406320,  3.863074581708150
 6.529284837919945,  4.538759174061706, 93.032517724786970,  3.826523339238616
 1.110616276157689,  1.242419035244887,  8.308350236877160,  4.150682253240343
 8.914279261767577, 14.793993917108708, 40.953456373797891,  4.172500554259504
14.798217548266480,  5.617164090291189, 64.562678318232400,  3.864186287444733
14.683306981288421,  6.513913955548696, 11.598027752629161,  4.567272205903762
 7.807715103876514, 14.626796011989882, 27.831818402538971,  4.005919669450676
 4.491330612677508,  4.945558095670145, 47.786652045200682,  3.824284963638728
 7.225754667563493,  6.815523453091007, 27.429239985015975,  3.853569772040015
 0.767853487917835,  9.401077350603378, 64.140450154289070,  3.912567369897951
 9.619370523461409, 13.436714757689844, 44.608430440983199,  3.547103227208611
 9.037945817989366,  6.809188465642878, 46.894780618067792,  4.150432212874421
11.538903054642024, 11.426574159727799, 41.790111221523880,  4.132774176988939
10.559475564675539, 12.340544028902521, 26.159091680665881,  3.831569583252397
 9.498803112020726,  0.751410801405784, 86.331459276971714,  4.025406718601229
 4.940463111219169,  2.882862077096030, 34.033779669536301,  4.125342623607920
11.227611941725959,  1.962059844837625, 37.492356146940303,  4.002036629198531
12.028930123165447,  8.134956815180198, 63.562868237475548,  3.854124147685077
 0.345549816645424,  4.630153237704497, 21.381508305869826,  4.267374546334915
 2.902985473878962,  8.625954862145374, 84.385001626841813,  4.166778835570312
 6.350639171333280,  5.119857038458020, 44.334004946092534,  3.938067441383417
11.238864314816059, 10.350429844544855, 55.708595367374045,  4.036134807001836
 9.448382336977801,  7.113532914469324, 57.285356940075545,  3.992071761147959
11.903072127064785,  6.689917950024254, 14.969109027825310,  4.157906875273608
14.532684956730293, 14.649327325064208,  4.597535541571607,  3.974527918809960
 5.538474798754983, 10.372634165134958, 33.811019187998234,  3.718487426912990
 0.721554915211239, 11.322297089078477, 60.678057953606832,  4.006044608308261
 2.815674084726699,  9.741098152255548, 26.208600875449950,  4.142571116855970
 8.900996216835679,  6.384551833924757, 89.504856569076111,  4.033300781647496
 6.775119323070201,  1.991559144432117, 75.680135881371726,  3.661336091984211
 0.495312587851572, 13.787997428047474, 11.460398086986153,  3.693154787401423
 8.736226780858010,  9.025510184138581, 10.256803620645805,  3.756335627849916
11.296270245607673,  3.923084307728079, 63.508479263554563,  3.843658006347329
 8.494129778959703,  2.330399212077235, 60.368648522092144,  3.761557638592071
11.239835892215284,  9.523954255940700, 28.946551596265522,  4.133394035848434
 8.178411168654723,  6.605714967777098, 13.259491279636569,  4.036470193541202
11.530802996620640,  9.824033592691482, 82.704345758203132,  3.933553815509869
 2.246498223344864, 11.250292550553350, 77.723928084090232,  4.241315652344179
 0.078357860397404,  5.975149075078696, 50.684018857546839,  3.904530447069672
 5.072645619948457,  6.383916346877237, 87.487655067615236,  3.991907191622087
 3.235650750185469,  2.670591971432796, 74.351329971146427,  4.001337852163356
 3.675989219344517,  8.186151236682749, 66.787120142668400,  4.303755669131199
10.733331857847766,  5.178352805344820, 10.440695288448198,  4.082113568467038
 8.491211392821128,  1.190149224825874, 24.327700005224653,  3.775415625161594
10.859665441169083,  3.715174948273988,  0.220245880125640,  4.256567373706046
 9.450201842582910, 10.697614782925438, 47.898590368030234,  3.712710671047486
11.842220880304899,  2.418804991316025, 78.928861249662859,  4.006764325528110
11.211766280725364, 12.656157016375685, 80.074181870262066,  3.794982561765731
 1.757320039204673, 13.605724668544482, 63.675074754597546,  3.735666236692623
 0.955496233273474, 13.120486646013752, 89.087221113222427,  3.963316942536027
10.392521323141768,  2.926699599605320, 21.467073690054850,  3.915330700762705
 4.649194338149091, 14.339013787065770, 88.500219621040728,  3.833170477409428
 0.151101401243253, 13.460103051876704, 25.193854894310714,  3.804280277856321
 5.427637577205983, 12.247276737311179, 53.100552901958622,  4.266335899587786
 2.136691828104508,  0.084831934705975, 84.776740833547393,  4.107330357967678
10.645710148817281,  5.831897421507978, 30.759478304161235,  4.168200485661445
 5.743027300173416,  8.029081970420192, 71.066901454881872,  4.019084077030263
 8.086052782250201,  5.475461060948113, 53.954539575992555,  3.912947392859949
 3.180778912560270,  1.170890966485934, 37.330963310875809,  3.983266994134094
12.698490735761721,  6.537269760084165, 89.637381205680228,  3.547359553436042
13.749098332569769,  0.763669162299692, 86.983466766010309,  4.050928884051261
 5.195625866702771,  8.488676914072260, 46.105835412951471,  4.008310817909358
11.490446538283271, 12.416488379534897, 50.575698873938947,  3.816344818372150
 4.782722869803623,  4.291956556041826, 78.288597651324736,  4.093923366295424
14.598330873922500,  0.865227281496754, 35.665394039239636,  3.900546198835422
 7.288162542570250, 10.340364892668664, 88.189933258481261,  4.027893439024901
 7.113223126634747, 12.616578308162191, 24.107931529557014,  3.866252160545010
13.906802863326561,  1.171636332433881, 65.126683871574414,  4.382214206331075
 7.895544043722746,  4.925272057266538, 24.171739436227970,  3.788826826741750
13.771320518089336,  4.427403449363118,  8.088288448561556,  3.712211229971769
 7.990241891108572, 11.517152425125087, 64.791575546887344,  3.998484124587698
11.774334481930143,  0.843262842792620, 61.378575857241970,  3.684418049197204
 0.415493327777996,  0.583777944254705, 21.882931936712819,  3.879151711135548
 0.587154531093754,  4.339072222943322,  1.470815868959528,  3.998784118747981
 1.053985512525295,  6.605950948019137, 87.839817644700830,  4.021674190517282
 5.922264626385780,  7.936797463865318, 76.875262150764428,  4.041336767255034
14.057609711753136,  7.848721938701606, 84.749754945195278,  3.671598785349239
 3.944126417551332,  0.274608073157009, 70.790231593111869,  4.212860815952718
 0.028454566271022,  4.267789943825284, 28.666716221929462,  3.943499394505865
 6.345191457681374,  4.975259354201102, 67.482245036894497,  4.119327196843026
13.625478862359969,  9.706017979630696, 25.508435792811625,  4.232976565659470
14.199251234801279, 14.192599878955628, 77.906624886958994,  4.200638740439626
 1.768823601485389,  3.358967276496699,  5.048531602671235,  3.732891343053991
 8.792681152127825,  4.726649260164952, 77.620822896005052,  4.074572999576608
 4.996404249388469, 12.111997179806998, 85.241777779029263,  4.087838576399579
14.574813795315853, 11.454661943515397, 21.902559914745623,  3.974757432621158
 4.824838748997853, 13.964933882147168, 19.643632603676419,  3.817388800367725
 7.937097353019398, 10.994524838172488, 81.388994820036842,  3.954927650986754
10.371999185071759,  2.980187968366475, 13.914126680725191,  4.134238178581330
 8.467126961775941, 14.418409611415512, 13.564269557557713,  3.943510707229263
 8.619877118707166,  9.405686613666763, 52.619949310795825,  4.274580534893212
10.358951631076636,  1.706767831043120, 17.747469198638829,  3.913457930852918
 2.714259800816338,  2.661529558807602, 63.588122633470519,  4.183733593873230
 7.600637031272067,  8.942377901324106, 67.717514319403818,  3.823765789598996
14.198856977758190,  1.267180808985259, 74.404471032784670,  3.896367085932539
13.535696340105753, 13.936040684009235, 39.076024900521020,  4.198206676571878
 4.696058876750623, 10.945699710800755, 42.989561770253140,  3.984103062145647
 6.007104603777881,  0.453227277654818, 93.120659435552341,  4.106278573399298
 7.137292657338453, 14.416975209676332, 57.259957000487077,  4.001454085794078
 4.607180176502896, 12.178014699942251, 66.694199226154169,  3.863821163216403
11.680927295410104,  0.740254249611907,  7.365123451501468,  4.028727444873327
 4.025940691587102,  6.628976434821411, 12.628607182650645,  4.327226077861375
10.060918218508187, 14.559514467541122,  0.312105304684228,  4.173403032673361
 1.494353784978863,  2.182871551616684, 25.379506891167537,  4.081290304308471
 4.705856796363336,  4.227612726488009, 71.034760993582495,  3.846151306804033
 0.525591448449041,  8.980484112906959, 73.273350099432747,  3.938229894805108
 3.271059897642464,  2.416605340052700, 55.224041046826372,  3.956273443418853
 4.995309305587844,  5.110248783013994, 37.298334838661305,  3.687548866708498
 2.780535558233024,  8.294664178943290, 49.182053806045317,  3.823097671557157
11.648562033044943, 12.461814216220866, 87.511095133591155,  3.817327856949011
 4.895803957494270,  0.789479474666038, 47.590866630966076,  3.866521666073289
 1.571889282403750,  4.427532566716281, 35.675469208175755,  3.980553959016152
 9.653955413745717,  6.372252146001409, 61.069298548164880,  3.730078509831061
 3.902966076713341,  0.197442985892012, 77.762731011261465,  4.272331789400615
 9.522065169235848,  3.391475727496529, 27.519630488577288,  4.247772901315424
 8.897793154593622, 11.871385610198963, 84.997273040844078,  3.710168176718129
 3.879124131562251,  7.744642452698091,  5.622000651438411,  4.052463215722736
 7.756664460695736, 13.912082386468349, 49.892965734544312,  4.318749991664542
13.746745289342664,  0.927808338282627,  1.002608381787446,  3.791821635025698
14.758874129207562,  7.513071572317890, 60.903456823893784,  3.838984118811014
 3.196351831350306, 10.057767013821806, 18.858913671620812,  3.771334995773400
13.282395141428633,  4.262050052692829, 67.858910940995798,  3.880577142989428
11.189484366979741, 14.948293658065003, 34.123925367495495,  3.779836070859985
 9.155789613018271,  5.855311468722362, 70.403569244108709,  4.175196992450410
10.099654085644231, 12.023941397529732, 76.351796183988185,  4.029853950477837
 7.395873417902392,  3.512375998980411, 81.041815604868120,  3.640970775716049
 8.892835864483494,  1.559823628826775, 10.179798173889825,  4.014623563696577
 2.303334622254477,  2.620311700455070, 88.086598400919442,  4.208348827042412
 2.135854097035174,  2.934190455979357, 11.905806488441582,  4.055504861123088
14.783789637130541,  3.032555648454702, 38.927048641387898,  3.911241744833088
 3.955749707281574, 11.253148414023645,  1.737507053529540,  3.963470362514451
 6.868718117468560,  3.371386371067159, 63.775581667730371,  3.997430524899190
 7.440920647688247, 11.378968483286691, 93.250818739512297,  4.179076196931662
10.325734015251182,  2.695633429108144, 89.710627294203150,  3.875176825688749
 9.932083897115179, 11.128983719677324,  7.247101941671295,  3.926665164775226
11.450432513399919,  4.031447042103821, 58.701081230119115,  3.827250039199677
12.203975101500617, 13.708874698897167, 19.601310199623065,  4.010197982914512
 1.759538385783955,  8.356528919571243, 15.653256136682007,  3.978696101008183
 5.331750959842602,  7.205103368915262, 56.546574145926314,  4.312735007043310
11.913693792144452,  5.473997813793934, 44.491411327564350,  3.804834230960609
11.678476822002429,  8.695707514569744, 74.560242250242837,  4.140684902225536
 1.535857994422152,  9.972070701063087, 45.337630268414848,  4.030510709206227
 0.149360240649809, 12.461205156141245, 93.154957853602383,  4.215714336776196
 7.064087440599739, 10.596057846384472, 19.832183668680603,  4.268758938293216
 5.651702075467209, 10.180725825619270, 12.918513775222593,  3.490154432100012
 4.931680053466618,  0.913975600815899, 30.367672561549433,  3.963565568909612
13.285116177484765, 10.230286967306029, 77.919616011476151,  3.900270793692197
14.827052636002511, 14.222667993341982, 70.898421196188039,  4.235550125213170
13.023044228972015, 11.766748645722785, 35.582013094229815,  4.021446760921486
 6.412217364800200,  0.824349504803664, 16.670261290335407,  3.842845459595662
 3.258688912242425,  8.536736217173841, 59.722455474890118,  3.720863698254167
 5.342499156614612, 12.029922893814213, 16.249990203720991,  4.037568458849616
 6.724291770825985,  6.577547737638710, 34.151113671735914,  4.059121786453141
 7.395527696272133,  5.682149515939535,  3.200528892923357,  4.289949801209787
 4.926251466825117,  5.190843614780410, 83.587259638560155,  3.961845302595464
 3.849197122220608, 12.084226052131774, 91.543880772182305,  3.887026098980417
13.554448372050222, 12.303526547730982, 74.317687571218912,  3.999758469842455
 3.709098756418830,  4.445180539565778, 51.656396135634324,  4.131645034035301
10.490868319502487,  9.155883469404648, 17.987671551192225,  3.993501797074239
 3.709348129178177,  7.101477726312762,  1.475965938706199,  4.329714693455918
10.616996162535205,  8.623867414321918, 86.492150574939586,  4.193136752004204
11.626654507971242, 10.708310327857710,  1.148900686523910,  4.276567046526159
13.912442327531441,  3.321326584646332, 91.112382035358920,  3.926161671590666
14.487716111538868,  3.592242165243674, 61.181111242364118,  4.039230506938352
12.465625680945774,  9.893114306742946, 10.249939376346713,  3.897500287794599
 6.118683687480757, 10.087941922719581, 49.537374673220029,  3.769587117122986
 0.576464333574819,  5.949450446335392, 46.481214711591804,  4.550405118520559
 9.023301130853222,  3.384037571426445, 34.437108442670869,  3.827703549501793
14.757402659095893,  1.810551184399636, 81.794783140949235,  4.225666828992746
12.819216505022343,  3.384751027451334,  4.371416064897891,  4.182860683889611
 5.506835383368099,  8.119385558351446, 91.271328908345325,  4.360770032762384
 1.919815758664911, 11.390045497941168,  5.175645507887866,  4.021805624170923
11.145113519087644,  0.204418340754248, 47.686869547088840,  4.149180073784677
12.571950725977546,  4.610774939932606, 86.327640901709842,  4.101542115675221
10.016213202251420,  9.664932638820469, 70.487400468669918,  3.631700894066542
14.212308401053242,  1.962357857885445, 45.686291826884336,  3.967775006469926
13.605165373671360, 12.734375871353647, 45.594760011626754,  3.934530910129318
 2.952624600336818,  0.368204817910604, 51.771102179678074,  4.056799350174883
11.139944903750285, 10.304531320440342, 66.877376531355168,  3.925329239353176
 6.574751333626168, 10.728678631839315, 27.541854652313148,  4.003238170789922
10.057324896079734, 12.995006487684556, 72.412234408777550,  4.053018336400431
 0.188095570680214, 12.749845975157005, 81.546254764271438,  3.849965188567491
 4.030236435636403,  4.879676876772418, 23.335073797105370,  4.080109364890830
14.500645647299452, 11.679705384615131, 57.120822360235195,  3.534538796727549
 2.804489543955154, 11.045379834772545, 70.323748306682887,  4.526226498262811
 0.799171637175309,  3.113897288110581, 77.907748268381937,  4.225923625423444
 6.189747787019557,  2.885918204163012, 13.124587953642273,  4.361174419486873
 6.798338413655354,  9.085678705527631, 37.143849911944088,  3.750538332697404
 3.968917995467096, 13.780713691026554, 26.524817327407789,  4.241306362871781
 3.053499427733687,  2.888456307558395, 44.745846377461731,  4.044270703856997
12.524287555652045, 12.293914801171603, 63.355923609159206,  4.527377843650531
 7.186327557423913,  1.731298982123443, 37.686703965201225,  4.079950445857418
10.372449661740184,  0.839481565603629, 75.215365550656642,  3.897293388843220
 0.995181225929828,  3.153289918610555, 70.906300394688515,  3.883803649733770
 7.511914265783414, 12.737776556218199,  9.993735442638911,  4.067876270177195
10.848598933537552, 13.416893882749410, 30.436753720501699,  4.223777237018973
 3.960158941526817,  1.853592174647904, 81.579318156955850,  4.048239110467061
 3.113913809728604, 12.447356248095732, 48.772014704836387,  4.011338508142175
 6.115808376309825,  8.602671939855391, 23.614297983812637,  4.451638061928859
14.179453850803005, 12.649687294009560,  8.026467766525217,  3.970467965400566
 3.905741683612757, 14.960566625433273,  5.501140007216030,  4.157167279084264
 1.672695664952573, 10.522803747758873, 33.639833339121040,  3.831060282889232
13.997241145206885,  9.813391249316268, 88.777793089531485,  3.692556732489150
 0.460204066946884,  0.151765224962032, 58.899852787514860,  4.422949791896077
 8.464940927342441,  9.793627138927006, 44.048605227741845,  4.139339000577776
13.217822728886262,  7.093309639058686, 93.352599470029915,  4.031172101012314
 0.727406192618614,  8.846397139467330, 80.860552341200204,  4.125500287970616
14.522474670464000, 10.535848225947886, 48.826999127107499,  4.082011029722743
 2.209282184376600,  9.654189790218281, 55.576533067051891,  3.835254444327250
10.267040912751572,  7.237615285311940, 41.411555036059433,  4.012403352604990
 4.946255554308245,  9.060644669359601,  9.316200288420045,  4.053864785034794
13.219038247249925,  9.522121706901842, 32.391735770985711,  3.731435898490181
 7.778562833514336, 14.973916793533313,  6.670661340745466,  3.926940567539004
 0.244940482902788,  5.791596065874855, 32.292013819182657,  3.776437999158488
 0.079107091213417,  5.068180493176600, 74.420791543387864,  3.885916560635586
 1.999775040186261, 10.080141930353708, 11.786232868792121,  3.825640735405712
 6.699316754416508,  1.800481031976080, 52.867725384737213,  4.209246888830110
 5.392277323757140,  2.800368195111113, 26.704989159090804,  4.232352880309543
 4.241764776739997, 13.898595275282176, 40.417742963892856,  3.886620167130975
12.788805241430950,  4.083578938469324, 34.605920705452988,  3.757638760648484
11.090130814806411,  4.647197364759269, 74.263159953102303,  4.061168948579665
 2.638218799978477,  4.936742605491893, 91.592027307000890,  4.214382972801564
 7.110863520992992,  5.415468459491390, 73.949836278420420,  4.039905039802343
 9.389166742973822, 11.288664594450863, 33.740352341499488,  4.158065994681394
 7.059593132659135,  7.525274343194933, 63.929683863204559,  4.324546530176807
 1.094338667249416, 13.319250219579098, 18.741636678398752,  3.948838725614287
 9.406131020826694,  2.339809050431852, 44.510424670681260,  4.221911278747995
11.322548808994933, 14.034013544669483, 57.770299319762081,  4.361141762948352
 8.287463968592981,  6.444567887362795, 20.367600446372290,  4.440696119876772
 9.721476045331949,  2.711442040973253, 68.050990894187365,  3.752908099401154
 5.933514185242568,  0.275165532493114, 43.728835464979070,  3.982544053022792
13.174188973891297,  6.459052386642626, 71.193865748215302,  4.087311169851067
 4.441661950421637, 13.916273217320047, 12.617784102803288,  4.340393415558569
 3.988883753949026,  4.535442498466492, 16.091641933636012,  3.639424480109593
 3.098403061242497,  7.110958202992757, 42.823517457502604,  4.198161955270836
12.035225511071598,  7.114755958307910, 22.522417679256534,  4.288585866103412
12.754610597625852,  3.379669197966531, 24.541078013670219,  3.867324216605018
 0.099978576328615,  4.410148366618171, 42.580281130907473,  3.879975743233517
 8.540202175543630, 13.296342805208209, 61.048437929342555,  4.360541228432859
14.429860019829418,  8.529577829418944, 19.080763635232163,  4.157335979988453
 9.623571732575380,  0.375464878085952, 64.743339326558242,  4.347179062758763
 9.094447669095931, 13.010135608318999, 17.198111835242067,  3.946566424667133
 8.488285545014893, 14.364249678307093, 20.887505348271418,  3.960598676557447
12.103722423805912,  2.332858085535161, 71.110071778830346,  4.013416920209510
11.555152546684093,  3.476390234071402, 41.158253996869590,  3.947806921605443
10.190167360492991,  2.462111609599412, 55.367871802683567,  3.949142297581568
 3.170898885601525,  6.606860046695551, 62.961179105554578,  3.817395493129800
10.620794934394219,  1.832124631765932, 51.403200415615650,  4.001948750530239
 3.089661027615394,  2.433543908020129, 19.237830430494519,  3.949591837750156
11.455712158250742,  9.787325804272125, 59.848443575059243,  4.329372943875242
10.703359246018517,  7.446343860883827, 34.585356459551669,  4.128524246849357
 9.798042670030711, 10.467827622615587, 13.944921668128817,  4.418793487002208
13.323912943357062,  5.669137855723656, 81.681094693787514,  3.972920857176759
 8.471076984304553, 13.952641521947486, 89.985486746957690,  4.341758115000878
 6.386006290569399,  2.727118662706143, 89.547128887487460,  4.002844138285939
 2.570330687242615,  0.500840901125929, 66.991427831809119,  3.876536984571659
 9.646085188699681,  8.632327508861954, 78.589558104015950,  4.128883537228789
 2.036453391847604,  6.904922289778571, 70.328093051633488,  3.845682760669555
13.201535249078432,  1.959962634409505, 11.115830424871286,  4.030376097314234
 2.093173909106687,  5.188399157665714, 81.012481948056930,  3.671187253975000
11.338153089663193,  7.127160902159396,  3.310326810958435,  4.099452984394233
11.980087323691649,  5.225465163624690, 53.041741249868409,  3.983753997026150
 6.496794842195436,  0.568894613411185, 67.542059834532935,  4.050598381454678
14.587652503064302,  7.863893160439369, 35.575813581173897,  3.929601605750162
 1.587934371307186,  6.009940417753747, 54.622323338327845,  3.714051347223712
 1.630213621932423, 12.627288623083837, 36.837969751934608,  3.776528168017423
14.115019529702574,  8.275698682207686, 42.424030495559343,  4.086375864136225
 9.433578522957335,  6.555072229238981, 82.043784534227129,  3.921985517783778
 3.276635297494456,  9.970600649028333, 88.238780038173005,  4.026423492677308
 1.475179300600568, 12.240037079616648, 14.965397051303471,  3.929286438858278
 4.563633584184683,  1.334874792824029, 59.953667172623696,  4.354696176849028
 7.384222414884087, 14.719519743218290, 34.060540770686245,  3.789683004135012
 8.098997635546137,  3.052729717825662, 48.436195615834976,  4.143503656760116
 0.856881663369697,  8.897346782708311,  8.217818611330967,  3.992779633193346
 4.420914155973944,  2.964530652013146,  2.269312871150520,  3.978603228924317
12.214688985716599,  6.277567874518983, 26.969711837549717,  3.709493026700869
 2.290791300648873, 14.777481983523366,  1.898623045739403,  3.692732722854483
14.501215498243345,  2.356628294106500, 52.015809237780552,  3.882068434030041
 5.975616297835090, 11.485147758782038,  6.238051808224592,  3.958791846828378
 1.619221854200910,  2.550798251299288, 48.734369874073963,  3.865414378304511
12.570374595998596, 14.581454910266700, 90.703006966037350,  4.028746839677473
 3.001381711745491, 11.536126511616462, 29.978462368535041,  4.214717109320286
 3.460565679479366,  6.589915331264679, 73.792710030119153,  3.630830851116152
 6.943842058887700, 12.167332554184490, 69.923564040569573,  4.080784411516293
12.588941890420315,  2.177870811399331, 31.158831269015611,  4.125681087694769
 1.400104636156393, 11.623957102125461, 52.291490447863502,  3.978460094036868
 7.931492531227414,  9.923542864845999, 73.783758895034183,  3.895544943249198
 2.230383510851742,  4.369295142222314, 67.371259487571905,  3.920560280872901
 4.163301792904850,  6.216662747172223, 19.481024309496814,  3.928002272891757
 7.699596937218663,  8.737995284749621, 30.867206213869760,  4.031013825030858
 9.136553562648485,  7.548484176881316, 93.455003888906234,  4.180520051694625
14.545535865355189,  9.988702529402371, 38.848310706024392,  3.868654995996426
 7.389894303158128, 10.672237176227416, 56.240144431768471,  3.746905905598444
 3.134962379117757, 12.657498130848264,  8.818853826366068,  4.060908603252313
 7.735692272101107,  3.572848695272700, 41.148405443844901,  3.648641425382116
 5.552470203543690,  1.967821860863956, 85.751931258546691,  3.898675089760078
12.563903324723210,  0.552843253519548, 27.328749274517065,  4.034642328592751
