BANDS
8 8
NANOPARTICLES
cell(1), 15.029
cell(2), 15.029
cell(3), 93.932
 7.758912220758111,  8.855236661378237, 82.320700069380777,  4.186643105257467
 5.730511862423024, 10.234435781198286, 22.862968121654994,  4.298481076449747
 2.367125651762362,  7.634858923633931, 51.078589144003281,  3.886772021542357
 2.940447112849004, 11.595945752176961,  7.652578977092950,  3.820657787747061
 6.721138249624272,  8.613422362085048, 10.755349261418351,  3.935833446958059
 9.989382753623103,  7.470842487815289, 88.114280453928600,  4.066199714376102
14.231103071840460, 11.556103178285680, 21.196717433206636,  3.760253324917066
 9.128259406498978, 11.715463950824748, 74.490928313048684,  3.873558243253681
 2.014836519798657, 12.013419124674945, 40.374478585433927,  3.913773455806200
 8.470958645587482,  1.012675426234463, 32.861631499245448,  3.925037800379263
10.807664601849806,  0.468219246278358, 89.271849469773656,  4.284172852253597
 1.402109409216931,  2.649395140149815, 80.134659724484180,  3.909152894320609
 2.871731571378133, 11.713786275201070, 50.806181202670139,  4.321433831537484
 6.380013020590740,  4.096125885229586, 33.941078064073835,  3.827257552159414
 0.107681996855064,  4.580863764974207, 76.923120262181911,  4.016908697870594
 6.885577319792144,  3.223202139337431, 12.406268134230597,  3.826249740223302
 6.942414592997714, 13.862705805076317, 21.541760324048735,  3.784001025248217
12.088514714681336,  7.337685694043429, 76.498229496992394,  4.241186880189105
 4.190258864958246,  5.273198003464714, 48.506578525408180,  3.990856883778094
 7.048120209103871, 11.598851008890668,  8.075613633227498,  4.088217281540402
 4.847542483227913,  3.552847049495457, 85.292985242386933,  3.942727290790913
11.834352010497890, 12.805565198014008, 45.202542293338496,  3.924916504102601
 6.327773991672680, 13.103421091154006, 49.172606598718303,  3.794345035118139
 9.915942439481848,  5.287027377602440, 32.492603861933240,  3.905605880528959
 0.671824414842483,  8.482816255775363,  7.342935208524393,  3.842769339362806
13.718596641167402,  7.120135949428938, 49.336850693211943,  4.316447449903198
 9.088007362808701,  3.916518514333398, 26.247691061361756,  4.046735484172322
 3.189426138403331,  4.455088537449492, 61.804002059627379,  4.012095112884378
 9.798953851576039,  5.429882635621486, 80.609936000035447,  4.464370027315876
 8.279352954277989,  2.183065283800455, 15.896949411112923,  3.953569662728345
 4.112601175595976,  1.447428504555740, 50.489946159828307,  4.536916291955785
 1.999020002741330, 13.274514226082601, 24.933874444356338,  3.910384157494625
 0.150831717226221, 13.303241649588797, 86.218211855113537,  3.793173541468507
13.973741487197044,  3.280923338921108, 64.042897923183418,  4.023247101331824
 0.035499229186613,  0.617126210224360, 27.158365919730343,  3.659855139005218
11.708891373275852,  7.059604188707973, 35.565111228135748,  4.027395850929734
11.078377346195719, 11.855522702823919, 62.154250564834861,  4.095796781871607
 6.677810712422908,  7.063696128547481,  3.470252313377598,  4.040161336020239
 3.402826923485578, 14.154622884468182, 57.391306420459365,  3.753213413947827
13.322811947982652, 11.930636012054428, 33.884863575736837,  3.616143799248170
14.889411426546543,  1.571663620754940, 89.636255933139509,  4.141843273430401
10.332618259324510,  6.229181451051232, 42.845475666784530,  3.647900090070824
 0.222917456194600, 10.336744561987107, 72.215020730385064,  3.834336794028311
 3.308344102931113, 13.162011950189655, 28.958801031623953,  4.349032926437577
 7.091937314708360,  0.796955497335740, 67.384136174114374,  4.143613300038047
 6.047802443366975, 12.329789365975691, 41.069103272386322,  4.190011086064784
 7.995274802353544,  3.604928034625784, 44.440288596829951,  4.022996778516175
 7.687341953195158,  9.560845760095173, 71.210258993244878,  4.226657877856797
 5.851522063771974,  7.725588869911395, 60.789858799684296,  4.416016538540842
11.912268131952917, 11.776829860142199, 16.426809472398919,  4.018262995002866
 9.127884626404873,  2.293898586642450, 21.078268805647653,  4.327776161407845
 0.059553702958041,  4.414608811333193, 56.134242258996423,  3.963278870844550
13.323347884768667,  2.286618322931348, 53.430761810102112,  3.760081308464958
12.766675061869242,  8.862286259507579, 45.589808585875744,  4.164202535405097
 2.104995342432385,  5.814427593062675, 87.154300274392170,  4.045175923692945
11.340808918843244,  1.161669476379896, 39.068826057599239,  3.950876377396509
 4.338492920473803,  9.231077929109063, 39.215416275188851,  3.663196972923479
 2.509944657932856,  2.915405397579547, 36.201718003970804,  4.187928382283311
 6.295737013891469,  4.721792406840478, 23.314684842487512,  4.188024193629556
10.755261233309559, 13.749395850981577,  8.750054535951708,  4.307024183440070
 3.289085307954679, 13.983879850519076, 79.459979961906882,  4.027257187432513
 3.753603995661853, 11.371864577149015, 61.524252016256625,  4.115850485761960
 2.543348725952759, 12.804555210464724, 33.103750992990335,  4.050059610324236
14.040708110045976,  8.308552361599970,  3.819401030254383,  3.740417952660801
 5.016786293554178,  9.714249714583604, 75.965639988201573,  4.031940519043377
 5.998972277198385, 13.786388635529475, 63.973893678400380,  4.097290890610754
 1.596005055985268,  7.728746524603721, 14.796019541981510,  3.968464102768949
10.189296972080113,  4.830983308951578, 17.973117547996218,  3.755984239570360
 3.125428575800376,  2.322122864806468, 11.668685487473393,  4.024350334491239
10.946288964840567,  5.505002127155540, 23.038119279777984,  3.991145294978919
13.326189244762466,  7.609012369466790, 11.673731623623173,  4.150472643783440
 9.532704429798818,  4.867829997397715, 56.256157128644887,  3.984106210267856
 5.485059446483277,  0.637104641432623, 35.129887440964559,  3.597750772214170
11.812150174092077,  4.980164343311777, 38.855526825361721,  3.747636374488839
 8.293783349924242,  1.270347957973217, 79.012371847665932,  4.080346066998824
10.513803614810666,  1.568292444006700, 64.865408549368510,  3.827729776691864
 7.362709728870406,  3.530774362288611, 29.926047023585344,  4.103941090563472
13.975554491507308, 10.434664429268816, 51.930916404711233,  4.111431614600924
 3.120555678299652,  5.180984926182624, 20.735319052896468,  4.016037852468267
 2.856490566789680, 12.981818545211013, 20.273354322690928,  4.212299272636232
 9.695149448266365,  0.607768038385314, 47.313522415776006,  3.868351507873279
11.968806025383657,  9.989059906634569, 55.504610563151097,  4.102562513351908
10.869866754608930,  4.907686136792166, 73.337145793281891,  4.044870934674598
12.051439903826697,  2.305538356065334,  6.636854264284045,  4.269301225462707
 5.515195236726324,  0.489194382513437, 18.286572875578109,  4.051000426623149
 7.261670737995356,  3.715419336525843, 59.671463877334830,  4.319680098600086
 4.596920149927961,  7.825697261343723, 84.726044902994900,  3.971080977088790
 1.085670608093872,  0.406812594872513, 14.834479922134832,  4.408690600278986
 2.677485661422799,  8.613061056042758, 68.289678752026774,  4.166680328906893
 5.583200053967752,  9.600103878805538,  0.528049957885439,  4.023474175807044
 5.735243695345154,  5.310921550783752, 81.822725972945079,  4.006871564458711
 5.173809349983041,  2.041102498418303, 26.539618301241045,  4.441409476664504
 1.057242966103348, 11.532358953115180,  4.222447649721950,  3.932166379543241
 4.767637800419341, 12.161959650685338, 36.652107667564707,  4.165017057033171
 0.574201098456949,  6.478242369339771, 36.097641843609686,  3.917156083511000
 6.417564195509493,  4.340118120522650, 18.732551914308580,  3.871487939049143
 2.823409504342058,  5.577031937806321, 32.873775587787719,  4.146792148974201
 1.635510294914087,  1.797371909343149, 18.917304684307126,  4.210729670316455
11.627075554979021,  0.110070439505827, 68.592186422408076,  4.223729817290673
11.215897032561012,  9.561595818910853, 22.638538114523598,  3.824266416669495
13.114284421581228,  6.662766064545113, 53.492881926227192,  3.964783140090558
 7.212092780658848,  0.032583205515616, 57.652766612113638,  4.044084290278795
13.607174888024382,  3.162067653838226, 36.128107053434569,  3.657898614767608
 9.732262463271679,  9.633701099269990,  1.093364495700823,  4.071469348706945
14.901714081864773, 12.452375293993539, 68.905514536738579,  4.052356208254824
 8.823890981778170,  4.340127700731602, 66.869388844034489,  3.775850875625519
 8.146457178237110,  5.738040349289462, 84.982278047358875,  3.984818120978741
 8.197415616864891,  6.299750378347664, 38.048945644749580,  3.766338425999914
 0.118483562162161, 10.793594686066299, 58.228654579279898,  4.421677120205499
 8.300214637968265,  7.648038795509405, 74.826737781044969,  4.033585801398896
10.614766517651795,  1.937241741816088,  2.608263185393040,  4.273414001633927
 5.890066776908459, 14.401677223714326, 76.237211532314731,  4.166402271645712
14.415892817873440, 13.787242655198071, 30.576123200996268,  4.223572429947255
10.100090709083087, 11.453733547956434, 84.255020460917450,  3.705444968544714
 2.874203565045727, 11.260070836613677, 83.469497823132599,  4.102784125043737
 1.325077501262008,  8.515328176672369, 54.895597689643246,  3.988632419028947
11.459510566933094,  0.235596571669702, 28.215925321994291,  3.873793680806347
 4.458089430347561,  5.124791595701590,  0.925989254888813,  3.711651365068400
12.380140835402985,  0.642139298130297, 61.764080124503280,  3.628762656197655
 7.689971626596335,  7.236419577961242, 46.243003276281513,  4.057646534395229
11.083189658315803,  9.288943338925586, 32.366982082424450,  3.852622925926362
 3.632141443115505,  3.858761872542256, 15.786905561312620,  4.268547095706796
 1.004796060438440, 10.945050518714627, 44.127395858197644,  4.079677955288225
 8.424231726790074,  1.040560634264384, 92.782729968689523,  4.275948032867213
10.766795844044822, 13.880022276765706, 77.180601962946326,  3.737883272388484
12.091395870535647,  7.783303045590551, 19.456042106212816,  3.671509977783107
 4.210072948478902, 14.600767688557982,  5.505039790579854,  3.933102039373628
 6.752904325499467,  2.772396983415739, 63.730379464431650,  4.057808740809079
13.240427428616750,  4.123752777882506, 83.839094388347306,  3.845845053138635
 2.392422999179931,  1.393347311800548, 76.363689491933911,  3.904944599794566
 9.881554332540562,  1.067302375882328, 54.799386897309397,  4.031936033522407
 2.568899298826107,  2.221440291311314,  7.875905460633032,  3.626755435571605
12.063079898718202,  1.849095229618719, 31.660741904265013,  3.811441120650505
 0.226480374128884,  4.295530192532877, 13.482555652601668,  3.859663257319633
11.546762946566064,  8.879937889648481, 72.648854972620029,  4.111973227094931
10.790102004044281,  8.611842641432434, 39.848907054037277,  4.049296512755861
 7.947464587429335, 11.386777455796006, 78.350425528992858,  4.136534490728910
14.649185924898557,  6.652408748127486, 22.079325099560510,  3.995170620395081
 5.535240056911800,  4.490352733310583,  8.911282761788183,  4.072764019435592
 5.813404652479375,  9.032922535593139, 49.374706740008442,  4.054386188549321
 9.740247332374553,  8.522698573212141, 13.297134551670222,  3.849395586933257
12.610351092552380,  4.074250910469405, 67.944786741645544,  4.028728275375013
 3.386250263027013,  9.175565660165894, 30.069355046614994,  3.902227117590453
 7.410369892859065,  2.887948974858322, 88.128472283401152,  3.790235292576679
 8.320835944332128, 13.701268676529038, 70.769918012674836,  4.155886626859409
13.588126528378993,  2.349028369776605, 71.579004434372365,  4.207236846748569
 3.216440802049970, 14.288852507049818, 43.420177226222712,  4.049284154588420
 0.396969599225380, 14.679124646114476, 93.552677763411140,  4.020739419982104
11.409114415006984, 13.483804063677976, 93.147574720885260,  3.636620567572599
 4.366484773594536, 14.552479207175862, 85.519432011436422,  4.176855390147745
12.110459430613988, 14.785349635797040, 84.273624653372238,  3.997474526644679
 7.490664327424201, 12.885889390443367,  1.777636157074591,  3.941689641192800
 0.447000495657032,  5.233676819804795, 39.847329889730240,  3.852820043704637
 5.930334341968279, 11.572199589301199, 31.641089393297285,  3.727652443670940
 6.757240757058796,  7.180682641124386, 41.601385279842681,  4.077391508492961
 1.932041935984492,  5.186028587464216, 83.134739887514613,  4.004575998567754
 3.813480438977169,  4.696640382796694, 66.000222164647639,  4.214896467919408
14.482498830183530, 11.038592343658456,  9.911289738892664,  3.778314951276413
 6.415151035225910,  5.597915694845408, 51.889887197099370,  4.130580694450778
12.681609036174381,  3.700700330985827, 10.545149869665343,  4.020863516813835
 0.496784842420259,  9.756473997313162, 24.296625372484467,  3.829294460068120
 4.401262846828727,  5.627121575237338, 44.512355625786327,  4.028673178528075
 6.298974654622080,  7.030278190053287, 31.457132361077939,  3.812716082128911
 0.472373798956190,  1.275661289930851, 67.819877719930673,  3.998683280733228
14.927661039168090, 10.930629560329988, 62.464368828194857,  3.844713813912531
 4.056667518846631,  9.282670186067580, 33.979359872296534,  3.801619063745066
 8.436727867499686, 14.537264968215236, 85.872581983563322,  3.983901980717915
 0.135434657545726, 10.703196186785942, 28.129030040263938,  3.774359150293912
 0.334525451989828, 10.150432067423566, 17.727179787951265,  4.037825180744711
 9.275028597946733, 14.244828848628405, 18.268565970302852,  3.853328067054535
 7.948333423698961,  8.532506144159214, 34.771922237603562,  4.172561703928911
 0.317263849682419,  8.864069642430582, 32.643094325637627,  4.123939614542472
14.439071833458854,  6.913442152319025, 62.096356885442944,  4.247075967953282
12.411049272742799,  2.164685325309581, 92.819954159979702,  3.966566307741736
 2.766916858177332,  7.602444405630841,  4.110827832186581,  3.915786298372389
 0.189836252501375,  6.444656752658624, 66.022278527913016,  3.812790187842493
12.590327154720763, 13.511934269036569, 53.896728729900900,  3.656109571693889
 8.171137717640308,  7.011056659406687,  7.198387308953902,  3.981317823515217
 5.239768459042468,  9.315200368519237, 53.543822462947325,  4.338183089545118
11.360772781666689,  5.003763261811147, 46.453026415181348,  4.214192724161994
13.393203056538841,  3.019809911769485, 16.706637026392169,  3.974224576214810
 1.226629053929994, 12.577584648946344, 54.552656988144570,  4.007566051939032
 6.159763482612535,  1.310137449585165, 41.852917595231538,  3.775778629351408
 2.540613093550438,  2.039590109484732,  1.844354708495972,  3.730288941806071
 8.043942895971330,  7.682327715192819, 91.772910630732426,  4.208882338563350
 3.539660092321094, 13.344671036923275,  1.742146373470019,  3.964504290285950
 9.291038779698333, 10.867252373919815, 47.679560291910022,  4.150998438643756
 1.591576581831821,  2.917813183642634, 43.408824302629348,  3.947905009488485
 8.173001146532764,  7.456099211843544, 20.728765939618153,  4.211952141569387
14.270973571036320, 14.497962431774441, 42.460353760156039,  4.105928353068245
13.621147597247392, 11.440294687644265, 83.454336602317355,  3.457580214956345
 3.432304569642633,  3.088601171016681, 57.954712735845376,  4.144935215987110
 4.783802809969876,  0.569194243420358, 60.695344398891194,  3.772974101727371
 9.021367293891551,  2.737560531715457, 70.458173890245533,  4.048451180021698
 0.168041393792943, 14.872039077163988, 51.069495077549206,  3.991673727443361
13.875988932050339, 12.613504148469147, 90.244510862527250,  4.174723159988183
 9.150323288882969, 10.133241440566966,  5.027247739234689,  3.872369679106411
 9.303090113450729,  5.705416566778510, 10.720063215697575,  3.834012365096154
 9.991600884538490,  4.336362735009266, 90.575328923178461,  3.886989849630666
 8.951545059730201,  2.271109988422408,  9.195042978687733,  3.705489834802018
 2.457526303488667,  2.923403886264849, 72.736886585057675,  3.936361535517361
 9.146913695094655, 11.672512995139591, 25.038312360259798,  3.688689725737366
 9.230481754897882, 10.042844329632072, 43.497326420427385,  4.374750662059876
 7.950612572771863,  3.918812883771178, 48.504785641273479,  3.983205687924461
 1.323394357321558,  0.372603842888052, 47.405132767408112,  3.644702826718018
14.185473426209773,  3.927036009662234,  1.993157469192530,  3.990749096261069
 8.265168246565157, 14.444449147504125,  5.399341370414137,  4.078702473846485
 2.471210476943855, 11.956496213823543, 65.571076785854942,  4.449841803000066
 9.543757910935144, 12.888644281640431, 65.788102109554558,  4.050032861292058
11.046190482673667, 11.007167816753192, 69.122707252282055,  4.171149578352291
 0.880153945111562, 14.368989136276651, 60.564101036843958,  4.248347403088620
 4.983734486357329,  9.778517766476945, 44.364507249789831,  4.043428731579281
 4.098472388798426,  4.355233558494335, 40.782532070476783,  3.850168446458082
 1.047476316014998, 14.181432842695976, 72.378368003914787,  4.035711457195585
 9.955575055103525, 12.353654475315313, 40.292340667554882,  3.652198028206781
 3.864852399142484,  5.487545202061560, 75.556687198282532,  4.145786413049989
11.278791290744543,  3.300846063000442, 77.053593098396547,  4.067220388268667
12.123587149922354, 13.429895210586029, 72.279209722265264,  3.937763940114515
 9.054045666958721,  7.889348511700029, 53.827301940307272,  3.821351004694512
 7.582344189367511, 11.587280367974326, 59.853704627885342,  4.188177187191310
 4.460510076839301,  8.098908190774816,  7.658494367702033,  3.798037043869058
 4.711935118256320,  1.896270807094330, 46.186261750820307,  4.150122110763051
 8.179310282629842,  2.262296125089730, 82.957350278176051,  4.047300484541962
 0.155064762671827, 14.662326334981190, 35.708068420230099,  3.927413130878501
 3.823723345287453,  0.269673607315743, 38.991270211696119,  3.861837474794909
14.662504504494368, 11.781155310293014, 47.983276942952244,  4.266339557901400
 0.179132133705750,  1.461515150949970, 39.147127392498732,  3.796718435229777
 4.105878724161713,  1.412381376019917, 22.171344241544620,  3.985679518964306
 4.383393601846152,  4.090713684012536,  5.046284054424522,  4.027495450503799
 8.241373935632110,  3.396353629755219,  5.616745904286562,  3.892653825828594
 0.398694706186330,  4.743498088006615,  5.803281567617883,  4.187970994327682
 4.333984267742387, 10.279436564867069, 57.578210646411677,  4.151469413011957
13.611901890077988, 13.867873353684178, 65.056985544959971,  4.272773533530954
13.484191791512361, 12.829524141070758, 38.806319418121916,  4.034506226954417
 9.357470832670749,  6.955922645285456, 28.913911994410661,  4.051018362260621
 5.927722227691356,  1.227209708503234, 72.691111136189093,  3.787600875742228
 4.465559148929328,  1.532534980779987, 82.080182316984875,  3.655655915116373
 5.754759005841651, 13.080832069131295, 25.721386079869944,  3.766582029820319
 5.932501666251341, 12.213586658898510, 11.740664048972482,  3.668321460885587
 3.300604643812807,  7.251223464806054, 24.012396243213917,  3.705113665430696
12.810983518443892, 10.974116651312650, 42.052179657956678,  3.562878378613347
 5.199252391360908,  6.386938214635787, 27.521492795843475,  4.455352921786963
10.704073990636898,  3.996429604794312, 61.861221497774380,  3.853189928142507
12.545788441939747,  6.870527453019324, 58.262808506478969,  4.284741554002621
14.320427286034265, 13.532125592040645, 78.783179386601674,  4.082642274748258
13.697917772020853,  0.570568758339313, 75.305595821555258,  4.010000209652491
 7.857003533826822, 14.572239291277050, 37.928360992261304,  4.055012178428649
 4.587088823875089,  6.431653934032517, 36.606332192027345,  4.001327826523030
 6.970442840413534, 13.415935832467813, 45.140641471935929,  4.385352374450764
 2.200817521269724, 11.053789586667174, 92.423916159935885,  4.350632705927787
14.725495720721630,  6.051093251649569, 43.904156884238752,  3.437538248636435
14.964012557052961, 14.318476165846485,  7.526476395579232,  4.280752589078140
 9.546832272194486,  7.370618916986676, 49.879565980724635,  4.103547252700470
 8.328193390004555, 11.814921828263001, 92.173360297153735,  3.624135930349904
 9.919223559258731,  0.389224963100960, 42.787591198454855,  4.154550933074732
 0.769714165117198,  1.861029439367581, 32.688961635754524,  3.662680657099950
13.221305718057272, 14.664322961669095, 18.813415771294920,  3.911459048065681
 4.764298175825721,  2.972785252324861, 69.558213994234393,  3.543703231545026
13.202963412733181,  3.180057738575981, 20.691393544438906,  4.008312627248593
 4.899632097749788,  3.204693165839967, 78.636456218267696,  3.751527573948017
10.397171175809779,  9.571303451680111,  9.405556882040031,  4.105235747718311
14.545640769488577,  0.263808882761390,  3.524017934414561,  3.980786349622863
 8.520678774365917, 11.151241717877330, 51.760596951993584,  3.966072552660753
12.983682527691679, 12.735261036157347, 25.383948879443462,  4.292827106807372
 2.691900675141312, 13.677675060294117, 89.181121937507157,  4.045113976527539
 1.659179107312332,  3.903539524832122, 92.461384054883794,  4.017258360355582
 1.269291721974335,  5.426405440344783,  9.807392529622152,  4.092985029664636
 4.210831405951194,  0.694191248057050, 92.432344659211054,  4.165061714897385
 3.623498011669124, 10.079414234346894, 26.377666029639826,  3.690901274694629
 2.965714928274819,  8.117207336144338, 63.826820017085495,  3.985075643020555
 4.246367495006995,  6.057650472752661, 12.399207279829584,  3.901216119403045
11.287574847047685, 14.640681998126842, 35.477059264783882,  3.872463136945699
 2.069615022452701, 12.493079999764099, 75.907482985420330,  4.024373340154843
 6.540716354081256, 13.024982780122688, 82.085132212710604,  4.485927840548771
 7.540450397298086,  3.867022820668659, 75.834774795661986,  3.694641716782860
 1.382992847639860,  3.621909811740236, 24.637313582947034,  4.583596265069078
 3.432762515769948, 12.385510949051753, 46.850946728476750,  3.733202937872228
13.137536797686540,  1.424082503924289, 45.752599831641170,  3.859125794894094
 6.658699948016798, 14.325993600966429, 89.462236303345364,  4.007524126054888
 8.315797888591160,  4.739530903915200,  0.667547630903367,  3.943111125139311
 6.613626944878159,  6.937452339904542, 78.335006559922476,  3.870679501883204
12.396507588589758,  7.825669258826208, 25.906922386936380,  3.915975457824709
13.963142730305885,  6.056614355383490, 80.476429875980685,  3.955506481115656
 1.448133518753016,  4.845714506623080, 69.398052605554724,  4.029054776942878
 5.988343130588301,  6.568488772093147, 88.308473746590153,  4.106367363850278
 8.624920277616607, 14.832141333409043, 12.079026190580308,  3.873071373050407
12.994460100531370,  3.824269668962418, 28.112272282434009,  3.905284750763310
 5.281458021223506,  0.072349950734197, 14.251085872562232,  4.065883131842239
 9.275444803800575,  8.914536135716331, 17.115326740388802,  3.882790171117456
10.553667349292734, 13.289499736863352, 80.981632318672240,  3.846331403419979
 3.795309330929182,  7.241518140026546, 91.694669347878843,  4.010273759505058
11.329744713974449, 12.859230313935422,  3.062689577248955,  4.112688480790516
 8.325243000785486,  0.864021785415165, 51.075384884175932,  4.033871611014549
 6.402848207435162,  1.678134106148210,  2.466752996075227,  4.106422422316627
 2.279641139803392,  9.930745754575584, 87.354225082076184,  4.182380506894656
13.823767399826879,  5.126960548441780, 32.797110887089410,  3.938944314374746
13.208936258323996,  7.350581472999356, 29.656656439067458,  3.798414903180789
10.091363362212116,  7.895398369417030, 61.495399180781128,  4.073307187230539
11.272941003317781, 12.973990747179299, 58.216846132554899,  4.062708168142219
 0.921535781894524, 10.515855835804937, 36.426506286062548,  4.213025744759157
 2.277864876592401,  1.452765275940929, 54.347157518008636,  4.001483614347261
13.649089484185879, 10.576635561809034,  0.624179920173330,  4.016317121858006
 7.636208378100177, 10.173232190797846, 63.634595588395129,  3.858732906716451
 6.969596785345053,  6.562474221430136, 64.501498509628249,  3.661890452222090
14.907695603989159,  6.267332299604163, 73.044854419057515,  4.403877084325039
 4.495160815975735,  9.879930218357758, 79.980040536277173,  4.066685214920607
10.895754306103004,  4.772384331454654, 14.158789579240594,  3.965299260581892
13.216586066444062, 11.304517245304936, 75.517809628106264,  4.105422181461530
 2.430032746509729,  9.045256617527702, 20.843519619435487,  3.782910751895069
 4.792816768840923, 12.337335576901149, 72.692069260803549,  4.314792471949911
 0.698059546526915, 14.583608957342934, 82.536272361566702,  4.036299437688101
 8.166450662117784, 12.542120967712309, 34.545477894765661,  3.852335595502738
11.323937015445788, 12.012257414740123, 12.484578884509236,  3.961858137141685
 5.677036277907844,  6.406500583568077, 56.665664893206007,  4.235858155816177
10.034824483771537,  6.531263162779007, 69.783662087367404,  3.882870205259235
 5.227026624654711, 10.815109903611448,  4.450441404849897,  4.170775324262685
 5.605382508469002,  0.235197905071111,  9.214642905678289,  4.085091729176471
 6.097410689713993,  4.079303427408934, 91.488286243671055,  3.802457304258406
 5.123220227505312,  9.471468619206117, 14.270979168424422,  3.955614871021730
 1.091890180142659,  2.120948365639387, 85.735764419129524,  4.105051216207788
 8.900580112231241,  8.486796092401399, 57.750820793902314,  3.735838445324887
 9.077830070678958,  8.582296924722577, 66.733282453443962,  3.679497662963441
12.523195298050707,  1.773405493690890, 80.674355734309700,  4.155056864179878
 9.499934311215140, 11.559205377145847, 88.466711489499417,  4.166020473490391
 5.574140665160027, 10.430894021356130, 89.832088116290763,  4.110083429953208
 2.731311363575714,  6.289627765449614, 79.423473879018204,  3.884325208037477
10.836785835885815,  1.923407587321201, 58.565042101684142,  3.918838191380829
13.199147752345990,  4.921804132090813, 87.829591750289197,  4.136316514641479
10.487791434071848,  2.773044224852248, 86.014432155372489,  3.671741734438120
10.967433711747487, 10.803946296516456, 36.549262787308351,  3.844526537984968
 7.526380360380190, 14.371612084777519, 29.162845550110116,  4.392158769559355
11.195256158999497, 10.625527456467678, 28.584129199359566,  4.155911140096310
10.868475176376924, 13.486965158280986, 21.840964074237178,  4.092665806198427
 6.238917094658637, 11.191250696670359, 67.579359754193717,  4.196317612345463
12.763747589651835,  7.919820162260926, 15.677951994053926,  3.920509835635266
 9.617940437306673,  1.043155211024795, 74.101604068268685,  4.071875925324111
11.358721155253713,  9.839639300320785, 91.488079839089792,  3.711760353201358
 3.688041227386230, 14.154688291997727, 69.050093843352755,  4.118616158685511
 5.385012896748062, 13.692452408535596, 53.785834358380299,  4.420666497403010
 2.483002174389318,  1.075673287716033, 64.138704401454035,  4.316311072500254
 6.173837472806891,  3.087859632898529, 37.828409969449915,  3.792635230407698
10.635916113405555, 13.073206550617606, 31.643231470431015,  3.745155477685090
 9.696929218614020,  3.255343674200271, 35.992969888044001,  4.145764294050556
11.467898126767363, 13.444062107113208, 50.159192712599982,  4.130151521855877
 6.475539297806657, 11.117605438674387, 85.841746118588574,  3.858703732484391
 6.355985368331049, 11.126052253763397, 18.708625693600407,  4.070533683106257
 0.830363790054260,  4.047585912113497, 51.044325028375432,  3.909116772873253
11.484187172217815,  6.319904007798227, 64.893593537466145,  3.874403504449541
13.725929058666692,  7.859980563677367, 69.373829123427043,  3.940657796461122
 8.546768784346796,  0.369457216782945, 24.623099329062580,  3.807590889502047
 3.670225267065889,  2.588514402728099, 88.887573663057381,  3.860142479754332
14.574592014388772,  3.270372979219631, 59.956149171843208,  4.076662089330629
11.525616386005435,  7.773524521527408, 83.851131256055510,  4.215993640846334
12.464666557333969,  2.439772847284466, 49.564658333997968,  4.123691605615139
 7.696702068646760, 10.194549601023285, 38.263296289966760,  3.571803352698763
 2.024511137615324,  6.937653094936515, 58.744593703838596,  4.201566701328399
 2.277345505997267,  7.829675166507986, 42.032359046591466,  3.841298540325518
 6.132938797014472,  2.721929416092480, 54.798034993026462,  4.064458026173487
12.314599287118000,  1.871658807423468, 24.561942039296433,  4.302307112194770
 8.662398091403421,  0.190236893425175, 61.392752692450721,  3.831283123868412
 1.115180008964529,  8.530775020059455, 76.480823163826699,  4.180097864690492
 0.321121671649217,  8.447823408060785, 84.220284612939565,  3.586124297594884
12.780903646064941, 10.959205672501716,  6.380765805827423,  4.045247775412069
14.586169838537160,  8.895842356404192, 39.715992616868334,  3.552020445328791
 6.371355914573559,  5.115610121902933, 72.357134627143225,  4.005506269705015
 3.372340987642996, 12.301562811337721, 16.328794361913136,  3.816667652760822
 0.262194169025677,  6.182836896139859, 18.171912430380520,  3.919220621972085
 4.497113794458494,  1.169381918801004, 31.527524426886345,  3.928091410468625
 1.967743119798322,  3.531047682875944, 29.205866482349776,  4.405500328212876
 2.342345733694084, 13.447510931222240, 11.064219692214984,  3.974806917727848
 0.033638730376396,  0.082523503355761, 22.175176725238153,  3.790014254232811
 0.099330656307710, 11.379281659530905, 13.817900290304729,  4.160000021468019
 3.080858824307050,  5.203019196750641, 53.908224449425262,  3.704260681716424
 2.813521556635550,  9.402448319164790, 10.920786119108913,  3.915899810410201
14.816159646854059,  7.904530821115598, 90.477424006418616,  4.450042175322964
 8.391585960523383, 11.705921293641177, 55.816707207827150,  3.840751177539118
11.989830782957222,  6.423291930856716, 93.454104429837045,  4.270208364051070
11.244784139006148,  9.448346394182627, 80.028128228052822,  4.148029331473233
 8.382526422558367,  7.864420888159145, 25.074231305593607,  4.056896035181356
12.794980385923946,  3.287334551066096, 42.243536338090514,  4.074185437697886
 0.600925580829425,  4.183297147387377, 47.065010041434213,  4.023502613170551
 7.162847923262134,  6.082549609235155, 15.190035030816366,  4.157771274750319
 8.083044531842081, 12.156903424860605, 15.040214591733125,  4.153625687429675
13.159650827895767,  9.785063464650884, 65.794322984053295,  4.027488335900016
12.113096121521512,  6.367198238947063,  7.579678471314295,  4.003896895009302
 0.936258649016539,  7.281384980369820,  0.600246464558661,  4.028455487166849
 1.075076855513260,  7.095760728522933, 27.112003606374007,  3.919576536695963
10.731708141318601,  6.048298887830925,  3.700272534890283,  4.236654316406830
11.500641737166081,  0.271304388767967, 14.638231653776716,  3.877864477685414
14.229006820289786,  0.482056276949712, 56.852424605748148,  4.169640809375596
 4.382817968075670,  7.620857599239077, 17.788077923370643,  3.995990884313552
10.176487550289915,  4.230068634835471, 52.370368019758388,  3.921499156785990
13.112636698054024,  9.973083717692612, 87.071896063660532,  4.200211481350002
 0.386991452876878,  9.876708096117572, 80.407321481656297,  4.184837970671565
 3.669998672925955,  8.233774924288884, 72.354210346804081,  4.211069000671285
 8.802390744189330,  3.631942098574436, 40.598156631998997,  3.691544745346844
 6.255701930197537,  6.684591136979793, 68.646206006311090,  3.987901713506965
 7.106852208398182, 10.267029232124985, 28.127695937582082,  4.101937384999946
 2.094677763054304,  8.469044890346975, 47.183906365318329,  4.083114866557180
13.730055963106306, 14.981024687475909, 11.425033740360469,  3.957799034742906
