BANDS
8 8
NANOPARTICLES
cell(1), 15.034
cell(2), 15.034
cell(3), 93.965
 8.377535600740094,  6.757209721992155, 72.149236233820332,  4.169508526316961
 2.241477342224293, 10.023647630020600, 68.814409362830162,  3.917380155384784
 0.218793591154301, 11.197183304253549,  7.466318742825665,  3.734757162267915
 6.409137287070803,  2.033302592562310, 29.473311981370404,  4.248732550938018
10.232844832701975, 13.723509901853085, 69.561378350869873,  4.174175665287268
10.856982495364420,  3.929686789175870, 24.838104072605194,  3.631033512365317
 7.546287587173443,  6.343002589512801, 37.250590300945845,  4.236003354447886
11.256557536105133,  4.103848717195644, 56.965270139001518,  4.000011022980578
 9.973928988992800,  3.686553873257784, 82.916430604085377,  3.858637664492633
 2.931585022386946,  6.489895784430542, 27.215339435860216,  4.214175219156042
 8.429502280450540, 11.762342834740382, 81.852021522850350,  3.993881639156097
12.149068643352992,  9.534392187768107,  0.397947594488291,  3.879571865729787
 4.991964194466034,  8.058069640214525, 13.724662602599565,  4.079724504616991
14.784339456768457,  6.641204444761838, 44.249688134241566,  4.318628736457629
 2.064447478530737,  5.645416721003770, 12.084981672386292,  4.170162491210780
 1.434304373041572, 11.375884647145353, 79.648281785359345,  4.351656691520399
 1.507219499848822,  1.369992924200068, 39.685377859922703,  3.804182389200660
 0.865538053073746, 10.974080951256701, 38.184242037393169,  4.093642755865218
 2.373809793236691,  0.324174018167720, 80.895220165707400,  4.201106231670115
 2.560405339816424,  5.789297516970082, 89.999615879403848,  4.441898327962499
 5.047738075528745, 14.429921146544181,  9.188980525105499,  3.967364547115232
12.553801438671581,  1.907438850999158, 60.166569812538334,  4.183871317390705
13.192337632002642,  9.579779030144852, 81.535524967265289,  3.923415681867445
 7.467416284736872, 12.311918668588808, 46.260465917136251,  3.555038238829003
 5.137496731223220, 12.082602033013917, 67.104809407043149,  3.958516821825434
 8.549270558476726,  7.939294262539499,  1.123224077138902,  4.109576042053200
 1.363348199242192, 12.305644405896965, 92.671370842144583,  3.646073569416644
 7.590932024609143,  7.399701588292887, 44.581581794614564,  4.495935986861027
14.888679340626867,  8.756655036975584, 10.535023312790939,  4.065806569044594
13.125593560092295,  7.767145766445235, 51.459112497628958,  4.154698336395561
 3.651823736916825,  2.799393125845938,  7.902658359266416,  3.668980334620073
 6.478327882741962,  0.990343594478612, 49.670256610134381,  3.821168116335287
 7.574211965902464, 10.438825686090860, 37.996472106809186,  4.059847022086166
 6.790220096080358, 14.456949082953715,  5.630795598101223,  3.908594339099546
13.439594660959246, 14.901079953504262, 49.363190420728067,  3.975004797392776
11.413048205784150,  8.425006422830894, 87.498911081861777,  3.860712004146282
12.588863695758368,  0.642762531087401, 66.765718550477104,  4.096826988894680
 6.477799180805401, 12.908217356037316, 70.795950539637289,  3.884552423762753
11.979965672313341, 13.360137927220409, 45.768753083740570,  4.238310729457599
 0.279364011592123,  7.590620655178085, 78.552553672700796,  3.687017498090623
 9.956910924030133,  1.528948950110443, 19.265268230983892,  4.169147894394661
 0.173715260768951,  8.268213697423937, 60.222557915616029,  4.129742882080286
 6.909585928753911, 14.163075708190567, 56.223841140010038,  3.924477068554805
 3.698974338671407,  9.249950450581988,  9.487051117257122,  3.939115737584037
13.207589294824517,  5.664966023393636, 89.700777692494341,  4.050751960318606
 5.885885420081032, 11.582017716442062, 11.894858075685208,  4.042665492358303
 3.571676732835469, 14.832393089537780, 62.910941107479822,  3.778399751223478
 5.919838798928699,  6.611979149156169, 22.372479671587531,  4.093927363794753
 4.909567025437452,  7.162261518341163, 74.249684277847962,  3.912777057487196
14.681754306648052, 14.787835429891718, 13.751354472735239,  4.324940243442422
12.151598740739164, 14.603431107060800, 72.965689910250887,  3.833047835271671
 9.998650095845806,  0.777510278102374,  3.970564174972910,  3.787044918408262
14.666363696449130,  9.568331997547411, 30.631304412946740,  3.592972378970691
14.111514761178812,  5.144146443810667, 40.406130072088295,  4.025396063687793
 4.161615942729941,  3.436277013965092, 93.161865217017677,  4.021491821658002
 4.124183638115411,  2.717485702449868, 85.936626383542688,  4.242812906770528
 8.611259205228887, 12.870764621082436,  2.093524150512646,  3.670046288520207
13.493192620038656, 10.798647643592593, 17.199061668118890,  4.055433963836703
11.283973675626711,  9.329672924394821, 44.245231242422712,  3.860008623314782
 3.615571853690315,  9.924846183517856, 90.546795980120763,  4.163685563356873
 2.671261230870258, 13.967703520303841, 69.801165803897405,  4.252452196637219
 5.638084778333371, 10.805732338086361, 54.220871936317032,  4.287032129101732
 4.364606746843548, 11.927647916130461, 40.225499071388427,  4.203491005347778
 7.343702138819378, 10.130693060397412, 29.166995284447900,  3.918086794825042
10.436910403830298,  3.550452881264760, 39.022108951034880,  4.422077739813402
 0.704687531175833, 10.362268510467418,  1.852611418612667,  3.833560226441376
 6.988748927841001,  8.459431426379670, 25.692026513947315,  3.783254330389509
 8.699923297698186,  1.577567169348350, 58.652743719882800,  3.842091003399649
 7.927293442609594, 14.750845513799419, 90.361284516391464,  4.074373319453684
 2.019220060739222,  1.552919281076247, 90.177772142025830,  4.093411935908456
 8.109236508432209, 13.462868173210650, 35.352088767572567,  4.038993766811666
 9.086398094857939,  6.350640562918548,  8.381147125576899,  3.594594309895264
 4.972314559545600, 12.392517466866344, 50.024126820199214,  4.010636338222211
 0.074184583001168, 12.880047379132574, 28.347316407450077,  4.008913973901388
13.471687765360285,  2.042335073361981, 83.976071853654901,  3.752321332016251
10.858378152235035,  5.137370594974496, 35.146392424462896,  3.961674884927371
 0.923901101389528, 13.681282163286330, 73.590447071500080,  4.098669203892062
 4.756716001884063,  0.316718210366527, 59.281127253334510,  3.918185952119253
 3.256502770339443,  9.395777286324336, 24.104049960672622,  4.321377682101248
 3.635009722220541, 14.126953228518573, 21.523934350933658,  3.432695884832258
10.044884725495807,  0.709660707881961, 42.984060494471358,  4.027836937878866
14.269856284428887,  5.324147548390546, 25.832698500145710,  3.983160789068138
12.456863072764058,  1.827810527067067, 80.018993778461592,  4.381208327870980
 1.251158165673374,  2.715768992989150, 65.808220932759212,  3.339150627200569
 9.935369544084462,  4.451930533731655,  2.499551094732206,  3.883989429972238
 7.778578792322122, 13.327176165856882, 85.555476064004139,  4.147440658246534
 4.358066423138921, 12.672912734285134, 83.347190610513124,  4.074500711006817
 2.082225993351548,  9.405323453318772, 63.947083270735696,  3.812395175027686
10.004393349886497,  8.642675774098114, 18.891147122163677,  3.817608934224767
 4.801699726357169,  1.459886741327598, 23.888239286089501,  3.652119856027354
 3.452498692513418, 10.596625973437266, 28.185090408804495,  4.149253355716869
 9.536769088025276, 11.621965110230784, 32.103684718724033,  3.936216111922625
 6.118958153481134,  9.144074189804385, 69.737911213483358,  3.964651782279665
 9.837016270965547, 12.656333644634950, 12.359401155089435,  3.916733747657474
 5.898249613571217, 12.474903186978157, 23.912431489240799,  3.791690019050617
 8.364109809772790,  4.370555368176875, 32.311391335624563,  3.650147084997410
12.064565795515515,  4.115415341857158, 31.549628133992911,  3.892535842131856
13.514852106347963, 12.208040831297067, 24.341351655683329,  3.851069197536668
14.149071275681099,  7.571420274681500, 19.094653853715844,  3.543829770311317
11.538976130404571, 10.940980416595691, 72.353973003838448,  3.669532426773501
 8.724094725978734,  0.722285673587452, 46.648383949495610,  3.723979703585456
 7.113881316288972, 14.657528798766991, 21.144610869875322,  3.637163467618626
 0.709367182045345, 14.567402056160192, 36.137351322419818,  4.180027354486773
 1.304123563554351, 14.751989467043124, 85.301180541174659,  4.081333335873750
10.919951766738555, 12.313910881795822, 75.818035830373432,  3.862556148638962
11.853725671492207, 12.459904758209371, 41.847937759953652,  3.806824950921951
 0.940154464578888, 13.158196796831348,  4.356359627759872,  3.671714124406461
 9.199305367983719,  4.667646895986934, 11.756325821818187,  3.940957396507633
 2.624828247767343,  2.594331410324128, 26.660220833140428,  3.667382459060210
 3.240375753680341,  6.707623755268664, 70.801253311133067,  3.802518060946277
 6.162808472302324,  9.454851958001225, 33.115188097833993,  4.330023646838827
 6.584477725386482,  9.508991577112255, 17.165506523396015,  4.014426603162988
11.768004104709453,  0.256373208390174, 35.115019918656174,  4.147151495939233
 9.568588753796712,  8.886979238166401, 91.111312406918785,  4.292931214757550
 9.831081501679094, 13.126778475258480, 49.318103844201801,  4.063969193824463
13.181136430660098,  6.475774905021927,  6.519987197662911,  3.835108925323357
 2.876381241477945,  3.081234199176695, 69.163126317447407,  4.096719791846771
12.823992827644915, 13.701207260744205, 20.021788128936858,  4.070842477063143
12.345135226548308,  8.440148714395788, 57.476762111919143,  3.774747201186348
 2.943934525513405,  3.948452698652962, 30.405841180603719,  3.852995343855719
 3.395126007634392, 13.171402688117260, 14.653350378605190,  4.029813994860006
 9.546721416578983, 11.117995393724780, 56.605376619472132,  4.165208626714482
 5.787899593534655,  6.036968969626137, 10.354736886517793,  3.918253709567846
 6.499432228163319,  1.340831307720898, 68.969240691507281,  3.932706000460585
15.016436832002059,  1.337338455138823, 32.325591004496118,  4.351812955388601
10.935099764383962,  3.872099027762586, 73.363394643339447,  3.892011161430294
 3.964543486822029,  1.534316951442485, 34.136608704057366,  4.404919207412102
12.839080497532551,  8.076584505656886, 64.056423266817760,  4.056746596438177
12.294064101028331,  2.513288702619704, 46.373746900072419,  4.239673643521018
 9.881461110062231,  8.983333270791256, 35.043378038114753,  3.967103752988001
 4.648344623404593,  4.089612691410406, 65.345816231791702,  4.012087952730734
 4.283642632915351, 10.365252093184253, 76.694392560660816,  4.095157200649764
 9.329973142487928,  3.422792885412651, 61.811302438014145,  3.579465360473740
 1.698132282858535,  8.044544485876111, 81.997270967373140,  3.808087090919575
 6.915721137092232, 10.073990928975416,  4.203029009670582,  4.064921695680635
14.117597141372398,  3.857882546050505, 50.116772040096706,  4.208551117890015
10.468432034690107, 14.899007949206018, 83.045244794213687,  3.850877511344812
10.963230352141355,  4.987498798319700, 43.183101256678810,  4.249880436267155
14.993066868472102,  3.872722610817014, 93.107582657183386,  4.429983141207869
11.747542576716093,  7.608152390146535, 74.190061541229980,  3.875056694779336
 4.489855192201558,  6.156911600385178, 17.355347600325754,  3.811222142221871
10.342905721483689,  2.307004565824050, 28.596569323134972,  3.823199929119618
 5.835843208887817,  7.036916858220999, 92.259726223751429,  3.886508039720425
 0.630407744402417,  6.923271936071575, 15.689512527291869,  3.991520646130824
10.319568692983935, 12.579183426864972, 92.699470282702407,  3.883389219240923
 6.193741274504045,  3.434721291518077, 89.569367331771076,  4.231680816058873
 5.472286578053053,  3.991613705072020, 13.813009717046228,  4.110332832045331
 9.309954917714443,  5.679503834339497, 88.854526596539856,  3.565005607747147
 5.346298100316926,  6.795705407765199, 54.983514661509076,  3.864123145680221
14.617387188839212,  1.523742263438217, 24.460045313872349,  4.118806913506475
 0.417801253375156,  2.592124477834130,  9.928944081939454,  3.941020752012764
13.189401466410008, 11.487099201252020, 33.983347503219264,  4.282761614667030
 8.666444132344481, 13.416673340613714, 65.761048213249907,  4.045194466353582
13.937489381437267,  6.107157799535998, 54.967043999481703,  3.774324501718048
 3.992157551192102,  4.769473447060128, 49.052956391257631,  4.046005279179976
 1.161962711842138,  4.532037498071877, 18.720146912775576,  3.796486857902180
12.636525659261730, 13.306837206211085,  2.089361537526295,  4.396247493722916
 7.939118337824399,  5.592251281977957, 58.869836569817053,  4.189720930025182
 4.317143282823053,  0.394329162011027, 53.472537763411438,  4.033564378317769
 4.361289491609793,  1.847597055873833, 46.136690546642640,  4.222643908199632
 7.287362299822370,  3.396815911603192,  5.303150432792611,  4.093566452735980
14.188294009651587, 14.076850024663294, 77.298582661037230,  4.127370780258527
 0.965354815307864,  5.298444705862877, 33.665844372129420,  4.237005811788062
14.108084769381959,  3.779501268886146, 13.956966395876728,  3.812061875107554
 9.140441751429920,  9.552752862220590, 65.157756100657750,  3.807806223161107
 5.037294654104473,  5.530004383133061, 33.694655249817224,  3.914843105113960
 1.306037638548345, 12.260495844861309, 48.425479960377928,  3.967762372963275
10.272422666365779,  2.922370527049387, 69.430951394145055,  4.286746054558529
12.742268545434118,  5.408813978904060, 10.239757937077474,  3.887763436055962
 4.557356301295866, 14.128458397333651, 88.045400142569491,  4.145089395248995
11.653735219410155,  4.405430349963714, 86.308384028062960,  3.805173399694511
 6.925946313955331,  5.356039571884423, 68.493430294053155,  4.159611543352995
10.385335657609078,  1.123959403018539,  0.173617810642713,  3.809529348984711
11.478405741164474,  5.120077876786967, 18.045581796112582,  4.001843900238134
12.517994638706938,  3.891186324134471, 64.094077961142872,  4.315865292648098
 0.291273978163989,  3.493783361773042, 87.113261682131196,  3.918012550090017
 2.647186996581327,  7.625885424013759, 20.382935946223977,  3.808505702149138
10.877313716194600,  0.327269725908175, 63.313496803303721,  3.609133239784414
14.333424001508412, 11.841312199895032, 58.276000898648313,  4.168605198563940
12.434116170816980,  5.055668319017818, 77.247582653758130,  4.113806738186492
 1.811779578506775,  2.271731952480004, 60.682200525641818,  3.675307174851508
11.776446819899562,  1.598213613605498, 11.273723015492234,  4.125936705309549
 3.622701011763873, 10.671665700748331, 72.597590501819127,  4.208889593829138
12.041907215867775, 10.270876430241856, 21.491111597500201,  3.546789703540645
 8.373031490360296,  9.844610348416467, 22.282214964343964,  3.995546602910611
 1.407871275742721,  5.428997300450270, 63.098603889127673,  4.316745380598741
 0.309296051842871,  8.188591019911458, 92.564643779273354,  3.893991469502553
11.483823505391136, 14.128096553539336, 52.778308749345491,  3.856280254106880
11.665906867262787, 14.711540175752155, 56.749843448746269,  4.165190585490532
13.851888693094176,  4.203217392613185, 67.989011793572615,  3.840092937774492
 5.897258518416972,  9.253854067711861, 58.195591317526123,  4.251801452022711
10.729291148215720,  1.187599364315763, 76.237114563039768,  3.977881117228885
 3.001376972352867, 13.063011912175469, 56.528636376550459,  4.040497386800872
 1.656484762302967,  9.935915050910991, 13.674782722657765,  3.529141345557735
 4.011549881018923, 10.407597497931892, 86.582214282201477,  3.841051994172141
12.304408247174546, 11.689261419443863, 66.036239843268376,  4.021350148075743
 8.981440904817095,  7.854775178583467, 80.508275230401310,  4.075105325525763
 5.125694784540327,  0.540513222449899, 38.164627948804139,  4.210007091300692
 2.040929443593539,  7.588930675976794, 39.990374407224898,  3.636935609265549
 6.074856255655945,  5.250311109640015, 81.830174847166546,  4.127841485805519
 6.342378711146134,  6.256793264610927, 29.594354137059028,  4.096423225180745
 9.328360099408718, 14.386130991494644,  8.760029812902218,  4.133791395151225
13.207688622654754, 11.013903973220099, 13.285052221657763,  3.800573986411968
13.539601322531889, 14.974080192691089, 91.839975804633738,  4.323280083798112
 7.872125417705719,  2.479752428298059, 35.704488577163659,  4.103759501716096
 1.297414853705178,  0.327620999093113,  1.149637772593300,  4.141852552407072
 8.160244359054953,  6.186263682596836, 63.847574728367448,  3.652366015064110
 7.959756365146015,  3.114604056579183, 22.465607577400835,  3.982549034909717
 1.713938917352383,  6.151165352404949,  8.080229497817729,  3.931108582045814
 5.311790264540750,  3.621969416277614, 61.338876594869944,  3.938537304394956
 1.784278443981555,  8.893548707707181, 56.224484389049138,  4.557598487799706
10.057091704877475, 10.099989551514543, 15.309705921167424,  3.901829158710044
12.931114833716688, 12.996178408082670,  9.949474471800182,  3.945037960582061
 1.825794952233558, 12.565336508319087, 10.867023540560281,  4.160393327798131
 7.360303380465830, 12.902825103691853, 15.337749264496024,  3.844290729497917
 8.027016112010680,  0.995931453519005, 25.761480976751063,  3.853982250064344
 7.441995459898937, 10.714096745944747,  8.216999361046446,  4.129694167961740
 3.205139897468860,  1.150991557645721, 12.173753677406163,  3.774704973924775
11.161409223977376, 13.867614631096494, 15.924385391657733,  4.036694809613769
11.044541541100706,  7.276488733845667, 83.841100849076710,  3.840955455993264
12.186400240320811, 14.715448546561030, 26.789346589034533,  3.539620012705835
 5.242560318964247,  9.437693525392550, 80.989705219749396,  4.066895223540145
11.959162560319973,  6.470360287131671, 70.443820962784784,  3.783599959330581
 1.921724075740154,  6.450242535130822, 67.111268248085139,  4.018436852456174
13.223599569505739, 10.849753371983754, 91.027455294979973,  3.572335859652599
 7.762018375793692,  5.209545231057548, 19.196910589791536,  3.711633174569582
12.928072395992199,  2.577160534667401, 53.757937478401224,  3.847689446589823
13.789239584605973,  6.421076586310662,  2.489081688378508,  4.300146539167503
13.715608669908912,  9.097432943639316, 41.051316263413987,  4.020138214821552
 0.822349586126374,  1.230036272995443, 20.689846752133995,  3.825429464250731
 5.360287984126320,  2.405660541550601, 79.028825803346294,  3.973327777583805
 5.684364935944572,  3.013370989343021, 56.375604703345019,  4.218580658634114
 3.281346047480425,  3.541388900849030, 75.151649145900905,  4.210450904730568
10.469903930791926,  2.700517951184163, 14.987601449425487,  4.033921938824286
13.008074769313115, 14.467225671502867,  6.288397270561606,  3.854201530039775
 0.433729063138456,  6.324543646483548, 75.055184964052017,  3.729557572438734
 4.661957551354109,  2.603911447470609, 19.852324751415544,  4.487434224516805
 0.030458151624680, 10.320441302820489, 75.786340060768921,  4.088234429787444
 3.934737324739167,  6.772347400921592, 84.986019025986963,  4.075546516481356
 5.008378828422435,  9.529472232843718, 47.232398517208239,  3.977031382757328
 2.633319436463464,  3.789566739947071, 42.747879214959795,  4.313063048101750
 9.585971139778996,  7.795062232387643, 31.321406982346979,  3.859062799625642
13.253849931328444, 10.799900893646832, 54.350984437099392,  4.226684267843316
13.950103540393121,  1.735899897120065, 42.627713752763469,  4.068632200331304
 6.164879162221501,  3.862671457979302, 52.354500830134747,  4.041929605466867
14.337595051697759,  2.333804186115982, 74.813452978687181,  4.111597875556427
14.010374503266970, 12.127397688519935, 69.659868443689348,  4.006207669196760
 1.844330723126730, 12.487448133305495, 32.067944037179480,  4.267524475712649
 0.346961852246549, 14.413539933783582, 53.682321149252068,  4.159300500791348
10.213004486364540,  2.100891100087515, 50.108317780708305,  3.994820802556876
 5.783927969810872,  8.039677783749797, 40.758693594654488,  4.056755031301167
 6.318786539629234,  4.553144537798749, 25.860263832950867,  4.027394397768994
12.953311430860863,  9.911116176576838,  4.602211634937165,  4.024462067559827
 2.373429086297383,  0.986679599804569, 49.820676011766672,  4.314386659436954
12.069873054238299,  6.570339848824892, 47.572718479227326,  4.226853784877815
 2.099771440896820,  6.486002935250729, 52.443044207402167,  4.402228471318709
 4.525147990427508,  0.259710541226096, 73.145802367110377,  3.839318219437062
13.697569495926576,  7.518521173638980, 37.035931727522431,  4.259844955182494
 9.932251694741845, 12.195762769074737,  5.522175981117660,  3.767100483772120
10.062001882621981,  9.634970761297835, 69.005388140901488,  4.080571430571660
10.536137149017046,  6.266520874113315, 66.846020434342037,  3.961692584370775
11.266199474247886, 13.190525184798373, 60.374217414460382,  3.730930849632606
10.146806626368519,  6.320415853409606, 21.935299144895971,  3.844020180875418
 0.167378876474513,  3.093422805786292,  5.940576948527237,  4.108734548610996
 4.808755627045889,  7.533711685088877, 61.816879240355028,  4.000692463015124
14.954919466179737,  4.673636427970340, 58.402585086428722,  3.941316721309987
 8.883073198630914,  8.740408127985299, 11.657304643078572,  4.231198877939995
 7.045457896470639, 14.099564508976254, 75.938282859230938,  4.004150487645436
 0.718073950630395, 12.920806221429670, 88.908594953211690,  4.085485592344678
 8.962625265622131,  4.053829847035031, 79.168323961100810,  3.939879736948700
 1.275419644762341, 12.773912169874496, 65.975018909810885,  4.203967968252750
 9.230091369186960,  0.765367979363028, 32.118064404039117,  3.762275502306466
12.190773828628094, 13.995676872384422, 30.657800780818526,  3.746202731891803
 3.657525590447359,  5.799758719752973, 58.484365138727632,  3.856475753962348
 3.408063489266865,  1.077805702024296,  4.509936890737979,  3.870278172948668
 8.058518248163868,  3.985763957430770, 93.111065919402762,  3.846103426884838
 6.047008327333360,  7.876552932112218, 51.042200883841794,  4.395376485383172
 5.296849682654736, 13.937601712922978, 27.305710520221488,  3.680786796108257
 7.068101632133581, 11.134036980641657, 88.831305294355005,  3.820576487018758
 0.917139438949309, 11.389405151639439, 21.156378958863932,  4.023705643713213
 4.180151965525545, 12.217007428006649, 35.721698201470879,  4.235064563187980
 5.931532121105563,  0.099897416088528, 42.537840632638769,  4.295802414643028
 7.562516859685700,  9.118958927641508, 84.976821710994514,  4.343663533685098
 7.331449430447685,  3.223170821780441, 75.660671184127906,  3.970345050679983
 9.855872484739946,  8.021979874893347, 40.401997272919189,  4.088313922290522
 8.875393000541859, 14.112616640029739, 39.377075573508456,  4.182256316979784
 9.087038663815699,  9.051732541462137, 61.100067989877942,  4.343644718938406
 1.073696568397202,  3.526876286573290, 78.644563678408616,  4.040734561265496
 0.219983817404574,  8.927209363704794, 88.374186317157907,  4.029997995765833
14.644230530035044,  7.894524464523144, 22.810223887741802,  3.975417389966572
 5.734021248250871,  3.725649314461587, 71.951129927767710,  3.838902658259427
12.760308433934638, 10.532912724389643, 48.559621657829943,  3.854055402930272
 8.963903609216093,  1.779535564305705, 87.128554929760412,  3.856166435593516
 1.667892726895112,  4.073978014126756, 82.729760881082981,  4.264214192820408
14.704768243467246,  6.788138903663236, 85.064108206275705,  3.928309694088522
 7.743167547985188, 10.535013845678090, 73.930344800840359,  4.272896760195052
 9.615958344076073,  5.753891632090672, 51.553048749080347,  3.932143721655408
 7.042543817260979,  1.551696852371655, 16.497284930899450,  3.794941003792710
 2.989604126332102, 11.541918993987622, 60.493476240646480,  4.449071625037787
 1.665324459707935,  3.109354525413916, 55.055924816620838,  4.179552235688795
 9.086146668549871,  1.883880752596499, 54.327881501329237,  4.034384840503792
 3.872111519096575,  0.552368360291684, 66.461434047749052,  3.492771901857010
 4.988040759637525, 13.862179930340931, 18.179033314272161,  3.797552507809215
 9.514582496832409, 10.193321071242082, 52.347455917930070,  4.329373891952596
 8.709330352443923, 15.016833804796285, 79.483822399824376,  4.032789978621333
 7.483461444709911,  5.029682724481185, 85.592684656739664,  3.914911832689079
13.805755844286260,  8.524598441320908, 67.923778408412076,  3.682781416351853
14.177427543449692, 11.574911667257707, 62.437394435320975,  4.091769087270502
 3.190420692023747,  4.533973892798245, 37.434852063975747,  4.640644161353389
14.017853392274347, 13.558107141222477, 82.180345458667006,  3.889388441889095
 3.808665014259741,  6.332345024368212, 45.555773315685869,  3.601882364255697
 2.340707768688550,  4.365510580379460,  2.659029192535066,  3.968914680519949
 6.023988914152508,  5.158124121976174,  2.092365835321509,  3.646241320878119
 7.697954034222940, 13.790889209977470, 52.502471046993563,  3.714408811581407
 2.637401676318311, 10.063960703360573, 17.350838335049538,  3.960745069557954
 3.932154547499411, 11.771605098528592,  6.381207876241494,  4.063621743529176
10.935945016950432,  6.159147573372113, 27.969780458344061,  4.055702833962855
12.881327656505233,  0.036323825327347, 39.073251122549891,  4.073515443908318
 2.893677783875207,  9.369027899768573, 43.337320373466810,  4.133477652769669
 7.534801813448844,  3.324478740978527, 44.306169735774667,  3.670884795435010
 0.617352075845746,  0.213498089381058, 45.918725469858842,  3.940018642018146
12.191888691355921,  7.177951009712157, 13.742534938664901,  3.970930333277503
 7.170653905190833,  2.645686935757831,  9.166649327220078,  3.778309843286101
 0.379290521992411,  0.562590374630984, 57.766993095812118,  3.658205947595605
 1.873549841638260, 10.788797252368486, 52.224612072789881,  4.216076670466022
 9.284404238069305,  7.217566287618764, 55.304372585505064,  4.070501622026077
 7.978269906431900, 11.265970013808847, 42.439823726981245,  4.370572624727295
 5.351645027626552, 13.076091167345236, 79.594875881100577,  3.724300401915554
13.675883609856982,  1.739034929460682, 17.370240422658000,  4.168201148983474
11.847641782590655,  5.955207159720642, 60.528091335588122,  4.003502022157347
12.730689639552629,  0.376833683748840, 87.523142374770046,  4.219212374556188
14.313438567568250,  2.294283596056182, 28.373115876549733,  3.859488337835010
11.421466258502438, 10.565455263705145, 28.567830994086339,  4.346607856658597
11.487240577384290, 12.383813255214385, 79.631369119503788,  3.627539277461364
 7.114013353047141,  0.523659142981353, 12.435283242627529,  4.014465457629850
14.065746930303812,  3.280169808567706, 36.777085591520525,  4.126425936965815
 3.796230881272902, 12.856533432494894, 45.325921243540016,  4.064728117708845
11.308593433346443,  8.677510120981157, 24.846096207280983,  3.993857398824535
14.374622168455854,  1.124899332033529, 70.243285207677431,  3.770509878867287
 1.532593538881663, 14.778297050904449,  7.621966835425263,  3.714528154670973
 8.038872095189856, 10.866918339931283, 78.005797982106031,  3.921699637885616
 5.948204870764070, 13.539944498897050, 31.786053255401569,  4.224351567658991
 4.321486218796193, 12.717949579808465,  2.348020822377653,  4.219462670899880
 5.429650067429698,  8.201117396849153, 65.822580553305144,  4.197409268418200
 1.887592998969752,  8.507566732809593,  5.006709661810305,  3.821138115279780
10.688265813532416,  2.647261004204168, 90.569643864016044,  3.924006999553623
 7.539048310152481, 12.640116088464611, 59.778448919243672,  3.893560243558416
 9.635618704357382, 12.371627509191585, 25.189628842834640,  4.089616755536515
14.911812857137768,  9.221173626223617, 26.593983455549722,  4.058789872339239
11.714087791496327, 11.201626332624333, 37.998117959198829,  4.280399521866064
 4.908180500991767, 10.787499450584649, 20.560880538359790,  3.967294668708146
 2.219851411748624, 13.441885299814462, 24.948805382811358,  4.089356501294364
 0.473273479944927, 10.747563765398331, 84.682509953540887,  4.186989223005866
11.394170872522025,  5.904000728904073, 93.198145688464990,  3.835932750928016
 2.635530384750592,  1.911766610068398, 16.073710146642888,  4.138514838398677
10.749654804201469, 12.111502940286027, 88.605466328232680,  3.772261672836588
 6.042669105223675,  7.425691077366197, 88.404146154686757,  3.874785670437920
 6.353179030317646,  3.894475282254283, 40.538815024570276,  4.300798497196248
 8.010455753626884,  4.717246141497948, 47.913644946038502,  4.083056435089733
11.410990997395874,  9.547211974832043,  8.370671044827983,  4.134060530944655
12.878756824650671,  7.630458078151583, 33.105392715951659,  3.633733992677752
 9.011320463616453, 12.365796625056317, 18.865309533771864,  3.826457252908579
 8.426851029485434,  0.864446989520183, 72.577222500026721,  4.088392856138438
14.768283010016281, 10.557967013464319, 45.343098093861421,  3.708902757666610
 8.791448878608623, 13.786113303172481, 28.861704354174250,  3.943735657244159
 1.156320813516460,  7.974660385538018, 48.298669315888240,  4.598399120540586
 2.937482414904213,  7.805353015179948, 31.082256376090303,  3.933549236434894
11.058237443561833,  2.999461179465428,  7.281243705225774,  4.451475585494805
 8.531884479901965,  6.320269864486050, 15.426196957896769,  4.216558009890718
 6.180666273131311, 11.380280677741814, 63.293503856044225,  4.046809151385386
 1.139044479392926, 13.653749676357791, 17.871861284680001,  3.881972263005008
 0.096931827603423,  4.631915951764776, 71.627596660644912,  3.896366945534294
 5.352595868655659,  6.907820149908284,  6.387484930569739,  4.208908544164850
 1.063787934334824,  3.881365486109484, 46.760296379156294,  3.576344582124494
13.484134294329310,  4.239450392969300, 21.602529599303203,  4.048277128901114
 8.380426747370915,  7.118627757125629, 76.403276323376133,  4.232428518586890
13.305985063970979,  5.703660031343357, 81.141745348453071,  3.851145551407733
 9.835079960847716,  7.489435648262513,  4.914858541606146,  3.841860315451375
 8.944838352960858,  9.271078286387109, 48.234931680797146,  4.137125671450199
 1.569247494103150,  9.250185689573229, 34.606535163185129,  3.970719136887187
14.724290253004975,  0.449382697753570, 63.333879692136144,  3.994576204024456
 4.265189883728702,  8.560208998094090, 37.239510720509074,  3.679087310838336
 7.303965704340725,  0.372141976759169, 62.397525274508965,  3.720174967399459
 6.589012521924258,  1.247261739343523,  1.767425653416433,  4.283064859376376
 4.205359251002867,  8.537667863222747,  1.595840990222656,  4.057540131471216
 2.364702638445794,  4.566668017984047, 23.195667597494339,  4.249781456043523
10.932469125552183,  0.534268536398778, 23.094810490418041,  3.977911947643671
 0.823222093143215, 13.049327558801302, 42.339718331423917,  4.261105032082201
14.950312588421543,  8.742167733232847, 71.923818772056393,  4.242474827968155
 8.489534484267727,  2.549320032787171, 65.553765864349160,  4.273717313683623
 2.732366153622549,  0.321748015225610, 29.506520823250533,  3.617190852663269
 3.173571157808537, 14.805100287089278, 76.857132337766757,  4.066675255996307
11.805346408219380,  9.013579430131154, 77.864301576879640,  3.992666580720450
 4.112462167240876,  6.403313231746132, 78.242794694375462,  4.355899110098521
11.353832413021427, 11.344773118670449, 84.719075595098147,  4.193903290007521
13.194049608774579,  2.368703206686353,  2.566736307523933,  3.850984045888893
 4.477372028700294, 14.515026973058340, 92.627811934906049,  3.968045313301838
 6.515904063230201,  1.188939035524851, 82.777458478609589,  4.236591546286942
14.841137552222559,  5.986705559026827, 29.648671745470903,  3.764450766543491
 6.605337347588728, 11.075106862261114, 93.204142626311807,  4.156079556781127
