BANDS
8 8
NANOPARTICLES
cell(1), 15.025
cell(2), 15.025
cell(3), 93.909
 6.907446420087983,  0.761030922517050, 43.192012193493603,  3.597828362948357
 7.661599399820177, 11.671415951387594, 19.014318904313761,  4.189630752689365
 2.074793621382204,  8.170254570857914, 32.569440407519998,  4.166291325834718
 5.653304816592748,  2.496360419659324, 37.479323661730682,  4.256869593517735
 5.331993088283109,  3.227193671001938, 93.473378441490169,  3.930413307681760
 6.217100264158857, 14.160886728876733, 80.457099719703876,  3.741830751009212
13.766248346730928, 14.046961392347402, 72.393570888605481,  4.211472485748859
 8.972120665308056, 14.734547152892976, 36.424541645996534,  3.631349875518995
11.365499449352019,  3.004226872639973, 78.944860467380238,  4.150023848356733
 1.582770194060308,  5.654228698885321, 54.428196865882065,  4.105473176652619
11.104594901701637,  8.806373048658328, 30.080563866117721,  3.824338515278127
 9.358033100791445,  9.601915212027357, 55.551220385209966,  4.287341915154386
 2.073947224616827,  5.317246992801996, 25.359371009923400,  3.989798355764819
 0.222429955022175,  9.187061014186023, 46.183446131250960,  4.319469424588732
11.778216167775698,  6.410368936715514, 16.490098995766761,  4.215207941814328
 8.861941047311930,  6.868843920835327, 47.452355722367209,  3.962201409043610
 9.304534878230328,  3.243065321367149, 16.702419215120681,  3.815168265434516
 4.122904248100619,  4.460390785073447, 17.932607475843589,  4.413145064626954
11.270969393061440, 12.153047900500109, 48.707782636656255,  3.767703094396302
12.869364864396838,  1.512601993386336, 46.573753017539701,  4.039531302071998
13.283386828544026, 13.802079158177531, 15.462900988851530,  4.038657422697006
14.975370241897672,  4.879614255319556, 18.669967563439862,  4.091304545397874
 2.996101293294712,  3.123622665579583, 21.907341657909281,  4.268438869276725
14.429703180837199, 14.433177123953474, 49.427474370328603,  3.686787860656776
14.317381431110622,  9.625649340910311,  8.352579732531506,  3.979007995428343
 6.067216927054285,  7.085246763499898, 31.596423660247471,  4.049248099361684
 1.666087660635157, 11.686204365971069, 69.378262593026932,  3.817012693655619
 7.002203163531368, 10.564593619006414,  8.230683878279430,  4.024206176183654
11.069064809998471, 10.584809485804632, 45.213753682107367,  3.880395853098952
 1.266074768989999, 13.842894042169672, 88.914514241279647,  3.879996562740540
12.100949435588596,  5.894277170891341, 72.240430195767431,  3.952686803657250
 5.535370050306810, 13.155907890838661, 36.223990300186294,  3.941568815964545
 1.219054650405292,  7.366975039660275, 86.292152575768426,  4.017341848043245
 6.398601775822375, 12.260215659051587, 53.490958055434575,  4.221508053397701
 6.800271820144176,  4.272648724863973, 41.689653981796667,  4.029448545083159
 5.438995788374950,  7.865651099534396, 42.143039607855975,  3.663707086522447
14.683202048654321,  8.172234357180026, 24.256659853001363,  3.761351127983312
12.820286476518643, 10.366430148654642, 26.897818445857421,  4.050942040332118
 8.242073287127946,  4.541675121705076, 90.936530324241019,  4.197942122124436
 9.685055590726773,  8.094171611327180, 19.715285284897121,  4.145338034714103
 1.293809172909897,  5.283916865473170, 82.918669744964632,  3.866881924115675
 0.521942019172312, 14.164977295771058,  2.293633650796345,  3.949352054553281
 5.321432316871453,  0.322445131477118, 74.095728029506475,  4.032320003378100
13.851959571170575,  0.563091521116067, 68.456235116343137,  4.099916728339060
 0.858594055131011, 14.170686568628446, 62.448136050535602,  4.080248768891910
 8.754718760710535,  8.517228032977938, 12.862363633158086,  4.094592162815556
 2.620299660784569,  0.521853534224604, 70.446969523623636,  4.381256740050898
11.038896997014632,  3.083857326039749, 88.350281251977648,  3.952748534610478
13.084519807648521,  8.473746157111325, 92.632143856793746,  3.639040528484773
 5.908259961903073,  6.514468378105230, 87.956381159620690,  4.325604841719406
12.589666196814525,  0.780425953467671, 11.799167009241367,  4.129571632838067
12.890476623462746,  0.254754258172073, 55.945707095732828,  4.209021524139727
 7.177702572333806,  6.939105073381637,  9.650991010058620,  3.646769027080055
 8.079073758214530, 14.657522257490939,  3.074960567792838,  3.941251690397625
 7.677986448518935,  9.406314160004953, 70.690788043591880,  3.728131847679573
 2.879177587958124,  0.763730853345871, 35.107184571113862,  3.812477475631874
 9.102046151972257,  8.811428605056042, 26.639470668694219,  4.021137077346613
11.779111940628789, 12.077191045512267, 19.164244074956329,  4.065801857055441
 8.110810212835474, 12.378723542045172, 83.494068393952361,  4.188508457438260
12.211690915780441, 12.366848478738030, 84.173769427302688,  4.033851528013418
 9.748328196007275, 11.289864925835291, 87.237037514998036,  4.091377354490906
14.125154500469872,  3.619863195680717, 43.345625740799903,  4.056173926959056
 9.589130152517949,  0.709141385759003, 20.388442755591075,  3.902087876617694
 2.900192343795156,  4.987254306860902, 29.978842672057681,  4.205131000452618
14.779791504319777,  3.178369415152259, 27.985848606162648,  4.074477269051055
 0.080800122078960,  9.591328285044948, 62.741008424523756,  4.019786733131061
14.148838611789245,  3.973575492900161, 57.169661855715070,  3.936817357431983
 8.683665375931048, 10.045831634929934, 76.981008012376876,  3.674558001215455
 9.631758384036836, 12.812989121629800,  6.213500161000781,  3.956408467755932
 1.432773036575198, 14.552885016869260, 21.119872450181902,  3.728636367207947
 6.014206877363708,  1.095844974894622, 16.167728875434914,  4.067899777316138
 2.015374949798469,  4.156508636045610, 46.536921793393411,  4.121766411898594
14.463118226419276,  5.851228725936340,  2.125906642064316,  4.023605905566167
13.391828742436699,  1.005499913080104, 18.959745454318497,  4.240895038085503
 3.945185459240747,  9.657347716204333, 29.299051916814616,  3.926260398520089
 8.888841330203180,  7.790872468464590, 43.659130786634229,  3.839299557195790
13.484918553439694,  4.966826832652261, 75.950364759301962,  4.168438317194454
10.527992879462092, 11.001346368685859, 91.245263828178253,  3.933040661782814
10.915520173387732,  4.370794399015275, 13.195664602681651,  3.692836556210826
14.173413825742990, 10.510513660702349, 55.818244521441066,  3.960536856242066
13.491557092544761,  6.308699395237583, 89.295109093189311,  4.354401061086873
 4.141239812407284,  5.315670960778772, 80.213744095208213,  3.953619477713539
 5.845893297978382,  6.600869259073630, 27.592658703728333,  4.025512649418211
 6.349777012515799, 13.683851123258592, 87.418027128382874,  4.215247919688939
11.180786421501157,  4.320825256577923, 20.004881600262362,  3.982583572559492
 2.927057009619626,  9.860871453294287, 65.947175787856295,  4.279428824464076
14.121992750447886, 11.166189910909193, 42.741733036477903,  3.932604679911349
 8.242989933179917,  8.923104342135959, 93.638440745868209,  3.869703767895908
 0.533843119839169,  6.701802644157159, 59.864135319626889,  4.174571824593219
 3.660422754297918, 10.162724288695006, 60.730730737950374,  4.246871783849008
 3.265779718143449,  2.842416230661262, 42.901274559426163,  3.971512242918878
10.683824492121072, 10.359909195391152,  9.812727687213645,  3.982750335209112
 4.122424791494780, 14.662326180851000, 24.017200727601939,  4.161088832065063
 1.308321066010884,  3.956800004429358, 67.161896602844280,  4.133515709937428
 4.170549502029997, 12.808478474033468, 17.496272331920661,  3.731106585133295
 4.046249979241235,  6.160156809448269,  1.951078046524787,  4.054904487318700
12.375358287406398,  5.678045482772242, 81.976448705031601,  4.043039488184696
13.292832797907611, 10.396201530148295, 78.832068680239757,  4.315867569506905
10.537987310223214,  5.583748762004697, 40.826874484548043,  4.061125219172885
 7.788571587028731,  6.488344178685993, 81.252048775627244,  3.961805885619858
11.331944302735648, 13.880915615595224, 43.154059528021264,  3.892974172562919
 3.541378553169433, 13.908257619512371, 41.761377283959156,  4.264345643650812
 2.490751927866710, 13.288705213375106, 51.373907901918642,  3.889038402360192
 1.966356018053521, 14.120676248314151, 79.025052404321968,  3.680011073255104
11.880117927130557,  8.583263667014586, 48.859396350367803,  3.480871205526927
 1.719841886407589,  1.637272959658521,  9.108768231154972,  4.413035430312689
10.162892484150582, 13.528046827935444, 26.310064102714797,  4.261073430231642
 7.301478929947185,  2.837800934288733, 49.995329048283288,  3.992437890197512
 5.924202332447690,  4.277375430657735, 73.572029409960521,  3.987169690140064
13.978731665822867,  2.837108245223122, 15.181289392833982,  4.215246659817570
 1.341991454223998,  1.827336471161232, 74.494646840339129,  4.500460596015854
 6.256930234203163,  6.604920758284815, 50.314232447511444,  3.762781414743829
 5.079493841508160,  9.779688428509074, 11.681959379097627,  4.024315628873365
 7.045676066047641, 14.425060164749617, 30.025804118321581,  4.022817600987582
13.218890532912296,  2.850628890104766, 39.430827920397100,  4.088215922199305
 5.132356170034933,  7.597270684662129, 68.525525049430115,  3.809014031940502
 4.663871757917565, 13.831449449362754,  8.034777671599651,  4.012161077981738
12.267239667488512, 12.171029438919440, 34.088379900179390,  3.931768292267257
10.093310619077197,  2.834690139092451,  3.962506752038353,  3.820275259403317
 9.831002917066197,  3.825127862037046, 44.663359565554074,  4.495175271627356
 5.083509272756171,  6.885705346796239, 45.927078691228331,  4.163267772496875
 9.363051465735854,  8.424030649031216, 33.638980030963630,  4.122659211207285
13.218587660383568, 14.480698799951657, 79.114971902918541,  3.853456681863956
 4.346638783621533,  8.247276684040923, 72.351612803928788,  4.066757614019914
 4.097317508514998,  4.634194342310002, 34.215788560012342,  4.104985458753948
11.424235867869783,  2.408827055996474, 24.950353460510229,  4.368138435465323
13.879663133513890, 12.892945642986579, 46.078828020341760,  3.579784577144805
10.845194546179970,  4.772931922289244, 50.263014996835729,  4.071787480571377
 9.504740436991673,  4.080383443255803, 84.503413955107547,  4.227182655495898
 4.247053019300572,  1.507600239376170, 89.862752668846554,  4.344397570943251
13.468271720367076,  0.444949388547774, 59.796619006283592,  3.538518561321243
 7.355666110166609, 10.663230703415827, 46.974405706602383,  4.247468054871036
10.014896740119960,  0.777349363334556, 82.066491481414701,  3.974678219442492
13.200269373182012, 10.231168091695976, 88.657693745347956,  3.588447275584813
 3.023175951595003,  5.369062219429844, 76.319519637242152,  4.133376928896449
13.341718962209963,  8.436822389667405, 34.121342657118923,  3.792771508034858
 5.236997476233077,  6.961885500841033, 92.176888957854842,  3.843672658255763
 4.290364543659161, 10.133868463799823, 86.315428367350520,  4.222170930603968
 5.257252200967074, 12.360876020735123,  4.468455779640633,  3.787540639281922
 0.597220799300678,  2.683939911485977, 78.575656205195571,  3.970131521735495
14.662974165205050, 14.936154922897265, 41.604942062283278,  3.746404483586391
12.622046953372120,  0.019762344212323,  4.867508464992135,  3.944908647187254
 8.553665089104618,  0.443681673318482, 90.434361810137602,  4.063501568855631
 3.617629941790106,  5.302176759966159, 10.210085972703606,  4.104112224338795
11.144173676461218,  4.485780036618874, 64.511949446802433,  4.011588291854340
13.834875793678050,  8.610605809910426, 20.336834452845078,  4.302282950859142
14.612454749027643,  4.552771824558294, 11.417086248285722,  4.143217444994146
 8.560865655469915,  9.861518263528239, 60.275495262805535,  4.185699467642860
 3.227432270861873,  4.479235326071596, 57.870624323560250,  3.867152816393477
 3.353916601884861,  6.161607264777946, 64.893895428968335,  3.390846825285258
 6.659680225299562, 10.184626102841134, 80.248236212477607,  3.985619219995643
 1.564693705984856,  7.416508042249427, 93.162440179591712,  3.667821592589939
 3.259164557142335,  1.036331065414712, 48.743513712790552,  3.891465459178082
 0.737739431583448,  4.410714781700852, 36.575155582611863,  4.073750006936182
10.045005947624873, 10.004574198327994, 16.269515166204798,  3.765870399935259
 3.692078090562309, 11.195259588422600, 21.433422630900790,  4.222497619700575
 3.056985379586387,  3.263928041110970, 13.857214238854342,  4.314276541257882
 9.766218725267317,  5.169746547228051, 56.501183233099951,  3.944504850401380
14.858348399604402,  4.154424575970650, 92.534163783420993,  3.783812127578937
 8.347909148130249,  0.594369667313836, 77.047895787256905,  4.428286822462339
10.905769635606148, 10.215772523525239, 66.088924868157235,  3.957185019137176
 2.059325217377039,  9.676590913565370, 89.917639245797105,  4.156971030670523
10.915936651921777,  0.971964992002801, 62.426432248348149,  3.827280214268312
 7.938587313178322, 13.884516996287058, 60.084530858532851,  3.956889758903298
 5.738602597956919,  1.818512771493351, 10.507520995192319,  4.054633955206747
 5.127325528983172,  8.831958257972461, 76.389245393016964,  3.931009613780759
 2.158512533626867, 12.507923314953846, 47.638869931408301,  3.759813518947005
 3.350910727970020,  0.915425882884618, 31.080594949494113,  4.169062172598782
 3.861924365182747,  2.562463069119165, 63.632721287005438,  3.927236577962055
 9.061097600441499, 14.889542303384321, 46.373825951665303,  4.239914913814171
12.197429338058360,  9.876762150019445, 52.599274526627028,  3.468270697053121
12.325272007686211,  6.292994087982636, 26.882179721224290,  4.148189896456408
10.571383654752552,  9.354488358846545, 81.950370855569574,  4.136330480183491
14.705914536713966, 10.685164375246085, 49.962521400286093,  3.873011832302038
 7.771790890226673,  6.923758247022356, 16.380573979603692,  3.850316551974587
12.647729563452518,  2.628751528312673,  8.019873754044799,  4.236162150902143
11.048521888234358,  1.530687550102788, 29.026702511021714,  3.999787142015597
 4.167380421025193,  5.047465883848892,  6.254717202313258,  3.761488792416660
10.728335583843709,  9.900882854824154, 40.634656543386775,  4.396234787646380
12.542865897827665,  4.119754779875969, 60.787025279622554,  3.971928011385687
14.034528550177470, 13.009291481223860, 52.896387582739550,  3.731077717010363
 5.419638459851776,  8.241564881478052, 53.768370839896491,  4.041524819189580
11.364698158865137,  8.102636107658254, 62.712680166584320,  4.030921308722671
 7.627815900063517,  1.411366379416023,  6.816804718536737,  4.241283772787493
11.824790833760090,  7.998727390574469, 85.713647203564435,  4.232845211321366
13.883883486215971,  0.526015806226857, 35.942380235416408,  4.394475133753773
 3.290308343591987,  8.850246818480390,  8.125638766970459,  4.142831739269805
 5.470198430046955,  0.391989094200956, 56.454770155101698,  3.985618409649783
12.721899659078893,  7.592080947398467, 43.420075011710921,  3.812014348034749
 7.727600217515358,  8.477702972852985, 84.749494770047860,  4.018341654298876
 9.696651796947553,  7.804548722463672, 89.135264160780707,  3.800411541221701
14.206607938288311,  4.598819731626572, 22.654451201170673,  4.035331264953085
12.640812464174196,  7.735358394511757, 12.792809296960220,  3.825514090875027
10.154194139031388,  1.808472780571402, 58.586574258546719,  3.993402633286081
 7.062332910639554,  5.380298710191796, 77.362019360114374,  4.206112703656407
 9.995473160995850,  5.019432269478123, 30.669467888691447,  3.988536034328311
 8.816893293942002,  6.504334498099466, 53.069520772347715,  3.659429964826811
12.435558193944988,  3.561861709384566, 53.689550957958019,  3.848371038720098
11.532267035108074, 12.774749706901904,  1.213799608924684,  4.315547499550944
 0.687891962610596, 12.355078780407183, 58.913194817573299,  3.738909097420121
11.628785842897253, 13.806421839408239, 39.117893138808171,  4.127018971299858
10.267108641061798, 12.969313284321684, 52.588925289931403,  3.815886913189003
 6.570295009756555, 10.298236046700380, 90.095803915373295,  4.419702977994176
14.795300685205817, 10.827323966151990, 30.407451182877249,  4.054583124522328
 8.628342874193132,  6.890159996598097, 66.687963179973707,  4.191737811609533
 8.141159369769214,  5.910986448341701,  2.363691981708910,  4.135132215089829
11.098688304922483,  2.064706703648756, 71.212738156030625,  4.209402416418309
 6.658829839534086, 13.825241183024938, 49.629270416437457,  4.122644142040704
14.053298850836699, 14.182556173461634, 27.699708809228216,  4.100594331910449
 6.456547267914166, 11.743391751831792, 26.373760067028975,  3.891508187137474
 8.852204066783239,  1.172101486294800, 13.332423926356904,  3.924790794913006
 6.356602515570061, 10.528318936656550, 15.357256283303670,  3.891691647028111
 5.417798690732695, 13.617670366851385, 12.993549788562902,  4.103902595927985
 2.381836214012659,  9.958166626740372, 40.575965144289164,  4.286588031296970
 3.983020114626524, 14.241002787598173, 59.935902011873743,  3.939205806553779
 5.048742104231828,  0.928890855949427, 52.598133114259305,  3.842822448041965
10.135715438435026, 12.523686397580548, 13.435719590834143,  3.807558368599039
 9.582665218664742, 14.427461823397168, 16.725248491072101,  3.858660475918992
11.249096717575668,  5.237285799726798, 93.672404057195934,  4.043053276488601
 4.754401011454402, 10.231060181398103, 50.197951208507256,  4.072006987810685
 5.142577629349931, 14.150765738099036, 45.992821951678842,  3.768255259022841
 1.634978214546310,  0.956409991076711, 57.298473114463739,  3.902831929691126
 6.338934227449258,  8.724341922416455, 63.662536922744977,  4.186702512438187
14.588175356643804, 12.211322933710468, 65.696793599473253,  3.927912753459932
 0.225065420973841,  5.120685662603639, 63.561085260822523,  3.686802542371422
13.732517459627541, 13.642173776632204,  8.477111979530360,  4.105127233318149
11.047985469751763, 12.737717924654609, 30.320821531505239,  4.052010338992131
 4.970550689935044, 12.731990436380723, 77.094858679362346,  3.920298904931327
 6.960957935367430,  9.208111182811749, 23.055480251425717,  3.983940956197380
 9.172378329463097,  3.731178105926531,  9.834683519212296,  3.904682872828952
 7.003690740781451,  4.766707345697663, 13.076198635390908,  4.164881674039519
14.559497975336367,  9.936131068922025, 72.144816807771420,  3.892068757355973
11.882674489300157,  8.083917798019655, 58.564915415429319,  4.078918604334104
 7.271197068419725,  0.821277446135489, 63.452812107344407,  3.729608994300869
 1.045550911574250,  0.529873379993250, 92.395841486183002,  3.840978865386031
 3.378069833184463,  4.141258114950448, 51.140583126471903,  3.949342440556184
 2.610689580070821,  8.757945878994802, 56.917084706381480,  4.105859123065786
 0.438084445181671,  6.511618702465103, 14.994485574805536,  3.717787263404421
 1.097654720087270,  9.154888593345047, 75.855050650438287,  4.213544320327783
13.807535620155944,  9.834639595710460, 15.775581351410848,  3.799729937425135
 5.568901749819397,  9.354091214810786, 34.887918589572180,  3.991528483635934
 4.429681430693271, 12.258002663703042, 32.285509124573288,  3.842731856012247
 8.432082312696602,  3.760017209457887, 27.280166564352214,  3.680511674223041
 3.517869201677902,  5.581020128028326, 39.515144388705622,  4.259680581593424
14.772901284058417,  9.130080156043784, 82.745495126240897,  4.400698441355630
 7.416715640775192,  2.185156028157259, 23.218887642077213,  3.794697420801070
 7.619899460258177, 11.882071425855422, 42.923369664076070,  4.217816347076577
13.131120747006261,  5.585982865495168, 46.851856810028465,  4.137053367577904
 1.216337558838767,  2.758258708378955, 60.740916330135867,  3.910352876316435
 5.674779114643930,  5.560617202003323, 23.780420505108406,  3.884605858978909
 5.626721016013641,  5.114808922902448, 84.148244857456120,  3.769620299637365
 2.446681538863119,  7.254093885398888, 49.001509396374921,  3.826462463891752
 9.012693925662216,  1.598055788790467, 53.424191666764848,  4.061317545409161
 9.799174044566833, 12.616941480563176, 79.637403767470687,  3.996332177563366
12.114278688424280, 13.997721765572225, 89.138721896805450,  4.023438650057834
 7.690207479378770, 10.578356482009628, 29.824868801084428,  3.787123616750740
12.426099305524602,  1.094125946034974, 75.633991700782587,  3.750572174861160
 8.318919049590439, 10.852862205265415,  2.975928027618044,  3.660983671137775
 0.508212775125435, 11.409304894847427, 86.057189454455298,  3.774563240998961
 1.276207494151511, 14.785405984525399, 12.812524838526310,  3.817151512689755
 1.622623571445782, 11.999746747644199,  6.003778441197975,  4.132696146472449
 0.690518802940325,  3.224537637329249, 32.860639402631136,  3.682730640709319
 2.204461807574134,  0.088246051372262, 66.271310053765077,  3.997352525401384
 7.352484662753087,  4.783987461466134, 20.435848446376301,  3.756867038638032
 9.274370761513147, 13.694645199984166, 69.398540254763489,  4.163918868782353
 0.953451442843856,  1.559853473033409, 53.282568707332210,  4.319818670675541
11.226455626784958, 12.561813825066523, 75.948528428294779,  3.764820865231873
 5.603243928069424,  8.134337580800818, 19.438748477234522,  4.016133794293112
 2.816496318770826, 12.114761076896738, 73.348615570065860,  4.268559809530632
 0.715065373206265, 12.104085427401076, 24.390615263045785,  4.340146665859504
13.080106965215499,  2.142640816501754,  1.564891431026717,  3.941275970827990
 7.096694930209385,  6.431746769844256, 37.551100719739203,  4.079342125829498
 6.027115512542123,  4.225701314839840, 54.856556616540459,  4.366109138562442
 5.495417658441089, 12.557375354008615, 70.279952696919850,  3.912743543537233
 4.236721316546579, 11.951259688173458, 82.768216898760073,  3.721463864266065
 1.147376470383771,  7.671795283038620, 69.163388531638304,  4.254515416067101
11.058099093684245,  8.366510968520942, 69.473723679847041,  3.750488569192214
14.871080862371111,  2.427987223962532, 89.109707103918055,  3.886274716834051
 2.048592453941350,  8.336014748402160, 36.710715686933035,  4.120489535795024
 2.666907917899382,  3.385857252236488, 86.282456780104212,  4.305699019505897
14.236419096653774,  6.832496614708091, 51.276309896309897,  4.116365750949159
13.826557137746024,  7.671882521099122, 65.894418104575223,  3.786387289839299
 9.090052510435081, 13.711732195072596, 56.262824009228751,  4.022727419330036
 4.424334988320600,  1.846245280642311, 77.767737107819613,  3.931272089512391
 3.441638972449495,  4.579234289437763, 70.532227179293528,  3.880623188651529
 4.315801633971460,  6.105254141164089, 61.279553106039124,  3.961681090642513
 0.922216059286934,  6.264749710112262, 72.997666904004063,  3.919803064944363
14.800419777851394,  3.267783583625936, 70.978693189408503,  3.518857754569137
 0.499240406349349,  5.799325158492628,  7.587143781432185,  4.105933707507936
 0.779046485825229,  7.990729456655441, 27.862858765544335,  3.773501140314404
10.591026615168190, 11.324634065136886, 72.374766678602043,  3.887586805064815
12.815387944310148, 11.765269513521218, 69.167301400303629,  3.913606886705832
 4.562554452517033, 13.027710933036909, 63.732613063615680,  4.080735394851539
 3.764783302029838, 12.887498362562429, 91.730582800603869,  3.875846635498821
 2.485128194949055,  7.222744284191538, 21.778129492201337,  3.989335537257988
 8.458005537164592,  5.410869341800060, 70.560373230184808,  4.102379925295266
 9.076248911947678,  5.876792653285215, 60.336240618476396,  3.845520573010694
 8.811636144455136,  9.710733075153492, 50.811649467541145,  4.131644762857928
14.153440527970648,  0.223532759467058, 86.024764831049609,  3.822383395293632
 2.034278456677323,  1.787508499325157, 39.290910630753082,  3.876759453902208
 2.079015453070750, 11.956947446298338, 10.342506791412346,  3.854367906208382
 8.574199307719290, 13.896331483357509, 10.022974652709284,  4.155281262863193
11.163567698709267, 14.145395870739383, 65.833753316161719,  3.927911494168393
 8.125678113294651,  4.663667955454271, 34.107884411982702,  3.841465458631879
 3.667745305110782,  2.204840235515094, 27.146783471841889,  3.853258230184692
14.957894995264736,  3.074018684446945,  4.797921564645057,  3.740105959760919
12.225481032177553,  4.544350379141609, 34.356450493145644,  4.262871671721053
 7.093463020808606, 10.794095479935965, 67.110323663371872,  3.974567564630103
 2.608104088194825, 12.586335768580881, 55.352435167344971,  4.149377617455816
 1.312591913378712,  8.309708855123951, 11.645309840194239,  3.994570097898721
 5.975729698299415,  2.908762918492721, 46.183407442892154,  3.987822149696224
 5.721939955666986,  2.852326908799274,  3.479430989491427,  3.955795996576469
10.971213709434638, 10.326684080956548, 23.097655598558308,  4.342395319369617
 0.077929417667472, 10.234375685166761,  1.514097415484106,  4.086393689455299
14.475453913626456, 14.678852050909850, 31.795847701647613,  4.153201213209062
 0.369338762131254,  6.712635347012617, 79.240402786594743,  4.198375579569825
 9.716608526693562, 11.021521986776660, 36.801696871362459,  3.809619548696804
 6.132986529119020, 14.819077633570835, 67.020307403881304,  4.018499055952019
11.853619412083860,  6.561864699009925,  9.141294994007204,  4.003382709434584
 2.285131839450059, 11.220746045157304, 14.369853413545925,  4.211586093941067
 3.874502599437128, 10.653608015470496, 44.508693655437504,  4.232593051763768
 3.040306786630163,  1.691516064521747, 81.619824862287459,  3.945559106123382
 3.736365501409125,  8.236943357110331, 82.835603192271535,  3.764050680864856
 1.880366110005757,  6.644007131221754, 43.236285782335727,  4.141486337836875
 6.341837208811033,  1.155319731603943, 83.990906237099736,  4.253070104079546
 2.874752705043057,  0.661071414024513,  5.038928036140185,  3.873685695806318
 6.412553407504634,  7.361684344687847, 57.723336336113121,  4.150816081843924
13.684603830856224, 11.460462575454606, 12.208348109350558,  3.997854554124431
 7.244733786248468,  4.680217965257821, 63.570334116541417,  3.934164976534807
 2.032738498243543,  8.776614632420827, 17.708343295571396,  4.020829294898151
 1.436648642254140,  0.415914221450581, 45.335245983556682,  3.798232375160781
 7.305256613883963,  2.728461246928218, 87.523204328691961,  3.715013667259026
10.854955634944544,  0.773334359812761, 49.952009904872476,  3.949945643225190
 6.686329729812207,  1.718421146097869, 70.546535937809466,  4.065478721747137
 8.986601812633177,  2.013169098683155,  0.130873033189815,  3.842074415102601
10.706355402329880,  7.073468631923686, 78.506632262254882,  4.126083910763872
 7.628731038411380, 12.844898949372887, 93.410099782884842,  4.074178956256421
 6.904763705949870,  0.599741918453343, 26.464492620539900,  3.492044027750810
13.937592276756718,  6.076073683472424, 30.803434433019589,  4.175553829329752
11.055919892153646,  7.338541782761186, 37.206051343495361,  4.049290325667825
 1.839291829215961, 13.098905078339554, 37.837429405905681,  4.108114681592603
14.352328126717788, 12.044718194959270, 91.863929041114275,  4.036740217224779
 3.588492152640604,  9.128051472398008, 25.313935469803418,  4.135052921328645
 8.309175193001591,  7.530915967050126, 74.039150752465716,  4.046747382312761
 0.396617453826480,  1.235830774770753, 24.509000345018755,  3.992359280558560
12.914964812299429, 11.151685906571400,  4.819540701573056,  3.861017475240958
10.650772263149195,  0.823980766907986, 33.059448563838060,  4.213161867771603
 9.307973003701409,  2.334867718830983, 67.448401746658647,  4.131482189049987
13.639582228831324, 10.516379551138993, 37.538750522596928,  4.168481936382292
 9.699568316572943,  3.326721704057380, 37.485675353864821,  3.987655644540329
 5.461411016463269,  3.861056227561984, 67.119303678869088,  4.165733726728553
 6.291078754242112,  2.675975811226908, 59.960453353772323,  4.358899006514527
 6.878971627625012, 11.481796792747287, 73.853760647736834,  4.003601116991121
 9.745216064919044,  6.146655418627710, 23.481091334886642,  4.333770354215457
12.079127205443326,  8.773256868832210, 75.037650426218477,  4.064499306700350
12.240766668895096,  5.675071813200847,  5.353604469452345,  3.814928932174646
 4.414938658012846, 10.305136782754733,  1.010140091285773,  4.431933412091039
 2.863868128327893, 14.393403873775588, 85.390021466424471,  3.934688619624594
 3.071111357216293, 13.325653002749553, 27.857293751770595,  4.147766723010149
 1.097533959362194, 11.742849974956060, 34.115712028255011,  3.825424554238862
 6.561342792982213,  1.071384597467544, 33.681021879246487,  4.039061698007182
 6.423987162965312, 10.293553707470478, 39.080721907173427,  4.318306602657586
 8.040770536090914,  5.398351531114489,  6.358292593202912,  3.821554613376966
 7.069219490282202, 14.340098215399102, 39.707592934377580,  3.942064200098302
 9.803469343542536,  1.721366853544755, 41.066817823820834,  3.814746562694123
 8.949384392984513, 14.600604968593514, 73.234279428358548,  3.502493569816496
 4.450396839627505, 14.625239905585813,  1.347164656261875,  4.091729789131157
11.867641674006796, 12.096340449391489, 58.644549526748420,  3.937085091991103
10.000882508187248,  8.815516861560148,  6.156579940841882,  4.063625290606068
 8.301924308861096, 12.408496843430900, 33.346211564016699,  4.138423563451152
 2.022620869534128,  0.928022434208070, 17.104054200484271,  3.921563496689696
 5.945291795999556, 11.518828833946653, 57.545075318285583,  4.039821686934925
12.271176954584613, 12.337889615123986, 62.532673143869978,  3.881232016374975
 2.481746436205214,  5.309688086378128, 89.957525106070150,  3.957985209306397
 5.885862499487933,  8.430065896224978,  4.863060514232794,  4.169226178933731
14.980365993067856, 12.991628361998105, 76.061942112208712,  3.795236921656618
14.006703683602288,  1.847815598108287, 82.309002356099469,  4.281990548599619
14.416634431887639,  6.917782993460645, 39.735573436371418,  4.403292665387508
14.725957981576663,  3.177802616098336, 49.711245557753102,  3.879405749220643
 1.961112921167335,  2.759326581799644,  1.549066648081928,  3.945720032323886
 5.593496551802023,  0.277258692192517, 20.167538396310988,  4.104887975372363
 2.561009722396324, 10.252195088534778, 79.639323228628413,  4.144301102658380
 1.682904440989039,  8.105013199511244,  4.503518237461626,  3.914484067522127
 0.531190315877169, 12.310594405091363, 18.234963910939193,  3.722623850855470
 6.506278463939360,  3.295146165279486, 30.453194091596703,  3.800740444010136
 9.759958136644794,  3.798959008165406, 74.691081744585901,  4.010031527720137
12.574937032626226, 14.167460555769310, 22.579979194570800,  4.024486228295136
 1.712191045324005,  9.430057154623626, 53.024179465448604,  3.883632186516996
 9.918234886222034,  0.097344003243598, 85.988169855502164,  3.977372762739117
12.033989893456418,  1.783110431339035, 91.810140848154788,  3.702864344213306
12.472686069557973,  4.837588409599070, 68.354920753692070,  4.134431109010203
11.361774306075107,  8.516752997608597,  2.225220603851520,  4.149585611977908
 8.503004325634677, 12.193445130133652, 63.630181245117150,  3.972022178742520
12.612049061228024,  7.137607956432927, 54.861703782798600,  3.675306198849035
13.978152259184682,  1.787492546839162, 64.698919844696647,  3.773197378809334
 7.138214779773135,  2.771225493126162, 80.390960611132613,  3.758467189026387
 0.642971604421990, 13.160741098356725, 82.420176006790271,  3.853733804378109
 7.799650963186130, 13.158048472405804, 22.881377776518327,  4.099507019080328
 4.213523191157866,  7.267920097329498, 14.694891941207555,  3.998454819641415
13.675195581037505,  4.312566835949434, 85.651438520682106,  3.960994738422734
