BANDS
8 8
NANOPARTICLES
cell(1), 15.035
cell(2), 15.035
cell(3), 93.972
 5.290106037599116,  5.532820501433766, 70.457748737106556,  4.121050298262700
 7.341848676868648,  1.079040667623551, 28.000621334034335,  3.479046353910026
11.420515823276414, 11.574220118102163, 92.135730240466302,  3.894132860299218
 0.991460193898535,  2.490851251490226, 90.819939241310550,  3.872087553680158
 1.611825718988388,  7.009459738105528, 67.474434588827251,  4.236533409420417
 6.634981854763322, 11.807941331472186, 53.840223760305435,  3.953656842118211
13.234001270558130,  6.756007630507642,  6.599492966584598,  4.103630519371872
 4.999659179107622, 11.264600756943352, 60.297582584131952,  3.904747799580586
 7.627860485879440, 10.123140692620501, 32.520148796766051,  4.073115099471695
11.130616467133089, 12.515435605716336, 23.311574888139447,  3.847996179282889
 2.132256157252766, 11.218317358446578, 20.677182632820102,  3.553593574583139
 5.527999968567828,  7.955819777515973, 12.828369794344361,  3.994640635029976
 7.359366042540127,  5.072226759214369, 57.328488580289793,  3.969201776061005
 3.446545198892768, 13.212525247508303, 40.947321045462914,  4.186716675820343
 9.570713622016406, 10.587552584128209, 70.460988595896197,  4.590796676366725
11.171073527341127,  2.606883451988616, 65.444379759971341,  3.893321841997377
 5.594376088794852,  7.244082159963620, 52.372504737172719,  4.246293426274568
 6.075216896143547, 14.944183101044038, 60.803532530451676,  3.647370729033563
 3.610891993034183,  0.956861708834925,  2.013225904040584,  3.778370047412093
 1.739018343607146,  6.422509381841611, 91.030402516964187,  4.100666773373583
 8.537475921763651, 12.621165537219303, 35.942812488481913,  3.975484573943381
 5.148560760874410, 10.710360850928721, 49.787576668096307,  4.424016772925022
 4.464655318780272,  1.954231422746681, 63.699300851779967,  4.125649475722260
 7.429111440454260, 13.968705841200263, 23.788700790001794,  3.797302190858460
14.749828066413022,  9.101805367030000, 75.081880065061753,  4.240193784525199
 6.224566475564400,  4.799156785577058, 27.523208144033411,  4.014062846438040
13.452370287095833,  1.783633392107190, 46.015265331490795,  4.195560287040147
11.017743457413509,  4.106445565842757, 22.022440512708634,  4.393098953081440
 6.679798881982727,  2.427935358519644, 75.143404976751867,  4.127422995232151
 5.218694537968274,  7.982291649468202, 34.920899318396486,  3.963811090345811
 2.180691471378831,  0.104882811212773, 53.009913093020288,  4.221948140531178
 7.310151612376439,  1.518957987635469,  4.780680560573042,  3.702953467100092
14.735847559039541,  4.461232468382543, 35.926789140926800,  3.742642816170293
 2.078507469119892, 13.242228219459257,  6.694664631862192,  3.733785222459438
 7.814800165494260,  0.529971818372470, 65.490710669651719,  3.986863137036187
 7.326335741958536,  4.900634815696450, 10.927388773366641,  4.017177856679043
11.799084473528028,  1.050582772749173, 24.758584296718695,  3.954864724911310
 7.073571112939918,  0.215856909879049, 78.531477647817738,  3.976642755928503
 7.990398443565773, 11.676439030123495, 66.566580469954303,  4.088508184117166
 9.154412925383873,  8.840096848647635, 53.811411382550801,  3.831708999425485
 7.771766515344022,  2.252352934506821, 71.172562196670398,  4.109528191028707
 4.714101912336115, 10.250640610523316,  6.841696801958414,  4.183302561537304
 8.167082218472128,  5.357071922292334,  1.702522180927263,  4.050170067944935
 7.305464337090145,  8.943166356411055, 28.668545153283834,  4.004020500720984
 4.029052923857580,  6.414206079582788,  9.500352751851425,  3.760654971286701
 7.947680754251470, 13.621373684614241, 72.987604203244388,  3.943809044805773
 4.318033136760195,  0.359307870813923, 72.420330467255596,  4.131453502151370
11.621169716637812, 11.757660851877704, 74.722714168535319,  3.851493042135871
 4.860909549029294,  8.262002936771916, 89.247061685901528,  3.947579417184048
10.030248801802221, 11.902353284016382, 81.095988663418652,  3.806087211799043
 2.635376927902215,  6.400790520673300, 37.439389827440785,  3.898031093343689
 5.568440495411417,  1.457516314497425, 17.354011501354982,  4.342459320122421
 7.471699368979984, 10.399665004244664, 91.724904162234424,  4.383956171200406
 8.480739770691780, 12.099743357835463,  6.501847372964484,  4.236062193782653
 3.626371922695274,  1.611059176015312,  5.835487273921673,  3.931042800318636
 9.243988960672549,  7.071493525843239, 50.114537035968638,  4.301756006452790
14.950748325176690, 10.994458245917951, 23.847878995500682,  4.109896013313059
 7.836656943992665, 10.176421398855959, 24.829546242192702,  4.103214461949269
 2.224783789588312, 13.570063640668931, 37.058929790620759,  3.716681468021133
12.461051621016692,  2.452527682454708, 85.784194582100284,  4.227608874745663
 3.029120897844996, 13.041437319581895, 82.947058523356972,  3.773573881893006
12.978066328903321, 13.674976340698525,  1.734946823857997,  3.890308748996791
12.484926643247345, 12.955468289732261, 61.506461251750480,  3.905666701120898
 0.317202270173783, 10.999325334043682, 39.692807632607554,  3.847022043379753
 5.756232682214888,  0.443394419341266, 35.498289310871812,  4.040518637407334
14.943758356669919,  5.212099396799332, 20.975635017478385,  3.960134617137792
 6.948110428650737, 13.976449544497001, 43.231256538356853,  4.292304794727064
13.050248053629632,  7.789812611219750, 90.467855079685876,  3.870993792146618
 9.834665825292287,  7.290161732492027, 40.260145279115669,  3.505706068562074
10.943819209640857,  7.990823601251353, 73.663341670806986,  4.058090216601262
 5.845413587758591,  4.155134692880585, 60.774174647117505,  3.677315804597681
14.447370142682534,  5.186045095253948, 39.821510114225795,  4.176547378770218
12.706834915483164,  3.363104087761818, 18.282234489604427,  3.946284117829816
14.657438037346248,  5.159419935144721, 73.965234336317991,  3.903980355973260
13.744712337779802, 12.729232572513384, 27.398868679873047,  4.150580218578901
 0.354428619079214, 12.433269999400663, 85.845668257074905,  4.206270917124582
 1.744687019670265,  9.005154561406439, 14.067677553844876,  4.074720133139311
13.318155542394390,  1.785066508651924, 59.570116493534861,  4.133671838455270
 5.181778273370400,  3.673057068890813, 78.649987480668230,  3.874848300575311
11.118235555149225,  2.696792955098702, 56.163990916922252,  3.997277111107091
 6.229713771434178,  0.556897888715045, 47.180782804825569,  4.310024618812956
 5.312114358987697,  3.240182201395810, 85.702058693448208,  4.017777870855140
 5.804974584876923, 14.602885091684747, 51.171976068575468,  3.940683936249304
 1.235229642427591,  4.220907573823091,  7.768360384864991,  4.133317206645190
 9.590275485322701, 14.534021715063171, 68.866200723087871,  3.894965180848558
 1.535217520461455,  1.906033677271827, 86.786716846383499,  4.245512671910310
 5.452757476677748,  7.621453191269680, 78.983764177589933,  4.030431885425506
13.740630875098784,  5.420017507352014, 29.334997554848467,  3.979084672280048
 3.829183955633892,  6.865034101652492, 48.663706954685672,  3.950499167787403
 1.531751560284125,  6.035381559151912, 77.352264932427360,  4.007635022060521
 3.927054230744841, 10.768304152598585, 30.736628408470004,  4.090160390336068
 5.912187162619202,  6.301110014583501, 31.356757326131174,  4.003784976780729
13.763830949036473, 13.589121824042810, 42.248632471304802,  4.092810680405014
14.972414848427908,  2.225415398735374, 67.376953350115727,  4.066701586397644
 9.943892218017732,  9.678669111129384, 84.335374630392195,  4.053355705714808
 3.245891606565478, 10.016597899767957, 92.645144495492744,  4.297478530906409
 0.630707886266439, 12.831270277903036, 14.242105264986479,  3.902621075483085
 7.321785037218097,  6.780505123305671, 85.626713153939846,  4.115567942836790
 5.070018514023261,  0.620679604555985, 91.434903854813115,  4.070352214931056
11.044638575579320,  9.955404441121008, 63.649154736381163,  4.006523844379253
 3.337240301581213,  6.658031451349994, 85.920569537283129,  3.836130368475080
14.807651307785711,  0.404402791677466, 82.821183907657868,  4.308867927162054
12.905075882593851,  5.791176947709290, 66.631960472754486,  3.702353900912789
14.949856807394186, 12.068921965560573, 64.415683538511189,  3.877470512361266
 9.189537296320141, 10.334886881198990, 42.976788198564904,  4.195216374528316
 2.127848242312879, 12.102865600347153, 73.287994606440918,  3.913755792636904
 1.913086612587196, 11.179846012608088, 68.411892504243312,  4.192784586237164
11.151682456093015, 11.218871974534242, 17.782405304555283,  3.935146476538799
10.999102515488554,  2.378730959448212, 11.486142501378525,  3.822423140072786
 9.799596369402490,  7.925620989164516, 80.670521963938924,  4.064329837605809
10.627324802994405,  3.783855377934258, 74.012712844087943,  4.382893128151558
 0.674933656871250,  0.246678127587893, 24.855473887768756,  4.026762359257231
 9.180702247133462,  3.751068219900365, 78.216849744200331,  4.164418603610687
 9.761444558501191,  1.817611707415000, 15.816978710660681,  4.333649591744583
 4.080657297160404,  5.394190306791654, 82.101078606474232,  4.076386045470730
14.220051875644668, 11.403728253606713, 81.836624108193959,  4.077426271627882
10.146733706572022,  7.872670549242668, 46.130208708473070,  4.017939430737218
13.280334925184905,  6.880710911676235, 70.428201049344381,  4.185192513885047
 2.883971113280437,  3.203759507895967, 47.141816145461071,  4.168655628151772
 1.419330384757068, 10.862398107220189, 43.679501438971727,  4.073022155809813
14.126705428967812,  7.214730580668939, 45.720535736646802,  3.947766171391302
 8.258186242701029,  0.644465259204937, 85.717463148275598,  3.819533296229257
13.784772100201252, 10.907697324848202, 71.458884308558694,  4.074772991701445
 4.128722799939002, 10.454514005522741, 17.493904026263163,  4.079282840876675
 3.074537564001096,  9.932293120387055, 10.482554454329625,  3.782371470615404
11.318466372643821,  8.364284146432539, 23.145150137723174,  4.423400759195121
 7.527195488711732,  3.163176490909096, 50.327008506140814,  4.136621983041492
14.954406434897523,  2.351856285000631, 11.140595536112206,  4.014181168747418
13.998688911886306, 10.935635955328108, 11.236343658035604,  3.896322117578816
 7.841473412570249,  9.700450113483587, 15.923715370769221,  4.085515368629530
 4.995055369876410, 11.791628166555135, 34.778513601068376,  3.625124912073793
 0.035330428925100, 12.173821573332500, 54.815928107096859,  3.506210858738375
 9.370400367080087,  1.400529066017024, 36.911524301387303,  3.939928701850834
 5.902478480896662,  2.784591338061365, 54.123274217409922,  3.603544811159463
 3.561114622132998,  3.641540782908174, 93.355370592588940,  3.692819129990457
11.410068605484179,  8.118791293358695, 30.940713014602387,  3.679886420670594
11.112672696391678, 10.261115634795463,  1.817587848405597,  3.847368150025395
 3.771331798359550,  4.317783471270229, 40.617228981377139,  3.797221823831649
 2.518193453588463, 14.436821728855442, 66.083378184220763,  3.864622410368358
 2.887262738465049,  1.400152945692209, 76.350136513413617,  4.042143397015940
 1.503020160946936,  9.988502471800151, 47.658170309976704,  4.071595238055882
 1.287382518047030,  4.433737382694870, 64.255504731735726,  4.010833106942703
12.372305143293051, 10.160761159635877, 78.374910485953137,  4.151876790928134
 2.318723338742750, 14.703032075494136, 28.580680298870860,  4.154489318054096
 0.487414675494021,  1.332818900975314, 73.170671510988242,  3.913198700264063
 8.314238059823538,  2.467954223287595, 33.092653739502914,  4.048000001485708
10.222903516380375,  7.605149012599075, 93.118576934069466,  3.885971417249068
 3.555906533327542,  5.731618560143698, 58.184382435617195,  3.920636969279522
14.447564501453583,  0.603837930319491, 55.916593406641908,  3.862548648869191
 4.766555255014727,  4.549142496039449, 20.444198319853665,  3.825899622774844
12.913162838807443, 14.346591180285170, 52.326787746741999,  4.322249374731129
13.190534864954470, 14.600633463925234, 16.910275320186461,  4.143214395019044
12.537580329387140,  2.382260533828518, 42.064707356148261,  3.946027114858687
13.844423801670059,  8.719770382062260, 84.808663673401583,  3.938035868176027
 5.773266346404415,  6.733847864552155, 92.778360919455011,  3.937648297278837
 9.746243174070340, 13.423969531120015, 26.898107057388582,  4.009569241422192
 1.858234485389310, 14.947061080297285, 69.609926472459193,  3.372214697415524
 4.595373507648151,  1.026200429939143, 25.463976690414125,  3.974025010553698
 7.276865994395389,  6.155467296506813, 73.844159107799712,  3.821261095119474
12.703212691892416,  9.572346023429171, 14.609073395436241,  3.824266942036814
11.975354759480883, 11.065179051043469, 88.002422281849149,  4.184936933052574
 3.556558196704845,  4.823279599226943, 74.096480744365422,  3.961464439618503
10.326298648919666,  0.162952512020953, 76.176106426238178,  4.019029107286263
 5.028736168680878,  5.795757369253129, 65.085847252706770,  4.111733366614571
12.354553512504104,  6.227792218087828, 77.076521853694587,  4.115294228334488
12.173382082831463,  3.849635791410308, 90.058037606528970,  4.006249616624173
 1.405352474130389, 10.361810121518184, 61.343657386651387,  3.744750604164491
13.422030691896913,  8.576898532057770, 42.052177414986510,  3.936348131414775
 5.349560329697416, 12.962952765758043, 63.908885743703166,  3.826854807885964
12.669342806972500, 14.280739606085790, 79.397356585585470,  4.066864973524321
 4.031585573608726,  9.438912520499628,  2.999215867982001,  3.644048729297488
 0.120507910300063,  0.802740820956418, 34.701876795036064,  4.007311224585620
14.417628004054910,  9.071983277998546, 93.966847952956584,  4.053886599242545
 4.983035882346974,  2.422363836885014, 30.613837748115341,  4.036991080908161
14.091482175311548,  1.368305001165002, 21.399089934574544,  3.903060780300105
10.569667559386309,  0.460335217877026, 88.808572237332896,  3.894000532904400
 3.925853851695373,  2.860890676994274, 67.689245001887684,  4.012890070464795
 1.496084438632434,  2.939090655598173, 79.971215497094434,  4.059980263547522
 2.216212356400429, 11.015125411383035, 27.192648945671625,  3.658891953570220
 1.691826593433189, 12.577212926373882,  2.772410226242779,  4.190418425888597
12.409779025209531,  5.593079951913055, 13.626077924619013,  4.391528348501879
10.006372328276637,  8.125957357900267, 60.234103436748832,  4.002840376221119
12.313041258863583,  3.660802861057392, 32.811252634639480,  4.301128022153747
 7.565631180369381,  9.929563455663210, 74.064255044935777,  3.746565687072985
 0.077106573217061, 12.968129254502522, 58.647543794527799,  3.858150576150127
10.959810190465880,  7.179511541223415, 87.255823347394667,  3.886381413648943
12.815361069065705, 10.382927943549035, 52.712077298342969,  3.594494398044759
13.852327798262198,  1.686682779318221, 28.057002305021161,  3.913040117003988
10.455004001476896,  5.555264441760055, 26.160702548576598,  3.941006995214922
 8.767587882365564,  7.801421679335619, 76.908872632066107,  3.725052636615445
13.669800274567168, 14.178917586409414,  8.432052046585900,  4.166092110491011
10.321892843699695,  0.227371255606637, 48.442543018726354,  4.248860526861377
 8.321355768285073,  6.827270018107240, 89.948552509608078,  3.668790998359837
12.009470157760719,  6.455741529115349,  2.491803898363539,  4.029897025546994
 6.890348607221395,  1.620060123165952, 21.289958904590382,  3.600379473715920
 2.439623330889175,  6.809210355303150,  0.949902913778858,  3.711128035747866
 7.507335192774837,  0.950896657695168, 57.250793156644512,  4.279152942434293
 3.385721638014541,  3.785104361056674, 51.299428452630210,  4.202563972006277
13.398839311079294, 12.806981425663386, 36.738373049624556,  4.092987770318669
11.501768585275000,  3.145281775400266, 69.471358860840255,  4.240820721335691
 7.144880789951493, 14.019460134570405, 31.243743478716070,  4.168330667350695
 7.214358870054872, 13.398007160498679, 88.782440407381685,  4.016979289634022
14.328282321663330,  0.922008157996312, 63.513038161051000,  4.187392396891148
14.298973581010019, 14.517527407905760, 89.105134144475926,  3.820245044076247
 6.051782324624970,  8.668505932636483, 56.212876564545539,  3.995154493493279
10.058725165142473,  8.652682406229967,  5.134801257272981,  3.808571788989305
13.187097264536787,  1.609537583285801, 38.171974012947807,  4.091833514413164
 0.955819748215599,  2.615236407648487, 31.230228233286002,  3.961840791088801
 2.225798701672886,  7.870599600398303, 41.088254111406464,  3.990322141956592
14.383181518339615,  8.951951726731233, 20.641907805396080,  3.576452220804537
 3.031338004522554, 10.079668362164353, 54.019337813504038,  3.954253801224748
 4.687961153903307, 12.016279000077676, 13.601019544122286,  4.383051579094428
 0.395617374597425,  9.937412758772842,  7.720257030200662,  3.887883744228315
12.927384468012585,  9.950223867907562, 67.420620597508389,  4.376282442798598
14.238696854915464,  4.455187167346692, 24.951375589229279,  4.242766208630051
 8.645442104849952, 12.208074952478107, 61.426123758704477,  3.902585841031861
 7.903773675604700,  7.820025384926445,  8.299178173603515,  3.906508464308356
14.764040475818753,  5.703316902723786, 87.451832781137028,  4.221353076103574
 9.540779515660660,  8.773855907404949, 12.224588265154722,  4.234215721132015
 0.090352520191047,  2.066102509115555,  0.784898088553611,  3.989635500871426
 5.303408390043057, 11.071756472165289, 71.091198469789134,  4.026744436155875
14.810709613969507, 13.436548097979726, 76.105479805977410,  3.820717485201752
11.346379384060759, 10.152244080991524, 34.319935099855570,  4.160148322826692
 3.864733037500724, 13.399764666445323, 56.740092803561730,  4.662385475332286
 6.832102886911366, 11.043024435840373, 10.205487946904674,  3.876586382620652
 2.133751434145756, 14.048046017052437, 18.006517426294042,  4.182139187532290
12.523542298280439,  3.237547735041897, 80.679432662852960,  4.091287057149906
14.451417113992678, 13.773585840999459, 31.318640407182542,  4.036948387526107
 6.969782882935393,  9.107902764221731, 63.463752310391243,  4.221536539331340
 9.078185137622434,  3.836999513516031, 87.658521854276401,  3.826130111131968
10.684575518075006, 14.288774311518095, 44.580743139945021,  3.637680314089076
 4.539238087209424,  4.532708785797912,  3.287629788578625,  4.028179456960840
11.196418458850779, 10.684322951431305, 39.416586681610731,  3.988863967332454
 6.424891383311129,  9.049863732268379, 82.503335300437556,  3.810131763034273
 5.862208374778000,  7.322093577517647, 39.644279063367918,  3.760411083532917
11.388749476224582, 13.644000189868587, 65.334615716004492,  4.110053395458248
12.541304279029232,  2.920205740454762,  7.931870517518597,  3.756502554361393
 4.894155665539970,  9.393394451357802, 22.300085129658051,  3.796327208947445
 9.457200683634435, 11.603181560097891, 50.690988894297789,  4.511769378718697
 4.070533316646167,  4.666433717792222, 24.195531591021187,  3.780076830936261
 9.212473856552048,  6.351880698116606, 70.471931314020352,  3.888633003481861
 5.983140579323895,  4.444492362142946,  6.955087203809320,  3.750444534678872
14.025717597514236,  7.618867341410867, 60.011466839363607,  4.010604695549267
14.929023634612916, 11.117664734742693, 90.673052654252317,  3.757798950391464
 5.574714323221570, 12.941170968063480,  0.533235712044149,  4.048997254896796
 6.530577179733929,  4.462392928157008, 36.755651770814232,  4.394739141135703
 8.660952502043690, 14.282373284123789, 92.411628884056313,  3.850769305789736
 0.916307419063114, 11.745819861911862, 51.176946374872237,  3.858177231452124
 9.758202181417099,  1.137276660217633, 61.830279931556966,  4.369737318259046
 2.057199117984396,  2.934072807004247, 60.561330404879733,  3.992991797837675
11.503613856639166,  3.065962801219807, 51.188446943908673,  3.988935501774373
 5.599526032527273,  3.638287345367399, 14.054357008424464,  3.557451498959096
 5.765636565433242, 12.660284352057849, 27.430949698022427,  4.160957169390980
 1.461038488891142,  4.168550582255445, 70.573953406872803,  4.007201813173250
 0.009070569010592,  6.514281086636307, 16.972432113057391,  4.319641328098911
 2.408073711634223, 14.112695127272563, 61.600345815296883,  3.991757871045816
 0.531369770716433,  4.379642642883717, 83.671331225680618,  3.944030045749691
11.770709321481744, 14.997721934564394, 72.283338452128589,  4.262944543145193
10.446889856322148, 12.305699258490716, 54.874545672936158,  3.851766254131839
 1.440637067737610,  9.244245531523932, 87.870862629515514,  3.652735988360902
 2.472742226450200,  7.167125256843828, 29.473422251903560,  4.018875817223233
10.885306462639718, 14.050647696504072, 58.211829650987198,  3.719681935686313
 3.270134799036486, 12.547465508262533, 89.256162050720093,  4.097570596436551
 2.472748000736045,  5.969237952489486, 54.526386490516778,  3.718157239076243
 4.472941902344684,  8.195963127935501, 26.030607374556116,  3.867539928892447
 9.373580863551364,  0.802368819001726, 81.850764234751068,  4.147191657427943
 2.743848157237487, 14.158192738840167, 48.725718061191920,  3.804540260478118
 8.752494520890602, 10.740078632098353, 20.834755227058761,  3.866787642272155
 5.260815422334786, 13.395140811490570,  4.426647466854514,  3.799228853833312
 9.027248386663960,  0.683440609637619, 53.327989362944713,  4.092401413445855
10.116110034584985, 14.558093871440226, 40.449892829499618,  4.208181281346955
 7.460472641559492,  9.198954000635938,  1.642099100999334,  3.739078871351621
 3.114785297738339,  0.834962132697470, 14.062629836230583,  3.934563085760830
 9.780774186570074,  4.598242364978688,  5.508212231611605,  4.320282316612871
 1.860012112462206,  3.063302446867304, 18.300717148244562,  3.933741490986643
 4.911538517875089,  4.270004413542957, 89.597925400028942,  4.065138640165667
14.773395367909544,  3.543492867702221, 53.369342028224317,  3.908790214327104
14.820963620210986,  0.799252061891848,  4.727903431765911,  4.224517930088228
 0.347392211427022,  8.880513783943726,  3.903566525898949,  3.995364737883036
 3.557574913772597, 12.598207033851457, 23.958403496029447,  3.852470764039478
 7.410585111737415,  6.561994827479388, 43.184062017926266,  4.113069250785010
 6.316223598727888,  8.754015172403184, 46.322471855259913,  3.847247627112746
 3.298475185541693,  4.555997915304721, 33.938967828387320,  4.125379630835559
 9.225396129753809,  6.484291948816072, 33.884927991546206,  4.326240933668451
 4.991692441548381,  2.481205551270569, 43.766679169067459,  3.841075674619580
 1.767262036304481,  7.546925453355342, 23.424304583683099,  3.742934917889486
12.358471756402210,  0.555089512942641, 92.319430569817058,  3.969013677341033
14.698438100768163,  9.925614490031869, 30.172458872921428,  3.962322718293025
13.473544083508497, 13.842028005815575, 68.758973484888259,  3.888819181735756
 7.782376629663457, 11.914518076802311, 57.647004680998151,  3.867160048694660
 2.152691781638442, 13.809339275872885, 10.638658011000850,  4.160367471102544
13.772829194426437,  5.434215186288714, 49.133055884694414,  3.739934820484872
 7.496718047482721,  6.370329762738733, 23.050389784698286,  4.184257878363731
 8.514892673703844,  5.759791865833322, 15.230694780573437,  4.013278657093792
 1.117020401903932, 10.935241223078913, 34.044578998586907,  4.450671441924722
 6.616317891027952,  4.836166057423571, 46.740968020664461,  3.942776587254091
 1.425880492850983, 10.084920350640910, 78.710168833055164,  3.999294800812701
 7.119476633322217, 11.764143219248233, 39.637664628322433,  4.117631039457015
 8.724859659823274,  5.254867729105296, 63.301708935274313,  4.161469600068911
 8.014484559151626, 13.322278618191351, 17.349759555011417,  3.663615790274489
12.956349957267072, 14.379366962872043, 12.226775996925216,  3.523881500839603
 8.370558562345826,  8.848626936514227, 37.162760917728384,  3.927928782416602
 5.093096467353883, 13.110595446460959, 75.741365841168573,  4.027167862134966
 6.241835293995875,  7.730777727970463, 59.881209233529468,  3.581616812516538
 8.927321921389932,  2.676581787636669, 44.201326235834280,  4.076537457083742
12.688910480751485,  4.801069051386524, 62.533928181135856,  3.960023036791858
 2.665257476670280,  7.645648725353334, 19.790796613254820,  3.742885534568187
 5.110188644271189,  1.332459221117475, 81.999849713247329,  4.297125754233328
 7.357707992934196,  0.372905156612181, 12.311552241077262,  4.618699696707189
10.778923739509356, 12.016487768839857, 30.619669075339484,  4.203251546705788
14.693420501098853,  8.477612689956640, 55.428664076285088,  4.013824888080577
11.204734955703943,  5.351783852017332, 37.335142420168737,  3.940223749403804
12.426280776174639,  6.625681940412133, 52.720972156029369,  3.940488083073108
10.484076013350890,  1.017840238102714, 30.010347876997479,  3.928415111523331
 8.145271004514040,  2.672496795750440, 24.716917689625244,  3.988632226403132
 2.333040349623060,  3.623541973548523, 27.547539759437253,  4.002251551800373
12.716707908530305,  9.251932805743653, 49.003331264251329,  4.155315616852903
 9.471642508778874,  4.896651936721901, 29.992623657659067,  4.068971391973037
10.892601784059844,  0.254721139108206,  5.705729291844978,  3.914842352535913
 0.142764091949678, 10.600567189030883, 17.394732491149501,  3.870242099465720
 4.606177214704908, 14.459436299504027, 86.071800691677566,  3.777387880806518
10.540779429025308,  4.183298582440381, 47.512892302420155,  3.883182558322857
 1.651568632745534, 13.937733341673843, 92.810922264626953,  4.061581357673356
 0.988371220240604,  7.766532860124443, 51.359849602601791,  4.080465266230937
 2.990516913854475,  7.452217021880092, 44.908281218658367,  3.822236983610908
 3.210537455653535, 14.353403235210807, 32.562776242337236,  4.030905486966940
 1.919604319964134, 15.003772083671352, 44.530127131219075,  4.177890909318782
 2.454206284133650,  9.111265567439194, 82.872112119360082,  4.162646041433347
 9.326438711341039,  7.753238853768504, 66.676179013555398,  4.187872644321823
12.214969985288382, 10.460734280686728, 57.858262632653272,  3.964060158915746
 8.290155562559164,  4.169130908846846, 18.876769730818570,  3.919434137556800
14.257299849689597,  7.149355811831261, 80.799744011981588,  4.447496465646211
14.858365738818433,  2.645847728542369, 15.053819363854906,  3.776948427569608
 8.002219817600110,  4.593291457641602, 82.081620627658339,  3.920783973182393
 8.522218586880816,  1.902935253353479,  8.438668134130483,  4.021294340620822
 4.855638644848889, 10.524087324842213, 85.925972996264079,  4.087702414437778
 1.662863936895730, 14.035509857013651, 79.443220075140161,  3.880645069438998
14.075837366486592,  8.292047413852401, 36.947519916846289,  4.275561355398794
 3.087524514135452,  1.185624221224622, 21.731642477238857,  4.075635089536773
10.375061891282522,  4.396401911485872, 59.546325518467803,  3.613028656922969
11.278969129104750, 14.712021220614407, 33.766713504407669,  4.131521880601622
10.367433335784336,  0.017828635985360, 20.156220961013151,  4.364290086295947
 5.170817625359110, 10.001515736909059, 42.668198266639699,  3.871918182725984
12.711417398484533, 11.683348686356416,  5.236416443675857,  4.166050103992360
 8.399719485468124,  3.237252229569116, 91.576091060506585,  4.213722213775039
14.637897848541986,  8.105066726591701, 63.987558339617827,  4.084132814041838
 2.199995815899518,  5.079650099576394, 13.075458899145334,  4.070972773673558
 6.058688238085820,  1.164756776853926, 39.559969423230740,  4.205292941601442
 2.715933432671526,  2.387486493012069, 37.365154416102271,  4.054073971358478
 5.583715163514896, 14.307397581823786, 68.635865310360813,  4.113132954901206
 8.254981435162101,  9.832782996275194, 87.841355145091157,  3.606710195297319
 5.124175689213057, 11.746011047985354, 79.711407311110534,  4.346315933992240
 3.759073122856702, 10.156615725498904, 37.997981151548593,  3.996865675767904
10.967984009916064,  5.877961579962622,  9.765722315103201,  3.869243418506108
10.167251306782694, 13.059049599682428, 10.120744156592131,  3.908534719349860
 2.832249571070121,  2.464597118609469, 56.216170306033639,  3.840248776650425
11.199877229515502,  5.733137558940684, 43.162206964987917,  3.590403775929937
14.776983072881032,  7.015985923259528, 10.383425265831004,  4.077501063561682
11.103515352120024,  9.513591619907292, 27.279305674533539,  4.161567482707233
12.643100894012180, 10.973455623246316, 45.227443450862182,  4.145574902534612
 2.581049552366663,  9.477968824035361, 57.852555502283671,  3.831333020004450
 6.741738381881023,  7.764817464360266, 19.293651809072479,  3.940536362939966
 6.950669416544404, 12.859099669886605, 83.320354055657575,  4.028151831050069
 5.526945243679493, 14.270895857082138,  8.388139793939352,  3.974205513572344
11.156274698257308,  7.194068023157211, 18.883746640550967,  4.396854679385526
10.146026164758208, 12.570083594290237, 14.100395818595201,  4.104424474991595
 6.537563903518257,  7.453359627304041,  4.785831896659225,  3.654397196616788
 0.063483046982753,  1.827818031703482, 49.795161868342220,  4.044561592492061
14.846451582905445,  8.119267778733533, 26.670036724314020,  3.919144832588956
 4.029009664462418,  2.507675295561495, 10.354858457201013,  4.205079468313165
 9.027188439949644, 13.581463816234214,  2.604427775568645,  4.086796199813330
 8.385762710000957, 12.048635800232310, 46.614000565616990,  3.882907259324377
11.464728092700275, 13.517764984504279, 84.631675124413889,  4.203452648002848
11.443736825564679,  5.776385860146188, 83.625234267186926,  3.948341852269007
 4.459759860846385, 12.123203913618985, 45.900956723833374,  3.868560043793248
 3.116754595302999,  9.784584844469443, 64.784297697461739,  3.840375672237819
 3.930021651364002,  9.113344973397549, 75.461280358079406,  4.194236478262081
 7.184129679582219,  1.628579026851781,  1.039727766414918,  3.746807538318824
 0.927243181395509,  4.274652812849693, 43.623594520840079,  4.153794136454203
 4.256378487321543,  6.413428638845250, 16.380437240044213,  4.152409564685211
 0.017504815904429,  6.942911054179962, 32.877398427104040,  4.111757204037997
 8.975672902071086,  4.945990036561951, 53.662110269185774,  3.961909178941597
 3.036085742059704,  6.925606337298844, 61.809104388840261,  3.775072145938107
 3.004386479410505,  6.963110253646311,  5.750933175728838,  3.522855346531883
 7.879820092428933,  3.996181970731180, 67.498319437605105,  4.025306183328833
11.375632531009805,  9.650743729595154,  8.625160013588701,  3.879121909798188
 0.486414500569222,  4.811024453595310,  3.738706037045682,  4.112737078738115
11.098210130322437,  2.326392443925258,  1.919999840799342,  4.391157458709887
 8.675587048622548, 11.692894527122371, 77.391880405737112,  4.087375886163751
14.767966684259461,  4.809442772434728, 57.175515727001802,  4.107218687868256
 9.237485698834261,  3.607321035318535, 40.279576414827396,  3.939612904435682
11.159306718453873,  6.758176646793961, 56.567533056551319,  4.139673797879533
 5.499589026338960, 13.121993877577282, 20.389023254540636,  4.191167733649962
 5.489117438216255,  8.741623304083188, 67.838953794975467,  3.981807626331429
13.860258979900820,  2.301277771604415, 76.803050457606389,  4.293220750023560
13.723002575115794,  5.332415126144862, 93.227362862798799,  3.627716157039731
 1.080834730951728,  1.417871220668611, 40.834620608745617,  3.832858843975545
13.723294895038940, 12.633707036513808, 20.394758578922165,  3.905310816172731
 2.177701178515350,  8.249112560518620, 71.603892382158946,  4.450252715292694
13.977117317229114, 13.365165854893597, 48.209963629426447,  3.951606916254994
