BANDS
8 8
NANOPARTICLES
cell(1), 11.899
cell(2), 11.899
cell(3), 74.369
 5.734138311226888,  4.625781077880340, 62.849169116889612,  3.749602736241251
10.463687346860574,  3.748007669098978, 53.694236350285394,  3.945154038154635
 7.888619635200297,  0.849402575667557, 17.498498751333081,  4.053153136908563
 3.328788441975779, 10.594371116311732,  6.967849390352079,  3.978513869687581
 2.117215044871058,  6.038343908154949,  6.846494180000512,  4.195692603299814
 3.234234422629319,  8.386625305587559, 23.015916622102452,  3.761813840804537
 3.561909424173027, 11.616306352295327, 28.475951681370809,  3.930807526626524
 2.158022285829267,  5.455289339099827, 41.679194123451857,  4.474937638573905
 3.934096025463612,  5.959424689307419, 33.357656118750519,  3.906020698331919
 5.608229994990046,  3.354459840486874, 13.356825210591200,  4.021866247408852
 0.165873776877507,  7.856633871883715,  3.897869548112471,  3.747062882452764
 1.637703218390687,  1.110109391635751, 61.644485375447893,  3.980994321918426
 6.992543198252379,  2.875753723537837, 69.797365861563350,  3.726574071653768
 7.437016835959468,  0.162056413208588, 24.645129519946092,  3.613607553488394
 4.215226267070927, 11.764027156545238, 16.841794524781303,  3.627902792814248
11.516153025432491,  6.842663405523385, 23.580451958480516,  4.047346362024483
 3.535460942042584,  8.102758626211905, 10.237549508268136,  4.234188529489066
 3.372381834804354, 11.520416889542121, 49.150644278175712,  3.797941745618366
 1.323446276121564,  6.511931606520927, 19.951228056002368,  3.979567796394700
11.384461163767469,  7.773255763397326, 10.358371387900858,  3.881281056054585
11.004620343820324, 10.075221775045447,  6.814659600888251,  3.878660425758034
 1.184749145045971,  2.038917954391668, 13.129190079872469,  3.808367489011534
 7.803441125622371,  3.728456985643000, 50.646749159929811,  4.117729488131099
 8.034217718709284,  9.638962350843849, 57.483622803320010,  3.898961338773799
 0.636910375154458,  5.733914875110755, 46.337563088188674,  3.999787634809645
 5.524893128037335, 11.492188540224150, 71.499334844679709,  4.229166204379760
10.069927073448323,  6.822441490056172, 40.679628419278366,  4.178148852479163
11.046020108632124,  9.911789037041803, 55.099725414772756,  3.802161677535834
 5.676476914563106, 10.175627466404537, 31.730843202984271,  4.344261499592780
 9.710954702182617,  2.640731283657782, 62.989660681892268,  4.080667531670366
 2.205950542415553,  7.369270964964641, 30.056651017970665,  4.056643709656702
 5.104139030152425,  6.221808473156144, 20.530677134961525,  3.684705234618637
 3.403364845615196,  3.467714306511832, 49.771988095903694,  3.991154930928348
11.661037065038560,  9.587737946595537, 47.187332610111611,  4.083800895098089
 3.560844103879265,  5.707558026958388, 26.659552313519903,  3.971356640304050
 9.443921409936127,  6.799536874629701, 63.718127243727231,  4.333114433874277
11.359038796667091, 10.683723261889325, 39.962348433502584,  4.022084407715012
 9.570302353172490,  5.470293163226088, 69.246258458505963,  3.586111953209809
11.608279202875321,  4.749700940043860, 50.100244468903384,  3.832939352177243
10.985521063229829,  3.865896903160360, 10.369458164009508,  3.964141608551715
10.163120798324007,  9.289436029581864, 20.385435801497419,  4.177891097752325
 0.795634003630400,  8.549300251188077, 16.503762622779664,  4.096518143641816
 9.693865140205862,  6.618702008245477, 55.952805907708225,  3.518415193471807
10.756401795292941, 10.814889808570490, 35.712442139983168,  4.545417287637939
 1.029722708666527, 10.956155498983856, 31.448644340225062,  3.988994363898933
 2.921281257006613,  1.848276821003374, 33.776630241987228,  4.200531769940706
 2.959410671660919,  6.880549568226137, 64.482117214778057,  4.108332860828653
 7.120371055998918,  4.386380915215847,  9.812409382707452,  3.904856203193063
 3.394777194073588,  9.920626346870801, 40.735319604146000,  4.105846505473286
 5.487832971553124,  9.133980258229336, 26.074677942059552,  3.972683638367910
 4.764642999348692,  7.866517257099701, 43.859391186657732,  3.854460510493451
 7.235759745474201,  9.596637397414160,  0.746894757296767,  3.879313738686988
 9.073934173088588,  0.361908879842877, 48.754780983686587,  3.984464312211413
 1.531776340263364,  5.760517496244483,  0.954688604594127,  3.935675363234214
 9.872267318638578,  8.498620673159937, 30.053416098997197,  4.333831643577149
 5.865508998788218,  0.325272289504600, 55.634363324939628,  3.791367629731284
 3.514479440455071,  1.321251558107022, 68.391087023252780,  3.936839468500441
 5.827141235228554,  6.422322231057070, 70.838956057713574,  3.955119741063680
 9.306018120596789,  7.045864401272813, 36.768379350188951,  3.799217181323811
 7.240124774418256, 10.825811832443639,  7.420198232061694,  3.887794782939081
 2.546751650052180, 10.891804114424614, 65.253116009256729,  4.096888164744343
 7.338566728067209,  4.521152551177297,  4.144785489924114,  4.393736213736807
 2.820191150377702, 10.574714201616924, 53.603412819412569,  4.233458377005804
 6.801054163075442,  3.053376904501438, 33.236363366882401,  3.995523943587895
 0.263944053096921,  2.975613141723709, 70.719046692982545,  4.188829350517963
 8.355429409067789,  3.546280284121903, 29.396733692211818,  4.225802158204679
 7.796889590922739,  5.696527579552689, 26.083091216774367,  3.743978534949634
 9.805148386887135,  6.259533460431622,  7.163781731014344,  3.861538401366492
 4.171461285783905,  3.520828165363963, 30.089788522259671,  4.254198811859002
 2.858535523644206,  2.932631512214324, 64.911597692584309,  3.834089899169013
 3.274164115179987,  0.492633638404961,  0.519169704682346,  4.078696974338626
 9.510281805908612,  0.217205286076886, 72.044652908680959,  3.910333161707025
 4.500280460307012,  8.218010349405173, 17.530820053388464,  3.618180653549408
 5.546825957129560,  7.448830462501433, 13.864291093294140,  4.160090803037429
 4.191198335439906,  7.441669718888531, 60.636909680858501,  4.043425550076688
 7.808465452361646,  3.350762159658929, 37.209429337511814,  4.218749089042517
 0.566340554415968,  9.175586964007046, 62.222818428691475,  3.914524569934725
 6.050018484572617,  6.038296682908300, 39.900982435880003,  4.157407709362240
 0.396808864206143,  8.864620163298987, 43.326835375534060,  3.850029197918312
 1.255602411098261,  6.728009414643553, 54.052754023535684,  4.117058782498455
 0.619435009453147,  2.423089425573337, 20.403676428345559,  4.335446735954215
 4.218409899483528,  9.116467211682725, 68.445611482240409,  3.936111519543193
 5.754167616917376,  1.788945637397191, 47.293113856526915,  3.579704041909513
10.659423858057686, 11.345311390755006, 59.653570615814495,  3.718803972694643
 0.770619841731629,  5.123962048651752, 61.409371220310263,  4.214495969265872
 7.680184565069242,  1.658433050503806, 59.813630920947446,  3.705225461873117
 6.882466913616726,  4.095412820947149, 55.786870876127175,  4.018619790950612
 3.115454513528765,  3.805852621539589, 10.185152755358869,  4.069128720245923
 2.877168459471963,  9.798724703497282, 34.742910366811707,  3.908876084700439
 8.753338425412592,  7.320421165563937, 44.713591607269528,  4.360975007214090
 8.867141212413619,  0.234571556462148, 52.745646587657767,  4.001483182357187
 6.427289301854891, 11.533565205597469, 35.725803877904788,  4.221854589289382
 8.855638717416724,  7.247435295309732, 48.894771694754432,  3.979820990195906
 8.800079143425164,  1.786566983690156, 40.934470235252455,  4.098475378328792
 4.175278171348111,  3.541303532628663, 58.996572293123350,  4.416832317335273
 2.574120141201338,  2.862697498012610, 54.290621355280784,  4.053417625900885
 9.490539075683987,  1.222439552509558, 56.511807226961757,  3.868174178672710
 8.565140257939003,  8.805066656551771, 16.546068487205133,  4.171446590079511
 4.657922696490016,  7.569024677692354, 56.403240116649151,  4.310814266481841
 5.182536359308813,  2.305812208965186,  7.026960260045920,  4.052497156823528
 7.580296473962039,  8.550651444109880, 10.567057180320052,  3.886864199647194
10.701660650705293, 10.312087127028754, 13.357348240017068,  4.063753308731521
 5.481312595096954,  0.686655761723736, 62.912974126533001,  4.138401608181360
 3.732923532569085,  8.593468932595671, 73.729922553535502,  3.915186461974069
 8.779112023315097,  6.860628244978085, 52.594731437225349,  3.457536638533516
 6.284949498058574,  9.881084510185200, 47.025185221573004,  4.118983929570027
 1.321777367108933,  7.550324902171183, 37.863728790851859,  4.388058592496648
 0.098524323636292, 11.382901140250942, 23.443718194602333,  4.045627869581020
 0.236063256391563,  4.068881952325644, 57.413785672277669,  4.108786900996032
 9.125223677689174,  3.824924447147953, 46.868149324048147,  3.884019858745424
 6.489835098123703,  3.673822729760692, 23.153559147127282,  3.834465266586432
 2.191255926827969, 10.457043808886983, 19.849228135104124,  4.074384009309444
 3.334266491203862,  3.292167844631714,  3.539219582958459,  4.069368033725070
 1.097059685060054, 11.834895913402541,  3.891339569888963,  4.014437639238983
 9.604467254031233,  6.506613865339737,  1.298556268029446,  3.888476708368575
 7.470581384750179,  7.829569238620450, 22.968781696198974,  3.832029371550767
 7.351863581999788,  9.987158752774405, 39.508974437729691,  4.155267144792144
 8.931709219268605,  0.447504780017862, 10.519278554804682,  3.765681876800931
 1.422215816993561,  9.034241873194054, 26.402153101732576,  3.936310418370419
 6.020534379962765,  7.071444374668748,  7.204070734358598,  3.873338487154824
 2.625666091294701,  7.545229220061708, 49.522195120871899,  4.325229002292252
 7.583288293198745,  1.462761011887783, 66.277979068929739,  3.911439931745441
 6.155245761514235,  9.378414625828164, 51.211757225944993,  4.315004856841323
 5.715446539862111,  2.615684885560259, 26.615220260479042,  3.559640002098939
11.339132788518162,  2.196397360000306,  0.794019129625101,  4.329963287247664
10.816748814254250,  3.054566642287340, 34.281894048397149,  4.195413773700651
 1.232489080141287,  1.442413182838726, 42.259759763464182,  3.837629787255549
11.282622467603625,  0.081822897331824, 28.008616698573416,  3.903893642830460
 1.347390957667439, 10.760049043203118, 70.926026362036595,  4.330199905217619
 7.748527265615831,  6.910182416234126, 33.229314681155067,  3.938131618348839
 9.721208471715956, 10.842371148350201, 64.327177979696614,  3.761865509066177
 5.302702044091460,  1.264066695142224, 52.142554760202771,  3.510563961981983
 9.239410015256816,  5.111920174972644, 20.636960805608851,  4.155099003859623
 1.278250078965615,  2.139593125080201,  7.122903828992930,  3.746562396815239
 1.926174337070516,  2.180851323147188, 25.867799659021991,  3.954716979089092
11.051021146859375,  4.831662068572616, 16.950840339163719,  4.072430772766758
 0.909704686222131, 11.478131594525484, 10.065439384266700,  4.068538823276042
 6.178747020189299,  6.938475484209809, 29.284012359507834,  3.830536905668182
10.092104727313846,  0.386763166872082, 44.560240648818429,  4.073016687638130
 5.931910914991866,  5.479496298872045,  0.327100688971638,  3.945970682908041
 7.444471712233530, 11.637528044545402, 28.345744030979080,  3.829577372206878
 8.758444615567281,  1.156148196792907, 21.321670064910503,  3.807906314470541
11.391156233144660,  0.476450977054151, 67.521738534791254,  4.067479964709763
11.760697808371702,  8.201842700529811, 67.171566235445241,  4.317708889006296
 6.648745316140479, 11.281002567636357, 14.060113729266133,  3.821358112781777
 9.426738139187052,  6.091474491602091, 13.414360461247581,  4.107838417160694
 0.002370397424735,  7.103387318408164, 33.599122315799931,  4.295573436631369
 8.060525252456840,  5.791364300900280, 59.579459783559621,  4.606307613999313
 6.778725251466716,  3.885264702259637, 43.678745824569098,  3.827307199271325
 7.173616829950742,  1.679806422458601,  0.641531140801796,  4.069409595392687
 2.805585453371739,  4.637429644979419, 23.010571851777804,  3.782214208207625
 2.776571703498333,  5.313858713801521, 68.318327458570820,  4.183625845553843
 3.808242226226153,  4.288864845958030, 36.958962343077566,  4.011154999145365
 6.810905131207658,  4.925712228717917, 17.092462141393412,  4.413255127575323
 0.615442599808012,  1.890361403611438, 47.400686893281943,  3.973738565614231
11.863389263390534,  0.660516743864750, 16.632457054232628,  4.090696211870346
 4.770605153778920, 11.133595484802102, 59.195805082436358,  3.967241229859322
11.391943474902737,  4.230508074200750, 66.246274615475215,  3.855543931599088
 9.299145984657946,  2.292066864220390,  7.118698338645280,  4.005200962958754
 8.310178935703961,  8.578575596373629,  4.385898378027824,  3.956359776519608
 4.263511547056845,  7.760562267657173,  3.468390371769421,  4.495055841113576
11.493429567252006,  5.536042123804960, 27.480705210279513,  4.134195723760671
11.238195653848033,  9.309752079091346, 51.286764103949373,  3.926738125283024
 3.976582275257308,  0.236722544010417, 23.143160452456335,  3.877111730647845
 5.610254851546237,  7.666013797975153, 36.338642639779906,  3.722937194839361
 7.673612797349374,  9.629251020367889, 61.344554305026044,  3.855086623374263
 6.403428833599961, 11.370413152195376, 43.220846496643979,  3.983849366135280
 9.200288437606247,  0.486695758704217,  3.730566102453053,  3.646843309083674
 2.335871663115412,  0.572380483044055, 37.689832012482540,  4.113978317665770
 4.815872549189683,  2.296280926364495, 19.807679395554388,  4.134516337983864
11.450136096075470,  4.139954124884131,  4.393172087303427,  3.851581020273239
 1.669687293322858,  5.997688161832488, 13.365667484803222,  4.178767211471807
 4.970207653039544,  0.144318078163892, 10.515242892330562,  4.164635878529688
 2.812290072820158, 10.435170851996178, 13.562839501475295,  3.960475632930720
 6.208672790712133, 10.315220585468024, 20.226843935293971,  3.987852313623262
10.142422556097024,  2.999244943373210, 24.514617754048871,  4.060740084627132
 0.233816907808039,  2.856387990375749, 30.520593293399017,  3.772083207047150
 5.451086943326453, 11.793766689435497,  3.836964774359251,  3.943022713601891
 8.156690812335706, 10.052487808700203, 68.553830200529873,  4.157501312853963
 3.990434874265433,  3.257240081089826, 72.159519995697750,  3.820943025081864
 6.642948554214597,  5.405746085648071, 66.656024995792592,  4.229869930594005
11.708135199086597,  3.665600070525116, 38.587105471475198,  4.071328654230093
 4.745339271035013,  2.173873508621953, 40.589808432051107,  4.070301367351603
 5.561170359309590,  5.666446120045786, 47.108643221606755,  4.153039468023131
 9.423905595026541,  9.181348094577354, 26.018800915813209,  3.898644942045150
 2.918116232137638,  3.444576845944914, 16.358344204380391,  4.041143612141828
 8.949902087484634,  4.263799762509873, 72.655556764625800,  3.734988853722710
 3.283038496324755,  3.270998630992914, 44.967657330058913,  3.723766129307053
 6.268256477669728,  9.183180536018606, 65.028674011964895,  4.027045618436675
 9.291303263279110,  8.115244794063326, 72.021717709725252,  4.100880059702043
 2.894931273649552, 11.298092945368303, 45.213175132951640,  4.072789265680290
 0.549883465379321,  1.156082322412228, 51.293100355173380,  3.924009625530361
 1.544107437691874,  0.270523859872264, 57.154856240544220,  3.941563166482535
 9.328899997103559,  2.136999078986167, 13.940790295414415,  3.868796513452483
 0.837397649719621,  8.116723406270673, 58.286296524471986,  4.255530479804865
 4.925989526969533,  5.703293367187546, 52.695569958507704,  3.973349452539507
10.686923766952873,  4.045134099095067, 43.450207598822253,  3.643040510818799
 1.078377212491819,  6.772062008833950, 71.619673454536652,  3.782419768623342
11.792907473928748,  9.862900356438239,  0.472456894741278,  4.206862056626576
 9.226540805277798,  0.348843042594987, 31.727214961307585,  3.872081806808352
