BANDS
8 8
NANOPARTICLES
cell(1), 11.862
cell(2), 11.862
cell(3), 74.138
 9.315914919421472,  0.296130196477447, 20.733486071713170,  4.248751838248110
10.182318410494462,  0.695754219139248, 14.893770171016641,  3.797958323472218
 3.427926653073979,  3.642722986645178, 30.917952193526286,  3.843994331195861
10.655973143454345,  3.955001046676500, 37.343225325513096,  3.876458343857213
 3.598153615194342, 10.013035185726912, 61.895169649948215,  4.194008006648355
11.799925564052952, 10.995720875398973, 73.289705798945889,  3.687282033211640
 5.977431580649454,  8.796651139223556, 34.201609739698029,  3.892052032305129
 7.139987528121076,  8.543665726368291, 59.772305387668503,  4.000684630286049
11.246132742570252,  8.230625076588121, 43.598120780968031,  4.137091619523027
 0.969619841059642,  2.292698953240453, 33.877915615039463,  4.104269132477889
 7.008888610021054,  4.827487412819323,  8.231148977266921,  3.951102470491290
 5.682225430074078,  4.734798636720292, 66.265245491762556,  3.933811955058172
 6.738927640602282,  6.534220400921555, 56.555571938668017,  3.622045087270673
 9.782658748335551,  4.402212807847561, 21.417307004619396,  4.123636423146746
 3.527479559385897,  2.454518680025963, 61.881794907876419,  4.390950192145327
 1.652773622496012,  9.918186201110318, 34.128876260155401,  3.869002986866238
 4.183176374235344,  6.856997152398533, 73.007396336071736,  4.417859680181522
 6.865274106525112,  3.092810972280255, 37.500032511024109,  3.806330018041050
 3.034394544419416,  7.594921094412288, 17.863677119065478,  3.929396495449346
 8.150368896011791,  8.093670392573131, 73.361245642642544,  3.909811685826914
 1.221047794466144,  6.163928008005945, 34.057366217000634,  3.647950227665607
 7.563506308685766, 11.615588996808999,  5.134269019023874,  4.095550955846976
10.848763010622196,  5.910579056756512,  2.254453406710953,  4.116520889652443
 8.770249762474329,  1.707050225262700, 34.300160102219898,  4.136798831461356
 3.135713370375462,  0.931536702929572, 69.245572193729515,  3.970783232615054
 2.668088366005803, 11.569701449188864, 30.694149401211657,  3.990169587928492
 4.828622124621274,  5.102591358107088, 14.937389772843886,  4.039094666664321
 3.968242300261716, 11.256816763503419, 73.040325811917043,  4.361743402267657
 9.366816680927325,  8.254931688693789, 14.792831599008972,  4.155814530542519
 1.442736053205907,  2.944282107424039, 72.786373135364954,  4.356838133370665
 5.181201345048663,  4.832878158855782, 34.326524141898830,  4.176056361190626
11.326888597167821, 10.982864184959672, 51.335536449379191,  4.006172654913684
 6.364571224910457,  1.436831581510541, 14.965500698291164,  3.902911893698525
 0.019600972250103,  4.765077572449147, 25.072322265149296,  4.322805292409301
 7.423692109082308,  3.715401181090916, 30.958659821056074,  4.105428786344770
 3.182120467209334,  6.379675498592009, 50.035920813675808,  3.990455934376078
 0.593592555310681,  2.533450431928021, 55.856890222041649,  3.944419544364303
 6.009530638872883,  0.909715551287569,  8.721695719603963,  3.989304900714637
 1.308219785359043,  5.653255562186414, 40.124888967250570,  3.593110577828713
 9.600388156898324, 10.630937359709652, 40.857789024278638,  3.827418618698269
 9.684139563066909,  2.537911756915892, 49.821979824338563,  4.105545284582819
 1.980601202448466,  1.421884513628285,  8.268943860237329,  4.180087035981374
 6.956602918495540,  5.402471344304728, 43.734109229246670,  4.111719268934119
 0.042125238925631,  7.199312618154639, 72.714197431334114,  3.910093600118637
 1.067882182966181,  8.806569088690235, 47.402211143447822,  4.114261961443448
 5.509882054332510,  8.401001077537527, 40.704967612133586,  4.495980747037208
 8.543216509851616,  1.643587208191954, 56.316062604298352,  4.111665676102954
11.404237898180332,  4.620634058319543, 30.843038644803482,  4.057924092550154
 1.853345033374386,  5.815932280189940, 21.347482529312604,  4.235584342688668
 4.415388203238429,  3.578090744746720, 46.690882965009742,  4.042249952906385
 1.795743431010534,  8.769348877204969,  1.696987266148200,  3.906363936432893
 3.851663906780809, 10.844681953235703,  5.879775747244571,  3.600519405258476
 7.516345799403036,  2.719844123410678, 63.246770918783433,  4.050840092563206
 5.802055420334323,  0.751268228857125, 66.303387359700835,  3.975559592237466
10.918125047045304,  4.041064288293592, 43.644114791485976,  4.261068949040724
 2.826507693601952,  5.442720804896608,  8.168240002593132,  4.017830384516369
11.063156509759398,  7.943204889663866, 37.032346808629022,  4.070452513387088
 8.108147610217719,  0.158153421540226, 72.534822532001741,  4.110884300849404
 4.342831398843209,  3.400027546376517, 11.328937684096728,  3.954404866056960
 5.218855935658573,  9.302528992264952, 14.756073296563791,  4.399614297282708
 8.068519269117790,  8.377650629023275, 66.575585847145774,  3.836983861747798
 5.502792740399867,  1.622205051834812, 43.383955873181947,  3.935734900425201
 4.741831632915919,  2.129835945138423, 50.456591702503673,  4.042490143330672
 9.563920037247117,  6.193744167478387, 62.053945018366804,  4.114630235499025
 9.063564442404459, 10.781611355790261, 48.013834059787385,  4.039309344902197
 4.787478872187672,  4.254492533050739, 40.551312199871333,  3.917234521481630
11.030148641010989,  8.877164734998438, 58.980785493071508,  3.929566317816614
 2.998156131487858,  4.493299960357196,  2.056658524477483,  3.750370634615988
 7.834111625818194, 10.721390260995328, 37.251331190518101,  4.200655694155159
 3.525368298551097,  3.413034200808807, 18.403151873464505,  4.066234346640726
 5.421424440199043,  4.987660610039147, 27.867104708350354,  3.673787145835767
11.767015985215378,  8.653509254253773, 30.713533228527520,  4.033557506256989
 6.776686274731765,  5.533581413985078,  1.947456629584357,  4.051826864953771
 7.662238592810529, 10.382010884287428, 11.501293376647887,  4.018155313394805
 2.118650142032728, 11.662587138096093, 65.285733263384415,  3.888184503930245
10.781196765952174,  5.794705892838103,  7.888328578782766,  3.824580894073196
 5.109766656269700,  9.024207304029579, 28.021340190809134,  4.426490470410542
11.093205367853175,  0.896947605525295, 69.923465220746635,  3.954856817425702
 5.369038632098386,  9.345768957720079, 54.350082611966869,  4.030230129313157
 7.291202190036799,  4.009314477110784, 59.407588190351035,  4.053378288681207
 6.880800753175036,  6.396815598412905, 69.789639137402631,  4.029351301421105
 4.657957923448010,  0.702094791070045, 35.083973846195185,  4.281836392724149
 9.090060899137312, 10.401224134140110, 28.244383167927133,  4.007916501207624
 8.929264159835940,  4.321997402656142, 15.044661992062611,  3.763404813680364
 1.600034203430340,  0.161304458189092, 58.919635037345927,  4.023521024389566
 6.830046776611281,  5.047234170598358, 49.222463838148350,  3.534105690725005
 8.016435469104065,  2.837729400780935, 68.673057720248210,  3.737012051332079
 3.576855526741654,  7.489280537698378, 31.508026642220027,  3.783199933160764
 7.499936200141371, 10.009444777506451, 44.252369901911237,  4.248159321386987
 6.384155900876940,  1.562157677323124,  1.750036178953956,  3.933105651773571
 5.837212379578232,  5.231060911094995, 52.958857285010424,  4.202815097188412
 3.007116298026693,  5.194584874716564, 69.232962682457455,  4.109262082556797
 1.693557799320587,  6.290550799341218, 54.089108595356265,  4.643820720544729
 7.670300251728216,  0.284947266804994, 52.565526980439017,  4.046272512901372
10.062725817366973,  0.009797346574418, 66.141286465180485,  4.072144440719546
 1.162646739071301,  9.748197182388342, 14.189719300614756,  3.834233261073289
 1.492501963865702,  6.708773151943667, 61.274210644696076,  3.673209726601845
 1.094304355057049, 10.086439552169784, 27.095597562504157,  4.067031821939066
 3.021209422616549,  7.157550957250663, 11.834765802229295,  4.073258115609318
 3.325796915540431,  7.624168432190058, 37.030811390158071,  4.190690746083641
 5.374532523831549,  1.374246469040573, 21.368203536431682,  3.868784961566762
 9.133339212645483,  6.883428998799872, 46.837830869521383,  4.007359490214463
 6.177001654522509, 10.281310715483968, 69.467587963526782,  3.852395063061546
 8.309802070434793,  7.451336317518390,  5.228614692041019,  4.124257361807246
 0.787035081714237,  5.748909308257415, 14.955295457412969,  4.083134635389159
 2.969766223250788,  7.532727056855852, 24.792746373697629,  3.758673830648345
 6.933123900312064,  6.967999850961547, 17.791707153654251,  3.963813196984579
 6.735042138047024,  6.706266627102887, 24.681564410657636,  3.937387315260809
 0.553131387222414,  4.589812158365078, 47.521134702442616,  4.112791565633271
 2.614736550544324,  0.654106361719505,  2.689227891926433,  4.016137426531290
 2.683559729652678,  3.551989596760665, 37.301965839028703,  3.938906983651171
 9.229425646837077,  5.784845843181391, 34.102720456809713,  4.074795542652021
 6.661357895782667, 11.566931550238712, 31.381944762747860,  4.099910665156213
10.867310089710941,  5.324453563380457, 69.438662426844814,  3.898848209121549
 4.444775091850198,  9.055209773407286, 21.482547182681753,  4.048649388594755
 5.477261947032885,  6.142924204327529, 62.551231254505026,  4.005678013920082
 3.305023533569438,  8.224672919252937, 57.933030136586083,  4.511300845547304
 9.808605766897347,  9.923528197717603,  8.090227265722151,  3.973884650987574
 7.013546150578881,  8.552935616442809, 50.729305301742563,  4.078962750906879
 4.463851452499174,  0.458977208979228, 39.270160322367957,  4.109965098262177
 7.013599699020836, 10.852950445611473, 24.268488781517942,  4.278884997984210
11.491252823353571,  2.492466803259834, 63.333595601520976,  3.881151966350051
 3.151803026867715, 10.124780577645497, 43.998521461773215,  4.290784135202898
 9.186164812497211,  4.170699364863157, 72.965311298605485,  4.241017376674201
 0.375987304473506,  8.152420040325174,  5.244573232531265,  3.831503004870187
11.090036817406595,  0.693319691035275, 24.476817701752417,  4.040608541933097
 0.808102154666166,  3.766994855862321,  5.151486893080660,  3.955189405522400
 2.841587457176557,  5.911837956313292, 43.689623036427527,  4.172108237666007
 4.065297991969883,  3.682769317088511, 24.389910302719574,  4.147344895058538
 1.507717544349917, 10.609174982401628, 54.823664554044989,  4.108092699642249
 3.366934616956945, 10.244800796097746, 50.996693722666187,  3.964760994985226
 9.878066056822270,  9.850733794057776,  2.325282228060182,  3.977515938982608
10.935214309678249,  7.063428804417955, 18.459721711034604,  4.142976985050803
 9.323237268467718,  6.294168407022202, 40.417570753806011,  4.224090275202231
 5.643165137022625,  0.315557086625119, 58.872842792219352,  4.059326116515972
 4.230037913284577, 11.369437473484064, 18.187371468557892,  3.839485711032682
 7.213214680169886,  6.352499947366997, 11.899189336825437,  3.996871514819854
 4.827748743763655,  2.952131817623635,  5.324421590970500,  4.226342987276573
11.583984108865762, 11.829371603473682, 36.762410370651274,  3.678712492371899
 4.270498466774265,  8.380899790721058, 65.637974090855607,  3.982617712059910
 0.331536697538471,  3.972245206182262, 11.272338560754157,  4.088388957918819
11.401707691519816, 11.846954183744577, 11.239065824804669,  4.027481366499129
 5.133431472461246,  7.591209634780877, 46.701469230098439,  4.105464300493563
 9.552248005915217,  4.917912516618534, 65.822641176842225,  3.835215068315479
 8.290543794319987,  2.464271042979950, 11.722493801153082,  3.910606148239970
10.274311563385483,  5.478123120928194, 57.218204244745266,  3.873484620346871
 4.470385800954999,  1.680679181776945, 54.776621897988448,  4.201888428989995
 1.427386792737193,  9.475447085423125, 40.186412814760139,  4.009321183050461
 1.142499346769269,  2.610183235907629, 52.003108032228219,  3.837901667920199
 7.481803317715631,  3.028958307215316, 18.344144827021164,  3.882970417116575
 3.547267126595861,  3.996545007951924, 58.015645317928922,  3.931486289059318
 0.496748828343758,  9.655082685423348, 21.963693364719603,  3.995040717411786
 0.315458262148229, 10.950658245132347, 17.857071910006297,  4.031315584625021
 7.897781131781016, 10.808460190531735, 17.323767437303722,  3.608319955232866
 4.212841497487699,  7.151656355590013,  4.716643230242971,  4.152915968505487
 9.950744447713049,  2.382018338379311, 27.891826387117970,  3.892329739209245
 9.565302990004948,  0.627950071943959, 60.261324417702397,  4.268692183881927
 0.259708076556307,  7.983082917388487, 66.596947637227814,  4.276221197504663
 8.778628037005724,  3.561028932149454,  4.719479308056939,  3.777774351020172
 7.461025675749658, 10.511458556300157, 63.293234938680101,  4.075646684782853
10.170207520399199,  8.429057560678276, 24.906778625455384,  3.729631370760437
 8.411898844919389,  2.409465266001361, 40.924696212421814,  3.814212999237959
 2.205098326605853,  9.035600126472415, 70.034611098819539,  3.894897235246924
 5.979423723849329,  9.568927978288128,  2.073401029264991,  3.833511108367961
 3.537095250599751, 11.353215031297305, 11.506923555686519,  3.976942158853498
 5.889522371246276,  8.678547316969162,  8.289421868755348,  4.025118613621208
 7.953846119828031,  3.041539118309527, 24.689401058173996,  3.751600412435973
11.506193904538229,  0.059154595312486,  5.209862146552859,  3.812325043094635
 0.544617893796023,  1.702585851566420, 40.330623965993631,  4.341900244149338
 5.205250420755846, 11.570961441159044, 47.311561364517324,  3.946726389249967
 1.957342001013771,  6.388227697381700, 28.260776560455913,  3.797587095712356
11.400133350947852,  3.056973998072714, 17.783799260276471,  4.026822803656372
 2.315258294273999,  5.249285180706901, 64.554054960409644,  3.687768919058460
 1.801212900773828,  9.247514343940708,  8.668113570067513,  3.892177724526449
 8.195794904013383,  2.309849418491944, 46.132573258862337,  3.844428357689377
 6.174388201441084,  1.229239775744253, 27.657998594922294,  4.001834830564820
 5.453381726664460,  3.078102368561581, 71.652084938801110,  3.968915160623319
10.889320242597169,  6.961671233251272, 50.591264170167534,  4.213967018315246
10.756100475147655,  1.872860304340277,  1.845376120439822,  3.969078547803161
 1.565285101981006,  0.815159881677650, 48.441123911066548,  3.907279285087724
 2.244474616626468,  1.798182432039161, 14.724836432747217,  4.350074740230196
 0.709325532737141,  2.922682053607903, 66.988210536650911,  3.759616173437125
 2.045810891616874,  2.121942025212431, 27.568303661794914,  4.000558934641125
11.478699190265372,  0.180703251705300, 45.040000255142836,  4.016472421268777
11.016926763958006,  7.790576595915566, 11.166691098892436,  3.865526222370144
 8.401504467311481,  8.210788783223718, 21.421493605634765,  3.969703977121890
 1.419124144356995,  1.564518314664950, 21.140651858218501,  3.682456045702744
 7.826465606429172,  7.762243414853669, 30.919373346346124,  3.904381810541898
11.446520737570854,  9.748234664534012, 62.869787221797544,  4.081484788300605
 9.781704254218131,  4.262396854253252, 53.486007848270184,  3.984611885591137
 7.140072499930914,  6.797804451661674, 37.172480227203728,  3.619219170800540
 5.866176416655250,  5.216200982885767, 21.143933911160545,  3.883379212217986
10.719700428728478,  0.524043149784831, 31.118085577822537,  3.692553008385409
 3.059667996732983, 11.688398786593119, 24.075927533936262,  3.791176301697063
 0.283078664602904,  3.599859552526746, 59.837377538276833,  3.554104941673474
 9.097289136829296,  6.136594800956933, 27.680892362297563,  3.773731084749202
 9.576610570227640,  8.576083619730126, 54.447201153333658,  4.524360024221156
 9.830634887734046,  9.043728666577129, 69.964656428815800,  3.889457836484263
 9.676269611471000,  9.744150537283375, 33.827710033287509,  3.764199653733907
 9.811554835239901,  2.027463024155178,  8.111929872762310,  3.947612883415178
