BANDS
8 8
NANOPARTICLES
cell(1), 11.915
cell(2), 11.915
cell(3), 74.470
11.843506650500345, 10.725348053790723, 12.685740643787703,  4.028273217754362
 2.951616559194554,  2.570617860353138, 48.084872786198773,  3.675757979519681
10.515285443722286,  4.583706648894870, 45.938235032296170,  4.155909235275667
 5.440051809764602,  9.447469774284754, 33.468899845450203,  4.187950430436800
 8.665361077985157, 10.254329727500460, 20.309732069481580,  3.966848610657534
 6.089541416847204,  8.163761191331893, 65.765686468717874,  3.815114003657046
10.484507641401228,  1.437149139318383, 23.055312818087483,  3.817160551445353
11.273557319282435,  2.961446051436126, 49.875700508885672,  4.386122541644211
 1.033152924932149,  2.744508472104519, 43.228269821481888,  4.002550862251086
 5.303316248275817,  8.313673557139234, 55.996785643553672,  3.731625706249975
 4.149183066671428, 10.814938899869288, 12.657024220616197,  4.124692238409534
 2.644904602368847,  1.575030526481715, 18.609533892947539,  4.219072510420694
 3.734030018752060,  0.457832677309997, 59.067094211925166,  3.692207904661179
 1.897224811319726,  6.251999917572209, 49.843384183959742,  3.925119745735687
 0.717275076954492,  3.775319049709859, 25.431256256561866,  4.091313140625065
 5.233435685641262,  4.354331806681784, 50.476562328680465,  3.833612258686942
10.125009933806732,  4.833826984155545, 59.692099771840688,  3.782167111605079
10.485847810975455,  8.832836464945549, 60.005417934126150,  4.263752690917183
 0.816534958806377, 10.798899512960515, 25.411314627363552,  4.457990570792083
 2.952551107902305,  0.498098000128844, 72.027259353484254,  4.095941357013085
 2.606340874883008,  4.390023477552387,  7.933735699105433,  4.243605470577046
11.750389231154543,  2.335041786338673, 64.002213343958914,  4.327373255340849
 1.342314761339437,  0.543939215971007,  4.703889336725345,  3.957257278009384
 6.722967501691130,  4.016913257772361,  7.398415464077890,  3.784647729721160
 5.766055606415381,  4.196405368373515, 56.294021401987727,  4.131394368970681
 6.717132362974016,  0.559888784255770,  2.533995041062216,  4.304383760529118
 7.610766631519073,  2.620474157171912, 47.945925663264134,  3.921064565510724
 9.140833342941946,  4.047915950122693, 37.669386244074687,  3.937039573487381
10.121371520481615,  7.605257736531609, 71.649462457451762,  4.086440034070277
 8.844860312419867,  3.734952186139537, 71.352638667573018,  4.079144332229695
 6.689821782833328,  7.439579183423056, 22.369841664634126,  3.989594879306194
 7.634030470451998,  4.124960874284239, 43.216545596289691,  3.805805981812326
 4.079129735967692,  5.520156368611747, 33.387525813299305,  4.125822882387972
10.699972415308835,  5.253682883971808, 41.138000494967308,  3.920469843257137
10.908815633635527,  9.826719993023383, 29.167509781987690,  4.111873534326067
 8.108765799053222,  1.469694105083533, 27.539536380294237,  3.934323043530778
 4.401300870547565,  9.449351655352906, 69.108628651581483,  4.102794625842843
 1.098011308858345,  4.501091665310347,  4.133781755289217,  3.935875752203209
 3.423604400366318,  3.677915365396993, 28.983424409402001,  4.163261785972617
 1.959612398977050,  1.298077118820166, 14.762381238894545,  3.614057962534959
 7.752564786304220,  9.991816595208974,  5.883571652817808,  3.714343369058627
 2.325707701861452,  8.252045848813626, 35.785086732038657,  3.931270246173526
 3.068141103505989,  2.315654290489145,  1.396716950471625,  4.098923466446725
 7.725442019344023,  4.150857926001317, 33.900959038847354,  3.731083326395947
11.112598620799050,  0.715416248610658, 53.375487456296028,  3.929129498988880
 4.672097277987961,  4.961558259068449, 25.213021310370518,  4.176440769107717
 3.316245742176517,  6.302358206279616,  0.851457539507974,  3.880830844421557
 8.846639394888584,  6.979073640210510, 63.290488617719404,  3.957922241058625
 2.639148145447804,  0.193644516195404, 66.425963548140928,  4.229905980639254
 7.700094307205169,  7.304822239432124, 36.049554017720375,  3.882910764555905
10.891571074576643,  0.405420780178363, 72.044848652995796,  3.856962816235141
 0.360984811340865,  9.990287806886670, 69.159074557428838,  4.045653032773962
 8.682530477275071,  4.349067316406586, 24.901247122824405,  3.958639971930276
 8.816634665814071,  7.775676323499368, 31.931759215342982,  3.936107851325090
11.671554265894654,  8.602715619982543, 52.920035304336523,  4.241749452277348
 7.711945521611287,  0.677272718062680, 35.615296452352162,  4.007964078016633
10.426854732045049,  6.397085903337127, 67.685057318292067,  4.198902472760362
 4.138486519311297,  3.947685391085508, 41.190846621351575,  3.794714056936408
 6.541162022277958, 10.266653213755562,  9.474886795307851,  3.885469789965544
 7.562350551040748,  4.510667992333449, 30.042651187075371,  4.008783197647979
11.387200607618318,  5.679675392940995, 34.370855830773770,  4.245190346414857
10.747299801811026,  1.985066139283283,  1.655839523578807,  4.406953577230774
 2.065908385740872,  7.702597316891162, 14.540277615626785,  4.252065658339168
 1.237380151640791,  6.857295796562155, 43.808047025405514,  4.007384021124058
11.457623149814467,  1.635112694700519, 35.799921052200069,  3.718320376652694
 2.757921211945608,  7.670418237259530, 39.929354157627024,  4.481861162928348
 0.892606788023730,  2.318102475607581, 69.270378945490791,  3.654234654628757
 5.503136545478853,  1.702386271856822, 69.049856854310804,  4.100754306193437
 0.736286622246243, 10.870008187132507, 38.159199760942087,  3.809054806413957
 0.628462528582285, 10.633215584326361, 21.138418790251940,  3.995912746116113
 1.527112069767778,  7.164514136344194, 27.471698678516606,  3.981098059028108
 6.630119592473056,  1.948050383141406, 22.463262477141502,  4.018294787381119
11.417143100189472,  5.333709719036909, 30.314466872613544,  3.890878054422748
 7.469448007668590,  9.997774915182545, 53.170112502010042,  3.908981821553400
 7.111379851242414, 10.799004013169622, 58.874529952341454,  3.764335144043560
 4.630917470910951,  8.975672464507323, 25.929656143728408,  3.836718883393218
 9.614889974712273,  0.669999166866074, 31.981145300479298,  4.161726346565841
 3.543719611538194,  8.282551120214663, 46.800890077021116,  4.066776998390583
 2.976066795335601,  8.339884285189267, 59.763378707158246,  3.830520267301961
 7.410430752946611, 10.587730135340257, 15.001179792681413,  3.854298937409635
 5.357988049701343,  9.863725518648350, 62.389222922486141,  3.883081170778461
 3.854669535635488,  4.188129091421953, 66.229569143634791,  4.106075573516937
 4.977870738546363,  0.721068167634593,  6.301894801196543,  3.989719196916536
 2.086679927905692,  7.947786789668894, 65.997528577936677,  4.205010920143176
10.668979641601641,  9.817132758633738, 34.855508097632701,  4.080589495785870
 7.149716990871197, 10.572392735239694, 46.600524138402349,  4.484312571908434
 6.959892290401052,  1.627687053651012, 39.884823893221700,  3.935050747628834
 9.213958926528610,  9.981804917195646, 40.195556295145884,  3.871158191049052
 2.908028148904413, 11.148668827988365, 29.466203601242672,  4.151026633400741
 8.582816397677666,  7.225591969247880,  8.350751402122354,  3.776769737258580
 7.645260913255425,  4.778088822218900,  0.824338141292588,  4.098502793087847
 6.659053386562915,  0.949211717044781, 18.095928587926824,  3.953113083697933
11.798924822888958,  1.786610245970454, 28.782644435795156,  3.873326377841666
 3.576042475858770,  9.996586253769081, 52.956000334612945,  3.889326533712229
 6.577968582038764,  0.043454952390366, 65.561400163195586,  3.839658246362851
10.594237223145326,  7.619774316740962, 23.467844678125669,  4.129774168339244
10.792486317862037,  1.534520008367873, 40.199799945094931,  3.746531390247971
10.892435463054136,  9.497361142267186,  3.938088002189461,  3.727917341942919
 4.876115952814846,  4.126019139958316, 72.322460447303527,  4.126356892226212
 5.713598984023728,  2.338324088258434, 14.101804051154131,  3.908189418661968
 2.636090537674348,  4.207894352778101, 12.327824962897397,  4.087976328572619
 7.571089467561338,  2.506450500809776, 53.039175636164451,  4.024903279874568
 9.750198102433874, 10.917029015801022, 50.004910555010170,  4.100566737743986
 4.391949774114236,  4.701539766675691, 20.600895957669852,  3.976315578045549
 3.387765103038528,  0.336863254450710, 40.449318551682666,  3.721647257168157
 4.315160296161427,  4.635962738934266, 16.768004229283655,  3.659101547239832
 5.899553291734892,  6.786532036005406, 14.125901251006889,  3.671951209129349
 5.659390264265431,  8.195976534192532, 50.189753737985846,  3.910376647201812
 9.351742810009664, 10.020507802693499,  0.402661707585972,  4.055823497533735
 8.285243726363987, 10.658695486589270, 69.552107702599102,  4.080322697738295
11.031077885644235,  7.433893492241320, 37.971690054844949,  3.796543575478794
 6.069109143923265,  8.220887327455628, 72.850895857211498,  4.451648300606354
 1.470281108500915,  8.289043732191448, 31.945249282495851,  3.922029186823221
11.038924284499645,  4.638694942103066, 53.729734627240326,  3.948093480827867
 4.141869855201218,  1.822328039489474, 62.786642025909451,  4.266075638535462
 5.699756814843157,  0.200287420752648, 50.380836419083025,  3.935043863320865
 4.679508532694824, 10.643515992854235, 20.879947786621820,  4.122270892054106
 4.983392907207360,  1.871769095308127, 10.086428487137187,  3.906847363194264
 0.273785014770862,  4.517673414315922, 21.490282591516561,  3.881434872254053
 6.371498718354919,  5.879941206731625, 68.950789456478901,  4.040471956320040
 6.294395313412958,  8.279529528314688,  2.667617911167135,  4.132861248313564
 2.344753032597939,  5.932765338509400, 69.602845491511573,  4.066439704202538
 6.883676031623611,  6.272752084950433, 53.215714094639829,  3.621829180526050
 6.894225377936629,  0.565203112221053, 72.873662477532136,  3.962106831567022
10.620795749625351,  7.164615525424025, 19.360992114770870,  3.583118515136938
 9.986085040215423,  7.796907198282520, 15.740549202867605,  3.875541301472584
 2.687920089248049,  1.710666448379243, 22.652132433187735,  3.870497467985325
 2.559127804566984,  8.346616578875020,  4.018546662244463,  3.797984178824374
 7.079496553376364,  4.967191848142587, 11.064507059525688,  3.817862353215761
 8.053879097571626,  7.522173447078517, 27.319374623227667,  4.102422476104550
 8.768305711806686, 11.883723045930632, 62.253388109490999,  4.043286504726141
 4.813549296029175,  6.037807025354406, 62.866693775468889,  3.801898786532983
10.435235824819930,  3.865332182502016,  9.071629252153359,  4.029566449713389
 1.411601548911231,  2.493819139548002, 32.433832586434079,  4.158951997648935
11.293062826363370,  6.550137264146940,  1.177936086438930,  4.036433152328247
 4.213303696399683,  4.496491880450657, 45.034191205415659,  3.967621027172378
 1.784884107590837,  2.463173274934143, 56.134031919445768,  4.403231562322698
 5.234931809276016,  4.353330950188116, 37.091021875900879,  3.959736390040392
 0.459965433815140, 10.668815201345101, 42.573621502717067,  4.153790996648735
 2.593509016772095, 10.136256692097811,  8.279141464070982,  3.964914587406751
11.446321766146465,  8.301054156171734, 47.384813119697746,  4.031672909676957
 2.676551840350648,  1.957847880440980, 52.120645349944212,  3.873156595640784
 7.986764675783756, 10.643381167096321, 24.571241494192986,  4.135137519142336
 4.801961937394829,  7.487958455277956, 29.832812826674054,  4.114883233274843
 7.172743671690685, 10.522911633518056, 29.791077328371159,  3.584253685827527
 1.374040292341726, 10.471019611626190, 62.739959262448863,  4.157024223762940
 2.702221916193072,  7.610624878030420, 22.776234136781397,  4.029653306375863
 5.055960612731493,  4.671468650497898,  3.981184768107801,  3.931099699962074
 9.858930118421780, 10.283316922141603, 56.243067234720876,  3.894519252459021
 5.475927291730305,  1.478241940150266, 31.940212723247232,  4.271671753711884
10.117506569410049, 10.057864698555004, 65.663339630973283,  4.138899889921316
 9.451689523159375,  2.354240073322249, 56.670947181339400,  4.141712069257970
 1.950068984992815,  8.593242155708355, 72.511033671809983,  3.846558445920091
10.209347242805245,  1.256696706545721, 15.253778391505103,  3.761265953477791
 9.109481901063205,  5.746074692181343,  4.635023000246204,  4.290317993152318
 1.876858390354844, 10.200709823265123, 56.504542227226921,  3.982235679822826
 4.175603457866852,  7.416622573564525, 10.581903848217603,  3.831258222966000
 0.770447050629204,  3.919170146395541, 72.832597275211128,  4.157182763745591
 0.158049005953204, 10.605466434786354, 17.283638060246176,  3.754971900690166
10.450018659226060,  1.730036482427839, 19.134919445048340,  4.045691990724968
 6.990172826813549,  6.584361606461020, 40.057805500533014,  4.250025543998448
 7.716049473904032,  3.340816140804327, 63.993884340769860,  3.774687139924539
 6.938397700087467,  2.625478104363433, 59.858124934369123,  3.978134310252845
 9.465932703658817,  1.636573953445673,  5.745168824097138,  4.191787644555083
 8.710877445864398,  8.335335100765072, 12.088806478547768,  3.929458787770060
 8.658273661885222,  1.154158344975593, 11.601075266403505,  4.167297786482242
10.503410408121981,  4.606027584531706, 13.118059615508178,  4.192955809917555
 5.803390304830083, 10.104942598034226, 38.163460404373573,  4.069074465498892
 0.366228816135427,  4.660344267740758, 16.910031795317845,  4.169516849678552
 3.314811113312359,  4.380833254585592, 59.593244271365840,  4.076149507149815
 3.386462283876193,  0.083259887620825, 45.146473829502568,  4.070230977844412
 0.835696965624186,  6.163066683436973, 62.398028846363225,  4.210615088336954
 5.602284465870029,  9.721746483950538, 42.512127416667283,  4.151053224721454
 8.275537004504004,  4.636481312232517, 20.338104281172853,  3.584206235505089
 8.689265770243914,  0.456428942692277, 43.171024234669908,  3.827665685883813
 8.171273290380535,  4.342921382310422, 16.527696546715205,  4.061062995301921
11.281290034580783,  0.430427567047141, 46.326652062816279,  4.326330380697639
 0.171174165219931,  7.420591621470670,  6.856797221319051,  3.820311420048410
 5.368898182411014,  0.252221560989176, 55.648055039770341,  3.887721542287817
 1.414915702297249,  3.942124454167122, 38.317772923561542,  4.068922861456867
 4.004444416721344, 10.493254646383168, 16.498858137899905,  3.588136481103096
 0.322917699766190,  7.323427838458666, 10.697484533565493,  3.864746029334867
 9.306858754981830,  2.289384366127217, 67.492771838754564,  4.191588297962445
 0.737849898802933,  6.414527253244259, 57.168393023064795,  4.029418037397773
 9.180676576067759,  7.933304657801886, 43.798351315455108,  4.219185968169513
 1.911975717815162, 10.966370764367573, 49.437904386251404,  4.128264864455964
 3.508967468827238,  0.795583349449328, 35.749563855432058,  4.387488698607044
 5.063301139530387,  7.445342750596918,  6.807057061363036,  3.910841094045904
 8.933879148000505,  6.621018711738933, 56.215405494180537,  3.657557706527160
 7.064444738130023,  6.390352245843776, 47.002510967869966,  3.919712709946622
10.487900789020857, 10.713453366263282,  8.663870149814983,  4.191945634867402
 4.440844983669515,  0.972103334628171, 26.099120845333850,  4.002503858757631
 2.972847347188340,  5.938818476332454, 53.761555870394133,  4.171896997231240
 6.501680838413366,  7.858570283349610, 17.842463994887872,  4.147348330657572
 6.701994512643137,  6.876186355558739, 59.439620171324833,  4.199910332535081
 9.255778319094398,  6.600136924860994, 50.275001195269937,  3.958919758576357
 1.234974593156147,  1.336909510639417, 10.094754887645795,  3.664449816260134
11.878625686083812,  1.243110919643603, 59.873718577683206,  4.169030702203051
 1.348897753880027, 10.656201824771575,  1.227449954285888,  3.838961927094289
 2.466121987248465,  7.741081535442417, 18.711005888472975,  4.110206791755338
