BANDS
8 8
NANOPARTICLES
cell(1), 11.906
cell(2), 11.906
cell(3), 74.413
 5.185717784685750,  8.982755770889053, 28.707324480785385,  4.012127154312999
 9.070728842030039,  2.172042666466565,  2.640033238192729,  4.104529934669289
 2.552581480120075,  5.503095958448376, 58.296905333879039,  3.913182494983222
 1.841467691974978,  3.862640647169874, 44.056215866459929,  4.051945990371019
10.816001185344051,  7.138448934659828, 12.286770706925513,  4.081948282580776
 8.611392705506734,  8.129153827715498, 34.865365182257428,  3.736455477702079
 9.273520936809318,  8.563703241037642, 39.419015038348292,  3.754247554120263
 7.051803791316027,  6.106672361331624, 66.245611114960539,  4.237913785020745
 0.870558089985225,  1.078636597681360, 22.351711161224337,  3.922919034714361
 3.010876105514153,  9.523574011065184, 48.263917383209041,  4.456887897755748
 4.301543862446793,  6.072756218183693, 20.432615659831239,  4.180579565633202
 7.090344389669757,  2.878070825077216, 54.462691099649440,  4.261627730819314
 8.520289629592455, 11.138704986428431, 29.647269613042326,  4.138807534594985
 8.642780339401726,  7.439903538783437, 18.873678333300777,  4.113553811025005
 7.586407645231372, 10.093405112893995, 25.620395497853522,  4.078302717604585
 8.504844483500984,  7.071995898946472, 53.181561378415722,  4.153022625600019
 0.446736514828190, 10.489857652033841, 40.414871498025171,  3.777632153167675
 4.637539860344705,  4.993356708531910, 29.736567447539326,  4.124278136886013
 7.290266663950599,  7.565521791159767, 14.863980113931330,  4.351044164628117
 0.640569561447523,  3.121987307503705, 39.799858799026929,  4.032038535605255
 1.149978576560865, 11.777654634524145, 18.435861669596612,  4.138133049686263
 9.792983508948073,  4.330029421146927, 44.273424052970206,  3.781358080112062
10.100662340503666,  9.591907102208603, 43.731039850985439,  3.783436878528325
 4.630550850810218,  7.900117599688114, 24.039492641656196,  3.930348217807935
 0.781957873640746,  7.800095774760639, 18.398433501423540,  3.847198161743123
 5.125686343686084,  0.441418727930967, 50.952629847058233,  3.917839398220504
 9.025448544440446,  7.606282832805678,  5.200259120592531,  3.880243626268710
 3.439904136426615,  7.964656558117855, 35.537804850295956,  4.285725479850258
 8.181176192408920,  6.981927686232589, 30.744496162298297,  4.242590405912074
 5.542957757921723,  0.520744783491692,  0.801790218183027,  3.499271208577605
 5.881268686181645,  4.187275530274506, 50.376381593863663,  3.790275597690690
 9.478237081240795,  3.484094945694977, 73.486115463492609,  3.540263376201970
 8.691840649320516,  9.916992910152921, 65.193634691578978,  4.124128099791220
 5.534540020034194,  8.502683840285876,  0.938848625189518,  4.027162356894816
 5.322017768494259,  1.652284870044858, 34.795020881300537,  3.977003634018638
 0.062026177216665,  5.213409854287248, 29.888562419323250,  4.084947948228964
 0.894643718123261,  3.771004516591048, 13.121671875967181,  3.877465786250589
 3.453616029121076, 10.382229768013548, 72.329919710994986,  4.186363168858666
10.896613164182616,  9.803341874249773, 21.150477567670059,  3.843484309405544
 7.934228438625726,  7.810481925286499, 72.311215707001338,  3.838763524517109
 9.080679307409063,  0.601075979035978, 23.002195877606113,  3.637781745443153
 6.605873127308149,  4.469645111145560,  4.955689719046274,  4.048204420791479
 4.752265792564424,  7.701580271374557, 51.677656772660328,  4.028327112264822
 2.190044862632285,  7.343418017303869, 14.723340916306105,  4.069459332049467
10.521618066546102, 10.149893929853590,  8.452573126550789,  4.258141058538927
 9.429042565270409,  5.862173572722465, 49.208997915316267,  4.351141770838880
 6.931282743262456,  7.318824877999931, 42.096166284904825,  3.684760682840415
 9.344330516270796, 11.309165258703819, 53.147033183886336,  4.116474661774481
 4.069930811512565,  2.431488478269441, 72.420957017231231,  3.820462401168059
 0.439116836087870,  2.464118199674625, 71.377573685285455,  3.710348318320349
10.956321159069072, 10.685467615288234,  3.768259341573725,  3.929502940824079
 9.625844691911162,  0.659100929795485, 38.608420570127599,  3.969285903648919
 9.188556873400024,  0.679136417365003, 45.892902332649086,  3.820063205417791
 7.663637436764408,  2.822921611720448, 31.371410629531251,  4.008506632969629
 1.536627464485768,  9.700226764667779, 65.631323868578818,  4.278071057314099
10.317520245596238,  2.030216694329304, 10.331757250866232,  4.204366470310092
10.947828603755546,  6.397309929330438, 64.511039907399081,  4.297318614654699
 5.228772074550547,  7.999200979788860,  6.600458701435318,  4.207334873135938
 3.427756030008882,  8.237462588476506, 43.681404790669689,  4.182074535202764
 2.533794173357733,  8.971941960025685, 56.831461075732804,  3.608617402568029
10.864754464547554,  9.671218867997453, 15.452379729960827,  4.023570284801369
 2.161167323561619,  8.733904823006760, 60.593355775983916,  3.965008549492786
 6.999063658539765,  3.674718646854606, 46.770877110091007,  3.803839010443917
 3.299154184885253, 11.879549314875044, 62.477615518302017,  3.706803219188058
11.110357199198685,  5.891660028512396, 37.359818965218381,  3.885504184101100
10.398871028295988,  5.024754843423326, 33.548492654876313,  3.886249650896202
 0.870227376525440,  9.532717062446768, 24.574713473027199,  3.985752056686287
 7.242471818402076,  7.879117666725510, 46.051459989988629,  4.321382090629443
 3.358788471774151,  6.392339292015121,  3.425517167773682,  3.809065964986315
 4.010298499663606,  5.093778989916901, 40.857126498666489,  4.055959725103046
 7.195669038374414,  2.261307830275340, 67.476506962003342,  3.834257192764407
 2.775942567752131, 10.558247328474136,  8.530936003563871,  3.851098934033547
 8.788699814593294,  5.529174074438836, 57.437280157240430,  4.379395564950659
 3.549894498219802,  0.583884309316926, 14.927267941392017,  4.315187106784541
 4.829769447704474,  1.132615909585136,  6.523027101853810,  3.698070631896292
 6.430539037568235, 10.424097128568864, 37.254641312030301,  4.180220902522440
 3.062654987483158,  4.397182041285313,  6.609194070788454,  3.727181179587959
10.590126815567729,  5.410574968986608,  8.052540253338485,  3.967172773874276
11.716664040889407,  9.769304267968835, 36.595979652430501,  4.088837378476356
 0.264175216908639, 11.311267277223738, 58.484439255387812,  3.698802721790414
 4.155580969146293,  1.203422203376872, 30.789853889134438,  3.797452380516444
 7.099509283299019, 11.355937249255483, 61.664645421868684,  4.127966287847339
10.745549566829176,  1.719666455949532, 15.716177501325955,  3.897439846071125
11.078460017872338,  9.406179820511051, 32.183069232114157,  3.841678269446783
 8.348507577736713,  4.654288483010317, 70.206013210104189,  3.778121113148931
 5.733193535990612,  2.991672144689681, 63.611426051945770,  4.294428578705307
 8.356564655429979,  3.456541518098192, 36.325171821657882,  3.684816678034392
 8.670294644248342,  4.008343358648967, 13.407209996105433,  3.816231525327843
 1.185473081881953,  7.858356845390743,  6.281608920429126,  3.848284406470469
 8.578022332362444, 10.601162468703587, 12.168293461015315,  4.164333968619141
 9.794221989194011,  2.379449182336161, 64.496718643970766,  4.061981545686510
 2.938333388177477, 10.364910412902384,  3.928923906114654,  3.869212612822507
 4.798990024380725,  4.812440729301919, 12.726037439087367,  4.208099570622659
11.492978598993441,  5.925855504339467, 60.603747896973204,  3.646308836625904
 7.255907357937989,  6.093487207325825, 26.777572108906959,  4.076584582901257
 8.513228316774313,  0.046178141159403, 57.219563648308807,  4.138636683538247
10.508076274778581,  1.159450845025122, 42.411814610352771,  3.667269070056193
 2.831789207873001,  0.174724500163770, 37.650416806088082,  3.767489531052294
11.810820273990796,  3.044845753945871, 47.407598945810889,  3.859682990708125
 9.495340655551963,  8.927594768719578, 59.624488395521581,  3.820843608098313
 6.474717023226670,  3.594732985658454, 16.853248133292201,  4.388397759828621
10.560156478131168,  8.254051204944693, 27.634889595061104,  3.990440868031129
 4.285788755323876, 11.870557696983431, 58.686961393916043,  4.110347191398103
 4.942945777687969,  8.338649400763245, 63.456778825852894,  4.056743856530983
 6.151768651787865,  5.386844096008877, 33.940069214158179,  3.851109593716368
 0.929328056595200,  4.528334817799527,  0.580163360531084,  3.671424738161884
 2.460185435093229,  2.340212973496182,  9.812796663697481,  3.981384323507601
11.348230904333338, 11.198399437690766, 62.307362573739688,  4.118519770123753
 0.833276798594293, 10.958325675464554, 12.030791160866059,  4.190808474172385
 2.171256335975859,  6.398482258337496,  9.883824100122375,  4.152266175585016
 9.976213295328128,  7.966830009872878, 68.593177407043157,  4.122396214802444
 6.569339345004846, 10.103953688023928, 21.284422701069470,  4.116581911943006
10.772536664587930,  3.645628305424848, 52.577272938470195,  4.148148956042998
 3.600987318402272,  2.195633580927727, 47.881849369969075,  3.782850788035173
 6.923362217363167, 10.828598747136370,  4.014400644749054,  4.155236230359794
 6.696054757646546, 10.911713894346299,  8.808232972089748,  3.555518752934771
 4.574804828220645,  4.627726098740424, 69.206584136181689,  4.028020462300445
 5.746465806895251,  8.178550023706142, 59.131445046329134,  3.837931852577940
 0.052607409361870,  2.363023752820461, 35.977693312416072,  3.844905686696086
 2.613873932081417,  7.863091492379710, 31.563822675596896,  3.792272778732609
 8.844701612319289, 10.702061515559874,  0.421299712618348,  3.984317576789004
 2.900049153242723,  5.832195838180062, 65.809426790847795,  3.920437423295736
 8.725901473716325,  7.079435124597748, 23.082394371978001,  4.114856001576649
 2.908039545166850,  4.220851539243363, 23.922080415890591,  4.197017744583092
 1.313014034792494,  6.206044674448088, 54.553339123023619,  3.960109847464128
 7.722377910864447,  9.613599260740092, 49.787956059805460,  3.972206091783306
 2.318289370591369,  6.784450588327814, 26.996145888052492,  3.890709310324349
 9.203689465301586,  0.819783049014217, 19.211452809794100,  3.944580837061299
 5.745249789539011,  3.600442537580307, 59.468223157538119,  3.876764711075769
 4.431936532791691,  1.729578532058345, 20.364384817865524,  4.331261294829077
11.318889222901017, 10.097149971507871, 71.774498182168884,  3.976905733438400
 1.243655266239893, 11.158838676992437, 54.188090544861552,  3.712235146211053
 7.647452508545135,  0.719673365813785, 71.282376458012507,  4.420182819717531
 5.339924851657057, 11.621233683432008, 45.271573209141998,  4.208873063035401
 5.999368566958302,  2.144502577360491, 39.006029992477899,  3.907150031315098
 7.430115750218564, 11.583064766248560, 15.908861068457590,  3.888543928981862
 0.071865364887142,  6.732124751916258, 41.682942345724797,  4.189236076571712
10.972863708679466, 10.177759085103487, 48.004551854100605,  3.508406746145794
 2.066176681604794,  3.959657192139184, 17.359327057337538,  4.512593792811450
 2.386535485402182,  3.975423536452515, 33.104384513669629,  4.227382772823994
 5.620216070280931,  1.160599784550439, 11.571290009743041,  3.625620720420967
 8.714479080925452,  1.485449042260796,  6.607492943318475,  3.968943559647239
 2.056305982674102,  7.718933175859667, 69.212273816842171,  3.942694482217458
 4.051618977446830,  0.241310941717841, 24.798385481817157,  4.259812701542186
 5.848562424482073,  9.980448433015413, 32.658005326412038,  4.228735416940554
 6.355834905282213,  1.987671280818283, 27.797966269208615,  3.775904852456486
 0.113475853471071,  8.546408963093089, 51.381604741777487,  4.276734880441992
 7.200176901649257, 11.182243499561661, 41.553883189299341,  4.131092218715539
 2.000726824702553,  4.955261243298190, 50.227867055073574,  4.105438652514680
 5.116442393938578, 11.522186502011905, 65.718686847064774,  3.757393127741016
 4.508054928692064,  9.315461941937730, 17.690483195293201,  4.314869498797671
 6.441390373886225,  6.388124806521737, 37.916841689407043,  3.991668165829641
 3.389534725194230,  0.844372179944911, 41.768871982719254,  4.120570341799795
 2.188858041643848,  2.581097322692576, 27.617931551991802,  3.951030052655785
 0.171855054924364,  7.048500569393731, 46.068815635834490,  4.170312562522974
11.458861442048029,  1.476037072871452, 31.405957654340643,  4.045458506762947
 2.725493527406288,  9.592538503421579, 21.240002141881309,  3.638041733123270
11.709783447389002,  4.850522326106668, 21.058616492290202,  4.329273891565504
 3.863676521798532,  5.791697448126263, 46.780585050718493,  3.752367277439038
 1.617514303583201,  2.371223848538656, 60.223343585078027,  3.672687953234085
10.675661907974440,  5.811545446687677, 15.935841171818856,  3.567773398361798
 3.183160055835461,  2.400060772009999,  3.180231274285327,  4.168451365570352
 0.006120306741799,  4.461066092833204, 68.100387996789252,  3.942227338414303
 1.147552052030202, 11.861052577160535, 45.148357056207814,  4.176950658247966
 7.708357251415293,  7.456931581697924,  9.787626685217317,  3.905486910216973
 9.581297290965678,  2.523456759792365, 60.379892291725504,  4.169822678940666
11.837742483293907,  4.664115588762811,  4.313603937366363,  4.055234069952065
 6.728314731143406,  3.165717525713545, 24.239265863353886,  3.744429098520515
 8.839131110661475,  4.455176880794767, 40.441283189638497,  3.947849017179390
 3.010023343447506,  2.685393479396665, 53.528874850371189,  4.118728750305081
 1.243002657798778,  8.500170347192666,  0.852205893374123,  4.067043801076899
10.733041554469173,  8.861556876768173, 55.990522599159227,  3.857157799600028
 1.826659296644698,  2.070181887866034, 65.336537245489225,  3.954750997665450
 5.449030137225066, 10.553016031389607, 54.650399702853591,  4.326695756374285
 3.461189075812285,  6.295040707694813, 72.696716805076449,  4.020880430316867
 4.641401401794027,  9.150583764813943, 11.872193692198374,  4.244469379225430
 2.882428827946630,  5.293148204793750, 62.062217317714804,  3.647645993669721
11.000164408431004,  4.681055566813732, 25.651776519804187,  4.228491696654610
 0.968344628365512,  0.701619430307971, 50.502942032924821,  4.189064450778089
 8.725040365600028,  1.585196557956463, 49.690036926818742,  4.038152033498380
 7.735334976777521,  4.064365459860797, 20.721346025106339,  3.789164906277834
 6.126837226928200,  3.882378853890857,  8.915008182753265,  4.009755165914407
 6.056880331634700,  4.414268897249206,  0.869586809223526,  4.196499446611567
 9.547169359627246,  6.616007165241596,  1.359856622902941,  4.112429402055425
 5.186243069975339,  6.468745102555266, 55.490632048775502,  4.021983013704480
 5.932354385425462,  9.250971788904781, 69.008954258006852,  4.402118113551690
 6.486929425777319,  2.880746596827335, 43.107983513386564,  3.747659631977334
 0.084796270041026,  2.823186738770717, 56.494308114224154,  4.214147307477885
 3.298171824047729,  4.170197329235872, 37.055342375717352,  3.890781840414893
 3.694176790692390,  8.787219987024383, 39.605847117714681,  3.667758409060168
 1.535335555978516, 10.719527003803590, 29.044831890390128,  4.098183215178508
 2.127659611889639, 11.444982306113777, 33.771674031227320,  3.949236484315755
 0.804152853527133,  1.260605816958501,  6.334302922926872,  4.020559377756479
 7.831571625504353,  6.072730995564802, 61.753062082423739,  4.034384411757238
 3.184026109020289,  0.807229289775659, 68.918235909499160,  4.088440945646988
11.497617375579006,  6.150897392195688, 71.837455249092855,  3.909072475817443
10.782350431258786,  0.592190044983953, 26.478588830754902,  4.101337905900948
10.862033638359657,  0.352448515719312, 68.134007943582702,  4.535190955138043
 9.051004598697098,  0.106529860645393, 34.417096761282842,  4.127993815795620
 0.573095030484380,  0.633133644882838,  0.447069862637581,  4.154758379648807
