BANDS
8 8
NANOPARTICLES
cell(1), 11.917
cell(2), 11.917
cell(3), 74.483
 2.841968696971051,  9.463662374354778,  3.971645916241705,  4.077303448166809
 8.027318603596450, 11.082517929181527, 13.792650414497961,  3.765608572844076
 5.288001935639329,  9.472709195100245, 32.257236428351646,  4.158342992366911
 8.358224432848274,  2.917954036575827, 65.475189362277121,  4.263422465129579
 2.385201861357912,  5.065019555585202, 10.129833519377421,  4.105796899211481
 7.971370519586788,  7.194598904437587, 50.811918996053308,  4.714806154683790
 0.592778359562875,  1.655396377938845, 33.805870932412489,  4.319005884655113
 6.466125340006030, 10.242840875718805, 41.929049337865365,  3.938906497021101
 0.589008774826249,  2.467456841262006, 13.428102960474291,  4.082051179814584
 0.191133595816232,  4.045588923621759, 40.596194344251032,  3.870497852505775
 2.622216883074615,  2.347676374771760, 61.145307265188357,  3.655246126442046
 5.489063200639922,  8.730096257561845, 70.279349757509763,  3.861881902057217
10.210263849913037,  4.526679216137008, 10.649608254372064,  4.211670006126816
10.834411390567155,  3.991299285292500,  3.998916382420801,  3.982330715045940
11.797473104981421,  5.124419867248647, 66.572015410570430,  4.194958325257669
 6.879960064077830,  2.266268515401836, 42.721848799891944,  4.116197503370936
 1.616697700558106,  0.992918813226848, 37.865029316950078,  4.148851563485792
 3.722207449918121,  4.202568640961086, 51.368990552200131,  3.667876439409175
 8.946525780131111,  1.760955820976232, 26.236988142701051,  3.997969550800732
 8.169841705653546,  6.860618510971236,  3.192832726139637,  3.991660562115976
 6.496471344632702, 11.345550780117412, 35.694582589194745,  4.029280093130158
 3.238174972742889,  5.659499667900347, 25.434564649639292,  4.235422503211097
 1.936074127122797,  1.428431453759336,  4.277897184946814,  3.911900062756815
 7.292492540883178,  5.617147183914949, 26.390996351513778,  4.088121520943256
 8.201084824346236,  4.945231499455547,  6.978526430011181,  4.193941125766216
10.805928744228932,  6.663648596217771, 54.459491252018879,  4.067261762179432
 5.817013587035950,  7.771164630232483, 23.025568703132631,  3.988089545495189
10.113601866471594,  8.492173146728984, 41.968062617003902,  4.141933069390414
 6.048738567705418,  1.330502242330432, 16.305738019231121,  3.954161197967817
 2.823000463824282, 10.567262370989940, 59.905689294963864,  4.101897942770438
 4.853698800417789, 11.660354982643424, 50.573879426103034,  4.060498011945853
 7.334318091686903,  6.780586302769131, 72.962522382644238,  3.708103807795593
 2.076344379914689,  7.389259994234886, 69.066390270322884,  3.842180153104297
11.241993114188427,  4.054371045997021, 36.890195613176182,  3.728722607949542
 6.827615864862710,  8.932288675762573, 54.651232899852097,  3.852814182939854
 7.238106779919565,  6.252359254397738, 44.236725660499033,  4.441826498575914
 2.088122518303419,  8.944310037024934, 22.441103273253553,  3.750470450149271
 2.136206146457984,  9.741560743782365, 35.085977306941508,  4.327949121782960
 4.361906851783341,  7.494929708258672,  7.329575010349563,  4.278686166829693
 5.033681049943955,  7.850676826682480,  1.185009265800777,  3.704367923294872
 4.281874654913701,  7.239588272053967, 13.500462844983671,  3.813008148501790
 4.845587498517965,  4.652054288247331, 63.404461953201540,  4.179940434925639
 2.239720693602603,  0.744824200303118, 16.639036106952961,  3.774271941170211
 8.250860102809391,  6.358578103159764, 59.779925392785302,  4.304839500256109
 3.649612200968408,  3.983892846959779, 44.563402921499332,  4.072702552914786
 8.882132151022152, 11.380175496120621, 49.856758448569700,  4.049224518453763
10.242941709720338,  1.403121513636502, 22.353893150548398,  4.205144907532995
 2.092531275778941,  5.626472905277319, 34.722488866865007,  3.917997520885019
 8.031582202908126,  9.001688977153018, 38.541919484107424,  3.912620509730575
 8.647633932683195,  6.920408150232604, 68.594982084450919,  4.106886430243778
11.649661603815073,  6.765944891151928, 19.879697629778420,  4.006389072841428
 4.489293181039547,  3.454514908763527,  7.187968615859273,  3.809813890950707
 8.611613012680326,  2.262160146992626, 57.603410304858777,  3.713423975764692
 1.971436100226315,  8.618315161209653, 16.718085753935629,  3.800494053619440
 3.795007142967656, 11.775094909815888, 44.533190915411254,  4.123276573067010
 7.682864510845452, 11.070556475180554, 60.110548007172170,  3.753515755268816
 8.524275776766265,  6.984658958756151, 64.469129355461078,  4.119357680836718
 2.608869148868803,  6.487100559534947, 60.366470965145055,  3.845059050442261
 1.473530849735761,  8.475066933133373, 30.935926450119684,  4.146831027449363
11.181733430674807,  6.774895072780192, 71.916768358292970,  4.253180379690061
 5.022159378672357,  3.883512292246490, 58.364664908133129,  4.305694340774327
 0.401486081138106,  2.928807690372201, 19.230403710534180,  3.889110546402556
 5.082718986449778,  8.020778540001530, 57.914505969942859,  3.763373058312940
11.374190676158561,  4.598501460340250, 62.302732338355852,  4.449413456614744
 0.892614827023856, 11.375614061247070,  1.022612182215296,  3.959878192105573
 3.842819513920989,  8.023850469333924, 52.161025357674760,  4.125878307451357
 4.288035774039222, 10.902110348736892, 24.927450415562788,  3.945803169352267
 0.173910797508217, 10.831675463812761, 19.500563522428276,  4.162642240841608
11.095802271709269,  5.192846620575987, 31.985143488902306,  4.120375714749955
 8.345248429204078,  7.647650248020222, 30.152749561293550,  4.111627049142879
 2.532116003300572,  4.692672193752283, 16.304334105047687,  4.163376859367132
 3.268482244058592,  1.952830008001031, 41.282208661012270,  3.681023118552616
 4.268412741895089,  2.773166673371006, 19.449606146883365,  3.812822765773434
 1.135594871576479, 11.590915841203316, 63.519650307546677,  4.086288781597569
 0.885039660843697,  4.323667657945303, 22.641086274266009,  3.528709772201103
 6.099577077984997, 10.955645601626363, 73.628996693467997,  4.019640559833049
 2.110938158020478, 10.344134080496605, 47.935786708810880,  3.984291435377989
11.453698799229128,  1.782992430508991, 29.766359406939664,  4.033536092135629
 9.654683338151075,  7.285638138378293, 35.258030571133517,  4.166244080523598
 9.119317060834026, 11.389190580882543, 44.683676927807390,  4.043653709650353
 3.706495995587210,  5.303085079513775, 73.020822356957169,  4.105198251336724
 5.598199449221205,  4.405917045673389, 69.539402328422909,  4.017719045169788
 6.084310069822732,  1.488183815185207, 38.930888232544575,  3.677041507838519
11.225455856606276,  9.105411956105893, 66.496679537015140,  3.845979565234078
 9.729509419155642,  4.841216777382843,  0.451956397558706,  3.458647866359762
 0.030323874063449, 10.655385381421070, 25.183047974634199,  3.911900639847348
 0.754608506163514, 10.849295760666472,  7.134108539738463,  3.988111128343659
 4.194540809292963,  9.906305286532422, 38.721839672587670,  3.941123533235430
 2.321067584276203,  0.950603259509885, 22.197717534170042,  3.840525486569133
 3.615452288436241,  7.220184584341198, 41.847140207970845,  4.369989423401956
 7.279182064769302,  2.936201253723700, 72.859732533303216,  3.979618716883111
 5.123890632991952,  7.092618575056317, 66.646375049628986,  3.933535590478538
 0.719757099691148,  7.326056814353175,  1.253415309617842,  3.994136334803525
 8.351608354570972,  2.863060562475726, 13.692424477358504,  3.656034717331957
 6.169681902873702,  9.395361514040401, 47.206517037823033,  4.466022954988179
 3.137696176083880,  1.089754576832544,  9.989902534935540,  3.980557825151507
 5.887885466402337,  9.228462214513680, 16.524366567894170,  4.085679658163243
 6.551331308161929,  5.274693671922917, 16.043800393119344,  3.974861084249269
11.397693502328845,  5.332095703834931, 44.201570725923112,  3.913916925578594
 3.690275799566440,  4.640271081607954, 38.370750463015760,  4.287917554634165
 0.134830753838155,  8.507188243799877, 50.771447423780039,  3.843605290760595
 1.092044257133199,  8.758433773577163, 44.594031775477504,  3.688532605310028
10.764937322568048,  0.434573763523013, 10.358437241835949,  4.060643044696057
 1.340064059663566,  3.658209975506134, 70.138248398473451,  4.036165926030754
10.253696369707146,  8.468760161894897,  9.815328195072802,  3.847008462530461
 9.875611139048370,  0.517113239189009, 40.153351083376691,  4.516112843711730
 7.154267834181358,  2.983414102109867, 50.403529913826553,  3.867642623926407
 8.999101764925458,  5.263682877911390, 22.769865848257041,  3.947262436244963
 7.157029476612003,  2.015521562091699,  9.615169651388962,  3.951722234361596
 7.092367988699886,  0.845883950277128, 53.559904377961779,  3.719110374881710
 0.905397724064243,  2.415561965081049, 26.105511333970000,  3.866520737560921
 9.375540822252262,  4.797477300483242, 47.516023355825745,  3.896059372898606
11.609777528020352,  0.997071254364599, 66.981132770241004,  3.867060206898413
 5.277889613064465,  0.425908250491138, 63.784625354927179,  4.348416630623503
 1.843806667000615,  1.556952222371222, 57.433727509322289,  3.775038041040891
 3.314553829365767,  1.378152494444978, 53.877708854914772,  3.926634212113840
 0.729004830676051,  0.453856242983037, 51.054054879175233,  3.949097342351235
 8.297364778438999,  2.023843868544872, 33.155261966653072,  4.059983362006252
 3.130851638027862, 10.549699223939466, 66.922760607988181,  4.057486382718763
 7.487517076716991,  4.033003982785729, 36.400335425212319,  3.735745112702875
 4.711972306921854,  8.241792803315153, 28.343542605800554,  4.083425111142265
 7.854413684057057, 11.382553723146330, 19.328324556480730,  4.004257433642329
 6.104871569637809,  2.282446436755091, 23.092852488430076,  4.372126965820522
 5.557082565985245,  7.393693628963928, 35.816796617860227,  4.097953361597864
11.381459567155503,  8.696967662025376, 61.217941748611587,  4.020527786782395
 3.204366686915012,  2.375973140561001, 48.140619414725641,  3.820606852833926
11.761234517372936,  4.890937961346085, 58.009396327408652,  4.084014901567429
 4.312972569807719,  2.544224728730337, 35.013372718537099,  3.701122831806593
 0.508522559522684,  7.586124972151354, 38.502355376688534,  4.380287095096977
 7.506608463179371, 11.854160179353533, 29.653979485692204,  4.165475129179535
 8.705783481498482,  7.297789127539402, 13.277152722361288,  3.985270515231005
 9.161494220594978, 10.427387836447364, 70.861968286240966,  4.299861699755593
 2.680119306614294,  9.135689742282594, 72.871885673760062,  3.823861628024761
 3.783275309887527,  6.694303874112481, 19.698386202060949,  4.092509550988918
10.170870409133949, 10.457714866850376, 32.400872965266259,  3.957554476806168
 9.502783696125496,  9.433129641156807,  0.309049020439360,  3.789817296613220
10.300263717420773,  8.604915885481137, 47.295696132349370,  3.942445582623050
10.198475321451523, 10.526014072720441, 53.531920408582160,  3.933202660118131
 0.569813065655999,  6.443422359505978, 13.337964049690809,  3.762851951596820
11.914939065478606, 10.332186814586931, 13.730718745529151,  4.130506378580570
10.378692210278716, 11.092706916180324, 36.233352228396086,  3.822791036024496
 9.733788538659525,  9.348541182880231, 57.298312450585961,  4.008188363910101
11.402994513978660,  1.404349230610999, 47.381526809746653,  4.011665254033923
10.800917800930817, 10.153023652929438, 28.677297739456463,  3.497644951334518
 4.574231994798435,  3.255638745293231, 13.050991410105528,  4.034759512435645
 1.124912795472746, 11.369055715019780, 70.195151452590807,  3.791929858976336
 9.127643135864467, 10.869856383264878, 63.649814572872152,  3.899192690747491
 6.759849981581018, 10.540256904330178,  3.213106199738648,  3.863283363504201
11.113462235138014,  5.550136972276463, 27.887162350904859,  4.106742729162744
 1.748139420681671,  6.185511089222418, 47.632060652159204,  4.372840346420053
 5.030415257204336, 11.530601235769927,  6.669928572730176,  4.006052199977451
 7.969382727577935,  9.682655604742862, 26.121105435563290,  4.168946763764188
 8.159877074278238,  3.793642383422109, 29.696274530656996,  3.656746663071179
 9.174141564582925,  1.257787528554980,  1.677667053612769,  3.901173382090506
 4.101512118604258, 10.585260299602842, 19.756508881851509,  3.712089384349140
 2.084264014280353,  7.616162854976398, 64.116905686719960,  4.042408329895028
10.451055253074074,  4.876671357557957, 16.115101397274564,  3.801301109432575
 5.540807264971949,  8.497434545465232, 62.126076638708568,  4.042251726710208
 3.203137456746730,  5.310386115838084,  3.852125331894731,  4.245735402391069
 6.994935541250759,  4.789758867025771, 54.575864187839109,  4.427614648188252
 7.210034516964205, 10.491872495231538, 67.141166038148555,  4.100970485251393
 9.884470209345302,  8.668013028880550, 16.834255909594638,  3.990789975332472
 7.772984324371222,  2.696669335658672, 61.476912863993533,  3.823430191287764
11.118573653222091,  0.923604206508014, 60.209028885563740,  3.978815852791007
 2.176786726056107,  9.127795645442786, 10.480776579303727,  4.054078664081378
11.534499877107647,  4.429953341650894, 50.990203490724888,  4.308867965565243
 5.653877496866065,  5.308721611409040, 47.860825977697743,  3.641814938918412
 4.992393103764257,  2.270658046706800, 27.249413864000481,  4.212690338963180
 2.300262248460905, 11.375313486633157, 28.231245281994710,  3.813875329745164
 6.424633833031534,  9.901917053705459, 10.259173567368821,  4.340725996124238
 5.132610894939305,  2.090278104075422,  1.802662617790077,  4.276051978943868
 6.753837478388380,  1.911801113653326, 46.706865975112443,  3.855310085976661
 6.328419448923979,  5.770457955326611, 10.498333700500176,  3.937804142638766
 1.155387081433719,  3.504932768166651,  0.900546057603989,  3.722474264863295
 1.851276743481935,  9.613345611493775, 55.736336317454629,  4.654277884346493
 1.463749759920288, 10.628063325296610, 41.393352232717902,  3.740305322111685
 7.601678593180968,  7.293344059473313, 19.576510842686314,  3.639780551680350
 9.356860824309122,  3.037434185328616, 69.469624380078670,  3.971529014254123
 5.725110358169792,  5.125492409503937, 32.405462734697586,  4.090195451647494
 8.139031984155441,  9.017924210851122,  6.561852573150264,  3.990139627894034
 3.040554760464238,  1.387896082536652, 72.874292846921080,  3.840905448543510
11.037704582643851,  1.635514963470574, 72.748839014903098,  3.908593654960833
 3.256721483705128,  2.721498703654896, 66.689778575625908,  4.072004594782434
 0.311220187220768,  1.605797894888678, 43.555581239060935,  3.798817917353082
 2.816017552220803,  4.864563476859631, 29.579428809266730,  3.997524152269951
 0.279065933643233,  2.850821251825297,  7.525787438556394,  3.914760568290205
 0.224724912324991,  6.815672784512811,  6.655177817128349,  4.193920948420473
 8.713945071772224,  1.019179038786066,  5.728020485698615,  4.097008433641192
11.719742260853810,  7.061091377098698, 24.493488238867783,  3.419578144514310
10.249309505330054,  0.970466446606755, 16.462204787073883,  4.046761227391618
 3.979176775787013,  1.365467178166868, 31.296095682130083,  4.122327617347031
 8.203724301780223,  5.252107012754189, 40.123716314820236,  4.228927135270528
 4.014149450450403, 11.178623938114171, 13.463253215235206,  4.061859312028858
 2.725643597276365,  5.231687336287926, 55.042896690595697,  4.204491447611363
 9.533652596176333,  9.226400817945086, 22.320998402991055,  4.099887031274575
11.129927492688777,  2.350687340014377, 54.639313496267420,  4.061365509338663
10.836622018614515,  9.617617519866833,  3.839986531070116,  3.765216659379400
 5.419178463711297, 11.839956422909774, 56.984518787826502,  4.116857974867089
 8.343698122773063,  3.494749083915079, 19.204604400901310,  4.116311820713600
 5.025920687341134,  0.562136878208379, 69.741758775087007,  3.746176796593362
