BANDS
8 8
NANOPARTICLES
cell(1), 11.829
cell(2), 11.829
cell(3), 73.928
10.234454642365327,  8.506741461238546, 63.136814614995835,  3.816669775276122
 9.477724932345014,  6.577295678462983, 48.995666709384039,  3.815550215965426
 2.860824410637485,  9.116301610879084, 16.367517217582787,  4.360962915481677
 1.798870860370596,  6.912747631117480, 30.356689957043550,  3.940348227759698
 1.277909490046467,  8.376649564715201,  7.738784829970271,  4.010770957282435
 4.513755417499842,  9.622972662792176, 20.419695363510044,  4.086537292319840
11.347020880698370, 10.612267749004886, 66.253164352724752,  3.865908838569788
10.820944442704867, 10.346550290032260, 10.085056576431025,  3.625618988681039
10.799685787525911, 10.069237697896865, 71.716109060220504,  4.254750027663781
 3.022828047397602,  5.834691442716613, 36.984010489920962,  3.765174538368852
 7.474198469467118,  4.594432938928794, 56.874258276221497,  3.926637996692128
 8.136878136522746,  4.391666568053038, 69.301414944939367,  4.066711397890444
 8.830646562182094,  8.150580863013312,  6.968842121462230,  4.373633383365784
 4.347985206663615,  6.457990732155261,  5.363045988337280,  3.625368105879767
 7.922617634472998,  2.739968953361101, 49.673800784658461,  4.214737319316312
 4.420782479498606,  5.895412341225877, 46.943007901926407,  3.970604386698652
11.426887369861445,  5.135748297247155,  0.585606313696583,  3.784590385168107
 5.606378249713156,  0.335715630674895, 17.408636017951032,  4.048274413395391
 3.455757387791994,  4.052997622113715, 68.800668662034965,  4.255520665875171
 2.145822288893533,  1.501657865975457, 36.822638142192446,  3.890000226260927
 0.208343330536301,  3.329418888966009, 50.145378380566676,  4.151021192443046
 3.004971819456528,  9.297758329559882, 52.779545757398935,  3.963274099964406
 5.722270949941955,  1.897338269939913, 59.078783976504077,  3.863150267073573
 8.549778349624495,  0.525090219541092, 69.266299498110726,  3.681532243861179
 2.179470741001388,  7.832997056796031, 43.927848354710527,  3.912948895448263
 1.990111394744670,  7.258717366261021, 62.349558316126107,  3.931840218090487
 3.850096839834122,  5.327231900874048, 27.142024573529355,  4.015433936775284
 0.680768412016215,  5.382500200969239, 58.865652715959449,  3.775238512548334
 1.124937320488328, 11.118171885753368, 62.608143827588201,  3.757559307861581
 2.341697800990850, 11.050542319516204, 23.486744571998859,  3.951428725863305
 5.705595541678871,  8.661307158532390,  1.000023205827586,  3.898489303216810
 5.823223788182277,  7.551044970029886, 30.006252807181877,  4.238241717860274
 9.660813982513071,  5.888832545316455, 30.989706772442297,  4.347559544265989
10.076825651382441,  0.691377540364336, 52.562205818601868,  3.988422671216719
 5.140691259965969,  9.096599797443874, 25.858748714003944,  4.356026476061769
 8.592123054912323,  8.829537929832966, 40.142587420572433,  4.045068143708991
 3.875479116698266,  0.962136014332019, 40.418122659643558,  4.135702375296272
 8.371921981811457,  6.775010857004334, 72.608590641871416,  4.084372357787371
 6.792058483188574,  0.630669179294625, 46.366941577081541,  3.934228799034946
 5.717157253236348,  7.272918921928981, 68.413392592052546,  3.635034583331533
 9.825274588497759, 10.573292169661475, 36.457445493036523,  4.134348260788799
 1.090162795541418,  3.958543079703207, 39.860534699989927,  4.116260765734337
 0.096245324652984,  5.227493907574282, 16.371110585469271,  3.865914959339051
 5.839694067817813,  7.813151904266526, 50.045158685851156,  3.850078194160428
 8.131366792503535,  6.249087096583484, 26.726556241531330,  3.874200453317147
 0.758008600939780,  4.215572635101275, 33.888423250327925,  4.535961869106353
 3.129980465889065,  9.180931633194279, 65.661993299130614,  3.982463662710706
 7.656600155252132,  0.708737473065344, 39.167878299978732,  3.834653937407225
 8.403381297221149, 10.706245821959582, 19.934358417803296,  4.029518134745220
 8.374031157013347,  2.292383434625229, 26.149317375512858,  3.934530726148036
 6.632520763996910, 11.010255279278999, 10.526316857869521,  3.808401485394622
 0.521323276614066,  6.186600600886300, 66.610513343961145,  4.182964896026456
 6.336189718573385,  9.897533844672319, 71.115475951247802,  3.856271985227417
 0.672033858931412,  6.607511032108834,  4.109883490034608,  4.147281407192229
10.366856008173411,  7.246409582854335, 56.106065512920082,  4.066273253478294
 8.092992442714632,  4.479528353726804, 45.845117202643436,  4.199900933650594
 9.177025929139974,  9.917579708545510, 25.902907113964680,  3.851487468760834
 5.784941580827809,  4.135330089383678, 23.823508097427947,  3.935185724301968
 2.608915041998625,  7.704392588807629, 56.499167189773566,  3.868729505793920
10.526822964442772,  9.797670225818464, 29.692111618788640,  4.068576649358050
 4.590142995692119,  2.365505270528272, 10.182788163481002,  3.770499820048538
 9.495057307081391,  7.945599321300907, 68.653054868500547,  3.638394844362475
 1.845091727070143,  9.457318520269531, 36.618443942930696,  3.883656798808092
 4.489488168320865,  6.589507356675578, 71.869761523205327,  3.814636879987899
 4.057848008937724,  1.016058542349429, 13.775117708853172,  3.960122739088127
10.173280927048911,  2.010405191167575, 29.642509970179074,  3.927029447608107
 4.164535326354118,  1.422602203366544, 26.262469087447446,  4.009877878783001
10.304004619214719,  2.875339241612635, 66.541718085417287,  3.570693639526184
 9.836854359784700,  2.983552684380023,  4.096726075105810,  4.461336951280334
 8.457517725145397,  4.453069842394776, 34.668678571500905,  3.871552285926083
11.205592691248368,  8.538821690927056, 22.866564188814802,  3.908990942064394
11.760630558201017,  5.651825164001301, 70.685840456668856,  3.964039117078058
 9.934474490015500,  6.935345710424344, 19.400304065060304,  4.139965844183818
 7.336702878576301,  7.648493927016903, 22.577657018130214,  4.043165024575324
 8.737477710682114,  4.850196741870684, 40.348127501677524,  3.916846135900848
 8.848095733385968,  6.448125560459157, 60.121241444994453,  3.990140454373817
 9.288976003544132, 10.927648922815358, 43.580078300049180,  4.108725492646554
 6.635786411470609,  2.373652411100366, 66.226329292170462,  3.858193545003378
 0.338460644388122,  7.623576960038135, 13.090754047094643,  4.174215727895992
 1.994584834445476,  4.129411628819064, 13.372115691639328,  3.552490153005731
 6.967540354672631,  2.234301456222021, 42.658572662552700,  3.907230355600794
 8.532770793556208,  0.025627401816491, 56.513586036849169,  4.015259091016350
 9.448086208480699,  0.821874632201785, 63.637167354586282,  3.741046883694509
 1.375010529829923,  5.680028156282438, 53.289927201797049,  4.035291396697941
 5.493356621928133, 10.967567458620872, 36.242774268801099,  4.041472155324496
 3.072695718750360,  2.039397578528552, 47.377072260562301,  4.217096387352074
 5.681819994614952,  2.988147768880085, 36.851633213060026,  3.745947968320866
 2.188500723156960,  6.384877437345819, 19.543352630687266,  4.075825096289128
 6.896004018628504, 10.241676325403381, 14.240448808914088,  3.794441130226301
 9.331985965304959,  2.131031428694901, 16.671854706553631,  4.216773206223273
11.436767696781830,  9.264489667670031, 46.731494596954711,  4.205278417879219
 8.391796179523384,  5.857750573099875, 14.835511128449982,  3.940947424808900
 1.601543204053010, 11.761474248975924, 44.123595708794966,  4.011917208635219
 2.869797650105712,  6.683710539623231, 23.427673229493042,  3.832997730199568
 4.953795920630218,  0.240178677064571, 63.257989944750001,  4.177060241489037
 2.458145335893795,  2.738999463929002, 61.130630899318582,  4.023694268747801
10.583785955519021,  1.526423785758781, 46.880431894407124,  3.726965735030182
 0.030581998827207,  4.329219252819295, 26.992169025039253,  3.878701275447429
 4.132787585747787,  5.063464613895690, 64.843640561183108,  3.954637947639056
 8.719276060664066, 10.472488150264788, 49.481710003518060,  3.890395952984012
 0.641896274750146, 10.846322207218341, 19.839775370037071,  4.104366727762874
10.054737187217603,  4.756906750586426, 23.470442623144706,  4.080611779316509
 3.664968507821707,  9.812830503419214, 47.025571525855916,  3.998476797724664
 7.098888402813840,  9.838566179786840, 53.401206397644458,  3.864197052387282
 9.789655940260740,  8.717886232715701,  1.923732301073556,  3.978198259321550
 5.822449700499926,  8.103809248055873, 62.944959102056323,  3.962543437470894
10.385353419715718,  9.809230239908345, 16.302872974161616,  4.357715680590474
 7.617552205083906,  4.728034965357936,  9.211652405783651,  4.151542528883511
 5.093738488318623,  7.881781492427575,  8.803997324310686,  3.965862427220218
 2.824630911170276, 11.230041392036142, 71.911594299954274,  3.792231618808229
 7.517387913847486,  8.297460208984003, 33.816196412462986,  4.225092014223913
10.061480162102525,  2.425999718316386, 72.168422437931270,  3.878871856991903
 4.252372476774662,  8.721097848612072, 39.737951053722668,  4.133402351207296
11.582371703842838,  8.234928330943651, 33.667134343931039,  3.737326597796740
 7.996450826199585, 10.616661152365955, 60.470937679370998,  4.322557937227626
 4.806572572698092,  5.812144389947381, 59.717969022159458,  4.207540043744869
 3.248324032908923,  9.830703593784369,  3.890894684731738,  4.041801405621316
 3.330651579704834,  3.717126953089553, 56.365374344812366,  4.227945063180594
 6.696982714394727,  8.187497498549291, 17.446700459509572,  3.822624082975925
10.402228032910378,  0.667396670651558, 23.040215307174599,  4.168355172782648
 5.025811296467687, 11.701867642208606, 50.301003077061822,  4.027232823337525
 0.514200684456390,  0.103427494444399, 32.645109797402078,  4.069528684213944
 5.271782052510299, 10.305081019047146, 43.358795014655009,  4.028783337321736
 0.958830246239344,  8.244503549324451, 26.597397934513619,  4.200519765461852
 0.376802050510900,  5.141650030365001, 46.386855492445207,  4.199243572310703
 4.143808199039603,  4.268804017469783, 50.678047103354537,  4.005079856571659
10.847212344611675,  6.550869349657694, 37.250955207756270,  4.312403527385410
 4.660935415615072, 11.451121100423304,  7.338500778739325,  3.710391578739443
 3.788907101628033,  5.021091904992721,  1.671674872497913,  4.367046699221055
 3.261803329043170,  3.862950729072235, 43.497175715383776,  4.354725387074866
 7.248740726702493, 11.190959209242660,  4.189699545366667,  4.427743306148779
 7.795886022110598,  2.378708315276262, 12.708951993139443,  4.274447878326431
11.388256806971802, 10.973351787089108,  5.141583266690204,  4.072064866775643
11.590269238813509, 11.771570428813364, 40.128425507067234,  4.352739750569530
 1.207652113040395,  1.260812340114630,  8.379802198304379,  4.203951449137730
10.360618037638810,  2.521052176238853, 37.294439759949398,  3.674445615359035
 4.236402393976171, 11.263400778894074, 56.027974270688780,  4.001199653290331
10.852915776981160,  2.888079090024779, 43.207511121280952,  4.032910921983884
 6.807353113357522, 11.574397276047099, 28.990709304057468,  4.290433354615862
 4.370871095345501,  0.884332746554667,  1.301968355159812,  4.019672018225494
11.292180964410822,  4.863878282065814,  7.545072982078753,  3.904333882792243
 5.393748986470809,  6.345056534212938, 54.006878530811306,  3.896897758070579
 1.952539002897790,  1.794451216648443, 65.556983877721223,  3.970266100634681
11.107764132501574,  4.362995789336426, 63.099903045530688,  4.097079008272020
 2.724793573844866, 10.260007182471972, 11.011099388540369,  4.062524913846934
 0.272245598286423, 10.566356450684419, 55.172916789786413,  3.604295527143080
 4.259241313590595,  0.042707588423859, 68.363463495757173,  3.949333365304077
 5.785584312908133,  1.977143405910934, 71.587532424035558,  4.078159528738549
 9.094074445993078,  5.307942279181272, 52.736466025082343,  4.113840150842529
 9.894869199914169,  2.487084363969144, 59.625487657647589,  4.161887583205667
 3.842896599462670,  9.890944911247978, 59.864806870660111,  4.179717913681204
 0.226575612051706,  0.460170522254042,  1.222573651098179,  4.301130340178892
 8.488248245029919,  7.847100636529793, 11.513491868812999,  3.783482142871453
 2.079797831222015,  3.038412723201178, 72.498163149024748,  3.707956136209935
 1.213280985399463,  0.704028996067781, 58.103984446624260,  3.678204914268452
 1.680884108154871,  8.430864929298824,  0.453462584952919,  4.009621801116249
 6.338313942550017,  0.206623066782722, 23.118975217452697,  4.010600843536039
 4.731006999808277,  5.425445168766738, 33.620856485571828,  3.784972708306094
 1.133531850116088, 11.232101043444851, 49.899893108295068,  3.852526359797608
 1.800649782250044,  7.295995865408321, 49.577910227810627,  3.959875433649845
 5.967474832277386,  3.034597088270779,  5.815769528575742,  4.002702635014451
 6.701480706997559,  8.415531958039125, 57.244360925055609,  3.893855965856656
 2.277505252293554,  8.455495188269003, 69.382494681985563,  3.786894836075576
 7.075067917918617,  3.632836467269595, 62.371761731061810,  4.014813712202042
11.061910972012502,  3.135882641153242, 55.685787500830010,  4.155611032371867
 7.390086676809810,  3.685075133595884, 20.093612452554225,  4.229489828239889
 6.265727444221637,  3.512053291588712, 30.605129060410107,  3.975796007525746
 6.336801813934950,  6.554028601933923, 42.860476349203239,  3.795088636681567
 8.155557620663608,  0.664666597426127, 33.029248457477543,  4.403970418995987
 6.750104912784959,  6.609392213704870, 37.421028985190475,  3.881638752061395
 0.538699527831121,  1.156112879202024, 69.233719504061952,  4.001386190279003
 1.603002341035293,  1.618607302952529, 16.874233440223005,  4.014494729459136
 1.668914314351188,  3.089162900916538, 23.841705373690356,  3.575986089339487
 2.216045895306550,  2.248972866157447,  4.468413085686633,  4.109995801593074
 7.301906876579484, 10.145272006062234, 66.202109429007550,  4.274184082351784
 8.186596148805243,  6.017313855072523, 65.515310820304649,  4.172687813697490
11.489224704511091,  3.211422871475230, 20.010824933612518,  4.020454003360918
11.704758822148625,  9.126298827982181, 59.388332962755335,  3.953998712565881
 2.377590298625933,  5.396056161930899,  9.968683579327013,  3.743485860158599
 2.282372091351402,  2.871750114688448, 30.036046911592265,  4.171005656935787
 0.613505160823746,  7.956789788466486, 40.538845758019470,  3.473510082607247
 4.917341541322295,  4.705941538822116, 40.024159284048785,  3.497251665956740
 7.967078295257388, 11.667550493601771,  0.165838665599668,  3.794891772071133
 4.712034639204846,  7.018255214532665, 12.907148794329025,  4.433491078857384
 2.193090224404793,  1.371731849534082, 53.154000174864500,  4.043145386570171
 6.313479913442885,  2.205541430064804, 53.636187978449790,  4.403014212902481
 4.779546470100578,  4.501772213801502, 16.639150207757524,  4.568272841811039
 8.900905798783015,  1.030942774872772,  7.820858297547197,  4.153188406525833
 7.409083816559945,  8.518466354462628, 46.278281999102212,  4.035426873881758
 2.770923604625331, 10.679782232472382, 29.356819305486702,  3.975196080720499
11.008995581648012,  8.739773275218822, 52.091932466713068,  3.848895183903365
 0.350415475606709,  0.431400717677601, 26.664769970119266,  3.910838083566962
 3.529994335908621,  1.921889192110176, 20.617685580229203,  4.225759831066699
 7.405950308521456,  6.158678592153353,  3.440894723085525,  3.618339313344367
 3.563005384378702,  9.285884110854580, 33.043734606320179,  4.040638570287793
11.757399544273513,  0.808518338870779, 13.170134400701151,  4.270933035749473
10.180127783168810,  6.989389852513344, 43.346248901684284,  3.979687592430799
 7.490221429713254,  3.604799637020672,  0.792478069329592,  3.736058308359111
 4.126468132803278,  1.625768180541131, 33.434252833602933,  3.918950298015502
10.897268561475933,  4.384842753478654, 11.292779681774295,  3.636936024813028
