BANDS
8 8
NANOPARTICLES
cell(1), 11.932
cell(2), 11.932
cell(3), 74.578
 8.608898204456620,  5.995298753294491, 21.861779814355330,  3.682169463652880
 6.240533859119471,  7.320527082826276, 40.859223189327516,  3.832703558421617
 3.056633874145547,  0.358968116727882, 22.425810937060803,  4.025733329064250
 7.499787003114608, 10.086727936226792, 54.130066659433247,  3.959056473333697
 2.812668039733121,  3.507875396892983, 70.645530264400264,  3.830143284676476
11.109203120076705,  0.046949214526794, 60.587041921210592,  3.952810912532352
 4.155607794300110,  9.828000568010442, 42.830883859428845,  3.788697104973991
 5.279342571040062,  4.337581675427722, 73.583976858159645,  4.019742100025142
 7.158450146767233,  3.847371053020397, 44.472517274248972,  4.093959998878322
 3.155148299558127, 11.825260591241285, 60.775487838129550,  4.018749603905600
 2.180435129092061,  6.142417477995220, 27.098094580097015,  3.596181679158306
 1.989157865013963,  3.364784536210394, 47.917654581084811,  3.650713390118718
 5.670769189912405,  6.563809745531763, 25.593385128436811,  4.051109511352418
 6.905452278064216,  2.276344718186943, 53.883413475686325,  4.374641103051620
 7.069940625814382,  4.794702564155561, 63.060208367764588,  3.713046033411619
 6.508454747672412,  0.852671102348058, 17.541269543936650,  4.006862123281698
 1.626064119869955, 10.103702964643714, 57.654672883645418,  3.722805003528671
 5.179208807325141, 10.455793640460275, 26.382924451998228,  3.891996765339375
 1.353421493339880,  2.150793148693863, 74.158315383646027,  4.242019161755899
11.103007118294988,  3.694950044136621, 28.164648130793083,  4.231676182750049
 7.823833766691795,  4.683279140563055, 38.520971537275130,  3.885578096401456
 1.168713942893816, 11.480430245705058, 41.188689930366060,  3.777006165329215
 3.258554990965787,  2.818038947373703, 19.127210079407941,  4.205293960461029
 0.108624091182950,  4.351149617098910, 21.273097653649103,  4.010833354439985
 4.176007163580977,  7.071858210556337,  5.380586537031705,  4.053063789700727
 5.780785367424719,  1.739158184945775, 13.003936661737889,  3.731818365237298
 6.156212630746480,  2.582644175473416,  9.273125455811961,  3.947484299190116
 8.357651193489973,  3.712877059672942, 15.235576071639210,  4.145364348907458
 8.758577190584061, 11.668183307354326, 14.343940847821662,  3.928295389064747
 8.958873822142783,  3.540326167565507, 70.245793267127809,  3.831619933790720
 3.169507046989107,  3.165347490562631,  3.274374402703551,  4.229954144451844
 6.935169864039505, 11.863708946273290, 44.474964947718711,  3.650425379877956
10.681059415608662, 11.625709861503829,  2.504827305604989,  4.061050016178754
 2.952698173295459,  9.987742565788864, 30.180438742135394,  4.350855231178244
 8.575585361384451,  9.270716730179938, 19.502625551595507,  4.342167477252930
 0.785158984211073,  8.780036951720879, 44.638509512043008,  4.053002985897450
 8.142894118100623,  6.698481529572300, 72.477006120114339,  3.717772192509334
10.394754271280870,  1.299024373377832, 35.323378090970792,  4.393967061082867
11.307015065824904,  9.002748786604119, 70.417246069995926,  4.124413903774979
 2.532632031336949,  9.045099886279846, 51.242436764126936,  4.153391274279047
 3.735059766199847,  3.169242383501671, 34.738302515235844,  3.539438702502940
 5.383101535892887,  1.483860029941292, 57.764376769317977,  4.112361246678747
 2.750442230814943, 11.151977362824738,  2.135093940109188,  4.021392898469703
 2.699757742348969,  1.287286264210770, 44.565185119419858,  4.361591570780376
 8.889098694048103,  4.171154271869926,  7.335128745444591,  3.465207020839213
 7.002531116128369,  9.923897850400152, 29.728475645015330,  3.791856469174429
11.746601860401634,  5.419029618892103, 72.214092215650837,  3.940665056147130
 3.256679545470917,  3.320506251485218, 54.793476238514017,  3.423354502846692
 7.467958119170349,  4.048546838420406, 29.938349006215930,  3.878187671215401
 4.709837487643163,  7.262106660555948, 54.166294740930354,  3.956042734194828
 1.178743758183084,  3.456058756282169, 41.384209850597273,  3.903161288235861
11.735152517859477,  1.802644819878482, 12.670329272865640,  4.051903518289185
 5.727038154006954,  7.178821999433224, 65.685141187739248,  3.868038664945568
 3.594342212362040,  3.632405311813005, 66.893414355845337,  3.837019067836380
 8.127258072459510, 10.194747146875578, 47.870503593211630,  4.062667193210289
 1.826535740383023,  0.881659889011767, 27.638701250311577,  3.573264983233168
 5.553910200284531,  1.781592745682924, 47.700043837638283,  4.159068461282458
11.428975897022028,  4.334379115428995, 50.766495888655889,  4.159836179411039
 4.936444097679606,  7.692459043883288, 61.284823028295385,  3.944838138136641
 8.558499605867466,  9.353367126904599, 24.179274824258602,  4.462429946839210
 5.487660957892194,  9.284054858384781, 57.595382129185019,  4.154279842196092
 7.428777369281220,  4.138546373629682, 33.999293822486493,  4.234129552865775
 6.417819201598411,  5.633016655710734, 18.491785363774483,  4.347036279229144
11.652464598753541,  2.227717400914056, 54.154439487082165,  3.817741778009998
 6.268403283774441,  1.247623090415008,  1.311121325709051,  3.938765940603159
 7.039259178132138,  0.564842691920552, 21.725725535949017,  4.071511982990550
 8.527127956617283,  3.088743535557583, 24.418080236828740,  3.860190908488757
 8.622324872483221,  6.193559106551768, 53.711328169569903,  4.184428768087065
 2.523222821409381, 11.796609501389639,  6.303394494305111,  4.408304106720729
 0.141350581325044,  6.167941193426440,  7.480902879697993,  4.028467562888484
 6.061376727043476,  9.046468520130487, 15.983775654760018,  4.139398130313494
 2.907590582798181, 10.669815807449140, 70.410493992651197,  3.687639763491095
 9.732280152309585,  2.333309059783970, 47.421100600519388,  4.285606634352773
10.370143498133398,  1.811546887751951, 43.488547251523187,  3.749974341083743
 2.102993196398938,  4.977867984789032, 10.952308815304333,  4.226782248700940
 6.246747767856192, 10.026204606091936,  3.665492991187003,  3.930113184388343
 1.204178558797472, 11.636765420656628, 67.027679502447370,  4.122730966057176
11.509734579416754,  9.910753844501642, 27.592798468628636,  3.759009351771625
 1.467025708354751,  7.765932803368629, 40.699731612227716,  3.716802213937790
 8.811413365991898,  7.414528255831778,  5.359304939917947,  4.124930364757183
 9.066961265187290,  2.867555740840675, 19.463719463920391,  3.551576777692152
 1.960935641569500,  7.045908629756330, 67.879754001119963,  3.905177883498230
11.478915716893216,  0.109534356748566, 20.542668541631677,  3.942929314500301
 1.298727733946917,  2.115759671254279, 57.814931139717721,  4.153282629879087
 9.165284407561382,  3.435425518463715, 74.408218727145979,  3.902071532036706
 5.026876993194672,  8.233638781920510, 21.791191481194897,  4.353173369108262
 7.431168171000569,  4.237115976632558, 50.281754387489393,  3.892343060799575
11.101452206242516,  6.031619170463995, 24.780687678793669,  3.989444622229001
 5.303310734545401,  4.126251418110558, 22.422856620648812,  3.974131626639477
 5.970042206628701,  5.651600560115634, 12.439077138470456,  4.167983970930244
 2.400499985000883,  5.929976845507676, 63.873416550072918,  4.108435144147800
 9.068695639652461,  7.796448879100077, 61.611115058021191,  4.018025868093307
 4.993341955063593, 10.320742658848527, 73.550908212384229,  3.872190404542657
 4.117465209644672, 10.103101358475520, 38.805121643942506,  4.274284448859453
 0.254696692502480, 10.896391551772018, 48.140988634791192,  4.173361215542734
 9.822535032389750,  5.013606152930105, 10.948550277329499,  4.172528684397001
 7.901554502403455, 10.222265203523513, 64.562057943269139,  3.932186301086003
 7.430992721922443,  9.357347800533299, 69.982344979659445,  3.703963605341315
 4.115457309728874,  9.866710920818957, 46.846072475769290,  4.227009063208057
 7.483410776426613,  3.468430769302591, 66.642208068003015,  3.930434355767955
 2.615695695314745,  6.309637929480711, 57.977258383065674,  4.143928295302638
11.528045320160942,  0.480134382087727, 24.545523156285910,  4.094934447454995
11.774930853929547,  3.511750896688421, 67.654032762398970,  3.817530492892143
 2.905712035955770,  8.494211809822728,  9.093375365947011,  3.883022527447914
 3.842545286786579,  7.332389046903827,  1.334022952473302,  4.083021900168736
 3.210289432077808,  3.792348729768158,  7.181943753043295,  3.670909952122176
 8.384493207125285,  9.765279029589648, 38.396460162318540,  4.325132780024715
 9.605315968091784,  0.327585979554060, 51.167525817706178,  4.216021021260462
 0.111657841868746,  5.586508765993496,  1.684720061539814,  4.183530385143663
 0.381410398968285,  9.914997201090413, 37.033963257229779,  3.997823871282006
 1.038235605168998,  8.472533927614720, 61.071365511538367,  3.932460692608133
 2.102675276706824,  3.511081310160894, 24.508536096021185,  3.761622844595105
11.574958476986392, 10.156274905807742, 54.230563881074644,  4.191540803351744
 0.816491453606054,  6.161045316133849, 54.248713468343617,  4.135847474940337
11.768627434039240,  1.838332608854637, 16.831009531665561,  4.266007284282436
 1.133577277960851,  6.994075174231662, 48.126754027784735,  3.814203717578867
 5.807084885929252,  5.834857158315705, 69.448132111489727,  4.122873274709429
 1.953404129832103,  1.679981699978797, 37.830007656885627,  4.192416432859672
 6.867997963041276,  4.965469192620623,  2.707726218571781,  4.070671055562425
11.831003525602164,  1.015926812454489, 70.558754021449531,  3.840216692697107
 9.702866216790841,  0.745719287864923, 31.003583885853153,  4.333023764118630
 3.503038082203683,  3.744634619674121, 15.124400774390120,  3.629508111160564
 8.907125806355740,  8.189590712364831,  1.373135113622218,  3.991740200815601
10.505932478054392,  8.288315202078236, 50.770782298535501,  3.957513882180245
 8.890812958000994,  7.116811229954870, 27.878711854376689,  3.919415153203698
 1.092625011799184,  2.005104688131512, 63.595141092971552,  4.144512681188269
 9.248950411975065,  6.954023614928156, 67.526313417071322,  4.070709256765048
 5.059126604852944,  5.874848630159049, 47.524300292764671,  4.085105897285129
 3.186219621242885,  7.301812550864095, 72.026093733343814,  3.790054322606329
 5.211581997821428, 11.101615691117194, 67.367220635811719,  3.989069560400080
 9.010036812667865, 11.372054789321961, 73.167980489919572,  4.466314336944369
 3.556171632766418,  4.908563965489789, 51.162037699981511,  4.011043529483741
10.253239561393103,  4.486416291248000, 56.865865443424909,  3.690246614214548
11.653419816765876,  9.519874248163733, 33.049458914315807,  4.084136318369718
 3.030222705566683,  0.320161692141592, 10.536135448567027,  4.164383929727469
 9.248844545531050,  6.390327446162929, 47.581934374488966,  3.878274745368828
 5.915733055095910,  1.112657577413042, 70.799354491825824,  4.014210752901579
11.881850413811470,  2.289652721491392,  8.640575049440200,  4.069895914333181
 3.633556518329843, 10.330961226682668, 34.636058359263487,  4.078045630132384
 0.086700430390448,  5.371438961077780, 14.525472790714142,  4.012171426532360
11.263721596631576,  2.988152188465838,  4.729147334053269,  3.972059855643071
 5.268948663074466,  2.595761810593398, 26.819411501389524,  4.287126297158059
 9.965941691969327,  6.023152180601946, 41.692956089762319,  4.222949833088697
 5.526889246656708,  1.037074253029504, 31.859697767368257,  4.205513621213220
 1.899630947524617,  9.014670501207622, 24.542500204330029,  4.109167124605756
 0.540462085241607,  8.255828321502339, 20.806401659191270,  3.883554862429103
 6.314217702780851, 10.275690836357072,  7.755302745115611,  4.258230843771202
 9.453095716835177,  8.421556696282964,  9.172028479431642,  3.536082676977962
 3.325977103935845,  9.810863722460962, 64.166339046100461,  3.874214813414815
11.591625035565999,  9.495757183072490, 16.401439621736298,  4.312539648166761
 2.898401801219529,  7.918316529641392, 13.570070014949351,  3.792712848301817
 9.720429076394126,  8.300934115047658, 57.607713919044663,  4.153182466281356
 0.145970305818970,  7.093093909359253, 29.988400028352306,  3.719507411656358
 2.075223389838508,  1.176762878957678, 51.065960256991204,  4.008916461295941
 6.306854881150083,  6.357119546788748,  8.564359463644232,  3.729286846071938
 3.041773149898364,  3.922570533855953, 30.149793293383873,  4.143139510393067
10.072665293799059,  1.534851684464449, 39.568842450147933,  4.127854806661727
 1.548547192067848,  1.093165666449354, 32.575594376712345,  3.879559163405957
 5.049330738208066,  1.746038818080537, 40.950657398203788,  4.137335644577796
 0.621727160649087,  8.606852543180553,  4.358207638529698,  3.945029480369728
 7.687256016474333, 10.198131784217336, 34.096083287449403,  4.097889472075240
 3.609908400899785,  5.893925172749400, 43.599673470791991,  4.281830188483037
10.245261918557583, 11.099900488819618,  6.544572496729272,  4.130114747870302
 5.221190224940449,  1.429677017005774, 63.969454240137217,  4.172713799681653
 6.522814328014272,  5.346897840905918, 57.190942303232845,  3.987368976597412
 6.420594510807335,  7.899754467056039, 50.737187439385110,  3.744206397599286
11.296605111355653,  4.371540698423706, 32.611611870063285,  3.996267170918103
 2.779474232181159, 11.729821075592060, 14.642232471378843,  4.127621718610398
 6.050320866062766,  9.768909637281620, 11.911270777524063,  4.124986907086149
 1.827564313137149,  6.555241381777988, 35.109336312651948,  4.267816551371625
 0.540256463525187,  9.032611812002392, 74.230771513903150,  3.814120479070350
 5.659131717172733, 11.569089554039017, 51.039840109628912,  3.771192840464928
 9.075488723390926,  7.862108657253192, 13.653316007468876,  3.821795099170527
 2.415266982877591,  6.570080902221822, 17.599932017418574,  4.062855005274273
 5.793187615476577,  7.247792374997807, 36.236230361138574,  4.088449763486825
 6.668818181480262,  1.773104564593727,  5.321397790188402,  4.180675930655328
 9.173152603658858,  0.096933730404087, 67.841567248051732,  3.976337710869381
11.544126842883275,  8.712083878928143, 64.741218622181663,  3.954366551241701
11.647217098679677,  4.975873507478417, 38.161508615961310,  3.798166664942207
 8.396928321058811,  3.096277043824199, 59.899579564423675,  3.938129045999699
 9.323417607821071,  0.472141135844341, 56.951024956256845,  4.170661621690520
11.869530245952189,  4.930050212681638, 45.101985699991396,  3.884500100168546
 3.716822626207505,  5.177075820505030, 38.906199054792808,  3.840478450024024
 7.163322907765330, 11.283016957013267, 60.774711174035076,  4.069541440083617
 8.566158434461700,  0.292724407988680, 27.135550089110879,  3.779185368225463
 9.005369512043403,  0.068963856913080, 10.320785970683856,  3.935096170800973
 4.865996580444357,  6.899153591870170, 32.288608244825539,  4.039728447742914
 9.113137205567922,  1.720293172228877, 63.409106821940021,  3.698538481070195
 9.735825196541111,  7.092572052146436, 35.577098661046868,  3.899278131045158
 9.629795071442738, 10.083038731122961, 42.374369411493639,  4.035128306593363
10.550934773263815,  5.011070249744358, 64.384655167871003,  3.741596381077591
 3.646182209035352, 11.447237555510076, 54.498914310872635,  4.235015443594584
10.479946333410798,  5.966744217706766, 18.071201698198475,  3.804116549270853
 4.081339803882804,  3.798473652643222, 60.835060920267175,  4.000390616569550
 6.329652891028736,  1.271669250768036, 36.910978422650388,  4.219437466500246
 7.069977587025449,  7.950017567547364, 44.663289903278297,  4.043455702174056
 0.008717940469134,  4.662885251054744, 60.718976275928767,  3.978397880680907
 8.742481094479736,  7.197040728495505, 31.740478397100514,  3.810362294129706
 0.025556587903652,  9.778107874646970, 11.711822020100177,  3.959223022925256
 3.167719496855132, 10.536470806731664, 18.652393099830785,  4.275029648941319
