BANDS
8 8
NANOPARTICLES
cell(1), 11.910
cell(2), 11.910
cell(3), 74.435
 9.131359132309102,  0.960106859857724, 44.659306063407371,  3.862568839726462
 3.347893400206256,  8.783093176766569, 25.366112747467547,  3.688283006603962
 1.609794936345994,  6.608989910435777, 45.511605082262868,  4.046124031319263
 0.427409825256113,  3.184157957047943, 51.386986319536895,  3.730245368688518
 6.840357234462103,  6.653808792717071,  6.210615892348933,  4.166691231723507
 4.428270766395173,  8.887757449492605,  3.001870913560077,  3.995504390601579
 5.483931887799734,  0.451695222179876, 41.768335950657267,  4.039267251060935
 0.130803994331241,  3.175239993982281, 67.919231657037500,  3.994285622564191
 1.908550372647305, 10.988349010353543, 12.088892705166320,  4.266797779027550
 2.353044769287794,  0.973572140108167, 70.430728980573491,  3.992397775265088
 3.705689893214938,  2.040807199917722, 66.975790872484950,  3.721415896796949
 1.799412532200523,  4.836707179416760, 71.096737967280617,  3.915387916256273
 4.672399285506452, 10.574179672906254, 22.135758720674868,  3.980268510057199
 9.567178685160556,  9.497164442948572, 29.862630530727387,  4.081364051949792
 4.458446093001572,  0.019633250025518, 37.756735578935128,  3.922331609908818
11.041738611552521,  5.503238531106292, 34.697854139520381,  3.504710172541863
 0.349438746735625,  8.426172520671546,  2.988445299436327,  4.207402738802474
 8.908681185402665,  2.537794774306717, 35.280482041764067,  3.882767270863441
11.792486911343753, 10.517721756924454, 24.928221016882670,  4.077748116135820
 4.606321315449511,  8.584451977481161, 60.323551509607263,  4.045991082401294
 7.844180326168901,  0.856742232108221,  9.043754173494266,  3.913569446547958
 6.318684494687776, 11.442708910155845, 73.562988524254564,  4.149963376392107
 8.265358098037572,  4.322066141186190, 25.225330279258134,  4.377384997508805
 2.706407909619974,  1.371502841211116, 48.667332440826335,  4.236908309755540
 5.481736684787207, 10.630378336618776, 27.950663109749467,  3.949366403127104
 3.533572667537237,  5.807959483693017, 57.775157977938584,  3.781919268680611
 3.319808992336568,  8.586478599414823, 55.089942982333035,  3.956381376059911
10.351240291916097,  6.946566229114676, 22.687935035134409,  4.030874036458058
 5.530972976782602,  8.372342811946508, 39.183039152915484,  4.027566794884470
 5.691316550875023, 10.878945559156495, 69.585296604076433,  3.976331731158644
 6.280735034293571, 11.777110883427314, 49.937508845991545,  3.919560759368291
 2.476932479344923, 11.104772533524859, 34.305036502615444,  4.203671966094658
 2.743189896802930,  6.397261166446375,  5.714391550418982,  4.103265935820202
 2.401349325160529, 10.175470155515564, 51.199096956802990,  3.787605723933463
 0.086761306695658,  4.596040206501089, 38.280180228421131,  4.093511002745278
11.088753241882277,  4.670739534252369, 13.281609462701043,  4.186030939384061
 1.559924366489609, 10.615015772067135, 29.055975791513731,  4.195079910908754
 8.442877301499102,  9.401472905827074, 19.901948396117902,  4.169823213862534
 7.279948774995058,  6.388724585739488, 49.045219904475026,  4.065432896759323
 8.162125878365373,  9.000109657579170,  9.042611222510104,  3.645067306171889
 1.102849664247540,  0.026177490477917, 44.135577542905416,  4.185798705578939
 7.039312985042123,  5.362773588489768, 60.736646314788196,  4.062371930246099
 6.199186234745330,  7.209150586938135, 71.355878869024167,  4.186413632341763
 5.846132074817196,  5.174911573788542, 18.641141011683910,  3.999086055751234
 9.072944113819450,  7.013699284439258, 63.788245249743660,  3.977448113399404
 9.476198789145178,  5.415166028606992,  3.336475153274046,  4.004834542366882
 4.084437771588915,  5.994428221408061, 67.827794893302197,  4.389638522416885
 1.328767574385833,  4.039541846575291,  2.610942901779316,  4.099387845691255
 5.769605740561056,  2.569429252657394, 57.367824607420317,  4.115877601515531
 5.299921035934246,  0.827181454490201,  2.803439714900426,  3.901388254562209
 0.409883427174319,  0.196449577355532, 53.792146941323750,  3.798713409875574
 2.539870362197829,  6.391703108577028, 51.885094339450106,  3.899673861448987
 2.599729585045508,  4.027511387900375, 31.062999885944659,  3.769966176726376
 6.150658798879802,  5.770075444469260, 54.879007961356209,  4.023139877458382
 2.050466659361261,  7.700497146882858, 36.537675832882492,  3.926921480021612
 2.227359436281548,  5.628793041970217, 20.987397198722800,  4.674063542652502
 5.486684210862711,  3.529395641994260, 51.500405879005392,  4.188899241891631
 9.811433433423838,  4.302267318696857, 70.873537307292892,  3.742876522616511
 5.358209796800073,  2.847617974949119, 22.435229319247796,  3.896610011625162
11.809003512427347, 11.050900475253826, 67.787637495911198,  4.090755379533340
 8.353395484674566,  9.721513262182018,  3.806753174858240,  4.183085743420331
 6.893530840142555,  3.861816053673866, 43.322616907141551,  3.938163332706023
 5.502965721971991,  2.745195071439489, 27.975118178150641,  4.030897586353258
 8.363799845812741,  0.185434606307617, 23.139979166729166,  4.248141971421570
 0.672839459894908,  8.519588328248702, 58.542941373042147,  4.245929849088180
 0.789007496767148,  9.851097812629185, 47.636030959071533,  3.873279337053377
 1.833486963037812,  4.570913456621975, 64.569024722439678,  4.023305273336612
 0.432018401886675,  3.247370091086152, 57.923614040574570,  3.703024134842100
 3.650347524572010,  5.203961204216016, 48.460791471142237,  3.657027480802042
 2.658943204676650,  2.994348032115365, 12.472975517486176,  3.698674320262612
11.115208641380846,  3.786518523538534, 42.446203582381727,  4.312424612135502
 0.378962874654631,  0.402181728903667, 60.544318952828881,  4.027219224092095
 1.578346395065281,  2.797462300899105, 16.820494799319714,  3.736594618962918
 5.291207320851704,  1.878261150739561, 34.597394616015151,  3.592429578527193
11.661421031821586,  3.848376680477124,  6.241098874425897,  3.825057194858317
11.158582233157944,  6.114139074706870, 74.113161695761633,  4.152794116133146
 9.810653118847705, 10.902671137583997, 11.744961080060563,  3.737785227371682
 7.658161202497340,  6.868864382885151, 12.232800959116041,  4.078393122717718
 8.214650682292239,  8.940130759436581, 67.177117415968709,  4.004077387182798
 2.698476956574763,  3.417606705069044, 54.661621038946869,  4.243635333815557
 2.533347580555123,  6.945868736887335, 12.689277755621928,  3.995016914489532
 1.719031415052114,  7.470464042970878, 32.592296209016332,  3.962933908909545
11.884298194907048,  0.760143247013789, 37.104559900693850,  3.931551277304091
 9.298146456877792,  0.391678807260643, 70.803259604094890,  4.146062164232396
 2.386854146588066,  8.821831905427084, 70.765615411868666,  4.157774220573287
 1.792859192662079,  4.975904929547474,  9.340585380957943,  3.913040713844878
11.684796839713442,  1.629173536323425,  9.684482799351530,  3.929223128227238
 0.637522840588653,  2.662617487351861, 27.809878213895040,  4.302063567663211
10.592971860207674,  9.877106889026388, 50.796279801888147,  3.706938073108028
 4.796492152155780,  0.051152023594925, 53.651289604652185,  3.939701540958200
 6.268639915081360, 10.621669329479531, 63.369814165716782,  3.987774866631699
 0.787115778253120,  9.708618118743797, 20.989526627697121,  3.970537630567500
 1.387397509615486,  0.689401021093500, 64.323084489188787,  3.804840874967868
10.648184669442717,  7.420958350702597,  6.413718324989646,  3.607866897856839
 8.139254807184734,  6.974254300778219, 32.991898070319891,  3.803230135051070
 8.883918442313405,  3.686711678542767, 20.811745700450238,  4.036938182500626
10.827972689364215,  5.370112105314657, 30.553462007531913,  4.132792734796102
 4.952327785137882,  8.855776989943266, 14.990679939988556,  3.697887585070197
 9.968123273309448, 10.880421168011287, 64.357188009237902,  3.687579820794751
 5.107814377807078,  6.871307553789925, 63.892158073370950,  3.928349201128094
10.264863220893917, 11.718163979053001, 57.105990077036729,  4.034873829267040
11.800968740019735,  3.086521024534938, 46.379389869786813,  3.769585752938016
 5.168256549032094, 11.505532649771109, 45.752265540451624,  3.964070436217895
11.807393877218351,  6.482773279983157, 54.958936208966151,  4.081212054375897
 2.671343111329701,  3.819557914762099, 60.851086956568793,  3.742165643895124
 5.673919742267367,  8.836242037397207, 35.263025865497070,  3.861965894038619
 4.778638813532663,  5.436861259518022, 33.794460523237149,  3.756901066495160
 8.541644340782849,  1.695304296985934, 60.172833058905155,  3.930871532521240
10.249795817757414, 11.715452055451340, 40.834983756293354,  4.433627121418321
 5.508595319036274,  6.692774310967764, 45.471546670039181,  3.682933434292561
 7.168678312178299,  6.358983613036834, 28.809930415777696,  4.093316551575350
 7.601336765154777,  2.677376357569826, 39.074199418907696,  4.132320015894207
 9.127067093563864,  4.658945545248536,  9.139838801326919,  4.039791694492747
 7.808863067900244, 11.342128334307697, 33.050387774022845,  4.069549501964032
 1.827696356250057,  3.094400159904255, 34.621523266674330,  3.723939620607056
11.393039577735367,  1.311309880789606, 31.807115142907577,  4.388182187615210
 3.275378925545070,  6.805155870971237, 74.210223028263513,  4.019277832044043
 1.629798440055027, 10.708738840137935, 17.186884265472379,  4.059826719846749
 8.096823255349225,  8.716929180336891, 25.571168704819829,  4.090262104965284
 8.409551215808763,  6.201406543729461, 40.662892571566886,  3.765718925272494
11.302719160988744,  0.957347529398972, 14.492157316505912,  3.633688939053937
 9.144704886038676,  5.074153019186858, 52.324080906848174,  3.920860877798053
 1.140856361488354,  8.507507195462344, 62.936752263785429,  4.579049588861453
 1.481275613513882,  9.784363838916082,  7.992578989302078,  4.289956927652105
 3.204409777453610,  6.955320023584179, 28.695449938567812,  3.857022980917480
 9.827341896404901,  1.343817375963818, 49.172126610259134,  3.903163659118302
 4.491140356343441,  0.819291317981353, 15.122614949930995,  4.065204941334738
 9.192468444969398,  9.664292616600045, 60.723538047878087,  4.125954835761375
 5.189126857285836,  8.849712655918191, 31.418234047158027,  3.863054480870144
10.498143962061565,  0.179373001117073,  6.258808457017623,  3.870534765701321
10.083068996881330, 10.055695768267647, 74.337971855411340,  4.014120971792008
 6.838121894967514,  2.890662198592970, 47.157358152403170,  3.931083085490688
11.261887274943026,  8.601024310848816, 14.553858336945485,  4.078064032196156
 9.419562504248997,  6.146893289737171, 45.532800489047034,  4.166202204672482
 4.473550889914436,  0.561447907334327, 60.486216739265991,  3.738195625008160
 7.965095120698292,  6.036732906124030, 36.814774693995687,  3.979856101792853
11.610406831954082,  6.707421677907227, 26.641526401771369,  4.279427653648181
 3.312823977120905,  0.720705575002553, 25.281050349790114,  4.006637348775233
11.767281095113352,  7.070348034279653, 67.019370295494468,  4.014920343375374
 8.930384751576003,  0.651925865670416, 27.231490900296706,  4.051979950655917
 4.664560955298465,  7.657784907120349,  9.446126416500435,  3.883038665373531
 4.738870716126850,  8.911959986157948, 18.679394919231910,  3.689621504634767
 9.247883918109627,  3.651206221952121, 55.886752582201794,  3.747632163980886
 1.616911311308726,  0.237561070624025,  3.870414723333766,  3.841018200797735
 5.982564221225618, 10.572400221672751, 11.729752776977124,  3.945860375180159
 9.952607698515260,  2.958288182284163, 63.857919937295343,  4.315138381480629
 3.551325816197398,  2.412229650867938,  6.685642733016393,  4.256264508594827
 3.547262480296778,  9.921465613797917, 66.287879664866864,  4.113588652028526
 4.350516334209178,  8.808670802031667, 48.313292615409239,  3.651784433049888
 5.816967285771539,  8.530726812659086, 52.062017311571047,  3.891022783861304
 5.405436912857498,  3.774509723931120, 10.028896000622151,  3.784578012961695
 7.679829776463195,  9.200694155071726, 43.252492845691584,  4.209281711613841
 8.269347333684880, 11.062465304093273, 37.180485021359360,  3.978358411416075
11.226392599017395,  7.615126536722676, 10.614624929768151,  3.757594193913887
10.186468260197149,  8.232067652874679, 70.676103675266063,  4.148020307719315
 3.491967847615535,  3.130278489439085, 45.100108355216634,  3.870199014970578
10.707214267830576,  6.392101499171631, 18.642702153201508,  3.769957873532946
 8.142014285002761, 10.985211334907993, 15.674424113114517,  4.085007205851303
 6.256982241417496,  6.819848040372126, 22.384456493467912,  4.179675790886765
 3.865831928408368,  2.803519233850859, 74.078639450492716,  4.072342980887862
 1.941064607086804,  9.822982070229116, 39.811654282274219,  3.813899425039640
 7.322441886357638,  7.399576778762237,  0.739672131179090,  3.778146924521813
 9.009287964960372,  9.271651110173895, 54.225432136603665,  3.925260344823209
 6.410982390825890, 10.392566192237398, 57.123438321202016,  4.113652295113662
 8.681632931508078,  9.859501829764799, 47.296049393277485,  4.183056929142269
10.651345562794498,  8.289708985041395, 38.467662363379098,  3.771520169988036
 7.520508590282605,  2.670059513681560,  5.525185763543671,  4.029085891191203
 8.795013589266624,  7.137554182506317, 57.568421531533509,  3.995748761142569
10.700163275398387,  0.647741640981315, 19.175633013096917,  3.721698838364912
 8.344046281840949,  4.873746828264060, 67.262462111658067,  4.133241261038147
 7.422240339723976,  0.940225379372922, 66.529245887408479,  4.077500792620729
 4.372894184862836,  0.679831604057676, 31.106287288836036,  3.803044355275555
 6.272159382876599,  0.986609069150702, 18.901234491929010,  4.292999711395214
 3.706945845490228,  9.146720228614319, 43.081854106053136,  3.727735927281937
 9.959504110906037,  1.436494165860194,  2.451562350561918,  4.195029363753942
11.411929572344997,  6.359195853823383, 49.208011519270073,  4.184350418260835
11.054324110804799,  5.449075405248167, 60.750963935796442,  3.906027006560481
10.785688419482884,  9.227610813374010, 34.719841806567828,  3.959295563067612
 4.140873834323872,  4.394735747775116, 37.553692002610042,  4.147140245701551
 7.816392595796980,  3.670812543008438, 74.157170513241354,  4.004082622493521
11.870464400550203,  2.192238159535073, 73.365137327070201,  3.957821594111281
 5.326522702973846,  4.803532394332157,  2.876873102731452,  4.030614410498968
 2.536936250313576,  0.057808418598300, 57.123730967618400,  4.086022751592641
 8.023447682316384,  7.093551844377878, 16.104048177457425,  3.702644455755652
 5.391772646077757,  2.869038070278772, 63.532679827228655,  4.120833659266617
 9.080398050768917,  3.306496793175687, 16.717566221185699,  4.193755631990362
 2.399599739502648,  1.363878442168546, 20.300838216242624,  3.968555726535352
 3.246611959905468,  4.844940667794435, 25.252464285703706,  4.192939534442877
 2.028471967643252,  1.734602682751876, 40.288120368517831,  3.888376962018536
 2.249231746206111, 10.839491403604693,  0.054799790294597,  4.283115217198004
11.480343555336972,  7.944853700786320, 42.299580057246942,  4.017942700822761
 7.716222743660459,  2.184322302031650, 12.891421346303652,  4.229706642829876
 3.418142804045602,  5.379464634831016, 41.632821217359435,  4.363600843391185
 0.008215982693745,  2.600938436158074, 23.516419891532003,  4.375182853308624
 5.232371279752533,  4.863569855967016, 14.727114000727596,  3.947332233218613
 2.229299800170108,  6.660986047182346, 16.719810451388401,  4.101112730322989
 7.366250802535809,  3.293414541993674, 31.613534488893841,  4.207963464508063
 8.587410831349864,  1.145674063387414, 52.955429476701234,  4.067057370180239
 5.424675175110530, 10.549393975689574,  6.664387086048005,  4.166323675009810
 5.985385629050177,  3.039468219917401, 70.439085818219866,  4.358448639876427
