BANDS
8 8
NANOPARTICLES
cell(1), 11.868
cell(2), 11.868
cell(3), 74.175
 2.651737766902819,  2.041854879266954, 44.706815956632553,  3.884997127326761
 6.186486627601909, 11.345495648149953,  3.772919245693809,  4.123590120608177
 0.749054386645392,  4.165788658119983, 47.466026220258577,  3.806184719282493
 7.613875486103009,  2.172722087371226, 20.057186293476239,  3.851602322317445
 3.410198584114326,  1.817544347801945, 13.461323085612088,  4.034296502134745
 0.053862704811234,  2.614508774227323, 52.495888202523801,  3.763120207066448
 8.365788407759647,  1.112960504858276, 53.188225336701585,  4.079592295280685
10.424144885003960,  8.577878552333910, 32.378194129034334,  4.152594364399203
11.135355254149443,  1.835295819234758, 13.030976161959378,  3.734709833535409
 8.406270477550265,  4.823674657251259,  3.531000455548047,  4.266320023842415
11.055376880642118,  3.571797323417410, 57.767642275029118,  4.457335483253218
 0.017109253369665,  5.948974592418092, 35.330853289928370,  3.800719299570299
11.573249730331284,  0.090621254528530, 55.426075423574154,  3.991820883428546
 8.333429339036600, 10.751186996200801, 35.271725782791869,  4.189361637631865
 1.231526778882878, 10.962385777462105, 17.146972139965978,  3.957415964746307
10.079787644123186,  8.648591357972165, 53.989149537276852,  3.768606675235882
 1.418894287562049,  2.797297292821925, 16.533834274973113,  3.543614514972806
 2.239308663700679,  1.742185593385494, 37.361839949076590,  3.956554914977192
 4.304835316778775,  5.214903464179137, 30.653448229350932,  3.832448656616783
 9.797821303018324,  2.381869621834152, 49.364992269714890,  3.639387784943523
 5.770575723894286,  9.190780285734764, 24.576480175979334,  3.708811856214041
 4.309721555486653,  4.132213067617830, 10.307853536187356,  3.985914474577481
 0.858650094675231,  6.938085537392172, 22.522495904839207,  3.790326710134208
 5.445244755113494, 11.509294730794503, 71.826190565726591,  4.183850911546851
 6.923362038941739,  1.790676784412581, 32.890986834413489,  3.795020570195365
 2.201910296012237,  1.274870745885732, 70.361920189345526,  3.639269165209891
 8.016236793120589,  7.979766935466825, 61.312267108120352,  4.395714555792966
 6.771875120874888,  5.922335853636348, 38.857415187721159,  3.730147802328101
11.799682403803741,  2.936625203999318, 73.312379838567992,  4.468690424574254
 1.346383639396991,  4.043097979056803, 61.334996680067214,  3.918884857211706
 7.584458842156375,  0.443656599373686, 46.423424968630172,  4.218118050022161
 0.589213834863203,  6.345324797869329, 29.425266287320795,  4.293023431155525
 5.481625939744252,  3.044256872566510, 16.770678100788963,  4.135844938383344
 6.292100081170682,  1.405911061458242,  7.103382461715460,  3.568532954268675
 2.749378586292694, 10.848853681038426, 23.084955239712155,  3.795572657252059
 8.207377283592784,  5.214042338164067, 47.316293114138212,  4.019891572250964
 0.186284178843449,  7.299487809860931, 67.918588941747473,  4.167565961875775
 0.647228215316558,  1.348935521159831, 25.533231053098039,  3.853242056385247
 9.384028075897785,  8.916885741446995,  3.981972494090068,  3.908636480174378
 1.065066449678380,  8.187368423855281, 48.277933755189828,  4.059971764054398
 5.742770490537707,  7.944105694796075, 64.882821696725600,  4.060068517741166
 6.361980202835237,  4.987338379363626, 13.465220452377602,  3.729909356964670
 7.851621730406335,  5.409404953217056, 34.585354932634260,  4.402800156305795
 9.951401085131224,  0.967059515274413,  3.026443260448322,  4.102781032264113
 0.799962656531808, 10.649854512513995, 73.993486920589319,  4.083689569155086
 1.061041711122805,  4.911676620598337, 42.339637116332860,  4.192223093451894
 4.114271936050356,  0.007454748636018, 26.845433495820377,  4.027938003836054
 6.343000172214539,  5.147010750646590,  7.056315841846829,  3.908210086130620
 7.465663769741447,  0.868544298626962, 13.978661417401630,  3.952618211200225
 2.422781038903931,  5.618451752683699, 38.479677406509218,  4.113984079998342
 2.546199936338704, 10.697711809308490, 40.000914236555829,  3.918434499182827
 6.591863989170197,  8.864879533321188, 13.372818366311316,  4.038510603405671
 6.653445203338212,  5.880845723007358, 19.390802560456823,  3.895440597968260
 9.301982896221876, 10.506609636957441, 43.106299873696422,  4.049867457205845
 3.352001432035138,  9.797969160579905, 68.709867546506260,  4.049023252931044
11.586879821330227,  0.544754415657391, 20.684845204425251,  4.177146474358239
10.528437441184199,  6.312885268184524,  6.895855562622700,  4.228030743156374
 9.501930843480041, 11.485098537542818, 59.077676576759238,  4.422118283894354
 6.622930630719241,  8.235843325265691, 45.144569990137633,  4.064556171985346
 2.449591098700624,  5.792363016004941, 64.651176174887269,  3.810489413790754
 5.315796929042536, 10.743402079844989, 59.563723387725062,  4.086472251637632
 5.120187965582583,  7.390913108270623, 48.758839035285469,  3.922244988872518
 3.801364356072575,  7.258364836060578, 61.181328589191949,  4.158064090408596
 7.553204655786232,  9.823974965346382,  7.232009126398827,  3.717960100897327
 5.447396516715364,  1.950396671016599, 23.457012038607363,  4.220726879431757
10.072575458327345,  2.147719641525826,  6.981441709768837,  4.112973295176069
 2.241175862311302,  8.183322115369769, 25.970649622397282,  4.029557367769637
10.080750986601316,  9.066436814201031, 71.164829584122046,  4.035815161022058
 6.552109326656046,  6.508001389178462, 57.593382317037168,  4.120149652716529
 1.302550256037033,  7.749612805286611,  4.075474179085332,  4.012558682651095
 8.223203468860087,  5.787522491325266, 30.249868238123629,  4.125416733984574
 4.379135818781169,  9.326661631185763,  0.808669664922708,  3.779780377431833
 8.150344703721673,  1.892261998047144, 41.028080490479034,  3.975538089007107
10.065687407017565,  6.060507312892097, 13.196592928180776,  3.945694189543343
 2.252583514535119,  2.062936112767883, 66.361749834589745,  4.389964389690213
10.544815412830904, 11.329130172310590, 38.769825814360345,  4.162449991640624
 2.719018580612918,  4.965775183453504, 50.853388014068948,  4.067327330112827
10.163050299073504,  2.642481020228687, 28.457380798566856,  4.081728754048278
 2.648812643438319,  6.292018346119280,  7.445781547964581,  3.806677262748889
 1.378368322838980,  9.355783979726416, 36.509144041778740,  3.901081038035334
 1.852080202600952,  7.233615649126205, 71.771212544297768,  4.199825184640395
 2.045564097062354,  9.740996367545140, 64.833765994856279,  4.130229102186721
10.911629025193987,  8.595311442685606, 19.550627960369791,  3.894892370459315
 5.820652089891940,  3.729698423050809, 64.242539903567035,  4.064830175736422
 9.534813302675795, 11.113981786835033, 10.205534989130065,  3.856074094077063
 8.890480262974256,  5.266798374726525, 71.396533245870415,  3.908188763959965
11.831208219606349,  7.997547120960098, 40.255991999517533,  3.556917707282113
 8.300072415841260, 11.239381708680439, 30.068110975403329,  4.075912811101293
 8.085515426801223,  0.080940785326617, 26.059299460301290,  4.064076896760356
10.414208529228066,  4.540781891893812, 39.178435261139413,  3.901416729602285
 4.878530454656419,  7.754622342042270, 36.165813235001110,  3.793452862135901
 9.397269706573342,  8.283085857386673, 27.174786525938149,  4.032466048725433
 3.133426998063483,  5.529146548992037,  1.178670704295286,  4.136800731633494
 4.074913173408057,  2.709970773736146, 40.672607561540595,  3.831856936473959
 9.555180929682528,  3.467474639311590, 16.207335936910514,  4.065928455459630
 3.816940242344482,  5.578537648339202, 68.263192187256010,  3.892279112183313
 6.532504421955873,  7.820890751583484, 52.658333300938565,  3.940559988140094
 9.687256846759169,  9.430188632808214, 65.086871556168916,  4.353167557471087
 4.331752994931023, 11.360891098752873, 34.877126226815179,  3.943235488620114
11.400449421581897,  3.534515242400837, 69.044017453737354,  3.794653456511357
 0.808589638600147,  5.844189712001312, 54.596081927660705,  3.966598101823575
10.067085636813118,  3.061521702051114, 44.541398443369317,  3.917509469615398
 2.545900109296665,  7.861041454688945, 33.008616936647137,  4.048515158936813
10.590659296574307,  5.132126678986895, 64.931584142077782,  3.763158538484761
 2.684468858631984,  8.910359992028384, 51.987642821184664,  4.118264000751436
 6.842619021669007, 10.084066012998907, 20.705664109605827,  4.310876243374454
10.901056802927084, 10.051171376939674, 23.921287521288921,  3.948541042847148
11.115879652574851, 10.935693525192908, 50.921912541713709,  4.135014406738570
 1.429552592975680, 10.271240450116636, 60.018161144993407,  3.733185513085330
11.318724010612581,  0.699645352245868, 62.758111878547155,  4.055147008978526
 6.223938493523770,  2.451107095615354, 29.028460302275587,  3.627793746021064
 5.453434306133279, 11.704750819009883, 65.569416878843228,  3.552071251852060
 1.522259156463740,  0.168146689759043, 10.265103214914507,  4.069883513747776
 5.289974916645111, 11.434973283922940, 42.902557839010846,  4.188952724703334
 5.200574935861368, 10.876955920481793, 16.645627322706073,  3.939457494452605
 2.805684952005617,  5.424453918362527, 57.850014622834216,  3.674025237020495
 0.738967632188634,  0.247318054541724, 33.059700502121800,  4.224772244693136
 5.867487828166694,  2.165331994911012, 68.581727019369737,  4.079333156802785
 6.300728879251468, 11.035299971032122, 50.201719930582193,  4.139722843029243
 5.482011872947612,  8.367688688586506, 28.478148535903035,  4.171305212190928
 3.731762003789524,  0.932759002020776, 19.829470672944911,  4.041273260903788
 8.673822840249793,  6.816215764964499, 22.786209203751266,  4.221602549058177
 9.112555635377472, 11.467784232115489, 17.422991849778061,  4.089085091563098
 1.780704658010009,  2.552812394598091, 30.064004467300240,  3.594832146293355
 4.232152599484825,  7.987430795437384, 10.416252550308558,  3.722014896359648
 6.990419371375157, 10.213313386921858, 55.866223233437218,  4.098178194975894
 3.253959791505365,  4.226952201631636, 26.796863820214607,  4.299273909977296
 4.642090203337268,  4.522857345974057, 54.515189295316233,  4.135058219883703
 5.794926915517626,  7.588498292884685, 70.958708705840110,  3.875537876416371
 0.202826193280593,  1.087867511575445, 41.989144076902924,  3.669693175226469
 5.314544651126545,  3.564105891684986, 60.155247512455119,  4.067150292587200
 8.640132312459599,  7.597259292028971, 16.517552378196100,  3.881708508688816
 9.072210843179008,  1.657504166898193, 66.054703609557066,  4.144460928096779
 0.305258707071929,  8.121007816343610, 10.427675483266105,  4.135156884292833
 2.899104154600821,  4.844797579785973, 19.261882727305217,  3.891577201139128
 2.074545434562558,  5.577278512831507, 13.213932498956819,  3.852402159262561
 8.217637977828547,  3.014808405668040, 10.592990606384847,  4.162720219410808
 6.839276581826139,  6.529015396773451,  0.282407202810776,  3.708201997139640
11.570746593914487, 11.281539439027689, 68.241410799822518,  3.866882436387800
 7.482034384342238,  2.550201927465356, 74.171548526587017,  4.325982831739502
10.993520068191570,  6.815936295540794, 45.207250895148171,  3.668084660422271
10.484985872092910,  6.040127659205541, 50.843600166408471,  4.229042435981138
 3.717415118809718,  4.188170681914802, 34.478991762143387,  4.135193128825833
 4.632601499394099,  5.943637602522794, 22.801839633309765,  4.033857004706089
 4.237288593275357, 11.601319867210076, 30.880022154582562,  4.055215270091372
 2.570395648021307,  9.667433265614079, 13.558358748841563,  4.129008417541778
 3.126631814015512,  6.440546787393449, 45.416660913473983,  3.796998207525818
 6.502419256872602, 10.090178501554675, 39.047995671140811,  4.305212274346778
 4.605340180397437,  3.656521486973078, 47.629221893816535,  3.848491083680841
 3.035547836002867,  8.724101500231823, 19.861299104728992,  3.946835985592042
 3.573159931446632,  1.601743265662471,  0.588121611762975,  3.804819687751571
 6.397411385949664,  8.633455058669639, 32.410973322029378,  3.898210305469947
 3.465634567493697,  0.893124672479363, 62.530418571906019,  3.979026931289684
 7.992733243947833,  7.183072909757742, 10.002954367277210,  3.976483272569065
 1.798208810510777,  3.319000600991201, 22.541323814616344,  3.665170041983365
 4.346837589336478,  6.969565813733026, 16.196838545107465,  4.109145885313521
10.409159738827098,  9.975645781168275, 13.886950089997905,  3.978127135617608
 5.265114330766377,  7.427794327893772,  4.051859145925936,  3.935379132563696
 6.736904378124382,  4.160886513008539, 50.967256254492646,  4.126459037928035
 8.802049581627458,  6.680838694651895, 42.037459314017390,  3.935143262203968
 2.651792063970276,  2.416537561167585,  7.123040713185125,  3.970816397258534
 7.752231186260339,  5.647916375662728, 67.582825134500524,  4.068933055186645
 4.302891898099213,  0.497063064810874, 53.587776477958677,  4.151334228143805
 2.027205044678018, 11.805978718052025,  3.905867477606502,  4.235574215048097
11.431040165259210,  5.317339718739636, 25.700430374876440,  3.697526196906836
11.761649630139230,  0.044001404420239, 46.899568744657834,  4.204236217097294
 4.414486157470058,  4.040185230597398, 71.827348011310121,  3.934769684517522
 1.397619832509422,  9.641535163763765, 43.726425601150432,  4.157906518002923
 7.397460466674236,  0.501910487867523, 62.507278036282152,  3.813082842479718
10.447564222720361,  2.351283547813571, 35.873167558307117,  4.022432729302320
 2.982963367060086,  1.526121769073470, 57.412077851767144,  4.177470636107043
 7.338238098068129, 10.190413188393737, 68.459896865022117,  3.966948000079704
 3.862683637016891, 10.637292664054726, 46.788699139590740,  3.949904810610495
 6.399096720164762,  2.217571397532756, 37.245716095935045,  4.375985328022733
 9.056957926179736,  8.945066975145439, 48.164781136910072,  3.813599928700907
 7.122490721330730,  2.213395903715559, 56.873432499370807,  3.881069176357188
 2.672119337233941,  1.028566735055521, 49.865519849919352,  4.033976568274251
10.918848001183340,  7.783102434055798, 57.699987641367805,  3.968942469703853
 0.291985166412349,  4.040350442987529,  9.966678197344933,  4.077867768625546
 9.581100817315068,  7.821608830344934, 37.493377505243323,  3.542295376796945
11.660116342202121, 10.268727407026878,  7.006899690989390,  4.001250777445204
 9.527315675829220,  2.838838114953199, 23.431386164204291,  4.015191251746341
 8.727912350194210,  4.976206083177876, 54.465417466388800,  4.085337918368254
 0.708324249532398,  3.850156321607032,  3.990318793112467,  3.869583868189846
 5.595537494812129, 11.670462802367602, 10.556814004687213,  4.129249405216137
 3.754320187130858, 10.189348007604263,  7.220331917789420,  3.908127687197710
 7.385414040160838,  4.867674888661941, 26.239251216530473,  4.107020539630295
 0.044151021122846,  7.499870792873155, 62.317440309545375,  3.706963301935681
 6.136673540709707,  4.126815730818345, 43.878829852746343,  4.295277665458591
 4.390490727526751,  7.456714012529998, 41.705045803074263,  4.279020468944842
11.001499596742526,  3.845550739094633, 32.298008858158958,  3.766396399819666
 4.740514839944850,  3.163378125171291,  3.930247084918507,  3.799255141450731
 9.058111416996322,  1.012345919001912, 70.713011535546201,  3.847595226691225
 0.531042467027222, 10.750932056112358, 28.923298118627340,  4.485993579587896
 9.114849593129470,  3.902221080192463, 61.536810925669791,  4.036805867207483
10.814214836913804,  4.576849023983836, 19.962276227266422,  4.154731905839795
 2.819538391647376,  9.204372815015688, 56.288850973527090,  4.498423398944226
 8.202865057219448, 10.173015373134666,  0.397120729915125,  4.041468516533896
 0.432315747382749,  6.356105714865430, 16.685983394133867,  3.847007314409312
10.825737376761973,  6.925990093401815,  0.687745823617520,  4.289715538513278
