BANDS
8 8
NANOPARTICLES
cell(1), 11.893
cell(2), 11.893
cell(3), 74.330
11.759944856636483,  9.097731976425385, 49.624806482143512,  4.202477859934055
10.484242689716842,  1.570715877569681, 72.986572980309063,  4.040723207011115
 7.703036196607533,  8.789216759928083, 16.034349699633065,  4.360948056906237
 1.415753859551832,  8.247966566194348, 63.038463967489278,  3.651418062954455
11.195721437252468, 11.747358129013309,  6.474937337862853,  4.587950300844618
 3.264489774766445,  0.781652643433877,  5.209711400678768,  3.907892268596812
 4.235781470158599,  5.298684998972464, 72.774200434952320,  4.170519313317127
 3.544599260399174,  2.934086062646788, 14.826744749796557,  3.831439710886491
10.446180579011116,  8.877171113657676, 35.282225939901188,  4.153922839690289
 2.128239570047792,  8.698342639023092,  5.374727519801020,  3.661723373568130
 2.003889978725142,  3.912244770343887, 18.379939080469715,  4.154081256815982
 3.775501301046457,  3.090849230147154,  1.849962858989736,  3.963180974324535
 4.743290825954243,  6.023732739787239, 61.215834089552871,  3.791969857275844
 8.733358457120834,  5.246549300208388, 23.761713109044660,  3.905601449298262
 9.904107259330146,  1.309061045764503, 57.729475405380050,  3.787038544064619
 4.215085689491005,  5.509699130303522, 33.518131453123260,  3.943190381502903
 8.548465371062230,  9.958036189633022, 42.501790690355641,  4.214526008484933
10.498798291819881, 11.316918331488878, 18.136583512687480,  4.265160602058272
 4.686402383093736,  1.677021104315364, 32.377783204784947,  4.108138995299324
 8.260963684622686, 11.114150515959791,  1.047320850126590,  3.934364802761618
 7.162655438990272,  3.389702727013084, 47.128854609107456,  3.987358745159240
 8.652747953218411,  7.536537266027372, 20.038723270154229,  4.238621147003083
10.491346895706862,  1.395214102417069, 36.029351331088421,  3.809451438905735
 3.276461623654309,  4.034393765453259, 48.015682846995134,  4.067768886001574
10.642744738931929,  6.546806992735473, 60.831544164814396,  4.031340230003697
10.978820691994988,  1.860262688860980, 61.354656438902744,  3.854211235275684
 6.600634968172137,  1.702175275803117, 23.654459471277704,  4.103214089700818
 9.616239379183707,  4.144825836672710, 38.917730781651500,  3.708150204959608
11.035949518222493,  9.767244383276015, 10.442170783748425,  4.216581655286446
 7.418942022659159, 10.870412399660660, 46.504536525373005,  3.913140136596101
 1.580311968242652,  4.609128855273433, 62.819239440705658,  3.633586452756661
 0.916006888354028,  7.359102312654969, 32.174285302920914,  4.064589149968625
 0.217103812905352,  9.613729238720177, 14.598700156940017,  4.053931239645867
 6.380706277715213,  4.689806743370367, 30.054493867557706,  3.927862787711074
11.770875899991072,  5.243947658651744, 73.517916183766900,  3.789395021696671
 2.818662860974950,  8.233998683350958, 23.330873976666140,  3.745526909657617
 2.560499813658952, 11.597327152036636, 29.448295406475182,  4.134987149856761
 4.666286406721272,  9.229092410981377, 32.045535624465018,  4.056163557392845
 4.179464195178546,  4.382202364381479, 68.744267705910730,  3.977194145699503
 5.208122311192338,  8.884865831332961, 74.126574412027580,  3.737038963268040
 8.968540811853888,  6.327280708597145, 48.920759395948586,  3.779557081160237
 7.719624725500362,  1.293420786758854,  4.396428833516135,  3.994488998721420
 0.872896945859008,  3.867851138519030, 43.197435549730315,  4.081588588005475
 0.149618981956252,  6.039859340583774, 26.248892567653517,  4.216415823267759
 2.739125017849592,  6.866966363249133, 41.475013679899263,  3.756580885962702
 4.793982195479146,  5.479469074140135, 25.497172161075387,  4.266945414290722
 1.401475297073614,  6.827103690184745, 70.373222419373008,  3.862116173865841
 7.670925151645034,  5.413899838740698,  9.995298528324534,  3.806368102569891
11.333743699485511,  9.196114812431549, 28.677368965455184,  3.853718867996680
 5.740733507129296,  2.992047908511921,  7.512654850496039,  4.129594764355417
 3.609335506194897,  9.736499084071802, 48.000109995085865,  4.035737435407970
 8.401600381639364,  3.041402917034997, 27.044043545988192,  4.024286823532757
 5.247389121762385,  0.776176400877526, 73.279229186655755,  4.018898272726180
 9.659316008299493,  3.724538812320502,  7.181744632820014,  3.857421076922301
 6.525514155974068,  0.116855583280255, 53.383482432412272,  4.013161241434228
11.365600335847162,  9.510622855066433, 73.354886247357314,  4.091718814899886
 1.343695207155984, 11.703496740913650, 58.958284342953007,  3.897162065532695
 1.120581281034627, 11.342869266784756, 21.551874325222538,  4.179539560887223
 5.074495899403647,  7.309932807133210,  7.624282310071051,  4.180287012088408
 7.634038333455823,  9.714349374508640, 50.285716755973390,  3.994892406826442
 5.657694677692255,  9.384571202437320,  3.738889299342790,  4.234157751902229
 1.418368153941321, 10.891889616068633, 37.617290302958260,  4.243811340524012
11.127625261055778,  3.758792406417847, 10.870059058508094,  4.055048638324297
 4.802231363664161, 10.334137985152076, 26.397882526801698,  3.788077245036934
 2.649625301694796,  2.234152638009902, 24.176782922929945,  3.930878147912413
 7.406433079335955,  3.327314614412115, 71.030045708135972,  4.037606579058075
 9.701788924052595,  6.171671832129639, 56.856936674957254,  4.012654233572216
 6.364762047926376,  4.816049220388408, 17.048695286637471,  4.262294646679520
10.353111277164244,  6.815014232305876, 64.746759941787488,  3.743308502051078
 6.653924212049223,  8.572852877960488, 23.463044836085611,  3.955771133788871
 4.352113699393064, 10.013175281399656, 61.101691937103134,  4.219835014751063
 1.802315622805286,  0.140775174583541, 63.652170758382290,  4.047221841286837
11.113935765415794,  9.291877166090039,  3.018246417974296,  3.892729978369118
 9.513311957052240,  1.013102570367243, 49.103555345650690,  3.773616763072007
 0.576261909027320,  3.100269987697329, 32.731144411203886,  3.534949145636747
 8.669824769372758,  3.910493831891512, 33.399970120992130,  4.326254852133768
 3.235081061761437,  7.128422664683709, 37.118296677032568,  4.173109267953768
 9.814818656875378, 10.311999793386676, 60.204629336637836,  3.763062353470660
 5.508774705899516,  8.244370707116415, 69.184544897907628,  4.234985541183156
 6.620366900759486,  5.267367178822685,  4.140325483052093,  4.077766489505734
10.739849416222487,  8.554757652316578, 23.363455862119814,  3.831414416776415
 2.866839031631729, 10.164786255763900, 71.491587496176138,  3.759714833257002
 0.747253060705880, 10.200444978203118, 55.396018484281214,  3.908411248407175
 4.511537073507666,  2.556128753925552, 65.265972804517048,  3.884824136547264
 8.832745177442810, 10.951022249861524, 26.002770334790895,  4.253228509455929
10.048274826607424, 10.597816938715271, 64.170177956241346,  3.851081127591939
 5.299195710356682,  1.023743275873703, 49.712544949362986,  3.936273670608829
 7.089117353849528,  6.742433788755616, 35.941604825547209,  3.910616998371061
 1.846604839510071,  0.727845175450928, 11.939044300318587,  4.190459120871425
10.482244826548492,  5.643457461448464, 16.772660214437202,  4.146263641089182
 0.422472057042787, 11.825838664614015, 46.501842435279066,  4.144605850940634
10.322566106697186, 11.456279526784023, 52.553760326950602,  3.824499307333594
 1.739850211275879,  3.861200341597428, 39.229895208389109,  3.976856878980278
 6.176700615564402,  5.853369348381780, 39.783728931871522,  4.163579311829230
 7.109863203485686,  2.033630086306497, 41.024741886817957,  4.082544789497205
11.011018699024763,  3.861988965916726, 69.648600421259502,  3.755455144932253
 9.320709460141023,  1.617579473108625, 44.329462591858068,  3.912276629050432
11.654421526048907, 11.464510474595011, 69.879142482837381,  3.705268530686396
 0.586160268046792,  5.122703293569020, 22.142908698798376,  4.241471482566583
 4.463268632991590,  9.441978842548039, 56.411976238498134,  3.929155781706536
 1.636806937623821,  9.474806001326476, 66.950146741974564,  4.304327368062475
 0.392489783765795,  5.140957989586649, 50.645366223006725,  4.035718561558198
 1.933807586145606,  2.462620861485656,  8.374817500186026,  3.736054368772239
 6.109320019751274, 10.607394400098467, 65.584311800522670,  4.460196867166949
 8.751559276933072,  9.944160658228832, 55.972363169433848,  3.966175840538047
 2.371380423265267,  6.954179868328315,  1.831267921288249,  4.240127192602721
 4.194193087713664,  0.977146005699200, 45.653799883920300,  3.863747501939258
 9.097528529491983,  3.134122162244732, 20.077505894447416,  4.559945180056594
 5.692260968357683,  2.399976744406209, 11.563005240268124,  4.053957766174763
 3.531829617603191,  7.866822804767304, 16.319575040601332,  4.190166454224691
 0.967680453823782,  3.974210465750196, 58.423473628295703,  4.293710552206695
 2.250555308808097,  6.958057447411410, 45.418804499754366,  4.009986700696752
10.651233768224298,  0.758057158668666, 30.391550630168755,  3.943624871113323
 5.172655783916861, 10.545582693694152, 35.859048047111848,  4.075435494962037
 2.766473963653406,  4.776765537453373,  5.343260677018185,  4.052116392218647
 1.381336062709752, 11.286343639820611, 33.414425881194610,  4.161849748541307
 8.925458393697296,  8.016249683269773,  6.178806231596198,  4.158747102963263
 4.342786544089792,  1.480544625537496, 20.450147904721913,  3.741855590043341
10.359705184986455,  8.274529731443781, 45.824311048211719,  4.043115688447860
 7.269020471536600,  3.256962695024049, 55.696407819279486,  3.917432032926322
 0.395510532465887,  6.550827600516666,  8.135813824713889,  4.085520169644714
10.700379311033409,  4.662248198790103, 29.846886907210202,  3.916029826034495
 7.679789633357970,  3.134701116348960,  0.939184539409986,  3.837994378161984
 8.423707501407307, 10.813598983580603, 38.278217957392307,  4.046134541310066
 3.123114154377518,  7.602805414762128, 28.663594860810004,  4.057204694811146
 7.897952777878796,  3.620898577471106, 51.682227372062819,  4.240505381015889
11.194388989646864,  1.488801722661423,  2.554508312317716,  3.879946780439487
 7.722293561329623,  3.993171462998497, 59.573414580882350,  3.997168469445049
11.365432469871314,  3.179699251662029, 54.328702963508739,  4.497453890293125
 2.602375276317445,  3.802398624251595, 29.714384912307668,  3.863422554340024
 8.764791280475000,  1.209822719388695, 67.825047464372815,  4.089719787695503
 6.273363985132025,  0.361621715439231, 58.369518432079722,  3.817258562216663
 6.640224489963226,  0.715891988250805, 17.434677119026439,  3.992488825608426
11.697118860585324,  2.063416444671608, 15.256443895033721,  3.893415374600275
 7.916388844884208,  5.288511434873274, 67.448644185253542,  4.130789203797701
 5.036870983198584, 11.272128270775751, 14.076335411844131,  3.910448787865938
10.849433186542779,  3.061595832192913, 65.006254045547976,  3.834656264464889
 2.720310632519775,  2.339030741530550, 35.760634520492331,  3.828238760401614
 6.877245310883579,  9.259968247682554, 10.858953540977765,  4.182213553593676
10.689901704707916,  1.870234630146406, 23.756809375862144,  3.845996738938723
 9.425284783240357,  9.087202356992011, 67.774081544181769,  4.046262444656620
 4.599693405496036,  5.606396818478967, 57.373274439877285,  3.942391289197541
 6.627014413805383,  2.435540440688109, 36.888882254368298,  4.279436607750847
 2.138681745649712,  2.193606710370986, 71.296574715650650,  3.881468749924966
 0.834733182456397,  9.826389881753601, 43.021474534216765,  3.918094808584826
10.280952582530098,  7.583358634062752, 53.140495155006100,  4.002119989981868
 2.667466340678201, 11.816436688221797, 17.259720027317730,  4.099936139883703
 3.194451019431838,  9.891784959556038, 52.131541907116464,  4.267610413204751
 3.863807818341956,  2.221429634035819, 60.859093474731473,  4.045767821803270
 3.350013142548956,  1.532583479101032, 55.737224734055260,  4.383970496888530
 4.765591451274624,  2.008126550436385, 27.300579651643549,  3.540757836118105
 1.196375127955734,  5.818553753272283, 13.685117925807722,  3.939904421692850
 8.565645411804079,  7.047313364859033,  0.823189292083372,  4.188324622841388
 2.847433564272614, 10.650318561348032,  8.530378673589009,  3.893592105942510
 9.171470261369944,  6.912519080940362, 71.129188695584745,  3.953836701765066
 7.054775620195027,  8.120278194385856, 58.897193323432603,  3.715514581478479
 3.012485108713399,  8.771406260240967, 11.908394054877046,  3.843812398288757
 1.522653803319622,  1.854052491084616, 67.525152363908873,  3.737567319007862
 5.026212553123986,  6.807263243796122, 50.202642409571169,  3.814457164660726
 4.332470479734598,  6.634601337936576, 65.191450591416910,  4.278891768555297
11.131615768631164,  0.926589194322440, 40.724849963062915,  4.268968691330418
 2.089840834763049,  6.572954440274994, 54.404259068711340,  4.067154936971977
11.075308941166119,  7.843974811155712, 39.716650845438224,  4.402150610776560
11.263609513539439,  3.849682317634263, 46.969796826370803,  4.019317764351150
 8.728886005474049,  0.982336507019638,  9.610500464755507,  3.700906806229783
 9.654799269930731,  7.171161216665854, 12.986782861306372,  3.559072471683833
 8.166974546782910,  7.074492937242206, 27.377797292627548,  4.078590721355281
 3.259363609561861,  5.259071489777941, 10.484687117553371,  3.738989769954968
 5.674330286971765,  6.251130952401055, 13.287185919320768,  3.906487323185041
 1.353585732821274,  1.234120001554995, 50.287146241216988,  4.030367369481192
 1.856899085875210,  7.909216876049070, 58.800431865426695,  3.766352673600912
 6.450388511559138, 11.016643334764925,  7.333096736280506,  3.734509968779776
 4.682089786015680,  9.556728766666696, 43.695773815496395,  3.893951475215593
 1.087406056415462, 10.791797181212793, 25.564333526403718,  3.877152054377019
 6.356422905544949,  6.859762427598542, 53.953465709371109,  4.142121130353601
 8.932793671726511, 11.804469116965162, 13.358691306671822,  4.048720771846659
 5.028043018000598,  9.575740373786141, 19.789938048926793,  4.084426379029669
 8.645786469381168,  7.869525339313079, 31.528637548294707,  4.410776846356057
 2.485956064787581, 11.143005562189062,  1.551637120842308,  4.159155273010292
 4.953512537292410,  5.493559579559051, 21.127427306452194,  4.474581115580345
 8.149102532784397, 11.655843942676498, 33.338220905572818,  4.033050896458979
 0.272471242560676,  2.207418320427238, 27.203467193522020,  3.681530726787380
11.809868960650737,  5.076166934517278, 35.881777906419664,  4.011025098620430
 6.802799251760236, 11.574864211914695, 29.546917563974649,  4.006440679921195
 0.741940483118767,  8.013156949427415, 19.263444035771638,  3.917887114929490
 6.180095083089575,  7.152486971579022, 46.392098984597339,  3.926322670433769
 7.557778465350989,  8.152149214523961, 62.610659442274425,  3.777551778046966
 1.034350569621064,  5.437700582309573, 66.945433690545272,  3.564920538320694
 8.561192726507979,  3.776249072482063, 13.842184653691731,  3.770676329492083
 5.047565592860484,  0.534711957271740, 69.236680310816908,  3.972212881431919
 3.832752741841122,  3.703607818207689, 52.210124737052809,  3.953592335025760
 3.272912340162927,  0.879106402518597, 41.792959898492740,  4.076999601784997
 4.893865770658397,  9.701619264327171, 39.782497590741194,  3.940827434267078
 7.337200011769896,  0.707967217294496, 62.101400906907017,  3.926796584780956
 7.503837746527102,  4.398647743373150, 63.528157520814901,  3.947565480149772
10.935517187393721,  5.297238236955896,  3.750551224943352,  4.111149127457860
 4.942243779061156,  4.396241294846378, 43.660227814651819,  4.176373230053160
 8.951374371546770,  5.581617027575040, 42.967911285782627,  4.291553874407936
 8.726175824503345, 11.127856485719040, 21.625803927758543,  3.565525545030142
 8.098227737254005, 10.749749593605518, 71.198305120761475,  4.013627117699531
