BANDS
8 8
NANOPARTICLES
cell(1), 11.900
cell(2), 11.900
cell(3), 74.372
 7.311906644863742,  6.557744552639883, 59.599496263383379,  3.809060290020216
 5.702610095729979,  7.768301040738659, 34.511565385486421,  4.098790675990823
 3.302749645502170,  8.404965569144284, 21.938860896247345,  3.902890635394313
 5.029210286211156, 10.388207150337049, 53.071758661223399,  3.925866905332667
 0.875297834446615,  7.069364975986856, 35.158940506625711,  4.094908340943214
 8.626092529193942,  1.818273605544527,  0.997762894687868,  4.060461813969701
 8.592297486303792,  9.050360870339190, 25.639902370856365,  3.956183332979993
 9.408358610430591,  8.549217146657442, 32.938891600719025,  4.100499256965980
 7.642005276267436,  3.962458603395568, 22.009992648186703,  4.165317208424862
 3.135868628494610,  5.483271001265042, 32.059959860452871,  4.206483334877536
 7.559371890428194,  6.720596938077678, 29.332959939462416,  4.078892106820271
 1.472989843464787, 10.449529737097537, 40.535345475235218,  3.797614777978549
 7.157763251391133,  9.855618616170927, 49.514587583710927,  3.779349730435215
 9.751022977258943,  0.375167406241229, 50.767162921100308,  3.697002286547450
 0.369808427525735, 10.346933711914792, 23.844895854087085,  4.098415564938034
 3.477500417480013,  4.161946884098234, 21.888907664353319,  4.159129702456162
 9.464446838883518,  5.295118541084634, 53.164141436057250,  4.103604396468808
 3.351954930133903,  2.856271523956485, 52.803293443904053,  4.265560997721055
 0.287113143362773,  9.719696152120605, 10.071913569180554,  4.098285324336700
 3.827165801803853,  5.205244655000657, 11.181202343432894,  4.039822180857785
11.421400414524941,  9.823513667064081, 65.567288942875095,  3.751887108481188
10.115188721934645,  1.206460339125833,  9.987389125655305,  3.839330430385421
 5.348149617483295,  9.737608563665482, 30.950527765079567,  4.065059808192932
10.912990195184333,  5.954941988031186, 66.045758958138720,  4.099489009056049
 5.109802883747248, 11.608050109271476, 68.520000448796637,  3.930230647021681
 3.720669666833902,  9.082206051155037,  4.199839413818127,  4.279361458955704
 3.156916956541542,  5.912264055962920, 65.840893252968954,  4.098608831891217
 0.928617406355714,  3.428408623117437, 43.875104978469572,  3.792731169969452
 6.340152771532956,  2.736498875676434, 59.386541639827790,  4.049536435215055
 9.855762541714515,  1.000117363323826, 26.031825020308737,  4.174725057047412
 6.611578697143075,  0.719201816594930, 72.035378579673406,  3.972331243502873
 5.997817366102677,  9.073535893902505, 56.792178742936343,  4.157941947511492
10.071587025015956,  0.357083678067546, 39.464439526872468,  4.017448807889414
 8.233016893985488, 10.396470814662191, 36.380814446033419,  4.053350608159536
 1.177740196223332,  3.125217890886190, 14.322834131656371,  3.914338544225679
11.193289841412495,  0.902019021180192, 17.305956356323378,  4.222341075651807
 9.143743427476071,  8.473606966676073, 45.305094027649439,  4.121661572110434
 6.441231810254184,  6.581816529086047, 47.595206254013206,  3.906756608457588
 2.508449070370603,  3.202173783986166, 59.775913593197430,  3.694638343036300
 1.482368828112124,  8.958930868409496, 44.952895008019844,  3.836513141769277
 3.936659680157137, 11.194818914747474,  7.778628882109210,  3.957364867125493
 8.046265358524558, 10.243111326554402,  7.956233537476682,  4.287534508892750
11.802048403892529, 10.015065898496777,  5.902886354539226,  4.285341784631765
 2.912937979801776, 10.715724836374562, 17.010367719924929,  4.067624233066956
 2.156925626832686,  1.464484782539283, 10.740286170655326,  4.200904422281470
 8.200192277509323,  5.317775353743334, 69.141968735442717,  4.230229887935509
 3.293998297189318,  0.432537130765123, 33.097567660272659,  3.790622972474213
 0.971202951610349, 11.076345188363222, 28.074973883602912,  3.920983298620964
 7.308252704509937,  4.449805439532804,  3.880859801835077,  4.172881432237423
 2.688137516590525,  1.615900599349678, 25.282641856301627,  4.236848777924008
 0.590444934621151,  3.356850237128298,  1.636107190168870,  4.333957706782685
 1.179241060865813, 10.922790664125225, 68.895824458046263,  3.993884633782116
11.296906410728415,  6.713270887578610, 42.287746026620489,  4.083990362382759
 3.421061276285348,  6.817353226375072, 58.954202557900182,  3.939910416081692
 0.773759535947211,  0.927852690970959, 57.425658631543840,  3.683122641076391
11.501374520580354,  9.783319470444940, 59.464947058015433,  4.010297386730186
10.730237758212402,  8.161152272753078, 38.576907004504100,  3.957558547025808
 3.097163596835436,  2.216812201070499, 29.733625197612071,  3.812515868841555
 8.633809218810532,  0.721264454918816, 46.889675884766014,  4.396735917451832
 6.284424707479629,  7.377476438565179, 15.000124357609634,  4.330932061276411
 1.647129009348230,  7.832723481800657, 62.471251949231792,  4.194219089617125
10.277957254865067,  7.051530473593253, 22.672404054782767,  3.948600422766656
 4.055544954879993,  3.427951548399450, 41.418211804387262,  4.151249327922222
 5.642769078841284,  1.341333780081050, 35.816027218775027,  3.619506424499401
 4.621409658674203,  8.843067773840778, 42.173018843919380,  3.818374247162334
 4.656928741416745,  5.098108711694489, 62.243237895169074,  3.862071930480357
 5.137135824797471,  6.618203559099156,  1.247112131393984,  3.911065053057543
 6.929759645906032,  4.276382141942982, 32.926584706035214,  3.940459327017212
 0.926602742447678,  3.895592990123453, 63.177840015196615,  3.929169719050068
 4.897196209162577,  3.301115597853922, 69.732328382140352,  3.546926795690483
 7.622422675376463,  8.225763984507461, 72.008059955054037,  4.009759142019996
 2.761733485812385,  5.043579980894303, 72.894706382548421,  3.969935543741594
 7.104637776107968,  8.999717217425610, 21.547136145393146,  3.831082415768769
 8.508596114811946,  4.424260573486760, 45.321232601160297,  3.598431766082875
 8.077048377804486,  4.819172227605092, 11.117876480216202,  4.489229152929539
 7.770370616882530,  8.451535910564225,  4.254839366428888,  3.911404209866260
11.529524094519802,  3.294074481065919, 23.082280952576298,  4.008092527270970
 9.208810617293929,  9.145867236287678, 68.564307492351929,  3.764313088248949
 9.376322675897130,  8.210836770724036, 62.584398847855709,  4.164617548595468
 1.405607628487406, 11.041595980011113, 51.713370276191021,  3.918848375967378
10.959726498206820, 11.736678499568049, 43.414807154357753,  4.140722172122205
 5.818340173322802,  6.676948240909222, 24.302132896979380,  3.813293290741313
 3.530392891805711, 10.767804759318118, 59.669046861699407,  4.091100545969375
 5.416232078384449,  0.133540958348624, 19.839636385999896,  3.900283980096333
 1.187051890576287,  1.559678380591054, 47.335550192937241,  4.029592501825389
 7.030936782247716,  6.800700424691484, 65.545340944518131,  3.870268431223701
10.363627413806235,  6.755337848949337,  8.352339491235599,  3.640993592955049
 1.192841995646670,  7.493184645791947,  1.288366792450312,  4.045149664183879
 6.605238161642652,  4.534646913578231, 72.735004775876519,  3.783418367348725
10.014140554272611,  8.983383025897812, 15.938759066656198,  3.961177059573727
11.411114142477146,  1.825989702792228, 53.912690768510210,  3.985326489319607
 2.478650238016344,  7.072133659826565,  7.730778052049684,  4.214105487227262
 6.420484156948311,  7.421529375718511, 38.610247482998943,  4.215360172965787
 5.718538046472112, 11.425337457737701, 39.403352619778659,  4.057455528691208
 9.007623201944060,  5.843857823049585, 35.882938813223085,  3.934641826208658
11.075586598740401,  6.076757171440757,  4.574542523849989,  4.149045954597027
 4.455104641101580,  0.926845102339160, 56.300037596863270,  4.015493572019770
11.808198070884496,  7.816254280636413, 71.473849277215422,  4.465964654055552
 8.533937328955492,  4.098230928603018, 62.895504343172711,  4.239896262739940
 7.287187578873102,  3.302531084832955, 38.774588635377420,  4.202905166014692
 8.382973728768217,  2.707695480562870, 29.510384115655398,  4.114801575695822
 5.362283494812635,  4.096823748104288, 27.183097237169932,  3.974247787108463
 2.519650536932024,  1.768786732479663, 66.224620250483540,  4.120142254891664
10.939277861923397, 11.719600368177309, 72.782713856229009,  3.947450463518800
11.158767034745475,  5.588843042219380, 59.921085963868677,  4.102247624530512
 9.462714543697354,  7.018463405590635, 49.750299544612773,  3.541906658206760
 2.201467379923766, 11.415922323594190,  1.077825677092754,  4.063605651336348
 0.588486261749177, 11.179641959656369, 13.795231919779658,  3.920906728746687
10.404369346662234, 10.324442208156119,  2.068134832078519,  3.888822366106947
 3.318247126283094,  4.999619134193511,  4.323067398204615,  3.925087987492650
 2.619852900350697,  1.227959211845883, 71.859621851152426,  3.934663706647519
 1.485917438179502,  6.923226223181259, 52.578100122853499,  4.459302711478366
 9.622069504503902,  2.075083674090444, 35.832710414279703,  3.695849483425749
 4.910725268427790,  2.394749842630899, 46.120108375814404,  3.909554644640126
 5.389063592974714, 10.062246583364193, 45.870320467806266,  4.109925904832419
 3.883896009799369,  5.899935856662748, 44.637128359930756,  3.966324827342568
 2.393704949914130,  1.337755525163301, 37.900808235933617,  4.087629614011760
 2.991313906639834,  0.270475908234264, 43.560077151669510,  3.770767302200442
 4.376885139188942,  0.653582130430168, 49.579330205745826,  3.775304976104938
 6.819243804415004, 11.313832454280359, 16.232660822944958,  3.968218446024327
 4.116795815629137,  4.708773115967240, 36.581803468791634,  3.928094601452653
 7.350845005413332,  1.767430239635838, 53.544595421883301,  4.153736002158479
 3.273503892454485,  9.534947611123156, 37.020279283286357,  3.722707846220523
 7.009749510717979,  5.941208867770735, 42.339139546866512,  3.692036901329187
 4.271293440876754, 11.692835537542601, 13.510340702362045,  3.525771139702538
 8.369043108592431,  9.385827018633403, 41.521835855231558,  3.813493557316560
 0.401960728276278,  3.469222625639304,  7.551733413029810,  4.107111873773414
 7.849623577776776,  0.402567656038399, 32.829167772851740,  4.024909061453410
 8.572379870370625,  9.612595035027955, 12.148308005381761,  4.235784580342393
 1.534358559938767,  6.717759556478955, 16.243696712834364,  4.255412256175196
 9.177321651202400,  1.443557088756212, 13.771142799009588,  3.965724355554383
11.376485634733040,  7.402555607853106, 28.210724736382275,  3.976872383561733
 9.055995617405124,  5.053690688495489, 25.922243094675306,  4.055138865799023
 7.746889960302645,  3.582504706542180, 49.879567170588693,  4.061792451296561
11.376826120144420,  4.137028096492700, 38.668947203849449,  4.131990908998513
 0.095992978628520,  8.991785796417606, 19.516592160487320,  4.217501085243776
 6.349627199565306,  0.463945718606601,  4.701358962430946,  4.187732180726382
 6.827730356178453,  0.727946242084134, 43.083906985361160,  3.990958901872462
 1.601458865546674,  0.723886923708027, 20.721577629605978,  4.005573760122377
 1.648998029687342,  6.299614436279197, 24.945499068224020,  4.132093089252461
10.211360817815013,  1.673313804368200,  4.646102125416885,  3.899802517974579
 3.345617908564158,  2.848182928157999, 17.709830021837270,  4.147377924525038
 9.242530978073948, 11.489532822150075, 56.398906009113894,  3.961975583804772
 4.886031279971824,  1.105416940372579, 62.877395496854831,  4.183267430959793
 7.479825021537400,  3.028871372945818, 17.967089174347237,  4.133470222327374
 3.001227445837887,  8.420930529708743, 13.047486606874561,  3.554406525189373
 0.210676645410759, 11.084750615114352, 35.172398052598744,  4.043864767388746
 1.230946184267093,  4.396162591557452, 69.175148763969588,  4.177698451884233
 1.378784586282767,  4.619491914632095, 56.223151906562826,  4.166674075438324
 4.291814866180225,  3.149025334556981,  7.856168621314697,  3.720801102397180
 9.528524950257610,  1.192492704101148, 69.191093651514990,  4.230296416022290
 5.615161491873651,  3.274177893733662, 14.288500700167008,  4.096831084346246
 8.878117729052830,  9.302372630879967, 53.046675823371949,  3.990451317895045
 1.344003979535828,  9.215768848373163, 31.619929585017267,  4.119008017615619
 9.771737102516632,  5.065798305909851, 15.302314251957958,  3.988458993226131
 6.188771638712786, 10.462721072472693,  1.039972613652797,  4.068353356928637
 9.503317152212935,  0.200339932217566, 21.031562167210605,  4.068658059305911
 5.750010594919447,  0.205132758320882, 27.752072602458739,  3.927026342670895
 8.702265680179890,  6.731695986003986, 18.872153102124866,  3.872447942246360
 9.207857295485409,  6.519962574129717,  0.896492050615530,  3.995254785644647
 3.776825839435056,  9.335721921186064, 72.350372248118049,  4.023160559080769
 5.735620203402462,  6.567711434063996, 51.889552392338402,  4.177400632312898
 9.413123822568368,  3.527627900807248, 56.912271351771196,  3.982876615025920
10.984926363223884,  5.108015054588971, 31.498343971784610,  3.995216839992059
 7.921832750766435,  2.796507770323950,  7.413303884702542,  3.625900920297477
 2.343056930832122,  1.207426850584276,  4.708070636019354,  3.941815948637573
 1.123598002491187,  3.155401289550105, 34.629519019053497,  3.810353785629740
 0.291695404428596,  3.671771482558920, 27.730119903344637,  3.670619251279353
 3.420147178231479,  8.675266269660501, 49.187348964140327,  4.087042907588413
 9.096881195221000, 10.552263266098890, 29.364336816560289,  4.116709524031964
 3.287090708871989,  4.598948285927687, 49.017691022744550,  4.061315095511151
 4.771515333073838,  6.512564548371373, 18.795947544905577,  3.999254245293289
 1.909824203098617,  9.320494352457482, 56.120314610766890,  4.128525760812495
 7.546068240137945, 10.834662467481079, 65.327491387047772,  4.248772197564816
10.474129764436158,  3.818762660559060, 72.313893635984186,  4.126496938324808
 0.961580402699303, 11.871774469297412, 62.602698356126950,  4.001207105362756
 9.824611260515891,  7.519075305168336, 56.571788316757051,  4.066249229415211
 0.045453621263504,  6.239077713630261, 12.152264840560816,  4.006704949135354
 5.621543002073290,  4.931018599549027, 55.842654512174306,  4.370833872928521
11.641433370154378,  3.588336291141372, 50.352798057972500,  3.778363227915166
 9.554891443687058,  3.236204151764006, 42.022965645463628,  3.706449202727078
 2.468485271936216,  6.758801362932117, 39.621915653304924,  4.048146919138823
10.345268274511323,  1.731062668526397, 60.223310964220630,  3.765423444937811
 6.233209119970400,  1.034127814749465, 10.540256093315747,  4.005681947803162
 6.407338140764034,  0.371000515525625, 23.754036225935042,  4.181226925181575
11.813779094356349,  5.754784016186372, 46.953410423431379,  4.177227411417213
 5.257871177716363,  8.650796273294363, 10.265772593082771,  3.622338587905150
 6.546549821286912,  6.383899286707011,  7.439640630737917,  4.057087915186575
 6.470686355772485,  2.852383381510188, 66.282969947437309,  4.074217872324211
 3.423435590047114,  7.308525648443725, 28.427613122785203,  3.925603062275801
 5.478824754206037,  8.864168138853756, 62.502457810440262,  3.740642443494270
10.562243651500594,  1.607853197445322, 65.324268100263993,  3.805586142810102
11.635554403221901,  1.102767951616568, 31.512893706898506,  4.110344398399203
11.849528008398455,  4.432042219685852, 19.271495729415854,  3.962692606694016
 4.977852658077438,  7.745524300835426, 68.933670889380480,  3.835826394830013
 3.392858863300157,  9.854517082980450, 65.501188538215104,  3.824837348094847
 7.632818102449725, 10.889431314917065, 60.035243093039021,  3.951988858097823
 3.908155113093441,  9.692968815442308, 25.453854149789322,  3.676201932194439
11.529236243805926,  9.861398467541070, 48.316535999374217,  4.044138729929970
 4.694576909876027,  2.683401937695812,  1.253572068888263,  4.004983549685814
