BANDS
8 8
NANOPARTICLES
cell(1), 11.941
cell(2), 11.941
cell(3), 74.630
 1.948330787425769, 10.480093394526678,  6.023347723928069,  3.887517849202561
 1.247035468738022,  4.876774036300427, 24.875786049838759,  3.720840120718432
 5.254907490516009, 11.346705258032440, 58.567195640196850,  3.630031805019550
 5.209829925773210,  1.116153849910724, 48.515837568724855,  4.152516686247768
11.791270264669294,  3.632406844518970, 67.013211639552182,  4.183106443804370
 0.374141083029676,  1.371219334374412, 70.967785453651061,  3.980281138363938
 8.167006733586652,  5.404037422305197, 67.702101684271994,  3.825225802103120
 1.922820114856635,  0.706375780382291, 60.737261842678208,  4.194377081229190
 6.087409491354463,  9.363326300303411, 36.403742246609546,  3.728123997650108
 1.604350919047277,  2.920605517431887, 48.367759646534644,  3.905281719145644
 8.950501333959268,  6.125179181835825, 57.092383733835668,  3.958843792530428
 3.856042460480181, 10.328687446858348,  2.642534466789660,  3.798539814043907
 1.230951277206732,  1.577941152770278, 39.129331020607367,  3.844487873674105
 6.612059977488067,  4.952493658608263, 14.708564217855665,  4.087445504783591
 2.898197795863703,  6.597280403641783, 14.215331301993022,  3.507805008467934
 1.056086487840822, 11.815357669932032, 19.612029307412655,  4.285715419753527
 0.244815467742067,  8.588519555113420, 55.262784646908770,  3.916665233719642
 2.506031786405742,  6.529823284329796, 10.017547530166446,  4.184130130378976
10.964656108723965,  4.787839328869275, 45.959156314307350,  4.080956902251016
 4.754961164915761,  9.091005785790443, 31.621952261284253,  4.032293994292828
11.387928259604939,  0.612221533884031, 14.750469375453827,  4.176706033654755
10.448895054819859,  9.120190856366488, 27.059321347815054,  3.943427841927206
 2.036119379892118,  8.914112088896749, 58.591398544139331,  3.669528211285192
 8.822029284167940,  1.576365934114385,  2.385220431810631,  3.968970077101413
10.310874980112265,  6.633891132872002, 12.271329180255639,  3.922111406303368
 7.631079295228365,  7.940818511889783, 39.939549307176826,  4.239446083267644
11.935105247059253, 10.103522901407750, 63.626296103536163,  4.411220201268172
 9.563150089048458,  0.851364529636880, 41.536391666302855,  4.197783626675788
 5.675883502717871,  8.563115669443590, 74.308201338803727,  3.994255456175711
 3.200733670647351, 10.809083588848003, 45.736567773970449,  4.041195399353801
 7.724883887200690,  9.216984601433778, 63.418529752985393,  4.203529728498984
 4.185364130137657,  6.601700668866988, 17.908381495465690,  4.248493643090525
 2.950530353392236,  3.096631374179731, 52.047356313604084,  3.935031328457743
 4.218632492825911,  6.565827443589306, 34.533610272118857,  3.743706502128479
 8.804263023296828,  1.831214185791783, 69.141964199933682,  3.982244944959374
 2.815194191413680,  7.282803215772754, 52.688157777562921,  3.813298473693928
 1.620187577612096,  7.242856567458331, 41.558511042056480,  4.441652195991116
 8.273118916450652,  5.627651548820690, 61.362304246558217,  4.128921360232933
 1.542688836890893, 10.841889809580646, 74.031221766407029,  4.228879158558913
 4.115188511387033,  5.482565206264321, 38.683214606786130,  3.933989881502610
 7.184937728608994, 10.993493004368183, 71.503545443108010,  3.992424988340444
 7.538511610202864,  1.601801752348237,  8.850270901716467,  3.728324449079312
 8.839584042201791, 10.493208263269668, 12.021812629004222,  4.344664081549795
 1.305245159691188, 11.325220155467662, 42.303031887712990,  3.869228344183723
 7.174319596547675,  9.789488247711551,  8.329244900932345,  3.874376670816037
 7.544391452330686,  9.616034508276208,  2.903414504761959,  3.731841562841923
 9.847125962619435,  2.360464930112397, 55.356971365887979,  4.042363700398489
 0.268119957007534,  5.950835252405874, 50.254718791544917,  3.717531270850687
 4.132681892044318,  4.934918533175416, 31.046602006445976,  3.956044201538393
 6.651234913162030,  7.603127999787636, 45.754017753164653,  4.042813306802418
 5.074348300319559, 11.056402439991654, 18.508164771318086,  4.183323553545907
 1.296821069460956,  6.566008634080687,  5.860181621384751,  4.054692577527838
 7.154416376457220,  3.717090712027354, 46.186256107690099,  3.840746754136668
 6.876627622816288,  3.771513125101290, 51.777023395955510,  4.048991383752256
 5.467790309642253, 11.802249378041441, 67.528212741791336,  4.412016237894023
 1.546587454662113,  7.713717383368960, 36.896311980725599,  3.748538025373437
 6.860616598122227,  3.991143290267038, 28.160397735715531,  4.099573762427643
11.370391982366007,  3.337586922132599, 62.876145070652647,  4.136051275373628
 6.759091073201624,  3.011793223518493, 58.520687686629991,  4.164741593344005
11.035325095580143, 10.543735371802239, 22.970163945979778,  3.882521712408046
 8.164793916408534,  3.347753165557116,  5.673776761271494,  3.616277937904854
 9.949530215795782, 11.246858871378761,  5.541419699040625,  4.117509550840215
 2.638835794169600,  1.511097059251770, 64.764002920682501,  4.140465250357075
 9.432246096373039,  4.942912936119644,  8.843286107854890,  3.919300242248482
 4.734147668620147,  1.660951652912764, 37.612473405656623,  3.785964336518370
11.491480964089851,  3.094780683843221, 27.745036170998485,  3.836548106263124
 4.140762562914472, 11.051689415951943, 27.272035732651272,  3.985901263313423
 2.387393808376990,  5.987015487701448, 64.294010026158304,  4.295564083161181
 2.329670496458604,  6.963375360090224, 72.486751690329299,  4.260348742072646
11.067668340621895,  2.599143767348749, 51.615816895762073,  3.821564486303868
 8.905967250023256,  0.898565795362610, 65.170363007727090,  4.173124428402990
 0.825300308039456,  0.912651454927506,  2.991373840934171,  4.117956534088419
 5.420837624866900,  2.028854278076136, 24.771669734994671,  4.104046975159309
10.759436264565975,  5.196550861858453, 70.812224999121270,  4.283030540239370
11.112148934583958,  8.815009716873726,  8.760400737052292,  4.279472821196109
 3.570206451119710,  3.277460456059347,  4.660886336284819,  3.859591814249072
11.664637041143401,  0.826895530471353, 45.589624272449647,  3.937195584316661
 1.472585907271192,  3.544835329469873, 17.819328948601139,  3.925852835152552
 0.178397966679110,  7.187631752023222, 18.788639111715739,  4.039138848511813
 4.202406740449874, 11.208422965721494, 52.077332925738254,  4.121760473370131
 3.436578654567008,  8.600378960499304, 49.075436198659233,  3.977142357603527
 3.648318299731615,  2.700528051758950, 45.133281597857064,  3.757057997179324
 0.097071205331348,  6.881968616890718, 61.063825853460763,  3.814407748456887
 5.142250338095191,  7.884677901820528,  5.471371791574844,  4.106527400348055
 7.463463174187854,  6.285453504145797, 32.575339410710448,  3.852851767828141
 8.566259740236942,  6.108347284666133, 48.966907386693912,  4.001903483420775
 3.142647817205196,  6.401645574290839,  2.127056295459568,  4.229246088135116
 9.602251635572765,  6.800910660948870, 74.444196324762828,  3.980380449220567
 9.846775684741853,  5.710046372421300, 53.377516036655635,  3.727262872405665
10.542862818817438,  4.466840235927963, 15.435433279543442,  3.760110789411917
 3.416847636727270,  4.596421865270047, 60.437670890408754,  4.155755562902828
 5.842850559276981,  3.069442056064237, 34.156183044305934,  3.999926896273250
 1.791619592915982,  7.684734198853388, 29.072358544864599,  4.275472724720201
 9.425702509020590,  5.640166676430233, 25.572405042163123,  3.891274123218106
 1.871673095308622,  8.639661152923731, 25.089434275509756,  3.911232408407438
 9.664143582098269,  9.747807834494024, 30.707186500018842,  3.621240488869427
 1.150473855592205,  3.681159670991189, 12.619456230682800,  3.991956745901579
 6.324616333925048,  8.131088566687875, 21.058551756419718,  3.939356365952531
 3.707653985295105,  2.798259373574913, 21.105097552794163,  4.101549831651451
 8.386809686737434,  0.290286972501784, 37.627454932217077,  4.016151239301955
 2.000661367524836,  9.664516963677574, 16.216861992258217,  3.971068231455322
 0.354159619833951, 11.585192252588651, 67.459886799327521,  3.838727167517440
 0.747832619514559,  0.059074585743036, 53.788002452516643,  3.562094340283166
 9.499773010602306,  0.929717722594936, 60.464161767805869,  3.637021147283257
 7.344928865164021,  3.561136239787562, 39.603794090740770,  3.801424916332867
 4.322903044228355,  1.760003125606794, 71.058162987482248,  3.923563246180187
 0.582233909532147,  5.910271534754911, 32.666205344559238,  4.080581779265594
 0.840123723954610,  7.604020887165714, 67.882972215979791,  4.162853647346786
 5.796978763408388,  2.893135769898783, 17.859520376347596,  3.613716257650312
 5.854457167121972,  9.066209788302332, 14.855959751363555,  4.277831737034285
 9.532505025673045, 10.653732844953529, 74.547204421163769,  3.721622797132331
 9.362660663523128,  9.977931917127639, 19.429907854540783,  3.866920526962003
 3.888588390184434, 10.927966740892812, 22.535040036602027,  4.044680781131933
11.445314115928760,  8.877058621028661, 47.344774611997245,  4.607426203547254
 6.455195779868154,  7.088037174720077, 11.201177986692880,  4.119772013071272
 5.913437155065330,  0.923507303668660, 62.168193340579201,  4.294990739106729
 0.989419707908726,  9.832941865913243, 32.519940294312882,  3.812257544510522
 8.306248155706667,  9.972685084090083, 55.636197028811338,  4.350299616871860
 7.623380682275148,  9.896471408447931, 48.790822316665526,  3.812528832338387
 1.180553229722127,  4.764645167806251, 55.156952359441533,  3.959475507689098
 7.319315730687440,  5.809724378922412, 36.541102967386195,  3.794337150180840
 2.103450884016040,  3.105720527660546, 74.285416342119802,  4.264352388409154
 4.638955750038542, 11.080143218844530, 11.268166272279922,  4.266999859995375
 9.945716781121066,  3.508586848370112, 34.926235974591371,  3.896500803277622
 7.977631375897575,  0.118790775447194, 27.988611492535359,  3.956501668879075
11.574470558144711,  3.413505388101945, 21.567628984410945,  4.187110415525216
 3.823057430244035,  9.201355945810910, 62.019899515225724,  4.082426121097398
 5.577122756998516,  4.795907544080395,  8.010248180243758,  3.931786888048334
 7.101499269348868,  4.512148727003116, 22.194270389018225,  3.801482699869399
 9.531578474683872,  1.881202625334730, 18.263503018626984,  4.164293797821664
 6.734911230500870,  8.093865594292515, 28.212297746698788,  4.100440761288218
 1.450162956775133,  1.017844889441000, 25.014123033562988,  4.005472885948711
11.726303621503915,  8.860518905545426,  2.659701919936445,  4.157994746000474
 7.352096664046085,  0.702869281997458, 21.486206037812181,  3.958959088035412
 4.951616050825425,  6.082105102159095, 25.120344538991780,  4.085766725028942
 6.154064063823002,  4.296616234745366, 64.550545474317587,  3.974818649651261
 2.770074949706476,  1.668567789356842, 56.927850122034791,  3.843794422683424
 9.184040852482608,  1.434234614152182, 48.504098285538895,  3.812927116743595
11.280933392667405,  4.721212837396898,  2.817321598976924,  4.058630468309913
 7.079992915125305,  5.183630833875488,  2.486912753390474,  4.044084435649058
10.605432834979839,  9.048843673112039, 51.736553598677311,  3.861919544936850
 9.963118891208763,  6.148121817772051, 29.594879457079514,  3.928991867157638
 7.349639060300769,  9.951608279912529, 24.551925807763567,  4.200063125314239
 4.933015092901655,  3.213728465711922, 11.536625603954045,  3.885927833946028
 0.743420665833039,  3.261192188935402, 42.633629805641846,  3.987805212220392
 1.419099425883488,  1.975781518604294, 32.237907375013087,  4.003991771471498
 9.064972298649899,  2.851911909117772, 12.208845663934818,  4.034102403298560
 4.753083769563365,  5.008672208435858, 48.784451879544562,  3.690874142567364
 1.879990073819892,  3.721125314634977, 35.857079892780362,  4.080523047393371
 6.043658961572344,  1.384211189114405, 54.917733249403945,  3.858702382716552
 0.966236728233493,  9.598646873708548, 12.386391836802249,  3.961523542793129
 9.952263304028754,  8.709914665201584, 15.691265157920137,  4.109845748744831
 0.710414258879592, 11.618791472863014, 29.112728600212009,  3.880813914890885
 5.320869834861804,  7.879352403492159, 66.324935645019949,  3.780435232105783
 2.730778793032565,  6.496601879335922, 45.623159042387805,  4.107424075714226
 7.259251230631505, 11.712312668272677, 45.003883368537345,  4.399134943706544
11.847366086878015,  0.788766606366053, 10.077332535373412,  4.099441612094865
 5.819750320303944,  4.672066998270171, 73.315500049142813,  4.029968017771738
 5.583862319794050,  0.858109577585800,  0.113609939289530,  4.069431232797180
 9.004016911752469,  2.243294127667220, 73.103707809713896,  3.974222282666965
10.317262996273065,  6.575757706223062, 64.830495458579932,  3.714986534187396
11.025279391021018,  5.063562741701496, 38.709770440013486,  4.342197468529229
 3.486855469595482, 10.223876472803688, 39.170169680997382,  4.058000307892057
 9.318733699096565,  5.207680922860889, 42.403582063288525,  3.795425764393700
 9.462819599387645,  1.779940410792287, 24.672708719324419,  3.981534397620672
 2.715218693400017, 10.276409149862232, 70.191756906624192,  3.830614804318445
 9.354235316098043,  2.402259742842603, 31.078728807067677,  4.197069042164470
10.025316475692826,  8.367129678208546, 34.960608342873734,  4.287738476686953
 4.924045965608484,  1.189328260894653, 41.700657380612512,  4.165596832871619
 0.880107873370070, 11.601459194960144, 50.117220780680846,  3.632866310839967
 3.779129046875516, 11.674195848945310, 34.448929571247781,  3.860851874463485
 7.448266652807643,  0.794169579533683, 15.087465644187745,  3.732688470912219
 9.231166729416849,  9.170548132029284, 59.618545337093977,  3.971605524632211
 6.752825597105036,  7.907962172297401, 52.194307872902414,  4.221216576636941
 5.136124874848295,  1.066374784787060, 30.663657614287942,  4.066083690400416
 3.375675573168074,  1.516027495221545,  8.151806331084510,  3.966618376729422
 3.540840859533350,  1.414185297853831, 15.034781428395581,  4.177686403068156
 8.110810313217055,  0.031792252477955, 51.966310617147357,  3.836189407469501
 2.743539707055531,  6.647527733871010, 21.806932622465673,  3.955785961074604
 5.673673352725819,  7.572747639070147, 58.827901368818530,  3.977150828324559
11.543052428605259, 11.581020800710519, 57.623823252923970,  3.805585689201175
10.892211227303259,  9.388555173489666, 71.100772022583968,  4.108331533702797
 5.006473674260402,  9.275496756505706, 42.642591147444463,  3.745562344658631
 5.324756674822132,  5.280952845496760, 42.608921669455768,  4.199773942434109
 5.276971801541639,  5.383522738771848, 55.322639600727165,  4.323438053282222
11.214886596327677,  9.855258131974560, 39.195505563948515,  4.006638184406686
 9.190318841415015,  7.088779607937139,  5.433191575133997,  4.139879988858938
 4.261944427060405,  9.328089619925370, 55.586113869526400,  3.838143816780095
 3.885174006085310,  4.435189984589297, 67.989800509415417,  4.261765058103145
 9.941775471425753,  7.005544927740329, 22.035278594352569,  3.756213854484086
11.874049897203561,  2.794621422274865,  6.516594140369660,  4.070261439453015
10.032315325214089,  9.015710634390770, 43.217679979230596,  4.119169376875881
11.935234989101806,  0.095480324105807, 35.656022455114510,  4.101083700364895
 5.841180440279269,  7.382897693379517, 70.239887749536607,  4.114708281319766
 5.971435801609598,  0.220973864737677,  5.394536189408998,  4.037096535389206
11.683318923128603,  3.654467061933427, 58.767938586740208,  4.124871269161312
 8.978500240923472,  9.317860650189372, 67.421642619665420,  4.186025827499570
 8.282747452892263,  5.838111583906387, 18.370434994606793,  4.136913719979175
 3.236716588181586,  2.791473344835434, 27.840541182685804,  3.560966663054772
 7.622280508109896, 11.451207862528936, 33.484103101308087,  4.068174089740821
