BANDS
8 8
NANOPARTICLES
cell(1), 11.870
cell(2), 11.870
cell(3), 74.190
11.363551618568444,  0.458076442217623, 23.095240096163451,  4.175931820808906
 5.640243163467067,  0.288166714675596, 72.757366138069841,  4.361107119147442
 2.821281002859149,  5.072080759720816,  0.497757084157141,  3.949082370908116
 1.832158574065459,  6.354292997013076, 32.581554414255059,  4.220827100966943
 9.492950923333629,  5.196994454079458, 12.758951297259575,  3.697677738798039
 9.885440522726398,  9.008785657982836, 55.057746770200758,  3.770663383194064
10.280583247091679,  4.382987375246933, 56.037181371503479,  4.332164731795797
 5.711944101049501,  3.068897486652515, 52.351949745939528,  3.994533751972235
 2.312223266115656,  2.355673772897400, 49.933370017058579,  4.304380109526059
 2.968984875572349,  7.810757334646606, 23.816575513967621,  3.727756755775099
 4.654913348479848,  6.497200365048127, 20.720299985113389,  3.788281273587919
 4.371634228776298,  3.752806182862757, 45.658589076457247,  3.772981533020197
 0.649520421405901,  5.757070423391371, 25.851448785971851,  3.683093445644500
10.819162230062156,  8.666908997252554, 30.503743971346658,  3.979184813122969
 5.462139293466194,  4.528437115207409, 33.338660296605227,  4.033971647956529
 3.744798294785977,  7.168011370646945,  3.672196633498626,  3.864147266624684
 3.370660097963379,  8.608750065617956, 71.435058491821849,  3.783362315412463
 4.191965841712784,  0.514090531225866,  6.966547840116728,  4.135671255070431
10.766668157283124,  8.077545123961261, 42.948330231749416,  3.908481572949912
 4.953306367793282,  8.422743754340106, 38.890694569506600,  3.958173003460943
 2.997485299565865,  2.837465863007722, 35.827888041796747,  3.742821203811225
 8.040530547160373,  7.091484045711820, 58.389470779213163,  4.107597003986992
 9.305884216964731,  6.221187460342082,  0.702849435012739,  4.018018458915207
 1.930446865398160,  8.209878591007190, 54.821023882185578,  4.212608151030141
 2.326499796340058,  3.400114826310653, 57.554419764182725,  4.218920427389312
 0.234191285439758,  4.062159153587078, 10.222333447667456,  3.928051600162917
 1.272280885599729,  9.483661284481311, 20.713834913388443,  4.051906123372950
 5.132278351723218,  0.647260978499880, 38.430845262332980,  4.288620279695402
 7.523614855662535,  6.788367858142908,  9.819652729278591,  4.047156159211304
 9.237633269472143,  0.524871962751517, 69.918520026510279,  4.073733962830259
 3.243760281998956, 11.329235956537822, 57.776836116581322,  3.881645280777712
11.430974820029261, 11.144475765176320, 17.368152241926815,  3.765000854926539
 4.990953358737269,  8.445857859747779, 34.288839886041707,  4.077784447139742
 2.795763203135224,  5.431258470930005, 66.865631140579296,  4.185655743050404
 8.334515792641977,  0.418457312380322, 53.743707853969859,  3.905430026155560
 5.575743005420929, 10.643756023082037, 68.614288053747970,  4.452793129741329
10.747584441275881,  0.073467270005367, 35.419479761785446,  4.014310830860510
 3.812712598358336,  4.586622461728306, 16.548821316159305,  3.924141307341936
 6.309025090354126,  3.194300770862394, 42.450231543470238,  3.798487521964720
 3.115220481830578,  1.802081257609625, 62.508132579489434,  4.074397329003268
 0.750823505759069, 10.286102589085484, 13.815409220045114,  3.910461166582340
 4.251239989141721,  4.556834192530118, 39.442770702872657,  3.976488376138206
 1.877902494236596,  2.055617032151945, 26.596051790445106,  4.089652863595632
 8.818493220911066, 10.657799962940093, 25.648979091137363,  3.765561103662080
 0.888052069656819, 11.134697569330827,  4.026938028641133,  4.193301149976588
11.507269055851266,  2.674754804560868, 67.284460602363922,  4.064106701510906
 8.436608429624535, 11.129193195432181, 58.049082570778239,  4.033375474367975
10.970014757626027,  3.834984430101199, 47.438774457534059,  4.176884291037031
 7.632403804165174,  6.296802257762824, 44.845815730461354,  4.102536211991705
 3.723625637095967,  7.455640672092002, 58.757971075226727,  4.167143819460715
 8.521584534388937,  5.927005411500885, 62.284749322923581,  3.778551344188529
 7.085360656023384,  2.462061670338559, 67.007515403817720,  4.137131833834482
 9.269287885224788, 10.242449291650329, 20.373098406818173,  3.845486477057869
 1.109977538931329,  1.359309034510016, 38.804116775970058,  3.899763343706687
 5.655645377687396, 11.540759048547715, 60.598850807477895,  3.553514429834033
 9.220380490588520,  2.201192265606464, 73.533957268407406,  3.896538332272920
 5.830456596152711,  1.212085384389756, 26.327593862606733,  4.008262413848046
 1.959340986688154,  1.604031321563642, 19.902433098021444,  4.206413487321176
 4.330553503376161,  3.657326196432866,  9.811362823960543,  4.343037787644477
 5.295520357495612,  8.507073126782521,  6.987556024119642,  3.927075806790944
 2.352627424931548, 10.297223027637603, 36.711320182438563,  3.588811295117375
 0.703016337777833, 10.125505762589306, 26.257982916572811,  3.880287281360280
 5.700226121986630,  5.672845090889175, 13.230177047075793,  4.001329106830558
 6.026187137612363,  7.388826494985544, 30.397473329361713,  4.237215175317805
11.078495394793700,  3.107117506991255,  2.969318765251615,  4.449106212306492
 6.218946077732749,  1.545845958595341, 13.059867227800762,  4.266569506762446
10.200184549467409,  3.870617143945523, 43.160658287682942,  3.724467047084856
 5.861522252132477,  9.537315209796793, 55.311333001301193,  4.129019156666770
 5.803508684623895,  6.511459393951214, 69.340278498537273,  3.882028075048114
 1.036623907654501,  5.637456413037838, 19.290166268532566,  4.152138224316238
 8.266320573401364,  2.113039092723681, 62.664040815445901,  3.762969807742929
10.320157447958534,  3.131661320827646, 51.504400086494464,  4.172022683577833
 2.636814597018531, 10.576497639506883, 41.257450269952734,  3.931870238961430
 1.321625343082767, 11.291814828400828, 69.248285587927754,  4.244598296486383
 8.194004780318275,  8.221867054086403, 49.723609743116064,  3.652733762491881
 3.155361858879558,  0.670502707853043, 54.099833088744781,  3.836258272603143
 5.760288190972407,  3.959868181829069, 60.053495782310108,  4.318236320228197
 5.238041547549509, 10.363460873305849, 19.658571093725989,  4.302909588591136
 2.152269904024429,  1.175424723156401,  0.658185157251534,  3.955052011185000
11.455761022092341,  1.283422620768133, 60.204258750186106,  4.417295937231738
 6.946026593692149,  3.437403085722862,  2.303937531346720,  3.947715027045227
10.309976457046423,  1.494160122690966, 13.100733475288212,  3.915460138903255
 8.402989208119578,  2.872254640333611,  9.572770906940898,  3.953499657382433
 8.971198294172252, 10.164183559875267, 61.978841392849063,  4.122336289728345
 3.038201665313990,  3.897135796807128, 23.163491347678900,  4.027438290606651
 5.390157887387972,  8.969401437978334, 47.083110956622754,  4.184718424826571
 9.232858100033409,  5.596556013498122, 32.501107004586068,  3.980060406986508
10.989685851404673,  7.974042385180236, 47.003424053532520,  4.145814447264544
 4.982800986085720, 11.840052574803202, 44.196154364250596,  3.980573785503690
 8.375949191931078,  0.868282800299533,  5.808081680815119,  4.575458651198164
 8.996411234227015,  2.438038671589530, 39.415969319497869,  4.443225279377586
 2.292561479426324,  2.721590817488166, 13.280998195299222,  3.917452678170386
 9.249499141852558,  4.612693938967630, 70.074292021020852,  4.090770690376888
11.522325565166815,  5.469480460811466, 59.869081310925864,  3.975568222586231
 9.222047123844900,  5.640760040669208, 65.991509002113702,  3.786027181282214
10.891049479507538, 11.683779686900662,  9.603031529573309,  3.927977187953100
 2.144934262700539,  9.246969405221217, 44.822825768968542,  3.732875199655844
 1.914006075054009,  6.562895994473641, 13.692263695301980,  3.831534812636743
 5.565815605675825,  8.224863498404304, 62.155243000141212,  3.712537963829659
 5.267116549708216,  0.474855509512296, 33.082578756224152,  4.096962859080977
 2.129640448305736,  9.872577020669798, 61.656868807836574,  3.955010775353077
 9.200629817555097, 10.803194298120033,  1.815786413484484,  4.180355440283123
 0.030244851964305,  9.136025473063551, 58.368733685319619,  3.982992679630885
 5.462224023167020,  0.959862793101482, 47.887259011830892,  3.688090660948444
 8.963461196655794,  1.694754265925962, 32.321119994489479,  3.832522213213760
 6.919518219545513,  8.635172955671226, 22.994245687015539,  3.892102931690276
 0.526355470855841,  2.129516405558129,  6.850610705310250,  3.859971104082583
 6.393922184067885,  4.716629285276837,  6.283849205526320,  4.088661821989410
11.449616752672314, 11.115837463323491, 72.809542409494739,  3.643126818977160
 1.950825532234595, 10.145475982274027, 49.037444072366554,  4.067106902814277
 6.266355388770646,  4.684320202353587, 72.780245651148931,  3.961138458449665
11.819403986447847,  0.066303340617450, 64.168198146098504,  3.856658033720563
10.717338283954810,  8.174347333310996, 23.523948611439920,  3.784954318787666
10.512468250195312,  7.239094993123159, 16.115634835490852,  4.420310259699404
 7.400445508263612,  6.039341122194847, 36.645266265856620,  4.204043427122530
 7.682912580340617,  9.984409805181169, 36.698123857324468,  3.691056443912124
 2.391579747804904,  2.560956119002494, 42.445303162691253,  4.135755829658890
 2.648622866759575,  6.131346077566240, 48.218749341167268,  4.014091186302267
 7.890745319474280,  6.382371314760293, 40.748047977880624,  4.084673332678311
 7.668723507943578, 11.132325930578245, 29.420255876574014,  4.168666922688339
 9.603720392501950,  8.883853158548822,  7.130434961920471,  3.934007749154677
 7.019235671514333,  4.670677409943109, 23.426577638336287,  4.083751616107867
 2.822094811513769, 11.615485162831147, 10.719729877496571,  3.996904716453142
 3.786278250892119,  0.587040929612350, 16.320802275405104,  4.086884070948618
 8.685273943153700,  9.717630660012631, 13.191045915958940,  4.056826673785428
 1.688463788728929, 10.447370272347520, 32.974156999275344,  4.006894579014154
 0.233277672144814,  5.506200432140542, 40.001868715134457,  4.340101975372264
 8.928341254082389,  6.945179186781720, 27.235850380828829,  4.291885469038944
 3.505515457316101,  3.465192270207265, 30.134585651680236,  3.739893800332827
11.547517499269826,  7.572374891179824, 68.473127414106571,  4.033476998201855
 4.271157483747508,  2.939640717785211, 69.860352015414620,  3.914806960680557
 4.648813612281534,  5.053433056179428, 26.751666858819991,  4.069347807132840
 7.395646046412730, 10.489511131260565, 41.286088063119337,  4.035251571792822
 7.638284919674496,  7.751731840181283,  3.943199211180867,  3.884269904833990
 6.366535033331643,  7.593137623380790, 16.686845403457710,  3.969571850966946
 1.267327064337166,  5.616084291084483, 44.643832472708226,  3.719093923356726
10.994411024841641,  4.449964645023223, 22.630412771011681,  3.894261377017069
 1.540668650368413,  9.495424068352468,  7.623243742096985,  3.815790324958576
 5.009798567399555,  5.600972433633411, 55.401963895306189,  3.919204151369059
 6.959650303832513,  4.593977432355203, 48.666789099379230,  4.290007646225241
 3.521071728118012,  7.649280234893625, 10.351884194879775,  3.871051118311712
 7.844698846811951,  3.840186376776570, 16.201650923615521,  4.126041423664271
11.800747870047543,  3.003859199195863, 16.416827890751890,  3.950887461105809
11.830119200059912, 11.118737964646339, 52.381295957794954,  3.952900356272481
 0.862590119113196,  2.420910252376074, 32.681526682494976,  3.877138211143652
 2.351310342084548,  6.544124332122381, 36.611693210377766,  3.914054449599075
 2.587673064852723,  6.051360980066787, 62.242974404898725,  3.662897841660151
 5.788354124225473,  8.299896926451376,  0.396321173215958,  4.176436191978391
 7.266828864655629,  3.625513037887345, 29.415755121582528,  3.924321828943369
 6.929261106752577, 10.974369216311409,  9.715361298049741,  4.116876065850482
 4.661214691438710,  9.540062020863594, 13.631986490261744,  4.036404441080985
 3.332784264540456,  3.234751511829944,  4.020790448462520,  4.062652531722097
 5.231344658314440, 11.575071667225757,  2.965397549247637,  4.216213500075452
 3.489741089335864, 11.452795983092042, 29.459601781208882,  4.128549145198289
 5.900986995727227, 11.387032388985977, 64.402340765000062,  4.066392083040735
 1.772888134532924,  8.871604850253718,  0.757069677103212,  3.948336890231983
 1.643229347005993,  0.966885295302256, 46.087605402054187,  3.936934834329230
 5.454854177768250, 10.700358559254845, 51.275983340525578,  4.306234717886428
 8.342135139652482,  9.964451041251568, 33.091891462857149,  3.635611442054371
 1.765379418739408,  4.287029437894569, 53.574824106184955,  3.975647790388091
10.164028104050484,  5.134909663437745,  7.074694632676561,  3.641310370006477
11.511997553576281,  7.729909186035870, 63.801709058852090,  3.800127812259706
 2.111915127493464,  5.706798972159048,  6.941535717271908,  3.957192499949535
10.942034291170101,  8.013314079904253, 35.096522808834905,  3.879759994639602
11.566888277493954,  7.179398814984333,  4.093028198377885,  4.055381993832364
11.054989939841681,  4.103743045027239, 36.023463203990794,  4.158330390715126
 8.099515216215318,  6.223332893401726, 52.996987003703993,  4.004420254561323
11.456759875853479,  7.939281681085590, 10.822958112444192,  4.020523330779975
 0.256425707415733,  6.590858178340215, 72.216712932410630,  3.784443215692174
11.753664774885024,  7.141921786708540, 51.194731682199382,  4.347133818121372
 5.364265063163888,  9.070749708329181, 26.643708443130514,  4.088821688183778
 7.713208096759541, 11.663359720362998, 16.539880124353342,  3.922839807620504
 5.469895392439888,  4.540632099509986, 64.051169257304082,  3.779119556624336
10.967759944257429,  0.143561633310380, 42.390860277169089,  4.036830527253655
 9.166763789376640, 10.101671010279970, 66.430717701825444,  4.020762036021155
 4.397644515947809,  6.757326595124758, 51.716505569024484,  3.899481980747413
 9.650014068191531,  2.845249775040386, 26.154860181098293,  4.302361836958588
 2.304725331068468,  7.588058814610051, 28.742236496159453,  3.896900395162411
 2.613489824638531,  9.414223877482756, 65.770436499162287,  4.070357637025797
 8.659945780855050,  8.543440715591457, 71.466471060532697,  4.302561801520264
 2.524904579133457,  8.652071931857803, 16.966877209081286,  4.015061632454553
11.475908591266187,  0.537122632077482, 29.516896327822561,  3.860258095334888
 3.562887166240171, 11.649002986618289, 23.290658976446199,  4.083494939242971
 8.591981670337733,  6.275268532108855, 19.889636141190078,  4.256479314800015
 5.891856203322689,  2.888206347135543, 19.682344030249531,  4.068988891854818
 3.259878796210807,  1.527967612775747, 66.444174629983110,  3.719434672633997
 7.985548260338977,  2.196638900477732, 45.585642112039949,  3.574636123925304
 9.815524205531199,  2.171343741132453, 19.695245558100517,  3.874591153104028
11.661849017449581,  4.518858215650900, 29.444477809171730,  4.102713084434444
11.573511205045941,  3.886203333882274, 63.482724133863023,  3.914608073357775
11.001202635232826,  9.590011415106432, 38.956250019357519,  4.362719390038509
 9.894081137920036, 11.747448964891186, 48.722232323404008,  4.417343926720642
 0.687130144217266,  2.789289476583115, 71.522495097158782,  3.978748680046264
 4.372016060876224,  7.045850616891783, 42.580820615794757,  3.959498743048612
 6.157968867142167,  7.773677952265687, 65.786140156770301,  3.687065877501414
 7.372055649713023,  0.775407504603692, 22.718541712601446,  3.864122924204314
 8.525881982937312, 10.439235406706045, 45.055951500474890,  3.829784968713632
11.711250619311960,  0.510084653045367, 56.116223449053223,  3.917744629951485
 7.483251481159012,  2.244776963335797, 35.691339604070720,  3.603863543509024
 5.970945148795149,  1.950266876514259, 56.462077874742505,  3.922310873926022
