BANDS
8 8
NANOPARTICLES
cell(1), 11.902
cell(2), 11.902
cell(3), 74.389
 1.817227892521711,  2.045477323525164, 28.370361160424871,  4.258660378950805
 1.293720760006906,  2.861017864052757, 32.385997601389143,  3.984560101258217
 7.767340903259585,  5.154716930873341, 16.294055367419556,  4.493133089514769
 2.490781244306888,  9.072453796841520, 36.004767599932869,  4.075674506740695
 3.587259212847930,  5.524069700817451, 29.290640273940788,  3.731131986621027
 9.700310891511812, 11.579339237843588, 71.697092042887192,  3.967053925422235
 9.308392974903091,  4.370710466449340, 52.922704736705995,  4.056028920684784
 0.688159586630812,  2.808259313082905, 66.823797861620108,  4.294805000972802
10.781122533959204,  8.257820775555262,  0.650974874266724,  3.897133407259618
 8.614763552284884,  7.634670573381614, 32.591640275610629,  3.827663831089999
11.873082741586854, 10.611966918468797,  9.574803002161918,  4.055351467427823
10.873022910423966, 10.955628493960807, 67.832271296341247,  4.201285733948852
10.595236696675171,  2.128889776732729, 39.292222720836321,  4.108957539682721
 7.016714830732867,  9.414363307607413,  0.468965206242398,  3.986889008163435
 5.657019103549903,  2.036083849213584, 50.883474211750823,  4.034924397722591
 5.352749107630721,  3.512388544973340, 19.938383071986731,  4.077475385775438
 2.132362848220517,  7.275688070960923,  4.328643934138096,  4.262871295424164
 3.025643726103616,  8.120201858928967, 48.567737548464841,  4.146711678495384
 9.183709621817940,  4.750480510950077,  6.962003785570785,  4.257403254595718
 7.337885255488191,  7.608308569700295, 54.470123227803285,  3.979077693096971
 1.786049918770319,  1.707442784774907, 63.007319541910391,  3.919320004320284
 6.310580395404145,  1.072420876757088, 28.719974765200551,  4.204037649246763
 4.580968900679834,  1.912054896883995, 68.081313766509652,  4.075039631769403
 6.621387372522989,  7.257679016648139, 19.667035093041086,  3.774186947128149
 2.819117360701990,  4.721249882765073, 35.539124535230172,  3.907399424590049
 7.481296201758311, 11.637888942578821, 32.523477617167728,  4.182132178972338
 8.944937764505893, 10.365362398097204, 39.922313795136496,  4.023860038833291
 2.978545183666471,  6.668341820381405, 61.581124685213339,  3.916079170964916
 0.945454425705531, 10.703724404034960, 39.324925947524491,  3.896343144375053
 6.029479453684099,  2.984505405569042, 13.010444317871528,  4.109358740637324
 5.786777846883996,  5.297354313452309, 64.168694665703825,  4.191443619171848
 3.138522388467489, 10.647751537638241, 60.311086625982277,  4.102376821847035
 8.605155001140805,  4.533474281614753, 74.364591397329079,  4.230021135732490
 4.979273132091267,  6.772047038366184, 38.092912188863920,  3.881173856404532
 7.450374693477186,  5.011544041347591, 29.266901539281100,  4.056835506130544
 4.923307547934210,  7.066388238798620, 13.756468209307796,  4.031538481985017
 0.303327330322055,  2.499729967486792, 50.606558678447918,  4.128017731247382
 3.644512766479147,  5.990480640451818, 17.338623856834833,  3.872759096313323
 4.989470007377822, 10.451189371135097, 56.683649517474663,  4.034996530647663
11.760153079050010,  4.188374092086749, 42.592844822914586,  4.003485478414951
11.019821065092719,  0.005793697483351, 60.364827535268326,  4.306496626096977
 1.695807376697141,  0.427247947427998, 70.721022631714575,  4.195321420585872
 4.234085617026822, 10.327791643601062,  9.765505714727611,  3.800955273546455
 7.671879334619468,  3.004420008520432, 70.577037697337900,  4.136738944844276
 7.512404193190689,  2.662064932513148,  3.895810972475933,  3.852923334417043
 6.377680951110318,  3.145898740322659, 38.234574849830352,  3.880921899286420
 2.767775145125655,  8.103085823344985, 54.099783158736159,  4.229975573511838
 6.254255681068484, 10.751560028656714, 43.313545947471233,  4.145193717565029
 0.022184877999493,  2.503039986333262,  9.845987059512497,  3.448836896957204
 5.490577615643919,  1.100580415895727,  1.012196589976473,  3.848769456216727
11.728796964530259,  7.906159312819232, 59.551439796458908,  3.979269888320189
 7.696705569396056, 11.020154270359074, 19.759382286503747,  3.983634911615959
 1.095694218648797,  9.425602866351163, 23.403837525077105,  4.040048211145335
 8.786783828314089,  7.985844374653507, 62.533402144021039,  4.124208307351396
11.265403051737316,  2.718587613146715, 16.257780350900607,  4.018961704888840
10.338874700250145,  8.864700996760085, 29.253037572422055,  3.873213406157019
10.302698275040219,  8.664595243627510, 36.464447577020209,  4.146595186767426
 6.678065945754085,  5.214673582638035, 34.931094762925269,  3.936802749383263
 9.292926775959401,  2.652916246308988, 26.093394429768193,  4.117703866477042
10.164980594062337,  0.771604615520658, 29.763886822557474,  3.786566796628645
 2.155311404151952,  8.960762344451117, 28.293250311908043,  3.800946829816611
 6.374209516116763,  8.923401903270218, 29.597764650269237,  4.082582311957552
 1.190160846993034,  4.431655050762860,  6.970993200317055,  3.563185480610211
 2.906407116925925,  0.366556765913927, 20.973730029272613,  4.155656807957667
11.733881543430535,  5.386364458028594, 63.656062580097490,  4.043871389424901
 8.897031939429846,  4.510646784892300, 45.113493224475263,  3.651430680901718
 9.182863536375397,  8.475409929509492, 22.468488497200809,  4.018998914021262
 3.297591544685191,  4.088115838712339, 48.472166926614427,  3.856555625398463
 2.676892957846413,  5.307370208398867, 69.438461899453458,  3.959885258269245
 9.170885386283524,  6.699095777767642, 26.051257528884392,  3.970090711317658
10.262263135375152, 10.229466825049945, 53.673261810361964,  4.026242692144876
 7.121730304257005,  5.176039809107622, 23.073391879648806,  3.850899770437922
 0.603213444239499,  9.312872984064731, 63.178050491102830,  3.870371368282084
 5.039617918012096,  7.490950029824404, 25.956615864719428,  4.179777537372222
 2.523753007534070, 11.187168686517660, 65.945959846526137,  3.835425014094257
 8.231756756320841,  6.975049346686119,  3.507858504066538,  4.176415040485340
 6.647234987800040,  6.765263258050919, 43.103264582451501,  3.874728219915107
11.347309864084847,  6.676973483384506,  9.845788469495220,  3.901933229044286
 9.349633239302348, 11.669547181731776, 64.126629702172181,  3.934968877689593
 0.677260520955697,  2.257065632873867, 46.071451462737180,  4.119271241707054
 6.432876702476807, 10.023891933005656, 47.942672590822106,  3.743555674450587
 5.650828736338579, 11.506207541752179, 71.691032996774595,  4.079547670046029
10.796763237032732,  2.263870480357948, 56.515617000120947,  4.092386046851449
 5.765798616148459,  0.688384539334156,  6.896923767378570,  4.122011173648048
 4.735870467535869,  3.188377739988583, 60.815873280393163,  3.999691096308432
10.038041886833295,  0.028855453532544, 12.998862295708227,  4.126964382330918
 5.125963231235611, 11.440965265947865, 39.254514786760225,  4.020093690785666
 1.260177661098487,  1.554090786379340,  0.297345447923548,  4.049925268922675
 0.332141561264447,  6.557664562350047, 33.213723779357252,  3.825554759985137
 3.310941418795998,  0.241541256711997, 48.260643584604900,  3.827041632184126
10.247033666837943,  0.263629333508694, 22.373065079400863,  3.662546659899059
 5.128120253254966,  5.998387010651371, 51.436958155035668,  4.035895291365954
 6.472124028297833,  9.066033978246088, 35.403121507310310,  3.791514475842640
11.376603029995232,  4.007764555250150,  3.259394440615557,  4.427310858699757
 3.402688575106733, 11.308666551400865, 31.355973336259176,  4.309651588503897
 6.059949499924778,  8.031359744995051, 59.618856929486221,  3.858538525168771
 4.202396730033566,  4.416397151174460, 41.199157863909043,  3.889715480502688
 5.175546159290793,  3.183557824331090, 31.965870568198660,  3.849873070584668
11.416728309983085,  5.151988804305235, 29.710568340601096,  3.897901239224645
 3.118383428480247,  2.053638164921288, 57.337537613627077,  3.999858611802696
 2.368086238782154, 10.649854315510787,  6.498778658451217,  3.737860519754524
 4.109629148960022,  3.213322170552401, 72.450929868081047,  3.913003983570455
 0.297404727780598,  1.075104972135964, 35.763835099803551,  3.912681155779390
11.464423522148286, 11.652798259366888, 18.848111429112311,  3.863897706806204
 6.520002929563087,  6.369514914007159, 68.245259880813705,  4.363380957586481
10.774184024508571,  8.441452258858098,  6.444745068619919,  3.845589828651466
 1.100391972150111,  5.952442754715487, 39.038994911641311,  4.270099509649706
11.485936872826029,  6.188175002975342, 47.430812970678865,  4.060955796414516
 6.628334960095741,  1.199524025613195, 22.926981172543403,  3.884085688431293
 4.842627194312626,  5.012037768066278,  1.915768729401457,  4.276987571502752
 0.813554085613724,  8.225142647085633, 71.552099321156760,  4.069359531360401
10.422376638175889,  4.612638994962583, 36.096670943686142,  3.991641417604044
 5.597795693275059,  9.996321784370082, 51.749713351258194,  4.037684563428297
 1.431357805511789, 10.626004270628233, 51.241621533829367,  3.844851966834226
 6.839916099707135,  6.009234109203227, 10.260656107492059,  4.215202408429855
11.449807273749544,  8.190415431482002, 42.228301749764341,  4.053927508483923
 7.036927498800647,  1.957019905216965, 57.847135618147320,  3.905052413092460
 5.096243984238992,  9.309824238074944, 63.648949767506409,  4.016646894222157
 2.606522167819421,  7.173607473547511, 65.928598404758205,  3.964329461895930
 8.747735070300878,  6.200461332331866, 39.620329159742397,  4.329175334687508
 2.935321823899567,  6.026873998708835, 44.822681178170811,  4.435811640893718
 0.567192704285446,  3.935411854063389, 59.881743369523562,  4.124292491072519
 2.743209180520225,  9.778365600274102,  0.362880260594628,  3.879302636206994
 5.074314123873045,  9.732866939064662, 16.909145507990701,  4.165140487588384
 7.863159694769121, 10.521088693436736, 25.727153895820795,  4.116089777432013
 5.346707640935723,  9.481371485256361, 22.485351729222163,  3.844527947083870
 1.682142200158603,  4.048412415058526, 54.146022649851176,  4.047882275753972
 5.012352377614597,  2.293710586996012, 45.269290231312482,  4.145692058842255
 8.897499956578086,  9.807149722710541, 57.440772322855132,  4.029595322801907
 3.183279410592863,  6.805553535291448,  8.918186584732615,  3.734960882993073
 0.313578699757121, 10.830495360390019,  3.243617851415586,  3.945479610770386
11.509216637576337,  3.813234033599036, 71.351308410450159,  3.857663835587015
 8.738709825395944,  0.806147016153163, 46.249423517221750,  4.099187261097859
 1.238400424522282,  5.702640167018495, 26.078476836340016,  4.207086136949191
 1.397906125907979,  5.472931845098701, 74.289559620417464,  3.757396951192525
 1.252236610677909,  3.841911633348408, 19.617047542427848,  4.005196622581852
 6.846516091527473, 10.591357503273658, 67.043977300987464,  4.033662082148354
 9.166829231936589,  8.054897890854418, 12.853931823858451,  3.821647917030067
10.891030140822650,  6.650595549833108, 67.976514603549987,  4.413003580113307
 2.548007636365944, 10.232439988921131, 44.910239561280989,  3.930887494178364
 8.732252701072463,  5.397489664142887, 58.578265103458726,  3.882358308655137
 9.304727976385594,  2.884755375764574, 19.764136399450791,  3.929979271236932
10.379496917303461,  6.608332913967597, 19.211006912105493,  3.856091955521679
 3.256714970217540,  6.056943976685950, 57.660452964905531,  4.034319620598258
 9.234067310370877,  3.416664988405999, 32.493663655832570,  3.958270174185350
 6.326076613589855,  8.478558574046207,  6.907777669418389,  4.173960440793842
11.074956885220262,  6.851668685292055, 55.724451715134741,  4.038058869043154
 3.747687497530609,  3.001296227481811,  9.612047765218257,  4.068806045362808
 2.048020776170367,  4.505532119015904, 12.869128642568377,  3.858002304573118
 6.977054634470490, 11.541407229248055, 60.982842981747147,  3.885452965152237
 2.512543027663007,  2.275498761190483, 38.591501019050284,  3.656721548124997
 3.475959802832551,  0.634372257035360, 53.770524186417205,  3.697822648467994
 0.903782827895178, 10.634254442454584, 56.798798420751943,  4.052731952075115
 9.971327832363162,  4.159629573955842, 12.662394853163793,  4.138187341825629
11.210914981695119,  1.164091932288331,  6.406759175934040,  4.056434247922335
 3.498253012669075,  8.424623692206138, 41.373913194351232,  4.038811239574290
 7.602778574680484,  2.528216849570449, 42.059352000590948,  4.075944242796437
 1.544398436922781,  8.514908222159468, 12.469989430970772,  3.754468065729738
10.980908719661524,  4.960542679354507, 22.716807568001744,  3.882869606101069
 3.556754888980308,  1.897905186406392, 16.377784676055548,  4.521272984876252
 8.249621355708022,  1.953492443891055,  9.781700532060711,  3.890359303536058
 4.818114131511702, 10.242817281265857,  3.616664266654567,  3.858442233008787
 9.099942901014611,  8.760443640928589, 45.439244718192960,  3.984220430112844
 4.687007053400609,  7.191687430836578, 72.395329634255617,  4.118814697882272
 2.809543518339904,  0.954575988418255, 42.067479446844615,  3.759181224328624
11.758231796106312, 10.534763648408941, 47.713315244571639,  3.858995380758238
 4.706445402356845,  3.378122642396093, 25.665694499129057,  4.093221028627382
 2.215852250389058,  0.512763544399630, 12.492727355255967,  4.136249795206859
 9.036213935769418, 11.863227454205896, 50.212794723536476,  3.994280144906821
 1.855505643862972,  8.605857466172514, 19.591229008666744,  3.871817784424004
 0.112183667299391,  6.637451315689359, 15.602371691512261,  4.067315115699038
 5.471026480166524,  1.284116471939874, 64.227609604256656,  3.855462028026929
 8.720360177318680,  3.751450037516908, 48.992603710666984,  3.937141037800375
 3.711125611242139,  9.259021081181865, 69.054899085886404,  3.851585343365428
 9.071430294190847,  9.143611203743641, 16.567700964878004,  3.900471949813316
 8.410123161228059,  0.332563824563773, 36.441850475937542,  3.922066129669406
 3.249551833411370,  6.063074273322609, 22.413511040003257,  4.177076502609058
10.975244585747127,  0.256553779869660, 42.903981236337600,  4.016441643021321
 1.158744220175900,  2.010927929502409, 24.290339062997333,  3.988880826512121
 8.783424685612237,  7.692995094479212, 50.280949835590839,  4.344916471619617
 7.190030141954790,  0.648716784921745, 54.243260219761424,  3.757343566353829
 4.430337892252794,  0.891081218574235, 35.323917488072937,  4.407053132780222
 6.133436799858611, 10.833657052210576, 13.123354318130666,  3.975397251488427
 9.353585419827985,  0.670500888113837,  1.111030995510387,  3.921382993765824
 1.335514892638069, 10.352054268588756, 15.738181094957314,  3.752581510304098
 7.690779655211989,  0.916696967555342, 16.200955883390488,  3.983710307285118
 0.611908005751361,  6.390611798796506, 51.201579383711582,  3.764879537394655
 8.095634258666246, 10.114530192592756,  9.959885071797414,  3.596602962363402
 4.162427865560912,  7.393302302688775, 32.678968572672431,  4.087658003531985
 3.834265270715135, 11.361104871226621, 25.720108577386423,  3.937079828048148
 8.510144748455351, 10.886433935631061,  4.514381629446278,  3.848436794589200
11.610260000741112, 11.146485182952388, 26.545566230804411,  3.628606223158009
 8.677772622990963,  3.181960780842421, 61.967667083731413,  4.212256224159699
 8.364732022827415,  2.935991585559635, 66.474217066561835,  4.174047571314885
 6.330234254620834,  6.288870457715722, 47.211510660665965,  3.866536045664330
 5.602533799453341,  4.085114621759510, 54.892777609267881,  3.918402873916983
 4.903245279368587,  4.693028998735834,  6.086536573062170,  4.075662124690865
11.436522537653389, 10.420366308839720, 32.768485742455738,  4.106607293467360
 3.001345848918977,  1.810970925867947,  3.972513901827293,  4.001508179763076
 8.682508169339112,  7.667253842818686, 71.626337163983479,  4.072673280612245
