BANDS
8 8
NANOPARTICLES
cell(1), 11.925
cell(2), 11.925
cell(3), 74.532
10.014697730290193,  7.633556075150694, 71.601434155084874,  3.864542912999198
 1.010847732029305,  2.787107017189865, 23.542620873312352,  3.803070319262210
 3.338914851088842,  9.664482722209513, 43.085258233396175,  4.158047011928675
 3.484775915984441,  6.494624134278208, 38.330839162807187,  4.048902574358228
 1.839394616142775,  6.794496570013847, 71.218604980711291,  3.771902860231124
 7.752570093800785,  0.705354210505790, 14.534322101871576,  4.156658020754335
 0.088181338231642,  3.313576915268455, 65.281413345559926,  3.851180908230602
 1.782070982843461,  9.784198341394539, 55.334808228451855,  4.043581406866452
11.277469113912787,  5.888133014198949, 21.999358409441360,  3.870416990531781
 4.763166452166169,  7.583785895858173,  1.328897922513939,  3.889596028167706
 9.330085340541634,  2.933721535708131, 40.585531149124257,  3.820298538139713
 2.227393241427169,  9.856177099290324, 15.426149964997052,  4.109851302806567
 5.830392757638638,  8.388676571902613, 25.220058235276621,  3.728165492367712
 3.381769451617798,  2.063052074897646,  3.343341454950540,  4.360806106882790
 9.418674404772036, 10.964581924736386, 40.298603873996221,  3.985266534529478
10.678059673790422, 10.615105760082271,  3.377990406600340,  4.128586329584757
 9.264514035924963,  3.575467570526859,  6.836133212858006,  3.714648159675793
 8.143254130441095,  1.863289462867779, 55.531720834111624,  3.875986706617109
10.184925665851218,  2.965729120132677, 26.318097199756625,  3.985245698903496
 4.238296310312061, 10.490063188127962, 65.978531957745062,  4.205113783050153
 7.573069056483986,  0.080503877205423, 24.788648614063288,  3.868057704671922
11.879719070737810, 11.862524072799337, 12.549145489274322,  4.231255905299573
 9.655262872844748,  1.606708896518433, 67.817760049136581,  3.867417089790271
 9.739027394610501,  3.977093386639216, 18.702133901496378,  4.330532048635908
 1.841724187953322,  4.024249322394646, 19.620899020943693,  3.925800978718167
 5.173283303381633,  6.264199890247291, 28.475434030893510,  3.655243531691935
 7.872761410398724,  8.653942787942480, 47.931970497717408,  4.171543955815866
 1.232038594545432,  8.911111672226310, 19.727447299163547,  4.559805797674824
11.114304394368327,  3.620742001741013, 32.734631963001945,  4.223459865850724
 1.567660144060592,  4.395201563425839,  7.631668711409885,  4.182488306730022
 2.483165088743895,  6.788672527118261, 66.504164581677713,  3.896092030186013
 5.930513483282461,  9.314261907761521, 51.598738594475456,  4.230691896200232
 1.989610752493469,  8.684683041315848, 63.134632952146134,  3.873872896197825
 4.894193016571864,  4.339289484446057, 41.498314564808247,  4.106891615361936
 1.765874757779070,  5.187180639453180, 26.807866378275264,  4.213694384261314
10.503028084977323, 11.529649241183490, 71.103890216642966,  4.004040298661907
 0.269336389071127, 10.999553575435618, 49.910211327165072,  4.084460625607347
 8.511333908862470,  9.607715585342623, 68.062825597339639,  4.208889853216227
 6.414190588701400,  7.309019487373734, 32.062159841400259,  4.211493154955585
 9.751887097166801,  9.607263690819069, 22.385707114240631,  4.172227639201257
 9.247686873966654,  2.684128115732887, 22.536166489614413,  3.784478470667015
 5.908859158038563,  2.841214457269861, 17.492576932153586,  4.016693981755740
 0.898581304535728, 10.784800447922924, 31.293642742347352,  3.810785236529581
10.321867421380274,  4.484444137783095, 74.525329269891074,  4.052584144563912
11.151976839927002,  3.673127881384213, 57.485547369541585,  4.160155345787030
 0.771028823838370,  4.743842663437159, 53.688344809621093,  3.921824633918591
 5.120244185137110,  3.894342855282769, 54.028749056316236,  3.998476301413688
 8.993299496731915,  5.213971313231814, 29.498759735516074,  4.144940708284617
 1.230143755986429,  1.527503566512451, 28.511326009357138,  3.925284594667036
 3.446967948619676,  0.784283706418428, 51.948421423221959,  4.176948512618249
 2.592962786074775,  1.726386087198616, 56.237161586859898,  3.987910859700368
 8.499676311009548,  6.272319218113756, 61.388591291547151,  3.623471761018387
 0.965135612342908,  4.508478582101034, 40.668651410039537,  3.885291260150646
 4.682256245071769,  4.983278782251218, 34.875079443884324,  3.865741864041912
 5.983005570559131,  2.559043679264174, 28.844882378141484,  3.958125844167958
11.704574420005473,  8.081450598826295, 28.814112535206693,  3.859085443528374
10.422434655317113,  7.567260142085968, 32.385659178019374,  3.786644541040323
 9.057027092164692,  9.184972479084541, 10.742462691394126,  4.329283743748390
 9.759418644399418,  9.232039854019270, 14.725524712920228,  3.741125619297034
 7.194246992830365, 10.585177971785514, 43.955186090277536,  3.922853713726201
 3.908608712702244,  7.496480681125500, 48.254928597799484,  4.109416533196432
 1.010219984738479,  0.333942073805533,  6.219576040117074,  3.831564494809112
 6.008996635131688,  0.772266934633699, 68.914212766387664,  3.917621115200171
 9.865475653106829,  4.981611861151189, 10.503215927074390,  4.224254110581268
 3.376343898067311,  1.694299413569057, 44.153881190506524,  3.979176929919840
11.231538716412057, 10.316697113217527, 43.924056065481274,  4.166772610972945
11.866907286897977,  7.817174401405981, 47.171650434900712,  4.125501255451661
 5.372968222176052, 11.921264165826443, 48.367891244794933,  4.098302162625354
11.827046369760533,  0.809289668434004, 20.555265865544392,  3.697528598013934
 8.866742809616023,  9.830492980036922, 54.429517397522559,  3.937513514309672
 3.039268424181026, 10.543236144886757, 37.802650799417449,  4.146031518883906
 0.502775520668318,  9.202830854107956, 68.682792604555871,  3.697107184998726
 3.455055471325878,  9.473689916388865, 33.922111994530518,  3.680747887505382
 8.477256238829357,  5.600445028451889, 35.047166466100308,  3.805504692923470
 6.702134540941186,  3.889047364870665, 37.966208341117074,  3.830893975629545
 3.217335354850143,  2.709575970923728, 31.866332085806679,  4.213093832027842
10.100640596135968,  7.811959348352248, 51.250489623596089,  3.981657089745072
 5.113881119869398, 11.301625307250250,  0.791455216624326,  3.628236868948688
 9.152161194136387, 11.279996910775196,  7.114619689409006,  4.049318147825766
11.059303085921620,  9.636461757969478, 36.771798218525383,  3.957092143159473
 9.543380091049675,  6.534383516915402, 38.647339886996278,  3.866773653908214
 4.564134308921591,  2.665847586377933, 65.726754414849950,  4.024504185041534
 1.135994709437337,  0.616991158549840, 34.786296592787018,  4.019291168459908
 9.193257458605855, 10.951514435014644, 33.593233563615136,  3.807858471199783
 9.828876605636717,  6.945638047983368, 25.527347939076940,  4.035104622835282
 6.857671413030467,  5.248589843882553, 50.423968805003625,  4.430974147372331
 7.333023711813876,  5.966168425248457, 21.518912828202964,  4.071675815634724
 3.289413336700630,  0.504826172189640, 19.086176389909184,  3.692349174606252
10.242181173631522, 10.075204661750089, 61.649063490726405,  4.326368953398435
 2.477901926826543,  4.572139021884862,  0.075853098931655,  4.071818530629328
 3.619614770874938,  6.834296571620559, 10.229360500624818,  3.700744729843612
11.336849573512428,  1.673585120263855,  9.193269131565016,  3.392098516940105
 0.097585209947333,  6.541466692230889, 16.357853425767708,  3.983984381084715
 0.525592453929724,  3.117594117142697, 71.359889555640180,  4.039462018962081
 5.940584952638916,  7.015489509466192, 64.362668848717178,  4.175747544414682
 3.471156171893003,  9.937417485393322, 28.177747904262002,  4.422992890494898
 5.366557161990333, 10.364376550351876, 61.866525880417385,  4.058405869737533
 1.197045052598880,  2.621230753036006, 47.426767358831000,  4.017417278131147
 5.740206180278016,  6.191994221241726, 72.263776109064665,  4.044678406240852
 8.164417565738169,  0.276812980451606, 19.645256410699197,  3.919872483485669
 2.763991048786663,  4.959433893592327, 63.187278648159563,  3.698190875612487
 1.755313910990473,  3.760006878200347, 11.711914243635293,  4.075758470126169
 5.193744969563380,  0.095767835118731,  6.455273880037828,  3.844257671598523
 7.827147514421675,  9.168540489367233, 28.555732583893882,  4.194460301245527
 3.362665608843033,  6.066263538074676, 22.926884878277413,  4.355093816082643
11.579220943533965,  3.562215330522831, 37.066857717499069,  3.991959804479978
 7.176099454270454,  3.201571112741885, 32.470458475998022,  3.697604943892454
 5.577608470403028,  3.674556217124796,  8.084539877151849,  4.015149812788017
10.141311494018122,  2.539681329414501, 61.522584538066312,  4.444458844300039
10.864280806204485,  7.599053911443737, 56.918125662970652,  3.793408449594490
 9.424378107976132,  0.633676480517742, 47.098176671301154,  4.394712127185071
 0.828335264545377,  8.485493846101344,  0.291775672425453,  4.426687283840800
10.784628458507944,  3.837632645497699, 50.395535285470373,  3.900679478048376
 6.542484872152084,  4.471178468195522, 25.277972842999507,  4.158425970062764
 2.110455642731785, 10.956034158427276, 46.536496505382850,  3.600707317108966
 1.241463144582465,  9.765842371306228,  9.241167700934104,  3.996332217536423
 5.368557415854744, 11.232933152438944, 55.076759550434225,  3.706944808168099
10.757822628730866,  3.379901074543164, 14.389465525528944,  3.880725737199511
 7.481830446872773,  1.231043956922127,  3.456914857062445,  3.945840229998074
 2.332639348218938,  2.492575676157822, 15.886570231200787,  3.839093206886497
 5.334461700364093,  2.259068210732115, 21.943019087503224,  4.129161408954649
 4.715524101044652,  6.636755285477369, 18.422229263641157,  4.147867189253324
 6.450049524285892,  8.134481405300296, 40.719754884935199,  4.230176235353991
 2.695136877850147,  3.195954433568606, 59.862982542204882,  3.828771503261868
 2.093198980013469,  7.947211823390487, 51.813701110686068,  3.922519647561351
 5.956431822057749,  9.076601585965552, 13.475471132627359,  3.922650818754768
 8.528675102901522,  8.542335842043624,  0.600983667543792,  4.009182514583346
 5.950896395216259,  6.785907089520226, 44.695593353369482,  4.207187427161021
 0.559757589019673,  0.891448375291081,  0.315668042236187,  4.228510969650041
 7.686034256651072,  5.862421660299561, 15.317463928195096,  4.231252794634895
 2.675211866597078, 10.878917738290781, 71.633212499996944,  4.358288211409067
 2.653000935091899,  6.081523320613007, 57.047958371635417,  4.230813568129201
 5.200889020997268,  1.028429237031645, 35.222957181082307,  4.117298565806816
 5.348955083728273,  5.490452133419839,  4.563809108130883,  3.904967417107476
 7.269903841511256,  5.011910110536590, 57.755902395344272,  3.987831972707815
 8.399392871544238,  0.891293545037385, 74.204742910250971,  3.802128179891928
10.862088831419827, 11.478410698741223, 57.715320794764480,  4.110028720076039
 9.839230639145146,  6.384500592234763, 42.815141336417568,  4.455536484303119
 1.149094060670804,  6.663742228719844, 35.081992545720226,  3.947323206454881
 5.216580848197218, 10.240438872609168,  9.848473473395613,  3.787696281947945
 1.641607944571644,  1.004669713224122, 68.091329543197773,  4.054815738271665
 8.864891403673349,  5.404467060189413, 54.111337319994810,  3.885856115674853
 7.424425893487401,  2.531737838414469, 43.962380621268821,  3.815193269186830
 5.042099421229984,  2.139902563430282, 72.761548021322795,  3.888098062595369
 5.316813816243379,  9.704112893889503, 21.401983388670111,  4.409120425500102
 0.603987100081953,  8.464905683079889, 40.323450712341270,  3.975428880950804
 6.920507956566023,  9.209689642875635,  4.261478815058696,  4.078090100515483
10.756579136586017, 11.079187231073965, 26.678222139532849,  3.737461030797844
 4.590230672010194,  8.300198490234930, 69.239070330676270,  3.641499728427121
 6.102067475548004,  4.543554530575315, 11.865862011627959,  3.806045488554082
10.769682661364266,  7.468363620423871,  6.865519485771378,  4.166938983237684
 6.538993842186352,  4.237797236839883,  1.066472593973875,  3.703900673324727
 2.275991964854185,  9.620339981159395, 59.321851527393250,  3.959706045532921
 4.942580346731370,  3.729640958817195, 47.098208739242118,  3.819209895736138
 0.328419919180154,  6.282482557816146, 60.463132679826707,  4.039200854525783
11.290402533455449,  2.517694512555510, 43.905497689470423,  3.903887413528909
 2.720542980362281,  9.942964299045872,  3.674813882614306,  3.853255242071547
 2.996588769460862,  1.167737522388554,  9.219660559867927,  3.523485701463745
11.163783413630904,  2.637452733525619,  3.706306050068457,  3.842560383081663
 4.036346768411629,  0.580197453937467, 12.817740271177584,  4.033638679367354
 5.961761381706534,  3.174767560219602, 61.995634320351400,  3.964337909124304
 7.474335976886539,  9.126912332502194, 58.485991651358262,  4.276763963261957
 9.015018915800049,  8.257108766304212, 18.495965782553359,  4.154626257303747
 6.847584845697837,  7.392226212101972,  7.793817748534098,  3.861455610926928
11.125995877800859,  0.283790209907293, 16.808643250876308,  3.993422537003991
 7.837403784368051,  1.293112638838428, 10.453578008561205,  4.077845206863738
 0.541029889364907,  7.557272024310921, 12.513230608327822,  4.005090358850214
11.525329108133402,  0.868278470806287, 53.576353010704537,  4.176388253436890
 7.184794883981068,  5.784451250897490, 68.201650404925104,  3.870976382843109
 3.954505577111801,  1.344620945091038, 25.648823509540879,  3.985710388563420
 3.293058393772305,  7.809509372549456,  6.692510959456348,  3.610285100342744
 3.171316761273950,  2.539508657424761, 38.243496403997845,  3.689679955440169
 8.240464984978871,  3.844537287955103, 65.058617439842848,  3.775151471796446
10.529374180475671,  7.061087260423180, 64.631467147996261,  4.165328369692070
 9.031252998645993,  4.855618549308727, 46.745744481852228,  4.113919752932993
 1.789619564621475, 10.016259690338051, 24.061817100455237,  4.431526989368137
 7.854685217662809,  1.167290242863376, 51.526871848848351,  4.246192179271841
 9.102660350992675,  5.911615190635120,  3.510240299903335,  3.905004855360387
 5.795379597219275, 10.305772388546716, 17.184235560995472,  3.889796092091707
 8.426518542951159,  3.412186401403508, 71.104235560733684,  4.015475760297109
 2.449937164978218,  6.687504099338833, 31.302775907734901,  3.949605450804905
 3.624187599751654,  5.974099593161646, 14.542917320968243,  4.019791072064527
11.597146171540068, 10.808046223730658, 65.419702378064059,  3.761734551109724
 7.906907315866655, 11.882182516994289, 64.655605865758133,  4.066491805771318
 2.839001626547912,  4.415970746764054, 50.467747626061183,  3.757450811696660
 6.804340323476290, 10.090007322762736, 71.832029505752587,  4.056206460613708
 1.193091038811099,  0.537731745210917, 40.945590679346374,  4.082250018335062
11.132900964399321,  5.563888473318228, 68.416111367562962,  4.046026664151129
 5.560737296971396,  0.343120857137043, 40.636901357865611,  4.174556076353869
 8.780797773911557,  0.849233447001829, 36.907892671272791,  3.795645520565241
 5.811772321569285, 11.391882044691798, 31.448945583865882,  4.127630154932583
 6.892655319642030,  9.125371272481081, 36.506181720047124,  4.453786776986512
 1.387495301002536,  6.031389427161938,  3.784737161684299,  4.171260171372872
 1.985952422073487,  5.511451811586973, 44.415122938110876,  4.114405852597697
 5.775045333384798,  1.017122145303645, 58.611470418653312,  4.061959825119109
 4.836060060582115,  6.651684794284514, 60.458247286530678,  3.944580012037248
 5.866707193800716,  7.523104562159867, 55.165844451128883,  3.751004992387949
 3.884815806805431,  4.053134996455787, 69.405525615022228,  3.954392110299886
 9.466632021506129,  0.846757932723602, 30.047984411565512,  4.168815120271145
 2.172804902273691,  0.769234951103304, 62.989644676506245,  4.155360608263588
