BANDS
8 8
NANOPARTICLES
cell(1), 11.906
cell(2), 11.906
cell(3), 74.413
 5.185717784685750,  8.982755770889053, 45.705773280141784,  4.012127154312999
 9.070728842030039,  2.172042666466565, 71.773064522734444,  4.104529934669289
 2.552581480120075,  5.503095958448376, 16.116192427048137,  3.913182494983222
 1.841467691974978,  3.862640647169874, 30.356881894467246,  4.051945990371019
10.816001185344051,  7.138448934659828, 62.126327054001663,  4.081948282580776
 8.611392705506734,  8.129153827715498, 39.547732578669752,  3.736455477702079
 9.273520936809318,  8.563703241037642, 34.994082722578881,  3.754247554120263
 7.051803791316027,  6.106672361331624,  8.167486645966633,  4.237913785020745
 0.870558089985225,  1.078636597681360, 52.061386599702828,  3.922919034714361
 3.010876105514153,  9.523574011065184, 26.149180377718132,  4.456887897755748
 4.301543862446793,  6.072756218183693, 53.980482101095937,  4.180579565633202
 7.090344389669757,  2.878070825077216, 19.950406661277732,  4.261627730819314
 8.520289629592455, 11.138704986428431, 44.765828147884847,  4.138807534594985
 8.642780339401726,  7.439903538783437, 55.539419427626392,  4.113553811025005
 7.586407645231372, 10.093405112893995, 48.792702263073650,  4.078302717604585
 8.504844483500984,  7.071995898946472, 21.231536382511450,  4.153022625600019
 0.446736514828190, 10.489857652033841, 33.998226262902001,  3.777632153167675
 4.637539860344705,  4.993356708531910, 44.676530313387843,  4.124278136886013
 7.290266663950599,  7.565521791159767, 59.549117646995839,  4.351044164628117
 0.640569561447523,  3.121987307503705, 34.613238961900244,  4.032038535605255
 1.149978576560865, 11.777654634524145, 55.977236091330560,  4.138133049686263
 9.792983508948073,  4.330029421146927, 30.139673707956966,  3.781358080112062
10.100662340503666,  9.591907102208603, 30.682057909941737,  3.783436878528325
 4.630550850810218,  7.900117599688114, 50.373605119270977,  3.930348217807935
 0.781957873640746,  7.800095774760639, 56.014664259503633,  3.847198161743123
 5.125686343686084,  0.441418727930967, 23.460467913868936,  3.917839398220504
 9.025448544440446,  7.606282832805678, 69.212838640334638,  3.880243626268710
 3.439904136426615,  7.964656558117855, 38.875292910631217,  4.285725479850258
 8.181176192408920,  6.981927686232589, 43.668601598628875,  4.242590405912074
 5.542957757921723,  0.520744783491692, 73.611307542744143,  3.499271208577605
 5.881268686181645,  4.187275530274506, 24.036716167063506,  3.790275597690690
 9.478237081240795,  3.484094945694977,  0.926982297434556,  3.540263376201970
 8.691840649320516,  9.916992910152921,  9.219463069348189,  4.124128099791220
 5.534540020034194,  8.502683840285876, 73.474249135737651,  4.027162356894816
 5.322017768494259,  1.652284870044858, 39.618076879626635,  3.977003634018638
 0.062026177216665,  5.213409854287248, 44.524535341603915,  4.084947948228964
 0.894643718123261,  3.771004516591048, 61.291425884959992,  3.877465786250589
 3.453616029121076, 10.382229768013548,  2.083178049932191,  4.186363168858666
10.896613164182616,  9.803341874249773, 53.262620193257106,  3.843484309405544
 7.934228438625726,  7.810481925286499,  2.101882053925828,  3.838763524517109
 9.080679307409063,  0.601075979035978, 51.410901883321060,  3.637781745443153
 6.605873127308149,  4.469645111145560, 69.457408041880896,  4.048204420791479
 4.752265792564424,  7.701580271374557, 22.735440988266841,  4.028327112264822
 2.190044862632285,  7.343418017303869, 59.689756844621073,  4.069459332049467
10.521618066546102, 10.149893929853590, 65.960524634376384,  4.258141058538927
 9.429042565270409,  5.862173572722465, 25.204099845610909,  4.351141770838880
 6.931282743262456,  7.318824877999931, 32.316931476022347,  3.684760682840415
 9.344330516270796, 11.309165258703819, 21.266064577040837,  4.116474661774481
 4.069930811512565,  2.431488478269441,  1.992140743695938,  3.820462401168059
 0.439116836087870,  2.464118199674625,  3.035524075641716,  3.710348318320349
10.956321159069072, 10.685467615288234, 70.644838419353448,  3.929502940824079
 9.625844691911162,  0.659100929795485, 35.804677190799573,  3.969285903648919
 9.188556873400024,  0.679136417365003, 28.520195428278086,  3.820063205417791
 7.663637436764408,  2.822921611720448, 43.041687131395918,  4.008506632969629
 1.536627464485768,  9.700226764667779,  8.781773892348356,  4.278071057314099
10.317520245596238,  2.030216694329304, 64.081340510060940,  4.204366470310092
10.947828603755546,  6.397309929330438,  9.902057853528094,  4.297318614654699
 5.228772074550547,  7.999200979788860, 67.812639059491858,  4.207334873135938
 3.427756030008882,  8.237462588476506, 30.731692970257487,  4.182074535202764
 2.533794173357733,  8.971941960025685, 17.581636685194368,  3.608617402568029
10.864754464547554,  9.671218867997453, 58.960718030966348,  4.023570284801369
 2.161167323561619,  8.733904823006760, 13.819741984943260,  3.965008549492786
 6.999063658539765,  3.674718646854606, 27.642220650836169,  3.803839010443917
 3.299154184885253, 11.879549314875044, 11.935482242625158,  3.706803219188058
11.110357199198685,  5.891660028512396, 37.053278795708792,  3.885504184101100
10.398871028295988,  5.024754843423326, 40.864605106050860,  3.886249650896202
 0.870227376525440,  9.532717062446768, 49.838384287899977,  3.985752056686287
 7.242471818402076,  7.879117666725510, 28.361637770938540,  4.321382090629443
 3.358788471774151,  6.392339292015121, 70.987580593153496,  3.809065964986315
 4.010298499663606,  5.093778989916901, 33.555971262260684,  4.055959725103046
 7.195669038374414,  2.261307830275340,  6.936590798923832,  3.834257192764407
 2.775942567752131, 10.558247328474136, 65.882161757363306,  3.851098934033547
 8.788699814593294,  5.529174074438836, 16.975817603686746,  4.379395564950659
 3.549894498219802,  0.583884309316926, 59.485829819535155,  4.315187106784541
 4.829769447704474,  1.132615909585136, 67.890070659073373,  3.698070631896292
 6.430539037568235, 10.424097128568864, 37.158456448896871,  4.180220902522440
 3.062654987483158,  4.397182041285313, 67.803903690138711,  3.727181179587959
10.590126815567729,  5.410574968986608, 66.360557507588695,  3.967172773874276
11.716664040889407,  9.769304267968835, 37.817118108496672,  4.088837378476356
 0.264175216908639, 11.311267277223738, 15.928658505539357,  3.698802721790414
 4.155580969146293,  1.203422203376872, 43.623243871792731,  3.797452380516444
 7.099509283299019, 11.355937249255483, 12.748452339058490,  4.127966287847339
10.745549566829176,  1.719666455949532, 58.696920259601214,  3.897439846071125
11.078460017872338,  9.406179820511051, 42.230028528813015,  3.841678269446783
 8.348507577736713,  4.654288483010317,  4.207084550822989,  3.778121113148931
 5.733193535990612,  2.991672144689681, 10.801671708981400,  4.294428578705307
 8.356564655429979,  3.456541518098192, 38.087925939269290,  3.684816678034392
 8.670294644248342,  4.008343358648967, 61.005887764821743,  3.816231525327843
 1.185473081881953,  7.858356845390743, 68.131488840498051,  3.848284406470469
 8.578022332362444, 10.601162468703587, 62.244804299911856,  4.164333968619141
 9.794221989194011,  2.379449182336161,  9.916379116956408,  4.061981545686510
 2.938333388177477, 10.364910412902384, 70.484173854812511,  3.869212612822507
 4.798990024380725,  4.812440729301919, 61.687060321839802,  4.208099570622659
11.492978598993441,  5.925855504339467, 13.809349863953971,  3.646308836625904
 7.255907357937989,  6.093487207325825, 47.635525652020213,  4.076584582901257
 8.513228316774313,  0.046178141159403, 17.193534112618366,  4.138636683538247
10.508076274778581,  1.159450845025122, 32.001283150574402,  3.667269070056193
 2.831789207873001,  0.174724500163770, 36.762680954839091,  3.767489531052294
11.810820273990796,  3.044845753945871, 27.005498815116283,  3.859682990708125
 9.495340655551963,  8.927594768719578, 14.788609365405593,  3.820843608098313
 6.474717023226670,  3.594732985658454, 57.559849627634975,  4.388397759828621
10.560156478131168,  8.254051204944693, 46.778208165866069,  3.990440868031129
 4.285788755323876, 11.870557696983431, 15.726136367011131,  4.110347191398103
 4.942945777687969,  8.338649400763245, 10.956318935074281,  4.056743856530983
 6.151768651787865,  5.386844096008877, 40.473028546768994,  3.851109593716368
 0.929328056595200,  4.528334817799527, 73.832934400396084,  3.671424738161884
 2.460185435093229,  2.340212973496182, 64.600301097229689,  3.981384323507601
11.348230904333338, 11.198399437690766, 12.105735187187486,  4.118519770123753
 0.833276798594293, 10.958325675464554, 62.382306600061113,  4.190808474172385
 2.171256335975859,  6.398482258337496, 64.529273660804805,  4.152266175585016
 9.976213295328128,  7.966830009872878,  5.819920353884017,  4.122396214802444
 6.569339345004846, 10.103953688023928, 53.128675059857706,  4.116581911943006
10.772536664587930,  3.645628305424848, 21.835824822456978,  4.148148956042998
 3.600987318402272,  2.195633580927727, 26.531248390958101,  3.782850788035173
 6.923362217363167, 10.828598747136370, 70.398697116178127,  4.155236230359794
 6.696054757646546, 10.911713894346299, 65.604864788837418,  3.555518752934771
 4.574804828220645,  4.627726098740424,  5.206513624745477,  4.028020462300445
 5.746465806895251,  8.178550023706142, 15.281652714598035,  3.837931852577940
 0.052607409361870,  2.363023752820461, 38.435404448511093,  3.844905686696086
 2.613873932081417,  7.863091492379710, 42.849275085330270,  3.792272778732609
 8.844701612319289, 10.702061515559874, 73.991798048308823,  3.984317576789004
 2.900049153242723,  5.832195838180062,  8.603670970079378,  3.920437423295736
 8.725901473716325,  7.079435124597748, 51.330703388949175,  4.114856001576649
 2.908039545166850,  4.220851539243363, 50.491017345036582,  4.197017744583092
 1.313014034792494,  6.206044674448088, 19.859758637903553,  3.960109847464128
 7.722377910864447,  9.613599260740092, 24.625141701121713,  3.972206091783306
 2.318289370591369,  6.784450588327814, 47.416951872874684,  3.890709310324349
 9.203689465301586,  0.819783049014217, 55.201644951133069,  3.944580837061299
 5.745249789539011,  3.600442537580307, 14.944874603389055,  3.876764711075769
 4.431936532791691,  1.729578532058345, 54.048712943061645,  4.331261294829077
11.318889222901017, 10.097149971507871,  2.638599578758290,  3.976905733438400
 1.243655266239893, 11.158838676992437, 20.225007216065617,  3.712235146211053
 7.647452508545135,  0.719673365813785,  3.130721302914667,  4.420182819717531
 5.339924851657057, 11.621233683432008, 29.141524551785171,  4.208873063035401
 5.999368566958302,  2.144502577360491, 35.407067768449274,  3.907150031315098
 7.430115750218564, 11.583064766248560, 58.504236692469583,  3.888543928981862
 0.071865364887142,  6.732124751916258, 32.730155415202375,  4.189236076571712
10.972863708679466, 10.177759085103487, 26.408545906826568,  3.508406746145794
 2.066176681604794,  3.959657192139184, 57.053770703589635,  4.512593792811450
 2.386535485402182,  3.975423536452515, 41.308713247257543,  4.227382772823994
 5.620216070280931,  1.160599784550439, 62.841807751184128,  3.625620720420967
 8.714479080925452,  1.485449042260796, 67.805604817608696,  3.968943559647239
 2.056305982674102,  7.718933175859667,  5.200823944085001,  3.942694482217458
 4.051618977446830,  0.241310941717841, 49.614712279110016,  4.259812701542186
 5.848562424482073,  9.980448433015413, 41.755092434515134,  4.228735416940554
 6.355834905282213,  1.987671280818283, 46.615131491718550,  3.775904852456486
 0.113475853471071,  8.546408963093089, 23.031493019149686,  4.276734880441992
 7.200176901649257, 11.182243499561661, 32.859214571627831,  4.131092218715539
 2.000726824702553,  4.955261243298190, 24.185230705853598,  4.105438652514680
 5.116442393938578, 11.522186502011905,  8.694410913862400,  3.757393127741016
 4.508054928692064,  9.315461941937730, 56.722614565633968,  4.314869498797671
 6.441390373886225,  6.388124806521737, 36.496256071520129,  3.991668165829641
 3.389534725194230,  0.844372179944911, 32.644225778207918,  4.120570341799795
 2.188858041643848,  2.581097322692576, 46.795166208935370,  3.951030052655785
 0.171855054924364,  7.048500569393731, 28.344282125092683,  4.170312562522974
11.458861442048029,  1.476037072871452, 43.007140106586533,  4.045458506762947
 2.725493527406288,  9.592538503421579, 53.173095619045867,  3.638041733123270
11.709783447389002,  4.850522326106668, 53.354481268636967,  4.329273891565504
 3.863676521798532,  5.791697448126263, 27.632512710208676,  3.752367277439038
 1.617514303583201,  2.371223848538656, 14.189754175849147,  3.672687953234085
10.675661907974440,  5.811545446687677, 58.477256589108315,  3.567773398361798
 3.183160055835461,  2.400060772009999, 71.232866486641839,  4.168451365570352
 0.006120306741799,  4.461066092833204,  6.312709764137922,  3.942227338414303
 1.147552052030202, 11.861052577160535, 29.264740704719358,  4.176950658247966
 7.708357251415293,  7.456931581697924, 64.625471075709854,  3.905486910216973
 9.581297290965678,  2.523456759792365, 14.033205469201667,  4.169822678940666
11.837742483293907,  4.664115588762811, 70.099493823560820,  4.055234069952065
 6.728314731143406,  3.165717525713545, 50.173831897573287,  3.744429098520515
 8.839131110661475,  4.455176880794767, 33.971814571288675,  3.947849017179390
 3.010023343447506,  2.685393479396665, 20.884222910555980,  4.118728750305081
 1.243002657798778,  8.500170347192666, 73.560891867553053,  4.067043801076899
10.733041554469173,  8.861556876768173, 18.422575161767949,  3.857157799600028
 1.826659296644698,  2.070181887866034,  9.076560515437951,  3.954750997665450
 5.449030137225066, 10.553016031389607, 19.762698058073585,  4.326695756374285
 3.461189075812285,  6.295040707694813,  1.716380955850726,  4.020880430316867
 4.641401401794027,  9.150583764813943, 62.540904068728800,  4.244469379225430
 2.882428827946630,  5.293148204793750, 12.350880443212370,  3.647645993669721
11.000164408431004,  4.681055566813732, 48.761321241122978,  4.228491696654610
 0.968344628365512,  0.701619430307971, 23.910155728002348,  4.189064450778089
 8.725040365600028,  1.585196557956463, 24.723060834108434,  4.038152033498380
 7.735334976777521,  4.064365459860797, 53.691751735820830,  3.789164906277834
 6.126837226928200,  3.882378853890857, 65.498089578173904,  4.009755165914407
 6.056880331634700,  4.414268897249206, 73.543510951703638,  4.196499446611567
 9.547169359627246,  6.616007165241596, 73.053241138024234,  4.112429402055425
 5.186243069975339,  6.468745102555266, 18.922465712151666,  4.021983013704480
 5.932354385425462,  9.250971788904781,  5.404143502920317,  4.402118113551690
 6.486929425777319,  2.880746596827335, 31.305114247540608,  3.747659631977334
 0.084796270041026,  2.823186738770717, 17.918789646703022,  4.214147307477885
 3.298171824047729,  4.170197329235872, 37.357755385209821,  3.890781840414893
 3.694176790692390,  8.787219987024383, 34.807250643212491,  3.667758409060168
 1.535335555978516, 10.719527003803590, 45.368265870537044,  4.098183215178508
 2.127659611889639, 11.444982306113777, 40.641423729699845,  3.949236484315755
 0.804152853527133,  1.260605816958501, 68.078794838000306,  4.020559377756479
 7.831571625504353,  6.072730995564802, 12.660035678503435,  4.034384411757238
 3.184026109020289,  0.807229289775659,  5.494861851428017,  4.088440945646988
11.497617375579006,  6.150897392195688,  2.575642511834322,  3.909072475817443
10.782350431258786,  0.592190044983953, 47.934508930172271,  4.101337905900948
10.862033638359657,  0.352448515719312,  6.279089817344470,  4.535190955138043
 9.051004598697098,  0.106529860645393, 39.996000999644330,  4.127993815795620
 0.573095030484380,  0.633133644882838, 73.966027898289596,  4.154758379648807
