BANDS
8 8
NANOPARTICLES
cell(1), 11.876
cell(2), 11.876
cell(3), 74.223
 8.785207708657721,  8.951284817151198,  8.643891620377419,  3.984669511591215
 6.728896265332819,  5.934730874424132,  1.846718190571652,  4.235825118739535
 3.506694260745507,  2.370431648098752, 41.046198476649472,  3.976555771716950
 7.015430801058912,  4.335609501040976, 42.210193534940259,  4.312018940144699
 4.764727362674853,  8.116274270454097, 73.098662540775265,  4.108265548045454
 3.960915425904815,  7.217357613009120, 35.498924054418119,  4.135734535446253
11.796667855959873, 10.459555764758482, 18.197487601333489,  3.881347081638312
 1.280409466470882,  4.351885948869727, 38.274393375333410,  4.158878569861067
 6.943385827031322,  8.598579214422912, 41.549689975185736,  4.293178667474685
 8.039839342336421,  2.728121073991224, 58.036708910834413,  4.337128850970264
 9.503993598208138,  9.903194725954561, 33.534040290782464,  3.783272357574210
11.815551249642047,  2.356850103759573, 65.492026850669973,  4.360873194796002
 8.537857127914309, 11.773824426149602, 64.480666860879666,  3.890808344473115
 2.509235183990162,  8.802928016709600,  7.354065607723723,  3.834679935400325
 4.418513315334689, 11.194096659398317, 24.348630080046657,  4.047200996735408
 0.978201186636793,  2.630429959874011,  8.031117344910948,  4.111003953935092
11.297612646064669,  6.288872880623705,  6.804411888309889,  4.202943821766798
 1.826657102737807,  9.911504952810359, 15.087704070493213,  3.493326789970507
 7.009103351790570,  5.816342260028549,  5.841488319027117,  3.744197327547226
 8.631713670936021,  3.084276598320970, 18.407847260925230,  3.846636900420562
10.285256425586592,  8.309697448352017, 47.808088242220670,  3.778384223161995
11.733229084121030,  7.549910458658241, 36.272763988322090,  3.884583597046670
 9.907856531226702,  0.448599395554292, 48.145492611134266,  4.077439333737010
 7.133108957168896,  5.074563449157117, 21.614266174293036,  4.023748746676352
10.105885503080792,  1.432022204586691, 27.840390805663770,  3.603945128462442
11.710709471732613,  2.545630463878953, 70.040700714114195,  3.889425888970076
 1.989073462203266,  7.544306933846733, 48.819452966214904,  3.806374804492345
 8.819627683410804,  7.845919254668098, 63.842659297322662,  4.056595313283026
 5.652363149358806,  2.145253797705604, 66.213280165794458,  4.165655798849335
 2.100234801610296,  1.454222368302674, 28.422777805168344,  3.780161335142905
11.294200458934437,  6.411198912988198, 70.072037597226412,  3.791596725802583
 7.149981323034177, 11.468016559870481,  5.897973510714574,  3.981540004476948
10.290108059559364,  4.546413692544128, 54.626757942436896,  4.373599543833437
10.123684189006953,  0.477572285087747, 21.346057637421534,  4.185858763921347
 2.436066712272468,  1.284768067238158, 33.389999328759515,  3.932381256289376
 4.967267897987007,  8.638628990439500,  4.288997952896090,  3.853204056459395
 6.470327864675236,  1.575134079562506, 61.567007047438473,  3.715346946314325
 4.265253775625667,  5.061908291300592, 28.171051531583988,  4.236198593847265
 8.677043295453919,  5.070899713061725,  9.513594048173866,  3.705534273935656
 0.852828450518771,  9.112518615158809, 57.879131907152832,  4.202303907662507
 2.865144190127184,  2.102133239051190, 55.723516229968766,  3.878369609554720
 8.187314487683214,  2.765755604549538, 51.237324242039143,  4.350423564684869
 7.734145921795681, 11.142605487054885, 30.321137258136062,  3.887740833971691
 9.238820890738621,  6.053929172510143, 39.049122785969764,  4.139794383755794
10.920159996317173,  4.387314538273640, 21.115703896668627,  3.680321520621501
 8.798585524388944,  0.587318863902448, 68.291434793430355,  3.855472848121710
 1.991936713654713,  0.887448968450981, 48.782112266751113,  3.981257995922660
 8.843823327099045,  0.626952383620856, 72.346917760925038,  4.256377026668278
 6.935947074211843,  0.629302608389989, 40.626612631204502,  3.729794708247958
11.029451758545850,  0.536752748212712, 55.925997918270568,  4.184142274498471
 2.949216207219685,  4.312032936548650, 11.000186719654641,  3.756291100301669
 5.217069408547137, 11.080712165397358, 10.016209836942219,  4.582004201707256
 7.187344182907330,  0.316247289174147, 54.489941406033452,  4.030824868071912
 3.183810726814601,  5.441723582196805,  5.560512461498751,  3.891009118251390
 9.193047640400865,  6.836079365959193, 51.267575748466641,  4.033804656129638
 4.782362974658509,  3.847477694780640, 18.580271871561479,  3.992372577496761
 8.975956179983278,  1.198186244012649,  9.130448358803728,  4.100102859886714
 6.117140243129466,  7.529654776843731, 31.384820599373775,  4.298111518426325
 5.664718803196135, 10.823160688225716, 34.228365488837348,  4.213109629118989
11.682805689708788,  6.863247173654709, 10.700085558309254,  3.681831780414830
 8.179119689726196,  2.133141867628981, 24.594607055677532,  4.072743854016757
 6.060265617774480,  4.240004318159881, 54.625618163200635,  4.106359879092047
 5.991957435651044,  6.833390261318913, 69.497152800418490,  3.653586914805973
 9.552776288288284,  8.261772221550425, 20.740092231619169,  4.161862217372539
 0.151294355880785, 10.113824943134583, 65.836395908425999,  3.914000833358615
 5.511534154224747,  8.866997807249518, 21.063924603137270,  3.985841186036043
 8.141170602481322,  9.838039406993746, 37.592922463564960,  4.255496364915373
 4.859629777892185,  5.342140237429440, 51.023795771078369,  3.794662555145852
 3.162638411102253,  7.997442793702612, 12.168808397483453,  3.976122085388627
 9.456547189787324,  1.332137153476767, 43.430095803531003,  3.801903634137334
 5.738538110739246,  8.197904451297269, 53.584364623198312,  4.063527882290447
 6.523273464303610,  2.908400155216662, 11.964037376920214,  4.120159407597252
 6.109699539153035,  1.225502357285880, 21.260954060148077,  3.955807104585846
11.498233066869119,  6.227073462360194, 17.832510525797439,  3.931677855241837
 3.677481168158782,  4.274643289970266, 47.437919828845992,  4.040094360880741
 7.899858043542420, 10.524197354632795, 51.017535574984969,  3.783697105143689
 5.598713625150955,  2.724577969211751,  4.078009653527188,  3.896008575908562
 6.414080506712744,  7.070827217262881, 57.370531718696554,  3.801776744304754
 8.838824230821791, 10.558218972081001, 58.910539029363051,  4.087876101394158
 5.049658858397504,  1.574384869173279, 44.714455546402469,  4.104104399543380
 8.967424298246403,  8.534876675279529, 67.798172186875846,  3.976701161160303
11.296700879853569, 11.104563187490317,  6.228796983841701,  4.187017706157330
 0.736632438494368,  5.717051915388168, 14.105917294958832,  3.714345238826894
 3.333460401182528,  7.633957358035973, 17.781802403068010,  3.971015375799936
 7.114795317355090,  6.147830917386483, 25.461645943176784,  3.916210734805275
 3.042195563838383,  0.052649958199727, 63.590104505027895,  4.247959345076253
 6.047224069244602,  3.000192107021785, 70.274819614475703,  4.168286199238069
 3.278099036347519,  6.443582942038075, 41.394885250633351,  4.210916048991857
10.800681924372062,  5.341183164398049,  2.567696690307721,  3.875683612024509
 0.042335497416124, 10.584900810531096, 45.053369041972964,  4.056824445748977
 2.866307791042296,  5.946858408149749, 56.340476991964294,  3.907469630741389
10.237696187694096,  0.546496787209523, 15.085405164570279,  3.970171755760640
 0.240376858167029,  3.704850277781988, 58.337306688160844,  4.061746847057420
 3.059608605871638,  1.138084918271693, 13.296236894831450,  4.079036798376281
 1.227606046292747,  2.560130685705219,  3.950252275920908,  3.781506827859081
 0.228645221503261,  2.745581424161203, 24.315123899662847,  3.885357601204025
 5.489735003373530,  9.899420068641890, 66.286958328268398,  4.082492511882009
 5.787489224977196,  1.127045390506189, 27.568227685496620,  3.809692090428145
 0.592419803040157,  2.650723699924780, 45.484421044846599,  3.949013802890629
 4.776434002253645, 10.827439144402543, 57.656022110982939,  4.371975292529740
 1.439659321960296,  9.354524195250667, 33.178558799608801,  3.937402020800490
 9.032889893978073,  4.753765615349530, 72.828143731672540,  4.059870800928361
 1.366867246943613,  2.785539930086971, 16.657924435671379,  4.126148345620628
 3.187129202042113,  6.969691885042121, 60.290289569043146,  3.759799353328965
 1.383901499868855,  6.626325482750988, 45.065292544464675,  4.014321448072005
 2.693888302406382,  5.380970833600066,  1.719011934416244,  3.842903277499206
 6.438043833749269,  7.886549065009148, 48.474728084779251,  4.063785124295513
11.560933327360569,  4.501921399147578, 42.054817662099282,  4.046309072538881
 5.287998641423052,  6.903370064543399, 44.840024336389817,  3.808822812968497
 0.002520130752077, 11.604248801140471, 36.176193864922304,  4.088124473698344
11.558525290429682, 10.996112797473723, 30.236807132222001,  3.660974654874449
 8.841635993612163,  4.505405845900765, 67.699749728175462,  4.002196275195558
 2.946489370190166, 11.477221922815865,  2.225375956544654,  3.875085293726058
 1.798042647610049,  0.512249263675079, 59.852531700295948,  3.656189639501384
 0.603666561124026, 10.921203174577892, 10.438496124358542,  4.527299788005743
 5.895122411211396,  0.728514251038300, 48.513315871624556,  3.845691425709309
 8.734205320806064, 10.584614210740035, 12.101192512444401,  3.649883881058156
 5.615297680873145,  9.914818486417722, 14.706163047482134,  4.046936244410539
 2.646150591303315,  4.854742461083891, 71.753300530094378,  4.121585159774169
11.412963444786024,  8.715128242291259, 41.416331486803060,  4.177673235885237
 4.922705338201074,  2.429632952954209,  0.071081716494197,  4.247809182655534
 0.147908808262884,  4.792280678356950, 27.722514463904755,  4.059331514886648
 7.764584831574171, 11.012981375770540, 18.101708165731818,  4.258270681058930
 8.381244101047871,  3.878126718360110, 63.869109239709616,  3.814468971064222
 6.724575735886218,  5.718866832327744, 60.938616501132998,  3.852580801490085
11.005775887788690, 11.171805003407572,  2.078687917419991,  3.680257042423667
 5.442577009161249,  4.657495514080665, 38.339608669586909,  4.065240881351754
 0.447913304247117, 10.730968495024632, 25.731887011442705,  4.393352190362389
 5.543628847917414,  9.089119501279676, 27.589388419977801,  3.984111508503716
 0.003619107823374,  6.327260068441104, 66.188064961939105,  3.695563165517732
 2.466212064875563,  9.391818064662500, 38.617872431119864,  4.033908624336642
 0.335492420048532,  1.772335749276108, 52.240830192370133,  3.881997860461294
11.705624253699197,  0.825221418540609, 40.164052386705926,  4.189200219643640
 2.140662364592577,  1.855848346273795, 20.920359994815470,  4.106339505322087
11.591580901990449,  4.261159213921204, 49.125501188646034,  4.184991837397694
 9.609617008690172,  8.222916996439601, 28.090826266589474,  4.358996099754919
11.548812431552767, 10.365206271665341, 70.158858020931859,  3.909399214864233
11.476933057072264,  3.988655448505172, 34.684864552697334,  3.799309131573812
 4.269201623672401,  1.636256651039756, 52.080148669748262,  3.975638550160276
 2.563503592257345,  0.326009464028770, 68.191610025185767,  3.987711078043167
 5.203939137176616,  2.468498705688250, 31.026522378251471,  3.693423456552308
 8.497199352127813,  1.817080592338480, 33.277028226489641,  4.058611430111993
10.316752983307952,  1.553245222177204, 61.358754658256267,  3.985905741361356
11.604227074853879,  2.782766479615468, 31.073452392927138,  3.797618160442201
11.378862691870129,  2.858254679874180, 11.882076735696062,  3.913970075844490
 1.117924694177313,  8.364932633615803,  3.738215491347439,  3.942198030028670
 0.010489960605659,  9.632913934059701, 61.886793690534347,  4.045895166972902
 2.851619770910875,  7.804158366346003, 64.066220926527180,  3.986227946210406
 8.515185513676505,  8.512449500239713, 71.729575015769740,  3.839417417279390
 4.246190501537926,  3.491020535678649, 24.177842150436458,  4.288922430789102
 3.215987615687724, 10.462898787599237, 42.483362854137511,  4.113778051679935
 9.427321789233188,  8.633989022444919, 55.342568807446924,  4.100883285235605
 2.700896859156050,  5.226831368450908, 32.099632659450116,  4.057694723037204
 2.530417869812480,  8.170947151675524, 68.466658121052163,  4.039092142628913
 3.734946785741739,  1.121300116829712, 37.206807860998907,  4.105832447903730
 5.393972386526626,  6.936869428137466,  9.112449329436412,  3.883214695263785
 2.989764806912873,  7.421358078703422, 24.934828350134541,  4.099166772726731
 9.046901123008823,  8.527161921164355,  4.020228149453308,  3.954250741999751
 1.499056887563801,  6.628675057710267, 52.621947175305301,  4.076841260925664
 2.583813573961625, 11.444455767797109, 72.552136960292771,  3.922107916527130
10.108411616101906,  8.472684795696793, 14.927759872543660,  3.909756080006691
 6.824281803135640, 10.711877265548178,  1.379658568963432,  4.198277976777722
 5.867514779915060,  9.568986591087683, 61.580714282163136,  4.138481618137841
 4.588799312655719,  5.235770507894303, 14.771831095170731,  4.120780462926674
 9.490625650227152,  2.843509172250755,  5.429004385240283,  4.044162235067270
 3.875223265466523,  4.062892837444302, 63.074176505896340,  3.995676891953729
 7.624820476217296, 10.316082058289696, 45.405537973255740,  4.102114868507327
10.899986644776025,  6.664755116313272, 24.287145009919538,  4.071186047293504
 8.557084426424641,  2.400619045670983,  1.690367158913012,  3.709044512678693
 5.248302887046004,  3.084619252512271,  8.052662091439156,  4.112632675137615
 1.609749794085368,  9.732899658758424, 21.757050802841469,  4.123440650446699
 4.076330098097628, 10.012464396259462, 50.639616778489582,  3.602171704586845
 8.741806930793748,  2.196990454180285, 37.413034248768128,  4.259435508239040
 3.383357989145358,  0.321375630811972,  6.007644986244646,  3.669734879684960
 9.092528205381319,  4.336297600268232, 14.739444529527436,  3.948024533648782
 0.278703803157718,  8.095565783137610, 73.799126430221420,  4.565534267703780
 7.358765626091157,  7.078001040968985, 12.496362373805555,  3.924500012816876
10.752976906839530,  6.597939195858921, 31.811768151186751,  4.068808731462164
 9.383439384598860,  6.881764530656210, 44.373307093745552,  3.874365289975843
 6.068162494072901,  1.747812144767053, 15.651634089085563,  3.652890310153463
 2.293961594431965, 10.344722714821899, 54.158067840362982,  4.115208371211920
 3.748657617998689, 10.069507915503431, 46.466777774988621,  3.939889650694171
 0.307657573954124,  2.477872954139739,  0.051846621563875,  4.223807597378171
 2.709271244145234,  4.299472790690295, 67.825229991784525,  3.778834876393326
11.844737761009613,  5.364403505169026, 62.224654115492385,  4.405462753914550
 8.315058563284344,  9.888239921555234, 24.384998626492745,  4.161960508556931
 2.581158277513966,  5.849268847534781, 21.240319103596779,  3.945613942105704
 4.132453413300156,  3.418080462422553, 59.177060171702074,  3.919421456626827
 5.897388476403573,  6.055351541232084, 65.698261828703934,  3.735479592177713
 9.782168500282806,  6.735725027994915, 58.983148251739969,  3.683817061658874
11.724071967168957,  9.979074655075172, 50.982656822131908,  3.931320842516071
 7.871423913013705,  4.006398585815178, 46.952295421336423,  4.418847825278615
 5.268164811527756,  3.609609833021516, 34.574598781850185,  3.757283531380874
 1.816594479273669,  8.246938087500915, 28.766081039973912,  3.874052684852745
 5.719268127462651, 10.805642390489723, 70.221671468038323,  3.993431931379105
 8.037001001535067,  6.431335384640777, 35.060772517060030,  4.207109806840328
 8.208077684630611,  4.419436852453784, 29.436141896736377,  4.144182741786028
 3.700159746540350, 11.587418853167494, 17.882381230906748,  3.956870325728711
 3.917942499272876, 10.858850813642935, 30.634171822557651,  3.773176243616132
 7.347998114137905,  6.843390202595676, 17.449293960574792,  4.212363092228435
