BANDS
8 8
NANOPARTICLES
cell(1), 11.909
cell(2), 11.909
cell(3), 74.429
 9.009863941098402,  4.806466393835441, 70.327029095472298,  4.186769704098748
 1.116897707789702,  2.995208516064023, 28.407905695055529,  4.054795612110461
 4.454785542702572,  8.829563842051645, 71.021610908308915,  3.549529091032631
 4.069994470129839,  2.760049224519873, 61.509802770426205,  3.902765816987164
 5.697139830740046,  1.890279566522783, 55.391970867754161,  4.037471892896760
 0.271265913569082, 10.545617452765612, 66.262073065212775,  4.120456335408134
 6.254004365023439,  6.817484794828138, 67.999857935500742,  4.039885201938630
 4.620105771547609,  3.617054528509736, 16.468790383445580,  4.244592288256456
 9.473773197583158, 11.428087340264822, 53.284239897930192,  3.956055047401805
 6.260400542714240,  1.896610651355819, 47.709784099128377,  4.074798491148780
 0.038795417089782,  9.540939662611766, 46.426232711802790,  3.949757464868768
10.492595046281474,  0.693600704282748, 26.155255953643309,  4.125480996775950
11.531666524054435,  3.721900290473328, 20.121392342653571,  3.641987630732738
 9.715703111313536,  1.469896384772623, 67.824077322326204,  4.008151384431279
 3.744690140751355,  4.636704436925990, 64.961263571715662,  3.972081300562955
 5.449946180335165, 10.852703270898351, 50.631945549654645,  3.947028954565857
 2.955142639428744,  9.829700729533538, 17.069693346468277,  3.834322028239113
 8.609320904561335, 11.530243692147687, 41.700082505540330,  3.777107485927586
11.194338438496064,  8.067161265662891, 73.870055054346125,  4.218959615827899
 6.587541422621773,  7.203821135818382, 12.508863816973758,  3.693970612856071
11.352024722237461,  7.863866585912215, 15.739403805670346,  3.881246629095104
 0.124860801191312, 11.765915046657451, 14.991526613130091,  4.178596540418954
 8.448578820992642,  4.226505254511564,  9.339659215726353,  4.132390861738727
10.053716320147798,  2.199710121924322,  6.156732294386756,  4.066234830231728
 4.599023144259139,  0.150180552330791, 22.777579394448686,  3.890604481284290
 1.511523695122389,  3.166080795517827, 67.986083387844246,  4.016525669971294
 1.637676546035987, 10.301138709596444, 24.737255527147127,  4.024638925916938
 2.887467959771526,  7.704727999124795, 13.689867987475631,  4.137509384040720
 9.811763192731522,  8.252885676702384, 30.410037221018964,  3.966585264407667
 1.454770488716485, 10.083107049585884, 20.710068135071843,  4.043448318044439
 0.535859493848465,  1.512386225974953, 60.039495483660147,  4.077794649821683
 5.313372394445281,  5.531561873954835, 49.535086447006371,  4.266795846686915
 5.584528073737998,  0.320659570375900, 18.874791849878513,  4.139851491923574
 7.224217850224316,  2.445462689490230, 51.652987669872594,  4.112290714636585
 0.356443090928023,  6.934097616191940, 64.078776943486048,  4.306331684476185
11.333040754938283,  4.751089220586284, 45.270893409841079,  3.929581257858888
 2.721155476845714,  7.880049023711436,  6.027653791052201,  4.204640655255913
 3.073560426118029,  2.086932413136298, 50.120756047162637,  3.926358468025644
 7.126797516064237, 10.538199382617996, 25.327576004328481,  3.905777992758575
 8.270874863866588,  0.143940952836466,  9.566278071798619,  4.045575179563691
 4.115954621849968,  8.882776422797836, 47.509344268566082,  3.903479707031309
 3.381976009218024,  0.125900867228815, 41.352498036616097,  3.954661496303334
 9.228311340960524,  4.542121845354442, 48.635709876046818,  4.003467458811040
 1.548175289164827,  0.093737202147639,  7.056329447702770,  3.944221915187374
 3.990465064206139,  1.595357800959979, 71.623219772707060,  3.742832673210497
 3.235887990147928, 11.330368528905334, 68.689918884671300,  3.671022083906384
 0.164431141582212,  9.730221535482666, 41.917939113549586,  4.040499782560982
 2.380351644296076,  3.401527614756258,  0.140537931159776,  3.729969879905931
 8.248562413598464,  2.768681636276882, 35.614641353761833,  3.626122471198919
 4.879054393497213,  5.185857498175685, 71.225612930950561,  3.693405344889913
 8.495376721444368,  1.785259963954420, 15.726121971563376,  3.705775738608430
 3.314502155785780,  8.420855391752001, 40.037664108586561,  3.737157913104115
 7.751348414930391,  5.592493499151428, 22.393415812093814,  4.006942021250565
 9.028881262345125, 11.401472047661841, 57.380256916828088,  4.271883630903739
 6.109349174780038,  1.989643901819476, 43.631923033984499,  4.061896103619807
 8.132519197073561,  8.162428274769413, 51.571937009988311,  3.847148354812822
 0.027221945292373,  1.282147589912522, 71.340022845907384,  4.224257633809623
 0.509446827767786, 10.343739203151276,  3.594223570554308,  4.008786581896943
 0.314741700574199,  2.704983286682885, 64.147288762264310,  4.053525767710786
10.648579556477872,  1.122122511790877, 31.695351662321361,  3.743207001491546
 2.581644764731566,  3.760292264997427, 12.938355854335171,  3.912636487692135
 7.774583902771207,  1.056708336178477, 71.267316461205851,  3.927028432215087
10.010306476434678,  8.553052148559443, 60.324920130319924,  4.006492231736575
11.643614508341885,  1.284294431273435, 39.769910345424307,  4.144429421508011
 8.861676754335431,  8.780598114859249,  2.712890868335695,  3.936363565925746
 0.244482374330183,  1.926694197803482, 35.377956557327138,  4.373326255107674
 9.881743843279299,  9.386337312521302, 12.280228453456548,  4.216199296658169
 2.505300609179760, 11.305041200266956, 37.650716802242670,  3.774860818716571
 2.527877604799443,  7.176007166400903, 44.163967653642999,  4.240118087663340
 6.262691602489753,  6.099156035332777, 62.122607350325453,  4.153733714504035
 0.733884872800188,  1.137179188589424, 56.145774590661112,  3.737359382313333
 3.248513913255400,  4.624511015206329, 25.321395046090469,  4.085554014354100
 4.456723352813279,  5.222042068257934,  2.879047040653743,  3.977422647781417
 5.764507283982439,  8.293438085226127, 30.901687246069070,  4.186615478848783
 7.056250066305924,  3.032573008764174, 25.504537710019740,  4.163611805353104
 1.012977631126343,  9.878512083034465, 58.130744503497056,  3.751534834488249
 2.988593647218330,  0.084765272495770, 45.334385207974321,  4.002126323823325
 6.958793221751234,  4.059309500564733, 58.592759646716701,  4.096265023576342
 4.258147462581763,  3.825296439312139, 21.011834036655578,  4.282411742427448
 8.138597588348304,  5.606098424400315, 15.687468450757835,  3.959957052523801
 5.328185783502958,  5.527374148963793, 33.889940148838924,  3.986073203201459
 1.750544591312823,  7.266174347815715, 31.292138093951092,  4.125918858233031
 0.482426315009993,  9.369225583935844, 54.515424414233919,  3.596170819162259
 3.103249766698712,  3.535956632127307, 57.834778002644960,  3.804637493351801
 3.229996025991044,  7.873837036228696, 52.264754884149959,  4.045220968149785
11.553453768357784,  1.239254063320218, 43.719761562715306,  3.753115353348920
 6.013565241475807,  9.759235726215525, 54.653295280044347,  4.200006701151424
 2.909402559042567, 11.859752447264009, 53.339560664534247,  3.738353779600263
 6.666070289024613,  7.156749388689900,  5.507232539841893,  3.877051357069380
 3.654792561214901,  1.005692571945376,  3.408227587167898,  4.105442840883442
 5.514352522499452,  5.558938139433200, 41.662725134319480,  4.173695844355561
11.733284577753242,  5.473134019756945, 57.803499579184610,  3.810725772549485
 9.025524359815117, 11.619206361185100, 49.416735555201043,  3.752439350073569
 3.692400517209514,  0.542119701940271, 64.961176914368679,  4.131328891087917
 7.240751600126928,  6.577518780615646, 74.101242612759805,  4.242569342433317
 8.706108720240403,  7.423404258219461, 35.271959426072662,  4.020108042602576
10.208914591344644,  7.403123724498036, 19.613356955998601,  4.244977526611833
10.625353214699564,  6.377062074708752,  6.378386684834115,  4.377259642328996
 4.702333358161233,  8.025566077715583, 23.420607253521752,  4.031945181178549
 9.237642419013852,  7.873470098144508, 44.063338041610628,  3.967806732630735
 7.759931370011483, 11.651312711967076, 29.230334578890073,  4.309095861881337
11.513275449727795,  9.810762627048986, 33.670373559077056,  4.003825399825820
 6.196217091509526,  5.671546966651985, 53.982127654780854,  4.091962692752649
 0.791703713681417,  3.657842339749587,  9.163075216919216,  4.443953990626617
 8.714690288022167,  4.717563636955822, 65.319060332633029,  4.361572477258896
 4.085624974868306,  8.549504421092777, 27.267804406860186,  3.826643042098012
 9.282225414041630,  7.645423570709372, 55.770835670867697,  3.886689911484958
 8.868677619213646,  7.861303174985301, 39.886570347759701,  4.414778988768206
 2.083624335716924,  6.240244830286704, 18.417034723894183,  4.024090526526564
 6.385903130055076,  1.353871089297896, 38.817848557732255,  4.270847013457451
 6.364503493393129,  8.147877315141127, 58.500794253347976,  4.166880447120945
 6.518155781061230,  3.361626418594289, 12.816892396022848,  3.999870997641783
 4.405229232892049,  9.589101663006263, 10.400621673954079,  4.017902242622544
 6.515832468450921,  5.433060521103107, 45.615269857049874,  3.920143212968832
 0.907129739241361, 10.794225935623269, 29.160189401596824,  4.287439680963338
 6.268764268896057,  2.486913515790369,  0.376720438155765,  4.273020984649651
 9.536954493219048,  3.431536164113526, 55.101966399001533,  4.256016707192125
 0.527856015087908,  5.989296505403074, 40.790736609504918,  3.806059125121640
11.788446282141187,  3.890059932622770, 15.928562470396757,  4.116253588073220
 4.194898710395274,  0.222121831684960, 31.188902470221350,  3.882417247878794
 7.962620009727626,  8.348526796269267, 47.731325040606968,  3.841629684310836
 7.670641623942671,  0.812432323997559, 64.485742805069918,  3.890152376998668
 8.422005902840109,  8.959820357422045, 70.798343860655365,  4.234761574990533
 1.134186136975265,  1.815992617058554, 22.928085348763108,  3.774826072107623
10.449633626157462,  4.928218992224255, 32.594944000006734,  4.084168743280386
 9.157758422768866,  1.604995686534371, 22.283095693014140,  4.032045145367737
 4.548499857551285,  5.724028493420311,  9.131374488486196,  4.120957921575990
10.718207027746592, 11.363673242036079, 62.786072582801353,  3.595247576216814
 7.576610363129213,  0.451712917241532,  3.623283839430957,  3.822531722512065
 7.612066204713233,  9.932212551808600, 21.492375153298610,  3.919603953559122
 5.664592497723979,  2.661803645674025, 68.087632450024415,  4.351630151526250
10.024853221133426,  4.602897510581677, 61.273415326613780,  4.117846732972376
 1.562822931943536,  5.850324650878579, 35.048587404674763,  3.909697201177201
 0.007405093859799,  1.577795132810067, 47.592227717762157,  4.016511610492992
 2.455513674207881,  3.866343614161279, 53.796276390776505,  4.196821405486733
 7.406710354145311,  9.756403519204891, 15.838154487967641,  4.467095265449158
 6.050085376517033,  7.122246957050407, 18.997313308676627,  4.179579389069140
11.283857433694406,  6.256640464526361, 52.750847594250999,  3.873565819045651
 9.130672243241632,  3.597492344724232, 28.916571055373147,  3.889825229474533
 1.226757587147466,  6.393397087956381, 22.313497031437208,  3.959300094692358
 5.463523980262471, 10.961648128152547,  6.702120356658884,  4.151010430513751
 7.761693071661498,  6.944741131280176, 27.100291837992742,  4.197546882017814
 0.478848856172033,  9.350038462872650, 70.261324058255823,  3.803729611928919
 3.074142585950309,  7.134768999860172, 56.247496912074801,  4.062007680323616
10.499974237922590,  4.846711572295378, 37.697622375627354,  3.653328143456956
 2.255642983987808, 11.084760669112041, 74.320258665543619,  4.290619595870318
 7.139600363928219,  2.593819628048206, 32.062224734637937,  3.817274854306456
 0.819794635522295, 10.521289674144445, 50.276889534444209,  4.141754538905996
 0.384396875174006,  8.235867071838207, 37.760461021133935,  3.680546817183530
10.096402307162906, 11.612858327657412, 18.716808244290526,  4.176945007003279
 1.038821570917043,  5.446822539860197, 71.237963066885968,  3.982603031620113
 4.515266522230831,  1.673591847618284,  9.742948990937782,  4.070295877026649
10.136946305306108,  8.320220801374274, 24.065608957806297,  3.974478591424190
 9.713570504385974,  0.012342639864553,  0.258477442954184,  4.197709061846584
 6.736352588344825, 10.679749706979258, 67.595486246237371,  3.778281707681894
 9.341209460278918, 10.248997761595167,  6.251541692952912,  3.784371661149648
 4.955929738569566,  4.485904911231879, 29.173085007628334,  4.320785732468787
11.222071975348868,  5.661716814332461, 12.477829268779686,  3.702075054832168
 8.642151678769881, 11.465781192625034, 45.538888705597721,  3.887002091510332
11.273344612847826,  2.546439324928671, 51.433875964748587,  3.993825890310679
 3.035587662358894,  3.875859151423244, 46.478030688802548,  3.879338887270806
 4.530211740833061,  1.639138808067563, 34.996153573093004,  4.243731321255769
 6.277582992916594, 10.235813422710605, 61.866250813458770,  3.754026808656356
 2.284415148921897,  7.057724506335206, 67.722609076628842,  3.930818162675778
 1.800334669135307,  1.354695851427155, 18.270181403319508,  3.766472698838775
 4.200774481942338,  0.059744949339098, 13.813886432925324,  4.310415397758427
11.897144096906036,  2.160590818479130,  2.743754285680454,  3.690933167596231
 9.617007917457546, 10.919495231276683, 37.043832332520601,  4.026445974205994
 0.356917093279120,  6.956921256937926, 27.333781522085747,  4.282326003869289
 6.175657024371328, 10.527802394766873, 73.710133833910362,  3.637995717903550
 1.094449488645356, 11.774944904398083, 11.011382671826492,  4.007246759370232
 1.024815649923707,  6.432409191409477, 48.990264788439660,  4.339523030525535
10.486995517474799,  4.007581775869475, 74.081024750699441,  4.030898235372188
 2.409130622463203,  3.490287412560502, 42.788741013177670,  3.611413894975936
 2.266088684711149,  3.417185773969245, 32.143159583489783,  3.797989430472851
10.418257703113332,  7.411534599180664, 67.758645570522987,  3.651198858592583
 6.388132707579665,  5.303533403837434, 37.711312511213940,  3.931010787168899
10.148900000685531,  2.115844064991476, 12.336585541237040,  3.711539319757168
 8.578202054283407,  8.853702303947770, 64.685999019601084,  4.010253492573434
 4.409465029055086, 11.801314021165229, 58.714505594424310,  4.131087029624996
 0.844703782543585,  7.855294014116871,  9.692880649493464,  4.010358797066685
 2.329558220756800, 10.091349643120544, 61.843071452406257,  4.122233981454581
 4.523744425626095,  8.516692999309386, 64.844060585939900,  3.913846062294447
 5.898527935990686,  9.424576549145826, 37.332120822447507,  4.008402992873807
 8.284315727963277,  1.208497782218386, 60.825846412894407,  3.562348445709979
 5.727034851434128,  9.685864035233136, 43.534075459005237,  3.986606506458230
 9.287362359076498,  3.897686873925996, 41.928007516131508,  4.088413859699564
10.738700466285344,  4.355344637739302, 24.614588024268617,  3.834720772089394
 2.706268082586361,  3.776076535935944, 38.313348068837051,  4.131362116540831
 4.182822392918991,  0.597627186422222, 27.197703932231288,  4.081949708769178
 0.566370562491271,  5.935764093048197,  2.677511017927868,  3.940924055509602
 5.968504003181676,  3.183120144782831,  6.123779876089890,  4.249730982478348
 3.569172369843991,  9.568317655137031, 34.098011942659028,  3.966976728726022
 7.433036812228005, 10.896964010223446, 33.640494956620621,  4.054438977962187
 7.803681243070154,  8.151393516773036,  9.058052082274608,  3.834614671606873
 8.584482254784051,  4.545364542242522,  3.172271244258253,  4.039105199072824
 4.864955955410226,  9.154451935424195,  2.614421141102152,  3.943071823957056
 2.484845989861552,  6.250785624971861, 60.546312520133284,  3.966769255397521
 3.213628125684902,  7.099731987999891, 74.074711886016644,  3.879027606794167
 7.934227220516469,  3.557610427955638, 19.028867579925262,  3.865074726811571
