BANDS
8 8
NANOPARTICLES
cell(1), 11.863
cell(2), 11.863
cell(3), 74.145
 5.768468897737000,  2.978124191089079, 70.114976556282699,  3.794156718786675
 2.134791562156189,  9.404988178349191, 54.661831528872284,  3.754033840325365
 2.236812451522176,  8.541946814718104,  3.184963624484059,  4.051342307983770
 8.666935447804409,  9.946312641724360, 30.089668659652595,  3.994204866524232
 2.456790938966109,  8.577297638829792, 26.395449233122282,  4.186633735307512
 1.315779463531956,  0.287698079430350, 48.505542256845985,  4.160919051779759
11.459536153549417, 11.214375275511294, 34.434947237486256,  4.114664732817597
 7.163476590123526,  8.114709224798288, 11.207269421555877,  3.914721612960918
 8.718667281706331,  9.065412890941152, 72.907690402298030,  4.236152288759550
 8.402341891255093,  8.769017191115456, 67.424460921065759,  3.964410615130478
 1.087437235030716,  5.867829006350354, 53.577878535385267,  3.854646109834544
 0.276454056681974,  8.454100397814527, 43.877037396227998,  3.981270904535927
 8.845652179971813,  7.891221710258455,  5.594724923703254,  3.962144258642517
 6.346876097009909,  9.557481059227529, 19.260956585073099,  4.112722663844257
 3.138653410406961, 10.424897424853002, 41.179088637440088,  4.447878279382427
 7.124084909578954,  1.719929621727066, 31.005712406631332,  4.111214619327059
 8.062252024702369, 10.726406981421187, 50.965771468023874,  4.126237042987103
 1.955252491058764,  6.406110301417320, 41.042701349834623,  3.739459678178540
 2.596067218129241,  3.999644981293806, 58.423527110889992,  3.974761199154168
 9.916537377393261,  6.744140983534781, 40.958035716175438,  4.066978435334677
 0.252597772524021,  0.765358159519703, 11.154751412719135,  3.815470233386216
 2.748221515467109, 10.452189135089926,  9.122328501351706,  3.953409688722105
 7.751049113495334,  5.555409204098616, 30.511438796488115,  3.695404575021368
 0.739977839492514,  3.490113900358733,  8.144816719176418,  4.343577659411019
 9.194703103882185,  6.968016356996841, 18.243786974210479,  3.837511682520613
11.754473337525249, 11.826250434301853, 66.979557682738019,  4.283024757073957
 5.415191793303400,  1.025629762076929, 48.795436074833439,  3.924944149709441
 7.706030596931891,  4.142521439075016, 39.302018969371758,  3.441251183689173
 2.073543407778336,  8.484546127301467, 47.260918384321286,  3.678669012415797
 3.170420908096214,  2.810144537987834, 30.547197714695976,  4.049189077945532
 5.224728795246469,  2.443398979562350, 14.792444576778246,  4.263779760175874
 0.787833454186225,  9.560397741145295, 19.769597076629722,  3.802656745913924
10.157388233952696,  8.856742329596520, 54.060460776324916,  3.981688477971922
 3.349964790239593,  6.552014832306194, 29.664679220004427,  3.640405325094378
11.041786680113958,  2.211032571951091, 24.304212614951055,  3.995142846413624
 7.433099195915763, 11.361777841688527,  4.052272712197487,  4.125238284158732
 2.541356516235171, 10.111805271457010, 13.497992371519167,  4.020677844322164
 7.510084096198284,  0.299371700442745, 27.005244914006777,  3.836915972599605
11.604814345802410,  0.079421994721112, 72.642003050846284,  3.832181390614283
 9.266498371744499,  3.179674217104016, 17.030881129090556,  4.118440223024244
 2.829151247595690,  0.591861538990746, 25.198343186169954,  3.963180622854650
10.008572982070195,  1.342809336829480, 37.523471366888714,  3.769744209628481
 5.606304984412114,  9.644746041582836, 60.707294469464387,  3.696502571241457
11.846905913313771,  5.424207371565545, 61.069247121934062,  3.916195185940523
 7.294481652586015, 11.628533583313043, 63.605963045842977,  3.773279260818307
 1.436664253969791,  1.819347553587693, 55.310301950363488,  3.969428209237060
 1.619863365035097,  3.969360765292931, 26.985838998160741,  4.049137860191085
 3.629823107887250, 11.350629231708039, 45.255197826498240,  3.966159825006287
 8.334185004995726,  5.090935710736661, 24.985246770657355,  4.023651350334128
 2.627285815835736, 11.713031722561423, 70.049113505396221,  3.904101811815962
 8.673425874425044,  3.424408699617496, 67.482486968150383,  3.830150199837591
 5.422948062110328,  4.513313649506425, 33.241934452158567,  3.755005577452211
 8.911440625168279,  0.549358057207487, 60.250294082636017,  3.834946053236294
 2.985688770198954, 11.479948001027305, 63.896593467156293,  3.964173100426447
 8.170505688140292,  4.253724056860495, 60.825186199010574,  3.785782345662228
 5.873654116895603,  3.718792523863312, 27.767924769426937,  3.891652986489954
 3.024653664379771,  3.174632324113190, 43.770081319754858,  4.046810682188836
11.065779121666315, 10.299601739875717, 63.128799123771465,  4.107632330595255
 6.127399181895666,  2.196964106709538, 36.381578382102845,  4.172968880174462
 0.216149590660625, 11.671557548685644, 52.267150698485814,  3.718815369348369
 5.651622649017409, 11.757605327859288, 11.565063202053771,  4.004732067076763
 5.743014285648238,  0.201785760611971, 73.012598749646131,  4.216608558191937
 8.365341044915501,  6.294446402897965,  1.670637855868520,  3.826445648091998
 7.320139536092280, 10.376273521884904, 57.357977593938223,  3.922141615217849
 8.558403291665426,  3.094180777540036, 72.671158291255651,  3.775208560508887
 3.454524428117528,  5.324254157845424, 37.463807328023236,  4.199075557875759
10.573154099337415,  7.220244329063152, 27.697966474889096,  4.197948688564466
 6.778994680396799,  2.322990436120894, 57.383917929940573,  3.763331298715824
11.438124001695572, 11.517337453887809, 27.476011751105013,  4.177997702623764
 2.255705981230707,  0.637252453049025, 37.285710367658439,  4.095192799954002
10.396342178458168,  9.422694427713866,  2.356766231054314,  3.725866886683346
 1.640721457465523,  7.299154842289820, 64.023180734169472,  3.793030691941985
 4.229509687374933,  7.419111793920298, 44.139398335913249,  4.197184419836331
 2.489365016760908,  8.962987614199751, 73.156888274737284,  4.329949010261719
 8.740056216823602,  1.407288227847500,  9.396775182126504,  3.900793514770056
11.580396163136767,  5.314957885087455,  3.921700822950220,  4.257551246094860
 0.877006633327125,  2.170128872753929, 14.862963737959850,  4.204166861905731
 3.282410091395300,  7.477451958790477, 17.643853065553845,  3.959019914594493
 8.777469734578808,  6.050277972539656, 70.247774762813677,  3.799484431159176
 3.707655250719156, 10.260369843403048, 51.220876455933293,  3.992613562772027
 9.907582438456629, 10.831681787905410, 16.994951995542447,  4.401202193748369
 7.560128736816963, 11.189747271658417, 34.092673191881019,  3.703714699641896
 6.030742524746731,  8.239908388432116, 54.045468469259774,  4.361987809920955
 2.568511481426158,  6.009563065515335, 70.234344887139841,  3.960057705689162
10.254013189151674,  1.782324177179391,  1.932152012693725,  4.274015963701703
 7.157269382787762,  2.999207762930697, 51.940644811030296,  4.268835896406983
 0.828845542343715,  9.343770489586209, 30.869553248791942,  4.257516800935257
11.419115400050663,  5.834688018041703, 73.249983126395435,  4.203853767887209
10.690663171237246,  4.359155438012047, 12.064304178302242,  3.706503879890847
 7.073642788114610, 10.489600351739114, 43.266656994153969,  4.141760954866701
11.764615527969998, 10.182893744665888, 23.596926983530647,  4.044774594765546
 9.279749831251820,  5.763567981306961,  8.837525909101814,  3.826282850429724
 6.169910918658670,  1.746400338318837, 19.245489583865496,  3.991363330569342
 3.227503119561093, 11.536746707155308, 17.286938653231484,  4.190187390984958
 3.554369812613588, 11.650209970120120, 21.224950818034074,  3.647339398091298
11.849201598693268,  5.134760384148776, 30.910996185349056,  3.865879273610935
11.633952507234268,  8.876469193857968, 69.959422666730745,  4.062775668077624
 8.250893913790744,  6.204913586014692, 14.512116447692495,  4.010241127323928
 9.738652184157846,  3.246904818367241, 28.195123069198548,  3.887772012049066
 5.730207025762099,  9.001454489554812,  1.411108725843785,  3.733597495410605
 4.520832880865372,  2.403469156613287, 40.125765598501893,  3.981460635760611
11.549274376389965,  0.709947154175346, 44.572446479266347,  4.393175999033591
 4.796891952189492,  9.304472448250987, 36.448004892334637,  4.241181294948286
 2.784378973793135,  3.030375328656315, 67.463675339872097,  4.185928731787410
 5.401555486557823,  8.330273297421378, 64.462214471556351,  4.009686252424356
 4.968117621722429,  1.723993888240179, 60.939823994306209,  4.304333595841257
 6.567022641796866, 10.279634845982347,  7.907604550231256,  4.067608542681876
 4.251369112585813,  6.451487607372006, 13.871129343239893,  4.093559684522703
 0.367667756044579,  6.255052811746345, 15.171685913711976,  4.049256511172421
 3.693657197805431, 11.411333339012826,  5.452750863367591,  3.819952917325943
 7.258487266777460,  6.073234676603341, 36.213855045292533,  3.895758223545051
10.550632684291783,  3.247720563429890, 57.870169749679086,  4.062269644404042
 7.077170749881986, 11.301650632609608, 39.260664802790622,  4.023043230270592
 2.357972704909406,  3.542149736617417, 63.499854222524434,  3.852052908080944
 1.515514666554808,  7.402590341444064,  6.948667207994286,  3.926759370643697
 6.124611905228914,  9.947565912580592, 24.029839152524449,  4.081102303102788
 6.288606695648197,  4.632768158732991, 42.510562127083027,  3.440048711293501
 2.537260714834912,  0.578932167705143,  1.673629225183397,  4.326352104043780
10.182036553317271,  9.581513732932697, 47.259931533238579,  4.085408041816151
 6.078996717549808,  2.129228701551367, 23.367655607606604,  4.091872332903532
 5.612883432894798,  8.326362773488190, 32.276575783646372,  4.116161506773757
 4.424236514735676,  5.522648318524632, 24.650415131792691,  3.870853663644738
10.471299279034652,  9.262007962305356, 13.109021456834141,  4.047054486291408
 6.272091998405241,  9.808538404223096, 15.057845441539740,  4.087613701023815
10.761808315086716, 10.742817752525033, 40.836949407933361,  4.069610283667235
 8.963784467057190,  1.168681866412542, 13.481261816394426,  4.058769095237483
 9.168911804389051,  8.225481102218540, 60.166736246010444,  4.040757507323340
 0.179154977823152,  6.202765902708567, 23.976243590926501,  3.969531315245641
 1.975793969197220,  7.321340190946507, 34.245059526613133,  3.929709890303289
 0.439181663666327,  2.745940988514205, 40.506171208822252,  4.245156507921340
 2.994096368197302,  3.613722893598340, 17.949686569598640,  3.810056545317645
 6.233387883312650,  3.766793001206226, 64.380724275741343,  4.088183140966551
 5.431640335569097,  6.357907339831863,  4.239085837120291,  3.962220274422400
11.175733366629558,  3.366416036243766, 51.133202253539928,  3.954971410664364
10.281829658858824,  2.515076458956546, 63.832014013651801,  4.313631814294108
 6.912454633292112,  4.894886799485054, 48.180826355203102,  4.154011480351330
 1.890982362108329,  8.890258949253049, 60.536623398171912,  3.874128300489842
 1.400279008172084,  7.108453667329852, 10.972502818882745,  4.133051285337488
 4.052513913935416,  7.478197491939267, 57.762220723179126,  3.666676812005932
 2.750920084276861,  8.737701485823953, 67.320421811215667,  3.734892198535107
 8.912133837330790,  7.784639278115184, 22.064577480443770,  3.995622345454666
 9.688841585517277,  7.592008497896484, 33.318939493604788,  4.248055219649378
 9.310924032193478,  0.854974384821648, 54.785792690370023,  4.044369950005027
 0.923438421499944,  8.620044088083423, 37.932741311468220,  4.162339320258666
 0.867612667404033,  1.223703667601789, 60.717340098704163,  3.968138644651078
 5.462882874468416, 11.682899787488582, 67.146209763512317,  4.199285202540314
10.550313117768706,  9.609703203210014,  8.953950912130534,  4.276076452183805
 8.682146103904538,  1.984132741158936, 41.993847083382086,  3.726222109446884
 8.648345594514661,  0.180114407574908, 69.893402178601434,  4.237726638595547
11.348146397842807,  4.646262431809578, 43.851416623636013,  3.619392188842013
 7.369318310272246,  5.983951409120447, 57.617894622593155,  3.614393140190939
 3.093598643830282,  2.321464729062258, 51.719510509944975,  3.972811212700985
 8.281768026945961,  3.270170510940986,  5.760715778431627,  4.317020820154613
 9.135730799583335,  9.240097942101555, 36.820293942108371,  3.566249979060750
 4.891275176243782,  2.262053266169574,  8.234165065272107,  4.307398722739819
 5.723675630619881,  5.854346881016911, 72.852978333142431,  4.142212155324311
 8.312280361036072,  6.858092613969444, 44.809090581536466,  4.128798687463734
 5.534275865841632,  9.007403872468307, 70.263855766629504,  4.015084071221175
 0.528935398709118,  5.715244650949220, 20.059853800990687,  3.920075636387352
 9.349952957591677,  5.087481587395252, 54.607702223618112,  3.796083525510855
11.580531076977289,  0.175552683792132,  5.629217199322397,  4.212674360460003
 5.585442956880033,  5.980848130816208, 67.672225620852714,  3.944348722085383
 3.110617760360740,  3.257706347734935,  4.713063360324800,  3.831040292731107
 0.125717528077395,  7.116571515936484, 57.321079537971649,  4.265082646548726
 6.776394635221714,  4.187973471171759, 11.391612099657229,  3.983041076296134
 0.104996869757922,  1.552199429625134, 19.615488112416898,  4.029919654594125
 6.146826419906695,  2.946481892516593,  2.061135164699373,  4.242901851885182
 5.304141228142697,  5.531460999989730, 20.660597063375079,  4.269728073999493
 4.409787332997040, 10.943596973190681, 29.267318938039384,  4.213016539575197
 6.406875607840636,  7.711444080865266, 27.488927546702783,  4.175805952133753
11.004915774893004,  5.534338584488139, 47.689084355591881,  4.187009042035145
 4.529212405870040,  4.374912499713751, 54.893470362851865,  4.096027606250451
 2.409014593208742,  3.203630570812634, 22.332752199914559,  3.823411796737610
 8.797009082354680, 11.760441205933203, 21.508470407856922,  3.863977233416738
 1.720931224581501,  3.340834750001825, 34.291315563160758,  4.038548366515663
 9.446387588541633,  3.371415801975572, 34.065492747048339,  4.247089665274309
 9.064465119755479,  3.854930685067998, 21.214472147833451,  4.037325309804704
 4.643783405365567,  5.924628644297914, 61.304502768539855,  4.071102138187365
11.421119877907303, 11.092300592180832, 57.657555127282258,  3.785191751661814
 5.229745167623680,  0.401986917056264, 54.417903666024159,  3.870149633896264
 2.817819113383530,  5.110359816442549,  1.333692265976929,  3.829252708246795
 6.598628674258264,  2.140676741580708, 45.213037195494735,  3.934025974592188
 9.210356464566177,  6.656956374247518, 63.996913835685909,  4.226237453884473
 6.054155523067047,  8.996847133524186, 47.654396272567517,  4.286786741992165
 2.804224607270837,  2.834915506371988, 72.447916627658699,  3.750883621729467
 9.321609542667407,  1.594738041079781, 48.079678335224862,  4.017721136223687
11.418254108622140,  1.357408762953338, 31.055934254533234,  3.739747143126892
 5.991796266347265,  7.448306862216081, 40.006603065844523,  4.111116430171174
 3.504750177703557, 11.692485304764269, 33.294091356038187,  4.081175622411247
 8.565261799214630,  6.692987032775716, 51.290816432978005,  3.725320319855546
 4.023816325517559,  6.246561803973417, 50.916301825310136,  4.073291172047371
11.711973547119399,  5.905066095737689, 67.212402005173033,  4.028371265856332
 3.460947996013243, 11.284347542097308, 57.811516743108903,  4.028358565092882
 2.931629593500553,  3.467353144472378, 11.604640138062653,  3.845978029303312
 0.170336618110628,  8.216907883059543, 50.582934373454641,  3.968359060229950
10.907007696004143,  5.080957709819264, 37.467069862701990,  3.905885918775351
 2.945516036308054,  3.970531760494593, 47.736752611970644,  4.038445835918360
11.546044935575013,  3.119431018467720, 70.150224833466083,  4.021690477154975
 3.028089815326365,  8.245685893967680, 22.448596675605625,  3.660074825268889
 5.174805420476655,  6.419861705650263,  8.221301375403755,  4.019221571124938
