BANDS
8 8
NANOPARTICLES
cell(1), 11.934
cell(2), 11.934
cell(3), 74.588
 2.365670238104880,  9.913178893777369, 38.442246260061303,  3.976928128983747
 0.612778201520765,  8.060488473491807, 35.122153008881433,  4.043265504194969
 4.169611705474585,  0.953041155055613, 57.504717203487530,  3.687650652773970
 1.379153314244034,  5.028153902732956, 32.745702935579089,  3.799169592639548
 2.983536951593825,  7.628990353234336, 68.369632032343333,  3.924793598613677
 8.887092904568398,  9.874133546745870, 58.392282943137879,  3.960067820199296
 4.598689778241626, 10.619300105927277, 66.457360593214830,  3.705930520236282
11.573683092206862,  7.722409335182191, 11.053924930562875,  3.719558045791981
10.358047805561979,  4.192071427729262, 18.650214590933537,  4.154327994651234
 0.552572824011142,  9.728379607135086, 50.603305391886600,  4.336240481024433
 4.392739475192146, 11.575009587426493, 50.804057734168836,  3.829404362018792
 7.343138360503670,  3.887117588037537, 21.302806450238396,  3.874678449584107
 3.050938538624632,  1.551372411696335, 68.555394920193791,  4.038431094462063
 6.381746347720431,  0.448056627359533, 23.412494066095984,  4.315879382676894
 6.125990410958819,  0.426063754059613, 44.570126243782063,  4.196360791821755
 4.165804811408680,  9.885634941212217, 41.983643298847610,  3.959102570165563
 3.707069760955259,  9.154335042930612, 27.694841046014918,  4.074319235504290
 3.768681749480600,  7.116757468293524, 72.234129707969856,  4.000782404597302
 8.950572953932387,  1.601943202080393, 37.357570436630390,  4.082812772887827
 2.936191301352279,  9.965329415514496,  3.254151713236713,  3.807489211101251
 5.249220897437757, 10.645901725257774, 70.650146183512064,  4.274176970786376
10.878613633053682,  4.345035020117337, 73.057801634676920,  4.125302546632047
 0.561420342273829,  7.889407417235458, 25.273383309302545,  4.255290396294113
 0.712003436551513, 11.249545799975103, 18.142502480230885,  4.083760391743476
 3.271940349973734, 10.570425655655677, 74.124560356659458,  3.719349490183307
 2.689514732471805,  6.844129914019498, 44.317286352810719,  4.063339214992472
 2.171489041163063,  0.452097380191686, 23.135334688000619,  4.106998965919282
 9.804472318902500,  1.769858488761521, 10.866970665327186,  3.575582603340221
 0.677342315033687, 10.010947775976472, 46.009769973888275,  4.164756860851599
 0.797136483195397,  6.601473767468969,  3.564983984863352,  4.180344915856905
 4.542599699681514,  1.264789000750119, 27.188733647588045,  4.237588404365742
 7.490559334853715, 10.532158387105337, 74.216290515330456,  4.139591928368731
 7.453122051701417,  9.259872208734722, 26.200251685325899,  3.993611377597896
 8.089796207208563,  1.748368069526594, 71.841696608818552,  3.836749342450764
 8.792725655741885,  7.099987325620869,  1.186677905843627,  3.833644657350527
 9.480682810368110,  5.170185532505094, 27.336824231032889,  4.136549820542958
 3.081723045844155,  1.578400737259438, 32.506210603542932,  3.900498664381170
 3.640539795741923,  2.038530115296479, 72.443972598436034,  3.887471998401406
 4.721213921678825, 11.676006889149791, 19.439854524631603,  4.385481554270199
 3.132615769024190,  5.294588988550332, 58.503148832927174,  4.115949088778777
 6.951639715504419,  7.924643281652497, 67.974856843159557,  4.062495458996544
 9.000645970579049,  1.993965538125942,  1.078195760560188,  3.835652118814903
 0.078002446433081,  4.535955971881914, 37.891114739290899,  4.254762577160609
11.410593256063578, 10.438826170584306, 62.957286354284264,  3.934281373313280
 6.793729684314853,  1.688563619149182, 53.091382831675610,  3.950706707183388
 0.737895150607335,  6.854746450806007, 29.309839958785940,  4.082962360481322
 0.803797866511608,  4.066095965855656, 12.018065597434697,  4.191292207340613
 8.899768363874683,  6.514486437381017, 36.107633864577878,  3.922288932321294
 6.812285727326982,  1.618623306873761, 48.412678735717407,  3.957091183831920
 0.064026102621702,  0.600466596002686, 73.808128558282263,  3.720386228351776
10.449314949389601,  8.581483642974481, 20.216469089585622,  3.677214336624670
 0.670196080567906, 11.719914602874839, 26.863291047715332,  4.021763323959358
 8.031618255707400, 10.693714840787734, 41.313788826031512,  4.051406157760315
 3.134231580824816, 10.489544650476029,  9.295405337758936,  3.696915387784578
 3.538911634483963, 10.579608391520875, 34.855324010707250,  3.667117513958724
 3.967024680058557,  6.684036303899187, 10.092326909818096,  4.253028241702662
 9.780618732482271,  7.408015218028996, 61.264255631124861,  3.716776029191379
 6.437952319576453,  6.542718402434835, 48.476078732161774,  3.786919369632152
10.412526974487044,  0.231789583309552, 53.936514102177426,  4.028383408066147
 3.529196546013359,  3.346105472450819, 36.002026754860211,  3.964543129665703
 6.821504370019991,  9.803021760332992, 54.761876288592774,  4.386724407251975
 5.220759336220329,  3.894459570436099, 42.781253872950593,  3.720207261201561
 0.414889056841104, 10.240262379149872, 67.016830129297304,  3.855633836175025
 6.348749438009643, 10.881388852447234, 61.219990498622131,  3.898517489357755
 8.290692341293468, 10.560453027726483, 50.781986640644476,  4.224398045157513
 1.755883919785638,  7.378789387019022, 14.134356729090332,  3.785216435751303
 3.241909548937330,  6.265799305556127, 40.205998588710074,  4.311650024510355
 0.957449620604559,  8.032360414861849,  7.439558614975200,  3.844062022693075
 0.402541376683728,  7.958218698127782, 74.278672573433255,  4.038036735134671
 8.874370214885584,  6.786029525355104, 40.508210822628364,  4.078379494868232
 1.127063647753057,  1.896559285246806, 51.357169831400299,  4.078045293147252
10.501108342797655,  2.485139778123887, 23.367251173986766,  4.169590588175005
 2.457788680103060,  4.673007672892816,  0.445533154268548,  3.856364769187028
 6.555908581649697,  1.100920544486421, 34.209077118768128,  3.889641138401358
 0.388988921422879,  3.963941823430218, 46.251901933283584,  4.223823745078028
 1.362187924185896, 10.580775932913749, 30.593628389989306,  3.896811691795712
11.914113958680073,  2.441132572597098, 29.982762920407204,  4.263470393818984
 2.536304320869033,  1.033254198655044, 47.833160677159356,  3.700017656349532
 6.163472087517458,  5.075407206821221, 33.408270871128813,  4.193195908418659
 8.451415270369274,  2.726653205297381, 41.148345582024099,  3.880065890854548
 7.549452665850029, 10.991446809488910, 16.377391226878430,  3.837329243044524
10.356308682320483,  6.561581196181987, 48.828992123660996,  4.079142135114094
 4.524736950123867,  4.786279069875691, 13.649698366463124,  3.860410890805590
 9.004201688005747,  0.377576251150313, 19.965392412204999,  4.333052900074852
10.053015194346610,  4.156289868809082, 54.559322718263488,  3.864732079400775
10.619755362763845,  7.197503428359725, 64.965549235386362,  3.853643567387826
 4.451450000512959,  7.958829329368565, 23.902689771943241,  3.994786749551296
 1.129111711157245, 10.090318564032183, 70.913149150850529,  4.057103903941247
 6.281560954926862, 10.446931009680045, 37.620600000428539,  4.095385562011996
 8.876555670275355,  4.109219396158216, 63.161110288514358,  4.104066716380067
 9.803312387246816,  5.409560312873227, 14.598222356932785,  4.066849882187110
 6.829116455252922,  9.002439072026691, 33.957803332666245,  3.846240860075416
 9.911127102775056,  3.392541009845501, 33.830570488591299,  4.054786965335563
 0.744347067379565, 11.396278270213132, 12.493908909389397,  4.472974705905314
11.071125960211946,  2.001390707485014, 69.279308842792631,  3.942464054621909
 6.801991799227996, 10.108742588975158,  3.636467561202193,  3.887973382952295
 5.132316811582896,  7.833903494591713,  1.139112639738389,  3.632572640453124
 5.166342350573244,  1.201715376364927,  1.716207831461344,  3.989692093589165
 8.666125436632884,  9.844836612792095, 12.541251090154532,  4.052962639492314
 8.548358513265784,  9.759357856566414, 46.707541827803631,  4.095324053795276
 7.661716011160625,  7.927538936609270,  8.903958030372515,  3.891243915149736
 9.105230413659674,  4.485866237203186,  4.321462392528403,  4.346791305153861
 0.542651125031257,  2.281824312323618,  2.990727551691515,  4.107456656222095
10.688552783278199,  0.819590546976697, 48.312835357856386,  3.933377867228999
11.918200287983030,  0.997717339959369, 40.123131039116963,  4.112820461672029
 2.498346084094019,  8.132129592654564, 64.294368829737664,  4.109522495186003
 8.749827981039980,  0.675752070425920,  6.040058217504069,  4.041988462375540
 7.485709632208156,  6.223572626008314, 58.375132310108022,  3.841856324369785
 2.179768394010141,  3.026412976434878, 19.573335962539829,  3.923054645192598
 2.540754212361281, 11.855653719283405, 60.842555676235364,  3.995443748811285
 4.644575078558358,  9.767563475171814, 12.750439381552184,  3.981506196973476
10.724422554885962,  8.994795652103686, 15.670376903964444,  3.627603585877753
 9.469841882638859,  3.345591532454557, 50.901505021213687,  3.696440113199953
 4.745391870348017,  8.949240330252476, 58.239921764354534,  3.890594793181029
 6.294464869309160,  4.406063880808479, 74.173540118103389,  4.005113137104344
 6.399574498344935,  4.262000602644425,  7.555357583267634,  4.061285375813035
 0.421007698388853,  5.717597183277908, 21.810650672351436,  3.902903373592099
 0.973604600744437,  1.573900514463840,  8.926091138438839,  3.754791528103970
 6.282647556170684,  3.332421664326359, 17.227684909430717,  4.607004592206041
 6.792488728288992, 11.782514525188457,  9.500269867582423,  4.073713719551542
 0.540247800875662, 11.450540449145327,  5.803071607051749,  3.773124014421608
 8.138370005149001,  7.190376965907800, 71.834924968769613,  4.141311722962699
 6.016801031601900,  1.460765282607380, 64.223685658449185,  3.962335991894053
 9.572464184326488,  8.318188797047503,  5.587093743023857,  3.776161572768403
 8.018415533131099,  1.663497323464325, 56.974386973669226,  4.178657451809931
 1.160611044809250,  7.077957501096830, 17.936203257491453,  3.925500013188993
10.124021473860379,  1.148350085757101, 65.557440871208570,  3.911664998206756
 4.482936857651631,  0.736996218174386,  6.005060190323969,  4.490033604449429
 4.547396083013945,  3.961622766909861, 50.709063807701739,  4.015808630236439
10.260315224144431,  0.704291396463100, 44.002268104948946,  3.941465504248600
 7.926046276866478,  7.293866666393227, 17.626153552676719,  3.990432504568401
 0.730259750026624,  5.849124278865996, 52.137415463913527,  4.013237301686147
 7.607644737707225,  4.916701871764215, 11.339721731925406,  3.846339255957269
 7.029190812555553,  9.052070699231034, 21.350639739517824,  3.580143954424736
 3.819855602414028,  4.130233094910402, 22.994396889164861,  3.949829568369347
 8.240516897798313,  3.925728884330057, 45.359834393345878,  4.130717014107574
 4.639287321741296,  6.424144894378639, 19.792683089920384,  4.065164893050996
10.484002909173345,  1.522785430534511, 15.494663038443404,  4.015376316319393
 1.345765721758518,  3.845844620427313, 26.230818280160818,  4.196746294412699
 1.972249160205331,  3.336408176271076, 55.085142485586431,  4.083623796174363
 9.634584818004585,  9.968021973185396, 29.409852555055583,  3.892643191448633
 6.433114902526840,  4.509686103317659, 38.352124947227423,  3.857338820103439
 9.967089956010684, 10.459821371130611, 23.462614506531818,  3.811061617289804
 2.081846082702102,  9.064087679421940, 21.067312507591122,  3.714776029260962
 5.863141570171734, 11.154337858110603, 30.665904337939708,  4.250525154169450
 1.318006454936587,  4.534711661397529, 62.497090749142160,  4.170714320095600
 4.866881475508373,  5.051694528328898, 65.829911410605874,  4.232238447293842
 4.283189993276976,  7.797441484716085, 51.981706277953130,  4.080181182283108
 2.799361333447978,  7.510616900182348, 55.442610645108559,  3.463732215040558
 7.084286680749175,  1.134116649749137, 67.963007615976395,  3.838800251516342
 2.479246856077381, 11.189219103714406, 54.337256215058318,  4.243462610145356
 7.914253872889919,  9.972551255398756, 64.683309642630704,  3.914378274832205
10.624414381417154, 10.497431853195957,  2.421004685509812,  4.163709055727933
 0.794698044955850,  8.682991382266485, 58.968993662211304,  4.157355729200165
 5.869452723778104,  6.870369364673137, 62.077459409971787,  4.338489268811887
 4.247360860042694,  2.685566043095981, 10.464084272608012,  3.784050073583918
 2.068344795346090,  1.019892052460178, 64.675487922833923,  4.034057983458297
10.289838099591224,  9.733082093114849, 38.062357764586281,  4.086874894389463
11.872302176854774,  4.557163089250243, 42.155386169248558,  4.083972390212963
 5.689095467978682,  5.080006774894112, 55.003004433352459,  4.128704779589079
 8.733240668586568,  1.125103732222414, 26.875206453182354,  4.131030777460750
11.064556338328844,  7.171553657138630, 69.048590286770235,  3.935647380324101
 5.589013399935499,  5.094740118113712, 26.355812919011079,  3.873434715878307
 3.885679962433621,  4.372312594437844, 29.829709793070492,  3.998097280008093
 0.699190788861603,  0.712133106613982, 36.248428619675309,  3.781412389859030
 4.978854659829652,  4.804664015019664,  3.524123173046747,  4.080568315452890
 9.253880031332026, 10.528940724305860, 69.894706904769819,  3.876028471939216
 2.425375382151531,  4.433996617506192,  6.681753008343720,  4.074448620706045
 3.518151283395954,  0.528424215556312, 15.506603758959745,  3.984241416314819
 8.958633949731672,  6.653254253422074, 23.570616561848095,  3.973202442756686
 8.184197800413544,  6.717281766300917, 52.234285260147892,  3.994370197738549
11.033105894621581,  4.423944649821300, 58.961386229733812,  4.176775212379213
 4.544016428991206,  9.730254417022433, 47.283744794655341,  3.995632313251122
 1.631846834292780,  4.641347113059922, 70.297761372951982,  3.599046403629401
 5.981760289265227,  2.935519191382725, 60.413526998837256,  4.207385555131067
 4.316753107169219,  7.186237778030741, 36.346858946451853,  3.904949363292868
 2.250256886992177,  1.447707566206950, 43.511821508711769,  4.089424126756925
 3.712983503097229,  7.926889519379713, 32.049542984243331,  3.767225231687629
 4.648087301023481,  7.870694757972192,  6.243034637562585,  3.871645205388795
 0.872972924816282,  4.355422090233526, 66.579247091903696,  4.008524884781759
10.877166686132544,  8.165911261116111, 55.148744735980081,  4.381255194445110
 6.790320060017452,  1.492594290399357, 13.279477256879300,  4.162069924058268
 6.702358018426096,  7.437532072510932, 43.902214199725307,  4.062459211399085
 0.142182462173815,  9.106075485711267, 41.805286186990379,  4.243142870113413
10.497778343315725, 10.611059740159593,  8.915782087951923,  3.781303477228365
 1.612908397816833,  3.853794723056593, 15.884623639820431,  3.711253819328488
10.520239503332444,  4.826263711363788,  8.430633564653730,  4.371149797404256
 4.415253237183392,  4.006409545731608, 46.473443394999144,  3.837732425874754
 0.187388455374908,  0.645171002950777, 57.615938327168031,  4.121246057699526
 9.566879442841580,  1.075060476937198, 60.662889519330420,  3.875480042699432
 4.147923539035025,  1.461447360755020, 39.775259612973898,  4.269541247402238
 2.439413874124489,  6.616464802440578, 48.603258297425505,  3.963713150286618
10.246164759427431, 11.169640600645943, 33.306580993376834,  4.349064709090456
 7.842552775830889,  2.861523226108070, 30.420264796455218,  3.959767911214606
 5.736694164867475,  4.387524779420165, 69.899060545266678,  4.185267226499079
 8.857121244934543,  4.501727659361721, 67.163304057129551,  3.937249949768310
 4.423621055675079,  8.730102753976789, 16.539196199853354,  3.884847590390341
10.441554176644541,  7.048397006071462, 44.726349401638146,  3.613642333365282
 9.852016552033954,  7.122687827747084, 32.236035596976983,  4.058272726804254
 6.745204937382726,  7.223194035577481, 29.610848308604673,  4.074631334889281
