BANDS
8 8
NANOPARTICLES
cell(1), 11.872
cell(2), 11.872
cell(3), 74.201
 7.671763333362771,  7.325532932799281, 14.454021696227281,  3.911959929305676
 3.455014553574804,  7.728698222220031, 42.390621558217006,  3.779003284946849
 8.219941878363150,  9.931553099894632, 23.761574419014959,  3.794147281440782
 2.666849033701569,  6.498589995194076, 55.821757504022877,  3.913020187294606
11.674434364566016,  8.499504701361451, 63.713162713306104,  3.851973682726716
 5.453721694375005, 10.146134520170122, 72.490736198463125,  4.122544959501360
 9.235511664431993,  4.346945283742015, 57.720516874305929,  3.970331696191926
 0.096906976467125,  1.565429616144879, 42.855815457745337,  3.880922023007984
 2.086263355831940,  0.099159070743720, 63.151051900376451,  3.908210766038226
 9.271853071980580,  0.152192121705993, 63.240597721482992,  3.935211891084174
11.365851268980418,  3.587893524272345,  5.993891734491267,  4.108591000251629
 0.549712525861690, 10.071737791201512, 29.203561118472159,  4.406678570830800
 3.561590940598595,  7.671552259103828, 62.626813598444485,  4.147013163457098
 7.591316902372888,  6.173893626757653, 72.377966800462588,  4.225134320159501
 1.741722194902863, 10.416859404157018, 44.616223737967971,  3.846246752030750
 0.707991809159947,  4.683006996298995, 63.257926785077835,  3.994109673637788
 2.319790069394023,  6.342179268159562, 15.196747999739562,  4.069173684758498
 5.870559415033536,  5.811652745307900, 65.387956945843925,  3.938192451143945
10.503963065569149,  3.597164417949653,  9.942165645874592,  3.972596867365710
 0.319799278976771, 10.459597355977543, 23.382225391424665,  4.251897420549979
 5.624458694938697,  2.112843934938015, 31.020417616210185,  4.018208086572765
 7.655077519384577,  5.250137246749122, 36.814918478631093,  3.682224384960340
 0.270806875005427,  3.925576825859496, 26.514793675254673,  4.046474677927646
 5.385088780881856,  3.348489628297010, 40.024621492545165,  4.111971343992399
 1.784993051132139, 11.603702332394997, 51.052107631757622,  4.063300614345867
 3.374371813708671,  7.878776017692029, 50.415649936439777,  3.996758932839255
 2.090218583895927,  5.479829643593743, 59.591078755266487,  3.897429089006176
 8.742041692767835,  9.185723088142144, 30.685598080331520,  3.721206623216819
10.864263217879056,  1.604091914162426,  2.553075362413383,  3.896122506773187
 3.967201215678727,  3.323511765267433, 49.829170639844953,  4.089696750696158
 7.713729306939651,  2.184391773732676, 53.964133850951718,  3.962709475210391
 3.561724382348606, 10.803721444680804,  2.532901149998181,  3.971346068616873
 0.951192005283329,  3.833174384443824, 69.736640194223853,  3.964856635036100
 6.940918180452308,  8.032464098352746, 27.190274545486862,  4.448447094036915
 7.342140348526112,  9.514764637233743, 48.001065735250897,  3.906119380811949
 7.820942458287583,  8.345695223879002, 63.061042115973891,  3.970525888461643
 0.789350339085351,  5.429004299960148, 48.879444922864700,  3.751393451967012
11.172599723228576,  8.653108055823120,  2.530039067388764,  3.897104110092619
 0.599149106682014,  9.227316262003068, 36.390365744844168,  3.886858868863620
 9.858606726976047, 11.384762007119877, 50.186082536709122,  3.735521114652343
 5.311008628210915,  3.733682787922095, 57.099313272051397,  4.055757195523239
11.124281513451667,  2.019573448346227, 66.445301123188869,  4.235971826653513
 9.257121470470114,  9.762516690998970, 66.393961218596061,  3.783844213600477
 6.155156776800613,  7.161809636612182, 21.352842399465686,  3.990214526890639
 2.352585233348747,  2.221238151483236, 37.431453685225001,  4.179333128853470
 9.832752678000741,  7.048323139998953, 33.763324178103268,  4.067966777715185
 2.649205956466726,  3.164611967813532,  8.284582699107169,  3.734938941477362
 3.819141735093702, 11.029055443134016, 47.751010681246733,  3.770408392219045
 3.864777436743851,  5.130263239341606, 18.869995078093964,  3.889928154177818
 4.491252483737375,  9.293978237714326, 53.876723143258282,  3.805802046015276
 6.800814665409512,  5.654714452939881, 48.228047936492089,  3.897980115990209
 1.270379210413013,  6.127426351372674, 23.201724958781821,  4.025962648150826
11.530249293668666,  8.528854652236301, 13.075854996056240,  4.013018301287828
 0.428802911902356,  9.195986725777216, 48.088676476351537,  3.958139779396834
11.327668512649414,  2.112318331063886, 60.371885562636216,  4.126753471846135
 1.829249817818210,  6.493320247420153, 66.686628102232930,  4.078103084581238
 5.922863005897240,  5.602575675128572, 52.657260157273186,  4.147351548517603
10.721296386051280,  2.502398692845604, 22.935498530949886,  4.153442130576526
 2.995294098302388,  2.554535005801656, 22.054557088654736,  4.229935878149529
 2.006261224428894,  8.567391612205526, 19.961907233810830,  4.217242343277335
 8.665249308111440,  8.888953421310772, 37.092555963896473,  3.880334978805525
 5.796440674069359,  7.804119949899854, 34.407298392054130,  4.244191814525954
 8.240712519994345,  5.807765835073420, 18.137548282319607,  4.129810665431403
 8.066173589808853,  2.309111983469081, 43.250364632567695,  4.095369535927771
11.219111824768170, 10.667003590560455, 33.073236649948086,  3.765234085394525
 6.943327348985719,  7.331065593736635, 56.217044115715453,  4.020357631207720
 2.922324230656651,  8.753942130241326, 69.749111449453125,  3.837119223909207
 1.923656045458981,  2.440001641011027, 16.539900879707407,  4.216381104151417
 1.369776262678331,  6.385114905196636, 10.253490394769374,  3.849644072594731
 4.385102935078828,  4.027055922223724, 34.215872557337491,  3.820757669835972
 2.113238610871125,  1.765147736798078, 73.871589064629035,  4.588990889824868
 6.369332423541130,  1.738226282213590, 36.541914599306082,  3.800729974220376
10.962591688177200,  7.700335332883661, 26.120455523510611,  3.898446079538171
10.122561392994688,  1.245031785996276, 35.810569195401619,  3.897064492888820
11.863224662302954,  4.526272944674308, 19.548132078197845,  4.055113277400596
11.388712602259517,  5.948195016125785, 73.887837358101393,  3.958204753170069
 8.640909691540051,  3.858359285976853, 69.153847768879885,  3.955900654779179
 1.885029063384860,  2.114824875577453, 29.702096434678982,  3.909662715373329
 2.525881979790007,  2.442548805553654,  3.767469982718205,  3.752563117227349
 4.114849255504618,  8.801731845892983, 58.731506322163689,  4.039972301774952
 0.219834897529615,  0.086209163424200, 10.496796954842278,  3.813638731219149
 0.422813477294936,  3.669682198516581, 33.255980815839685,  4.354713877405195
 6.647654670707036,  2.713336944750936, 20.209558182156432,  3.948657840130393
 1.316175016746906, 10.423942842969796, 66.684388250689281,  3.845973818719456
 6.630448120867269,  7.960531235531847, 68.671687287180049,  4.046176637065236
 2.873917261145995,  6.816206179234955,  2.289184646721358,  4.123496005594609
 9.899552527654125,  5.968849561082222, 42.016608178158144,  3.871014846453107
 1.425837320766657,  2.058895966750443, 47.020133666383742,  3.892515023436629
10.778754670036710,  7.561274218576196, 69.708784999144399,  4.537662844003763
 1.406824856665287,  3.389548851150763, 12.668758702703055,  3.815699311552446
10.342105782876914,  6.569241600872705, 60.698210459114613,  3.780357693090910
 4.598778330558792,  4.648564844318738, 68.812106853319463,  3.725026101252982
 2.855849284723784,  0.845678669120900, 25.860609196282105,  4.095523955711014
11.422630782604653, 11.740933037044188, 39.239301705561601,  3.934293713275838
 0.761482680579327,  5.032817593034538, 44.600409301964724,  3.878508120650057
 4.665762745633115,  3.709172593008481, 62.174664002653472,  4.104140387737499
 8.392518612069937, 10.208446973792995,  4.857693064267899,  3.985356443079618
 7.723198322695972, 10.706736449695111, 19.904821377688975,  4.112667939740485
 9.633369593845687,  7.354195462059000, 50.432660576672227,  4.039310203625184
 6.496813511783218,  5.928390214498427, 43.880094369062881,  3.875098254909757
 6.668579095506955,  6.152104038265104, 59.909486474132734,  3.668132433598195
 1.904412830515026,  7.585975756393391, 33.028575569640672,  4.023503259835747
 8.709659239476261, 10.050579255480860, 53.719744460042989,  4.158440017319836
 9.898850591700899,  3.807013331467034, 46.942666217747679,  3.728424508023977
 8.370040813830030,  5.528871289250027, 24.180585271116506,  3.886672274170488
 9.735971638123385,  1.525967937159197, 30.562466003199592,  4.215689671972033
 0.221016870101274, 11.706558471165115, 70.370071961894823,  4.258148803587603
 8.129965973052908,  3.568380202868615, 33.569613357193234,  3.688436403386777
 8.259525977672203,  9.612500104442791, 59.278126502722785,  4.049499939090015
 4.129378319769766,  0.810509668341619, 11.177069067249855,  4.250930140586003
 7.389514151711465, 11.436071137017020, 33.498295314586386,  3.891101629507161
 2.999824331457052,  0.268221666589940, 33.762255551143305,  4.229591040330035
 7.827037393634050,  2.219085628485669,  4.847255409121272,  3.804616532697051
 5.160572036237579, 10.194971038800402, 65.534846400655169,  4.179375147563271
 3.994625923978124,  0.534196108829602, 68.776467656575832,  4.007543264489990
 7.317133622265372,  1.607870982861775, 59.900938602528235,  4.008527537327491
10.551357762090072,  4.793647973719260, 15.049130907008184,  3.820122022530053
 5.633429646478668,  4.245806935331506, 15.574274489196313,  3.796381240027503
 8.570931428255825,  3.931178720021466, 62.781314792570015,  3.804071239517638
 1.454528171813229,  7.105967106138053,  6.060353481732991,  3.943028468263857
10.262006812096141,  9.268005420191187, 16.924113640240769,  4.224360380211029
 3.318645130369811,  0.977453959674469, 59.392075353226701,  4.146874617212040
 6.251280328897775,  0.166380832246308, 27.717806352196394,  3.732626039531505
 4.298792017692352, 10.356116001879684, 37.337475795619426,  4.072841260258452
 2.901884656810360,  8.703779319572959, 26.032688280597220,  3.938247100477879
10.081233406406458,  7.707854006885807, 21.199238516130350,  3.941606885271852
 8.021017216047181,  2.760041004729296, 12.912159139444274,  3.947556082743334
 6.991826771802576,  2.003359467298739, 65.976330440923974,  4.080310361214761
 4.657532889332768,  0.400225308092143,  6.352529960218452,  4.095034825847870
 5.958194809536761, 11.776958288889384, 51.068496638281573,  4.200302191304954
 9.580219524162084,  0.599889110302739,  7.813565155257801,  3.570972027024297
 1.585783981395980,  9.360115438900165, 73.552121521621132,  4.050423413041687
 9.716857765398110,  7.431029376951725, 45.654890219321608,  3.960154092102333
 9.739439707651659,  5.573271075353877, 53.997563585350697,  3.932839776927185
 5.834540148761308,  0.236315668712170, 15.324907940143945,  4.242755139534526
 1.415685106197711,  4.616289888536512, 52.623577875107372,  3.906146639614963
 6.654264103029786,  5.962123580112052, 30.833976533867144,  3.949023925840146
 6.021287696383756, 11.622453403522417, 56.607999544889545,  3.980559576362654
 7.238367336270912,  0.246916614741291,  1.445854122893449,  4.132753738133667
 8.092966529959334, 10.608648243229926, 12.045371069497801,  4.266989450981198
10.334334083404700,  9.837768919755028, 42.547874401348722,  3.981147155512104
 5.290858315123360,  8.555600988354227, 17.403956679331166,  4.057913476001207
 3.606517291456548,  7.300146038113635, 46.357573301473671,  4.199119518684512
 3.108498089416731, 11.498871686824836, 41.060453142790116,  4.068550360365118
 9.347025744229866,  5.179021885805390,  2.934761057561794,  3.867770386293543
 0.403526757859826,  9.967733263615829, 60.035103741892897,  4.148593133980730
 4.352919817291006,  8.614032014646508, 12.372971807243454,  4.234165700833477
 0.513232723005467,  8.417355416873633, 53.136127666280281,  3.963761171364081
 3.366828534471323,  5.768087823604219, 72.450077817351499,  4.263542218445139
 4.750066743620987,  6.330886314919300,  8.393074963471397,  3.867593591964327
 9.686463454462105,  2.319257389558799, 72.890061347873157,  4.299524761053513
 8.000021386200428,  6.624349994713538, 10.577065813335329,  3.984314639825231
10.001361842966606, 11.845080614761619, 46.064219912807140,  4.140786073902076
 3.909484139376018,  2.592270468704478, 43.852344391313615,  4.226169343846006
11.048053597924795,  0.589329727614045, 14.182604682907906,  3.913348864715491
 4.449856249124294, 10.559524729509700, 22.746805195989459,  4.106171909744344
 1.539378046913372,  4.605486019433062, 40.713994432714223,  4.094334046522361
10.636122222098914,  5.775334119450881, 29.896363914379894,  4.227154712548138
 8.299487473974960,  6.167541350536585,  6.622118993652409,  3.999245561256982
 2.144215098083385, 10.328192087224670, 15.644505955868619,  3.960446727654858
 1.058957300658758,  3.012019006205509, 56.719144035223728,  3.949696687384529
 4.302221259444338,  4.815170758146921, 25.772682592575492,  4.342597071485107
 6.507627372764515,  1.891438436612601, 46.994994885428184,  4.043259622988706
 6.806456886409496,  1.779193002464343, 24.154579483282781,  4.161464181150199
 0.744734768681810,  8.274146402984158, 39.982877882587154,  3.548315022791483
 6.777571675247583,  9.596871402515509,  8.357879504095473,  3.820417869483556
 8.994324613460238,  1.986374125145447, 17.175179960343435,  3.856457342624172
 0.664826536504784, 11.150974309170904,  5.519740223219705,  4.348083787052362
 7.350913598152128, 11.440260874449056, 40.077525122066760,  4.399712378737180
 6.644282672961718,  7.251601191949785, 40.114971452804809,  4.092136904155506
10.934102699204466,  7.886514061990046, 56.891124962721683,  3.850763629254905
 6.784686965816960,  8.035953261745997,  1.817760754538400,  4.108403415228834
 4.951233817759888,  8.462595419307789,  5.254199278723713,  3.726002472591525
 2.783310946925852,  9.667092177816512,  8.738711749939764,  3.902493858971812
 2.855485870316901,  5.925538684274430, 29.515556598143100,  3.960896838661776
11.408412924275801,  1.475502675371533, 53.611358141570712,  3.587160844540801
 3.135468071796833,  2.875567386339396, 65.743616868036895,  3.837095901799044
 5.737418433638195,  4.067224672163722,  1.240098204533529,  4.082263039998856
 6.736006535521463,  2.939604459711719,  8.766079826263484,  4.025721560215687
 7.952498634533830, 11.749798744257825, 69.589497318595662,  4.163133958554623
 9.993231297984764,  0.428244114297467, 26.466057310824574,  4.162776079613633
 9.794061118562061,  5.874431539042139, 65.920469293434522,  3.969561789881763
 3.723367796276397,  1.711694276930688, 53.995850918109319,  4.000858071870052
 9.485726719578452,  9.904295906299025, 73.057114978210137,  4.023049245687671
 9.738111107432118,  3.320788515448854, 50.750205477196140,  3.948609692139726
 5.738198725309460,  2.486299005983637, 71.755813379828041,  3.922913997850266
 4.030552536546805,  0.065080510177948, 19.033740468444588,  3.857771665803552
 5.898572122235251, 10.575215195070360, 44.196838850790208,  4.501910041930711
 3.681285706436035,  6.130489910322831, 37.558580733427306,  4.049231603048644
 4.859321448324438,  4.689932420640386, 11.831172610960458,  3.750123778237005
 9.883541973189564,  0.528086581277547, 56.936487046906997,  3.922143077856008
 4.699644061084907,  9.668389507243361, 30.648634501801713,  4.417559243695226
 5.465777434727361, 10.902356618084211, 61.820499557665549,  3.400878511685264
 7.860099252576025,  3.731820818790444, 27.656489849429725,  3.989011230851883
 5.119753911493341,  4.789167275910043,  4.986335357848282,  3.645295915661158
10.665804101096048,  8.854202872209127,  8.521720101855184,  4.077231846024323
11.569198107302400,  5.382985491657684, 37.071597005171768,  4.107239630359008
 1.650822521315825, 10.841876226174332, 56.176755316043653,  4.132001349855634
11.776500232250115,  0.315730675118469, 19.547453182187244,  4.181372185302086
 9.322402642398211,  3.134821683017766, 39.461001039477267,  3.843108207661946
