BANDS
8 8
NANOPARTICLES
cell(1), 11.921
cell(2), 11.921
cell(3), 74.505
11.887889472172663,  3.277796517831510, 47.192093453535527,  4.036446794338827
 8.389859918699299,  0.481344423496792, 28.334797015711860,  4.030565031621266
 0.369133349276303,  3.627119636754542, 65.476569331809628,  3.941077706021716
10.123117575056662,  9.208709140287683, 42.029787821761445,  4.207672913734678
 9.281622798345614,  1.821359620290265,  9.299609594953537,  3.849028202564639
10.744577356379541,  0.695071737314990, 59.979368277535357,  4.141118699480572
 1.448097824026773,  8.837913225315690, 23.331218961867922,  4.187794515900515
 6.546419892808248,  7.189409570292043, 63.081581981470585,  4.089911466631996
11.252683334338366,  2.318156642339602, 30.794488557822120,  4.363789408609569
10.230375161164034,  5.773846619468668, 36.541548005533159,  3.665204584665620
 1.002489809486518,  3.584619352608529, 43.245315390992751,  4.137719963139554
 1.583140060966839,  4.068677047486522, 72.357147780218867,  3.832492676480856
 4.084230627795122, 10.913498394407208, 57.204913878091183,  4.159162246616575
 2.264432831526566,  5.069852385062077, 16.393728807767637,  4.124563610346880
 2.399889211363952, 10.526979193898795, 69.256552538424273,  4.073156960854400
 5.601675437245420,  4.770539352714573, 72.575366907371716,  4.335690175848956
 5.547718942198582,  2.674298565977370, 68.866947121365840,  4.173675570791695
11.458609238226778, 10.830251218938558, 53.018926659017644,  4.155452771452192
 8.348063654349170,  4.162543238822737, 60.817921361697735,  4.284185603684429
 7.446503922165236,  1.036438353529991, 53.131991494360960,  4.030077830252826
10.305030354172393, 10.778988694432316, 37.320934704668048,  3.873917730772948
 9.880612041894409,  6.351738237149164, 45.243324772328933,  4.274666166930930
 3.390986882463309,  0.609895780332920, 13.927773583881267,  3.993113508593594
 8.261930518790473,  9.943782300084351, 46.587697350679896,  4.014532512269339
 0.961983275619447,  6.158771019973085, 52.662017416824817,  4.281885538775610
11.904987751075913,  3.865928247675060,  7.555175233305852,  3.656533221650869
 3.242681132655752,  4.718277374481032, 11.908337399581507,  4.002549504870895
 4.007103442169819,  3.017524315138240, 54.369053721116771,  3.960493136181246
 3.994823595296265,  3.547868328402196,  7.845783999877217,  4.408364717989979
 8.246938561079270,  3.400012882531278, 25.767253471090861,  3.739717587603105
 6.691720803137380,  6.684288322506125, 18.795194961931557,  4.564162050868154
 4.300023204646553,  5.043126147266236,  4.048931261568384,  3.673780745560655
10.513434673809108,  0.555813743268191, 44.475575214234546,  3.959343234861203
 5.869738418571401,  7.666094306067369,  7.356396354446765,  4.023060438106221
 6.479160356798468, 11.784319468719399, 36.774146811378870,  4.112371488384574
 5.550022380614852,  0.715374098117571,  4.521108940136822,  3.634699925808373
 1.246552347115244,  1.328633426253848, 10.443921363033004,  4.309970114131946
 6.017340983736322,  1.677412710055252, 63.104408092806047,  3.900778969917095
 0.547674908913876,  3.170862737817785, 22.848480411373369,  3.979824436228963
10.657912397180610,  5.440782932869539, 40.376344117570859,  4.060411686080643
 7.212402275780835,  6.871472514822833, 69.442664922057233,  3.828848614756771
10.910546008347733,  5.073347825102248,  4.121090276052477,  3.886699722518530
10.395973332351403,  2.497576220304527, 37.998289133801741,  3.512730108514400
 7.935599571246527,  2.534978278461226, 20.735848053289157,  4.387555911566295
 4.462986868234362,  9.556645100921735, 34.138971052713188,  3.795278885676971
 2.635600275631730,  0.474542050347849, 24.774095845374141,  3.843582269886248
 8.629268950255767, 10.431984438400933, 56.068179288371972,  4.050649232112277
 6.827196144623364,  0.685016597933483, 59.499191917432640,  3.745789966613909
 9.705010964851905,  0.790893650280584, 16.399567538451194,  3.952107282238552
 4.581081919261824,  1.687135279489913, 28.126966523941196,  3.968795555171855
 7.967635267533606,  9.205496137432633, 52.510714368119210,  3.582991640083883
 3.975981841001527,  0.877336428632842, 72.282671833316741,  4.120674953360924
 2.740938305466707,  0.311761710927665, 31.980868941767007,  3.894218829832265
 3.995927680525629,  7.215236348790650, 55.366490514420555,  4.082238284463484
 8.705657867616278,  8.692728987897853, 66.192021651187716,  4.057970497197185
 1.951358501472704,  7.034959310008062,  6.439600747601100,  4.121571970812165
10.785238618029544,  6.129503469272312, 24.788168892337222,  3.837122813710303
 4.465572673786444,  6.358019463312378, 40.531001457257332,  3.975036093224123
 4.580387926990356,  2.526774710613592, 41.626454508511877,  3.994677995371346
 3.369740063907939, 11.007782610578280,  7.427207405509307,  4.322410553911530
10.187931475632125,  9.220833959766352, 26.946505746154049,  3.783565896933947
 9.777629105970883,  5.655734339203753, 28.617673472593971,  4.133638317551277
 7.543791416711501,  4.408572620975851,  5.904986158625881,  3.836402730447587
 4.932821441111433,  9.669026328674754, 29.582104061303152,  4.383317323930529
 6.106627911238313,  6.854362444687120, 32.182918794055453,  3.624969762669478
 9.058275521319866,  7.182026393464382, 13.092722255716509,  3.740123523856076
 8.892612081467805,  2.325206609455741, 56.832739956224920,  3.744551435230113
 9.375031125342012,  1.112796593109430,  4.701540727394216,  4.059468874373911
 7.518865240129558,  5.337105900327786, 53.711729382501773,  4.558093416875165
 4.684473638824358,  6.187169531765034, 36.392682960083810,  4.319552348990745
 6.073426278280302, 11.103312729046868, 49.793905666098766,  4.051023607138340
 9.707643507588587,  7.442535661283588,  1.575089157287132,  3.466858832027365
11.774591881413762, 11.632882242666463, 20.891065169992899,  3.881937335829829
 5.655509453801602,  6.390159067490422, 14.669667129999151,  3.925872436698411
 8.870003187882345,  9.797553741278049, 10.337608863534955,  3.862623798852863
 7.510555413541765, 10.598312124188636, 13.901575019344230,  3.925955961291681
10.461358263637971,  9.182212062813559, 69.894014772018764,  4.193916080996473
 2.544165481907424, 11.645691694046970, 43.836658410472879,  4.204957136605647
 4.312378478944652,  4.557328017712034, 65.356996098802838,  4.163793525164552
 1.809540053015786,  7.609389745805418, 43.281895944744214,  4.067604654574957
 6.771032524389219, 11.847346312272975, 43.589804490931819,  3.668723124581620
 8.003281800336300,  1.337589505056219, 72.822034698667252,  4.055579375786217
10.836159751581352,  8.530696735877713, 60.204901828704088,  4.002088681162784
 9.902696513861786,  5.814854753986895, 32.701440304440311,  4.042481174426436
 4.638062896635966,  8.714898415524811, 66.366488732291572,  4.079314372036794
 9.751823576022788, 11.146510511673441,  1.210218353661636,  3.909872823913383
10.379790804186923,  6.409843422618713, 63.435716793835752,  3.723339698596293
11.211590241445043, 10.935338640982138,  7.499778610662365,  3.837299879116169
 0.601926907027963,  0.833051850944846, 56.384624827608349,  3.883741233019443
 3.711164166109154,  8.631847136634162, 72.695997290315375,  4.206669764260034
 7.278375422106792, 11.321813222582405,  7.376923994552244,  3.516088241735887
 0.388469372014865,  8.786706336937176, 56.467507838275253,  4.037972978668225
 6.915160331153628,  6.496738414811557, 48.143898736598757,  4.014288564493532
11.215128596755434,  5.368697741869511, 69.070652973313315,  3.748218054424012
 2.224324825483185,  7.225798745502403, 63.058603498692690,  4.016851275020929
 3.461769750191751,  5.732878912357918, 21.599945265131431,  3.974677561045362
 5.203117399234984, 10.361709490340104, 17.137435688187619,  4.031980202981286
 7.700921143512642,  9.348531860663277,  4.149024829242145,  4.092151762121166
11.361167586584836, 11.783170267281427, 67.068939899312056,  3.691460828211238
 5.950339814183028,  7.306049534343149,  1.246854926666894,  3.820523977704504
 3.119059719680310,  2.411878557300148, 58.514290305354812,  3.411636467259555
 8.398286914331511,  4.549957802685417, 66.349600742491901,  4.244484409761427
 4.235130537218869,  4.926071860846578, 45.431133453514704,  4.091917382702673
 0.514263978610961,  4.749405873696673, 60.357810809737508,  4.023947142085333
 1.929902233137355, 10.082731231999263, 49.896141428833637,  3.844203180629013
 5.664205660548025,  0.727726919492220, 10.571974370691386,  4.116801442817836
 8.380726923119973, 10.648499335863137, 19.356042013226606,  3.728221477318037
 6.904834823057462,  8.496039912207225, 59.215853721722866,  4.097906111137390
10.742456299540841,  6.826570296568256, 20.638321232478255,  4.338496419040682
 4.442057676267143,  3.860958785807945, 24.884527305177919,  3.833917285797717
11.806427449895786,  8.821915199133469, 73.558966978909240,  3.643559369562877
 6.408826355674923, 10.676349589431918, 69.488621030338990,  3.935576979701962
 7.344532434155529,  3.503005979424841,  1.876865838817391,  4.377735219940301
 9.898277205227220,  7.183011407478618,  7.491509815454919,  4.094006723419698
 4.249564748039403,  9.189383300653146, 46.706411515007638,  4.077506522907186
 5.916374628310775,  4.580589367778757, 57.605468647891918,  3.806955162967129
 8.376307530014770,  0.459589025735678, 40.259156065100676,  3.792768237358327
11.859652114524554,  0.517204978571506, 71.961204140415560,  4.010396695591073
11.323497476943626, 11.008186501695153, 13.303392325257942,  3.819273784333854
 5.041814626453051,  9.844237464343099, 21.377621081299289,  4.236845716366485
 7.424699694190428,  2.301094621033272, 47.000674678088203,  4.742001241098619
11.206724414249139, 11.002446600442461, 33.477463075792912,  4.026143635724585
 6.341564931772396,  0.702025742217060, 24.005341243638718,  3.738245139883442
 8.273331356287127, 10.605128519988101, 62.305053078389022,  3.719316947873541
 1.519266019020571, 11.864881279484729, 17.359282404747766,  3.936622255929441
 2.079056485248066,  3.675602145903430, 38.614128801734587,  4.165036163892405
10.625764668298629,  8.611784676421179, 16.606256141264588,  4.456809472831127
 7.187554355905519,  3.387537246455191, 30.936447074602288,  4.047074607543589
11.358196233670647,  2.829656949559468,  0.910805119656747,  3.950238246298195
 1.096380165639798,  8.132066785257194, 31.015778605265275,  4.358373286916251
 8.361668224549769,  2.449119576727905, 13.054009416457809,  3.979108150936170
 7.739530759695987,  9.239289019840784, 72.910358645050792,  3.926421664827926
 3.422354060183395,  3.057376817035845,  0.976719322737897,  3.693834031840214
 1.137755816585047,  4.674968874696243, 56.455584384634442,  3.869622211422851
 3.071069862037526,  0.568458060428657, 65.670553910700136,  4.209695255979144
10.838042569661953,  2.859836470439993, 53.642852422848925,  3.719710027842629
 0.447710827417773,  0.411439997531453, 40.428046355471231,  3.834624367844348
 3.204210280813509,  6.142418968249418, 69.299232078607659,  4.232592395907655
 0.063024468390174, 10.594693877115327, 63.451203629140785,  4.023505579508149
 9.530665771045051,  4.665309985866559, 16.047377865457989,  3.805142336097787
 3.001047150170814,  7.597218555730436, 59.202939699072289,  3.881135213288202
10.405731862343400,  7.944979595910954, 49.731291583855850,  4.180950909489440
11.663682880439442,  9.321091821783963,  4.043565945932341,  3.831461451975260
 0.277847574294375,  9.509923880806193, 46.436488735591062,  3.907686082958184
 9.575340296144407,  4.059873299813733, 50.281639817348527,  3.837902580686337
 3.844261995061502, 11.144404814121188, 53.143482214045306,  3.987961965682292
 8.263317343097395,  3.397399148749205, 42.867252139830555,  3.967966802149891
 1.653188830802076,  1.836053368132215,  4.452519265378066,  4.474688877816853
 3.276943867153066,  1.070693452606672, 47.628711618094748,  3.967103388974080
 0.911252578475846,  8.403698420308523, 10.410545592444167,  4.528873647259182
 9.744446692964093,  1.745827501092963, 63.525772685495035,  3.491084183045477
 1.619836353666853,  1.833900520267155, 51.134004556397393,  3.926578298208838
 1.139326798452556,  7.833968287669090, 35.125763527700499,  3.880658715948117
 1.596352771373064,  2.414685593222160, 68.942237381463286,  3.734169589505771
 0.696827082753531,  8.003955294644939, 66.649803666191985,  3.938046977880523
 4.340021442520010,  4.556069960198267, 61.144966376713413,  3.796808333496744
 1.075703722291104,  3.503279466920755, 27.056835207223365,  4.209888147003946
 5.817900190743646, 11.373868486540520,  1.017780833020890,  3.831264018817461
 1.700331116551337,  6.498295218325373,  1.549375355286172,  4.077892134844277
 2.248359679848867,  8.286041891437009, 18.832216882641006,  3.937236522113965
 4.988681448374918,  2.647584313285316, 34.230566683016804,  3.995097740121090
 7.061718457059002,  3.896131871651946, 38.863570857963182,  3.919306720711996
 5.165873332296139,  8.575017651533063, 11.289614317848097,  4.165220111984490
 6.868160386024766, 11.806203035086032, 32.433884219225000,  3.582430588033088
 8.991383634748120,  9.781760639075230, 23.177819044204192,  4.203042469118347
 7.189082775025025,  5.091634831915222, 10.219916590309220,  4.114892651630986
 6.486641575606666,  8.017129199904508, 43.547049384635152,  4.008183084006981
 8.989312608331213,  2.300865804766463, 34.494387385159641,  4.048511683816289
 7.219122723203355,  6.027169951243716, 23.046837025366916,  4.097236785909859
 1.228054877655742,  8.518295626297743, 39.128609974517786,  4.241251548227889
 5.148362954192494,  3.615238690579927, 50.549323535907952,  4.062912377625878
 7.794820227790445,  7.947246637135021, 38.747173030740925,  4.213611067754380
 1.235684164918512, 11.385769479281667, 28.336777544164516,  4.071288841269065
 3.631165605483352,  9.398117082190922,  3.597987935453113,  3.995938072331731
 7.765342057436321,  0.569705110811105, 66.332497774953424,  3.766806281882578
 8.967384990151087,  9.162336793170615, 30.655662216334747,  4.022578491064822
 2.379883277857212,  8.663786525954979, 14.441956556005845,  4.058114431437892
10.805141186180281,  0.690446198555699, 25.295892476907710,  3.740737397545838
 0.997685135432260,  3.641711647604353, 34.543931799504314,  4.254275494517112
 3.560992081617965,  1.792782999894823, 20.397175426815732,  4.262342658726663
 5.582914841518303,  8.962779369727945, 25.433522379076429,  4.132439633125587
11.044802526384563,  4.714164763126534, 11.069985614919526,  3.773959886376634
 4.799772643815144, 10.483003958487037, 40.405527558374864,  4.302031122151923
11.677076028408644,  3.133656349378771, 18.937188607300840,  3.999450011774238
 5.890150236475658,  2.677973512027740, 16.738819243911980,  4.583679572378029
 2.078070630937368,  6.371711563345332, 48.543397300510286,  3.911737384591996
10.488916433206882,  0.093235125934688, 49.225358748130439,  4.020392201406517
 4.673308905615694,  7.600209213522887, 51.344269521535900,  4.101684919680218
 2.144013905633261,  1.582571826666073, 61.926858556615500,  3.751163971240398
 9.793919642498087,  5.525622784793045, 72.768406754808922,  4.177691037201046
 0.151376466011046,  2.717271688842573, 14.070766230852294,  3.717888032731190
 1.714239866121769, 11.544710973126755,  0.901105105082340,  3.879995606744373
 5.734143265904138,  5.824977714698753, 28.047324748698184,  4.039124214144242
 9.531129090913925,  6.073433251559032, 57.377874492088601,  3.930565674812120
 2.201488061424054,  7.426034586249433, 27.072305654752771,  3.949585866610792
 3.141561551567047,  4.338117830830176, 30.929708893745360,  4.263084402409610
 2.270587143269497, 11.866383397478737, 36.623830526576810,  4.255782888966898
 8.180226781008527,  8.757352145749302, 34.749093313690331,  3.905204138431457
 4.332299209169272, 10.338789792435648, 61.701233633030611,  3.943069532139687
 9.441924876158016,  2.099990585085824, 69.300072634899280,  3.702595610333662
