BANDS
8 8
NANOPARTICLES
cell(1), 11.909
cell(2), 11.909
cell(3), 74.431
 0.716168499521086,  7.205066543548018, 62.111849355765735,  3.697836284683388
 2.223206556129144,  6.572484479727613, 55.034666628730328,  4.033266602013954
 9.967370301784406,  0.592232682376047, 12.932027836635228,  4.383533238730482
 1.660703192923753,  7.016031794742926, 47.797382498086023,  4.046027010212390
 4.984983178876484,  3.226327275178808, 13.036205907552276,  4.141739923174686
11.592906019946575,  7.692834814146707, 25.281620275338465,  4.000170317549202
11.540955415233901,  3.651818811065743, 48.580420195353305,  3.965489691632527
11.289995018674665,  1.717366989610429, 16.782719775872188,  3.804424042757788
 9.262831313967396,  5.528761998020223, 56.393873279749272,  3.992191358113144
 6.379857233089135,  4.478127444367691, 73.198759080291907,  3.942986750333985
 2.083836121394444,  7.781499113132823, 43.318671566068986,  3.977842990062368
 5.781556552463966,  1.738313726266849, 41.241236831303986,  3.872082631614595
 9.428336279253317,  1.003432308837793, 44.554875062892897,  4.027913914166273
11.141856938205779,  4.336474787101613,  5.628528467854203,  3.946489748621918
 5.947023816365136,  3.466547628607356,  9.178473502452375,  3.821770284643515
 8.555371864191684, 10.037357877653807, 34.361092455180462,  3.922930142941217
 3.476181781509173,  6.398788518121478, 70.223410217193091,  4.228786873589418
 9.389754587225219,  3.681338900674874, 26.523609959597572,  3.766213701912931
 1.584369639952536,  1.576573598567726, 51.290057033959854,  3.884495912186372
11.297833240586813,  0.805366343892842, 69.606386329526245,  4.242404383772516
 4.676551846556238,  1.173375899255636, 63.966947651435767,  3.788427672290105
 4.525617730996633, 11.369539962951256, 49.083384808132280,  3.841308442884436
 4.938284931365119,  2.999735130478446, 33.323248027495929,  3.935683255623103
 7.976174657246524,  5.764772647254965, 22.953151673161575,  4.079072473716434
 1.537115123299700,  2.833664351308177, 26.881439344967731,  3.864901458099757
 7.211802188864123, 10.265148161992506, 64.416802434463108,  3.833569439591315
 3.248840590663498,  2.311519521767995, 69.587275922642490,  4.043235485301046
11.710096818260736,  4.108878021496681, 23.374010031015910,  4.093448516511276
 8.297868036538784,  8.615088490221625, 13.864926867378699,  4.274938032808896
 1.879421463123377,  0.827178763341602, 11.284109338422706,  3.935887203055859
 0.562724574451163,  4.187084645977557, 19.470408673919479,  3.861055570766297
 8.866283038369373,  9.760728995502475, 23.203344163315208,  3.927541503787364
 7.180708355784373,  3.494629490369045,  5.274801149815801,  4.158316284463671
 3.933229050033657,  3.264065631819468, 48.679154840898136,  3.829514803259714
 7.845276623015703,  3.557527596275890, 47.178597040558941,  3.935711790144212
 0.815874288695898,  4.453615575004789, 58.278540661176926,  4.172247575348140
 0.851401159545630,  8.973698724818686, 35.938111560974882,  4.161370176180771
 6.096972862950681,  6.987972111419493, 10.808392161451231,  3.919212845079903
 3.395198475390069,  7.791094127100870, 27.129426447705590,  4.282549923749981
 7.927710443498973,  5.690849232814035, 51.660246529036300,  4.207131966629909
 2.624203084041302,  7.440685173977291, 18.607543069704992,  4.020848932270603
 1.637315440602913,  0.752878893123073, 46.891749467072287,  3.851473734990772
 4.948238909976903, 10.956885899305027, 33.028352348992513,  3.984652370616319
 6.893301642232253,  6.505121321203412, 33.681808836935083,  3.972224322281033
 6.552110551965043,  8.132508276471496, 19.999595658921418,  3.991838178546586
 3.626483447731242,  2.596057988168480, 55.973562165184134,  3.988635220526500
 3.626266097447194,  5.058635393406253, 63.763020689998719,  4.250386268567485
11.411777809151705,  9.646340140293702, 45.661804399537168,  3.926865445910499
 4.737841209498264, 11.808358056435681, 53.007366923819198,  4.027673183962704
 1.144893100115749,  0.521868686844722, 62.413638267478525,  4.024810888642765
 1.670939278218206,  9.463414793450479, 22.134397511852239,  4.219813799711374
 3.730761753600126,  7.183037241040567, 74.180229411117821,  3.844470793881313
 9.880085606314035,  0.446024725562000, 52.473432106444314,  3.815901125194871
 9.532671666012373,  5.860921560147533, 60.334034038042525,  3.923939816606167
 8.716642570744824,  9.889993249329367, 68.032295661373894,  4.030265041047730
10.660485635055853,  5.691101940387146, 45.172722147874630,  4.166170905529849
 7.408646011270579,  1.705489243799993, 23.687459251418144,  4.190521779584315
 9.047512237692029,  8.501111853105481, 42.673406189834296,  4.015006386693173
 3.855460582292803,  8.112986144178597, 51.675589836557421,  4.022584744329036
10.505421393960914,  0.774826745588205, 20.702270746440416,  4.386361032279693
 8.878959272602414,  6.609772118890188, 64.882196595763574,  4.218690553111547
 1.169543874107901,  6.629522733860347, 66.527615852724125,  3.777477040711455
 8.804264333109652,  4.645939944844369, 12.771683014654576,  4.020634031519847
10.737150002464558,  1.867812095850028, 40.899342529814760,  3.926704945681601
11.844722832219746,  6.995332651281591, 73.752703811975934,  3.794824695324148
 6.215368802274367,  7.597424456619430, 54.864654173587489,  3.976834398890579
10.821327736334760,  1.950297617443968, 29.609109302098446,  3.839077787487929
11.849900134199498,  3.148580443900066, 54.507345088085408,  3.985158601542187
 9.425016246633513,  9.792150786781750, 30.524421054050840,  3.886958968335255
 6.266664905965165,  3.859411597905737, 67.016467119526013,  4.462671578672435
 9.679349557075433,  0.071622385632675, 48.501316223121336,  4.095856400068977
 9.049102605485331,  5.421136365690871,  1.690644544939026,  4.178435079946552
 9.940336855008058,  9.989137140072405, 61.189245125406757,  4.250912007282554
 1.797669205912597, 11.280056873623568, 18.558070853008989,  3.802668676701920
 9.084577097573373,  2.960378405194144, 33.660477172840302,  4.337699430329029
 5.868355835683473,  8.381870286833205, 30.267400311738658,  3.777561974382692
 3.057153185985523,  6.276280498755552, 34.071372904341345,  3.741530393684043
 0.112587508808956,  5.970887862176099, 51.724305115542968,  3.903056212262334
 5.320219606488440,  9.815370753353680, 42.617069430172556,  3.764027507784873
11.623773734061496,  0.799677166894285, 73.634914775696458,  3.837651375845499
10.308238636752510,  4.411346200803470, 67.994789308503499,  3.900427019482217
10.631068375743876,  6.068036957831041, 16.458131911254064,  4.130383354410074
 6.220018144888797,  7.571201082417947, 61.721251941737094,  4.029948360397925
 4.206496841302585,  0.181538092342403,  8.227271659962804,  3.849785648226647
 2.496925116798091,  7.434665862478771, 39.355980866680689,  4.019565367918397
 0.722354774607733,  3.778573973826397, 13.718581214695343,  4.052612322580692
 0.000976305995152, 11.783945164796062, 32.974921611802301,  4.128637155530203
 2.181276757147524,  1.376197378660522,  5.082085064698388,  4.000773182154638
 2.821855604302080,  9.061945248533876, 10.337233741616311,  3.882998067952470
 7.680785494605192,  7.636666227681268, 26.713962749354046,  4.332174993051731
 7.224588350234999,  1.029654716923638, 30.601012410947309,  3.757360783987495
 4.666039086441874,  6.021999454895070, 58.269854190761571,  4.140383687124341
11.428713937759548,  9.851547120866458, 65.050813183621457,  4.028177223118426
 7.435765880618706,  2.214727205726668, 16.134136853364737,  4.011477998752068
 3.371430995420763,  7.080891910698742, 13.940991378645611,  4.384464895238387
 7.354680036583992,  1.416270451231273, 70.186346592427498,  3.815635347901663
 4.318993290474952,  4.306866912051562, 37.331319484461318,  4.273511881578175
11.475134896262334,  7.659964544149831, 69.924638021584045,  4.008233983856063
 3.959410039984902,  9.405926054471612, 46.072035131494808,  3.419991339690943
 0.411744588339598,  3.174079470377280,  2.108445684473554,  3.792743931981612
 5.328737414445683,  0.982736999073043, 45.216499852947337,  4.259604905086495
10.143267921040128,  0.615811332687931,  4.349254523087841,  4.169797571126401
 2.991093811909086,  1.079127397234357, 30.141286266087050,  4.083812176485030
 3.792553905139366,  2.714839088292901, 60.410011358042965,  3.929190659847040
 0.158395819139741,  4.644374918850272, 36.336978262809083,  4.303511772329312
11.341933232206435,  3.905441664801805, 63.285234411828363,  3.755624051641806
 7.934564348666585,  4.938306152052871, 30.032905996428610,  4.235566227575934
 9.142943238203086, 10.146436671263963, 72.011533755755863,  3.975841244514628
 7.568754007718310,  9.663423041685183, 46.099174645661762,  3.792887576200064
 8.257987111992923,  4.177993232659726, 42.551391638727182,  3.552652982065827
 4.850619416245050,  4.585396300902802, 20.245299072166635,  3.879918035438135
 4.973120125277303,  8.763329577430508, 36.422838928489696,  4.096823951574261
 0.021631226048261,  5.941441483689896, 29.011788175036234,  4.251771189516328
10.252546831648527,  9.824134664257752,  1.368064024232771,  3.874845766943779
 7.445988355915704,  9.704435804862948, 51.022274759055698,  3.895781985968384
 2.771583216782495,  0.586222294727452, 15.061306710275762,  3.840127491093764
11.554534710301661, 10.026057798875904, 40.074747097908137,  3.807185824832843
 5.404209782090905,  7.960695679821790, 66.985567522843112,  3.914988786846014
 5.544110519743680,  9.892240405317409, 70.499108352706159,  3.797974563028322
 5.803842006636367,  6.401294408850027, 44.263680037755556,  3.874076308977472
 9.108957599267672, 10.159826410333739, 17.635409112299396,  4.033688626571164
 8.859692544609434,  7.175776864708678, 37.086161026448842,  4.002972001959064
 1.880587846922305, 11.888187489452319, 42.902223305961506,  4.283953262941833
 2.331775154170543, 10.787862333841570,  1.703645474927842,  4.355132700782695
 2.745441923928739,  9.457082288409417,  5.807283169267614,  3.867666274944938
 0.255327773867982,  7.347795793236764,  7.945501910468005,  3.921652569178117
 5.510824373786793, 11.827668750033812, 67.337325237631930,  3.585949101256237
 9.144430926896607,  9.248781214077773,  9.931368656597922,  3.869009787558156
 5.492233070315753,  7.151169037500444,  3.575919187857646,  4.578530293635973
 7.608190747881077,  6.559424797336225, 70.023087372669281,  4.033294919855122
 1.069311087666948,  6.964343947109856,  3.135929512903609,  4.161836761427033
 6.333969834485380,  6.579262657285597, 40.265796640342636,  4.048372379119501
 5.863437635530245, 11.292165579338077, 11.750909142010570,  4.088583040010298
 0.967964024029448,  3.666557910244995, 32.330513051926609,  3.796116705037446
 8.574594563305576,  5.965943050714704,  8.046538613471112,  3.772554473011005
 8.568297698111254, 11.703930884614023, 27.150151605348903,  4.039010392405146
 2.069234071836863,  3.840684332221329, 73.087094121708574,  3.931546754531456
10.635026154870742,  0.602961815953922, 36.962841238431018,  4.343302663817402
 1.469244939539889,  2.143483902898243, 66.027334388541149,  3.922323741915787
 3.544404681452323, 11.201048575199668, 39.298840858962684,  3.769496532341909
 0.481529578289429, 10.595484191629359, 28.046950964013597,  4.003185000912591
11.855176666460846,  8.460101330523999, 57.826184496396110,  4.054283470696677
 9.718077677966139,  7.643832150904059, 48.583196246888221,  3.913244099746865
 8.078902944788805,  1.477136164047773,  0.863577206859323,  4.102953394054365
 7.540085528218178,  3.436894549129750, 62.701649668348466,  3.933342121101012
 6.611817628111538,  6.066977006467477, 16.589532981183979,  3.907909257879207
11.521692973158071,  0.381940852372128, 24.645600575928786,  3.789089911425671
 6.515960664301242,  9.743060224140963,  0.434321901620253,  3.818339093782817
 1.345787822159273,  0.314371180143296, 58.400214965441016,  4.014548456243280
 9.536735755806676,  8.390822213882435,  5.053456539623338,  4.160253967784733
 4.839135011838598, 10.774641755757923, 56.930682155761417,  4.085871357367687
 1.087437421047137, 11.247492896379768, 54.539043629797568,  3.957092991685232
 3.293403035610468,  4.026753016359515, 16.729789586529559,  3.878261635704090
 2.360959009192605,  3.729684257052609, 40.972987039697863,  4.059748625430616
 6.121833058708532, 11.441415411678655, 60.698591274358279,  3.978041315194695
 3.354691639161041,  9.396293922183895, 63.895392924591015,  4.030972618780720
 5.607816814861573,  2.662927012348668, 27.351279146930334,  4.195858340662088
 2.637557363255183,  1.606675275730242, 21.726493615663721,  4.108927756541412
 9.422011453615980,  1.399270537136886, 65.573228395393500,  4.026665703729026
 2.594786115885718,  4.150466234789572, 45.033674643604591,  4.115042676587046
 0.339063930548930,  9.792723134042669, 50.725097850147385,  3.982364034432543
 8.604925189629759,  4.189479246038326, 19.355555364250584,  3.875182286495761
 5.744613542019255,  6.854181410652237, 48.262472785748876,  4.174910077640028
 6.263507334635261,  8.930697550130910,  7.338902645172515,  3.877282652885478
11.647143069862278,  7.249929843420029, 12.047780736562842,  3.808576379359705
 5.846449723814754, 11.545685036093609,  4.146181000495059,  4.311103510102667
10.120433532832713,  4.011386560453346, 71.924316867446990,  4.003709083222840
10.883077804899099,  3.094035334344476,  9.568880281634172,  4.192231573969774
 5.228620911533873,  8.474843310438061, 23.616545801259786,  3.735192608999905
10.851716284488683,  5.799435681747521, 40.296322859167638,  4.026838739613356
 7.296281014990895,  2.680956096248159, 54.385335389843945,  4.010348248633349
 5.220121019256799,  9.802921301061701, 16.589658820560874,  4.049994884697636
 4.438359066298622,  3.125213152249536,  2.109199359158341,  4.241821261887675
10.811380450422782,  6.951237314581014, 32.929790330229004,  4.054875468887961
 6.954200249255659,  1.984220155277448, 50.576253369344052,  3.744838485149354
 9.420315890125387, 11.792981443859784, 56.709464671086160,  4.407323897980631
 2.527415525713507,  5.074593889151211, 10.317674955200502,  4.066513586751123
 8.092108464760551,  0.495677939723681,  7.858551709599634,  3.962946638867325
 0.034730805915070, 11.330589124696500,  8.018026334860521,  4.038615827598660
 3.846456176129026,  5.036076818200739, 30.138544278924492,  3.923187006526743
10.484555920174644,  7.503726019696122, 20.308341596959668,  3.965647156092900
 9.994998579618962,  8.637895140505105, 53.905780614890311,  4.085728549884154
 6.238909949240276,  0.471110580307150, 19.757327084431349,  4.366790354548845
10.158545893605604,  2.016367320523113, 60.183599291962473,  3.866420344863212
 3.485435189570099, 11.602881934984364, 25.299287426312667,  4.171279788592248
 0.232310072436756,  9.556143949473817, 15.118542979462070,  3.925033295520174
 8.162955214880558,  3.532558180216979, 38.464824670081704,  3.889327478692071
 4.712260325340154,  0.838076638355862, 73.067964018900710,  4.056223157738717
 7.704820670203124,  8.483366782500788, 58.279196103362132,  3.675000732474605
 6.582532093135845,  0.940315072037454, 36.133139059999387,  3.762043830451427
 2.727085674152872,  0.803615676216237, 35.829682142639278,  3.966029367662670
 3.074502496778155,  9.168019269279368, 60.026291911736422,  3.717886710850673
 2.099661920365709,  8.753236036321086, 31.225392124030787,  4.024078416736679
 2.195721112753625, 10.081202889851239, 68.066569677267665,  4.046353291348092
 3.832450048838993,  4.769400171969250, 24.168091093962477,  4.223042533953308
 2.002221898202403,  9.968629793171910, 72.067858824290582,  3.948128874586738
 4.217764484907677,  4.224916362053023, 52.419048623804116,  3.911976421864794
 6.966982675667517,  2.809750203617150, 58.253508013582135,  3.748015400718951
 3.046922300226804,  5.041527673603181,  6.350560438038316,  3.932882973243768
 7.564842085137049, 10.485904081383477, 39.295030792469376,  4.363764820094161
