BANDS
8 8
NANOPARTICLES
cell(1), 11.906
cell(2), 11.906
cell(3), 74.410
 0.408225342518032,  2.121369645330335, 12.018299882803031,  4.115648385332012
 5.311508962690860, 11.483415436439351, 28.751506771718876,  4.153191907073058
 2.083691335229838,  6.157086018259058,  5.017567529306439,  3.984850370974986
 4.418956467672381,  7.154638052029206, 29.097881613644034,  3.960562527895569
 6.396783177222570, 11.166631424004354, 22.817865938430248,  4.469334423562965
 3.520162615249798,  7.832962574484525,  8.404673981973298,  3.873756876810531
 9.613976654120817, 11.744842864225788,  3.227435115793945,  4.084825599092203
 2.484448593742972,  5.657960969003633, 47.055259970253189,  4.079853739328286
 2.552208460542774, 11.810542121117908,  9.319194224862192,  4.011558171578719
 2.301496958463733, 11.741977792544011, 21.969786185772936,  3.973606749925235
 6.094345398963136,  4.041474667046108, 54.251905048454915,  3.961780620679809
 0.393594473684907,  8.622493104817094,  2.288374823061583,  3.971557025857993
 9.293522127158447,  8.499592076926804, 38.495590776541412,  3.869091130434254
 4.573772620131265,  9.697180263442480,  1.014192628621245,  4.241431783746525
 7.201803963763726,  6.607732059144682,  7.980024324298573,  3.922009455335981
 8.998803517490783,  4.556204934069398, 38.247296101083244,  4.029859417665683
 1.428286242454141,  5.957971442795296, 39.119523798509370,  3.841427801942872
10.095024969211796,  0.586155653631983,  8.907457611876541,  4.116277301391133
 2.033935777226913,  3.927980309335032, 29.183520383008812,  3.992321650986438
10.875427229504188,  9.925961413584705, 32.198804310588038,  4.026219358524409
 8.238249559907057,  2.137038406343852, 57.185469150907373,  3.998881209480036
 2.851288668881193,  1.872670199663220, 68.730135237442141,  3.929530262539291
 4.295862793829196,  8.374649669039668, 34.883626139200615,  3.860107370316490
10.703682192226548,  3.161351689308445, 15.652024858425969,  4.098260073442738
 3.822700093864834,  4.024042634789700, 63.084459859130462,  3.985150261854173
 4.068675165211857,  9.474972077849904, 12.149367486251634,  3.919069336818138
11.646622304179200,  3.713739386793489, 44.755370379706932,  4.060461776713973
 9.666356277726786,  9.242154239893956, 50.813708546790195,  4.329751854289740
 0.638540801387095,  1.038868149611445, 56.777361046995871,  3.894142483621986
 8.862076188025872,  6.909420028279065,  3.484540077005073,  4.072861177966769
 0.081701102347738, 10.168732300342132, 13.480056739981531,  4.161390093595738
 0.907710725302493, 11.292100792538719, 38.423027948747212,  3.849171998341803
 5.164157358426205,  1.742641111158870,  1.437894484297253,  3.791981520293639
 1.817002160049183,  0.398837892243054, 43.699155647838879,  4.030968302983850
 5.493600075836961,  1.533175075340795, 60.234024650680617,  4.290234919373242
 3.339489142265711,  0.406384519294822, 64.954996057973858,  4.211307260870083
 3.506134715285781,  5.275711051295084, 25.917925318699616,  3.643148838202457
 1.713891394538343,  7.856054521979902, 72.884352497648251,  4.243134693482425
 7.938749151369701,  1.469972837885829, 19.610634386639454,  3.907349535290026
 2.901452763325124,  4.672088018912539, 42.487981885884878,  3.947184219249658
 8.884336278109842,  2.298065953720395, 74.276025535658775,  4.356628314027128
 2.654961232087514,  8.790988758832027, 67.116567774475499,  4.157392845844641
 5.689193875857999,  9.414372432895718, 61.154725887372194,  3.974215506091049
 2.602916934239787,  9.091838692388546, 41.291546905881127,  4.134790953519078
 1.590014490251214,  3.988427425190135, 22.199049154019185,  3.952429069941892
 9.303824542491229,  9.477992734189502,  6.451965046342377,  3.817575984681508
 6.013774917632460,  7.529499653950283, 48.144641466007251,  4.199651493928630
 1.350819533289946,  4.850836867261090, 66.305787804132535,  4.297868564354395
11.738135180602086,  1.028013384880414, 50.921423884884540,  4.130450660849704
 9.555138840486835,  4.303485690057675, 10.183311326390159,  3.816391290725491
 8.637241492490482,  9.246809332604464,  0.190507933346059,  4.017247143742278
11.073734515407368,  8.258210444731903, 64.959803512297825,  4.029447512911074
 8.168219705999450,  8.487435393901398, 19.023447729672156,  3.781117434055649
 8.182935325638972,  7.790093039436637, 11.829776541365865,  4.365493976423106
10.768624415189231,  2.680857766494090, 69.002075082273393,  4.224984863287094
10.596176454504294,  5.927272724000775,  0.159312899586853,  3.677007657408247
10.502918004286730,  6.941109271136542, 47.365510205572214,  4.128243147948835
 5.671680199623673,  4.474959964728823,  4.232151298745702,  4.089001856929453
 5.650493198803935, 11.026855008892891, 68.651331602634272,  3.919854294690114
 7.094885804337018,  2.052384027112022, 64.354378192747262,  3.996522444731399
 2.112241217038223,  0.831200631074104, 15.933166125153319,  3.987405241562833
 1.446601262854732,  4.680244834775485,  9.162677732872371,  3.823887276842932
 3.886975644440695,  4.450273526795348, 15.161754842224498,  3.837023490379051
 1.702150133878167, 10.250762542628973, 53.666699638812815,  4.199297211979489
 8.013366783568721,  0.935699470591460, 31.305275982863808,  3.743056990968112
 8.340869657225209,  6.491480179611019, 29.028090751589911,  3.871287773167832
 9.792226401424772, 11.261466640659668, 16.782123788680472,  4.047222378625033
11.594297380131298,  7.122392170337461, 69.369616468242171,  3.998340757440810
 5.364775101096319,  2.976116150633774, 72.196268743973519,  3.924510004329002
 4.388854879560291,  5.623984655304610, 11.493813616017841,  3.917010760689052
 0.117857052216498,  2.388399645893259, 32.232040129596790,  3.832332813796217
 6.533832034632783,  9.152870529773473, 15.493746545301802,  4.102826522969819
 2.459334519136625,  5.639670271669210, 32.747491631733425,  3.945544807404554
 1.136942178264410, 11.803925069497227, 29.207049736800663,  4.261723225964000
 5.252885247598980,  6.334999381645926, 38.157354366678632,  4.079105961480179
 4.921799618272598,  2.381630013718823, 44.704608583266278,  3.595079470413904
 8.306878408584932,  0.103791240954515, 12.652704741683266,  4.233039769095023
 7.212318439693802,  6.182309815712780, 62.883052040758471,  3.948214138965753
11.108971953548066,  3.582613928213063,  3.146477069920893,  3.974652848500196
 1.164399884047709, 10.413818422868877, 62.036778550063367,  3.996491236802894
 3.609315131955800,  5.721798328996145, 69.787339630713390,  4.180143680962915
 9.645568130787650, 11.287682659278140, 54.531991395469760,  4.152137871545657
 6.057994904656723,  0.043687130244761, 34.706241235512969,  4.113113657156581
 9.904818703913563,  8.095195259129465, 60.705440267780510,  3.957895968673872
 9.648620419833078,  3.082814342947179, 48.155684246901629,  3.925924442475520
 4.331919291283715,  7.574034260401672, 23.119572842816652,  3.784358986242043
 5.385414282958831,  8.501224308023833,  4.941012110990031,  4.102193258282129
 7.980346356481194,  5.470979908891060, 51.060291512735489,  3.941587663853341
 6.678305418722360,  2.967296917400307, 68.428889065013777,  4.053653782446039
 1.195812508231226,  6.272634786839203, 54.294842540637781,  3.859616786415068
 3.716247307402038,  1.426637522181895, 25.411973292039406,  4.118009896343112
 8.843529819085230,  3.035336481471189, 34.495263138526902,  4.072797695238037
 7.757774141517810,  1.537701607500150, 51.621420906352562,  4.016337405199878
 1.401912538371012,  2.201110391918659, 60.495725816914089,  3.962843138458931
 8.126077492093538,  7.338986148220572, 22.672596988481843,  3.866429476825268
11.685196360673645,  8.726030080132105,  9.574686078165156,  4.163682790306428
10.415659071028955,  3.379569562735061, 54.037281881945709,  4.048302728348430
 8.388808761187228,  2.316089557330510,  5.898539455541137,  3.599977354477535
 1.270647085796996,  9.977785032748336,  5.956432455675265,  4.038542790658680
 7.440970630623045, 11.524798891349640, 47.896605203222450,  4.299014041513254
 4.873689325819875, 10.341593828510325, 38.199487639408026,  3.927868650759379
 4.682864186023718,  3.698046454635146, 35.276657906748561,  3.762033323603209
 4.934562151531012, 11.102058752830883, 18.988859700683513,  3.728506608326602
10.331260612459296, 11.795554180429210, 59.670724576501215,  3.742325682105492
 4.740354811386625,  7.452936098946969, 56.119013293640137,  4.202097334972012
 5.243781913747025,  0.117035124323338, 41.821544069243494,  3.759910609808537
 7.571570345087440,  5.093944072696483, 45.183373948445407,  4.046331362337332
 5.642897739673823,  3.394642998067309, 48.352831479493048,  4.113273216778414
 4.391825017553140,  7.166444406090375, 19.137064036214088,  4.222741949714655
 7.874144251357376,  7.848618983145153, 68.291758387967292,  3.870356289600920
 8.107690119933618,  0.703125750655096, 39.186618492570325,  4.085646752833464
10.192862476142663,  7.327002339730003, 15.863289948546807,  4.067628420434181
 6.331850877684086,  4.958943857100154, 32.024573624776806,  3.948796061436920
 1.246412494352801,  9.829492718549163, 18.589280820703326,  4.075377851250821
 1.700248966150512,  0.478119965481649,  2.746351999007118,  4.029714027138702
 6.329642500422173,  1.208953814608704, 16.057151088131331,  3.910432021617179
 1.358233923722185,  3.129256077575086, 72.240437286927047,  3.999981976753443
 5.444582200956138, 11.898967827711829, 54.942907053634869,  4.350507426417916
 3.967569245977407,  1.816649289367403, 31.844544941259635,  3.810685349815877
11.307133468663562, 10.840586349976137, 46.556365635855961,  3.997239452351123
 0.620318633725143,  6.150499842034073, 12.736882156697352,  4.079987350943727
 3.375061475222320, 11.484000937209050, 71.902614555248263,  3.968410968857603
 1.770692311652925,  1.836125192733199, 47.573052236950879,  3.763365578223214
 5.861055110665137,  3.565162941681387, 28.406710105641164,  3.846825074925397
 9.940503030017659,  6.331097586846493, 41.932570309178743,  4.360614423618611
 6.314927348779928,  5.893035207784602,  0.415299090695416,  4.152998253312671
 7.847413617164580,  1.203985667335552, 26.159134959235704,  3.782502269004857
 0.263721067955060,  7.784176017575053, 35.601501805575310,  4.414630429188444
 6.849665227624782,  9.042938885715783, 31.808942281730484,  4.241962435665532
 9.489319315022398,  2.725245901106365, 22.902993156875073,  3.789501601162657
11.744488479199456,  9.075722640261054, 57.269479633837960,  4.038460301245092
 2.689043860143789,  9.229077808132642, 31.658578860247957,  3.467388670324488
 2.464098535739195,  4.861367350880233,  1.247693680932160,  3.973580341587295
 2.779208730267111,  9.425948693590039, 26.210249741573197,  4.061252945139055
 6.661094673176476,  3.741853591804186, 41.472722559803806,  4.041248464111329
 7.929396594768638,  6.907748020737060, 35.166956331635824,  3.996946656803329
10.401764880628901, 10.571441764722746, 21.486731555800912,  4.045668067429972
 7.195818342127735,  5.861547583211442, 58.924613270311191,  3.825798898792295
 7.402889792278628,  4.026291675868881, 13.487320784545132,  3.982160475555573
10.637177860214837, 10.522012998239722, 41.687967533636943,  4.147738097043505
 3.318279071418589,  7.710026809821710, 63.498944953020597,  3.500278304724693
 5.987738480891472,  2.821317294793444,  8.974150845370954,  4.265998381675385
11.365182424980713,  4.890066283916624, 57.896638376775471,  4.453284592979850
 3.955244879932440,  0.240416008788877, 50.560198716623262,  4.292704097652983
 0.338046617990749,  7.653541185302220, 29.032276035842781,  4.197829181297755
 0.388130105925013, 10.943891850645134, 69.531213740214071,  3.735351348073741
 7.390571017523155,  4.813151856774307, 17.457603099486384,  4.108096773992359
 8.522451206142053,  1.159850073157805, 44.144621089929515,  4.086303386116489
 3.610224952863042, 10.479235263089414, 46.743793649635819,  3.901423724296122
 3.828002096279731,  5.277876629208709, 51.250276094038163,  3.692310740938687
 0.219110679945010,  5.371332816269805, 62.442573346130317,  3.808262333525835
11.729557626407836,  2.576136443238092, 40.709285209863040,  4.291621047601112
 3.502244191889653,  3.724028945737749, 57.322695881553400,  4.011317731667067
 5.650013608419330,  3.833722197205356, 22.619385112071193,  4.203366669110928
 5.263569269093892,  5.837843248223754, 66.184919767076806,  3.749664460517572
11.822944765190687,  4.183612573215453, 25.724680281120829,  3.843583465058763
 8.273518397960531,  9.039193272764454, 44.665671669686624,  4.008352989243990
 0.019438358505166,  5.090433158629131, 50.713304042851817,  4.008738647977173
 1.200052688908053,  5.491788035978674, 17.581509738266199,  3.626493940699865
10.457826491874314,  5.945357286782459, 32.264846090628851,  3.938009874591918
 5.982978498637556,  8.478276125770355, 71.689624637701414,  4.001278838156036
 3.360648055637097, 10.598577132821415, 58.231428721688474,  3.857914531153219
 4.641790107691866,  7.597662502378311, 44.368036131064954,  3.828668098578438
 6.548402822898027,  8.513756809042345, 41.185121178212036,  3.814498306284406
 2.438354369757431,  2.589790199601296, 53.625112212541119,  4.000174315125531
11.620494178049411,  0.158973740466889, 25.179837145583516,  4.283292955865270
11.905256593003095,  1.743900148906706, 19.288479030022721,  4.053295365493579
 0.702099178922056,  8.076259524985691, 44.393061629877764,  3.412050640218815
 0.952474059734652,  2.040820737791653,  6.352288139016880,  3.948803915863532
10.553586641042775,  5.238610730596269,  6.625820286671964,  3.805942741714689
 8.817926494153696, 10.953682410274824, 62.855614750661289,  3.507794955917099
 0.951111168200009,  7.652129126127639, 21.764359608065099,  3.497875102647269
 8.515817940628299,  5.321388159822524, 71.322705976748395,  4.122877054741021
 0.766248892510598,  3.423871599504607, 36.068146621653575,  4.200397300822730
 6.238721881472379,  9.420459655480734, 65.091221480145876,  3.974757694096767
 8.034456386042324,  4.906186026714756, 25.594048781190352,  3.716674279268564
 1.807875258840271,  8.617121653781973, 49.801911731792167,  4.106136175769227
 3.896871465249963,  3.005290470144349, 18.900685196418575,  4.168106983810969
 9.224505156032844, 10.380025356124632, 28.570488574369939,  3.984308237931794
10.335685471833614,  5.319988026665791, 20.161032005075096,  3.947542034323710
 5.681618841440111,  8.630722430279720, 52.199998765539540,  4.195293582243395
11.310584374147670,  1.715859614987798, 64.142471208499742,  4.228902177978474
 4.713826726959169,  0.653358175291035,  5.556919609873241,  4.215231598761342
 7.674698460904664,  9.788117752448896, 57.742284596399443,  3.951790512090117
 4.405984696616850,  1.512370067679712, 12.587448375793821,  4.043811444097461
 3.682269470850460,  2.451919548167801, 38.938931736571448,  4.182590778089132
 8.772010202226458,  7.154018420690853, 54.755929350949401,  4.307850931235362
 2.767587712343882,  8.057624924794800, 15.459308020569587,  3.732366317593523
 9.279648050371193, 11.309846290999586, 66.928423544899630,  4.070469590770164
 9.889897248333627, 11.298219121509664, 35.823282810056980,  3.958756749214888
10.095465008836289,  3.062911584309484, 28.964917977825621,  3.803609396694094
 9.131587190969711,  3.262009376290027, 61.056486398295569,  3.929641185765478
 8.757968105471273, 11.367753047554686, 71.152645462320237,  4.081032741463786
11.108183426104972,  7.971770675922965, 25.127226477572993,  3.946605581196782
 1.936066604340351, 11.604552264907840, 34.564209686379627,  4.160876044339993
 6.445074048691614, 10.530342021890869,  9.039849065603626,  4.174716233987223
 2.765572868672998,  6.923420850036187, 59.782801007080685,  4.176506814667503
 9.160272148292220,  4.954102628934115, 66.054062486422040,  3.882673962542182
11.838690633496581, 11.387185593412006, 73.769741540248873,  3.860129129237166
 6.693951645236724,  8.542782379701602, 26.117050325827933,  3.965085737761405
