BANDS
8 8
NANOPARTICLES
cell(1), 11.932
cell(2), 11.932
cell(3), 74.574
 1.389758759751677,  2.123991655138595, 61.857859512516953,  4.004877435278494
 9.733181767298161,  3.748671974681809, 61.109831175849862,  3.848794323009783
 7.957390913143783,  9.365616602313610, 41.494329672536537,  4.215284926262721
 7.450655184461607,  6.665373838756603, 54.771713661046078,  3.859276580903479
 1.237458276935463,  3.343111325157369, 46.224563415584349,  4.412526757656633
 7.750537634802539,  5.605442666670639, 64.992959742447837,  4.148436113847320
 2.202202482955849,  3.315629412317105, 58.200199435955568,  3.583610620855250
 6.281087039637709,  4.435331466719708, 19.974822371662967,  3.901683596232828
 7.675716422338138,  9.649598149812626, 52.304425370796309,  3.894921665147845
 9.035820065217235,  4.319571665623092, 23.014673556387883,  4.231650668708570
 6.677635236149657,  6.406760688326444, 39.275642874654622,  3.606799845481124
 1.515699992200858, 10.070802092802220, 52.627154274055997,  4.098617669624589
 0.100777633807725,  1.003758478638822,  7.034678336066342,  3.960871825291222
 1.458275377548574,  9.893089534598955, 45.986441433549842,  3.744959479569757
 9.869616730692156, 10.919726611245363, 55.445667343551833,  4.148157349244903
11.843327316580732,  5.272775830963119,  0.231003593124266,  3.896947883078046
 3.566610089090200,  0.936587571586855, 19.481577590255558,  3.948667784846479
 5.159178329678713,  3.706954741810358, 41.248919537657912,  3.728226893585297
 5.840257454560027,  2.467342058611403, 16.430715652775177,  4.252633615865166
10.212561510274769,  5.806851895971253, 57.589476554176883,  4.191702504528266
 7.554544482040485,  5.595701159976999, 12.864729555843502,  3.929064412840377
 6.404344940220497,  4.993057781430857, 59.116522462798343,  4.152129798306583
 7.371595514136595,  1.149932440653287, 43.030148647499381,  3.909753106611889
 9.741914748867709,  4.236785511905465, 16.108814229165052,  4.308789490604863
 9.868444372229746,  0.040158058276795, 62.684051214852914,  4.195206366151695
 5.506524556376104,  9.302137970699841,  9.937057628925173,  3.875411677027653
 2.070017107513750,  9.580175419931143, 69.332507293510602,  3.945234189821043
 2.681310539586068,  7.040057419152379,  4.015554326064431,  3.701633200533212
 7.095477304652196,  3.183031447356710, 33.891788634945208,  4.030375420518305
10.980299585787101,  3.324979238233090, 33.390684464225664,  3.758105674390755
 8.986065893171373,  3.059573025049067, 46.059868678199571,  3.942699526774061
 2.165745597789901,  2.124402460242262, 39.560001853982328,  3.820101359109335
 7.488803622862709,  0.676793701611802, 59.473294310627637,  3.889940274293454
 3.095017060034000, 10.502075234491095,  1.311237349157560,  4.041138615255091
 0.940771974329262, 11.141247181829701, 17.113105025348240,  3.919893438985028
 9.577971774025293,  0.304069474199780, 68.298200902936941,  4.028526985934145
 1.445105442734325,  1.918094211882278, 68.557119613524506,  4.241372601513738
 3.674775548062361,  8.257870224924023, 65.868562602628828,  3.860356410292180
 1.835364127010108,  9.560833020511243, 62.057599670784747,  4.009068156202963
 3.502366172689067,  4.086707558575166, 13.285995666260250,  4.220100074613611
 3.619534120410768, 11.898342285265436, 59.340598506931279,  3.965168479434449
 2.044499909544219,  3.382797180866249, 53.177854844609080,  4.246320233651131
 9.740440504138684,  2.937837378493231,  9.759601841245372,  3.980322087418545
 4.515617027024557,  6.265344054740557, 62.542367948940544,  4.074053518513849
 9.259311276160609, 10.812509351132993, 10.133303639928874,  4.222827288924586
11.100547972951004,  9.871567657836669, 13.745823067909475,  4.100135242317477
 5.120633467115955,  3.696402461688216, 68.407982646758398,  3.928889394221843
 5.420209369751270,  2.066265924575116, 56.210684846234457,  4.316669890621913
 4.011383075474364,  0.555513441595524, 31.380180969643011,  3.492392029619373
 2.712216910717319,  3.056676083889617,  1.802196351934618,  3.846547407486181
 5.574499730802784, 10.457116402349962, 17.207770027559114,  3.800915729393369
 6.217845966406010,  7.593726957330011, 68.962190724324330,  4.238514003180432
 2.255518157731276,  9.690140045654708, 33.257079338499338,  4.074480504777463
 5.864244565629171, 10.933891615092442, 23.288868816643394,  4.075940698899686
 3.429506842705634,  0.002716876876228, 14.071646868896584,  4.097210368300551
 3.918816143075152,  8.967836677896056, 26.266870546227299,  4.046928575226881
 5.535225062749421,  1.364212186816828, 74.504264890777421,  3.722834857482193
 7.832571217770159,  0.507092136965847, 31.003352295259532,  3.979707007032818
 8.730836038892432,  3.101946080541428,  0.775970236228670,  3.743427217369692
 4.261817805929291,  8.737268622477213, 37.339150714799501,  4.090741550784157
 7.862212153793326,  5.947565518987456, 50.536969286716527,  4.315506178092981
 9.275106504803908,  0.801186249851719, 36.213971967305802,  3.923461277183733
 1.172998149268379,  8.435447304173053, 56.333981612221486,  4.016910950964838
 1.643758040834988,  8.497307869661114, 29.495869708835173,  3.903533355619603
 2.910151440676934,  1.102463498005414, 27.484789887566865,  4.674025266915500
 1.167115388616119,  3.966068426433169, 30.217228407265413,  3.970382426165096
 9.343346409355689,  7.622784654461180, 61.647199335610203,  4.004373873787480
 0.559545388235754, 10.816830301886126, 65.752011138569046,  4.201291298638771
11.621268790762239,  3.782227084843893, 37.127704279612772,  3.873054977373099
 8.940994613511243,  6.848855286624384,  4.886316903553658,  3.887573547024816
 1.678494577345042,  3.031667923483795, 16.750978054196722,  3.888563243406737
10.684519608544845,  6.173428234960601, 19.687992461446388,  4.045568751099038
11.462060657610120,  8.720954013747656,  2.341017150166508,  4.187378077861766
 6.040090353243365,  4.838000653611434,  3.029718504501175,  4.081059470281885
 0.821000699649456,  7.003730806248194, 23.289987225878296,  4.173382385356998
 5.519928213294947,  9.299592905320710, 29.999561271631748,  4.067066189397901
 0.012556728403931, 10.031516605078345, 26.203431548387439,  4.048572777033086
 7.165085420750107, 11.097235612859446, 26.961120257035667,  3.710992391368150
 7.141429777311270,  1.865934419899840, 65.816141934365703,  3.589238566162283
11.833870434939545,  1.958751749688215, 13.232670617264061,  4.134408280845111
11.680964302887215,  6.814724160711555, 32.270011392535849,  3.598124725843466
 2.419529546644217,  0.433231150466151, 72.330206593867331,  4.098264996490864
 7.221196163400002,  8.401378630927695, 20.260741702262646,  4.262451189418596
 2.892583103605514,  8.749447365932220, 19.938204216321800,  4.444659665661175
 1.682845602534978,  0.401663644033705, 55.921822413319646,  3.885391815481361
 7.094611706376330,  6.617032695413114, 27.333170102934425,  4.126407552519349
10.768606885680711,  1.903350677185398, 57.965302377300695,  3.729368087690065
10.981711077558833,  0.235080535799964, 47.681401566167111,  3.673533779781077
 8.545282321433351,  6.850317501399640,  9.030881714945890,  4.115283542148417
10.854298295251986, 11.853185597254223, 39.884132865915269,  4.045161054275076
 1.897467607968149,  6.328399579646677, 35.286638956437351,  3.806813643930077
 1.843907322166650, 11.663804722497948, 22.929730754180991,  4.126349185458689
 5.494676817402259,  7.031788245050911, 33.532668019627259,  4.319581772352656
 7.524952432616939,  8.883243033965574, 58.115748391976155,  4.040392859873234
 9.555151292039133, 11.859331906929507,  4.111934848266097,  3.966413273518972
 9.781624980364340,  9.927079435244568, 33.438789782992515,  4.028544485611302
 1.065693799645199,  7.087847454885329, 16.297315065446064,  4.349331226874658
 6.421949211280238,  4.787610403727332, 72.119921961983792,  4.171263044933550
 5.262103009721642,  1.208277699565975,  8.474135849265902,  4.346141427604469
10.866820871086453,  2.966753496868779, 65.418399607332262,  4.059097115034086
 4.619555001516482,  4.007639515109521, 37.036626056634070,  4.136775538632814
 8.149797005629846,  9.288220088068181, 37.508856378649490,  3.765465873960060
 2.480696875282950,  0.747458986874159, 35.935266210171498,  3.953977693303210
 4.779970773108887,  3.733295860996173, 48.800362660061509,  4.021809000976934
 5.468074555831405,  9.558768798507225, 72.624099207595563,  4.206208086536249
 3.285634308358726,  3.444069040215194, 33.367317379383536,  3.655600886307021
 5.286182502369743,  4.940602034757035,  9.893362834957578,  3.631864607331497
 1.652713023307237, 10.993552030107292, 10.364804962313400,  4.310690469449540
11.543749657976010,  5.127958715333772,  7.113097453570602,  3.778225565874969
 9.605147746301983,  9.138091908723032, 29.433937070167843,  4.125364714794062
 0.131595739315690,  9.527953219958073, 36.775221128740526,  4.084725601854831
 4.831843796516440,  9.909248513186375, 55.171883830982473,  4.198856848779943
 5.965772292238319, 11.173566348225869, 34.432967635261186,  4.209206504395974
 6.093182301657517,  7.153930813864323, 46.766901511404825,  4.351738214124016
 1.900045804067700,  3.324394212721395,  9.642229256768054,  3.880754913792154
11.185384280270572,  0.477916270479458, 43.855757621463617,  4.002193929888598
 2.099282731477412,  6.893923359533654, 48.568962386805289,  4.264238818758598
 9.203524735279196,  4.792417039672900, 30.398123230241499,  3.770133094597122
11.246866622511490,  3.469108479186219,  3.649337005704060,  3.924369568040670
 2.372994578951543,  4.600845383596520, 20.356356077971217,  3.954721800246780
11.736332337006020,  8.655191003747484, 42.774646199930487,  3.881021792522439
 9.103881855849242,  8.175442286798384, 16.703830242692451,  3.744935594132465
11.220759204531220,  2.184540377815424, 19.798612901551088,  3.862284915232184
 4.196956325549610,  0.497244399325050, 46.663651780924496,  3.775477805915450
 4.674283845071654,  9.783249627665054, 43.881874533330119,  3.944229331837592
 6.917823624142659,  1.575161036401225, 12.416423657678463,  4.235953299553979
 9.742440961135726,  0.329638318384612, 23.670111456322640,  3.966393754031178
 2.383075087572337,  7.176319182040173,  8.882103938148921,  3.964428665817538
10.009967408245766,  6.317409617882932, 71.665376929098159,  3.662729349527975
 6.078786153155137,  9.773485339960075, 61.657381280935937,  3.797567010857975
 4.494320518858840,  2.579541925654242, 22.775056331412344,  3.641142483430094
11.622155112849168,  6.040249701455264, 11.911942522222295,  4.454103411873001
 0.769780115919543,  8.713396029290596, 73.000844774287756,  4.021869920787634
10.907762416697580, 10.245422172969054, 20.431607753622895,  3.980313126294220
 2.984642417363434,  3.561027965939776,  5.771898290224923,  4.114341040460634
11.709952480017863,  0.706646130434218,  0.874571216663389,  3.895812742866307
 4.157574460892924,  6.906078067228832, 52.336873016410337,  4.136472983728167
11.183075998440628,  6.589723042672788, 53.168860249157795,  4.255445507181975
 9.322917700364268, 10.052541457456796, 71.584966174355273,  3.725851874526223
 7.460856047410156,  9.825612543982233, 65.496377565883279,  4.363092900320576
 3.177354944752343, 10.175687124141430,  6.294903223121411,  4.110479572357661
 9.142098899795904,  3.095069344755975, 54.632955464353039,  3.997999421424607
 2.321252218723112,  4.480020367991954, 71.729387497327281,  4.076277551066926
 3.854607433895392,  8.033121702007801, 59.115987993825776,  3.746223408192253
 7.405241055071231,  9.888410183314839,  6.663766313430726,  3.781864607689783
 4.153617208229085,  0.131937576011276, 64.180188194080969,  4.024446847446169
 0.998668573750292,  5.933574227724559, 60.631276573950444,  3.949165611108858
 5.250457750224721,  3.656471291949058, 44.960791217972279,  3.697412262408446
 1.698956520689452,  5.925772474521374, 68.143111213712459,  3.756384622650633
 6.298902190263982,  2.807267085299570, 62.388788656248920,  3.711241431689900
 2.571712571151451, 10.325783891354137, 40.587383897941784,  3.890272061176884
 7.571730901241652,  0.703551657408098, 20.057987325805723,  3.984270422573728
11.870424981210697,  4.054446688515314, 42.148917959419052,  4.016331532385124
 8.107956726816294,  3.165630010992634,  6.103871352114989,  4.031385572088015
 4.738534511511617,  9.929163609183604, 49.631354468643700,  4.054480513295783
 4.010833122648206,  5.823464320187276, 56.109636426720819,  3.708800787191196
 5.280566701353254,  3.942227620125758, 29.988400509699520,  4.233293679102107
 5.848218565591708,  0.384317444411364, 38.995799068110465,  4.401506707771352
 6.126328737033810,  8.782083685395841,  3.109964919207551,  3.802850062402540
 4.919424465245970, 11.803599734965116, 67.990756671270091,  3.764367027014783
 3.652091510571268,  6.639702116776470,  0.303948045495069,  4.010223621195796
10.335851121179813,  8.162466711087291, 68.203243746305361,  4.206057815788014
11.260968559959979,  6.022038532517865, 27.133763462385396,  4.296100205547634
 8.964582407280908,  4.352048363521811, 68.617356607105862,  3.879115556434411
 5.520553398066746,  1.278875550745885, 52.026680909219706,  4.198381342953367
 7.414144054360180,  0.637842464635126, 48.598842006440279,  3.737052406435980
 2.085849696051609,  0.992337353152664, 49.855276124031086,  3.935449035002107
 3.203179976373692,  5.170923228849100, 26.533295448737423,  3.698206478213167
11.324240036158672,  9.048195610078105,  7.079699728304188,  3.940413133141058
 8.921851195108896,  8.341372827695986, 24.071360630618042,  4.081484648509823
 8.318302443158178, 10.839257744797353,  0.567603223521645,  3.804547170049727
 2.524748899219401,  6.097454429160606, 39.819022685688623,  3.936987346875287
 2.844206405259026,  3.757907886020655, 65.180229215867939,  3.931518413266856
 0.103544400577864,  0.380628338203470, 31.263550940771317,  3.785425943047411
 0.147853356975610,  6.813271848822884, 64.585080457698254,  4.174671688264291
 9.117599680338143,  0.058703473287072, 16.490982583290346,  3.879158745164000
10.328481221597501,  0.603401921145045, 51.723582180128965,  4.015561974736596
 5.515845838201450,  0.773500337623454,  3.892295355302065,  4.289624955716989
 6.864533487822056,  0.994798905983634, 71.013264610030490,  3.765318692134028
 8.702303074897463,  3.287226235284946, 39.862172823079064,  3.918709211533710
 5.355241410308333,  6.340077190939836, 23.441401793685674,  4.186143947538130
11.472688638209361,  4.004821812834960, 49.990539876977202,  3.952840936438076
 3.000605452298203,  1.258842778693630, 43.163609719321080,  3.777175534010354
 5.457549743181659,  6.582247549009338,  6.536394350060553,  3.838117202316889
 0.687004868568196,  3.182460056380287, 24.525432944691239,  3.817263835483883
 8.327553817930701, 10.393309596326553, 45.631740702272758,  3.809447977485395
 3.229794223820508,  8.118606299590041, 12.879780293324691,  3.898057042678847
 8.288689371706960,  6.953288429738271,  0.444784647782159,  3.970651279215818
 7.005559217282941,  9.506381851002230, 13.638779345178957,  4.118589203534922
10.524156050619812,  6.828262035580377, 39.445354104627249,  4.084360414137351
10.286134239738075,  1.754519023581234, 27.742659140340749,  4.542970864889575
 9.267906047821983,  6.330077651714354, 35.207958516019971,  4.053145949743832
 5.301117106283931,  6.632965087738545, 16.104439664059420,  4.173407462176939
 6.570610459793678,  2.839088400486254, 25.960012920566811,  3.978756750549503
10.700297753308959,  9.000559026417919, 49.844773717100303,  4.008973438482706
 2.795131937420118,  6.325397903890353, 43.759845746005524,  3.927081278678804
11.085554801795791, 10.242105071580122, 59.229298215018190,  3.898000740094538
10.406395066741194,  6.930589157785072, 46.246648429916029,  4.311899779119647
 8.053391332079039,  5.551486558236473, 43.083913929803892,  4.039793312900446
10.611995612047805,  2.347960146689157, 71.825928314643932,  4.349379590400118
