BANDS
8 8
NANOPARTICLES
cell(1), 11.917
cell(2), 11.917
cell(3), 74.483
 2.841968696971051,  9.463662374354778, 70.511224048528732,  4.077303448166809
 8.027318603596450, 11.082517929181527, 60.690219550272467,  3.765608572844076
 5.288001935639329,  9.472709195100245, 42.225633536418790,  4.158342992366911
 8.358224432848274,  2.917954036575827,  9.007680602493306,  4.263422465129579
 2.385201861357912,  5.065019555585202, 64.353036445393016,  4.105796899211481
 7.971370519586788,  7.194598904437587, 23.670950968717122,  4.714806154683790
 0.592778359562875,  1.655396377938845, 40.676999032357941,  4.319005884655113
 6.466125340006030, 10.242840875718805, 32.553820626905065,  3.938906497021101
 0.589008774826249,  2.467456841262006, 61.054767004296139,  4.082051179814584
 0.191133595816232,  4.045588923621759, 33.886675620519398,  3.870497852505775
 2.622216883074615,  2.347676374771760, 13.337562699582074,  3.655246126442046
 5.489063200639922,  8.730096257561845,  4.203520207260671,  3.861881902057217
10.210263849913037,  4.526679216137008, 63.833261710398368,  4.211670006126816
10.834411390567155,  3.991299285292500, 70.483953582349628,  3.982330715045940
11.797473104981421,  5.124419867248647,  7.910854554200007,  4.194958325257669
 6.879960064077830,  2.266268515401836, 31.761021164878485,  4.116197503370936
 1.616697700558106,  0.992918813226848, 36.617840647820351,  4.148851563485792
 3.722207449918121,  4.202568640961086, 23.113879412570302,  3.667876439409175
 8.946525780131111,  1.760955820976232, 48.245881822069379,  3.997969550800732
 8.169841705653546,  6.860618510971236, 71.290037238630788,  3.991660562115976
 6.496471344632702, 11.345550780117412, 38.788287375575692,  4.029280093130158
 3.238174972742889,  5.659499667900347, 49.048305315131131,  4.235422503211097
 1.936074127122797,  1.428431453759336, 70.204972779823620,  3.911900062756815
 7.292492540883178,  5.617147183914949, 48.091873613256652,  4.088121520943256
 8.201084824346236,  4.945231499455547, 67.504343534759244,  4.193941125766216
10.805928744228932,  6.663648596217771, 20.023378712751551,  4.067261762179432
 5.817013587035950,  7.771164630232483, 51.457301261637802,  3.988089545495189
10.113601866471594,  8.492173146728984, 32.514807347766528,  4.141933069390414
 6.048738567705418,  1.330502242330432, 58.177131945539301,  3.954161197967817
 2.823000463824282, 10.567262370989940, 14.577180669806566,  4.101897942770438
 4.853698800417789, 11.660354982643424, 23.908990538667396,  4.060498011945853
 7.334318091686903,  6.780586302769131,  1.520347582126195,  3.708103807795593
 2.076344379914689,  7.389259994234886,  5.416479694447542,  3.842180153104297
11.241993114188427,  4.054371045997021, 37.592674351594241,  3.728722607949542
 6.827615864862710,  8.932288675762573, 19.831637064918329,  3.852814182939854
 7.238106779919565,  6.252359254397738, 30.246144304271393,  4.441826498575914
 2.088122518303419,  8.944310037024934, 52.041766691516884,  3.750470450149271
 2.136206146457984,  9.741560743782365, 39.396892657828921,  4.327949121782960
 4.361906851783341,  7.494929708258672, 67.153294954420872,  4.278686166829693
 5.033681049943955,  7.850676826682480, 73.297860698969657,  3.704367923294872
 4.281874654913701,  7.239588272053967, 60.982407119786757,  3.813008148501790
 4.845587498517965,  4.652054288247331, 11.078408011568891,  4.179940434925639
 2.239720693602603,  0.744824200303118, 57.843833857817465,  3.774271941170211
 8.250860102809391,  6.358578103159764, 14.702944571985130,  4.304839500256109
 3.649612200968408,  3.983892846959779, 29.919467043271098,  4.072702552914786
 8.882132151022152, 11.380175496120621, 24.626111516200730,  4.049224518453763
10.242941709720338,  1.403121513636502, 52.128976814222035,  4.205144907532995
 2.092531275778941,  5.626472905277319, 39.760381097905430,  3.917997520885019
 8.031582202908126,  9.001688977153018, 35.940950480663005,  3.912620509730575
 8.647633932683195,  6.920408150232604,  5.887887880319508,  4.106886430243778
11.649661603815073,  6.765944891151928, 54.603172334992003,  4.006389072841428
 4.489293181039547,  3.454514908763527, 67.294901348911154,  3.809813890950707
 8.611613012680326,  2.262160146992626, 16.879459659911653,  3.713423975764692
 1.971436100226315,  8.618315161209653, 57.764784210834804,  3.800494053619440
 3.795007142967656, 11.775094909815888, 29.949679049359176,  4.123276573067010
 7.682864510845452, 11.070556475180554, 14.372321957598261,  3.753515755268816
 8.524275776766265,  6.984658958756151, 10.013740609309350,  4.119357680836718
 2.608869148868803,  6.487100559534947, 14.116398999625375,  3.845059050442261
 1.473530849735761,  8.475066933133373, 43.546943514650749,  4.146831027449363
11.181733430674807,  6.774895072780192,  2.566101606477463,  4.253180379690061
 5.022159378672357,  3.883512292246490, 16.118205056637301,  4.305694340774327
 0.401486081138106,  2.928807690372201, 55.252466254236246,  3.889110546402556
 5.082718986449778,  8.020778540001530, 16.568363994827568,  3.763373058312940
11.374190676158561,  4.598501460340250, 12.180137626414577,  4.449413456614744
 0.892614827023856, 11.375614061247070, 73.460257782555132,  3.959878192105573
 3.842819513920989,  8.023850469333924, 22.321844607095667,  4.125878307451357
 4.288035774039222, 10.902110348736892, 49.555419549207635,  3.945803169352267
 0.173910797508217, 10.831675463812761, 54.982306442342157,  4.162642240841608
11.095802271709269,  5.192846620575987, 42.497726475868120,  4.120375714749955
 8.345248429204078,  7.647650248020222, 44.330120403476883,  4.111627049142879
 2.532116003300572,  4.692672193752283, 58.178535859722743,  4.163376859367132
 3.268482244058592,  1.952830008001031, 33.200661303758160,  3.681023118552616
 4.268412741895089,  2.773166673371006, 55.033263817887068,  3.812822765773434
 1.135594871576479, 11.590915841203316, 10.963219657223755,  4.086288781597569
 0.885039660843697,  4.323667657945303, 51.841783690504428,  3.528709772201103
 6.099577077984997, 10.955645601626363,  0.853873271302433,  4.019640559833049
 2.110938158020478, 10.344134080496605, 26.547083255959549,  3.984291435377989
11.453698799229128,  1.782992430508991, 44.716510557830773,  4.033536092135629
 9.654683338151075,  7.285638138378293, 39.224839393636906,  4.166244080523598
 9.119317060834026, 11.389190580882543, 29.799193036963036,  4.043653709650353
 3.706495995587210,  5.303085079513775,  1.462047607813262,  4.105198251336724
 5.598199449221205,  4.405917045673389,  4.943467636347517,  4.017719045169788
 6.084310069822732,  1.488183815185207, 35.551981732225855,  3.677041507838519
11.225455856606276,  9.105411956105893,  7.986190427755284,  3.845979565234078
 9.729509419155642,  4.841216777382843, 74.030913567211726,  3.458647866359762
 0.030323874063449, 10.655385381421070, 49.299821990136230,  3.911900639847348
 0.754608506163514, 10.849295760666472, 67.348761425031967,  3.988111128343659
 4.194540809292963,  9.906305286532422, 35.761030292182760,  3.941123533235430
 2.321067584276203,  0.950603259509885, 52.285152430600391,  3.840525486569133
 3.615452288436241,  7.220184584341198, 32.635729756799584,  4.369989423401956
 7.279182064769302,  2.936201253723700,  1.623137431467217,  3.979618716883111
 5.123890632991952,  7.092618575056317,  7.836494915141451,  3.933535590478538
 0.719757099691148,  7.326056814353175, 73.229454655152594,  3.994136334803525
 8.351608354570972,  2.863060562475726, 60.790445487411930,  3.656034717331957
 6.169681902873702,  9.395361514040401, 27.276352926947400,  4.466022954988179
 3.137696176083880,  1.089754576832544, 64.492967429834891,  3.980557825151507
 5.887885466402337,  9.228462214513680, 57.958503396876260,  4.085679658163243
 6.551331308161929,  5.274693671922917, 58.439069571651082,  3.974861084249269
11.397693502328845,  5.332095703834931, 30.281299238847318,  3.913916925578594
 3.690275799566440,  4.640271081607954, 36.112119501754670,  4.287917554634165
 0.134830753838155,  8.507188243799877, 23.711422540990387,  3.843605290760595
 1.092044257133199,  8.758433773577163, 29.888838189292922,  3.688532605310028
10.764937322568048,  0.434573763523013, 64.124432722934472,  4.060643044696057
 1.340064059663566,  3.658209975506134,  4.344621566296978,  4.036165926030754
10.253696369707146,  8.468760161894897, 64.667541769697635,  3.847008462530461
 9.875611139048370,  0.517113239189009, 34.329518881393739,  4.516112843711730
 7.154267834181358,  2.983414102109867, 24.079340050943880,  3.867642623926407
 8.999101764925458,  5.263682877911390, 51.713004116513389,  3.947262436244963
 7.157029476612003,  2.015521562091699, 64.867700313381462,  3.951722234361596
 7.092367988699886,  0.845883950277128, 20.922965586808651,  3.719110374881710
 0.905397724064243,  2.415561965081049, 48.377358630800437,  3.866520737560921
 9.375540822252262,  4.797477300483242, 26.966846608944685,  3.896059372898606
11.609777528020352,  0.997071254364599,  7.501737194529419,  3.867060206898413
 5.277889613064465,  0.425908250491138, 10.698244609843254,  4.348416630623503
 1.843806667000615,  1.556952222371222, 17.049142455448145,  3.775038041040891
 3.314553829365767,  1.378152494444978, 20.605161109855658,  3.926634212113840
 0.729004830676051,  0.453856242983037, 23.428815085595197,  3.949097342351235
 8.297364778438999,  2.023843868544872, 41.327607998117358,  4.059983362006252
 3.130851638027862, 10.549699223939466,  7.560109356782254,  4.057486382718763
 7.487517076716991,  4.033003982785729, 38.082534539558118,  3.735745112702875
 4.711972306921854,  8.241792803315153, 46.139327358969879,  4.083425111142265
 7.854413684057057, 11.382553723146330, 55.154545408289692,  4.004257433642329
 6.104871569637809,  2.282446436755091, 51.390017476340347,  4.372126965820522
 5.557082565985245,  7.393693628963928, 38.666073346910196,  4.097953361597864
11.381459567155503,  8.696967662025376, 13.264928216158845,  4.020527786782395
 3.204366686915012,  2.375973140561001, 26.342250550044788,  3.820606852833926
11.761234517372936,  4.890937961346085, 16.473473637361774,  4.084014901567429
 4.312972569807719,  2.544224728730337, 39.469497246233338,  3.701122831806593
 0.508522559522684,  7.586124972151354, 35.980514588081896,  4.380287095096977
 7.506608463179371, 11.854160179353533, 44.828890479078225,  4.165475129179535
 8.705783481498482,  7.297789127539402, 61.205717242409143,  3.985270515231005
 9.161494220594978, 10.427387836447364,  3.620901678529468,  4.299861699755593
 2.680119306614294,  9.135689742282594,  1.610984291010366,  3.823861628024761
 3.783275309887527,  6.694303874112481, 54.784483762709478,  4.092509550988918
10.170870409133949, 10.457714866850376, 42.081996999504170,  3.957554476806168
 9.502783696125496,  9.433129641156807, 74.173820944331069,  3.789817296613220
10.300263717420773,  8.604915885481137, 27.187173832421060,  3.942445582623050
10.198475321451523, 10.526014072720441, 20.950949556188270,  3.933202660118131
 0.569813065655999,  6.443422359505978, 61.144905915079626,  3.762851951596820
11.914939065478606, 10.332186814586931, 60.752151219241277,  4.130506378580570
10.378692210278716, 11.092706916180324, 38.249517736374344,  3.822791036024496
 9.733788538659525,  9.348541182880231, 17.184557514184469,  4.008188363910101
11.402994513978660,  1.404349230610999, 27.101343155023777,  4.011665254033923
10.800917800930817, 10.153023652929438, 45.805572225313966,  3.497644951334518
 4.574231994798435,  3.255638745293231, 61.431878554664898,  4.034759512435645
 1.124912795472746, 11.369055715019780,  4.287718512179623,  3.791929858976336
 9.127643135864467, 10.869856383264878, 10.833055391898275,  3.899192690747491
 6.759849981581018, 10.540256904330178, 71.269763765031783,  3.863283363504201
11.113462235138014,  5.550136972276463, 46.595707613865571,  4.106742729162744
 1.748139420681671,  6.185511089222418, 26.850809312611222,  4.372840346420053
 5.030415257204336, 11.530601235769927, 67.812941392040258,  4.006052199977451
 7.969382727577935,  9.682655604742862, 48.361764529207143,  4.168946763764188
 8.159877074278238,  3.793642383422109, 44.786595434113430,  3.656746663071179
 9.174141564582925,  1.257787528554980, 72.805202911157664,  3.901173382090506
 4.101512118604258, 10.585260299602842, 54.726361082918920,  3.712089384349140
 2.084264014280353,  7.616162854976398, 10.365964278050463,  4.042408329895028
10.451055253074074,  4.876671357557957, 58.367768567495865,  3.801301109432575
 5.540807264971949,  8.497434545465232, 12.356793326061863,  4.042251726710208
 3.203137456746730,  5.310386115838084, 70.630744632875690,  4.245735402391069
 6.994935541250759,  4.789758867025771, 19.907005776931317,  4.427614648188252
 7.210034516964205, 10.491872495231538,  7.341703926621881,  4.100970485251393
 9.884470209345302,  8.668013028880550, 57.648614055175791,  3.990789975332472
 7.772984324371222,  2.696669335658672, 13.005957100776897,  3.823430191287764
11.118573653222091,  0.923604206508014, 14.273841079206692,  3.978815852791007
 2.176786726056107,  9.127795645442786, 64.002093385466694,  4.054078664081378
11.534499877107647,  4.429953341650894, 23.492666474045539,  4.308867965565243
 5.653877496866065,  5.308721611409040, 26.622043987072686,  3.641814938918412
 4.992393103764257,  2.270658046706800, 47.233456100769956,  4.212690338963180
 2.300262248460905, 11.375313486633157, 46.251624682775720,  3.813875329745164
 6.424633833031534,  9.901917053705459, 64.223696397401611,  4.340725996124238
 5.132610894939305,  2.090278104075422, 72.680207346980353,  4.276051978943868
 6.753837478388380,  1.911801113653326, 27.776003989657983,  3.855310085976661
 6.328419448923979,  5.770457955326611, 63.984536264270254,  3.937804142638766
 1.155387081433719,  3.504932768166651, 73.582323907166440,  3.722474264863295
 1.851276743481935,  9.613345611493775, 18.746533647315804,  4.654277884346493
 1.463749759920288, 10.628063325296610, 33.089517732052528,  3.740305322111685
 7.601678593180968,  7.293344059473313, 54.906359122084112,  3.639780551680350
 9.356860824309122,  3.037434185328616,  5.013245584691762,  3.971529014254123
 5.725110358169792,  5.125492409503937, 42.077407230072836,  4.090195451647494
 8.139031984155441,  9.017924210851122, 67.921017391620168,  3.990139627894034
 3.040554760464238,  1.387896082536652,  1.608577117849357,  3.840905448543510
11.037704582643851,  1.635514963470574,  1.734030949867331,  3.908593654960833
 3.256721483705128,  2.721498703654896,  7.793091389144515,  4.072004594782434
 0.311220187220768,  1.605797894888678, 30.927288725709499,  3.798817917353082
 2.816017552220803,  4.864563476859631, 44.903441155503707,  3.997524152269951
 0.279065933643233,  2.850821251825297, 66.957082526214037,  3.914760568290205
 0.224724912324991,  6.815672784512811, 67.827692147642082,  4.193920948420473
 8.713945071772224,  1.019179038786066, 68.754849479071822,  4.097008433641192
11.719742260853810,  7.061091377098698, 49.989381725902653,  3.419578144514310
10.249309505330054,  0.970466446606755, 58.020665177696550,  4.046761227391618
 3.979176775787013,  1.365467178166868, 43.186774282640343,  4.122327617347031
 8.203724301780223,  5.252107012754189, 34.359153649950194,  4.228927135270528
 4.014149450450403, 11.178623938114171, 61.019616749535224,  4.061859312028858
 2.725643597276365,  5.231687336287926, 19.439973274174733,  4.204491447611363
 9.533652596176333,  9.226400817945086, 52.161871561779371,  4.099887031274575
11.129927492688777,  2.350687340014377, 19.843556468503007,  4.061365509338663
10.836622018614515,  9.617617519866833, 70.642883433700320,  3.765216659379400
 5.419178463711297, 11.839956422909774, 17.498351176943931,  4.116857974867089
 8.343698122773063,  3.494749083915079, 55.278265563869120,  4.116311820713600
 5.025920687341134,  0.562136878208379,  4.741111189683418,  3.746176796593362
