BANDS
8 8
NANOPARTICLES
cell(1), 11.892
cell(2), 11.892
cell(3), 74.328
 5.631766264469402,  7.782972285543926, 27.493691018867718,  3.872226880839324
 7.492955359407899, 11.315326622396368, 10.511863401306899,  4.245723885390376
 5.545942652924011,  4.800402309427489, 37.384106216902936,  4.308107654315574
 2.771039634675244,  0.609617023795305, 38.527677323859976,  3.802257407589018
 1.641992444477698,  0.118771905974679, 32.025680947616493,  4.139841718192410
 0.976667801577761,  7.043029253629634, 61.695991214563783,  3.735997598906292
 1.428862886228954, 10.902944088649503, 61.802719906418126,  3.996516733850457
11.698048126376413,  8.073747728528287, 71.701888349887383,  3.833684317164477
10.387710053040369,  2.267952829824736,  6.520107911408028,  3.740869260941963
 3.870265936738351,  6.472177793268473, 16.718651580293319,  3.936464072399274
 0.095647281529347, 10.585521076496386, 47.952971230969119,  3.625847452416349
 3.250087372777964,  1.004097870905932, 51.953872417337450,  4.262308815043720
 5.031213674612962, 10.687658445238151, 41.368262383367238,  4.279149170285836
 5.839422212551262,  5.328616133830158, 61.607851795691928,  4.141912492668689
 0.975933038275923, 10.552068997655832, 35.794230141144432,  3.764243987229126
 5.320862662477791,  1.292721134217356, 13.462052413166738,  3.955235770359409
 6.764283151120865,  2.856824830272983,  0.887934176731353,  4.012975328680515
10.577574735261660,  5.573441117995183, 58.340814491577255,  4.019846124791437
 7.333602755459500,  5.566637155912489, 31.789434983013898,  3.990116406657562
 7.351951532822819,  4.523263062657733, 23.112295939096029,  4.099619101855840
 5.913139393861074,  7.354414820858029,  9.327226272342322,  4.335745522150586
 9.120627218267161,  9.767067348082101,  0.068053145970584,  4.327574600012751
11.571549887550598,  2.902853724523231, 52.608324704498401,  3.811293302346227
 3.505853577816287,  3.387922793780183, 21.585848616567944,  4.456940259417274
 9.362849782636154,  2.003280279315634, 13.339655434187195,  4.250607248550199
 8.796915901450355,  8.982432463363418, 54.686164232692406,  4.267820725282659
 1.532811673976335,  2.511121215323310, 14.642003207350033,  4.340613076552652
 8.186680663867064,  3.950149020458738,  9.935685495879250,  3.933848694876596
 1.327426240645602, 10.416964377447137,  0.237585970085445,  3.974592939806016
 9.068466458324322,  7.904778910641661, 61.279945633197229,  4.066672508414436
 7.249394180519371, 11.154860563798323, 70.897480267069170,  4.063411608844699
 0.167253902618685,  8.052019133783963, 17.340299299151287,  3.873141269918870
 1.985974608548959, 10.079975558528378, 68.203286281887515,  4.008062143173955
 7.381755242006098,  5.111800527800323, 46.140167544879930,  3.830622040647647
 5.413188886598473,  1.098194506939233, 24.474758120421942,  3.838543138352295
 6.387504523187856, 10.203569666825320, 50.964464019321106,  4.236180849141874
 4.819577201822543,  7.263601009255486, 48.372147980244677,  4.201598757582668
 1.172679994066797,  1.944024809540378, 68.654815428450917,  3.726222316262881
11.008636246967676,  7.340053287304445, 51.808982548998642,  3.692154801202070
 4.045557583455303,  8.342016634031520, 23.952842449151497,  3.966466924763825
 8.772192787908372,  4.414944350180606,  3.864066833274827,  3.812025590129788
 6.810580536071185,  4.426680940805687, 15.269659287450622,  3.737017335548659
 4.482274989246736,  1.990529640539049,  9.730707173916540,  3.817928045672248
 1.021898126652556,  7.496213749338840,  9.744132055218834,  3.927928112274320
 0.172454246109887,  1.461719488088019, 64.840541811743094,  3.851185242833181
 0.421460214896902,  3.404872610739367, 10.444852949637305,  4.444190934607289
 2.662192241675357,  5.025448567799723, 51.350283245745992,  3.916846445092745
 9.491502811032520,  3.783588304303697, 38.456327184203431,  4.104289642811151
10.027392956582796,  3.043613824398816, 25.497954416082038,  3.623350617222045
 0.595584594566118,  2.511086454659907, 41.691959333490011,  4.340192684015558
 3.397494381914115, 11.427497428885131, 58.275477505562741,  4.074570785457746
10.828364777681987, 11.866870541039408, 38.832844325341298,  3.991671474948535
11.332333599549868,  8.898817591848118, 22.102560367499073,  3.745137638894448
11.112012500246150,  2.046990721455587, 21.299100922041085,  4.359793427725542
 3.049286902367414, 10.642645329633719, 15.247546210193052,  3.741020690552864
 4.685543923056271,  5.078261813853785,  3.463405061643512,  3.958438085675085
 0.657955346004164,  8.685640153499037, 25.505541317212455,  3.490938374204049
 1.504896519948010,  8.819899685177020, 29.579461165127864,  3.886558138426520
 6.631047437271279,  8.885642545942888, 44.904018918696785,  4.248848205301621
 7.665642003864407, 11.244789475455802, 15.832017374531199,  3.758800476006215
 5.795189989048967,  8.667016186203988, 67.968295391760989,  4.103350605005103
 7.112698508274476,  7.665454302833235,  5.319495701071052,  4.045643140562110
 2.699707633757376,  8.963322370977993, 45.467684500597365,  3.653863801868509
 9.858176026531355, 11.502155510426999, 44.843834549703701,  4.056203745645014
 6.018111506328447,  6.734654253547458, 41.532530791705518,  3.833296735840033
10.897861379592568,  3.467153364449610, 45.486895212249102,  4.036779538702436
 5.320559326202283, 10.806338698111865,  7.059256775842458,  3.974009891717573
 0.776599251120603,  4.379145125942879,  3.768223691509954,  3.970984895164327
 4.761957694754852,  2.976509513043105, 41.101678011666287,  4.117278331697381
 9.876286975253329,  9.232774414947411, 68.291619101633614,  4.159924129336419
10.327666222505638,  6.053456981807608,  7.121653420174345,  3.913073643327795
 7.636108256676664,  2.116711880571048, 52.336811766017661,  4.227849663570104
 5.461810894933331, 11.290732199819907, 74.283152756531365,  3.579713747781029
 2.983384422299846,  7.495404917186576, 58.514307485048676,  3.835916127501398
 7.554810316118775,  2.862813660105101, 58.772547184772044,  4.058105840806594
 4.783019939964052,  0.829497355127361, 68.352867329583191,  3.681281555934674
 3.433480948799162,  3.420157385567694, 33.930495504989111,  4.227692402575717
 0.406338643493916,  5.450380836930921, 23.585107554956753,  3.990089509837040
 5.247505588446923,  9.709339383277861, 31.144230792532916,  4.410764805698044
 5.875891731538433,  1.347791490668447, 44.998027353461850,  4.591045579359720
 9.970737214227361,  5.841769948164288, 20.303312565995775,  3.802404715085470
 1.357497656757835,  7.584065910885736, 13.655632040489305,  3.921039597716927
 5.152553878020456,  4.138739305871760, 55.181511868759273,  3.750558529280076
 9.340834572247214,  8.182543660180581, 29.241426603967742,  4.343816112671902
 5.022910592259473,  1.393192729046287, 61.165748113806593,  3.486568900978746
10.764198229941289,  1.762642097224132,  0.967233679924112,  4.278610334670471
 5.910980591973208,  8.334542821752487, 13.921420743318318,  3.820638150962522
 3.026247036194942,  4.896464460294648, 45.179459416405358,  4.514641006042282
 2.507661102180117,  8.947329443391830, 51.239280857562640,  3.893601833003475
11.234291555701061, 11.554655685928573, 27.564622569377395,  4.031513828902243
 2.247617978133731,  3.521717253357789, 62.228793547498753,  3.820947718774913
 6.203299149003881,  4.483049451652866, 68.447218290527999,  4.056018663094010
 0.795795142725955,  6.935647605618047, 48.407287397281053,  3.847913707138794
 3.871071044008540,  8.660218898534028, 71.749487253356051,  4.381643334267217
 9.391707710361366,  7.396262783715255, 11.972266723223681,  4.361955366451636
11.322194883011537,  8.796275542136774, 32.826000260540035,  3.791039787296729
10.290933412230782,  2.843438386732824, 29.558463101123728,  3.698552201422645
 9.137253108404403,  0.150520635739848, 61.625714459191265,  4.238569272717547
 4.142995643282579,  4.989478427184242, 12.340262462289560,  4.090835087614631
 9.735132812543748, 10.026640914809848,  7.282627094792601,  4.013490100274291
 7.418709899583980,  8.541228556082064, 21.710477337527752,  4.135370479865980
 9.881275973900211,  1.063650909994190, 55.786619515213673,  4.254798399068377
 9.002313993987212, 10.673314356915704, 35.485038906043961,  3.994521730397769
 9.722811770548429,  5.927449851323766, 34.993671823093756,  4.029077175471888
 7.832293684993888,  7.069824616243237, 71.235273731450491,  4.207882143475917
11.282368103261108, 11.007541356151769, 15.190135461635251,  3.598059372519276
 3.412936305474712,  1.408148352063830,  4.532928660048003,  4.069421479958682
10.523416664294174, 11.171693340462529, 51.496834426013287,  4.032616477559647
 1.016860878825908,  4.303237705888308, 18.325797134992982,  3.917221681846796
 4.593657979110630,  8.663270672463490, 54.707916991817150,  4.091662660777558
 2.230142146489478,  6.574573917751199,  0.641533910729802,  3.919108044346286
 9.102508645590282, 11.455214869434151, 24.103764803611806,  4.100284217251946
 6.687517482273500,  0.821208694994242, 38.106753452550358,  4.083188812670055
 6.067391273496463,  7.127335914556461,  0.494613645172832,  3.766770218143589
 9.340041605249100,  2.462451049530692, 17.493197081215317,  4.021223899866276
 0.283532230546113,  5.124879881561409, 31.960048252629580,  3.921229909647807
11.817092473794565, 11.422393902321238,  4.227310417022728,  3.870445825282860
 6.550691980865769,  4.685236097867538, 19.107258884129674,  3.800451520504219
11.255515363254050,  9.006171922944970, 64.531779304319613,  3.826282531486329
 5.335493678471571,  3.137697234187376, 48.971347119708156,  4.173308691025964
 3.655689087384441,  7.221745085893120, 64.670454374808685,  4.246732556084171
 7.202648157964850,  8.777593876906392, 38.471057843558626,  3.887318287987739
 3.730970350310090,  5.536199492327038, 30.098037836672752,  3.951651394318397
 1.279493405081949,  2.518544354643121, 48.651975661213861,  3.949604998741529
 2.429481920870003,  6.035357439333625, 68.707956463223468,  3.996176952067516
 4.632610674448904,  1.926190153452341, 17.265455055770307,  3.857191469096899
11.015605189779334,  7.600269922471967, 44.870358628752577,  4.068117141358835
 3.329274724070480,  8.703521179646300, 38.207667268677625,  3.873000774870822
 6.238996109959424,  7.920595009579989, 34.779444978220170,  3.928595536469795
 3.816970525562550,  4.669466739220594, 25.697889235753397,  4.171887741756422
 1.197531950299818,  6.169728035774947, 55.059786833004324,  4.323714471479777
 7.804771864863858, 10.537724710924451, 65.113815994422097,  3.810954042528227
 1.926725401079443,  2.143872969458154, 55.638596574573228,  3.881334245151894
 5.577780208146946,  0.459715906910355, 55.223433500781574,  3.595980834569111
 8.057191186003392,  6.398615615911967, 65.131407771049652,  4.446947727907675
 2.826044475156093,  2.728452965249319,  0.833259688165411,  3.866370056116958
 1.483071988849604,  1.484802216228648, 24.726490307886351,  3.921108010425741
 3.753069044482373, 11.420275166529260, 48.170434828388231,  3.817670641048481
11.401287976321335,  9.704309411026761, 58.222953196497244,  4.406696720033294
 9.633381639345934,  5.660802850181012,  0.287691732927424,  3.952078419849264
 9.070953027798684,  7.455263765808566, 25.185726704195101,  3.858875043189152
11.151798890167532,  0.101733541183333, 71.492603772424246,  4.005942726008191
 8.140792379008724,  7.595699860310805, 17.053622819691913,  3.992393811150488
 9.139765313616691,  9.176508922854048, 41.765756743280058,  3.788418102581875
 1.217166485543375,  0.430398948692578, 18.124837373343365,  3.790883994861833
 7.480716607052457,  2.437848146450122, 34.396347584489398,  4.148783960072391
 1.009922935729298, 10.093494581696820, 42.189515731385235,  3.983871639246467
 7.028625090007393,  1.155549584404946, 20.870704097778699,  3.984104390019886
 1.559774868119265,  4.228031891474646, 38.086816586139776,  3.866400201722167
 9.690826192629151, 10.679952705949107, 19.083896599786417,  3.985378200359078
 5.667709352717259,  2.035173089054734, 30.692401352596384,  4.112096412476897
 9.643670088158135,  4.464159576806805, 49.427224460919646,  4.252626332260559
 8.476759573507779,  1.518987867428215, 41.621938286669831,  3.924089949382372
 6.492934262298675,  6.145068136167378, 52.038813014608358,  4.162351430016148
 8.982606239348970, 11.675090862508378, 31.548817431577870,  4.047191174952967
 0.192701428725038,  1.903933835243952, 59.241105087467837,  4.109372152177700
10.568481953308259,  7.846840765496976,  3.391740831098245,  3.867158186368348
 4.097580144235352,  9.458569140357389,  3.120053632893592,  4.225974426653417
 6.891141667998231,  2.403404762971912, 64.278573546949247,  4.029670516537433
 1.476261226668598,  8.359710119977072,  5.986038261327067,  3.834798962431800
 3.132017316559270,  0.867710053339031, 71.762105118741374,  3.881602544722187
 2.533735641472026, 11.175656611158622, 21.604620755129062,  3.978503132703727
 0.298010797838848,  5.584100202075899, 27.603755796840801,  4.031674760606745
10.169130513965486,  4.109150532935761, 62.053588139083871,  3.982058541550142
10.598215615981969,  5.303414808041625, 15.199992569137061,  3.678663318514544
 8.503105561202091,  0.694774960493631, 48.407621192759699,  3.871350973469438
11.211782506544136,  7.686504077352662, 38.538963116367391,  4.422072014892515
 4.600475261435199, 11.503136381711766, 34.870424399666248,  3.951064097757833
 1.694220269656019,  6.840551561652249, 35.230883807466149,  3.870458674056258
 3.363856208000859, 10.793923282320392, 26.873477874976480,  3.764514953419644
 6.579097972728674,  2.725822122393534,  6.570329711938577,  3.907939533206005
 1.059707608238147, 10.434770189079416, 54.489085766213556,  3.809593264876316
 0.153196348811028,  5.303639962000911, 65.259321459870279,  3.821265483598682
 9.482989625683546,  5.214598827717293, 42.145098755352336,  3.772632498730081
 3.674759671893201,  3.729548728429464, 58.677797588982216,  3.812042052746950
 4.704861886552174,  4.555303839732840, 72.211914221120438,  4.023947745460545
 3.523688048662757, 10.227700563957502, 11.353793040990928,  4.144197283575889
 3.975528489977406, 11.340655604926047, 64.859000796393261,  4.003153927771870
 1.461737056445973,  0.010153423373524,  7.949018070962053,  4.235782800317270
10.401405161597356,  5.294945235091558, 68.714267578297111,  3.817288229890835
 8.908646571925548,  8.392566008502166, 48.268952597442265,  3.924383564938035
 2.156132823782948,  6.375137713305211, 41.314654747964155,  3.935588955206981
 0.556413461303272,  4.072965766063017, 72.024378534019164,  4.328502767843521
 9.139918397390860,  4.944378366833793, 54.757158670230559,  3.795695399976397
 7.158940415810084, 11.480095643352069, 27.731256389672616,  4.115512873264676
 5.087352310532415, 10.056750145540001, 18.612484292224096,  4.185063634954220
 3.395892247339351,  3.334360173229879, 65.895474282240997,  3.864920948124555
11.522919553146396,  2.296398927368199, 35.187913521012710,  4.081500265300752
 2.576649439250605,  7.341090645470600, 20.381876177704186,  4.008906705460507
 3.003587083578545,  4.806137705615524,  7.217176975644290,  4.279073157206034
 7.274126856254007,  4.268865356921573, 27.745932603068866,  3.895587986463343
 6.772658401948815,  6.761494297446827, 57.606744695298040,  4.081245216052096
 1.739423881433492,  0.658522124380744, 45.129270674789836,  3.792842051680695
 2.257290542597375,  2.212421891131837, 28.548236403219189,  3.950581865985616
 7.348120668709916, 10.736954678598480, 58.161721368868982,  3.947472947217545
 9.131295345016795,  1.515388887732846, 67.737875688744083,  4.392553723554355
 5.238856560609711,  9.456584091537712, 61.407757720943529,  4.186196512338114
 8.442335756308797,  3.039568889592368, 71.590924759730584,  3.975213269740858
 7.714109320295647, 11.756081566477270,  3.721951770229628,  4.424328974385834
11.450697580692211, 10.949964481628594, 11.434712198344648,  3.911569648364680
