BANDS
8 8
NANOPARTICLES
cell(1), 11.903
cell(2), 11.903
cell(3), 74.391
10.389967939832804,  0.209749282085858, 19.826196968092283,  3.896888530023335
 2.066648459271075,  9.812745662765794, 21.327721872288329,  4.436317303962448
 4.881564793829647,  2.491665386047588, 59.705896809758961,  3.877212523415136
 3.462758116763404,  6.817359991008225, 41.114122325031133,  4.020031917126577
 3.168594556325410,  0.789006939631753, 69.980388841633442,  4.317298811028051
 0.658074628105161,  2.370403623282219, 11.170777068842046,  4.087314326479236
 1.677365339637552,  6.240424234469542, 15.515552045073706,  3.975815976134214
 9.834909261745461,  3.736316618809343, 38.272475504586382,  3.794746645941340
 7.442780438336929,  1.628849105701364, 35.792793883994790,  4.276070116973528
 3.723132582179661,  2.070528432702935, 42.445374859498884,  4.271308367740214
 8.355708232121252,  1.298326748721724, 66.646732391189005,  4.008713599122750
 5.183878960678202, 10.453081580270341, 33.953168704506403,  4.200448715411572
 3.765023747874223,  6.706764921989170, 32.943401508829034,  4.051929683065607
11.333061390242097,  6.408467656533348, 69.914033874095878,  4.518170120644170
11.124969389026134,  3.606321741142776, 21.408502131874542,  3.711350085653830
 1.269767995091539,  3.625501229750752, 72.539764782429771,  3.971735934886368
10.784552995595613,  4.254817435304953, 25.934202829433904,  3.693847480283786
 4.462848118280186,  1.325426378682216, 29.271155978460662,  4.062007137199677
11.405813231968736,  6.511085797668079, 40.515686504891072,  4.002234636118353
 1.281170968777966,  2.994050749324319, 52.633430446731879,  3.980240205644860
 6.885948797819529,  5.591501804161762, 56.767434975662724,  4.400397618306036
10.670571983101119,  8.497320255384006, 43.915103964523425,  4.004258444650356
 7.032073358514200,  4.441275908100760, 11.366925950579365,  4.250887375801058
11.457277927417366,  8.936264713735532,  7.263049700689265,  3.789738146502903
10.835558358803889,  6.828327386893224, 32.675517758394733,  3.927388509056505
 7.583146868939560,  7.382973918901722, 41.444801848859562,  4.052340388378831
 7.905573499801476,  0.082363422171658, 30.785206853994953,  3.859072094203033
 4.750499834891444,  3.201502622690927, 22.872273582492067,  3.943799552797500
 4.622771408880928,  8.296988992943289, 63.970404708423771,  4.125258963715827
 4.874642715494011,  5.355205158222236, 29.296707147408462,  4.034349073868746
 2.386661060918287, 10.524568653425543, 66.520189090871142,  3.979415973473512
 9.480438480815859,  3.648665951176309, 46.943451298233960,  3.911011224911233
 8.816986344222098,  9.195917818601725, 55.523321441562885,  4.130083602778851
 1.815730348173157,  5.386020411947832, 58.652307480981051,  3.752622391283936
 5.199445586834999,  9.046590922500187, 49.511528923771664,  3.895792096148048
 2.141518449383533, 10.386656495048715, 43.400827092368189,  3.792443576744869
 4.886929018128158,  5.164062113733454,  4.937093291477326,  4.006118934562004
 3.233649042223586, 10.895877308342117, 59.015396825834181,  3.973422615525327
 2.838289172593563,  7.178591349432210, 37.126664858437209,  4.027540167597719
 5.081521163698639, 10.438475601395766, 40.876217739169725,  3.926254785684023
 2.768411402934640, 11.464835289999396,  7.539615939155616,  4.381039354018204
 5.972071401573419,  5.200977402814171, 38.542374424357725,  3.856040110313709
 9.297246908859895, 10.231166282354282, 34.069681027417353,  4.037843424216475
 6.613076154289815,  3.179268436624437, 69.672418438608076,  3.922239197909882
 5.291608168676165,  6.829475258169074, 20.883700765927909,  4.359507985889039
 1.859582852722594,  0.967421043498165, 15.917543476272876,  3.940943293292448
 3.248858965221912, 11.812978013485299,  1.370683529605474,  3.906554829981235
 6.496316572703341, 10.988340751418576, 52.641198223094086,  3.558141892421232
 5.576044534585154,  5.282510630233842, 66.498005091464407,  3.969590716672665
10.395418771841191,  2.388142892880902, 32.896057172740946,  4.132972409813226
 1.079011033211575,  4.366168821154852, 30.351635973505125,  4.085629656602991
 6.996485692911073,  7.212104088385368, 69.830849045662688,  4.184334401220524
11.280137371824946,  3.328095050898884, 17.682735792732089,  3.762884061179686
 4.669379605644674,  5.744610473006911, 72.896358664373551,  4.044572132096535
 0.933528645197485,  6.585132937413044,  4.459562746761110,  3.964413756166535
 8.612912068526406, 11.773842441892954, 42.904174309968099,  3.700139426202147
 9.158065371221056,  3.819369311852633, 42.879760561692869,  4.248602448509843
 6.978978975400865, 11.322329653334622,  8.462167593977663,  4.239376434289781
 6.627742374633503,  7.115304727094304, 52.724094013327644,  4.103602157232491
11.190664805047369,  0.182905514601694, 57.097186258958224,  3.982619831252288
11.726753239251533,  0.693264194062960, 36.473822179582179,  4.219498091844606
10.488945858592913, 10.696857320348053, 60.747831522927498,  3.953865647030838
 7.220666786930352,  8.073018935193387, 31.215235503747362,  4.102086630680443
 1.758603426534958,  7.127676930756278, 27.448905237046056,  4.030839959151987
11.560452304824851,  6.315340274856827, 48.964551490312850,  3.966517748950223
 9.531663735111360,  5.653320523468066, 66.116085298664743,  4.011756356019210
 9.172478598584627,  9.383818037350563, 50.302188249335330,  4.233312988022840
 1.735613465338184,  6.385668813148884, 66.210888137036818,  4.028978610844275
 4.108590708002481,  9.111029531168864,  4.238734058788938,  4.158004921186773
 7.680501229639018,  3.634310158368769,  7.369933471706910,  4.002456257399159
11.551116110966788,  4.968804547459722,  8.037178027923982,  4.293519513231815
11.069345804559230,  9.075728373818224, 64.496208488855203,  4.157961588214797
 9.380499811946343,  4.061152710153046, 51.581151835185565,  4.192762500691559
 8.945996058047239,  6.044088103299010,  4.457674776196138,  3.890060752711384
 9.433256583232287,  9.453264883082053, 72.528177721950172,  4.352100874528746
 4.076266445686890,  8.977392496843617, 17.497622976985109,  4.018948954999322
 5.452818453417056,  5.468944084809068, 44.670137867125128,  4.557312365883344
 8.542340890692635,  9.960350205579427,  4.934765269305832,  3.940964304608112
 1.228062071616893,  6.232539949327357, 23.512181511216767,  4.112236046933776
 2.819176081369137,  1.943989554686301, 56.363296928672703,  4.004061372095855
10.808015184112183,  9.420859467616081, 29.462480391764828,  4.324606335261772
 5.526190662555109,  1.837753012355404, 73.208368784289931,  3.947538139190490
 8.906095994608968,  0.716741003059180, 11.962178588053821,  4.089754154167151
 2.701969734933399,  3.937579635420661, 47.648771494483888,  4.096021961451302
 6.382745009722481,  8.920991105484255, 37.509000224342927,  3.904621219549132
 7.360229789173644,  4.137248541443488, 63.209006252541180,  3.846823732503644
10.375638278737634,  7.699520060338269, 36.924867348911604,  3.834583143044044
 0.929247658776978,  1.984635218269897, 60.263275285239011,  3.980137485567189
 0.394566105959664, 11.058181998522503,  4.058015793608045,  4.073377496725147
 3.149182275238267,  4.745052848735799, 69.402060065197745,  3.674405695062611
 7.433335894057513,  5.819259320390922, 34.775880003364897,  4.316589929382451
 0.341823435359811,  1.352721978554073, 45.163727261754090,  3.830226812897639
11.024157147716977,  9.740157312917407, 24.504843318637388,  4.220026626424159
 4.458370143578405,  4.480598827324232, 17.627141204344507,  3.818033775989018
 9.437538080087528, 10.677018658752624, 39.304113340573664,  4.001080623092033
 5.289290587236582,  9.761467488237614, 73.044336799865604,  4.019595356011376
 3.039651038603671,  7.306279614886862,  7.745841685299185,  3.963160335886468
 0.432920372815116, 10.324371269426234, 10.740785166356201,  3.859479153611228
10.473470225174658,  4.819961373718582, 13.543775779869859,  3.909342000191411
 1.405748541135339, 10.438941508334091, 72.753967770481808,  3.649355605230542
11.234500112546455,  4.852717849611317,  1.326616463318218,  3.857682723762734
 4.721516442551407,  9.359588407827887, 55.605659964287945,  4.066627414101231
 4.243151282727735,  0.317854679563083, 11.317192559758443,  3.865060931317381
 8.993581852232786,  6.533176975910522, 16.967453845796921,  4.234388071999755
 7.574382957867667,  9.340027158160655, 66.458974952820512,  3.871172172087799
 5.942343356982392,  2.976881708302420, 32.407961190581538,  3.583086038844575
 8.597852127512777,  4.916398483249620, 72.809735726648086,  3.978416534126571
 1.459888550168964,  9.508313196955513, 50.182879354067659,  3.757396041075278
10.771700686642820,  8.754094458275146, 13.988412541557674,  3.993279398417652
11.447587646303992,  1.012980448682837,  0.592820074216259,  3.971048724563064
 6.950584005607453, 11.230755563748430, 69.743073085878990,  3.803082324862978
 8.209619214743711,  5.185312822288431, 23.293128924562435,  3.891690856370062
 9.911785319953031,  0.183676531108018, 15.941605367585064,  3.917361917091768
 4.901828984357618,  6.452477846309134, 25.067864034443510,  3.862374832449628
 1.014160929229175,  8.583466426125451, 56.758318471992759,  3.850766695135607
 7.677691202524877,  9.973104192312835, 18.344816151294143,  3.614132434961116
 5.817927410765086,  9.788930935393118, 44.782203494009764,  4.114126182202617
 5.085155167218814,  6.339271195323750, 60.462766393600347,  3.955031980828916
 5.613577485873193,  3.112473942336631, 53.103730864143671,  4.151061805369570
 7.737690867185725, 11.568005503808154,  1.359141234563049,  4.062843507351698
 8.111691378444796,  7.715529083358124, 62.327256356827945,  3.665581029654594
 5.788266043519711, 11.614136515846237, 21.112192519193368,  3.838909287069713
10.125987651959253,  7.017737090264683, 59.096540184732547,  4.069251863918129
 1.567058940099609,  6.539974511360263, 11.459050418957977,  4.157659167557980
 3.845677510584963,  0.302949628721122, 37.484955794269318,  4.102516281913660
 2.520717020236287,  8.064731376953274, 46.631587337735638,  4.194318640548651
 9.404337555964460,  7.690480858789957, 10.360897186358327,  4.041679172642608
 3.258665436056551,  3.757275981219111, 63.293390559531524,  4.388899050820839
 5.711845442919111,  1.093461069333095,  4.735824226930252,  4.305712658222956
 9.944421546554640,  7.930664260198365, 20.843531450074654,  4.219945588732568
 7.517140605968692,  3.120249204282272, 19.883744987591982,  4.173454252063810
 9.974705179061880,  2.346230804267347,  3.952174216758953,  3.818330051924266
 3.843429677024238,  3.481899157675569,  8.816801632775180,  4.136984137690558
 8.908341506506014,  3.047070354227976, 59.632460802805724,  4.246298301434605
 3.385024104724492,  0.045640641858836, 47.089886995320335,  3.813390748370287
11.205947315047318,  5.026037031933823, 62.479873179228406,  4.073090811791904
11.815081911223837,  1.149677660833844, 41.344338266253388,  3.860142450110284
 1.558532747492811,  8.146337278341980, 61.332313393712042,  3.958497556092015
 7.321349320286576,  3.135784256867201, 15.292778117084742,  4.043178677920533
 2.402794477891761,  1.907766099947461, 19.847679952490395,  4.109050664086702
 5.342005957368504,  8.324743223345903, 10.990157331024999,  4.243847382160690
 6.826368709991357,  7.685090636268963,  1.653765107848013,  3.857874975398238
 6.507586394820921,  1.616820663129647, 45.713053659115381,  3.698303861904096
 2.754404495078978, 11.578742694625253, 62.798744862487794,  3.775009778911742
 6.932559634566799, 11.845172031889902, 62.821489616762435,  4.592116074576464
 0.146385328747403,  9.321988994070102, 17.671693414050473,  3.878132469719404
 8.433844778786076,  7.358340698128844, 46.909691749344077,  3.798221339859579
 1.552160150249776, 11.062951174970760, 53.747018053107773,  4.021500708719323
 2.714122827358496,  9.654473453043485, 13.814719364048385,  3.912106106063142
 3.664890521817618,  0.563087881283511, 50.814722675518041,  3.724911721227703
 6.805831265985281,  3.153738285803338, 26.454018471137129,  4.123382571994759
 0.337675494068275,  4.676898357443067, 35.520712081431185,  3.738551424403297
 7.030313479349266,  3.798024847403310,  1.888877433597892,  3.930703727508484
 3.059872901414734,  6.115028841161681, 50.997536578193788,  3.907665565906843
 9.337577172329459, 11.109551563744249, 46.598905699206092,  3.943823095563874
 6.531031331059692, 10.527362812550317, 14.526246595555737,  4.043194021822649
 2.737032462719856,  3.413526965546178, 26.289350035362475,  3.988826854412619
 1.713359095543109,  2.792390633985403,  5.165483883525901,  3.904244421987371
 1.077482102835261,  1.194674116055595, 23.576778581759854,  3.760179161725973
 8.859068610549400,  4.585833450068568, 29.752307754563621,  4.129554125584471
 2.467069054656399,  1.429059639810241, 32.798136016178809,  4.045385128318049
10.820361342932076, 10.353550916169814, 68.449556494787075,  3.954127048247493
 7.040267338493237,  1.807521543907964, 40.054406994325724,  3.873243540604703
 1.431918879564780,  6.083448597105732, 19.479125762635952,  3.966449136340520
 3.699443248907599,  3.485374229538462, 13.523134876903212,  3.913119664905748
 7.276779303663446,  9.130543922306659, 23.480900399152706,  3.630725717875794
 3.110949170279596,  8.541014633129040, 69.913957214559403,  3.985436448035582
11.231681800267124,  1.211020840729068, 63.847168487931967,  4.019302006611662
 8.742670494372250,  1.169752437190988, 23.377665289910581,  4.157309136407983
 5.631104097346485,  6.667140446898392, 14.686050496567358,  3.877063018198735
 7.011872131048491,  9.592538359892757, 59.150091748576280,  4.007791641523292
 0.202085804792709,  2.765728166393686, 67.589722728557106,  4.259135228251647
 1.275138276560043,  9.484997551432414, 34.317953942744055,  3.880645296441404
 2.221618281509732,  7.762359153091917,  0.919822236887917,  3.928150132719407
10.703185999241942,  0.928405022404171,  7.530415724014056,  4.009698063752325
 1.949164766294126,  3.645018465638913, 38.972554734428513,  4.137093595393377
 6.889469678462314,  0.924790125543895, 56.495559940788631,  4.303369359634785
11.645942929555309,  7.308189119244529, 53.063884602432267,  4.262630416646648
11.005945274418311,  1.476937700568165, 28.480453280761523,  3.842320997504538
 8.448344887422618,  7.300420160926461, 26.681746752565324,  4.099749612427757
 4.008572861588185,  3.766374544862898, 35.565341558439741,  3.823801627016782
 6.891202932941665,  7.459366933505869,  7.373276280427258,  3.780023629987722
 2.762525486397138,  9.952856400200142, 30.752257273712178,  3.875439811967268
 4.938917571188774, 11.745910190336827, 24.855692247054023,  3.829990375486628
10.950528234143240,  4.183505543254712, 55.948005345381965,  4.350891439116544
 7.316962476427221,  1.130502859627507, 49.498273619498583,  4.098239097590059
 1.395359200816984,  9.880087061109718, 39.655175939871782,  3.911694932863937
 1.897501145126220, 11.075115490936630, 27.135846565279216,  3.879670487040816
 3.064674849618310,  5.714906077123752, 54.976247320208074,  4.037898711378480
 8.161574347510259, 11.277511005082907, 26.927445999131525,  3.881440075661434
 3.099026016593919,  3.838962126896190,  1.646917881005910,  3.934571838083923
 5.123803348100442,  9.100337288201978, 27.843092097641211,  3.809712289640123
11.838339879468331,  1.178094472659067, 49.187017119038074,  4.261198958166029
10.030333424822780,  1.504003904577232, 71.047903400781919,  4.169978787404302
 1.103480718215289,  5.114598422885503, 44.016084774756855,  4.181022664660573
 9.784652375281537,  0.534136786103548, 53.432155791398174,  3.795032815461134
 6.298605167690530,  4.993055478607140, 49.092053796108772,  3.925002329252163
 4.608661809168570,  1.656081543114022, 66.373184445002451,  3.535470678375488
 5.302243442421353,  0.720583590494068, 17.524310132176396,  3.673224303473725
10.479669499068782,  8.476450118009394,  1.877511890849840,  3.600349350200195
