BANDS
8 8
NANOPARTICLES
cell(1), 11.913
cell(2), 11.913
cell(3), 74.455
 5.235031479725066,  8.300498828150012, 20.509118629114560,  4.322760395272402
 4.244713809356987,  6.477178781947551,  7.363687639723928,  3.656694935128176
 1.763206801971660,  9.565492018237350, 66.218887338427777,  4.079920005236434
 3.634945547596648,  2.362899283180453, 28.505692496969388,  3.912533082722982
 9.121083720879772,  6.106718787583361, 27.020907601322513,  3.765022464459742
11.816264482371237, 10.163540922661959, 56.085039739418839,  4.165087929587289
 1.958669528354555,  1.455862318788002,  4.428972141567456,  3.663129510780021
10.850362071576468,  5.852346028470151, 39.396706567191089,  4.266887885247617
 3.479631126228304,  5.894122870214554, 39.159595353751087,  3.584459963468084
 4.791976418905831,  5.905601574070037, 13.845630245152371,  4.304960375424970
 1.218663932421175, 11.654656380228733, 41.961354619303172,  4.243675193609554
10.713967901037137,  2.051053507228088, 50.943481180478962,  4.414206224177838
 0.305951832088402,  9.128703488717633, 37.272421560726578,  3.994594744968724
 2.000892362743022,  5.466668394381394, 72.654862813358420,  3.783366155913293
 4.106583371210920, 10.152528338634269,  1.955831025980016,  3.804919674870212
 1.164350423464638,  2.104433708448768, 60.122265920546369,  3.735827853094350
 0.365116692905265,  3.600981978139751,  6.931882917140981,  3.658908688910133
 2.177064238670507,  1.777814288217264,  9.592390728513150,  3.738523446260604
 7.056513543969526,  3.536946869925626, 73.236784981509615,  3.757931326850953
 9.154871793278344,  4.607720361126706, 47.492549475657384,  3.994722610172885
 3.265244086211682,  2.426147081092989, 24.568210162552909,  3.729014042258801
 9.229936992511695,  7.454624525521044, 20.752134046500828,  3.857858134339800
 7.734964015868871,  9.573168760755905, 63.302996288293585,  4.177423681904301
 2.246188025326444,  0.704222480790913, 53.216665592324972,  3.948963716405852
 7.764161738641005,  4.260731084043523, 57.324027490528799,  4.159285020134774
 0.187383183659642, 11.859885637495600, 12.310189604758666,  3.920721824086543
11.322343927453828, 11.496082901265918, 30.507491556218330,  4.191182948010367
 7.800013097293968, 10.283960451803962,  7.356879078749732,  4.084559439512166
 2.342272399391701,  3.350308016944400, 17.508224874550418,  3.982321495885896
 6.154330166771741,  8.003144513779441, 10.275041965355344,  3.942317555483055
 8.940976992548157,  3.193540079233227, 20.442803704526010,  4.143642740258294
 3.068307038554906,  1.101217684272051, 45.009232547929038,  3.370564584386628
 9.964002829120888,  5.310710644177984, 53.688901151458516,  3.807874871865730
 4.519260904452747,  2.080371559551582,  1.340595412870115,  4.013446699557605
 5.209767762313779,  6.988222050751321, 27.516652541598560,  4.103830722062083
10.179910097428136,  2.312780848573645, 41.153146994864571,  3.739358359624965
 9.987654149441203,  7.821298030396972, 66.989412485516468,  4.219532082954537
11.504856771962146,  8.225641984221920, 63.197758821920736,  3.827308666686216
 2.962359139680031,  9.205322065257670, 72.897230651915237,  3.821570214303606
 5.640619455568623,  2.546555736683572, 47.346106902246447,  4.157176446525736
 4.100004199510208,  8.058815480589065, 57.651476682551298,  3.976576720415943
10.171149781792829,  5.863493098662821, 32.748789306525104,  3.916216077064113
10.280397340108165,  8.676830198614750, 10.289531007656283,  4.240072676844590
10.238305468326450,  0.763701201089995, 36.758020997799981,  4.179792586285401
 9.021328059743551,  6.604678439177559, 13.792013505372777,  4.264105758524239
 8.479512418374778, 10.836944770001843, 13.072544076342012,  3.614428641147577
 5.038344959306617,  2.831147194416806, 60.113234810283210,  4.145416293340094
 6.645704245627448,  4.131994527084551, 24.889096499748653,  3.869068197312927
 7.783342627409785,  9.729292496871690,  0.959397702138093,  3.833152525485972
 4.424353227578692,  5.268031270674048, 44.607035728631665,  3.936387417964986
 8.812073578710788,  5.977641624392176, 70.590119902152523,  4.119233074703413
10.915232864617424,  3.724199876293370, 29.310321702153349,  3.737707396674942
 8.927420630736988,  2.165043066941288,  6.372278283546025,  3.712482735627773
 0.452123355010310,  4.055111151876808, 13.890754736954234,  4.096669140978798
 0.565295032192599,  7.403831616646363,  7.035305487285753,  3.948681055408747
11.794590092131321,  7.518081780133230, 29.502284574683152,  4.056120735400537
 6.596706308920190,  4.536980874984478, 67.573240983399742,  3.862521289673314
 1.595755022027098,  7.790667047806966, 41.528573695932224,  3.558779556418893
 4.006566936346547,  7.990251126169783, 63.304643018876611,  3.921247573540047
 6.832578430363777,  0.145990979774877,  3.909036321469166,  3.907341667637096
 2.137512277708397,  7.171228489588791, 54.142354004805405,  4.246229794206541
10.326457458574707,  8.154587004668082, 48.410402375116476,  3.619987240612853
 5.790906557083798,  0.844335417334931, 51.178858519003882,  4.229396902662815
 8.229626086344725,  1.876778544174263, 69.920195660445302,  3.947937174644262
 1.821541869719624,  3.034940518893317, 48.341196360540692,  3.794075778614828
 4.298020516218267,  2.901301050876578, 70.445916400513951,  4.189351805439097
 4.896576398873086,  9.918717407185090, 13.371741715606662,  3.762003829954441
 0.768298528558773,  3.351018985740183,  1.372465048169685,  3.904523007615559
 9.524798084639411,  6.223872850392888,  0.260944721565712,  4.113995040045144
 6.358285757720628,  3.940535412099064, 10.430696141941239,  4.172833170577201
 5.504367128802842,  0.013076315378119, 10.174199517874067,  3.880057492979974
 6.651462615610733,  0.689759551311847, 22.880157361216142,  4.086200095334867
 0.474404470244708, 11.295113904469872,  1.710386179441944,  3.790062432679985
 4.216208778814606,  0.351897902520861, 19.484239093145518,  4.115489452385320
10.722211854040323,  3.160885304436080, 72.550532148577545,  3.734301722590768
 8.728552273649029,  2.608897721352675, 13.365063505200528,  3.776709207178744
 1.280417166990157,  7.462993297362627,  1.539883390754231,  4.040597801176741
 3.585741457312495,  4.106242341738111, 52.028694584573884,  3.710725295637194
 7.180157837025966,  0.566884607827265, 39.455827893676485,  3.982631909691566
 5.539802811360953,  9.410070295499768, 32.571584829051780,  3.886108647816544
 1.520083216127044,  2.545617896467734, 38.817134104068757,  4.202502278492593
 5.089880676405497, 10.062364746189949, 54.343627178609104,  4.004159698891776
 7.319265856591167,  8.199033113774982, 24.185089585977931,  4.130042181217269
 6.382646118391833,  7.768702859656989,  3.960341637211984,  3.859578687332826
 1.559897044492500,  8.684792985629501, 33.137187151155899,  4.280425513051473
 8.624455398640510,  0.231150377203078, 54.241791444554046,  4.201035564270005
 8.239681959081878, 11.118454122923419, 19.314103160299510,  4.251944499773079
 1.475121137846030,  5.127226693073007, 26.675944274482202,  3.999603989518494
10.037433385609454,  9.356472982925151,  4.131505055170123,  3.979659878555396
 3.286499352489100,  9.207102321803797, 44.764338788770907,  4.265863601565505
11.222081577461337,  7.481237604202641, 24.184709577916724,  3.805547573631399
 0.752055400456297,  6.113455880367859, 46.074016957224885,  4.144521913361897
 4.279101546887827,  0.116058266793899, 63.173107758656911,  4.171322895799865
 8.069866725673750,  1.746254704440351, 62.694320408877736,  4.107783943585310
 1.069719611984786,  1.960462033890545, 21.443331875064985,  3.965174457952027
 4.429333431483137,  2.407040043032505, 41.781900003961702,  4.104724622247633
 9.392704547001266,  9.727318693951998, 33.856692252614138,  4.261058990924909
 3.788669577128009,  1.998824366585304, 13.057012998937520,  3.913294298311542
 6.159335137046284, 10.827017562525269, 59.732144627171799,  4.021468216116309
 7.979254723149494,  7.820318167410046, 30.141345659343251,  3.699186465819168
 9.589199555757313,  9.557373170152747, 41.014945135839717,  4.203284634933268
 6.490785954983632,  0.258185158430773, 66.673487115193794,  4.078839688916232
 5.074345478769369,  6.495336499116667,  0.429011141870258,  4.080078910079283
 8.587402271556194,  5.555747494976728, 63.894423203361796,  3.945542585031603
 5.967686262687534,  8.235299631173259, 66.656082810133327,  3.858877621989880
 9.800684925737636,  2.587182995850253, 66.301242673390419,  4.049145918711046
 2.286110153871865,  5.833538881821267, 60.444577003629732,  4.024777809707450
 1.866164872957904,  0.961521432347094, 72.983379506425990,  3.837915508547849
 9.235871015537665,  1.515153545862855,  1.180288512219963,  3.862933683729006
 8.747216330170311,  1.980978754347521, 32.947269133434951,  4.357941814286973
 3.816007536384931, 10.207059340353817,  6.012424200802471,  4.323293523680912
 9.640412048807205,  9.865357012237933, 27.180341242854993,  3.819108587083325
 7.419689563001323, 11.480674350389616, 30.025662052292596,  3.671071650345301
 2.252838327937875,  5.558704346352563, 10.538134622468734,  4.057051202325284
 3.854728585856498, 10.805872970056749, 69.444227724475695,  3.995810798338240
 3.088317659956290,  9.555741590780743, 51.102097190217201,  3.680173255710984
 2.226894334481710,  0.270359025669435, 35.388849839396407,  4.143781712689735
10.694010118032621,  5.820304751319935, 17.492674293829559,  3.999959140659780
 8.586991046797056,  1.669089043526045, 27.135318748415543,  3.837093178781733
 3.227193793963154,  5.601054599221082, 30.834480696342936,  4.100572834102992
10.531153782723884,  1.764508781935909, 16.837325210787750,  4.216756765320194
 2.382746434061774,  9.536019879968622,  9.881269556562417,  4.004102864868187
 3.631176740363661,  6.803530086822927, 23.916980841256937,  3.764333513839528
10.977443380913524,  9.682147305688376, 44.920047077375472,  4.070729280080172
 6.343730959980147,  0.695856141984190, 15.882198791551625,  4.135729336401258
 8.777170568875450, 11.712409021365808, 47.801303056904509,  4.225948038828661
 6.487939636979256,  4.502932958776222, 17.409956290236781,  4.072848399491011
 7.732471085590916,  9.830112811729641, 69.806973711690588,  4.034078499303297
 3.762198391110486, 10.396826825953646, 38.975080359269839,  3.986129203098293
 7.712620879476408,  3.198938489784449, 43.945029135352115,  3.913086361395925
 4.640151895144377,  1.372078103491294, 32.236199729876319,  4.064023261032776
10.510560938687831, 11.282377346862578, 23.324633956186627,  4.114758575185962
 3.420782762319909,  4.983655604581888,  3.910350203010383,  4.042252554927388
 9.561066005501965,  1.088366986056047, 59.037484262009741,  3.897076100519439
 7.255123339953371,  4.015996081404853,  3.452220324808174,  3.898544553860490
 1.009126421134775,  8.111655128839093, 13.475925128536934,  4.098406249951195
10.547056669255985,  3.563457038919952, 24.239146016219152,  4.112046978634376
 2.939148577706183,  5.889416830855803, 67.002096057501859,  3.773553830420417
 7.300560056242603,  8.699812558775184, 51.004936279537333,  4.415486332973579
 6.977744358938325,  4.100283476541128, 29.782681854445574,  4.039006090392172
 6.623386855066866,  6.661419199652645, 60.525617857417807,  4.159421217781154
 1.929299099748225,  8.998150120741974, 26.491589303517177,  3.804061526006682
 2.550470167850162,  1.772362184406082, 66.708965723756592,  4.363026807581967
 7.284449595277439,  7.951555845817450, 45.872278989592495,  4.304293243891500
 5.572809695980304,  7.922512590699855, 41.491938203072039,  3.878762726824442
 8.018523675270245,  8.190980671387225, 37.466028348413658,  4.024843998925872
 9.802296410988587,  9.122544492525615, 59.779536604364395,  4.014073836576330
11.750208010675529, 11.900459265355432, 69.170184901538576,  3.752650871978766
10.253630109922739,  4.415936059424823, 60.673158701798641,  3.642327892248199
 7.430347577538252,  4.490621416008450, 50.964347718068993,  3.760517850139354
 6.662625325585869, 11.287135221279224, 43.397321428798477,  4.089602180476517
 4.828275563912970,  4.126996297034648, 64.022571060386355,  4.098160028158897
 9.882605993127960,  6.288751890459118, 43.268528221043724,  3.758038120452647
 9.220129227220943,  1.000801572343756,  9.945518136915421,  3.820463055365284
10.806277689602350,  5.502027053461260,  4.022893158091986,  3.880365525540296
10.354823196668951,  9.675333989896410, 16.136718662211180,  3.908517693177520
 2.146768256762492, 11.439377274533642, 15.905763024576713,  4.311040661949469
 4.213114774512754,  6.432840333600842, 48.677654184311386,  4.540235213419357
 4.860924380462272,  6.988144580932189, 70.251706199567153,  4.057253118674942
 4.335081096135996,  7.776330472466950, 36.017732992114510,  3.919759779457388
 2.679738972038584,  7.416101599883841, 17.212597422288727,  4.197984038801172
11.318525739975549,  1.951709760781267, 45.254871369207549,  4.153852696930697
 6.284296788676651, 11.812056310888181, 35.618712492963660,  4.009644013412518
 6.960857268294555,  4.726856615379369, 39.771052089526400,  3.850742196328614
 0.501405492968625, 10.131093958736171, 19.707593138733987,  4.362603235448224
 8.141959954549964,  8.709903512516076, 56.303522248065597,  3.733478518502650
 1.008412126226652,  7.969520119722275, 69.800362310595489,  3.904130401231164
11.456308085303029,  6.213750712978223, 57.401251576483311,  4.192611680884814
 0.994136459969890,  5.354013356993942, 35.717409632207755,  4.220399977558009
11.731604603542367,  2.362136064856071, 55.940085034497876,  4.063691760271174
11.256164580520890,  9.819634405553789, 52.028003320212378,  4.051440701582873
 4.988837624754630,  2.437511488902606,  6.760602488550946,  4.215641670695136
 8.248129094886469,  6.071169662741072,  7.227807776615774,  4.392426184636092
 0.482329109041600,  0.737334205823900, 26.696920116903716,  4.049522341837654
10.319537750128406,  4.635388905245157, 10.490019046588928,  3.851379683945388
 6.323062852904123,  5.679515732906038, 33.358855880453753,  3.884286743517518
 1.118140336636571,  6.033836294196007, 20.888153353821874,  4.251953970481305
 8.621863549890515,  4.456193054452031, 36.264102247826308,  3.910147999835791
 0.956025820568032, 11.102542828953716, 48.245853600867648,  4.089892965486201
 6.594292171034589,  8.489141293228442, 16.569585067782167,  4.019307852258408
 5.405723864208877, 11.091372548771904, 26.595244683728943,  4.312337214750702
 0.205553002530845,  4.192355173937433, 69.129153229917989,  3.932275678663792
 3.115107042552121, 10.336221302344601, 29.795240326255236,  3.701778044970357
 5.859107983728818, 11.811936668663602, 72.733742546972493,  3.966178402916614
 1.841143628792995, 10.033950774436267, 60.414838922212290,  4.181399483776851
 0.879252704233138,  2.801168092430633, 32.535682877268613,  3.937120294009580
 5.056661505147907, 10.407322718182435, 48.098422116839593,  3.656227796986516
 3.279355449281690,  0.403793902247068, 57.230793606230804,  4.164346134661087
 3.071919149262148,  4.373558177973841, 56.892649079691559,  3.814138304463953
 0.476676088456191,  5.872828175998511, 50.621828071489972,  3.954322683566649
 0.707967171952939,  4.466825292560116, 63.966579152251548,  4.163537982326183
 5.451994199753270,  2.476497291357735, 54.741767868430557,  3.635200615151980
 1.093798522597215,  4.320785573699589, 42.568265080871811,  3.744895334505915
 0.017429013248264,  0.329306161795419, 63.523993445093097,  4.272084655615085
11.801634806128105, 11.449378246146290,  7.205796246705185,  4.250151570805880
 4.886124194878519,  4.091889725250519, 21.231963373720699,  4.245668847518279
10.789933350182508, 10.036755331957378, 72.647131098014853,  4.315121514526258
 4.704641669502024,  3.568200726729133, 36.349378340608148,  4.110304101047835
 2.970044559490719, 10.726652508401926, 23.096832462665159,  4.093893374908247
 6.126349071540139,  6.217818146934287, 54.166500170160582,  3.956109227265711
