BANDS
8 8
NANOPARTICLES
cell(1), 11.895
cell(2), 11.895
cell(3), 74.346
 3.124922165661151,  7.816839748163845, 55.530568741396905,  4.105510852325319
 4.447883347022485,  7.226693386046054,  6.617040280113745,  4.045462563793743
 1.939882031770412, 10.133893312711956, 65.732989040876845,  4.111340383220580
 2.212662823740334,  4.069357038490367, 18.198027894297329,  3.929337215701702
 5.742113643511694, 11.870871306019247, 36.958744428271700,  3.735412987325148
 6.670588080998932,  0.883260367036830, 49.429096974841158,  4.073972524648219
 7.586331142578430,  7.121720672600029,  0.320683211750796,  3.875475065690273
11.510436532723581, 10.771949792146460, 19.128515513754952,  3.585489947826294
 6.313860796811769, 11.484547824540330,  1.121112538653259,  3.954489519285496
10.044303379201267,  3.400652004371992, 62.045587229192435,  4.011368712952342
 7.383262491026205,  9.258745362413082, 30.015149260049220,  4.219331155533202
 5.178131706081921,  6.206240764702025, 52.380292161230592,  4.039288265069648
 3.269971451105170,  1.299973335245258, 68.173658096203368,  4.158059538858971
11.116218427112644, 10.594083100829646, 32.039300328625330,  4.149774347060667
11.410902925830037,  9.140176686628159,  6.016547907724153,  4.106364809483900
 1.830568150331563,  6.172036100741297, 37.966258348463278,  4.132247916219376
10.915395426673573, 11.554865051547251, 36.152776574618393,  4.289849708967520
 7.448040303713861, 11.579608032780870, 68.367845187024002,  4.021948582809438
 0.424818867472283,  0.445648517410383, 28.668466977285046,  3.799279741380880
 3.441957975763834, 10.480742771730190, 49.324544253662204,  3.681130494913265
 4.676431931323152,  1.729973890296500, 10.217738508811347,  4.123872183660895
 7.040758364603700,  3.866403536204543,  6.765594786876406,  3.677141590263376
 8.928355860904627,  9.696949829806755, 22.056805042578439,  3.922807210337771
 8.877390191048820, 11.492978127656571, 52.640116911670518,  4.130104740426087
 6.266239305400379,  8.577056197561209, 19.411535784232402,  3.897512664421177
 0.383815608634581,  7.867453499404655, 68.609276319007989,  3.822163107640677
 8.243015083693107,  2.695337705060337, 38.022299286193572,  3.936167488521253
 5.416097708962421,  5.741793620081150, 44.724076874232431,  4.045423841086778
 5.259198804849608,  0.623273126131861, 31.265282923898063,  3.951118869227786
 5.736953885170979, 11.037555507754190, 65.049271370182183,  3.496380532901737
 0.265080895613855,  5.149354267381378, 14.715342076260361,  3.814661262208153
 5.248981433432111,  9.530746379567091, 10.536683326351090,  4.164860182509799
 4.881126578540392,  9.953805133141092, 58.682068109407794,  3.807191132901391
 3.462653602060044,  3.230027837283801, 13.721668028541174,  3.873876300940525
 6.826664168836553,  0.319403779122877, 24.098986991517990,  3.773262472415097
 2.766734818477304, 11.752709021125304, 55.995719881627409,  3.757769417525219
 9.988919661636073,  6.058732241953452, 20.724940671652408,  4.093483699060012
 3.171939801780391,  9.680971742476421,  3.188546837283649,  4.383487323814412
 7.189307248668062,  8.126588086587798, 13.721307851146747,  3.793813013448974
 7.443197249101533,  8.716984612198987,  4.096991266112167,  4.319637383139062
 5.564521091780172,  5.537485579374362, 11.299546474909599,  3.984900638894966
11.190980481799956,  0.282487411004225,  0.416045370427690,  3.950290785896454
 9.864855246574427,  6.780491754523875, 32.004724347414282,  3.842298423431370
 0.625068810084839,  7.765423471354342, 34.554159977454702,  3.771061774095704
 3.060276501923611, 10.243741480110826, 73.202481445055881,  4.342244465156893
 8.622753106213201,  2.838197474165394, 10.159095167760423,  4.073798170251353
 3.365578528323740,  5.169903246641868, 68.623934141132509,  3.607324150072594
10.312996030089449, 10.992848767849679, 42.719511805046260,  3.930044833812320
11.022835405258796,  9.451297682941465, 14.351751819620198,  4.264512946003047
 0.270330079116065,  8.134443192204017, 40.997868360673635,  3.702904066363180
 7.071931891360424,  9.873011164374635, 71.949166815800211,  3.924864616263644
 6.416294215990016, 11.171883118492925, 42.516811502290999,  3.880493402015669
 0.545548202683931,  1.301056363301551, 59.080892728840205,  3.899668823603819
 3.746071814326620,  5.952498039059084, 58.921919066864689,  3.727713668235055
 9.791714024258072,  9.319831531561318, 65.837497448855245,  4.139211109129832
 0.868522515565389, 10.227433576041156, 22.608149667282433,  3.887734152105596
 7.887092403249329,  3.229484598093639,  0.826575066847159,  3.996204291932929
 2.208442768388723,  3.935043198548378, 56.238420887132939,  3.636996522445154
 1.972174347603729,  4.735886344298147, 41.658890290395682,  3.796059379024091
 2.854431947726226,  0.386908969396557, 62.093236880104428,  3.898189131805471
11.867561114082712,  4.329706524127789,  0.686053351481084,  4.266299281141062
 4.333469519296423,  2.581562841042696, 22.155939618099573,  3.996126702362983
 7.199345317013871,  8.772160250234720, 25.873806174373090,  4.008071445746402
 1.515225899158511,  7.891332392243965,  9.453273935007358,  4.221580753041600
 8.338089633300845, 10.982498349613181, 17.077400051806357,  3.975813645795074
 7.080499239382505,  8.875311157938548, 50.166982214616887,  3.760081929041412
 8.358933505954157,  7.252410634172211, 69.150644014572677,  4.162248033205595
 2.849407366140495, 11.121313313351502, 34.290102524312211,  4.270368643026502
 9.430734156097062,  4.464676163525754, 71.798525907831731,  3.811116600912845
 5.407630510511881,  1.896265925634752, 16.969409333305702,  4.145513561690531
 9.084539973514209,  0.765435477025815,  3.898202981769945,  4.232382333509676
10.205237314607135,  4.948943178259694, 40.509891582216696,  3.838546015377225
 0.688897414922884,  2.154063875605085, 65.009968973323680,  4.181056779790255
 2.391724879328518,  4.237251033628814, 62.025911353504291,  3.854558368122978
10.856966732381430,  5.802899543567859, 55.442260739426821,  4.010721408945279
 6.859198003278925,  0.214122669921501, 13.430069408029940,  4.211964953555726
11.234331003711484,  5.263590992809106,  7.252278347032766,  3.892643377947698
 3.460873666636947,  8.198508204223733, 62.281296771433723,  4.367180610030864
11.125517932781257,  8.350561476729593,  1.912501743634184,  4.265699119425520
 3.405420787040175,  6.499213737897186,  0.592602057124274,  3.840143345826996
10.312999789294221, 11.255090469404802, 25.514562546062241,  3.985525483753304
11.542836321136067,  6.198751641225830, 48.629262170094997,  4.064429582567478
 9.239274311916356,  1.064195177604512, 46.140523901083355,  4.244943119457239
 3.269355351765341,  3.049026749156904, 28.882014477841818,  3.924099377136447
11.455786117280024,  9.735850332699972, 55.223493785987351,  3.955768991512307
 7.549571231298217,  1.082955335684102, 20.394927905324309,  3.925590366368646
 0.508657631314923,  1.986774487062206, 21.130632092766561,  4.010056887774399
 0.971595962826944,  3.514680116141886, 10.605053945941128,  4.125853969076624
 9.729859651611690,  6.962634812154060, 51.951310301686256,  3.656264940048875
11.339546193881667,  1.195646681563767,  7.466215378089747,  4.251839175936689
 4.577601235544468,  2.495685699618405, 64.703947800757206,  3.632533986364770
11.205201909392661,  7.278309278531497, 62.326508441802922,  4.085574092986511
11.498671413747838,  1.394449035161512, 39.793376214247395,  3.858931886268320
 1.941143822503608,  1.254330874258243, 25.129853584009698,  4.036916543559320
 7.571751648718848,  5.138536568251814, 49.344871999456991,  3.914691187132730
 1.462953108186737,  6.017298326542127, 71.722972080100533,  3.726125917587249
 2.412034337878612, 10.585028498488271, 38.733978384974428,  4.222020918203782
11.433307712905384,  0.107466821993150, 68.160256787705521,  3.669260079284268
10.885077888515132, 10.166088918214916, 49.298460060746834,  4.087335463656146
 8.194661947745972,  7.696582556717734,  8.108532103847395,  4.073109528285520
10.543016592810897,  2.382833628929123, 49.972517269000285,  4.268292319156083
 5.795780064511848,  7.208303418754115, 65.791852278291415,  4.282238867369957
 5.639492930998951,  5.113373894557216,  3.502084675356559,  3.818709743093510
11.238660855474940,  1.823267572681451, 55.232437354278346,  3.751501905133520
 6.576995632025393,  5.972379873693716, 39.336694679396821,  3.869600202349352
10.049365957755139,  3.037253251285005, 17.615006067804256,  4.507793502157147
 2.418237452345386,  0.445928082920277, 42.701112104706283,  4.453106329650582
 5.770360539724383,  4.926437367444596, 55.983619712538434,  3.690075823371513
 7.469217931521454,  3.060479627394905, 42.567462149931444,  3.966617020205851
 8.700753621850819,  1.442593772946477, 65.152982540119922,  3.708595900277306
 7.050049250980730,  5.469830089421013, 35.328466845752608,  3.936505036440988
 5.820538415198872,  2.017285932519286, 71.630208671954861,  4.549638857011796
 5.055598633761739,  5.931198961869672, 16.141234091816248,  4.008517229995463
 2.866408602285628,  7.686685407769268, 13.309517921672818,  3.954973298949855
 4.661402679948261,  9.892493746343357, 16.066818857246581,  3.953525878336272
 1.029214006166117,  4.249406081966187, 52.581696504297000,  3.700535644260251
 4.680475835265759,  6.700779917703868, 28.272219708326059,  3.998248919158771
10.880739459322061, 11.350409136878804, 62.373492800784021,  4.078233766945000
 1.480731259896555,  2.043022390421471, 71.846160621795747,  4.137069476433193
 7.940147208875409,  4.089689332390162, 14.118821863880882,  3.922098356172366
 1.750836535577655, 11.279515432445248, 11.750461737337570,  3.977186279721042
 4.889532182793650, 11.647936824475183, 27.410633006427236,  3.983080434470092
 6.427389431869458,  4.715011264516267, 19.612974979554497,  3.835477902962392
 7.336394529032086, 11.717094319360298,  7.627823129873626,  4.204199508656363
 9.281765409691969, 10.735898080579386, 58.555891643048248,  4.167266387847007
 3.180353139478437, 11.108775925503565,  7.246694049801634,  4.216978827409845
 1.716691069105408,  5.895811225408243,  4.031697992517847,  3.899161095967424
 8.455232424347111,  5.906627467142033, 28.137536516653501,  3.711973754776596
 8.188306190609280,  7.649160242164688, 42.515698514210037,  4.001508129210358
 6.247868450177263,  3.360447772901031, 26.364803797330900,  3.897199875365283
10.076677348914117,  6.435453446650945, 11.556245862650535,  4.173803323520354
 8.633394122172326,  3.033383165086036, 58.101068144661760,  4.365311778621537
 9.631290121102055,  5.315862287802504, 65.479179346379127,  3.892082657680601
 1.299573284330554,  1.592346852032186,  3.706497853304906,  4.161065736381358
 2.993505037502367,  5.159917433806614, 24.951336599993805,  4.059345469126648
 4.105540620547393,  8.044726646790796, 41.650930162481714,  4.067398382673431
 4.241111553477163,  9.619507213715972, 45.552709161249702,  4.207918271521588
11.697907410837797,  4.015188774868271, 27.176711745244049,  4.036906010707773
 4.275329586292759,  7.419374920393297, 33.152594726886839,  3.979018764313355
 2.116068116109189,  6.666998123724618, 21.261542027007557,  4.101919163101645
 6.305995213743999,  4.966694386190681, 62.276221536500607,  4.105848943877591
11.126200618074648,  8.652866471383909, 28.473677551698966,  3.962886112757317
 2.665096319158442,  3.468743365345401, 33.066099361830290,  4.548260714253939
 6.924964632794820,  0.986164747553987, 61.845616480942759,  3.853665286500081
 1.186369300303936,  0.105257263141444, 52.294641239094659,  3.978501021200234
 0.302994720359371,  8.135788075335158, 44.990499371133851,  4.281834056254816
 8.969491623789990,  7.067374993752050, 16.982029171315201,  3.921484506622136
 9.857719249768348, 10.391654237819372, 10.552517257393292,  3.883532619867415
 1.277721798128692,  0.231469876906742, 46.698114557851241,  3.869294234264316
11.643701933914803,  3.925896998127974, 68.601974659475260,  4.028731469607150
 6.785798273584726,  3.642000895123677, 67.742434310801613,  4.080830642748347
 4.151497874016751,  9.213555565052577, 69.172135174139768,  4.230195276734325
 0.079980586371872,  5.133141918202328, 59.117528115275313,  3.781305982237035
10.800513643002821,  7.175197908405431, 24.658953230501485,  4.232438257152690
 3.807875625745647,  6.570136653517379, 48.472289937456729,  4.274295472329622
 5.358031306413057,  6.211185825338963, 71.620133213715562,  3.878236577794835
 6.561321566082072,  4.518170112828161, 31.341095035489488,  4.227465779060920
 7.718528787810758,  9.419167330087864, 34.251582130763758,  4.281527786082779
 4.515941579773433,  2.067054282835134, 58.804489108819048,  4.196407048088721
10.619908949863737,  2.923242777782233, 31.333442503604772,  4.129490377146501
 7.610266469865633,  8.285659783351919, 54.992736896941622,  4.211290693193652
 1.496234498431428,  0.603233217081714, 16.151060208574268,  4.246245725220827
 8.509259011957308, 10.978146932122804, 39.325992594225816,  3.753515476407274
 1.074449943338733,  8.946028136115604, 58.873887105616788,  4.055448859105660
 2.902441677872944,  2.579004502890123, 49.536142729327885,  4.179397498954844
 9.512136163421378,  3.254050034108070, 23.762643349771839,  4.210317197882358
 2.093797127029837,  2.307284299767860, 37.030559628726259,  3.791636941262945
 4.334814690721090,  2.367640667838288, 53.408325155265572,  4.084147712261399
 2.317370089574175,  8.969089003840010, 26.022285733650847,  3.945225685573300
 1.643699259858833,  6.092445036184469, 65.381278627160157,  3.957666357803395
 6.513698825396911,  5.912626248439382, 23.263917766204223,  3.850525385211347
 7.517472189042048,  7.022234355804284, 58.945299612113068,  4.088397208149594
11.095062998819980,  2.667241107996214, 43.191710513081809,  3.423483185251966
 7.852234066743814,  1.711878717038635, 34.145707828824278,  4.100067892816520
 9.816832220876597,  7.651955354650886, 37.521873073324890,  4.252910908747052
 8.258395057874431,  8.899138514294059, 46.405023624343215,  4.122946542490072
 7.554821671427407,  9.046258677461418, 62.446638344234401,  3.996014681245504
 1.418652862940231,  6.066163951393386, 30.174149026379844,  3.611366913732988
 2.745956065684943,  9.625502271808339, 30.213111171640204,  3.982503172202748
 1.467109742506008,  7.904378739305348, 17.413482783803630,  4.038522570085617
 4.654576612010897,  9.294549593001520, 22.887510603540939,  3.895919179974427
 1.588528453197715,  8.018117542417711, 51.729052609595307,  4.103888674662312
 9.705613112076177,  0.774719053476362, 71.308296811167281,  3.632779296963220
10.918519924542426,  4.215384387815839, 35.347782014285841,  4.173236913761440
 2.894861877932799,  3.500945572168155,  6.987108773833360,  4.059586958256047
 8.230524474555716,  3.618984361944660, 53.249091263310930,  4.105097828478923
 4.003792616465658,  2.721944686165161,  0.991985428737234,  3.827186868731195
 1.708816610881131,  4.166453299117354, 45.659976961141197,  4.222034323152131
 5.183935598499957,  1.446423279656640,  4.547049626477184,  3.790264394140744
 4.929606667360501,  8.237054472795942, 36.827151713673722,  3.648354958953028
 3.396581901976294, 11.368258958875209, 19.699717875670437,  4.113633455322262
11.008054329403981,  9.123358056770012, 72.144326608462464,  4.093302638238504
 8.442330637612265,  1.000302811267051, 28.562648078930604,  3.883131390424529
 5.137944823436724,  1.788683678589386, 45.737722170727558,  4.122314629850031
 9.373557183054984,  5.122727298003117, 45.398259331874186,  4.005156923088327
 6.599847680628963,  0.211130084341198, 55.881002331019374,  3.886617738472328
 4.763908763951794,  2.331662619312003, 39.800922779715506,  3.902522781378436
10.690185252116544,  1.472471213483942, 13.257191454664330,  3.859827618701230
 4.784234485300471, 10.323905605661972, 52.876853679962394,  3.910241776464915
 9.467842306567649,  5.127715605193416,  3.838523277171138,  3.792986542790436
