BANDS
8 8
NANOPARTICLES
cell(1), 11.884
cell(2), 11.884
cell(3), 74.273
 9.901270887883845, 10.570186040683874,  8.870813485154084,  3.805920437989350
 2.947381971985175,  2.301652290815089, 60.703260954592359,  3.817842630604096
 8.539693091860677,  2.185468299192530, 56.952470441967357,  3.939024691027980
 2.081626757449333,  9.498775899492978,  7.420193016458228,  4.005414647678746
10.130172249207815,  5.138842799805421, 30.478831054842384,  4.274620217285136
 9.075140186742278,  1.021438128147445, 30.705763139642801,  4.236527676611956
 7.407428439325027,  4.712013965235379, 46.836715902674051,  4.083926340942795
10.480955774977764,  2.580368518958066, 17.177988134621614,  3.993771569079547
 8.519126630293977, 11.585458208865470, 19.326365138073573,  4.187475423937806
 2.210715095164516,  6.304724562025037, 30.428398848685376,  3.989427943831512
 8.850911079040021,  2.201250289862958, 62.592645831108982,  4.189395005721974
 4.438242713987429,  3.157773498646876, 11.375376958454851,  4.057414424346787
 7.789942415756158,  3.348391394772650, 20.617253411678224,  3.638033722274303
 0.098192052909289, 10.758155820371735, 72.427591009546802,  4.113070036671802
 9.418962863110659,  6.148670984060558, 56.443102203979350,  4.240747125600254
11.334871588124654, 11.703763541655327,  5.548535356027954,  3.758527255140133
 1.883545841022368,  3.624759882550662, 23.943365412561743,  4.317426346727650
 9.304524750017796,  6.327731685188063, 43.614902026777266,  3.945515982999292
 4.997695181057549, 10.133972891591055, 18.192186143614148,  3.751617023139939
10.733564446298580,  9.061774977468223, 53.746547656120853,  4.119408651647106
 4.217407823324499,  1.158376628140829,  7.793508032059987,  4.149867255185939
 7.587610877530311,  3.425148700856655, 27.716784573380192,  3.973540808195720
 9.005638284763693,  2.672668099003866, 11.219859023942215,  4.094673486524175
 1.048698406411217,  7.537153949659566, 23.668166542598623,  3.660871580741222
 2.292147772090389,  8.789466076964418, 69.622640431169373,  4.024757834413042
 6.335644906209763,  9.429356716130961,  7.441441838400041,  4.204951127485497
 1.781133298607072,  8.850178400611419, 14.221413963089454,  4.188790350924460
 5.034854104942946, 10.835231405928733, 38.060042556505671,  4.163891873857198
 5.680524967156775, 10.704725388967999, 30.983413351963513,  3.862511318907975
11.140614729541642,  0.414621247313833, 47.469882519283864,  3.903554786126275
 2.139645837707268,  2.293354988104252, 73.412887584986834,  4.087995575329902
 6.954100882284003,  8.008798481393017, 20.813480431749841,  4.041850499550728
 9.821329868521850, 10.260576905589026, 44.304043977673807,  4.051075635646368
 5.286701507938105,  9.656843502173428, 62.900319950416346,  4.181721287156132
 7.866127435192580, 11.161739315838332, 65.829198724134145,  4.177731468433613
11.454680704825243,  7.800658431896721, 40.379271123420473,  4.167306174122303
 3.359939883913734,  2.196697494491476, 40.596906452943230,  4.172731644326778
 1.331650122929181, 11.431209644093126, 17.464017972132698,  4.146443192030973
 0.737966359619219,  4.009408023223991, 63.214192170284036,  3.687401691371893
 4.101526605567234,  6.995053388753516,  4.790169688551422,  4.263082269015755
 6.497349081342621,  7.919371697193667, 54.046932596119611,  4.103480161199948
11.813497580406725,  7.488052533968986, 62.371290736222520,  3.632569400840765
 0.319984174340384,  1.661304579997010,  8.688483143607376,  3.718068490619823
11.018719887804531,  8.715352632334978, 20.645955173368435,  3.868976442051467
 7.587040915243346,  7.372921786256485, 26.571668505172166,  3.995133104067654
 8.562706395281417,  8.523454329755623, 33.299149481169678,  4.080600515593476
 2.622141028607843, 10.178322576082051, 46.236442778200797,  4.406350316584589
 3.825203724157181, 10.631025756829001, 66.509912920629333,  3.824971785431414
 2.593573972175694,  3.856616109094632, 66.498507045335828,  3.738524537915733
 2.992146128509575,  1.515845039019141, 34.243923446095813,  4.041920707129423
11.053056247597022, 11.624127335579395, 40.947715166743926,  3.594659999558241
 7.759908197698732,  4.514638715386075, 33.935963976509974,  4.194397810599810
 1.947236263006327,  6.457307563058647, 43.701877239802450,  4.194535739320073
 6.589842032319428,  7.961659287217447, 59.171823149898067,  4.414031343098181
 5.317307670330013,  6.989953104312185, 67.234140607241855,  4.155840023250176
 7.806896971271865,  3.818694433680093,  0.556797876938500,  3.868336219815180
10.217227406035706,  9.157796084835736, 29.154987881613575,  4.189922515171071
 0.282011225308661,  4.753875674543373,  1.698038850746791,  3.900925651268412
 1.128743906068185,  0.277536083276188, 37.667312820049972,  4.121239334929474
 7.670479991813499,  4.095249326893704, 65.876827153676814,  3.749945074172992
10.431055842824451,  9.928368399841780, 25.189899364008312,  3.897977301893794
 8.726078838729613, 10.328081891006217, 56.766597340219569,  3.558185957912378
 6.194159177793660,  4.143001746764229, 60.428404019404105,  3.657908412857513
 3.401205523621182,  6.130389709146939, 21.007116955338901,  3.975710787879355
 3.880935755793889,  6.485113272121742, 47.982505807456803,  4.129266629668767
 7.191635279355229, 11.307040947831286, 27.367925448854578,  4.048163715108172
 4.953242322011333,  6.187730188836473, 17.500290122195118,  3.686612070526710
 9.438006845417872,  1.000739528789079, 69.883997826421094,  4.233746627476877
11.326525856167382,  0.793084944572378, 59.538294852950621,  4.156381548644492
 1.747201012578909, 10.425808484083035, 31.056180929412207,  4.018459482732705
11.022017912390961,  1.963102004511812, 66.131296172455961,  4.122441742694885
 8.108060734158013,  1.706717022762956,  7.540437095224974,  3.704876564410039
 0.899569590550199,  3.586248529410003, 56.827793085405517,  4.150300267073272
 9.549730597588008,  2.659280258019430, 24.133570767948612,  4.335824794769020
 7.692063846242486,  4.746175914274104, 69.714628293040306,  4.033074715667542
 5.588506662096942,  1.837991155732107, 68.066218795027126,  3.786521168656701
 5.998413333235891,  7.328252427574773, 72.293704013263081,  4.012944165214847
 2.080379626886471,  8.902502623055849, 27.231923038308636,  4.237706928436089
 1.812686073508838,  1.015099672435144, 69.232402270498810,  4.283700900964077
 9.570703383806679,  3.121235827242163, 49.710578219126177,  3.780888139718680
 2.294806350101759, 11.543928587019561, 24.283408933125404,  3.664762881363559
 6.061814428956091,  8.695138090341837, 14.530495518019459,  4.392584224347615
 4.022353913858911, 10.654987520398175, 72.560076383428296,  3.740818663483997
 5.418279654723681,  0.598648411877415, 43.771223698661125,  3.937237488325216
 5.574806733019527,  8.938722106990308,  1.568006063795654,  3.811035216643865
 1.092019672134362, 11.161301174840393, 63.326733034382258,  4.104471343138108
 0.907587837312763,  8.428759315343592, 50.178685257340000,  4.212699389718485
 8.607853075377689,  5.850704463693837, 18.036505154143548,  3.727377938009497
 4.399825705770335, 10.962068874910949,  4.430859120750474,  3.579602014688230
 2.638288939425697, 10.178485679136527, 41.923068533481526,  4.167475292378665
11.159421809736177, 11.582560180590370, 34.053191758104539,  4.076869692215332
 5.927371514635482,  4.945150088081057,  7.987034388076266,  4.151506271998392
 2.265416578239885,  2.326396971120297,  4.260540333610972,  4.196005173316118
10.190684884067181,  6.511980188483983, 36.637786151695103,  4.097686609896587
 0.520675500030986,  7.746041442508846, 33.618000930273070,  3.783535778578071
 8.931598636057007,  2.234038175914133, 44.140821294366887,  3.837780846853588
 9.746002581423348, 10.024032839650838, 12.510216476864148,  3.525226207736620
 8.316433013452111,  6.702664321992512, 11.316694904973961,  4.078033707872481
 0.162589778313510,  0.869175615108251, 21.213443178698441,  4.137552947617645
 9.963576826626747,  9.115322358840183, 16.255654173481116,  4.179639469152630
 6.351352179721030, 10.200025768811619, 69.516769590263507,  3.976431277540735
 6.202067411374005,  5.071319451436552, 23.615502619528257,  3.964245621289400
 4.970348622656569,  1.760154437523360, 64.119289351591149,  4.179465091015794
 2.112851415651323, 10.529448216878903,  1.558660130128126,  3.806714970870468
 1.711954342736578,  8.345941141851560, 37.137437770195177,  3.646720675732234
 6.763029802500603, 11.805410683788807, 53.157859543211067,  3.884994764767418
 6.421674227896242,  8.528277231661727, 45.567562443815568,  3.983932921983768
 4.396147103193455,  1.410039989915344, 21.387461428844482,  4.090234581326262
 4.193937110378731,  4.789970586552288,  1.405365894469524,  3.796535702849639
 3.674626684890086,  5.466107092515127, 34.071016677251912,  3.968576712907985
 7.110730937815635,  0.622928292905736, 47.443118498245674,  4.147339414547762
 3.477947683397339,  6.126111569822840, 52.230079891984325,  3.792787542063592
 2.596482501527690,  4.389457546442861, 14.874898445670439,  4.226132444982349
11.316487431553574,  3.655152609399920, 41.161315229815557,  4.262647653564292
10.116095768786817,  7.674246960622463,  0.150021846941218,  3.875779397411212
 9.134424166157423,  7.474152069682333, 66.456964439848534,  3.673764769271687
10.696221400611034,  5.680769489735038, 14.356425961669718,  3.803613634656851
 1.312432124439911,  2.459602381017799, 30.756735953921609,  3.885412055311179
11.778420637215374,  3.997554072072367, 33.989415349774504,  3.809445281864796
11.300575378196932,  8.738655169791061, 58.896608537122241,  3.819521273750702
 7.558084749201784,  1.524853477925147, 40.330306975558720,  4.346097933833215
 6.434168774632024,  0.338886096584695, 59.809538109342100,  4.060835988981972
 0.707022161450376,  4.136795035293425, 11.415903768833303,  3.656597495871855
 7.501662304104843,  6.624615072285636, 50.353377471066558,  3.917087285303825
 7.910708782717293,  5.687562968065868, 39.921641873336718,  4.047399191732756
11.256417159584357,  4.835183206489327, 20.902231731079095,  3.919685674415318
 5.220097741181263,  0.868005959525509,  1.238666380064695,  3.860120331222752
 4.202436604510932,  5.742376400448824, 63.498219658471903,  4.025713928214888
 7.918789740988693, 10.828519050324536, 73.222385476600664,  4.168126024229298
 1.369232162417658,  4.045191237885520, 49.844008970724126,  3.797344449631638
 2.710989298783829,  9.848540672387960, 21.095111228338215,  3.587481787532052
 4.619392713332620,  8.580085800289137, 24.127386847829637,  3.799139582408365
10.676813039388348,  4.746642437632677, 60.045572450574610,  3.881617370860225
 3.965809276857003,  0.490092779120211, 14.454955736181732,  4.069233928486500
 6.338730074381478, 11.373534304008848, 11.173449529307684,  4.208332269773726
 5.172308098827594,  1.768765548234765, 25.129752601850537,  3.587132101854109
 4.973873204796265, 10.738874367913091, 56.425176110129016,  3.863300970607256
 2.138427269489665,  3.247101576851056, 18.705326407860021,  3.820262024912344
 7.893434284564132,  3.811744514569432, 53.272423735822628,  4.202950272134090
11.488079120962789,  5.195467469201428, 68.478698285141036,  3.913137482702711
 2.074226518262612,  7.437184968040252, 55.689210031756737,  4.069830704557723
 7.305939393124705, 11.199604949255082, 23.190417795955128,  3.932158817410655
 0.230886828540354,  7.843015462377404, 10.568742435684342,  3.992403414964089
 5.796244320884992,  2.064226006479958, 71.891399306833620,  3.832049872742101
 1.484528217899701,  7.531608662332500, 65.877289778656916,  4.022550006504691
 1.760843685762908,  5.231018744332244,  7.816524097506921,  4.151481277390084
 7.015650007791475,  0.352653763560080, 34.564939036981414,  4.345213890117761
10.288733480350949,  3.490873990527477,  4.926103557703548,  3.960271178680845
 4.331559463144110,  7.691716221700623, 10.713616917007842,  4.219382266360514
 5.720606648195805,  2.146028192629029, 17.660534756272028,  3.953413389029481
 9.170047884398283, 10.120717381312083, 61.815470892901409,  3.910348131550472
 9.839710128646072,  7.824223588778404, 47.452576336251937,  3.909878971614026
 2.589070922578100,  6.251102480324203, 59.680362892647693,  4.315711057881065
 5.481750619954756,  3.269829099692509, 37.140595188622449,  4.011877046863019
10.757702613831981,  4.421911542691086, 72.293452465601945,  4.000595887523668
 9.441517494537111,  6.861550635333696, 23.388266498906098,  3.442644725562565
 3.552090698809600,  0.617881669171640, 28.238280240984565,  3.790156934553662
 0.703288242867768,  1.117776902643581, 43.991180706693171,  3.747237617935475
 1.145472832671293, 11.466477464163280, 56.051334150643619,  3.952813470512718
 3.318334891579507, 10.042623708372094, 52.964088511595584,  3.826278925586164
 4.129706909895238,  5.321112225988733, 27.039725810043400,  4.023234157935049
 1.619623754717874,  4.317202732500204, 37.490378818067605,  4.021884683830327
11.730181277573895,  5.192899612566573, 53.208649651980942,  3.934470105489956
 8.057479826933982, 10.546943702792019,  3.988669230629712,  3.827214140921288
 5.204829087371775,  4.682896169469790, 56.541857462523026,  4.430109014060743
 3.896603376566287,  6.687276515981688, 39.969656678906887,  4.211180863594073
11.856517413424358,  1.090734560879810, 13.686493817645017,  4.078593372175217
10.585014852178665,  0.918039457531967,  1.649016973214487,  4.384692703874983
11.441671376583598,  4.337523581685621, 46.354362144919151,  4.060583267323711
 2.846409884140284, 10.405444360955716, 59.705577258054007,  3.972303478318007
 2.306585540707295, 11.192885763753731, 10.990845644060933,  3.860429664028860
 9.694099399683846,  2.504305297149511, 36.910426041703296,  3.942629301842877
 2.092935038993816,  7.298684022968049, 73.446341451442194,  4.121423927530450
 5.296500534500526,  2.800587864526134, 31.046013556363498,  4.126750599719788
 6.840974966226492,  4.463155132759776, 14.487492642294008,  4.211029908377803
11.244959157421292, 10.247097804405346, 67.574818838494252,  3.645201397524462
 6.336606343647175,  3.058730684381525,  4.352758737076676,  4.072123907206746
 2.388655471896675,  0.322563935384149, 49.875570503623592,  3.904208163242172
11.045576574971431,  1.158658896007588, 52.792028604173204,  4.089724704968836
 1.178421015589421,  6.929184997370673, 17.791901510420313,  4.002771221073086
 3.212205757613065,  2.233689157812399, 53.462130370767419,  4.386299699171366
 5.406260328744629,  3.289789097142925, 50.060963984759468,  3.977112697993726
 6.842680429061359,  9.350316172872398, 41.556138284687094,  4.246304921740081
 9.188394097296094, 10.385654849805094, 37.748889198246268,  4.201922569670868
 7.985279793111241,  0.533420156196406, 14.819362669102421,  3.991193763409682
 9.692587052070509,  6.801772670739858,  7.348371365963997,  4.320937186271805
11.207490603393657,  5.686387166549032, 26.536458009144145,  3.972210757761608
 0.095003602066806,  8.085009435614106,  3.997004961185018,  4.187748469741765
 8.163042131671419,  6.417215994769210, 62.805164891487721,  4.007971726365954
 6.252242269421061,  6.780511144612553, 30.374334371870017,  4.148353153065759
 5.334986201162049,  9.742542622331097, 49.693378546691363,  3.776857249967112
11.586231685286853,  1.086476926685523, 27.413517408989524,  3.970453197975771
 8.150622943175936,  6.598046111330998,  3.436451026733645,  4.079527503714999
 3.351524446157737,  4.852510772614477, 70.290809697595975,  4.236029701858926
 9.684512430941577,  8.148074095966495, 70.388819395333570,  3.948211173149196
 3.935852866603355,  9.466254805426363, 34.257696078299887,  3.959033713954812
 5.624878253288847,  4.577743869343314, 43.136835314897809,  4.131977654814103
 3.296588525018530,  2.584015176705774, 46.629088085482238,  4.202177107010301
 6.201534725430383,  7.190692540160406, 36.614357156495338,  3.981389395723116
 9.114519249100569, 10.451621979557039, 50.310826221149235,  3.964661038979827
