BANDS
8 8
NANOPARTICLES
cell(1), 18.721
cell(2), 18.721
cell(3), 117.008
 3.520159892319024, 13.747575306221936, 15.453672811036645,  5.121133187462533
14.357626097123816,  5.207318617700678, 111.352788793186050,  5.364904317209771
 5.374367122952636, 16.001833460484207, 100.344703682799860,  4.967522426015543
11.215353383893053,  4.373214946170761, 50.214142746462755,  4.824805023235601
 0.745405516089723,  2.136176452384118, 56.205333525189950,  5.139764434546341
 4.664282146625442,  0.571977663799563, 48.050729334737959,  4.884434590709582
 1.739751644522743,  2.359569536291090,  6.317848613967067,  5.105757644974932
13.705545846974740,  0.099719227732468, 51.481086020353516,  5.380095342075340
15.700754670356629, 17.400602065198704, 23.194006427302117,  4.858009383962951
10.744719933522406, 12.107808290481128, 107.923385304144972,  4.933187427624690
15.095497241910966,  8.163986194903456, 103.446731532609149,  5.358282261312856
11.342740065817072, 15.975921077806994, 94.054600427190067,  5.230647650724098
 8.130026000403795,  6.758353886877049, 33.679777880005311,  4.824124946286287
13.230572800612736,  5.533406833470847, 37.403367135812438,  5.053812515844473
 8.643073356697988,  4.210772908214860, 89.785948224100295,  4.877294634560374
16.189528851782203, 12.521942715240794, 75.425657685224337,  5.053200913091285
11.246779453996801, 13.759456246612142,  0.865071203453522,  5.115273505774158
 8.201767715020715,  4.890180686266635, 38.431388628499263,  4.530301882615228
 3.765367285306464,  2.161445934211400, 64.530313464236073,  4.781785479212439
11.955967265749393, 18.089011033528461, 80.967138240761244,  5.171154648707097
 5.980964458109811, 15.189678407677793, 34.231065857835581,  4.851699985040623
10.438916730442802,  2.224618885339065, 111.051047976605815,  4.501465298707872
18.603758668964819, 11.907187823451654, 95.806192320909901,  5.153967106057540
 3.809589946539147, 13.916899052774104, 113.132000974477791,  5.032334334047744
 5.772748178959415,  3.515315280085253, 54.629098235494396,  4.917051566565149
 3.155418795991623, 10.498298351008527, 23.149706154275147,  4.664295205051043
17.591497196014767,  7.671925612266270, 12.936748353948573,  5.215241169162714
 0.392219639592172, 14.914239741023854, 78.584314488780066,  4.788689102749121
16.610767685386911, 12.457463716427236, 14.299611715265844,  4.923849689268592
13.575308643200481,  7.327262011948149,  2.994268836024352,  4.909022237844188
 3.335866027189053,  6.390400081683817, 67.028968035930546,  5.070026239238035
 1.166379788322640, 10.161834234684944, 104.316820927500117,  5.170288782232507
 0.673882892733743,  6.517920552012567, 88.424182835640551,  4.794248937477700
10.198653473573392, 15.994711839944113, 76.437047574170677,  5.130043078380061
 5.476473013868758,  8.467914390617267, 113.726178379030046,  4.280322318747801
10.603607109321905,  6.570913942873075, 85.815253383340377,  5.130934828856611
11.287285192587671,  2.630927651232046, 41.832200336190262,  5.073524059417687
12.681586359319418,  1.903189615864681, 85.388716810180625,  5.112343821425259
 4.220813586413157, 15.502977660868074, 86.843524727466146,  5.277956551591808
 1.243222174065891,  6.945692958789744, 111.993241305782703,  4.723524885800211
 3.970530118519233, 10.078587893764364, 52.059454737516113,  5.052053134421524
 9.662438319709707,  6.699713284100473, 112.455642917631877,  4.730595698195987
 0.392084648041361,  0.554548377503709,  2.133235467854582,  4.330152244100753
12.514885190473343,  0.287262963802237, 114.714821631601623,  4.759343257650382
16.204796017912830, 10.651911021158556,  8.970156745285916,  5.086916284094197
17.372262508955711,  4.434625728951009, 60.177741485951699,  4.935771453894768
18.065141264747432,  9.381076889859855, 41.520353427920270,  5.018621891404562
 2.149789928528169,  9.385734168316443,  0.095608983614468,  5.368962448665532
 5.990727792598952,  0.124460735418201, 37.495566679677488,  4.947411590606037
11.879798807925239, 13.301753720815366, 23.760444716091914,  5.227161831803300
 5.990494117862315,  8.053837018733031, 81.156506563953215,  4.986559361995121
12.422736983764979, 17.563956655076076, 19.374214415228430,  5.189175233881794
14.483060112950959,  3.889765887964500, 17.824176535407034,  5.229849165816860
15.705083573012637, 18.527781287435843, 58.291143490768370,  4.601683113318566
 3.099967109382902,  5.029715904195769, 49.819121862635583,  5.113793236798474
 6.787737615351144, 11.299428187725566, 84.705260885009096,  4.753032309339745
10.965641304720734, 18.494761842372775, 46.818730323249035,  5.344808873878470
 8.981516082245012, 11.161097915795386, 42.446482932726909,  5.574260241073851
12.436187180084298, 12.937259540654210, 72.369955419141547,  4.647601490036359
14.668021253932531, 13.019510218591440, 19.511377074546314,  4.947897507907125
16.434560319598621,  7.134646063669995, 95.066897092715109,  5.420729667988936
16.784359667726001,  2.461227743597203, 115.350318007590062,  4.893576725063371
14.441150840335066, 10.287122068586195, 26.991847671219016,  4.968019106779097
 2.411820554484258, 12.229773130972495, 73.809852079524020,  5.364465503068040
 1.247346766996512, 14.884166480847332, 37.640453804531823,  5.281623750260113
 2.592882069741850, 17.122917469592601, 91.822413159304276,  5.088272322864341
 3.957168855072432,  3.426664886153133, 80.989474810504248,  5.115492919338869
 3.128412884468087,  6.566303917931834, 61.768583638504531,  5.464350302797695
11.176431546702128, 11.460307536343050, 103.059876571601265,  4.907615822649230
18.368097599506200,  0.657133865860195, 40.450082491843531,  4.906825033798657
 2.866252560053622,  7.387306167427361, 31.387937072763958,  5.646799105963716
 8.235138849941217,  6.386307029694108, 68.539429726376397,  5.178658801815399
 1.040118579130789, 11.187200017585178, 27.646099810961694,  5.355356320026724
 5.335868279542808, 12.023144013876331, 30.423843214880595,  5.010458828775835
16.537646100528647, 16.088262015216177, 93.466553439641032,  5.222523500503363
 0.314703394350804,  9.768315917032378, 36.504564694601648,  5.203413123228852
17.258106435511632, 11.665730394388969, 23.329951768439319,  4.669140905808740
 4.044571476148690,  2.254318101082569, 94.795743583494243,  5.052508975143946
 1.158491774373700, 14.497211811134855,  1.423214794029240,  5.372784568574015
 2.443097217863857, 11.326109363419228, 109.081878817428930,  4.958209374576776
12.782456303312722, 11.716954007645484, 61.257785942776280,  4.969410784763038
 9.503979454746123,  4.434634945466046, 98.563510981142130,  4.874977875123247
 6.494059874514896,  8.163375557350083, 55.849199382714154,  4.796035952652980
16.358517954935266,  2.520923599574530, 75.146148960813036,  5.039796631773740
13.060696872505574,  8.769305027038991, 69.596327543652308,  5.425294020020577
 0.931702162252459,  2.642889537207096, 45.218952675892652,  5.172232012575503
10.160585829071604, 13.222708876439274, 98.513671097794926,  5.038693460405271
 7.629045950637107, 18.386544266127316, 72.915848184512811,  4.744420655799900
 3.924627964599526, 16.061737141436463, 70.524513898679800,  5.171999810633658
 8.101985290521906,  2.836659815234533, 115.441839863689950,  5.519623412773212
 6.444419466175379,  1.964220759464665, 76.944311975197863,  4.798878857714431
17.911514590628922,  6.722742680506903, 47.510577772603753,  4.568784765759521
 8.285971574986512, 15.267295617167340, 104.277106452511745,  4.928012158337980
 4.337067711705711, 13.246602896517297, 80.958700767684149,  5.004456783321126
 0.623907784734338, 10.911298772375330, 18.809163964461778,  5.402479280159559
 2.186126492637280, 18.710628708842325, 34.121545012739730,  5.217879480694204
 9.821003138811971,  9.309493719460461, 37.551953055926575,  5.023754895009040
16.137174553038712,  1.071452369925943, 35.928765927064525,  5.209853810645130
 6.973674401997562, 17.822973433147556, 80.812561908098189,  4.803473002473098
 9.062279933952988,  3.603601135530317, 81.852555037445143,  5.238167260683752
 6.799135091190653,  8.968492139264566, 109.457257763291665,  4.713607652242469
10.312483982767391, 10.976762341831769, 57.010072097398336,  4.966624190411227
14.710820278727171,  5.079262239489046, 88.773551639525891,  5.012308392749676
 5.903729123518329, 13.688779709504033, 25.541973556831142,  5.019898548862687
 2.172845145135838,  8.636302043006522,  8.475887412576681,  5.160752232544322
 1.272075860889189,  2.112041667533775, 111.654785170783114,  4.876998383222564
 3.244756412212472, 11.222643219761300, 59.390582063142830,  4.994146997293362
 9.502754815340580, 13.421873945111367, 80.951483251487616,  5.332306322230920
 1.136138473377881, 18.448342019698046, 101.898305600505253,  5.237200887177965
 4.070166322262029, 18.306041907990526, 116.427452832544887,  5.013612836880188
 1.456276761969208, 17.049919247014202, 96.946436889929259,  5.028178407101992
11.536200795134562,  5.675896195165397, 45.647206405726038,  4.693990638129965
 3.544079099102739,  4.108484081233089, 21.970080920259772,  4.858367351209630
11.535759144401736, 11.114248772319266, 76.751255784673063,  5.009816589314698
 5.356653223017187, 10.959037399671548, 64.156215801979542,  5.291136331274886
 9.012022405030031,  9.027729305280687, 72.922685943071571,  5.061682723057515
 8.093750419292062,  0.150899693706482, 107.578541531340363,  4.845897695194864
18.704685169408169,  3.173485623764895, 97.829847464967841,  5.246610040868683
 3.560722540003610, 17.928008691273781, 52.877213136907514,  5.363910312641754
12.613124552810048, 14.649214431768311, 43.461623058885706,  4.631320293352881
18.495229557537623, 18.644744444056741, 49.392638410130765,  5.022310197573297
 1.045851018049298, 13.513623397408054, 100.486574923463621,  5.009978641592211
13.399091462534045, 11.856762585590895,  4.991970093414280,  4.938162370646712
 2.954956858821876,  7.419162680014656, 44.520152358975828,  5.147096512085110
11.967318590695220,  7.883174560261001,  7.871084061073277,  5.266362976049837
 8.032511705554370,  9.101135949265878, 24.012456287328490,  5.521007548056613
 7.641668164013678, 13.631759430117576, 60.345154822912278,  5.074469238787240
 3.382252309732431,  1.521334082289037, 16.457181596716602,  4.741500221428843
 9.039962737718461,  1.844927521542328, 94.124410084434913,  5.035177939931912
18.486500208335350,  3.081408758839375, 30.594439851718896,  5.057918720088334
 5.315502475240014,  2.169913298751002, 69.270170054026224,  5.181729240889016
16.224161796010726, 14.858698557100960, 27.310712740761851,  4.860413705982550
13.785464163093202,  2.439112531401090,  2.989130413502162,  4.875505829110937
12.121387213559666,  5.465654382713551, 92.920218917949910,  4.772987944632664
 3.970120150832152,  4.580147148593189, 35.945764549719065,  5.283537724220793
 6.506515216639947,  7.025496648728088,  0.826727983888436,  4.642247162421403
 5.007814182884341,  5.566471076569805, 102.794610145360124,  5.373597257702047
12.485334716048449,  4.755382377479600, 66.454680241238322,  4.826934438066515
17.235088783893662,  4.158268701497646, 51.735261827799874,  4.973172051363110
 8.431192809936720, 14.154679248729169,  4.913510210704240,  4.772681486180753
 7.454605707708797, 16.337858614386526, 17.060283487925702,  4.826884466934338
 7.572965638784971,  6.128260258205201, 42.952212717969068,  4.919224774804984
13.041994162233738,  2.179059482847285,  7.857526200273339,  4.986779843146968
15.053627546771065,  8.789865844818120, 17.083930774880923,  4.743462179075201
14.135354542787558,  9.890940768514797, 35.044342815040828,  5.012808469774048
15.118322609022636,  7.634880971766528, 63.346766616885624,  5.119682938602217
 1.505279786288197,  5.873148841782087, 17.806346763564537,  5.016841277482561
 3.830785042438819,  3.378637183477126, 41.011990423519386,  5.121559954609347
11.695760375747858,  8.474600672766456, 96.738596659424871,  4.970918894402040
18.428779850045203, 11.335196365842419, 46.171228683248451,  5.078924015763009
 6.973146371108933, 15.255636547121476, 45.403054381986436,  5.295670377910824
18.097977313660021, 13.548553356695047, 61.811398045811174,  5.211496098256679
10.534787770954431,  5.181255098587506, 21.130610124991758,  5.382503799209953
15.553829611958845,  4.137860421561147, 70.363652502093373,  5.176901570520362
10.160840498351202, 16.045550824330736, 69.500338250218036,  4.957300161085256
18.505828604173367,  5.285365334390613, 38.775256284265851,  4.870321222131495
 7.743283536133124, 18.409404329431506, 61.934527657978435,  4.959433216728433
18.071421268908615,  8.213160648283486, 69.216314882991142,  4.624808322873545
 9.680285711243656,  2.178010558091814, 28.750255453864689,  4.897196079069942
 4.070786137157476,  1.980614579266374, 59.815119182031644,  4.675060896789736
10.545197466035896,  5.855074930921470, 54.767043526765370,  4.759199340193189
11.707174958612214, 11.645607608240127, 85.420032791356761,  5.213064814691439
 5.519512628116268, 18.404216174235518, 111.692770372764940,  4.882185097462666
14.854756402833614, 15.866004553121325, 84.784167371670350,  5.391366494642018
 7.521564450073141, 13.669391635001027, 72.996695436447865,  4.678862627572487
15.941363307798317,  9.659016329283981, 87.238431560719889,  4.822246699897572
 5.163944683986402, 10.370811370787020, 35.122384627162830,  4.950322143629070
 7.510413795550998,  7.051282282359105, 28.822084697420348,  4.974258914589930
 3.538551956333338,  1.579729674312760, 106.131781514344866,  5.087539322057932
13.837608803881803, 12.928278016414653, 31.128348964366396,  4.900096023822208
 5.338244114244522,  6.233343554410510, 85.987167165406234,  5.410960554998987
17.909000992256729,  8.993992017071523, 51.609500186525779,  4.794642364863773
14.757599684516570,  3.840081846305256, 55.984051972164416,  4.881661888299493
15.327742316219657,  6.064201875877227, 83.831275363251535,  5.133737529969305
17.200940412338952,  1.681920839523556, 10.203110582549098,  4.560273189717496
10.877617239909759,  2.135701231730446, 70.230047305263398,  4.826576172263269
 2.703622873867820,  6.778359864957473, 92.939782979032756,  5.066853964651134
 3.794231070043326,  2.908875127376437, 89.761868393156007,  5.109939038034160
13.180294299663741,  6.417026239403620, 74.321437118647140,  5.109881588175275
 7.765283101225657,  6.548985302085917, 94.589532504087927,  4.754163785988990
 7.649634844110446, 10.824153002953267, 15.598199727714993,  4.903491204981578
 9.548713434038097, 16.446231628513356, 85.333741668856547,  5.311918791117166
 8.424121173108771,  0.424100671177206, 51.356538452493808,  5.111053192242640
 6.940249977668547, 17.890031556302667, 56.944756521758364,  5.198620666497082
 1.130638591238101, 13.949015903482152, 50.550446234192194,  5.004732346634929
 7.437473265092818, 14.590587125691661, 12.649960596163499,  4.650021684693642
14.708915046867086, 11.397277529784427, 99.236393011753236,  4.785032338903335
 3.648797816832795, 16.800534010004906,  8.494799045985479,  5.226171767567589
 8.124304206798248,  0.523258643028154,  7.138118871378298,  5.306341283669065
 7.528565580056388, 18.060847859758073, 89.950931098157668,  5.122408970350087
 6.797499696839465, 16.823963787643184, 29.492070185516699,  5.196065703851133
 0.086791672474567, 12.267125314888979, 83.853372898257192,  5.461304136220907
 7.927694830716368,  4.986983726891303, 107.019001679222910,  4.871888488988044
14.686706216570057, 13.459542668240047, 56.956649167410447,  5.060566332358870
16.729773380879752,  9.121798126996639, 31.048067688326309,  4.627208603571582
16.489511923349109, 18.133874651100726,  5.713899160420231,  4.826732077312334
 5.933608860582145, 12.145096970957903,  8.696151832835925,  5.121878700669668
 7.345065145041068,  6.701991015052505, 51.487589948606633,  4.555639077856423
 7.989218011346873,  4.456192639969541, 63.878973277039933,  4.896740784053373
 0.030303662191995, 18.704964796294831, 62.089667517858970,  5.130642075256549
 1.594582665293941, 17.208596917590345, 29.134357648322624,  5.253863755666440
 6.176814959830764,  5.480074573360353,  7.722492016737244,  4.904538559148223
15.495102350177817, 16.211213303245746, 98.550763656063822,  4.991113689947456
 8.005044524355725,  8.924940628449512, 100.129295050628727,  5.088275525747986
 2.502166742824443,  3.042663335722821, 73.319135503738437,  4.810858863531168
17.000686718022521, 17.585934577262034, 105.877568204348179,  4.655667654586108
10.684902971982771, 16.172691440976724, 110.813273642310605,  5.028715901214671
13.906433038409045,  8.577363384866414, 22.536543217346178,  4.582430300697105
 8.340154679293269, 16.487145435639789, 115.041556533529032,  4.661439558499633
 3.929174759437839,  6.105524115043324, 76.785898863437566,  4.842633278903925
11.371393927910130,  9.258774753994880, 89.994615443292417,  4.922753750064564
12.211271601688450, 15.820709557904728, 101.836330573590260,  4.330390815158454
14.205950049278597, 16.628064303937297, 63.227348607382481,  5.108725684691328
 1.456482460330992, 12.958009098696802, 10.955585076948189,  4.897140628642649
11.038870029423743,  1.989439969425764, 75.266615641652066,  4.726503946416915
18.145099197942244, 15.958918872445903, 17.476587277538080,  5.015944618842558
18.437985314342740,  4.979804662245345, 78.900682403109869,  4.824380281153141
15.382841300904433,  8.573096081457976, 78.036838504604262,  4.535928609974579
11.120168442669270, 13.375740609314299, 47.912326796349070,  5.082578795058743
10.210350376453365,  1.691908856894920, 15.448725037858402,  5.469880896845844
 6.558532597245013,  8.556445870462689, 90.390158628512708,  4.836150807762718
 4.796876130283972, 16.739995638668681,  3.807647592111131,  4.414727864447069
 1.377147140036128,  7.333720014550348, 82.841383026811940,  4.935817808119947
14.293613498410311,  5.179229824584580, 99.349631818172298,  4.904763220431332
 5.984912371464604, 13.040705843677994, 55.612636223698892,  5.021264880375377
15.183516804071575,  0.006719188120700, 110.450666176658146,  5.315905690908186
 7.336595393437259,  4.056096878435397, 24.951333516438069,  4.778899068365853
 7.964095905642286,  8.320360863476928, 60.551296777373146,  5.053205576079541
11.737592907370766, 14.034745212981472, 15.302353693589209,  5.505889265658190
11.106089205264382, 17.475691813209206, 11.087375005884638,  5.192883339172233
 3.664477528311086,  9.234957013557416, 13.240361073704253,  4.885074571168073
 0.091906354058014, 13.960364534411662,  6.373689108416418,  4.807716916222778
10.461061189798620, 10.472948100794470, 19.621246637690604,  4.867069642694563
15.428033667957562, 14.621075327977344, 35.408157419235103,  4.817239718991510
 6.161092349922145, 12.824804514220379,  0.557140700166727,  5.237517543482835
 3.288884727753181,  6.681911301278295,  4.137310575158528,  4.610600021309473
14.832226415919809, 13.060518037120957, 51.612228199551318,  5.403855818862468
18.215861463796983, 14.197089967971548, 88.844994923125995,  5.305693637753322
15.064715542635712,  2.968623485945907, 47.467527345137576,  4.852750613569567
 0.725811980670260, 13.274852212176427, 32.566408708798342,  5.329332365895223
10.810102055302711,  1.176498044515985, 37.066312375536739,  4.936064741641318
 4.573621568311870,  2.743821402314773, 28.973733492700621,  5.110485706047418
 1.426449774631293,  3.032557279022927, 85.228070779427199,  4.781952647405763
13.268224523338406, 10.224947027471593, 112.087552552659048,  4.998584093246143
13.587618090432130, 17.625561816740895, 72.636346987120817,  4.840685267188162
14.826050901940778,  1.023060402380507, 102.083013544354174,  5.086024961967247
11.045152330374965,  1.013898515584834, 24.125909089459949,  4.930568187503489
 3.841787668202662, 15.596061033248882, 62.840689335329046,  4.812321928485408
18.259302074811838,  7.178675015282294, 74.352027913382202,  5.139581260439397
12.511724820689672,  2.656112300841111, 106.545353630041504,  5.435824210941321
17.478526990979006, 16.637544174280574, 54.267177200265962,  4.957903003953387
10.638806550551957, 14.102009097390891, 37.185797149942225,  4.621484075085741
17.054742090897101,  6.074480461592757, 26.818016129490303,  4.945696112642674
17.036368345216381,  0.532518276946763, 88.169280141364410,  5.133562269471240
 3.341466898864736, 14.756796190226684, 104.781646076250240,  5.039066803220062
 0.512936620114679,  0.910563477365930, 69.534536659886214,  4.735232466712652
 3.880463162472861, 17.054767978971661, 41.661892473104544,  5.050894924068453
 9.094031536288176, 16.833293317240397, 40.893398453769187,  5.091644861876972
13.812813583358318,  4.311186736743686, 12.807824647435995,  4.879366605427989
18.473763944997557, 16.817597349675189, 73.574507112294043,  5.228575660900645
12.004758498454146,  8.091891681274408, 30.851313696987226,  5.051803284288105
17.904001472365685,  5.015131922269467,  2.391273388499388,  4.913152944763388
 0.540816953284210,  1.831406104694371, 25.362258048767181,  5.011430128400052
14.937478733262228, 18.690204249453711, 43.745316812138142,  4.699501251881725
18.079586542575118,  3.018545385047330, 14.533562628779009,  4.666566894757699
13.091545303332060, 14.450960083505784, 89.477657523115539,  5.026964631712258
17.793186000648735,  3.738870558711124, 65.616202620414072,  5.347624574839357
 2.621878799223097,  4.176361337732047, 11.042140744134924,  5.162687620964262
16.647918318508424,  1.344642613779253, 82.079416955415240,  5.219866724699306
11.681970377732364,  8.606730750759381, 81.197534280488966,  5.189434783468319
10.717690574489207,  0.352593835306201, 65.729881839202619,  4.771061063442350
18.237310660242070,  2.826868105868118, 92.582828981193259,  5.087660543150294
 1.629073827211183,  0.723405891011238, 77.508021795844058,  4.820556051654722
 5.050335407868988, 15.898090613784095, 76.638035902019013,  5.157636651090741
12.832966300975624,  2.731577024142080, 61.822607234355054,  5.300412281804164
 8.236126164637300, 13.063366986217968, 89.073550349020067,  5.102789487736782
12.568758694678870,  7.035894747799911, 59.033491070405994,  4.970875203854341
 9.501801101634239, 11.751886779585405, 33.168449451791403,  4.950823389218161
 2.136219634782110, 16.084433178601266, 58.091420973066640,  5.307164376062508
 3.603825109209810, 16.968249196421450, 20.078510741722319,  5.028446546910537
15.864331109306896, 13.573921902828793, 108.993785418837760,  5.481820723312091
 3.256839398636139,  6.713023377629161, 26.131869844096691,  4.970976807004040
 5.494038633304680,  4.575609052372925, 111.262717430208227,  4.925057058891544
18.514799938952667,  7.193768583818366, 22.253490556399523,  4.863613831070765
 6.349361060291258, 10.577120678637394, 104.750635363438221,  5.256216945257812
17.112052518048348,  9.340793748508162, 58.890463553299547,  5.220437636120407
 3.308748542609367, 12.184320564499348, 42.711670713374993,  4.977249364834416
 1.968135100459186, 15.761016245075007, 46.042962990268727,  4.845487936104024
 6.295664840645637, 16.390121024045577, 95.342676047666487,  5.217205352112011
17.503805869307548, 14.669645903767075, 42.293495737283806,  5.213689518237570
14.228862362397301,  8.988977948576572, 54.756542220130299,  4.881765154470337
 5.843254278283354, 12.562307798449805, 19.797718910296837,  4.864557732134483
12.195968659789742, 16.419642571074817,  6.459272957151249,  4.533250431972215
14.072088169556826,  1.576647181174048, 95.631215890348940,  5.448188509078745
 4.136557538711715,  7.586310858136287, 71.967294657969205,  5.204998236398527
 8.730738002174391,  9.031804844130741, 47.592017805529380,  4.849182927764342
12.433967633401393,  0.842519251469502, 90.450823164603875,  5.149263060228746
 5.880822436648459,  1.225602676848340, 85.053639076966661,  4.834471084627272
 8.198943407444121, 16.321261343627732, 21.939539237283682,  4.960227872893795
 1.645600599858245,  7.141554031435503, 55.505409149180686,  5.126976240110674
 7.709849296457370,  4.355167275906214, 72.976666288148948,  4.636119604664193
13.960706858851911, 10.131295790798511, 44.220606162786829,  4.917288987474354
18.594697652397926,  1.616801535528517, 19.845178059126322,  4.969687333396211
17.800265921569913,  9.569079055772235,  4.320677112726367,  4.979058495017290
 4.800038804898964,  1.898995935066348, 99.505365343115187,  4.481709495976328
11.967201123880489,  5.900310611581485, 26.190671072747364,  5.229237697449226
12.516580312900311, 16.322073916638526, 106.309211082282687,  4.682782102467620
10.087529982729084, 18.249365600162157, 98.463869221908524,  5.001797182431291
12.599598272947448,  3.324003934973188, 32.768866925850325,  5.288111645210467
 9.744032714598013, 18.377822889742681,  2.293942452000730,  5.008375673531409
15.011559841424356, 16.970746647285324, 77.194256738789164,  4.789696538415121
17.087753938514819,  8.467676538917456, 108.284992459702110,  5.113804294392029
10.571673742982460,  5.872385038707672, 103.064996670976555,  4.799358636670961
15.261800156832431, 16.834785064687217,  1.109618783415075,  4.997739538441931
 7.356390243922632,  4.478454492093762, 47.447080051749722,  4.662742150394822
11.388443595950259, 16.682155995594727, 59.081280839451345,  4.913617619772541
 9.471349417867886,  3.700738162952505, 10.799230211527233,  4.753563380475055
11.568886123191190, 16.426748587597022, 27.774206642749444,  4.963037947811022
16.955794313779954,  5.821263828156339, 34.301669941464162,  4.652216093607320
14.837765952001586, 18.176337627930238, 14.463194259987377,  4.968277425126256
15.173108310049725,  3.592058321833289, 22.909893135535267,  5.029214903640029
 8.569092014633014, 11.993356152609831, 113.004143202543275,  5.207647487450942
 6.007483441268917, 13.518907509043659, 38.805725608189761,  4.871429660220531
 0.425988276804222, 15.506025224112941, 66.618205137105790,  5.360953703720638
18.683860814488675,  4.595234695343706, 102.693036770162394,  4.871838437925143
18.673353737659284,  8.510941934656110, 99.628635473025327,  5.051801271602030
 8.961351184750351,  6.321960749963520, 77.348251234257205,  5.272132973559770
 1.286728185084203, 10.011134905255224, 78.449762432492335,  5.153508273730329
 3.017071574016396,  6.616780393738147, 107.472616894975872,  5.005477695793149
15.818001620844868, 13.364612395905164, 103.680142455408244,  5.143490316155461
15.780937859954465, 17.467114875295202, 31.426405938896767,  4.913399012840084
18.426087879930044, 16.713233716990104, 113.948515664581564,  5.028844780362583
 4.463249765226425, 11.189828868380966, 47.324407181932358,  4.711521156083738
15.671922787644037,  5.081261031474188, 42.937893710724211,  5.207701725174145
14.748610029371635, 12.853688232503345, 80.380226551377277,  5.281827801654621
12.715048122520887,  4.823507075624475, 116.040167410178242,  4.595282293520532
17.191782606581775, 12.760019177827861, 70.522660069690659,  4.952780863026885
 5.121001114488948, 18.551582204177397, 25.025866949527529,  4.753353238728398
14.053488689241206, 14.610328551704688, 113.959110201334070,  4.665782549495241
 2.943901366640614, 11.403130845845928, 68.703255750132314,  5.021527114614914
 8.616837100704560, 11.442533447595563, 93.960842009532513,  5.212681105159047
 3.097987849859437, 10.606594741498490, 87.684215905353014,  4.825125335005293
10.052509517902221, 14.173328794847025, 64.746520365179833,  5.007342112166347
 2.643493329192573,  4.363019248195741, 115.909777819851996,  4.999750062769212
16.721187050732517,  5.719099538131633,  7.483375566722808,  5.208105787665320
 6.538188294486319, 17.016005767854917, 66.471468134291811,  4.660045681614613
12.863419627402193,  9.637206999163000, 12.628436429884111,  5.027122388005335
 8.149381472400673,  8.387577942409591, 11.297888403828988,  5.028659438640609
 0.561558440854472,  9.760080115306319, 64.810158493862772,  4.675295303291366
15.921648031264619, 15.669049592316593, 10.148686270365767,  5.232252203718829
 6.016326989964870,  0.546051074017778, 12.392820760565639,  5.130009945144775
10.637008972183020, 15.299509404228349, 54.171131215152272,  5.395614424828421
14.154909917107631, 11.918159767575933, 39.611169664025581,  4.972717043352339
14.019922541689715, 11.589671117416406, 93.543210851027496,  5.084576099309745
 6.151035540478347,  5.134068311338727, 14.620980937118606,  5.070117337467743
 9.816577287484533, 11.765025944757248, 28.191814156998284,  5.012626597262861
13.656136775428619,  8.588771679952359, 49.026629186675002,  5.184681572119605
 1.171507098074167, 17.514016591326719, 12.947752067548377,  5.053324712496537
15.620880110905702, 15.336390748194400, 47.081584470183074,  4.857865428269862
13.458145429286828,  4.191404367405969, 79.054426400851170,  5.248434883468332
 1.626415731766561, 16.425595975835144, 109.254865929171373,  5.104917225110121
 7.113492378638178,  1.318162717075331, 44.005068400349302,  4.672140873531129
 7.056411911583822,  1.756147459096888, 19.555653426928494,  4.872690476345894
 2.378237703269953, 17.588098802613100, 82.515724427663358,  5.006407221666906
 8.720982701651041,  3.629544083579713, 58.786606492118857,  5.078105651623409
16.603261460359064,  7.317961293007211, 115.354829972956253,  4.736390175015950
10.594380105727938,  9.019953499488166, 116.537185183909784,  4.816173484567527
14.632983364448895,  1.669683151855861, 27.548780342343868,  5.062804630047352
 3.558266741821597, 11.340274012811953,  4.495683632294589,  4.659490377747948
11.748109385553946,  7.240746563449244, 41.454970719396307,  4.221869606143504
 4.067384646325829,  6.321381128324903, 97.757123843452916,  4.979868804527307
14.923141393441512, 18.160724841061878, 67.946912536024385,  4.910565707843036
13.887510004807812, 16.867500232933988, 39.435323636728214,  4.891771204093000
18.224667402204979, 11.334519657741790, 113.085154364543811,  4.965784834651951
10.919451097583959,  1.329882120802848, 55.289054502822218,  4.364187827520523
10.870175365383359, 16.770351224548648, 32.921209730547361,  5.444228845417994
 9.834791213109769,  4.693991289353617,  4.613669770284192,  4.784955795636038
 0.585700495171993, 12.098887555112748, 55.182995726337744,  4.995772292198337
 6.441341672802114, 10.893534997813198, 76.952707675722905,  5.195202531050894
 3.729125025053504, 12.161082490410651, 92.383268562230469,  5.153779033025241
 8.036026914872865, 11.548122363382245, 68.594655483209337,  5.141059502768220
10.629879563643446,  6.877856943450102, 16.199051183787414,  5.042394500454782
12.214604819584290,  7.579275155792913, 107.509597263992077,  4.611630205121149
15.749634234187985, 11.639662887451291,  0.330250201588400,  4.891109707123649
10.088922805638166, 10.564976659482435, 52.056575421099737,  4.969037586461011
 6.164525744672726,  7.538344625095930, 19.196976905374378,  5.258083804699229
 4.391710144774312,  8.295299558458360, 39.659807202827416,  5.127157687518099
 7.933857331922878,  9.237646089258163,  4.924287901551343,  5.082663297299288
 5.652397625480239,  2.609911857108619,  3.101167051170092,  5.028589164514139
18.175447041308029,  9.955729017250524, 91.348279538100059,  4.542597273696130
 7.398307194544878,  1.945224072644774, 33.111234998651859,  4.944369386218870
14.979966745708037, 12.200091481964661, 65.903295178178055,  5.347505829327633
10.938775692397112, 12.770505355095954,  9.203601291286525,  4.895839700450442
 1.373343474623395, 15.459445619180826, 24.313134816330674,  5.003208225461120
 6.740902696858305, 14.241562468831058, 50.623912074202615,  5.348911676767554
 6.391029675276616, 14.389256283728320, 108.807676447599277,  5.048751882912191
10.487981594014569,  9.111195314563169, 64.858869326246676,  5.021268834119748
 4.778369797588319, 11.858251569070539, 97.430801003852451,  5.160268311114800
 8.295721013900499,  1.478286279507701, 102.776837133545442,  5.114377266367463
17.668826340209016,  3.458692834630536, 107.442070134009029,  5.102999137555173
