BANDS
8 8
NANOPARTICLES
cell(1), 18.765
cell(2), 18.765
cell(3), 117.280
18.252628557005085,  8.945674703568674, 99.567809012347965,  4.921593191505571
 3.217469846893559, 13.216414187837930,  8.636458177394804,  4.937989937646097
14.481563495277202,  0.646230591078250, 79.817674119149871,  5.205589725098072
 9.018710510179437,  3.717568439195100, 13.435564459995264,  5.019191994857483
 9.775981221439704,  7.411821708625144, 44.393908435596977,  5.733419148572190
 7.048864750412087,  9.170346776321384, 103.911867475369661,  4.345836606485221
 9.745095700045674,  2.263583557347495, 25.547518970908243,  4.991866391420763
 8.051983497924160,  5.022718222124782, 91.640276385795147,  5.429119965077328
18.096809940813273,  5.459842257431095, 38.535627410448150,  5.326335424842143
 0.022845026382066,  1.342673770125091, 96.620958788359957,  4.629304464360732
 9.738011308564596, 10.048902876231777, 91.338399315086804,  5.121986824444863
 6.418167900930592, 14.978194202760809, 33.375469957359662,  5.438302391888294
11.599002371774542, 15.666274005895716, 68.497669400579298,  5.052025588770046
11.375629118058894,  2.202671498591511, 43.844785048987781,  4.976730937217031
 5.527939930928865, 13.969652081163190, 83.141595375100550,  4.802835527912542
 3.714342659737443, 10.293660056576725,  0.832530014192632,  5.424580025764793
 0.822462552590466, 13.952771714560368,  4.369593920328407,  4.953363008879200
12.126866769419573,  3.109846708417246,  9.418040567536492,  4.759561324734547
 7.121794954216239, 18.012544230455504, 68.927256372083434,  4.897304000891833
 9.828542708065285, 18.256248034690373, 106.910472350042411,  5.180066940170167
10.144053278197537, 10.741787124582794,  2.882089537402579,  5.573496695959857
 9.313199303014093,  6.453011338785841, 53.370136806829279,  4.854624125650700
18.376260832091301,  6.059897095119035, 110.039504386899182,  5.144483761105457
 4.195762913171640,  9.097587569776561, 100.419918411140486,  4.643049251133691
10.925965187714560,  0.123165903847616, 39.561282047430268,  4.475654376674517
 6.645183492791402,  0.985683668121414, 10.190233272001532,  4.700408468010277
 8.332759466308225, 17.070300404641827, 16.827056431408518,  5.087273270314689
12.345010934141682, 16.883396938859715, 115.817410352812772,  5.119068878563943
16.392863404322355,  2.252979668337588, 92.445505639218709,  5.163714243862136
15.657290435485807,  8.033220478382095, 17.849912838242911,  4.876623322422915
 7.741651713913818, 18.570552357004953, 116.030953424973163,  4.656493216707550
 1.795120082141334,  0.706033727222002, 10.535459517862192,  5.039995704869579
17.748455854253393,  6.914172160097162, 43.567314357504436,  5.161853184064407
18.640381318148695, 13.681599788671980, 99.126742000555936,  4.616190193482674
 7.674929902263099, 15.937238075141355, 56.408984317472260,  5.025181524386949
 2.025966890719594,  8.959644976224890, 28.459055717121462,  4.959801193378246
14.762556289164763,  8.957818824270143, 64.426700735389304,  5.137698839066601
 3.416277053897914,  7.320614557634578, 69.652005934743315,  4.894510681230174
 4.787109781276563, 10.490242122677623, 53.617426751104553,  5.277788656216519
17.111691705271234, 17.794252890460601, 66.233666907826603,  5.009373845646168
 1.172069108523605,  6.286004550133574, 23.221579527938772,  4.921805181021041
16.371963560463588,  2.731610377256001, 75.915815554325235,  4.412531036991384
 0.224786215781731,  7.545491985677758, 104.135425788938420,  4.721497760344577
 0.200689167496052,  4.939721946443515, 89.046045451678808,  4.734060115408196
 5.821841488901336,  0.717297666559616, 45.030898323325246,  5.131200039030790
10.466093071613122, 17.854809085010817, 12.395649848073951,  4.871491722516060
 2.679267688641882, 15.638750532900874, 24.470267992431541,  5.029585963439914
 3.380349068978902, 18.693671712520334, 113.336528333343182,  5.039290469855370
 9.078604843725547,  7.190579990003036, 38.852652433492572,  5.319864187201341
 9.518110716345978, 10.826238653958233, 55.799605567056751,  5.147207495441251
13.949394172289672, 12.860499092144481, 99.455285816923038,  4.915842011176779
 7.482595813813083,  2.882012052687789, 40.910144175272031,  4.744717278170421
 5.957580029160961,  1.097545704389513, 64.579037154450489,  4.819015063302878
14.853560459343782,  6.231090278564258, 113.605891811302513,  4.868753707339232
14.186241227054355,  7.956836653749872, 102.402566708555838,  5.187385975111713
 8.369737768351532, 15.313619843654163, 64.554607350085845,  5.149582150231621
14.579342622869369, 12.375975992649371, 20.350172791081558,  5.026597984779671
15.418114647445019,  0.373499473012035, 12.121859769405217,  5.365268963516390
 0.224889258167842,  6.566238073135041, 80.259490730601556,  5.136512131839384
 9.042261595659761,  2.791764519864825, 36.152093159337333,  4.941891793305564
 2.552288409683330,  4.885358472934194, 18.461978235878032,  5.106546085084575
 7.306335025259687,  3.021057452265077, 31.218769633439482,  4.964466081832882
15.521070542617784,  5.335416570511152, 106.237653148329386,  4.469488945385175
 7.156284980606662,  6.547745974825991,  1.769893462249117,  4.916940593109479
 6.406928932517684,  7.282395170975865, 96.027608377227779,  4.746260261963471
10.239655034873451, 17.421999279051818, 95.503446067627479,  5.061227369592208
18.169352494240535,  5.037803057760662, 68.249159589288737,  4.742155200614355
13.367573816301670, 13.955245351820590, 11.286342737298051,  4.737120283086056
 6.873513478843436,  6.215220097339746, 74.796423091706274,  5.083054985942830
 3.515654449385106,  4.265236122086696, 28.308118204026261,  4.894759869780938
15.618887719443336, 10.159826016400173, 39.293540568474491,  5.276917799196752
17.551140051815405, 13.544361544673231, 53.101433073061308,  5.100132904970700
 2.873211392073449, 18.538824029814016, 75.469141590256896,  4.852045315169627
10.719756108747768,  5.207385551228776, 58.109724455737386,  5.331703525099571
 1.913785660917358, 11.984671352662884, 49.544896616245978,  4.872167422718800
10.481140113456034, 12.502159888336999, 46.320169988202672,  5.233634417019931
 5.691409521558286,  9.559263219601254, 11.134457123852599,  5.205790913545092
17.903622976251345, 15.831976090471246, 78.516511555929313,  5.010097214928369
 7.238248454733075, 12.937637194326076, 69.048467484161193,  5.256590648054144
10.844044252981794, 11.326508558338913,  8.072289957089502,  4.957958541344158
15.007040654646994, 17.593233639719347, 20.484756015804152,  5.439939504627652
15.521836730380995, 16.362583492031796,  2.572677410719717,  5.156084342552937
10.380153779438151, 11.225031799925802, 35.915826977563675,  4.979024073570014
12.529767300610622, 18.333770431363103, 57.069722507135694,  4.735114965572134
 1.281123861053680,  6.598636451239021, 84.917064145380024,  4.412138474494334
 6.622671235860921, 13.917727624381447, 95.197616937881250,  5.029032040558169
15.661024426698990, 15.578494532065333, 60.524488093918599,  5.544044610405741
 8.492496168176858,  2.283881756102569, 87.313380509938440,  4.845069466378490
 4.372663771051936, 13.440688627890108, 28.739740454823391,  5.151579662794454
 6.245140764604015,  7.028240961444788, 56.896179107774024,  4.512561201147872
10.201970827133911, 17.607738155993395, 47.520921251866220,  5.247033459453106
 3.831255621288339, 17.855008325187608,  6.228804615899335,  4.999453015134820
12.397571655054202, 18.169597775264926, 111.097412538709989,  4.635489241797650
 2.231865524450785,  1.690048156099101, 41.191986764306179,  5.557576461150561
11.296129006431661,  8.515840333511035, 49.394555746676893,  4.941771829101710
17.105389104506575, 17.173509706893721,  7.475596027110332,  5.269990651250722
13.756359742663504,  6.734929484688608, 91.743178545989437,  5.326472147485076
10.563659614715132, 14.020872725432968, 60.074558410038492,  5.053740680566139
17.579902201434095,  8.195740883020230,  0.040353752478747,  5.128652467582031
10.660666950824735,  6.791895202239814, 17.097775434567616,  5.075227936134783
 4.494065425359424,  1.488949375867342, 15.338465902668146,  4.901768759478381
12.124965856137280, 10.190154496384135, 78.084240655760183,  4.578954603506194
 3.680477046372570, 13.877627822557729, 77.176258509915556,  5.204534794249472
 4.824172248707105,  0.102815287551451, 106.107171764162317,  5.016020660254369
 1.988136700211732, 18.731269134446226, 92.269735704804788,  4.686806752698692
 5.525983750767716, 10.250949997905824, 25.231903282988025,  4.606368872887200
14.736670979976243, 14.958346169314542, 82.457819418099390,  5.154184588813560
11.543936898100030,  3.679951769400251, 95.498485860770757,  5.317364520274729
17.107014956593456, 12.023469246259104, 103.364514507696995,  4.977460761211407
16.760308270980953,  4.128945369578854, 100.057241570180878,  5.077021076863107
 6.284974927621730, 15.754191400321307, 73.231336071250325,  4.966701255493978
13.184670065553759, 13.967144221586828, 50.481381705715791,  5.109857075193704
11.126544068882824, 17.239050033379627, 73.337443216037244,  5.130059199008010
18.186837617308424, 15.189752511155481, 112.093568278543515,  4.619693611065072
 0.595637014288635,  1.697793199559146, 79.289917154468384,  4.818001265149382
 0.180551519523571,  8.735046338995888, 73.385889816664090,  4.681930589889461
16.283425484489058, 14.553341093461640, 24.664522561436605,  5.207205301760616
 6.479730798597202,  4.893887729406662, 47.685468496918460,  4.849719340474414
 8.313142510787053, 15.996010963808258, 77.458616748081013,  4.371313541557806
 0.744278946518243,  8.262376161704623, 14.906721167173773,  4.757786455645248
13.996586626418631,  1.757323661953555,  5.095244241881081,  5.033495643098348
16.258229599749889,  1.970772510863914, 111.832253709682419,  4.738499196634919
 5.519898922858986, 15.090715436419279, 109.001885533821110,  4.598155037183633
12.493197358989139,  6.454052309848468, 68.294714751991989,  5.112188286817215
13.579262221006434, 13.742926757981751, 56.132828732655184,  4.846060804032819
 7.300485457520790,  7.545004643969432, 28.878551177250646,  5.128462563916049
 3.853000691637571,  3.525701417845297, 110.059468937038602,  4.730337359648924
 3.446199056005291, 15.980958744568618, 87.348372793566810,  5.089000335724227
 7.777590854189988, 15.230130711250336,  8.779550188459190,  5.031861515802298
 3.464056641087025,  0.320726994161940, 100.046913068391177,  5.267108075720283
 7.445410467902525,  3.259960952758016, 19.064402599297253,  5.241964102855734
 8.209890888992637,  9.460778534132544, 60.658962735300776,  5.260681874999088
14.890486601315462,  3.450003455295647, 65.073969958648235,  4.914632851017632
16.098678097313350, 17.028378763774498, 74.047701751741926,  4.918786208840046
 3.003400719381106,  0.229367758753333, 32.044864261657615,  5.425705116257305
 4.163740240752428, 15.514734964706490, 52.826789379992000,  4.970070159889951
11.697627457090812,  4.801634063499221, 21.493287374301396,  4.783650185411396
15.926996020255238,  6.139047858988425,  4.205413928604650,  4.699442990610106
 0.102009213615835,  8.314672743370556, 52.687937936863776,  5.018169338265454
 9.907535711247364, 14.281543439601867, 20.791571444867937,  5.102737508176270
13.853787561130742, 16.330656219944807, 43.880233806529560,  5.254674173880646
11.770726489213859,  9.407616648145721, 111.334634324063174,  5.069444410498283
 4.987406274750162, 18.632788936900269, 36.956606454926209,  5.184788681440440
16.394650338440790, 11.905134842685175, 95.101175877539006,  5.242161071802142
 8.888967211235819, 16.183057889846541, 42.834552009467579,  4.891188382797258
14.392473091758994, 11.600089338296874, 90.470441220370816,  4.802953981566130
10.157283372068472, 18.169215691046343, 29.551895958159577,  4.828362207749581
11.840415272090343,  3.497056092007872, 76.290085119325155,  4.807568997953934
14.153968192576004,  1.194040621618636, 69.850283540704396,  5.286317867858656
15.152255139121905, 11.806482283977484, 34.403944502610941,  5.078299610101750
 4.797490726530744, 10.054233112045356, 32.532261738717757,  5.049827537336588
 0.198440142814154,  1.199857449281072,  3.504271028856485,  4.977584320962924
 5.632921594255922, 18.542403286480759, 27.454199582299047,  5.171029566444074
 9.293144912044491,  0.235484203945617, 60.859396679364032,  5.317034409721942
 2.435255042264299, 16.163535569041475, 96.155997924540728,  4.645944073764945
 0.188304150790886, 14.464883803361809, 20.499626341753302,  4.630681801186941
17.314188349094291, 17.940116525163941, 100.872570525745289,  4.958470203982849
11.074032502399884,  5.866227135516898,  4.769350737237395,  5.043543995016132
12.172463418399975, 17.103875225909004,  8.018364449335566,  4.634800586889201
10.794266562468772,  9.454452849619990, 21.192740562174432,  4.678673738067219
15.181340117182778,  3.165864802174562,  0.322485486960046,  5.191319059313418
11.778973232191094, 11.010342020259545, 70.225179629244224,  4.883932196839912
 9.820638602297974,  9.951476619142023, 65.613199646513550,  5.195042979757714
13.474504127711407, 11.143033078351477, 115.905059336376979,  5.231563436573009
10.802358006384020, 11.505804941105584, 103.007430769538928,  4.647017442674231
11.713722122871403,  3.432573816274803, 104.294518271994306,  4.885511900454601
10.858780505521775, 13.117237628503565, 107.761344402692316,  5.384239702211786
 7.007238812689216, 10.677457396116507, 110.247186522032621,  4.997298167334961
11.363957138545912,  2.778221809766476, 114.369853991616097,  4.829996963739108
 0.567394453183970, 16.747242395927032, 49.980098353853009,  4.518357168604982
16.597630703924597,  3.334382151232878, 18.600149891783623,  4.822755874608077
 1.781587206855527,  2.425588243221400, 48.875722518267082,  4.949094087163245
17.428733478794559,  2.077636884351527, 45.036286627273448,  4.960006796358342
 5.660849863603286,  3.953851447198101, 115.247074034316256,  4.752708373417060
12.522140434809595,  6.330318522238725, 26.945487907362430,  5.243010286599723
11.516313306795684,  7.821188253006600, 73.925157232045237,  4.893568050579455
 1.459303637468675, 14.626265462955631, 36.505719365477674,  5.507150985844992
15.587119192533192,  7.279155270143097, 76.621058255176749,  4.919708975052771
 8.674871604386572,  7.097021995013508, 33.720459582096161,  4.973774236866012
 7.120506446973824, 14.666095380789821, 104.445955556102916,  5.071915876573744
 8.889930933175576, 13.123569060063890, 13.339933172283114,  5.249528175803625
 2.344293330305883,  1.395068548326016, 67.655946316364378,  4.690610876376340
16.733832527958384, 11.937189087704748,  8.135664088288548,  5.310722302986852
 4.107783479749298,  4.852013742811469, 11.879752736580000,  4.776048244485660
 1.928102448683514,  7.324259961899362, 47.818730102463313,  5.067231361238660
 7.768907476408454, 11.743258246179566, 79.377930512471991,  5.008222136934138
13.369681939472578, 17.365071803054747, 87.254127497349060,  4.844179457237822
10.923878738581399,  7.979354460360167, 106.458646085682631,  5.216527289108400
 2.463261787929426,  4.365529759593080, 63.938530245412473,  4.814302619836872
18.358402966295159,  9.037203269402463, 91.442567450382029,  4.836861528553409
12.588624965075404,  0.941932282282514, 99.930701435550233,  5.304691410137249
 0.857462774311964,  1.208339237289271, 25.732832912638184,  4.700534545830839
 0.744800510855722,  3.967692585530156, 114.929132930680225,  5.089922577791318
 1.057577099376052, 12.314339080427663, 82.207628144574741,  4.905685605319136
 3.567320305917814, 16.110860435649872, 17.664931197868448,  4.775726087222984
 9.649528202865461, 15.396054069309734, 100.108320190927856,  4.981413305629725
 9.978020936727408,  3.630170439314863, 71.708430820100062,  5.071882443697609
 9.398491136162580,  1.268427718528636, 79.947173907117829,  5.032743473208710
 8.031415909987645,  0.794585227768132, 102.327390149351970,  4.986613841439657
14.551955492578216,  3.678366646845650, 87.833653970775785,  4.721320768556609
16.876052656227198, 13.948106488522640, 47.159777038845469,  4.820900131672656
 8.427100184261704,  6.824229810043832, 24.197675779625271,  4.603993913243393
15.594016935120013,  9.958207392029603, 107.824433479127478,  5.287210055952043
16.637968969539031, 16.464630513136186, 33.155768312261884,  4.944394974222925
15.772738921910841,  8.493745812975046, 86.583668720226797,  5.513049293695728
18.331077340113723, 10.570079112514271, 57.393678837106215,  5.453108399243034
14.790566354063811,  0.477599870078567, 27.755956027070962,  5.329533361251472
 7.867795752204855,  5.535940515177573,  8.713463268016980,  5.143179855916308
11.649481610859274,  6.662335494508349, 117.208500597472721,  4.775920024097581
 8.110587654466675,  6.004765560347606, 111.631811874871630,  4.869800062221106
17.126033381829348,  2.817729573242874, 31.859340348491035,  5.208881708748572
12.937449731315798, 13.546021888776531, 64.326643073529809,  4.653517823136196
 5.455951707965728, 11.031284631562780, 37.686269222322466,  5.492244573303920
 9.036596266658645, 14.830436168570071, 112.421556274097014,  5.191479617658068
16.453480560099468,  9.542171871684808, 69.245412201417096,  5.098544538174876
 4.638095371957371,  9.137824476726800, 91.717972058286378,  5.263045885595063
15.807107043578378,  3.038814310606112, 23.417592792744131,  4.946223032146761
 6.716749068527000,  5.820738557279013, 66.139477877485874,  5.191249275297874
17.074181965220561,  3.440856147704274,  8.476235913456833,  4.701910924919732
 5.006653744665305, 12.678002493488279, 20.994675910933619,  5.212300116555011
 8.179396534740672,  9.549435292212172, 115.153719491845578,  5.124438542110073
16.255270871599688,  3.842972213368353, 51.110451497391097,  4.853888954136085
14.003732795664888,  5.191187104078444, 46.864925383875416,  4.988305766335464
15.454147754093077,  5.482671831053173, 72.122819513385622,  4.759986674080613
 7.396567127205517, 14.532816612489132, 25.012607846692905,  4.668590387870240
 1.319067683557172, 11.201642466240420, 44.760709952141184,  4.881331889551191
 3.627801943880965,  2.705850577047732, 83.649211886989335,  5.011293866076639
14.505335158302614, 13.715967660755284, 29.477439689847383,  5.181353704166875
 8.588080712146919, 16.133750927443753, 86.407789325646192,  5.126894517783172
13.780334874555423,  2.267452799931453, 60.636802091858137,  4.531243376262732
 1.621656153260437,  0.989337783817357, 53.674350130370549,  5.058802355578401
 1.540019242001244, 16.794839351612890, 45.114145862242793,  4.971700442461790
 5.856974332327863, 13.601265287635698,  4.364006141585930,  5.133011308981241
 4.047206894010108, 11.816561503572217, 15.397757589601156,  4.982381468423505
 3.526729949946122,  7.981006648857303, 113.011949959975581,  5.396557521903937
 2.644106033072715,  5.069199762687916, 98.223418707815128,  5.022757928543644
16.349483963644424,  9.915748714052523, 27.122297262774392,  4.460181405960950
 0.477240799690483,  0.378793811339313, 61.942849279531707,  4.944176262594143
 4.852370358309498, 10.695554738754943, 73.170612997957178,  5.270093207938945
12.106003443100102, 11.537532725960588, 25.449513124506478,  5.150618686136358
12.069844458020830,  1.830579858117249, 17.080504099053396,  5.191432944712922
 8.492016735351934, 10.697206229267662, 98.833590375244327,  5.026048216820080
12.512805925545857, 11.194294522386310, 16.125555745728835,  4.669651896896373
 8.889102853969490,  7.185510591453674, 78.957471560684510,  4.354496635445554
 5.932682279021011,  7.277169571185708, 15.620388991800359,  4.857707274223193
 1.556530763195586,  9.492820461750556, 40.408034499708940,  4.480102512091956
10.521755475795604,  2.097789981564789,  1.719586951687735,  4.676263207530579
15.021276732034966,  0.705272785260551, 107.257001103426305,  5.007114357499536
 8.411536994338789, 13.373296297549860, 51.652013266448535,  4.783876000132173
14.053574028590649,  7.515995221735079,  8.480701317060836,  5.029076186762987
 5.456538280350591,  6.513892996665987, 87.286665721662203,  5.136145601749598
10.350051582523992, 16.164234409877594,  3.466393683843231,  5.340921652946045
 7.620275961778663, 11.087952185916697, 86.605399484249432,  5.069683712123289
17.272403513924772,  1.466302239839641, 57.552508567448413,  4.922192016984355
 4.705923928033828, 16.487815980596480, 61.123416579143132,  5.154422282265735
18.061089031257815,  0.187685649642018, 88.017868563488733,  5.150434683508268
15.745616592160944, 16.139031728096533, 91.456148427907152,  4.868897546918050
 5.966198347653971,  7.840566614867712, 20.377954587753372,  4.702199939134029
 6.515893004259845,  4.609711025418679, 61.130722827780467,  5.057010716974156
15.540641187197316,  5.991656729594264, 56.172988549012658,  5.151622851098362
13.376065831834460,  9.675318480059483, 59.396670834728582,  5.375339517462483
 5.150429913133297,  3.282919880332767, 23.692640862467627,  5.088660011739924
 0.118864342146366,  3.503658139684695, 14.297819558331415,  4.916493236505944
 8.162667549310580, 10.921181482382767, 17.674857667318054,  4.579029323384945
 5.799228495803039,  1.880837798923346,  2.620545448478953,  4.919016870580045
18.051657880406001, 17.894243021027709, 16.331503565286003,  4.872583024794308
 0.930493460541958,  9.038858381386413,  5.083104327951894,  4.967676313564249
 8.129851179893800,  5.025398143427546, 83.146246741647744,  5.156182697305008
 9.766825867317822, 12.437844719113901, 74.566020208196420,  5.006069932487458
 1.226725397627997,  9.625317391248005, 19.536838683457887,  4.931342074067039
 4.244977358673005, 15.480085702142400, 41.003248685987970,  5.180460291874858
 0.918784889387277,  8.688577454964010, 65.502267760587969,  4.881073022711562
 3.861173877944647,  2.000924241797532, 88.459995234225488,  4.712689070613744
17.547331534758655, 12.548520149980648, 16.285533118591498,  5.044410605987844
13.765603604418949,  1.157431752831278, 35.449568927578149,  5.146908743131233
12.093093805024939,  2.038639347881738, 84.044591491000304,  4.888574991120223
 3.954731704479755,  8.881677922430546, 77.837522746971118,  4.889139194117736
11.691105787048338, 15.451515687662367, 33.447690650219073,  5.147144078797177
 4.847752340686862, 12.378230151513579, 58.295760694131175,  4.811646042440387
 1.240169179728134, 13.033987575184538, 61.476328835216918,  4.653948974674100
 2.406195559559877, 10.828053431488026, 87.162133713264140,  5.425328014105811
18.616483370622753, 14.978365634551920, 11.943370907732408,  5.132760106642810
 0.499495878684566, 12.332376222865353, 31.682997127986877,  4.823940784927520
10.560161456693033, 17.722714230593919, 52.644270111130858,  5.022075079192832
16.459028767085716, 14.861818747922905, 107.795070120940693,  4.667213043837920
17.544761568327679,  5.339044809814243, 27.439860683599541,  4.950171651200744
 3.163214440692951, 11.631585566189605, 104.331788815662506,  4.870021880537031
16.129305531680465,  9.338492977470606, 48.631589064183274,  4.964290867813133
16.219327484215270, 14.485458320246744, 69.861601486975488,  4.867615627232720
12.390806783695330,  4.254103226558826, 109.730874027670666,  5.117762350979895
 1.015588180814047, 11.038543332777172, 24.167066614517196,  4.753580194436622
17.474720675598668, 12.983290512397025, 65.455557711124257,  4.764076591838061
 7.505850537205315,  1.293861861194953, 75.355716252407660,  4.896238042306866
 3.962525110315080, 13.418460496634060, 113.590956491652648,  5.572827246843796
15.462124751679371,  9.996638956605178, 81.534791821947351,  5.027978756798070
11.048406080681950,  5.723187057282628, 63.135783447807363,  4.781847652686417
12.306570104314506, 12.725853417856522, 86.245900002075189,  4.884202024518651
13.544311351349702,  5.691150695163789, 40.963359978255582,  5.000541175520412
 9.445835596482716,  5.599448853888917, 100.115186199651433,  5.501639657242768
 4.713628289396856, 13.986398409757753, 99.954940735685739,  5.208008315737530
15.230987986958047,  8.010053857733768, 22.856083166778969,  5.119743446435060
 1.236721373946416, 15.841244317427480, 57.165292334029175,  5.440803129438545
 4.370618680291474,  5.282342594783361, 52.375831276355370,  5.461670482499612
 2.411112266508809,  5.385505875516225,  2.133539116669795,  4.875616134171144
 3.044609800124041,  8.434322184953160, 60.890032168637980,  5.281743653004430
 7.675806112195567,  4.094407391942649, 107.105355653345910,  4.990316667108546
 4.756316361905292, 16.062068354741879, 12.709144929458908,  4.969691245240590
 2.615007781023116, 10.935784825031689, 96.168129965490991,  5.135851487321877
 6.194580456205572, 11.434508711146044, 43.571860204187466,  5.162358160683090
 2.738485438927209,  4.628536445504437, 93.151191209202693,  4.881262920973885
12.439920668531187,  3.028808665522601, 54.079411306012020,  4.391211265471050
 8.100568396985430,  7.964659433467851, 70.382833228752830,  4.672498237530816
 2.107284023653996, 12.112988515001181, 68.962115777524701,  5.135290127348007
15.671535563830068,  1.040046677662986, 40.321664530756983,  5.307554307081211
15.507810314646054,  9.831475373507745, 12.638614215679659,  4.918542446343410
 9.071241953839692,  1.469698325747979,  6.162783871849832,  4.752206809195664
17.376071609873151,  6.277985401687424, 95.439557908789340,  5.059621813281852
 2.404718486391519, 16.641737204690436, 70.639229283952005,  4.532633660591682
 9.418176067631409, 13.278656843299490, 29.414054672287424,  5.029380242895008
 6.790047513666242, 18.251882189810665, 91.485962081565233,  5.090258421957777
 3.419960661023032, 16.521569774037101,  0.757366135675889,  5.304655132576169
 1.637219645414150, 12.267027358441903, 108.979367488470487,  4.990100724200169
 1.714614270478978,  5.975016665107369, 56.703455459027289,  4.779406648247735
 1.062963942769402, 16.025978155452552, 104.631452454589351,  4.861607721667411
 5.731081817636460,  8.870802441241693,  5.762977203701361,  4.734479258443150
15.641951710705404, 18.188217178849769, 53.360327784032052,  4.952844422059655
 1.866301602097596,  4.824010729352564, 75.578359793749769,  4.888908881396056
 1.431528390421108,  0.450012622536560, 20.831850884558975,  5.057726837182026
 5.287767106005499,  4.065726193473917, 79.065281693340282,  4.967147558752109
 7.657332407515500, 14.022221192632161, 117.094875961772530,  4.681267314901782
10.613404943802147,  8.371202704452433, 12.161335456916499,  5.124782219554316
10.544372242948587,  3.326926656361243, 49.845116227382569,  4.869302431668397
11.656368969211210,  1.344504785667575, 90.929133046737888,  4.945882449156334
 6.428950186446539,  9.856887928230684, 48.642847272402932,  5.255845772460233
14.754042864780253, 11.655607947239787, 74.169146011553792,  5.052566667160812
15.114959220527922, 18.246333763136871, 48.491420279259088,  4.839660821119101
 7.560008466823400,  2.149451084917184, 55.245624472447844,  5.162241407875081
 8.479744100820991, 15.205094389318765, 38.082800298196346,  4.840938335415923
16.990657510654717,  3.184622999805325, 83.578556781227647,  5.132159494359791
14.202026938467018,  5.147016571848074, 13.812491410056250,  5.049821951949876
 0.455597030012238,  7.665262445809643,  9.961284360077943,  5.205021706049330
 6.291988549226232,  0.700359999753778, 50.439293087034187,  5.188616595682429
10.624107376105449,  9.482621470944560, 82.857838565974205,  5.054936812272596
13.065943772881043,  5.589569840291818, 80.635469667669810,  5.144711894909809
12.981598162225296, 18.083303703917128, 63.930892674051947,  4.453122257696545
13.602077414357460,  6.648608059058582, 35.927086926924176,  5.251298594144245
 0.483745312616766, 13.418449431829520, 73.419433938792778,  4.701884750451044
13.791465816237789, 13.802965870039582, 111.756762982917309,  4.622504927477825
 0.053450037919489,  0.898954366936504, 36.267484620876992,  4.959413712859627
10.525655532813371,  0.448934394603802, 21.354473946979610,  4.232835329488584
 2.969654749787624, 15.831158451082850, 65.769542481051388,  4.816410389105436
 4.780566762039332, 17.920472341475261, 80.208647191777317,  5.136352236211785
 0.575383108005177, 17.303109662379967, 83.236023816328100,  5.283650329415367
10.829618204317741, 15.092032606658279, 90.957900715829865,  5.220679415522695
 4.357916816464111,  6.411077689195200, 43.193765049932999,  5.536799402378378
13.444851737842180, 15.823406098469007, 103.756843949477442,  5.578501440748475
17.049429977046106, 14.063510173324200, 86.932899698645812,  5.061177905061894
10.315978853874809,  2.213486458795993, 66.562699444118309,  5.014695255439908
 0.378113163660834,  2.398728139994433, 104.524501361619571,  5.442473160298562
15.210631021216011, 16.783799951473320, 96.433845454996899,  5.126234984540458
13.562521587229828, 15.905684169756441, 15.745925527124461,  5.004793428292218
17.250217184442185,  5.737458985328002, 61.115440337815542,  5.319686058608616
16.979402230045526,  7.944212205519177, 31.677425239005078,  5.041250083411503
 3.095050435224710,  4.211551541972106,  7.009540910100579,  5.234693553605152
 6.225327887802661, 13.587331331737753, 90.451961929074258,  4.517094348890545
11.386079044873725, 12.595998064415419, 95.302254694067514,  4.858725110555787
17.905456318024267, 18.112702711437539, 115.813928334466439,  4.846747146134225
10.836700588102724, 11.754533260248220, 41.063936523806355,  5.408018695803014
 1.490853987500041, 13.750585682214391, 91.838821627238332,  5.349873112550634
 4.868862077322301,  4.822003476004511, 102.863813085478228,  5.280602140500930
15.379548294770707, 11.314990468880159,  3.283406678136926,  4.833513587082039
13.098595366734646,  8.344019345953567, 97.350339633095658,  5.176738744348148
 3.518995785178827,  1.731207268813758, 58.273865372942637,  4.962185573528202
 2.687184868804462,  5.407900811716925, 33.164126397779150,  5.186008452245575
 6.192444492043015, 17.628133297430463, 21.500562400520462,  4.993215418524533
12.970901014948332, 14.961492287243072, 77.613694141713211,  5.097768268485488
12.213404035088081,  9.432655012182243, 31.052293940356769,  5.017480851903182
 0.098556285815322, 16.228840131962691, 28.725763228705038,  4.980784602906235
18.400727311659796, 11.036218174766031, 77.772270863508922,  4.742410984834120
 0.074457075113266,  1.883206145307811, 71.953038288154744,  5.076046289262800
17.473224866758976, 10.396064957158069, 112.669094677575217,  5.140927608736622
14.148662938001538,  9.845512049431685, 53.221288579172430,  4.948254064010501
11.685549674329524, 16.525910397213149, 24.815958313816921,  4.771296348155328
 0.822506442511731, 18.595945850526466, 109.049186742728807,  4.927382545213889
 3.943285983339866,  7.743201117960502, 107.423217404014892,  5.182827261931360
 6.390570033241334,  2.189406416929183, 95.980043756253977,  5.427617009306469
 0.870528551412726,  9.471313760298512, 35.663661627862304,  5.004008982920010
 4.996347668376504, 11.456383164639316, 64.628437747589018,  5.087586641247285
 4.980258052903879,  2.959985071049561, 71.424206710064723,  5.022021789462903
12.174225975249952,  4.178496953021438, 31.616292603883174,  5.062347599989824
 9.857864695273573, 15.469642746596593, 81.697593626849724,  4.699319278098981
 7.863542708276096,  1.066289637684697, 111.351436558958241,  5.027156284826723
14.730561989481203, 10.802108928436549, 44.201489697449098,  4.756263151234098
18.020068963041869, 14.260768884771590, 41.391460379251683,  5.110189070982988
 4.854338304721401,  9.021475773399356, 82.800169355182661,  5.200046389334646
13.919394152718342, 15.185605433236999, 38.227791280422373,  5.411446326375831
 4.428435168639849,  5.196819391521040, 37.921185746777056,  4.953581684175270
 5.603977471660630, 15.004956008698892, 47.726416592188329,  5.327521360082647
18.293283897877533, 13.246711414864864, 116.843318209886988,  5.100235780396118
10.668339015808403,  6.861758890581923, 87.327638357694212,  5.286214507179268
