BANDS
8 8
NANOPARTICLES
cell(1), 18.765
cell(2), 18.765
cell(3), 117.280
17.825241788509679,  9.794580812517415, 54.465782963075895,  4.945187755311198
 8.111701450005915,  0.083912181520318, 18.786863308732187,  4.722847065952642
 7.092960023746509, 14.489267578090745, 31.961609610604182,  5.217812083214056
 1.990323516976859,  2.445222625404278, 113.537879709492174,  5.233685878975570
16.151939718078978,  6.641792480441692, 41.016413107607413,  5.070128238651780
17.800512530517494, 15.494122542019207, 53.109109197692028,  5.066857050251467
 6.490367688982855, 12.158160270388649,  4.749730007184554,  5.128323973245219
 1.717745813265168, 13.276313384395577, 75.057478075101074,  4.344143939755243
 5.645699250114531, 14.787652785852222, 18.626000383076967,  4.732821648525901
 0.737992492104178,  1.195388264470366, 101.266502670089238,  4.782160326813290
15.386350873508524,  2.092936551449081, 59.075688574297693,  4.958088517287299
14.087298948521715,  8.400002083963667, 114.632788407248256,  4.837922019196176
 5.057453541777206,  9.036072170433611, 67.637825575357652,  4.509152217203332
 2.468005003231104, 16.486781235792090, 24.762936903019735,  4.812388041527292
 4.370768533788752, 15.734498693194563, 93.883281503504747,  4.858548920601567
 4.500540259826033,  3.463136325364105, 60.491594760148843,  5.163918754549992
 4.108477613727980, 16.428606377857875, 88.132636247612382,  4.659702620214948
14.460284043754891, 11.402352005289114,  2.018277668500661,  5.001516229870509
 8.726745534996247,  6.012480866933877, 67.707718366558396,  4.999952202631619
13.933296058600087, 16.204342374482607,  0.689257420402656,  5.016535026313602
 6.601162400399369,  4.568599063771003, 40.173433892762205,  4.987504942924966
16.246316751517359,  6.635419206892253, 62.359995079812776,  5.136273187076610
10.079498847342951, 10.764350813855879, 39.071350238079489,  4.820658964244818
 1.627378702437459, 18.214564263732079, 96.944347683239670,  4.708232202180080
14.516701161106901,  4.779773327807372, 66.778174640643840,  5.019825632815001
17.547919212529596, 10.382268996434046, 59.322077046936357,  4.850913828906799
16.130481152820398,  3.721686669730417, 36.923736105048796,  4.984312587655937
12.252940192586296,  4.167916573770071, 88.110377196745418,  4.671960556939040
 5.941045498308737, 12.495448259157273, 59.893961732707467,  5.162378123500953
 3.344005596460336,  5.143686395922695, 101.054329675594786,  4.687285232083169
17.019564329011651, 17.670309533294578, 93.276544193409876,  5.314114191136368
 5.436175216839774, 17.046215614552146,  4.564220104374180,  4.877692824866260
10.021792734249189,  0.237703003789320, 99.285062782797397,  4.693880289455436
 8.329486449295695,  7.699179410385746, 88.779754434008652,  5.431659848507052
17.747836103381637,  0.323677095536550, 32.157207789741300,  4.960808037521629
18.358406487153719, 10.551470520527083, 10.906218208469481,  5.198733045205074
 7.131390062194488,  8.438464899583977, 109.677258698385046,  4.934927111073582
12.797726272721855, 15.209555247698578, 66.491401827330762,  5.085638692792389
 2.763194125416967, 15.783988279549430, 39.980182153376070,  4.981411689738228
15.854407882909163, 11.680043804860457, 18.480322037299064,  5.117126001439922
 8.828101331388723,  0.224769569489714,  7.639515833637884,  5.067784382350120
10.053525820476393,  5.101257779120506, 81.130569014309586,  4.864226480155417
18.763425472566976,  2.727433807623501, 79.560269234851873,  5.091252851971405
 0.921934277294661, 11.418283258695501, 67.722944303586573,  4.444718406623733
 8.225943922232936,  5.687408110468510, 62.866881835363706,  4.728298292083915
17.021976860386474, 14.943761185460167,  4.307531072367286,  4.816745957634518
 3.572181372458742,  0.708587893382842, 76.705059769226665,  4.908148403948258
15.108443402716501, 13.296864013321935,  8.358996121062573,  4.716558832777730
11.937695129848658,  7.095907613020742, 36.568673014540671,  4.624235896985484
 7.001129997979342, 10.173220210066166, 17.218575433395110,  5.280999812590978
 6.994189517448635,  8.051005865401839, 83.724619744243455,  5.038677091609296
 0.413136587873615,  8.529849704903620, 105.183854544585799,  4.961253153972092
16.387823267913994,  6.559873832016053, 109.005350114854579,  4.962564054731948
 8.374344101523480,  0.939680456182271, 62.378978757783607,  4.814159871034700
 0.949325435880888,  9.366718840186344, 20.962159600452477,  5.144138194411198
 0.898143723746161,  0.660797368083213, 72.083831162535105,  5.056658368304287
 1.939208722366033, 16.306388034478015, 35.074324794224438,  5.018737554162845
14.199095199075360,  1.481769408028669, 106.473420600812972,  4.877318790804594
14.347154175820711,  0.852387155105149, 28.614515491930721,  4.909520209746766
 3.927083016242485, 17.982322460420146, 68.313561389104066,  5.031590356662846
15.111629222639094,  9.722484640537903, 68.265754446909767,  5.371790481450576
11.202002240865696, 12.036889026128140, 59.809091222837317,  5.270830172322784
 7.215933961285167, 15.917044430604625, 106.194370787626596,  4.885544268098118
16.826327591305720, 18.631233899722432, 24.427152764682699,  5.010950916034405
16.563877452236785, 10.075479154496568, 83.352182362409906,  5.563270697347239
 3.860412220766217,  0.407418879508542, 109.364338232314367,  4.684368031560200
10.322585094168918,  2.459182348545896, 57.834652723372706,  5.446144380322642
15.199166334153047, 18.415048146463857, 69.678414192216025,  5.087473964214224
 5.632657638068093,  4.547771021797465, 29.209799271119465,  5.173357171295716
 8.403998925628944, 17.469680436792800, 85.890027789926236,  5.248500947662779
 4.709578644873527,  7.963047811106094, 32.697802145595645,  4.760436549789610
 8.593722482609317,  6.957119281648741, 12.373196498212694,  4.988931941958015
 8.328671900865443, 11.324515485760635, 104.206104871261616,  5.355419393126860
17.827667406203876, 13.211007084218275, 104.837706760448782,  4.787599901763423
13.239575592090059, 15.529424177811995, 85.142256125461302,  5.277011784607945
 5.331061763022521,  0.434758395438531, 100.160540828618394,  4.786206982208240
 3.809846847088087,  2.425488865312207, 43.939438637372326,  5.306214083153669
15.594337569516675, 14.644673417759213, 80.349317582753983,  5.542229665096619
 3.232977042329059,  0.391605886487399, 20.412153537454689,  5.509133690443781
11.000659665515524, 16.431754484876642, 26.291373360439593,  5.345099513112778
10.553902457274880, 15.663141419226582, 55.725046779327919,  5.255113865536111
 4.085932890383855, 16.503570683182193, 113.451652942506257,  5.069873207271257
 3.662108431307932, 12.076315674670152, 106.105583519808818,  4.827113169904398
15.206878148828574,  1.869730940127093, 74.315777888436443,  5.193951388390103
 1.865453338175571,  4.374406766457275, 96.262486728632553,  5.246221989888857
 7.896822657639296,  2.341720552646076, 89.653174853785487,  5.260207088031819
 3.276728590632655, 16.038992607657033, 103.248262607300447,  4.950696014474155
14.741438345257047, 16.007641214552844, 109.293303201572996,  4.658547991773194
17.410489587671695,  5.460634830622690, 100.164696350129262,  4.867106801294739
16.805568569247477,  2.531475785398674,  8.827906069498058,  4.812808167956816
11.217187415786306,  4.213947090168260, 76.431195728034609,  4.976866745097495
 9.508191430508774,  0.991860068385616, 52.645874406180006,  5.153221291117577
18.548472405801672, 15.765334256370236, 66.055717543458854,  5.096434022299021
18.167316687667057, 16.804939697265333,  8.723656549416788,  4.560541280739412
15.824683272506567, 17.296087725438195, 36.623922987151040,  5.403245749433951
 7.571902101137746, 10.222004370392591, 63.943413715257556,  4.681236739966569
 5.228295671123946,  3.202858818809053,  4.429070823746582,  4.948391708966263
 3.702952812319659, 17.653785539674907, 63.094424573194608,  5.399003416705298
17.529856619993875, 12.983090970375857, 32.833925812930964,  5.202726833371632
15.950267377139530,  7.205956796231870, 87.635781582238707,  4.747397081592070
12.518659875564714, 12.759641334405918, 46.945371264443288,  4.829250691599835
12.071379261050925, 15.956091689060877, 105.257881474301229,  5.004130497924996
 2.120079433301159,  9.432789217321691, 48.320457912978185,  5.453748589833862
14.712436042655010, 17.866487575848801, 11.938555401586280,  5.113560158084135
 0.520328782974217,  6.219956655785950, 91.050569270962740,  4.999036175825133
 7.513858997268851,  4.760716392921897,  0.275904465190570,  5.030120344479018
 8.802184103125052, 14.894851238266606, 63.383009439917977,  5.045547603482918
10.673464565548636,  5.390668259115110, 31.494356296410572,  5.378998533763045
15.820989978486786, 11.779027506406855, 50.408274845040147,  4.935646090401411
 6.461642290551315,  4.289881471297220, 74.896583536564137,  4.979878983560361
 7.307141836398870,  2.218259198413605, 11.920288354156240,  4.848866222733472
16.287767755973821, 15.099150175218957, 27.953209382831794,  5.012681271241620
 3.611458835980524,  8.304316959033450, 61.818291977570667,  5.027477412144037
10.969394526157934, 18.507414994007672, 72.157776242008296,  4.713616274213826
 4.337256920025976,  9.683866604205766, 12.767055962456659,  5.138349824478914
12.971723605505888,  4.751771214966058, 45.611639971924468,  4.821263734005027
18.224289854316019,  2.802599912679407, 87.433338390691105,  5.170987820557179
10.096402970741472,  3.132522821411003, 26.528705542713439,  5.591488958124075
15.365291301230005,  6.760924707747590, 75.488901537626973,  4.864403623966260
 1.565641525697274,  5.116885542916773, 10.848525114984710,  4.808873564582473
 2.231771436506554, 14.781296298036361, 12.048957062429613,  5.024862089616678
 9.529168367520118, 13.515679961261469, 43.333544426203879,  4.648603471589244
 6.092244075792688, 18.488080221032956, 27.489423981180149,  5.099554229452968
 5.189390041539674,  0.550700094222961, 32.504795998357451,  5.211640242094572
 4.470925164778131,  5.033073671432601, 14.807713634620304,  5.006275621845304
 0.418806075066406,  7.637254701611819, 114.367414726908393,  5.206569660813580
 4.708242125869512,  5.718209962035768, 79.606269930227413,  5.326904999606949
 6.833116301175227, 14.601336569167247,  0.340026452606879,  4.972644080388002
 6.232176905668907,  6.259887540627085, 46.574271532849629,  5.173282254408594
 7.111941787329246,  4.482582207282292, 35.185787263803043,  5.038837940011621
12.180635105473161,  0.715354062065189, 94.158967757246970,  5.163652746392025
12.388767061883781,  3.488704608462027, 62.601930896487083,  4.702202314235392
 5.086424061293911,  6.356980935426305, 113.481910757295395,  4.628245044668668
 2.633342010417169,  6.847472219437187, 52.823849739898172,  4.839741117348363
13.540011324056675, 10.686896262728087, 42.640205627489159,  4.927571680937746
12.401200924383362,  9.936202592346868, 10.828941086133135,  5.135829982059452
 8.332640932884853, 11.302470075219322, 98.539808980497938,  5.040563996501962
 9.677323805271561, 16.768461284187037, 46.975145376567035,  4.984534456058237
 3.145227937059256, 12.353539376141045, 52.715659460799259,  5.295909580429849
13.381402510465547, 11.094812997324446, 105.538090485093903,  5.080688983410056
 4.836171350092644, 13.547226258785885, 66.156855462913796,  4.997157820493086
 3.742971944911920,  9.008652045503869, 75.609061671119349,  5.167492364471607
12.377148221966708,  2.425998460088146, 18.162877672954398,  4.908059256320522
 2.327747723873242, 10.977177630424826, 29.862789453335989,  4.772438322710631
12.473808416737805,  7.264967607276517,  3.446494961462786,  4.552924632683879
 5.743514728936781, 16.425081108026067, 43.942577055750434,  4.965088002959081
 6.011828973299789, 15.200027020207866,  9.046224815171474,  4.553237399171561
16.056442594284523, 11.688164788999682, 75.940374566507387,  5.108757913301555
13.929534160901511,  0.973157253141473, 79.277873223749637,  5.199700061400088
 1.911535631987652, 12.379926836082475, 16.505918151156330,  5.109805330458118
11.887586684495780,  9.427729973402259, 73.413497175603524,  4.833740953852187
15.415891031561967,  3.297957190721229, 91.467308048752884,  4.707359281579330
 2.222941334405842, 15.967259659843492, 29.781493308736732,  5.209114320178937
16.149655586953141,  3.087412956234371, 15.076635369367418,  4.929214176766688
 1.134664625608087,  6.436692730835516, 29.719395488519464,  4.606613242255125
16.580710281139726, 17.107167516743136, 88.405889381910413,  4.529746281063061
 2.976511750883112, 11.667982569144749, 34.866887966173529,  4.496138037721437
 1.775977015913846,  4.042710980597952, 33.759822833163085,  4.866538024119313
 9.019850833205005, 10.789087942366395, 93.292515940667101,  5.591535129719527
 0.888467657167807,  5.459533486585887,  5.875398598668183,  5.250351123504111
17.411027878349618, 16.617703519239925, 61.121238408595104,  5.131285466596455
 1.027747318123447,  7.029549645150913, 65.968644171139971,  5.006052012582919
 4.249284305140754, 12.366320530251768, 71.089086764424579,  5.208919216128067
 9.019765758732502, 17.799539497119561, 35.467578813039772,  4.934957441886215
10.239858799771696,  6.848171418484483, 106.067415488898462,  5.050212928233997
 3.818024948814987, 10.279078929206769, 101.193367880841720,  5.626776477319605
12.226947409243573,  7.051654273557816, 59.363226486034208,  4.924344266427136
18.345350703619562, 14.612161094539536, 71.037780407745061,  5.135820121215271
12.729053116388240,  4.208106424415081, 116.965303010984982,  5.122651358294705
 3.106268570297507,  8.035712273065149, 25.500795519353844,  5.231466915575036
15.741878322350548, 16.866417281769149, 101.950514851492628,  5.041883044838177
 7.775300672638512, 10.889588395891927,  9.444783976774252,  4.696928515966589
12.916937556909110,  8.981838374258910, 90.630703748447800,  4.486940137460461
 3.458409144843523,  9.468204890583483,  7.773462980616156,  4.983806604423173
 0.088990275783421,  5.686582715853745, 57.959754410246290,  5.263984837623718
11.545172002987030, 12.355892814763317, 29.691881236835410,  5.325079871097892
 5.142139448843501,  3.494774838371216, 24.228232913745554,  5.039401141577430
15.758208048627141,  6.351479022426450, 11.519255600923351,  4.756383792648953
16.324198131543156, 10.045416635233982, 28.702248661769168,  5.193822504258753
 8.816670633321273, 13.115541915673106, 72.938295188372990,  4.754603721917015
 0.353723618435742, 13.756259183009394, 95.654655929478452,  4.756875948723639
 1.226470410065778,  0.643401289390335, 57.680446162809332,  5.087835914437744
 6.292421925856277,  4.190796829847133, 50.939090834886727,  4.478994636262036
10.395445033342943,  8.715152409011228, 45.670206994276739,  4.630345439161808
16.120701119711253, 10.143239565384723, 101.324281710581047,  5.113462838410738
15.718593483833953, 12.129462899966921, 88.250478095475188,  5.185144735131777
 1.271671946516404,  4.260591731336040, 18.105885970315565,  4.301236077719340
11.352635053312861,  8.175138619777190, 101.244310660692960,  5.196245877636501
 9.239436221693294,  6.226882803331838, 54.214558895249709,  5.215674788755623
 8.915614390030585, 10.972212931493397, 113.329354860980118,  4.585820631831137
 0.335255100980895,  9.185909668997219, 97.347720052625021,  4.970258836020059
16.566609467176942, 11.529659320503502, 109.427732123685558,  5.008582666388352
18.434643559732283, 18.390685538685734, 49.029435577061065,  4.960762007031322
14.504440792836590, 17.185480145360820, 45.175055549885514,  5.349453331816369
 7.207247078077569,  3.691883999600036, 108.411447868251685,  4.880058783412976
15.846993130064984,  4.288821205312702, 113.156052593050418,  4.547140266805311
12.013577770367359,  7.923144406112970, 27.331778407521064,  4.727674252052701
 4.785718171646485,  0.572179676300348,  0.257317216588008,  4.950637151367052
 1.119464179301076, 11.944817678660806, 79.388861391296729,  4.774763049708881
 5.183544529496699,  0.042868093008471, 48.513169679841553,  5.351861271806037
 7.925453630003783, 15.492076378580585, 101.500910151238060,  4.605293097292119
 2.455421374053553,  5.104721219283529, 109.114767450741084,  5.125878063458070
 7.981706077850683,  4.582871260314926, 101.031385742773338,  4.644599954603599
 5.203855271500581,  6.336462788076449, 92.730561369496542,  4.949193045260375
15.217339190930920, 10.590727728567639, 37.811645331271244,  5.268869911422952
 6.449395886429644,  1.139582333970195, 80.682791066725343,  4.686862079619640
 5.227755377897445,  7.012125806217052, 105.226738701775460,  5.117746697713339
 1.150842232504599,  5.819351974111484, 83.538912128513246,  5.245207822275402
 9.113210225471171, 10.035677071996039, 33.794965913739794,  5.211151459456262
 5.780858947512403, 10.817466226181844, 79.812885068970530,  4.842234876810259
18.242786005488167,  7.531399464884162, 79.178737524590176,  4.601508454882535
 1.755982887184181, 15.231725310879948,  0.666186208733625,  5.280292762211618
11.908363805831490,  7.833074622277275, 84.909492686828472,  5.075217688127291
 0.098474753173792,  1.299100205645272, 40.426131190107540,  5.135216098331486
17.284374743896269, 12.908557568211597, 45.833689312050751,  4.929103333366214
15.059754850008927,  5.175784615693925, 81.985986663587994,  5.024115473549053
 9.892346250503749, 18.743462916967484, 30.725278509134682,  4.887771083176974
 5.787890400090177, 13.288598551683188, 26.935978785849731,  5.368468383596147
11.868498567920270, 13.802941991502641, 35.731187348020363,  4.891083224831430
 4.747196826304775,  3.536438931896532, 65.685739140869345,  5.204815277202076
18.406105589038052, 17.807921757110734, 105.929574704845635,  4.714768373233467
 9.366693125821248,  2.717292006804161, 47.901377559150831,  4.638664940965329
 2.915853161654609, 12.528271440186497, 43.946461225797869,  4.654911472372296
10.173269356221768, 16.890032262369605, 81.125326654828896,  4.922576605528231
15.544624470490636, 12.041664209257677, 63.575784252748278,  5.118633215785631
 6.987165218948877,  2.005661620422271, 95.385813606334793,  5.798160401553620
18.693403829352182,  2.626152992477526, 53.118328393837857,  5.185178525843661
 3.644377253348613, 17.786089507930793, 53.445525205983124,  5.169696322527940
16.527269086445326,  7.087528824028729,  1.230299941153363,  4.690876783981955
10.866300042649387, 11.126427020881643, 51.201764729187424,  4.839223205616872
17.576996817276108, 11.996283409795067, 115.761703561492666,  4.493174107195085
18.717077420844099, 16.936532188353638, 16.415809562574687,  4.727997320496732
10.739282566617902, 13.716329373089692, 109.257621922009520,  4.539518328040810
16.820002039867056,  0.029061063552474, 83.390300385341689,  5.026637288556866
 9.383721966134466,  1.394753404392782, 104.441174731416552,  5.100000711441608
 6.172514875399579, 17.565013688564701, 58.219202901648131,  5.520604917133890
 3.326410443922594,  9.437230047690827, 56.879600348924271,  4.877126110141817
 6.098224387539800, 13.256043973418636, 110.189950196201167,  4.972361716006578
12.750112445411895, 15.796329398389014, 50.963596742799638,  5.229910915886916
 8.840829060954011, 18.538026991676752, 76.583771694578331,  5.092654699709410
14.389208167793699,  5.195733442083973, 55.042272068783419,  5.410256311477854
 3.868402737529772,  1.459985583347758, 37.233759837971753,  4.725499206915689
 1.193797723302181,  9.661249261600892, 87.671468123478888,  4.650269941609442
 0.917392769053955, 14.014491111145897, 90.819980615083239,  4.976345732420403
15.866952628309342,  4.993711302401746, 32.045131910631127,  5.089880618956018
 0.078537173273010,  2.309019498928479, 67.378422554768093,  5.016767660491227
13.947806288781981, 16.414078595690434, 17.721674413905451,  5.182749863100597
 0.883154340596571,  0.491721004197539,  4.060288005292032,  5.288457276142020
 2.409552301720254,  9.959840837500806, 110.287777594374418,  4.862631527609023
 5.668806841912056, 16.945991923097484, 72.944162286180358,  5.072254599828058
 1.899793808585759,  4.579934603421538,  0.916679314628974,  5.004950364519618
10.814009665731627, 11.649769069758538, 24.639038828111595,  4.774314916632419
 1.616055221342719, 12.804270098043478, 62.467937902179052,  4.899600182527025
10.855834681640092,  5.250092433088377, 92.511599411343170,  4.812320094294807
11.025067502051787,  8.634306963547093, 20.284195443356605,  5.291162964348461
 5.566058823098566, 11.298093995341564, 22.097703566277964,  5.102504415458908
 3.286367707231840,  0.917633027729896, 84.484116404834964,  5.194111255949006
 9.897369402964737, 11.036789365610122, 68.337857997198626,  5.383878033222400
 1.071742926291413,  4.720713629889828, 75.048325698629824,  4.997292294529185
13.176832691746482,  0.138039413280132, 113.592818746735631,  5.358183127156976
 7.000044139456456, 14.001929287610134, 13.667093288357142,  5.162113653090772
16.134414370197625,  1.544140220846447, 97.542597468019977,  4.830587598511212
15.820277422641372,  5.974627399958226, 95.466936617721274,  4.949021971083090
 7.044640531882048, 16.557914247503234, 22.935123141375342,  4.974195179482372
 9.739078550333389,  0.152786927673762,  0.185318400910639,  4.989456072446131
13.543284184501527,  2.665459215472085, 101.666282013303913,  5.094893250703769
 4.010496820945853,  5.021370213567044, 87.690332417547893,  4.961169021067967
13.788291046581909,  3.439642328457793, 22.810012871541595,  4.899783538796670
 1.628149118513453, 14.219063038483862, 57.454369186934969,  5.329040188821665
 4.325908534167949,  1.953067707813272, 104.743066979341336,  5.075036445960333
12.045400852206127,  4.753352396524767, 71.368367537766972,  5.196112194275955
 1.954441287093096,  7.334563621537121, 43.397649232693965,  5.237820008314162
 1.723532001815423, 16.772486271262661, 80.511685409237003,  5.130643520640184
 6.636343152560474,  9.561890602819787, 42.551613208808625,  5.259373708997980
 0.838804047914737, 17.029195904071692, 44.389061625155016,  4.955822481101035
12.148108129005255,  9.195200751452274, 110.133173100638004,  5.084098145807776
 0.275430730862314, 12.191585122655843, 25.062905809797527,  4.850952224737782
 2.104414168443878,  4.198201514423246, 48.708359801685667,  4.992855264372283
 5.071014825601011,  3.460620529598389, 55.451423667502340,  4.980765393018837
 7.221851606697472,  2.210164592698024, 70.473616698749495,  4.862820330646869
11.692454203230994, 16.614945816196659, 40.028040888242224,  5.384737575763020
 9.040939578584450, 15.610539757419879, 95.795502582889966,  5.227144335646225
 7.552361840579463, 14.983706708038035, 51.370946568386060,  5.304277065217502
13.775043455041383, 17.841536309681647,  6.813614803568449,  5.221587130611283
 8.785252934658100,  5.469402094869671, 17.053020361653992,  4.759789716261265
14.623154366758049, 14.377757067248936, 22.697531485389643,  5.163637194158253
 7.278786267419663,  8.297488008882713, 71.962864524894428,  5.083343359574980
 9.299465126046858,  1.417066882105541, 43.166915044303764,  5.124964509129556
10.029342145983460, 12.120765736370181, 82.810280764355966,  5.182254488118723
 7.949260222636584,  7.327740049463253,  4.918170139253151,  4.960921507235195
 6.577612123605673,  8.873715214859207, 50.853696468280681,  4.859628357576402
18.166679159497580, 17.055692328215663, 76.142266194380696,  4.781246553842289
 8.457912468592593, 15.969304723413591, 68.890752936956133,  4.947357513341530
 1.459761949637033, 14.956263380183652, 109.433816465719644,  5.014205449985942
18.464650991769350,  8.344140859956745, 34.647499978313839,  4.847446554706009
17.001305993161267,  5.065649045641798, 70.965478746306445,  4.734661757965009
12.046933211244802,  3.346552338522092, 12.352189878889707,  4.933397218661248
 1.386845485525401,  1.932346520234047, 27.731683993247501,  5.217901850470450
12.895547486651568,  9.156849637736734, 79.347074166073170,  5.447541934630483
12.869281257694185,  1.672474820929713, 34.037583062541344,  4.639757537096095
 5.753390126343918,  8.781833337329310, 37.508043323492466,  5.098095757247342
 6.066327640161336, 12.220317563917778, 86.472674870525694,  4.992415965319884
13.322716203881786, 16.026998933800407, 75.713107106920191,  5.144251066895342
10.779110579079754, 14.951170905827896, 10.203225562397579,  5.254574167245297
 4.971564278576757,  6.359753814597375, 20.067693491105825,  5.020013603323328
16.699365426299025, 14.455343347409512, 41.029181285903832,  5.214542914448699
13.334590297627445, 10.394021804712013, 96.777352021088220,  5.521885382313833
 5.197189349139005, 14.977727064950152, 77.467858797856806,  4.772233000225079
17.368753990767487,  1.084003019541300, 110.104141985501485,  4.785799216467518
 7.483348099798291,  3.384728718200346, 84.736131979269587,  4.554355638758122
14.047252556382688,  2.137280869894367, 41.644436184813195,  4.908942823483089
11.429646036171455,  5.573507163351541,  7.991871072950327,  4.932636735326536
13.549193336819942, 13.252420239711107, 113.272227692642858,  5.297900588351887
12.699900298929119,  7.339503340260929, 15.046578110731211,  4.783277323042822
 0.075809038903635,  2.404752517385857, 62.485700223993113,  4.765349909021269
 3.238626421564152,  5.388478197941266, 70.410371847422084,  5.324869292540908
 9.842148140400296,  6.312755952303887, 113.471899360295751,  4.867275889507506
 8.107566194952797,  7.571805131678365, 24.403628922323840,  5.019239288292540
 7.475828925415986,  7.720428724616172, 58.640089766569083,  4.769156511785727
 4.654088566681925,  8.768500084662634,  1.411218165453483,  5.069618552083196
17.755255529124547, 16.325948693152689, 113.658905281465849,  5.132302481552410
11.346532886488234,  4.633675809980210, 97.448500061545232,  5.185817890524969
10.195704464900020, 13.769852186200405, 20.203313588310731,  5.058112912434113
 9.715479044938530, 13.042283645923666, 77.773913427957211,  5.075113218790817
 4.484258885530164, 10.729472857756404, 90.837109078374780,  4.721187255389710
10.688529033033817,  1.332456496453665, 66.858691240552076,  5.276997037438010
18.746722282986401,  9.570578594156444, 72.094147623208968,  5.186308823768845
11.409664182107992,  6.592227318793666, 49.745148750357764,  4.747113670161917
12.176204902660473,  4.300793055127757, 109.795160354203304,  4.724777179823707
 0.630656141892010,  0.646029067355830, 12.406720291006444,  4.791007217962460
10.741567792577186, 12.137005086913623, 87.901459172824161,  4.785510109586316
16.335385977048883,  8.162447887032585, 45.683991814197100,  4.745588573607018
 1.739034144737076,  5.751415224446886, 38.461252052654913,  5.136150463879809
16.943403450022164, 10.297964177515929, 92.890369811721811,  5.085856040684755
13.373595612763449, 13.603845698485538, 71.246012557019355,  5.013853620731570
10.711803088775453,  2.781895030302284, 38.131727514238982,  4.858890564464482
 0.478632098639464, 14.740426981208621, 20.639738117598615,  4.826429310428497
 0.393530273047799, 10.422325042697626,  3.797557626644250,  5.232818900414292
13.809378535486664, 16.232298206903920, 32.032707631061328,  4.771376653597619
16.759220262635608,  6.738567006571031, 50.490605606414022,  5.306672103841113
 7.700379947855418, 11.294538291153994, 55.142226893676188,  5.241003803978453
10.249777143162870, 18.546894443746648, 109.235183764977833,  5.162883782077973
11.090446244557684,  6.511046019630515, 41.386731437941350,  5.068837332416654
16.968692247793580,  1.369426656528960, 116.981982742677161,  5.079983014847675
 0.527262087209274, 14.503606157791170, 85.128620483383116,  5.425323619029815
 3.843855123746674,  0.753733355646586,  8.620884919832246,  5.140984923969695
 9.063825613868126, 15.763627660869322, 113.314697967147737,  4.982596771225013
 9.176753801885299,  3.819187150014232, 21.483255508132110,  4.725043735897356
 6.686237048179271, 12.140446424221945, 47.072390299974444,  5.128088856077521
 4.611487800767001, 18.340360553303157, 15.273662355283401,  5.246289672833809
12.122502029833960,  1.661331702025184, 83.991162826176691,  4.974274298454563
14.009995485710780,  9.443057658156970, 33.073985585434528,  4.756926847739757
 6.978887055520278, 17.921159782446505, 39.663123649278425,  4.399359572258223
15.571162711811294,  8.485570808206694,  7.032118895710091,  5.170567729979667
 8.200271824054893, 15.410421798517731, 90.668826499159820,  5.160901117612820
10.267849736064537, 17.880472114499007, 14.449184813166106,  5.089773621830539
17.520768890496178,  2.774719188215303, 45.203040196267949,  5.111161745078699
 0.251475896080869,  7.752124980744988, 15.150422753414169,  5.054372032618235
 2.345693531762623, 14.023075180356468,  6.539625056534088,  4.624180809170930
15.228277904963210, 14.208975089042845, 57.236200990747150,  4.990936843876603
12.129082324269769, 13.170499878543554, 101.158368069329612,  4.907985799807447
 8.553612469754555,  8.315074164566154, 76.745182681450530,  4.814933433266024
16.908549840552848,  1.256001233993602, 19.637484916040638,  4.896590669215758
 4.305059432476137, 11.592668584544917, 114.536215253424331,  4.997450180870346
13.018337859382433, 10.144819414928753, 55.456472580105363,  4.892282520746689
11.663149243677704, 18.104649527887446, 21.677406681096336,  4.552485929383601
15.759146230986635,  6.407746172952475, 19.046385501868034,  5.450512805363228
 1.437485196696807, 10.842790251239180, 39.509100240498036,  5.269646122666680
16.135711091965153,  5.210583129606585, 26.878546384429974,  5.128656020841786
15.152477765335474,  9.227175556998262, 23.611893362035762,  5.347216062700060
 2.505845719708561, 14.525913099034497, 48.212444623815280,  4.763132218818764
 0.384794694011545,  4.568313566740434, 22.746433462128614,  5.154690755813555
 4.410114127198688, 14.832107935443361, 98.563112295518636,  4.627014701998903
14.085993976733292, 15.711746156555334, 97.214433598638536,  5.253166367809307
 7.720353829470847,  9.084187723062445, 29.073407431689684,  4.815649082268429
11.346968198856274, 11.194268655123686,  5.994029477747517,  5.074228547454604
14.829190439850548,  6.534082859421173, 104.404650836797074,  4.721224174764624
12.097443042360117, 18.276908133554446, 89.278397563754382,  4.887060210905824
 6.568764098891586, 13.815155262045556, 37.302509467080796,  5.107833869040938
10.268982767409833,  3.145190338079221,  3.976513294423678,  4.725895391780518
14.418432775234736,  0.044164668943715, 54.689918145902681,  4.912811474082396
12.337449419293744, 17.075201802426761, 60.442088545719244,  5.130003078915385
11.979040783266212,  8.357023799872103, 64.410616769426184,  4.925793007644340
 5.761115854007615,  5.331789328750705,  8.693250322493009,  4.629934948573585
13.956310464353569,  2.156969548452886, 49.960055346511595,  5.483530763211224
 2.816515970003167,  1.405138697098447, 91.475144274769761,  5.695179215341780
 9.572531482004855, 10.302042762752249,  0.892822267843294,  5.265368702694677
10.146012114420161, 15.646253517589328,  3.945839093522570,  5.012135436090554
16.228832404434886, 13.726123641179994, 14.047654906344009,  4.652938427199845
 5.956324230890875,  7.066278860237468, 97.512438394240050,  4.837229219099467
15.225170877594245,  3.301511262765943,  4.140287352595626,  5.186017676147236
15.196320251520882,  0.374305487362456, 64.777966373643565,  4.738315359507864
11.639567573998901, 12.282506747206815, 15.441750101703093,  5.323285962042655
18.536542109689236,  3.713358009147230, 105.217486073448356,  4.734984257195498
 7.294835486695965,  1.871467471675895, 113.210707943046046,  5.383488560968045
 5.909588459948750, 14.888068448451801, 82.378005367735838,  4.778726856667426
 2.840372979321628, 10.419085685603628, 83.447497632993759,  4.539110879235866
 4.382490597036272, 11.207292359930928, 95.551351317197529,  4.751718485956538
13.084391280350884, 14.264159854223589, 92.244611824350883,  5.282455476376998
 0.291422844545144, 13.829023839666629, 100.298981417456147,  4.529375649280314
