BANDS
8 8
NANOPARTICLES
cell(1), 18.744
cell(2), 18.744
cell(3), 117.148
 9.222750637774265, 13.313742677838770, 66.389694196409337,  5.323864243015433
12.745316679524327,  3.480660213963428, 16.060509102020603,  4.830605380517202
 0.260651927526344,  4.249411996303668, 31.420483834304640,  5.117633460402359
11.046739414701033,  4.844924497634707, 56.412619686320831,  4.892715716417246
 9.210891223850250, 12.180227084076797, 11.278652376856241,  4.940089036795138
 0.098941475219661, 17.138065863144874, 51.508927310688271,  5.121848885821825
18.714590875638741,  6.520109100346930, 75.492637151763375,  4.998289114559438
13.202327239839565, 16.689626473249998, 116.238268310750072,  4.729347867095211
14.345441007484343,  1.778736555804616, 65.038381976880231,  4.972994975410125
10.255129255576946, 14.664736392660839, 37.758714344236907,  5.212117534865752
10.438573711724944, 15.824929409237640, 16.132228106552677,  4.871353058195623
13.330201200565076, 17.024646971402614, 105.023420813192502,  4.709967371251625
16.493592805552449, 17.603721424094751, 86.949079148411130,  4.854245580993178
17.784615052104549,  4.773749533436029, 22.487106670127474,  4.673865559319981
18.037917703419069, 11.297278563378299, 82.120213717072176,  4.956093869297682
12.155894247178782, 11.431095336985608, 28.626179471032142,  5.402403647561112
16.083458485840524,  5.649905472356399, 71.472861325540350,  4.760939251401429
11.315198475796642, 15.570432759653952, 70.665537328301312,  5.207409441644065
 2.341314691943889, 14.351568784933292, 14.460478722182064,  4.555871049187593
16.104124244064863, 10.520949772450718, 49.848019294369919,  5.013290790520411
 5.823422846501288, 13.160768730613206, 35.006209219555174,  5.464697554391114
 4.662432142712871,  2.699555626676417, 68.458984744842340,  5.037492433596840
12.426827559711132, 11.245312091277786, 15.655153982501595,  5.110957681457389
11.269309987048137,  9.741063900321176, 69.323453571277099,  4.775667070649391
 8.779158721089317, 12.748295204854825, 42.659673414942183,  5.348355996350098
16.309802751727975, 10.435234635970021, 55.730289616802608,  5.107158401497794
 0.339062030074575, 13.288998992307492,  0.598463571316112,  4.847014497877176
18.175628280842236,  9.050140974859019, 109.936643760129812,  4.874509594683546
17.313385465879080,  4.303767313434840, 109.478608566259894,  4.813689710882423
12.633776230422436,  0.880150498229177, 100.984862893092782,  4.995885796091501
 3.938424287547795, 17.338662126440596,  8.592396602390229,  5.235063671681371
15.817683464427585, 10.682434683493453, 19.500207146365835,  5.008461578803921
16.637953383676894, 17.871838885143632, 108.440667643628259,  4.841542603327188
14.035495046369817,  3.494621715843203,  4.907723894903570,  5.415564031455342
17.798425169345805, 16.555627080440942, 114.494727607379048,  4.704743331201850
 6.905303272617848,  0.225032657118093, 84.860297607528224,  4.759176016254711
 9.296479758175785, 13.183703457242594, 20.313093514112101,  5.274723058891873
 8.585925705187647,  9.876514941367077, 37.914517940408089,  4.900350803426889
 2.632274244628156,  1.968113985345959, 27.513295134664379,  5.097457055539804
14.442485808008206, 14.463168842894239, 83.662122979670940,  5.093341501866605
18.562226930608855,  6.187654679189366, 49.706864112284578,  4.954427115130030
 4.197354920463754,  9.762624535018022, 26.756593730215425,  5.228930945372742
 2.303668639296780,  2.802050691878485, 106.802252712251800,  4.846943148719979
16.469585225674241,  5.372788031532631, 36.360937465826559,  4.929778759000767
11.504762952594216, 12.112819388773321, 115.756553256595353,  4.970655723873524
15.728769067739730,  7.275115830923565, 79.726536245908434,  5.471120165161236
17.437494942584223,  6.258140771136682, 113.937316506435963,  4.895139671191367
15.976191579558257, 13.121001101231727, 106.349730975623558,  5.077591095394394
18.112917631006347,  1.428157255366256, 38.783184959324963,  4.891986168020916
 4.495681282142924, 11.611914274755851, 45.359366575030336,  5.028344020320749
 0.444567063821242,  7.485983627570292, 18.176374511377531,  4.644795691809599
12.596863416974598, 15.859753505474204, 43.315913114021683,  4.573057406433310
 4.562501000854205,  5.473673028984649, 16.319706379513779,  5.245051017812185
16.941407052482614,  6.054640689026817, 93.459571030695770,  4.730411424224997
14.596801806704839,  0.959031611761841, 70.156456587045469,  5.394372927430858
 6.122967061319206,  4.681203650163659, 56.042838622452173,  4.890436317380322
 6.455714911522785, 11.647809926357549, 15.905287062269743,  5.645732269108887
 0.220265634619687,  4.424656293583212,  3.216248832540657,  5.163397747810146
 3.870701465373571,  7.755023076091332, 31.496368450863724,  4.947349397460117
 6.229359431344575, 16.398701043124177, 40.186851854155492,  4.808266144945115
18.365628276714496,  8.824660542753278, 60.001934958003481,  4.902540478756926
 7.523027898023594,  3.164273059810129, 80.788025531601875,  4.811318044095720
12.296585598026059,  3.135732229988436, 79.318137016549315,  5.175631293443690
 4.878518694028994, 12.004421482357689, 95.198873568369635,  5.421431662332435
15.114622820955669, 14.223118222134495, 52.845824963253527,  4.710499541752581
14.206942955723582, 13.690057769399017, 59.111833207917719,  5.169696949100510
 5.774868997193188, 10.771915617421849, 50.299763912122309,  5.164604281771568
15.654989514229401,  8.370109596166214, 88.851848545414029,  4.261708124531265
16.285660565184177,  8.244330413523331,  1.181826848385876,  5.005330543495964
10.984825256012513, 18.229214725619350, 59.397612836280594,  4.563007560082887
17.719734344792009,  3.217361767488962, 16.314390720310666,  5.112014106338838
 3.497610490878794, 13.494290322677605, 77.698825588372472,  5.012749345184857
11.571887889978086,  7.151893611645607, 43.327799068629524,  4.780670836881950
 8.402847246517537, 15.667751228516970, 94.454132737251030,  4.853845028162672
17.644828498630567, 12.140419967497181, 87.016342492536452,  5.009398476342579
 6.584696469794462, 16.164292596484710, 12.936957276116809,  5.160687174420712
10.948895988088477,  3.023337305549880, 84.371982220830517,  5.106900126358769
 7.249558834665383, 14.429436496977091, 86.870864996249324,  5.127794305446106
 8.301439958990402, 12.933160755816504, 111.952073721361188,  5.106518219556717
16.135938372127452, 15.989375872507242, 73.306608602422386,  4.817372135129350
 0.317607045921389,  3.273701172527249, 43.088311340088907,  4.660846649311842
14.066245179653576,  1.239184219155985, 54.962418061700888,  4.926850591309380
13.258455373079645, 11.763920161011438, 79.700095629582535,  4.771748582423985
 5.514995825774071, 16.366431683181165, 18.491912572311332,  5.247515427663294
14.143056729649619,  8.690291265326790,  5.722032365522405,  5.063744713156504
 5.379224723950054, 10.887997657824267, 55.755406104961303,  5.418754902069584
 9.135861499328723, 16.974950607394788,  8.506555310981367,  5.180071490727761
15.009999331632073,  6.058765272224000, 19.140776256251488,  4.388527437321671
15.766360454972494,  7.651554272311607, 14.882766326520507,  4.817781958191018
11.962825735708217, 17.374059483056143, 51.119241343070961,  4.841427633265813
 2.742502175206517, 17.185229870163756, 31.211346830806654,  5.118627998974256
 1.189888830176874,  7.640383183596351, 85.004736596765099,  5.100112605101406
 8.888843644929066, 10.438754896757446, 107.525097961760380,  5.111530324064502
 5.416387963751442,  0.634016407384706, 94.958234554018944,  4.716783216502566
 6.460451831213657,  9.463555342263071, 103.262173379856335,  4.891777634393528
 9.684873125588647,  4.507924732531350, 34.317535239240335,  4.917462000758434
11.746684421397031,  6.120902311156692, 38.548071703165995,  4.977630945711200
11.819737580576790, 17.296191159070172,  3.944227397587226,  5.421094917039670
12.407054856135870,  0.661104620693930, 46.544778705061816,  5.019268059365317
 1.072280348472158, 17.810645572976004, 68.892836797299779,  5.055489824668838
 4.643045435208864, 13.281146312970494, 22.511107831495444,  5.014116322452995
 8.374555631442041,  0.795886825766151, 37.209484008597478,  4.805102375342123
10.352713848353366, 17.535746998331568, 81.564384368732490,  5.091752380644026
13.201040159963917,  1.649462670555799, 36.833989119046848,  5.020703429648283
 6.598535516508032, 17.991305139424483, 28.315480539817056,  4.654585562612880
12.613019813422071, 17.410144055790436, 96.605663903559815,  4.803636915538608
12.603608113375071, 16.035604188169760, 63.433879569614554,  5.167499674774394
 6.624714140041820,  5.500755114756634, 37.887589870154748,  4.688889493349327
17.078433203594368, 17.840006532254563,  2.283843559748656,  5.575052898783226
16.040865109493254,  6.659455847690291, 41.215538584054315,  5.149855452822911
 2.070628179586140, 15.212859082610457, 26.483327392199119,  5.206602586133224
13.138738237385876, 12.653534678160367, 23.675749277316001,  4.980455178854324
18.467767394727314,  3.871354544899513, 67.387289120304104,  5.334156039238221
 9.719427118672566, 17.565091348380424, 112.656699650936005,  4.679151369209747
 3.862282205496840,  4.928561660882733, 23.496621934790092,  5.163761018417205
14.831038375035838, 12.463177424378873, 35.906517178262625,  4.661681985789254
18.391570003396357, 10.560509349353422, 92.409644251319378,  4.958913946811668
14.133490344104697,  1.878344469799803, 41.870058810797886,  5.199474817268777
11.262521854677910,  7.845460998616307,  1.603307729682138,  5.059115979293683
 6.436465678371118,  7.173716725726471, 78.297052066850085,  4.854191073782029
10.307601335004490,  7.894013127039582, 64.432022813797360,  5.172594723860979
13.369839745415270,  8.216998771047900, 59.383635453782269,  5.215146965311052
 1.245948954225890, 12.707273842970180, 57.838333366856148,  4.515168200196611
14.497919321913503, 15.039132753587278, 100.542209977771051,  4.937530441400624
16.518820735419318, 10.549210218909389, 101.588437755203032,  5.123275705735972
18.660136265043452, 10.753326798285944,  4.778238218451632,  4.961721513897869
 3.175215169622882,  8.497326716955969,  8.227859609941055,  5.542533871549867
12.599759471175904,  5.601030876924996, 108.495767414123065,  5.133787556265910
 5.804960024105698,  1.733860655089123, 113.654885957914516,  5.207552088510647
12.394248367879369, 13.386274553412752, 75.141583244213038,  4.974895380193971
 0.160366503966598, 10.057628103668479, 97.249050895420012,  4.825219714669336
 5.818473277862279,  9.666485901688377, 65.736513063557396,  4.721132817664398
 8.834963808008297,  8.349895121828787, 31.246622980909965,  5.061943917298574
11.287679405705743, 18.228541390807681, 75.003775850253604,  4.958354726232436
 8.169799902130812,  4.271257704702426, 20.674293259427674,  5.208151201878088
14.050076392289705, 18.485479243659722,  8.435692913212101,  4.885211492088557
 8.230590817589231,  7.391427513739777, 59.717001469954177,  5.163714498908383
17.409300237851390, 17.891821580729577, 44.317606768759767,  4.546550048075113
 5.757079121519102,  5.049775351501627, 72.688586591978350,  4.877508684832049
 1.134740075313548,  2.577562135146445, 94.703705418471046,  4.665888485815549
14.428378234268472, 15.025611347178726, 47.660052674127400,  4.864752259671345
 0.603276835247093, 14.132635870681982, 35.072372668480654,  5.106316499833843
 9.179733799743554,  4.523335366282926, 46.729164044312185,  5.052672453751951
 4.399078476161413, 12.626868178328589, 108.955163599746172,  4.752282391129706
18.681199622799014, 13.917851471704974, 110.515144266863174,  4.976037137076415
11.153363490879217,  7.602859450061321, 77.434052392441203,  4.774455591991755
 4.710745849173386,  2.624301665973228,  1.649891756052307,  4.984381859997253
11.875715457882334,  0.719425250407004, 108.820008796941877,  4.748052239164217
11.261659991759771,  6.526974050661008, 27.293810541504794,  4.890025835884382
13.862097438171356, 15.124390913935889, 111.587620985844310,  5.169786615141069
 8.457604293724001,  0.467872087351291, 55.589322213770757,  4.759371237344371
 4.075182153890533,  2.087777628625667, 40.248409527473164,  5.042536738611763
15.484430959441607,  1.982432304539679, 50.265978583214171,  4.992856186986927
 5.441505351320398,  0.195024230862301, 73.382302425754688,  4.915375512386540
 2.142875097671022,  7.837475194587056, 101.198994361150227,  5.037721151568380
 0.000867022568490, 13.195183956282769, 62.514909791525241,  5.204543493729522
12.746205508212141,  4.255193488747682, 22.739262338321403,  4.828877947488588
10.358619668344902, 13.470234820239646, 98.359969094258886,  4.920665046952891
 9.319160982710757,  1.325211267230284, 65.338311640102390,  5.091001233021705
 2.487401171359499, 16.745359046103115, 107.415751818792998,  4.830880234020572
 4.286711276478036, 11.507933257960302,  2.728572010501593,  4.795954299074543
12.437453849091330,  7.363836783712544, 49.067120107473279,  4.772561101579824
 3.786150104515218, 16.046482900462259, 55.209366846287992,  5.250012939904252
 8.389018153909575, 17.238636066078893, 32.811757643000554,  5.115078027868982
11.986564047023725, 13.002355629974517,  7.126647170154864,  4.965685536777559
15.597020033179284, 13.522202197859132, 95.853072025029547,  5.110288784067904
 9.207486437012298, 12.243906271156968,  3.043049370507626,  5.007128049641211
10.753481470944303, 13.275547315284006, 103.310996933016199,  5.003935438403407
 1.353802526509766, 16.207139576172146, 94.799957614303338,  5.570098846305777
 4.639358291934311,  6.786604689553393, 46.883078511701683,  5.064394053602100
14.963553634812266,  1.230099410288368, 112.548126591556979,  4.957463159757705
16.900426783744571, 14.951759307123446, 90.939364526671241,  4.756171837175799
16.165688663269961, 13.110841262660863, 31.367983042422384,  4.871114824071157
 2.255080342626151,  1.392579717464069, 58.077323193294234,  5.150513930857227
 8.456902530784228,  3.197441070551731, 76.149891831198701,  4.650708618294265
 2.161720532449644, 12.268156484285383, 30.741881083620001,  4.820658498242850
 3.983677138926137,  3.422145688442274,  6.641281817743410,  5.178415749983159
14.501879410405804, 12.852142403419762,  2.681115439698857,  5.240695763015543
15.342074646899020,  3.736210675040406, 11.702522558683178,  5.303437829201409
14.863025279982919,  6.093510040655152, 53.280014105354510,  5.273799451039576
 6.692361479146311,  2.434427580103638, 11.135099178133869,  5.494335539794937
16.273765018795665,  9.958426012382859, 10.286912272889685,  5.321633235230901
16.624647705662163, 14.576706042385283,  7.071281764244916,  4.826632392462304
 0.343917825076211,  3.014797010040256, 102.219445121265892,  5.127396663811220
14.656464419124545, 12.164671876303556, 71.231311244954313,  4.373046259889851
10.147735235714720, 18.253660030800887, 20.419863772391111,  4.972854911303792
 5.201979644753012,  2.344955206751942, 44.970737884125299,  4.670783899840623
 1.792907560659603,  4.412343345157419, 11.462086461003238,  5.072080972516867
18.532189348585415,  4.543605479018366, 88.949399554273342,  5.299336861409301
 0.444310582770973, 13.701864463610695, 47.478831425265767,  5.018269305278472
15.606792050661562,  5.011320636015082, 84.705687060997889,  5.043157122072888
 3.405457184581761, 17.815587392869492, 98.951493314928300,  4.219334753777108
 8.165338406355268, 18.054075744968749, 98.933621889802978,  5.304606016099994
 6.416716624993317, 17.779717274700364, 90.521543940945079,  4.915820237058095
15.704270701578624,  0.518288577668687, 93.104589810738105,  5.175909629852441
14.332671479004158,  5.770074917532612, 101.418847458545102,  5.391275083051991
18.513707508108268,  9.832122620891054, 71.936940759888344,  4.723690242676091
 7.058608349388290, 17.691750312832166, 77.826368965848147,  4.865243095069658
18.198688577445939, 17.862289529183695, 11.551519475659239,  5.555594000547868
14.880379431131413, 17.859047199186111, 15.610819635103159,  4.926057017919282
 3.326419947177500,  5.259964598280638, 81.329464768402858,  4.631978901869935
 2.463309472621131,  4.045049406974564, 35.943679213266499,  4.943666011282198
 8.776108531899826,  2.892489415161723,  4.755704500629549,  5.175791291675679
12.684400834985945,  7.811388026732905, 113.978065141692753,  4.589819272408469
14.046224037801112,  8.762403424153465, 97.055575601474246,  5.185893885210446
 7.488619453386367,  9.296344829409543, 86.454509484038056,  5.176749942707188
13.670282328500797,  2.600497992779136, 88.804646199989250,  5.171572078776698
 1.957506345075195, 15.129112619291325,  4.655990928785112,  4.623933722942456
 3.191918628824620,  0.667137771423453, 15.005887684744549,  5.077449253692780
10.378267064003341, 15.064531130318789, 108.081737052635816,  4.649344562702008
17.563633444893004,  5.835483018529374,  7.737393094949236,  4.709255060861224
 6.848890503951585,  7.726252611443527, 12.122549635283587,  5.275718087059513
 6.170498310312391,  7.168321738214344,  3.975647397397013,  4.957617113660989
14.920356671905999,  0.557525478436719, 82.699922627762547,  4.817762246271417
13.019993124221806, 10.780125053236302, 40.188527046980340,  5.223120886431968
16.784302653442023, 13.367123956120661, 15.633867290780499,  4.570725673215423
 0.072632255489931,  8.789308945165336, 45.202672966144867,  5.453561745397669
13.417888079615716, 10.745947285207976, 45.794359012146799,  4.682076847183960
 6.779962803298273, 17.925708710578323, 109.046358520043455,  4.639974773750487
18.423223592161445, 10.657886753206988, 38.765944006660952,  5.169432527111807
13.934609628799357,  3.922606139522500, 116.749398514475089,  5.223405316100242
 2.781793051880439, 10.754552615714443, 113.214571109319039,  5.098814881756000
13.360776395737728, 10.672361608988359, 92.246878986171737,  5.106843021777657
 4.412111274730138, 14.202400813196279, 64.820430414265019,  4.946137650460514
 3.282375134839586,  5.865754907806477, 112.351541650051843,  4.816619581906172
 3.190092464008471,  7.571580760663588, 69.315868079317212,  4.985945064248250
12.194994544202844, 15.949957688310700, 91.406577701485801,  4.886957362706172
10.710515576112480,  3.438142042282666, 51.600151914535125,  5.138498439925197
 2.105878432750133,  9.055844097887219, 78.971780033081799,  4.600235715244952
15.242176865632937,  2.666017309566471, 105.409054520786896,  4.881372053755910
 9.487517496039020,  9.765473257772449, 95.212135502350634,  4.815709596332797
 4.661355217388700, 15.774964263048629, 49.502497848911673,  5.209266148060085
 4.503099524504799, 11.833156581368346, 39.878299042277746,  4.953702985090730
 6.904383787330242,  1.940897585811670, 60.131006805297773,  5.068777486146168
10.174813204130221,  1.442925009659827, 93.282248206050909,  5.132438891088127
 3.250165940547022, 13.654782251067752, 90.272165632403912,  5.450580949732075
14.126229121513889,  3.659226570790512, 32.394277394413464,  4.900207830721390
11.582938206659350, 11.356900173697348, 51.527328819520342,  4.750216047234243
 0.548274298154600, 14.299178577851233, 99.630176070759020,  4.932409153705052
16.750533736939602,  4.450657608009299, 57.935478543497588,  5.293024873159051
 8.855839974194465,  9.466125652537299, 46.569008943969642,  4.855591883964678
 1.503469233207850, 13.126270432331824,  9.964352003478403,  4.859216856764499
 5.266387717248111,  4.809249346137011, 85.734504634477460,  4.931909259654108
 9.453300505266157,  7.183122357645213, 16.598596780747553,  5.128082920684125
 7.643320436859602, 15.263910234356874, 116.428263378492971,  5.072183586323191
 4.096028488958953,  9.529365659508906, 74.458908845897980,  5.293019390264337
16.840000857149228, 17.467868021633461, 28.954372744730357,  5.180577673167716
17.801923243619708,  7.059674616361872, 105.269180069847778,  5.288177886572619
 4.048027667809849, 18.673520276337591, 103.312220335343810,  4.758029297141098
10.586136514458117, 11.311876294376043, 56.347542950759561,  5.088620237754385
 8.662510703848993,  3.056671158783007, 88.801042073586601,  4.860141780503978
 8.587312971309702, 12.223250684528413, 91.098573766000541,  4.770623910622862
18.274985577024268,  2.682902238260119, 79.785548638531836,  5.030968219184614
 7.586454467405270,  3.922564464584862, 108.612612087871810,  5.007192779035916
 7.713406940947746,  7.339133774471012, 91.229909725464879,  5.154438910083490
 9.661899236569576, 12.074293080989889, 61.323521791451412,  5.138749961878021
 6.902623651908520, 10.381669208947821, 115.992675247376127,  4.836073796459175
16.259905236358485, 11.194272818438536, 114.112847783448288,  5.255020600703015
14.662600316096579,  9.073008415004926, 74.581876209787680,  4.734300220743036
 4.410296177171363, 10.734159741387215, 61.035729599531479,  5.308917249815421
10.050927598857744,  2.299341509950462, 29.855360710545366,  5.054412068567737
15.049756065914124,  8.157673845284030, 24.591483394234718,  4.959973348142155
 9.646440278531664,  7.454814563940191, 82.150675045416151,  5.125501059805256
 4.064398315566552, 15.689174411541604, 112.819328419699076,  5.117074504294671
17.291523468857477, 12.589319592085339, 76.913740350938269,  5.104633137349324
 8.907790404871291,  0.770619526318587, 104.646229502621807,  5.453424636474677
 3.679588438933822, 15.888516039151675, 60.239714611770694,  4.783946709133588
18.189858423869765,  9.166424168903621, 33.616077627426925,  5.025877127509205
18.029861959931594, 16.977853601988688, 103.652526229469260,  5.053427549612639
 1.515539158821643,  0.881888824516679, 111.171896641432085,  4.821572765883603
 1.555432855169569,  7.401253201564343, 55.718433027104652,  4.915497715536580
18.356036903999239,  1.127514198125229,  6.836955379475913,  4.694937884686916
11.918713950545289, 16.493598514955103, 29.303948120824597,  4.785688225397466
17.292860699317401,  0.496216723528855, 98.162751319993788,  4.636283848117022
18.074193594744202,  5.402854131786583, 98.014907164964924,  4.747056942090558
 6.486937110718600, 17.007428569792456,  4.005733080806313,  5.254927371410674
16.719222903652764, 13.198454596176528, 43.004776925583798,  5.248142126295962
 4.035696456385015,  0.381483256611457, 64.016083697814722,  5.054681257686027
13.094478575089113,  9.234523435528256, 105.043907459811095,  4.937555488752563
 1.297993872744666, 12.240170553991840, 52.628739101109403,  5.206924414731148
11.340917302289837,  0.482037497189496, 12.463175479532222,  4.932299395366581
15.391366815586323,  7.624849177735260, 29.821653498746464,  4.868170047310089
 7.617618972276514,  5.622307835876089, 116.246066341700498,  4.802452581348588
 0.404308245640169,  3.049344677839628, 53.563785530558143,  5.050464365696417
 1.119800740066509,  2.461906644381929, 84.488884359650143,  4.889257205060616
 6.043105921812542,  5.047134712884715, 64.081188367936619,  5.101938761073606
15.636661709448058,  2.306934712822382, 75.289961785694288,  5.419512140369624
 0.367582432473994,  6.412274845459236, 26.855832019677216,  4.948988332948987
 1.214328994580799,  8.240737655149536, 64.715277409357356,  5.113660077031633
13.799163487995443,  9.547772690962562, 83.944018191211001,  4.836886434347503
 3.443908381134845, 11.780137166067892, 85.704953736903079,  4.429495409490625
 9.210119496711078,  1.550335857840873, 24.916159477783747,  5.077273134445286
 0.712904629164133,  2.165903277783850, 115.840572572220111,  4.991866779457918
13.327512427311682, 10.371297782935491, 109.928580926396720,  4.928701722004425
 4.051410752912584,  3.780063055373810, 98.605181810605032,  5.295389009491400
15.470284333813787,  6.363546818045914, 63.575656354900723,  4.867544263263518
 8.109950617232109,  1.558593941354502, 16.226716056593411,  5.209940190085542
15.569829930538614,  0.170409175996655, 60.500908871179313,  4.960420152291213
 3.108840059553170,  8.499346335241533, 89.552045769334796,  4.911958772182738
 6.695601194717464,  7.873645403022727, 42.268146921683844,  5.270043126204992
17.509248497428320, 16.615798737274346, 56.440167253039093,  5.145554486607697
 3.841785244348665, 17.923781414832767, 36.125230936270057,  5.057505176429165
 5.502628680941320,  2.685348029225658, 32.141637416381570,  5.147324885275123
 8.210004761099890,  0.321402528681154, 48.852350630405198,  4.555272165678027
 3.997443277762114,  7.678849985744955, 107.532812990082249,  5.575315955248930
17.785902178892055, 11.269373379652576, 27.186547538143770,  4.798946307724146
 1.931076967850300, 12.003355277491281, 18.560721429763461,  4.864124351935430
12.076033593944729, 12.353466665320980, 87.629421527457865,  5.038453298930234
 5.601556046351964, 13.584457428379741, 100.324269149136612,  5.366428724351284
 4.739691047981530, 18.328349436919371, 23.268655112336265,  5.184835606519690
 1.047303372589476, 12.274967101558909, 67.931842218102844,  4.996419021612695
 5.513965424740746,  4.598831593874134, 103.490856264248080,  5.030437372478624
15.269825381066291,  1.056037738444316, 20.100149312258878,  4.879782780916256
 5.846999706575195, 15.048607444972776, 81.948071041102537,  5.181807737877691
 6.479837564226728,  5.291874751333242, 27.868907297132779,  5.049954728841634
14.376571360756547, 16.486107394591333, 78.597831026859168,  5.111104122567030
 3.435472526151335, 16.545613069633955, 44.555506857747453,  5.071243571541661
 3.630248313560700,  3.314020541262555, 76.863840690356653,  5.109826935816302
 3.006677548415734,  7.397580810307157, 117.136190819025813,  5.231855008564573
 8.711546141207076,  7.802583797015908, 53.213220589012074,  4.987704951785644
 1.132480412578643,  1.714087687512982, 47.694618322722704,  5.193586621991019
13.145169234715222, 16.420575169248995, 33.937201376853224,  4.792376882252771
 0.840198885096262, 17.705480138397974, 76.512897453396448,  5.202006122597323
17.769151793543486, 14.089381854177145, 22.571971478287974,  4.956493673860916
 7.892694674784649,  6.416266406787712, 68.543447252512820,  4.807649643386940
 7.449260316202122,  4.825908799348370, 95.293341679977658,  4.412502922944849
12.322357871893644,  5.842212013745876, 92.327967251330762,  4.771557645688835
 1.854093518084298,  9.349044395412058, 13.593018535840679,  5.629632454777698
 2.556949338998617,  2.288412269050670, 19.558881267737789,  4.647571383693151
 3.487984453636236,  5.892710874546383, 59.931769747414904,  4.788587939012474
 9.589743565489934,  1.167106068985969, 117.106864412544056,  5.089752147710055
 3.221570966562145, 17.018153774916481,  0.281333034063690,  4.600110878696348
15.572822645799441, 15.102420188415078, 67.573363417189313,  5.178053960515913
11.894889187626504,  7.973869565849194, 11.937284941501836,  4.831333520937565
18.429142889844126,  0.144034498903053, 23.812329328889131,  5.037392426267176
11.466298929348120, 17.265807783159971, 86.656724795664246,  5.040698552134513
 9.008788768184193, 15.191269664943723, 25.100608169339630,  5.121382674690786
 4.341537637101676,  3.514126114601363, 91.167514934669938,  5.035240704590827
 6.486863850618326, 14.952888898530382, 105.248481872577415,  4.942297299333402
11.776258892142057, 15.899126608414949, 55.553471205040594,  4.510798002570027
 7.835762517984585, 16.485202011361192, 62.375341947148016,  4.623406559277008
13.860045688707448, 15.185633280543570, 19.549209560420231,  4.807819985025603
 6.082016557714029, 11.678091656961561, 70.151467877291338,  4.995473047329821
11.063428354493993,  4.189703525301480,  9.023769708497943,  4.828940247557207
 7.881081966338292, 15.111583778460256, 57.884418259373888,  4.702110885703047
 6.059334996079187, 16.589871198645049, 68.930413516332450,  5.098765578964561
15.122941267051768,  3.257289433484383, 27.057644337412366,  5.222393965228375
15.935863551928884,  8.986016479976874, 67.812499810510843,  5.138074269347087
 9.134708899290864,  9.952339968009646, 73.679607638617668,  4.934745324101049
 3.585626685259816,  8.747583470356746, 36.256272220833658,  4.728783338936339
11.708140826708581,  6.879299180160830, 87.314251929235922,  4.694373503510329
 0.891491562475987,  9.357503784629227, 22.726554129992241,  5.220387426970936
 8.317379061741713, 17.525991505174179, 44.399302894268807,  4.861206623831083
 7.794664007250786,  7.842966283364045, 111.792455152024743,  5.094742098196086
 0.270630541054301, 16.786955353679648, 18.388482120622150,  5.262398283967832
11.530300205251709,  3.845595806657919, 61.408485633800602,  5.095448583040802
 3.139705200342374,  7.049554689709075, 94.622664913434392,  5.135823243357056
 8.977963998900604,  3.091162425744547, 41.713623812770237,  5.376783324960438
 7.117024558219335, 13.150990923137144, 29.672907907813840,  5.448215097984020
 2.206176190067590,  6.646637807486268, 40.312410010367969,  4.802508264908674
11.595684453774226,  8.630013236750514, 20.859776403277042,  4.763260895511920
10.092862981433361,  5.644531864065158, 104.361151850522049,  4.512795594448354
13.824627259174200, 14.526503654419749, 11.755690965974468,  5.450612100257216
15.029406719260079, 16.206832655631285, 39.092696220608190,  5.169843679771324
14.152967988655332, 11.157471242406920, 63.558988703777779,  5.054995927118168
 6.266507000288970,  8.345147403054709, 98.523172901447211,  4.845317207747905
 0.259698124524441,  3.201487887629411, 62.343487856910002,  4.895437254475428
 5.492435661454206,  8.726109662470380, 20.367342000310629,  5.193121161147022
10.582760793521215, 12.465606574161995, 33.321641260183156,  4.704915632387554
 4.254653570071007,  6.232196241418249, 51.811398711684376,  4.863708716609564
 2.241666291451437, 14.272577175817638, 72.644416007517250,  5.514864186089073
17.492111743580363,  0.079420883183370, 33.991830058098358,  5.134394928585079
 1.323500735369468, 15.724855734210434, 39.974412752607442,  5.098688419204147
18.664796544852713, 16.252297940616625, 81.399873981438319,  5.123736822051908
 1.297891426030826,  2.827714361594579, 72.306676186934311,  5.097577559359705
13.006648704605958,  8.274782854388167, 34.161142567730856,  5.116273457817468
 6.231546428104962, 12.829353327431816,  7.189724252281102,  5.259743906430045
13.471361313665593,  3.604514993455956, 96.647787497766174,  5.220267761877619
 2.092348626209632, 12.174267993073155, 104.337867035950481,  5.609548946840022
 9.908529965913441, 12.343145558888953, 83.175905363465404,  4.856904196150260
 7.471180764390379, 14.538758722094565, 73.968585771338795,  4.836465409475871
 9.459309807699423, 14.246435667517396, 48.059653809563848,  5.226329718406905
15.384312397414686,  4.776019854710917, 45.996129613459381,  5.184225679609808
 9.244679657754238,  1.549976586920637, 70.421649354675196,  5.079351762142814
18.166648517095613, 17.713045491722113, 64.341049127981321,  4.609275327039637
 9.373675045301161,  8.680319996433003,  7.607413974961582,  5.175925364117992
11.368124087818966,  5.490529131212495, 72.957143712261953,  5.127701905711040
12.590263245705970,  5.245400935121981, 68.094891936415266,  4.910192450460636
10.531176911633041,  3.644612558306600, 112.751616435294181,  5.104709244403707
 9.147161355912644,  4.401061781578992, 99.767803399174625,  5.186948524139941
 8.083024567554174, 14.384589246838404, 53.000113703837101,  4.961641339396971
 3.666962856579777,  0.508106842809848, 80.824551642630240,  4.541016541557551
 1.194254003188474, 18.591373011667670, 90.193302894507042,  4.805362195056912
 8.408002159325008, 11.992032876694287, 78.327451795265929,  5.315223641920499
 5.509956854415151, 10.113598851892124, 81.975898780292155,  4.701365213002623
13.571365416134739, 17.608157125291548, 24.735838987645419,  5.172991772825131
10.556698868210368,  9.138159438219764, 100.641899321256545,  4.846477768352955
 8.917973055611350, 10.105784332527911, 24.713343559256646,  5.070586432916046
 4.975345775762239,  1.343756601978152, 52.258867098547547,  5.034353672585890
 2.624155407204605, 16.549989355046229, 85.816575803203023,  5.248585241370344
