BANDS
8 8
NANOPARTICLES
cell(1), 18.739
cell(2), 18.739
cell(3), 117.121
 3.958388039406346, 12.544974087867011,  7.914634302741211,  4.861786046123107
12.775824026248198,  0.586581050291945, 75.548623818037299,  5.081991143420385
18.520543264542408, 12.474983874245281, 31.611585678368233,  4.410828440256331
 3.009897082711948, 18.351143477945183, 52.731490898651373,  5.451417969917651
 2.512248852474271,  1.916963669013892,  0.785917084305069,  4.695791973144400
 3.301611290258692, 10.887964172593454, 64.218812351253419,  5.549838919428786
13.535013085312110, 13.827510957734802,  2.157466409842018,  5.197838933213166
12.110409425480119, 16.925608977043968,  6.163698935505438,  5.319054806860792
 0.097685796270143,  3.653968550257682,  4.672017436188476,  5.089494759271320
 7.883195069659521, 11.579370586931150, 45.665290816161850,  4.979358488739531
17.954217799580196,  4.414060122570927, 10.905648687792056,  5.464749547835191
17.084516778047515,  8.824841119873229,  1.398690355921635,  5.011068981700708
18.258736182556635, 13.528921540208534,  3.571041183684874,  4.678929794835255
16.912743368238125,  3.834460025343717, 35.574847925545598,  4.871963638717333
 2.287222301275990, 18.613464441480772, 77.202213486651203,  5.149800018923736
10.451865013994698,  7.021178491177502, 85.126271695505721,  5.202921802964656
 3.871906692565052,  6.605547700026273,  2.357166968408848,  5.148252833730870
14.150672697820060,  2.338268751971605, 23.160675035399851,  4.824255972662273
 1.526769446109440, 14.978470765389819, 21.130900192408909,  4.979243942788744
 8.842024140159969,  1.507372201598278, 23.185774738122348,  5.106362043618679
17.565372580667603, 18.601583107895522, 114.970633186782635,  5.513933274828518
 6.712489071798250, 16.668832684870985, 43.590228996426127,  5.328525983312578
17.879303414358279, 17.318880141531213, 82.439181374895085,  4.521740657338619
 1.881700605563845, 15.452832639382631, 45.244060366233967,  5.169119155418232
 9.064517732935096, 12.846735898239675, 82.022346155328734,  5.150832202433294
17.229217531314152, 10.712157488466040, 80.544849730647144,  4.769935597871974
 5.965332485209584,  5.418485865405074, 22.131263268810454,  4.828688199850208
 9.933281999296357, 13.486445665401206, 53.273838163268024,  4.938221153925650
16.308596195774886, 18.030885063842984,  2.914775356055896,  4.979527024582840
13.857831813826172, 16.288483279347609, 10.833304759105140,  4.728906499814281
15.502644055834223, 14.011086799396505, 22.273783080179470,  5.003467438082596
 7.198562307813264, 10.041102635483268, 50.563110242734965,  5.354194046636554
 2.989451475032016, 15.770223648618636, 32.722505050138935,  5.043969107704561
17.320570812960646,  4.329842097098559, 61.408439937492531,  4.824865527275282
 4.637377177711198,  5.819968272530213, 47.800819175953009,  4.847146022278680
16.006923827604563,  9.955036988164796, 90.606499788795034,  5.271764768386320
10.677037906140288, 15.477781737269575, 78.016642223088752,  4.951563567455013
 6.762996708385486, 11.780811405791633, 90.279015630301330,  5.177029414996992
 8.241966506706611, 14.454396166812492, 57.462290341011801,  4.291810089486545
 1.474350078256523,  4.180271071774436, 44.282486291970571,  5.163974615462697
12.392250980594760,  5.971035087330418, 101.732306695259652,  4.932209671569257
 3.310136368664703, 10.047707514759557, 111.236413290701122,  4.845459605639759
14.321775708715903, 14.886446762458494, 46.010176327867796,  5.017983525277091
 2.990129613772405,  6.619857051434899, 18.434019244988914,  4.949449589600643
16.200541086390118, 18.016437471903252, 61.734830701457611,  4.713643247401851
13.457540135587525, 15.441259012973084, 64.661295098938723,  4.814671139272055
 0.773106795420607,  3.481322549766974, 70.209834408603641,  5.389336864305586
11.866329403202649, 13.025147610955718, 91.453354216781094,  5.159896483510119
 8.369054778971186, 17.236243069167912, 71.483005696176221,  5.531783634661398
17.243302887260167,  8.498986911612086, 33.877528741997700,  5.069495553377774
 3.274595057955762,  1.797971152976016, 31.526676380929317,  4.786619924668906
 3.211442396926178,  8.139639048247000, 91.621529800716644,  5.326109683765796
 2.365348463308321, 10.968743597808334, 51.911419767044976,  4.850733294961322
 2.004196882407724, 13.107516144769020, 57.552088711972857,  4.870982360935491
 2.213619962556503, 13.805828766413763, 74.472770011257836,  5.284715020920145
 2.636149066164397,  5.663183674846378, 34.470160347713730,  5.012356204406373
 2.374787970447615,  1.446726471126417, 60.736747121591975,  4.787370620893555
11.674651189919535,  0.774098418998991, 101.723528963375017,  5.254815483845820
 0.937396076207721, 14.497573410913832, 111.269960281169105,  4.994432683635207
 1.885732225274737, 17.330699189274576,  5.059237171883574,  4.732894758374222
12.637403050392813,  4.363408693367487, 92.614835231095967,  4.739194946745266
12.379102515634854,  0.698035454924414, 80.461829300103929,  4.774365808708592
11.793805195585769, 11.533332741801694, 49.318089490669756,  4.624250783267221
10.901130402910528,  4.884326402094990, 78.699104329320122,  4.752352750905453
 6.760571872422331,  2.042802183003614, 18.506764176807490,  5.172185039836065
 7.422353712978852, 14.373295161335355, 11.710726591445582,  4.725030021951662
17.017703028215859,  0.329496165086590, 45.297168596706662,  5.035332466238977
11.737991432410812,  2.421634249668681, 36.287600039493995,  5.246930217177056
 4.550338199749946,  5.135888379100123, 83.788120056655970,  4.948084922168150
 4.170768793587678, 11.454129241391611, 29.688360365524737,  5.344292572131702
 2.930449814343022,  0.823376870252002,  9.412447695315825,  5.270365332931417
 1.931804000522078,  1.678155536504581, 98.970771876863296,  4.865824529591280
 2.776651205102931, 11.789328728643792, 69.904000641989938,  4.757172376249342
 4.645336713148114,  4.211849558564118, 78.762201057013314,  5.196968431272861
 0.888355126912363,  3.367282591960023, 26.480452552688266,  4.649527021256430
 7.030799297143736,  2.750248557052518, 61.174282103990187,  4.893739943924753
 1.009499817470324, 15.020632293734506, 66.450705483395012,  4.870779112006026
 0.391744858497051,  3.767557947123921, 56.676405177302556,  5.367977603979868
14.218722821020810,  7.014809211164126, 57.095063745663438,  5.203157986700774
14.574963673132267, 11.423015813156880, 40.313917510578676,  4.848332417483573
 0.727127930013063, 10.601371469134188, 39.452079524209573,  5.163776918196936
 1.259403039656696, 17.480791958424177, 86.557153340378576,  4.743517526438713
 5.261085428067755, 15.876609998672160, 17.798134468720132,  5.174634363332117
 4.727651452262472, 14.693595394530668, 49.398613347951155,  5.011156582168702
 8.172763613090028, 15.782681949364425, 21.603312291658096,  4.408530709648361
 4.857241920655054,  8.418840694619695, 96.404593867778374,  4.802494017418756
 6.987201790477710, 16.500588772209575,  7.253492148221451,  5.188239501458410
17.570203864843709,  5.216224424412954, 92.359687112494328,  5.284798016731612
16.271105638171967, 13.417918677078799, 97.598256268891703,  4.979404028190379
 5.415805833099201,  3.134460187667405, 55.753073079795087,  4.917180292403041
10.846137114412603, 16.950948014801142, 33.842667975417640,  4.625478261617499
 0.502489248412902, 15.702723960073378, 16.394018269713150,  4.748679583161517
11.047119632104582, 10.846673426981544, 76.160477357375214,  5.049539745549073
 3.934428191152291, 17.877315538779012, 95.278932603828082,  4.939568253707382
17.029758737746569,  0.880917673567731, 89.715504364612755,  4.921005714897031
 8.295358476571140,  0.940143056142335, 78.069896432273694,  4.700948274349839
 2.771693769849071,  2.984179758240577, 89.934094356323300,  4.986213806632438
 4.474077019072339, 12.112085212682663,  3.064563689937969,  4.926772919773871
 0.950612012579132,  9.454240491122244, 10.526663746265671,  5.221910550407793
13.054777537406116, 15.213536416746981, 72.685695761222888,  4.948978408300829
12.877464415009792,  7.434669519930116, 111.440132723060330,  5.088638154205379
12.342330487738796,  1.900239606693501, 70.662798219742655,  5.040027736223419
12.007046566311082,  6.423084351631401, 74.379852791309531,  4.667748945619715
 5.177054114132249, 12.719894603009873, 24.540348807243561,  4.888573705000118
18.702262130574177,  8.549097705337729, 103.481228899992459,  5.224702951676255
13.956177771965203, 15.556218722292817, 51.047249664267483,  5.138653583819212
 1.611729791594836, 12.658111538608287, 89.381644197490431,  5.248056392832538
11.408714341144492, 10.972514211881531, 35.608987324294944,  4.921058749325076
12.538168739754365,  9.378119366061943, 80.728631530778856,  4.987716449087070
 6.234299793240498, 11.964417468652726, 77.740725445746108,  5.176151210023102
10.475376233592629,  1.312883577672433, 27.922294654032431,  4.849981643902114
12.398346334808990,  8.765985115681280, 16.643463704632254,  5.141452773900467
10.463164091323756, 10.377507935393202, 58.263453269164849,  5.128626116189133
17.309478315848434, 15.713986316283011, 107.085032041474733,  4.910349681782885
12.504110397514989, 15.192311410064056, 37.972394709518625,  4.943115507315481
 9.377674286241120,  6.785732456733063, 37.031688165262068,  4.781195540403900
13.830838663536152, 10.909281123756584, 31.500977538761251,  4.538507307497233
12.228875722107906, 18.283580815320949, 91.078874831472888,  5.408141700204068
 5.869555286246340,  1.053866880883970, 86.497241345145440,  5.033569944296999
 9.615398949299792, 15.868771287871780, 48.034292921476172,  5.405803472859704
15.841329525761889,  3.862621700924515, 73.627565259563553,  4.669757052383283
 8.891687371252058,  3.954080013585237, 104.530966722372085,  4.885179611642554
 5.885217055590336,  2.647586574535646, 69.206636044485961,  5.158237918928449
 2.846285732034991, 15.465061993892874, 61.740111522519960,  4.880125637430947
 1.862233748834708,  1.944648390700640, 16.295408252827457,  5.573542421528052
12.042710495684089,  0.650481645975688, 96.389607286424607,  5.432763734054524
13.667761707788872, 10.659402617101906, 62.199276997839732,  5.024483592238912
13.695913094391198,  3.316985584782013,  4.636735339753666,  5.204558677228823
 8.857752635083047,  2.989216320446369, 73.884496789986642,  4.686692162860925
14.567413663888701, 10.920309025383865, 53.487053735436618,  5.407322610652020
 9.265994198972951, 13.563771684789328, 116.648798629341087,  4.834827786884231
 2.152926663287199,  1.036800258377556, 36.170753914439331,  4.887588209206549
 7.869909309180147, 16.404360462662499, 26.151365397442344,  4.788707323014338
 9.600000532379186, 16.487647368450045, 15.432539194335680,  4.777854083802869
 3.880410692233298,  5.267036308199365, 64.709122054255872,  5.195524861607355
11.704576750133524,  8.783521880052014, 66.472274974789485,  5.100073896336875
14.959161171747040, 12.987645164145549, 111.205411837647134,  4.855168669467115
 4.677384419745022, 12.289563421916943, 42.008678358831524,  4.833549965194632
 1.171875446071944,  6.522986747415291, 98.972885725209920,  4.939941061224593
 1.252877044550072,  5.700397832504300, 115.379565889769623,  4.744830605841977
17.359142046404443,  9.106703761309424, 113.081420394683420,  5.008748617971617
 7.383658219571839,  7.349235963907460, 75.705451346628891,  5.118169938592563
 7.621874529720951,  4.975538757391539, 51.656383401351675,  5.041599261733557
11.484545050775704,  0.021406488649210,  1.270726979658992,  5.197156014757625
 4.269393227603423, 16.949911125235896, 90.378511265883247,  5.039901307842344
 5.184334574180605, 13.853037152548076, 113.874877182079103,  5.048699608341908
14.572452222659084,  4.961517897561166, 88.110117767770049,  5.127361449622766
 8.802616631741699,  6.644260654484419, 45.304327667186790,  4.999419130606045
 6.325535025135888, 10.114255151529516, 85.417903222179817,  5.126407668003890
14.021444799261060, 10.612138141690950, 103.583290370576179,  4.985319963996337
 9.433224807042654, 10.935797302255986, 29.352017088145569,  5.241407155321172
 5.241423271315469, 14.034477319889893, 54.166263890711946,  4.660721890118827
13.055472517253961,  2.978080158820329, 10.646902859425804,  4.755630612882245
 5.401463038401098, 16.351186758214951, 109.334348217156361,  5.323420778946065
16.418308927276069, 17.737089442351369, 36.310602546904356,  4.946649949731529
 4.225446713915451,  0.762050499428053, 47.598268837775066,  5.301332152250359
 5.499124894408641,  1.873001306455446, 26.913491887115011,  4.923720271021594
 9.383529594921779,  5.434705088455074, 57.714877473622792,  5.044373975738057
 7.428243354663744,  2.967177762608781, 111.919797268069217,  4.856614120126286
 0.030507966245905,  3.452084019223822, 85.491760915721997,  5.191783585088376
 1.814523515525828,  9.409292898749738, 77.161183393949401,  5.050926165522117
12.382345167556730,  2.309798943189781, 113.776405149396425,  5.237517328330426
16.696416729559004,  2.273528432299887, 78.595025116238844,  5.131760626630857
17.067163490626040, 13.204547045825251, 12.810204455964103,  5.002903856756525
 8.781874366187118,  9.533811667183278, 41.122751000760971,  5.144304230065056
10.321916174246310,  2.667758789766747, 14.802945163861168,  5.172307008389290
18.726858998576247,  9.577801134891740, 20.828114128850395,  4.731046414697877
 2.940767587384580, 15.029770847609949, 37.824189419170018,  5.251375033360085
 7.923326208376790,  7.779190194640627, 62.094451657580017,  4.762690292953002
 3.214324587865268,  6.148785033766151, 13.602370238035887,  4.764986453635224
13.132445992676255, 15.937431885679555, 114.603597458683012,  4.808856507791567
10.392669255911365,  8.219872317005519, 53.911276915337560,  4.570913202848698
 6.976320850410351,  4.006800772502653, 10.894021423127459,  5.441043972194091
10.319550210511279,  7.357984763284867, 12.493418274987716,  4.543528999443968
 0.069981424808315,  8.899735124554985, 55.778258528530628,  5.041122396215416
 1.673004103901135, 11.867782162367249, 106.971971213340268,  4.973028099493176
12.987941685734835,  5.738534068448500, 106.570631847041398,  4.822700134920450
15.267706492965393,  2.119318104787326, 40.508606635906531,  5.763944527658104
 2.645396447217411,  5.970204511866394, 52.424624484153128,  5.214057862398832
17.359567912684700, 14.153173623919201, 102.395269947744922,  4.965722303531125
 7.158079313360384,  2.284209847043802, 97.398766321847702,  5.014592889879326
 2.981734462765335, 10.541608841548896, 46.870314418238927,  5.319204668039577
15.682745567136436,  4.243019902241596,  0.034661478365002,  4.952362998390807
 9.386529931823521,  8.866883398373437, 104.270704221718702,  4.820609464124741
 6.136199803708938, 16.273245875364236, 75.754124308769377,  4.296487654831851
 6.878779975808122,  8.453762929938888, 25.889831439682805,  4.684000778071080
11.290770643930184, 15.554912297644483, 29.337162374022864,  4.710192461251282
16.584490364898713,  5.177594519681710, 19.765974322275984,  5.272250780763484
17.925581294497722, 17.846593259267532, 24.648008314120258,  5.226979173000739
 6.924510713254319, 16.876194471972806,  2.224353128824717,  4.850893784733861
 3.562616147616432, 12.847607927405816, 94.314354693327019,  5.325480172068193
 8.626160053912121, 13.558397183629411, 103.044326131333221,  4.967615294238289
 3.444576682715436,  0.576668205655038, 82.121116036550688,  4.988660023966841
 2.546038497851565, 11.333962240470905, 15.128873399975284,  5.219162109621743
 1.006601909672040,  0.405605794393440, 104.535646029751007,  4.914981865443956
15.925719303684509, 11.774507696294787, 66.778794341059907,  4.977719685294840
15.699018830233914,  7.161894367992215, 77.488210164525825,  5.085269523296269
14.168198377277870,  7.332650034354057, 37.655029044220235,  4.938538950840694
 3.937502209300328, 18.718182360790671, 113.703895760005750,  4.987646033725059
15.786268878307048, 17.470506173885642, 68.600729834787714,  5.187100190441726
18.492571037065449, 17.496882430291798, 57.549409691017530,  4.880387282476994
 7.665824958235972, 11.726047082799486, 15.887232706842084,  5.145257950424398
 5.642149717648099,  8.955667539837338, 55.465290987916241,  5.146776087887226
12.083799722399883,  6.576060120182792, 49.565668914007119,  5.317232029586648
18.352403749244171, 16.860251817624306, 49.353218653654096,  4.569786693532595
13.744626546807623,  1.594962397020610, 49.059069695758787,  5.218368731402221
15.867951821460901, 12.742626274761450, 58.208618749434194,  4.979734230823881
 4.788130634831546, 10.296894905136313, 103.144362719717236,  5.056334476624256
12.584000705484405,  8.623371971630036,  3.505862465645019,  4.912600897819530
10.691304966126676, 15.660646857419813, 110.099558696339741,  5.451843944896678
 7.540685566717801,  1.831915111104172, 91.713424881330397,  5.070714688451637
15.006068690931889,  5.966230908710441, 69.324127684696364,  5.042675956686428
18.427047906688109,  4.534276928055752, 106.906934397078587,  4.952146884381150
 1.885313696246120,  2.688761667739450, 21.741242376391018,  5.003020274955677
 9.678210863525775, 18.098343281558449, 66.412797070623313,  5.064409813788903
17.871299480260738, 18.484585370086496, 29.764376965550262,  5.078293881010765
11.413432781831693,  6.595711648963099,  7.893553509379067,  4.901887802618820
14.485666352023719, 16.516841891187809, 15.658366458166915,  5.003770438851407
 0.422272177075073,  6.065224350512615, 81.069651732460699,  5.110213531289020
 4.167620783829266, 15.336224455419567, 104.404243521102231,  4.986936438180897
12.469584905006410,  5.663054060171086, 61.846020022913258,  5.274365323219634
 7.509424922408988,  6.654512402516912, 16.313673471934660,  5.030964381300422
 9.016948836683024,  2.332868810396971, 47.605540185094867,  4.782358148703948
 5.896680376717454, 11.387234438402594, 59.801672910791510,  4.679332366065202
11.233396009297607,  5.943961040727881, 116.887119011522230,  4.577939524120029
 6.569311198977846, 17.807125217338566, 35.681232790695205,  4.832672845243716
 4.668972008456582,  7.669953661676766, 43.004979983318847,  4.596102542632721
 7.484137640411009, 13.417844529573566, 33.486723043525480,  5.146813194059392
11.821341089182177, 14.378527936190034, 96.129659466992209,  4.566198165127067
 7.351009416337616, 11.806702161762926, 72.401062371158091,  5.663018996495281
 6.125979151127816, 12.260943611111468, 98.887197112227327,  4.683542239229399
 7.819812129513260,  6.571852654307888, 93.088190919137176,  4.812273642511801
 3.057335816774572,  4.755377505280788, 111.099211077643645,  4.716618430253401
10.242074804374788,  2.727748527398381, 87.737581278329515,  4.638243028022162
16.088323031789269, 12.095741236646813, 75.803542754946534,  5.359838983424335
18.143543032292339,  8.266906785790125, 72.721127636389198,  5.285308377412224
 8.123240597827959,  9.183986701864216,  1.422114528501857,  4.969419424290133
 8.270511421257883, 18.702560282674419, 52.262024630994972,  5.122331168901449
12.321192369456824,  6.508492494230773, 32.984825795765921,  5.226968300899888
18.666712910601980,  1.570846804250409, 65.355539869889597,  5.174434569244842
 4.448976132783223,  7.227946317024154, 71.367808745669834,  5.357732796028003
 2.801745911051061, 10.915041765039410, 34.827786640352755,  4.931691768805934
 8.985685617940446,  5.757926523635587, 29.242803948221702,  4.884411032087783
14.124706178272783,  0.379006003141758, 85.344682245297420,  5.613704194076569
13.332454316980584,  9.695528351180521, 95.010999668861672,  5.005425394348318
16.199263450452072, 18.153610425928370, 99.461191706426661,  5.187665126048470
 1.919613882691762, 14.138482296471606, 79.631523686574255,  5.060259421935298
 8.654080687559285,  3.360483662951819, 82.386499988823346,  4.394916428332917
15.045162432994644, 18.351812898799910, 110.476331653640585,  4.801494617469559
15.657890195891314, 14.224776828258106, 27.543884014834259,  5.074617424486588
16.424160774251686,  6.277815957168060, 24.651664043342631,  4.740194982362394
 6.689600016766207, 11.498236102419993, 107.756527620332434,  5.200382601702103
 2.399891562030260, 10.344043333665633, 116.081783245005568,  4.922197226465532
 9.088012711542468, 13.024326957069453,  4.313738345413237,  4.802846562601935
15.003369775297454, 15.365328989678188, 32.299989347979370,  4.792401333607820
17.353339043085981, 13.645799326118144, 62.655898656463641,  4.504153523952982
16.273686917964206,  6.020440279577495, 52.526936899104953,  5.003784830649945
11.341096589988492,  4.580863030743177, 19.558704720394655,  5.272380123154695
12.016509710363684, 12.718558367726866, 13.532752796200649,  4.940946539151246
 7.200044245466184, 17.721410035748146, 30.809031788737695,  4.980899484752744
 8.540865108947949,  6.726080372709269, 108.742665356792102,  5.221681171666758
 4.847562295397688,  0.113967059703798, 64.845792844419293,  5.137783667715798
 0.412873726081416, 12.050828565105526, 24.858181007047943,  4.752637215220923
 8.628189148680811, 15.975714087509209, 88.200824276590836,  4.894084433841170
10.998477514748677,  6.002532351471322, 24.603936087700564,  5.233112449247058
 3.204295271213150,  5.796940986265712,  7.899889638168852,  4.816515199521360
 5.135504828881587,  2.498418218437262, 107.361107333412122,  4.949661514345300
11.751862487103397, 18.159740063614457, 19.564195709601915,  5.077663020022233
16.516205452278076,  0.380763700789088,  7.831397035476571,  5.072845799233059
 4.628875066515135, 17.319353299956276, 57.566809455347020,  4.870266704228785
 3.075759500736323,  4.592764972035738, 103.069091193326031,  4.865736546670603
11.326005885287600, 13.084879196464493, 19.225142697986353,  5.121705604684721
 4.205097437745542,  2.821431187171154, 73.803653703888585,  4.626022805990303
15.429587118765429,  2.860955687035794, 15.276273728508235,  5.092246598062925
 3.118027933158340, 16.143128448194325, 27.579636648199809,  5.146119357006529
10.316272694642544,  4.194898285201347, 41.106417332007418,  5.039406636097313
 4.917115302183281,  8.125036345755930, 38.274107618572224,  4.849944468670428
17.180074812266408, 12.112498658337971, 49.103661757404730,  5.064430866536135
 6.969865244706509,  9.631675851830860, 67.661091278340351,  4.791248932670216
14.489570741091061,  2.036202347843169, 58.149873674296877,  4.942513923973149
12.749765832769627, 15.053903295295084, 105.369596697748875,  4.920735669236308
15.724373287778617,  4.363493306348390, 97.150491526967471,  5.123584578720688
16.592009389222603,  7.189630673597616, 42.100757590212083,  5.188094381807227
 4.612338950118740, 17.857023110954220, 23.211111819451247,  4.429751136572993
16.063800654126826,  6.980402003799167,  6.909565937251424,  4.623650849551525
13.856756375561627, 14.162033780583046, 82.763751702795815,  4.896460072209108
 8.691311002807767, 17.886967251740266, 105.664642142251253,  4.995721218222577
 7.051242949916088,  6.448689267430378, 100.499290656650686,  5.278418018014706
 4.520741267252461, 11.160605314409761, 19.868147063210341,  5.043548042682729
 8.680224673947002, 17.730954964090213, 114.317848846571493,  4.760034539462791
10.806444368892105,  5.771250162458587, 96.970775016457281,  5.112719133348375
16.879455284078990,  4.152395197777061, 111.768719277097972,  5.278912498092146
 5.747668327339898,  0.615212769429200, 101.903492976564053,  4.990589371354067
18.392465726525593,  9.495723605609657, 95.206726689098502,  5.124676487619417
 6.230755316834959, 16.140617105477524, 80.082488611157643,  4.363206731475565
18.432353319186191, 14.648621534232397,  8.281683086895594,  4.677557824695853
 7.810071549995434, 13.751387515848567, 38.518210098342159,  4.909732556950765
13.447599629690686, 16.476316148059411, 55.963659049694236,  4.906482498732418
10.323558261103036, 11.441172118300472,  8.912977920315821,  5.218753481247186
 5.955903100361929,  7.115457468196140, 114.406469725599877,  5.243307515958717
18.638987025058103,  3.109305373001530, 49.178846858956341,  5.026201341921547
 7.593630134085839,  7.993574912838382, 80.851557884859531,  5.256596550752258
17.342684774702942, 17.860782366371197, 73.592217552269361,  5.266116889842407
10.755857433635779, 10.363655965829745, 99.544673369593951,  5.407054478075285
 9.259385136908971, 18.389554591499685, 39.610150956629802,  4.717493920380861
 2.440967201335076, 15.818859585416085,  0.471061021686683,  4.992025190452428
 3.220571667568091,  4.057173004591626, 94.820012423902654,  5.038668748712805
15.293682261994119, 14.316704732542389, 87.686199241296990,  5.322478774557331
 3.171890841985149,  9.997656633160878, 81.742266421919112,  4.562033236360290
13.952233632431374,  5.054568342367354, 28.508711818745361,  4.734841185552527
12.790850554403255, 14.820454723509267, 100.594278094630923,  4.610166409525541
13.417190576261845, 10.263525578160108, 71.619142344671033,  5.202246180981623
13.819256773160681,  9.236858282858023, 21.606683905768442,  5.200964158497387
17.266982396088295, 13.476449651549133, 71.105181259432115,  4.695661047287877
 5.419699429599885,  2.246987540916494,  4.910499312588644,  5.404092286877338
 6.204493436622839,  2.954429212496350, 43.454096851787540,  4.746649589715635
 9.334739913743761,  0.334636603394097, 57.284856728128148,  5.167291596792189
 3.809653451513059,  6.496740985771951, 59.632071828164342,  5.159333696003225
 0.847671053299339,  4.947333323588015, 75.922958306124201,  4.375756904796687
 6.785252015992763,  8.297656881173740, 33.026618872130115,  5.224241826144381
11.120584415570434,  1.944685496440890, 108.910758663984367,  4.836990706007151
 6.578706320082334,  5.886935270032173, 88.332195094018701,  5.104517184484487
16.575615894198858,  0.643569039295050, 53.299691530877332,  5.151456777322138
 1.129553115497779,  9.437917245497170,  5.458384071426253,  4.872141738303802
10.897855177136014, 11.884260181471197, 86.626618665558823,  4.945607218092874
 7.645737164505329,  3.277305598635689, 33.316060821097814,  4.968208835912737
14.815923568066967,  1.053881577329476, 105.791718788180759,  4.987953834683583
 1.683473917203196,  8.226361562139257, 86.613050770407199,  5.140103626165517
16.410684272782341,  9.002345969335851, 108.104728756656698,  5.120580171016266
18.308563124537059,  9.163611999974817, 60.828851285124031,  5.104081895140563
16.826506191506105, 14.674013517298262, 92.699786302294399,  5.179441141739672
10.788829442541665, 13.498138496167506, 68.454368163612642,  5.235215098362312
18.233494661781673, 14.595232557664318, 53.563939652464725,  4.968117742491926
 5.891083414132141, 14.444340229672081, 67.184396062058639,  5.055806153338674
15.638973112407326,  8.855344427511568, 99.295829198602647,  4.814573496255178
 9.093005901066602, 12.308277449595204, 63.708756811279372,  5.098638704180625
 9.013314066312851,  4.338321349732198, 65.494368465061257,  5.116986041602829
 9.266818088088392,  5.227612034282765,  3.831677493626381,  4.564055113040965
 8.901276234123909,  8.925005300245136, 20.520396676082612,  4.846845837560362
13.365094485177135,  4.622319495902463, 45.017056815232486,  4.908779845283672
17.553830469052816, 11.644186226781420, 44.186359608819849,  4.834065295235260
18.388853025369830,  8.924469143234683, 28.523690269066957,  5.000832286930224
 6.112543211540668,  9.541531743320176, 11.342495626180748,  5.207156775826546
 2.738201388606373, 15.082685270572071, 11.849540967864591,  4.737288831667431
17.391023356867034,  7.740156945730785, 15.166490810084932,  5.378482562107558
 9.669705044265791, 18.438137295786930, 10.918095887712395,  4.684621361179080
14.541093368511131,  9.172177298461410, 10.989548998568004,  5.125655102735016
 9.096492026234593, 10.834789673268588, 112.404916841191408,  5.261217047531917
13.727137170859802,  2.551194546254923, 65.903685231226092,  4.952697980868859
16.941007491203390,  3.822467433402121, 102.113089108533259,  5.152493105248541
16.908887332421681,  7.417694003155849, 47.225322107958114,  5.045387244116034
 8.116895031358336, 15.854849187254109, 93.449287396430009,  5.041109318915952
 9.367413044626547, 17.635455316071972, 83.711976568770325,  4.786925785285209
17.930114962628611,  0.550181871191070, 94.606824604701785,  5.044603135419923
16.856859599416151, 18.688418654170363, 19.614066701399704,  5.183472693116363
 6.107048158740397,  3.260451669090402, 38.377331013394844,  5.165850830251046
 6.855072727920938,  8.706739478175916,  6.266237212001130,  5.074582253784207
10.251978250543251, 12.354246588688397, 24.333485576978433,  5.277890114410622
 3.177411403193782, 15.839367094428656, 99.677116519403455,  4.722356178741513
11.580041048950699, 18.731842348612069, 43.992697412812028,  5.222136236592286
16.070647309235333, 12.163014537678691, 17.628861721956685,  5.054423843004571
 2.744821728816357,  0.327979874983530, 41.105748283202949,  5.124542088827982
13.725748018063804,  9.629211395331458, 26.923255099336291,  4.957545415911079
17.900585768198120, 18.248383087668426, 12.540376073909290,  4.869597642904117
 5.677038696205032, 18.483495817732326, 13.507861468353010,  4.817027133362123
11.515265408501037,  0.599413986836175, 61.881902571944877,  5.020439202438511
16.510889577685905, 12.859679432913410, 36.124709298702982,  4.814962829573433
18.111413063443372,  4.594906729169663, 30.897991185057219,  4.888685978839066
 3.930006658230734,  6.184320479685391, 29.180773979573861,  5.245595773169661
 9.753257222757883,  2.307422121460001,  7.199034317797000,  4.397363000832104
12.886325218623224,  9.755480252902585, 44.808056927405502,  5.311844998344070
17.396550421754711, 15.686617742426723, 40.994897823548797,  5.463498000287026
13.589698213239499,  1.444372579575976, 31.671967374600062,  4.889209029833713
 7.290181462829742,  2.875211231049195, 117.105850865023882,  5.151816652983247
 1.352535458887793,  4.840215476038606, 39.239060523937006,  5.000530405798862
 7.580029170168276, 16.453202958591397, 61.477811517262225,  4.770551642080581
 1.087355346271045,  0.510750492500095, 109.558690977691285,  5.080570491999259
 1.513297269868856, 11.354023133099897, 99.601740813314393,  4.820045200873725
14.310600672505029,  4.888986764478257, 82.361521209799335,  5.199397621796130
12.471221637974292, 16.888560850295146, 24.856489509177624,  4.817927773679682
 2.923029499213846, 17.305614594467475, 70.556552338133770,  5.275313177590267
17.202568863362988, 13.385179540500832, 115.724654072948951,  5.051769802320251
14.924862032004445, 11.735939900363070,  6.613701004136249,  5.027138448214669
16.075550905060535,  7.376581075175143, 64.813391926293207,  4.646170074783339
11.754254287934330, 10.980596087349529, 108.015318259985662,  4.992242271844199
11.225730846707494,  8.223273999378609, 90.002454606260699,  4.953709769245153
 3.768865284699791,  7.359330793446141, 107.078763385676822,  4.963738798954856
 5.162939514575382, 15.082029134019027, 84.626749403443441,  5.198688014695820
 2.339223658815481,  7.604119908086701, 24.557631922153270,  4.929181742101273
 0.409094679731772, 13.111904888464815, 84.385869267589072,  5.067311900602635
 8.553780957571679, 16.459332562841809, 98.943946905064152,  5.005938119235312
11.850940001108917, 14.749605260303777, 60.196462246157928,  4.771869219990312
15.362557352193592,  9.426581918467299, 85.222595922887194,  5.623643818916298
 0.971626373577005,  7.933004551289381, 67.754353165548878,  4.769960634202247
 9.443140722703314,  6.190520112215809, 70.236032987270548,  5.084710743086349
13.115382124129285, 10.203359338605905, 115.678630121129288,  5.042818841687247
10.920176677226578, 13.904576927751767, 42.490632143024186,  4.961176105726529
15.429369151071521, 16.232163138420283, 78.649497900541945,  4.754588112953146
12.055448228315996,  3.294098437005438, 53.790730873191890,  5.352950162327572
 8.589293221588562, 11.139834314359963, 94.934725674016292,  4.884323246102793
