BANDS
8 8
NANOPARTICLES
cell(1), 18.738
cell(2), 18.738
cell(3), 117.110
 6.797085347085051, 12.806827302164688, 15.773067474192516,  4.586944706317402
 8.742280808299121,  0.000160521962765, 112.840491459578644,  4.953565164984266
 0.768687969371375,  2.677929000428695, 79.767574824266092,  5.475331061583169
17.083304326033421, 16.036457110000676, 98.668228079380498,  5.379919297375701
 1.439328195154302,  1.692060756542169, 19.886846900225827,  4.423348953494338
14.883264759155619, 15.718873858389529, 46.680119226663230,  5.225345330409221
 6.902898425858452, 14.759139230066328, 48.234612895175012,  5.065474652092417
15.927340159800567,  7.703589213767576, 88.145158277960434,  4.884693662118229
 3.992405866932927, 14.634437379313725, 21.058007609118093,  4.614887697383538
12.299064248641137, 13.620105593178730,  7.452381914782925,  4.978345242860194
17.152557287829321, 15.159940012417096, 85.807058495105125,  5.287802767032410
 8.990619934777170, 16.298964187583412, 29.219219976649853,  5.074800027284780
 9.497995643350148,  6.427340143271979, 102.573333616318223,  4.630958594151441
 5.739985930671851,  3.285927779976599, 12.132702488848967,  5.335593631605904
 9.677373398703613,  8.401094426350289,  2.048764447353261,  5.058423799279994
 2.511165708882822, 16.573372497531718, 46.434792506944781,  5.096798521857764
 2.656464329365362, 13.693449411890523, 28.358273408069877,  5.153089896101604
16.511439551131271,  3.377649699288062, 17.507498773376881,  4.924607635031064
10.143942171944945, 10.612586727111537, 88.463050469666300,  5.200254978000882
 1.557824646176407, 15.432076440565226, 81.506680395930715,  5.376282482149141
 0.616113964089136, 14.505024609417909, 108.809387995126528,  5.255851105031643
15.430740434752265,  6.864360633087111, 26.595730321768652,  5.166700802336051
 3.193902911953100, 17.052795908623622, 92.580888123221740,  5.461690478785648
12.039351958915340,  5.954888342661978, 66.287720925300647,  4.752384265291279
 3.657826063510631, 14.913968716593018, 69.126210569031073,  5.138153025164807
 1.973571272290373,  4.818260928495111,  9.275756908662194,  4.586477294696785
 7.991588130308958,  2.647247249436046, 92.293411553086798,  5.372162318411186
14.210817225233960,  9.503770071539153, 92.463043308595942,  5.075067368809071
 2.575987333054393,  6.053684015748427, 38.446752772889980,  5.230113995150917
16.267164262217729,  6.229671501698822, 72.408724736499664,  4.856998746426233
 9.917578563481625,  1.586121350034094, 103.432218601941329,  5.014337317156516
 6.892006843461015,  0.344708198886505, 35.392425241348420,  4.873945786198642
16.142473697078895,  1.806521918386728, 25.591796246998008,  5.243152234648819
15.022159891075280, 12.917802928708710, 13.478854233185524,  4.934573967335658
14.830917834510730, 16.423740545457264, 115.445534390734878,  4.645238605306009
 5.454257781734152,  9.941623241977288,  4.508924578144651,  4.955143600734119
10.500248469778196, 13.927508876855569, 83.407122630004366,  4.824569555649313
15.497653696999429,  3.421735324608266, 50.646120231972787,  4.892042664742028
 4.056774663411141, 18.232914479781719, 61.888450046224044,  5.192294833152072
 0.501475541874020,  7.674913007313608, 79.910811762718396,  4.526815642802075
 5.029869607925215,  4.844279359407488, 33.722264610974939,  5.416136021764783
11.793212458353468, 14.547774579964139, 63.252840522103213,  5.242417209280868
13.946658078122566,  1.094439893933803,  5.713877534194234,  5.175051443661827
 7.782457044314131,  6.771208812738213, 64.239910496659306,  4.824846976885686
 7.971364979606811, 16.797537303851090, 94.774927019129819,  5.056988703361963
 0.553789287349051, 10.927383171159651,  4.745760903697988,  5.051722201045768
14.279521918355952,  5.894680064790286, 13.851393151203704,  4.992645383798800
14.591863642291347,  9.082492862824655, 80.955143013936393,  4.847292063647610
10.132839134177399, 12.317907860400823, 74.081253374500946,  4.981357150581789
16.180409927538388, 10.406425356979721, 17.519992474505120,  4.843142558923141
12.394416153449189,  8.022944976565300, 40.685007852448223,  4.595360596015833
 0.677139531343584,  9.943936773358041, 99.987060657846385,  5.721073840420328
11.441643568177817,  0.932690755381181, 36.928897383784857,  4.800565133627291
 7.735568476449017, 10.511980766726655, 51.012016283884293,  5.212630556404729
 0.909554492773698,  4.831946267061209, 116.603072488807939,  4.965916210143715
 0.914971325205731,  7.040003118048929, 17.659780025462631,  4.728331437681945
18.200478177164740, 17.141579354988014, 77.147207507740845,  4.882730488057345
 9.685024576568489,  9.696238551972669,  6.687409732953069,  4.572353303682609
 9.086378446033745,  5.993111596704949, 48.992483176589886,  4.999253773187103
12.136186786934680,  3.573550217282018, 112.001634554883594,  5.038145157347656
14.954565836737418,  3.426257656223970, 30.640448465984413,  5.474315152133864
 3.173371909228184, 10.642829405074609,  0.144280046274727,  4.990681002911268
17.931650069269836,  1.984438032583724, 96.167898605133416,  4.848123188862727
17.253399322492637,  0.410244991927150, 109.878267677911197,  5.155382495388625
12.203273160411253,  4.452210045319926, 23.130940301261290,  5.434023231979884
16.626769851792709,  3.108626380550992, 67.963441690455952,  5.182997026967578
13.154867241952623, 11.037897484267004, 116.128308883069934,  4.983052007313346
10.872851434341603,  2.669857907262373, 52.308002429297488,  5.046007281984309
 1.114381354250445, 18.682975715290656, 10.983272754377960,  4.975899033244085
 9.853081476829866,  6.049856234618345, 44.091380985979065,  4.745993891122304
 3.952249744471911, 17.600257920568218, 51.061559766133840,  4.808771565129645
 7.406566296139951, 11.622114158660308, 27.923527321529438,  5.134926637892108
 1.307963652832808, 10.420005858987521, 35.893436878194024,  5.141641969517331
12.769101130778687,  1.075108760199794, 13.452713614145489,  5.122540996564562
 3.747279358469922, 14.837099167882643,  3.037938727670110,  4.664586953099641
11.557657696806841,  8.239187710679369, 70.961667444083488,  5.661726826478310
 9.317568862264579,  4.625073433938437, 15.203900220411743,  4.419529931310247
 9.232912907868643,  9.898220269978472, 93.483745306872677,  5.097637949194828
12.634544059890301, 14.786163038645380,  2.473491843979338,  5.254027177287471
14.574780504100248, 11.217191741000528, 98.082908562958011,  4.978171225549104
11.860142395902910, 17.182834895525826, 67.613830311991691,  4.934370426078702
 1.554489026225502,  0.967757469347017, 33.621738457720802,  4.991560784698030
 7.221270674712294, 15.872746466799352, 65.190282854118607,  5.033314865671501
17.051997073003434,  7.412473482961453,  7.594639559647931,  4.987247538206041
14.470463810365846, 14.026538532343007, 22.717135359873204,  5.040042717014927
 5.731596546251590, 16.156916262228133, 11.694139712303329,  5.644984067096677
18.525683317967932,  2.375532845101811, 105.287030114778702,  5.130767153266937
13.766366516343552, 15.047212167568288, 17.821566930068727,  5.055990686943021
 3.306146746300125, 10.602249154802536,  9.182564704753391,  5.405694385925792
 4.745175095773460, 11.136150891080176, 32.195433376219178,  4.962225904747111
 4.636276883589216,  1.352370378433829, 88.818586239370347,  4.621297519862122
 6.143676765882281,  3.445316017809734, 100.599890807230878,  5.117879123429975
16.039093413136349,  0.667517958247361, 83.089712887366105,  4.903761290563056
11.425243247081353,  5.987695667535489, 90.178407730787882,  4.948537121320658
 5.558242111403605,  7.136923385023541, 91.419349469911552,  4.979438092000732
 8.166871810015282, 11.186988297438081, 62.344641664688332,  4.807986434636038
 6.164775446491949,  0.467226427677436, 20.843108534737684,  5.496471835532236
 2.258829981239902, 11.661704700056530, 16.860813177128293,  5.002715318336353
 4.736175665812874, 12.963064614545585, 44.174635511899183,  4.514296776341983
 8.629088631038378,  8.863150445267362, 109.563772786769377,  5.018204072797121
13.832686771217293, 17.094533366670390, 32.217650988807669,  5.338355044392231
 9.593052579597453, 18.578198391740475, 61.146337849953298,  4.860044739747642
 6.271936546435860, 12.398852820664212, 85.545181298379092,  5.125313390885259
 0.568718990347127, 13.001004854631626, 72.756585815629634,  5.084479555801676
10.472292463439290, 18.669594090343249, 81.484804970935784,  5.322701560507823
 6.236539456155890,  1.944016701932093, 29.388273037653928,  5.281887320880431
 8.525157970884162,  5.642839186111195, 19.700012895970662,  4.903672683013801
18.051493034903661, 10.340592830971950, 63.468173321454564,  5.082028456738677
 2.649978900587642,  6.060836027593160, 102.852555587277308,  4.704784120130607
 9.801218952435210, 16.169856881557429, 77.235883382683909,  4.623104762369906
15.738021208768020, 18.537699541029976, 20.877892199575403,  5.024379318995387
13.786718697472411,  6.567592721422867, 47.089630867143150,  5.194485402960042
 5.000591702081432, 13.218164490149180, 101.867452559176300,  5.172670274790388
11.327866094169488, 17.044452087295834, 72.657933167638220,  5.167840534926686
 5.667372875078044, 16.472483637486825, 116.060371271365639,  4.889333347793084
 0.960660936310231,  3.969579064381132, 13.827196701560322,  4.879259782944564
16.861173271225240, 17.385771633882715, 14.817821330918994,  4.736130549252318
 6.912727442626902,  0.104099882931207, 69.111854973370512,  4.792324262241419
 7.158419106162186, 13.992262929619452,  6.923102120351285,  4.996556780669075
 1.459233953136701,  5.004167158507454, 87.880756570874723,  5.231271176559944
 0.189731736592436, 15.808441867991331, 59.408293484646805,  5.166577805773100
 2.051545980075946,  0.563855482837105, 100.023670808913437,  4.851653336306816
 5.904875966691581,  8.517375068660467, 99.979789172423651,  5.106423083355648
12.426897346485623,  8.665338373872421, 51.476463672961870,  4.892849202588388
 9.015424877362051, 15.421793804316561, 18.924047227502168,  4.723479906042704
 4.802249935448072, 13.669341936635881, 59.817063499572065,  4.935400506122440
14.149580630250611,  4.117046992733392, 104.171164798741074,  4.510748631095633
 6.637747926307001,  7.390994735739439, 86.492906538855394,  5.094039827439608
 1.591777818591972,  7.156258764585963, 25.671341392483466,  4.819530140830941
 5.469999226846903,  2.144664321985531, 39.666282065968950,  4.786353750118942
17.060919464423414, 12.154018477188663,  9.048969540746699,  4.929750635626498
 0.398263904579061,  9.367664929728573, 30.163690373968517,  5.238049302136322
 4.832529299578159, 18.482289707028219, 104.136678970278922,  5.207393941173936
 3.699863310097597, 10.288260084956530, 47.934010476513023,  4.934419622774389
13.461223625372792,  5.958415196896523, 35.372964183096528,  5.036342163348357
 4.424113434235681,  6.419727525752385, 51.216759139704962,  5.310845513475194
 2.185809827229907,  6.323858286699338,  4.878015503263789,  4.716854890753925
 9.396977164968606,  2.051296207938035, 65.445066546950855,  4.814398560662870
11.970773159287686, 14.971155909739810, 36.359824890325861,  4.683974230901735
 1.261000223496607,  6.443322793815664, 66.059244916395699,  5.037637617483675
10.669614383738276,  8.997717822188191, 58.605041400635677,  5.196244826695017
 1.850277451254462,  3.671572782340650, 43.066660891381531,  5.266255979906077
 8.377158971597249, 17.525183885537579,  3.534839571175400,  5.081489670685285
10.998848865075608, 17.868267106445469, 22.878727096988772,  5.310742338206204
11.644311040266452, 12.472411545635834, 48.631489746788404,  4.731754296604840
 9.691466070362452,  2.641840743673172, 57.182514492496097,  4.843429652947949
 2.517169097194180, 15.393655301527749,  7.603995459034288,  4.793225120956472
 3.956337510275513,  6.442089982402361, 21.432422414311329,  4.979383161115849
 2.095039904579129,  0.967446719963547, 84.640441115511777,  5.187047699525427
 6.103633190060641,  2.275455577296269, 53.836037102018558,  4.982200477367192
 1.130072388820615,  2.814138831189227, 52.994740076790301,  5.082001672592758
14.092722785290251, 16.201570180635862, 27.143287443424928,  4.842687623959137
15.432103691694079,  1.349679790494080, 72.617244505233302,  5.050039577728440
10.605562525159936,  8.173868852806937, 98.051889956026187,  5.011383586469407
13.816867380527951, 11.028572098553612, 44.383236643057721,  5.229204720223525
15.833084953741867,  1.722285689757366, 35.340551350238520,  4.667794529014616
 4.102969684575211, 10.901799970504376, 109.642934845108087,  4.908401745022951
10.903901097754819, 10.084455675763492, 36.620906045768379,  4.987724114611860
10.036161293970373,  3.240107716304323, 32.737594574344897,  5.172119333362334
16.924523834332778, 10.070068241013816, 108.515614089249837,  4.867905185823477
16.746157665469955, 15.833292936069501, 64.059448341379962,  5.106640052431868
 8.275755508022105,  8.605615355109560, 23.700024911235072,  5.064228688212659
 0.655353466844832, 14.317760172991349, 32.879495798137803,  4.797901623987894
11.023978566102496, 17.117151824636000, 49.779979352987368,  4.916576625355477
 0.315998193187585,  1.420501111337985,  6.225452981548714,  5.109139697263793
11.398946150920803,  1.522794927923773, 27.374167720515022,  4.904330402905952
 7.405527852801925,  4.210804469583667, 110.696526570245709,  4.851816164755709
10.057016938780968, 10.974826744334008, 66.753329311508892,  4.793659683585883
12.437009887834796,  3.832918844218887, 99.737931292295173,  4.988164250337768
18.231353951199427,  7.247111504625565, 51.673282923263592,  4.728857165612409
13.240481606555178,  8.682961710278695, 111.450538617102396,  4.941366703239517
13.312882898542512,  4.276571008940809, 80.955182999525590,  5.096044935122445
14.253330576828427, 12.221684449208174, 39.509703922486125,  4.835260691768138
 7.278852204154340,  6.583942162147972, 74.068073458117979,  5.415502012118871
18.482054714518274,  8.988592694091368, 13.033313995126509,  5.570181844580880
 8.541689050311403,  3.833870812387377,  3.951798627649884,  5.050908530111510
17.950692533490148, 17.361825088342812, 54.780537491940180,  4.789498817694312
 0.443465106372724,  6.441563044826489, 56.265565747540698,  4.775408562040383
12.475582243176676, 17.592953486049712, 86.282306322386646,  5.291664867464357
 4.902858190917024, 16.009198870706321, 111.193125771695179,  5.001040591594006
 1.533779593000715,  4.208919981176928, 74.697603179855989,  5.211880846111625
 4.267464131056362, 10.016836506522118, 95.423006336901281,  5.028018618138633
10.261548858775322,  7.192103423757023, 78.250423657016938,  4.923085134116169
12.313573510637314,  0.950992007677555,  0.876717796099383,  5.039632501012662
 9.774115680642284, 13.793462290371298, 110.125250072132346,  5.166752866364465
12.027188766529502, 15.203523986387184, 99.547352831699470,  4.924964930247956
10.148784595507749, 11.019054823239903, 101.974345267615035,  4.665077988538303
16.443963537504729, 10.727154311581291, 54.628095098968991,  5.074929417775590
 6.295599087548065,  4.408056196047593, 105.553121792222356,  4.952067883974085
16.541871295455071,  6.865439215347366, 96.244809699155923,  5.254943883453245
18.469700974199792,  5.792022843420643, 33.998164038581471,  5.331090899292120
13.490344368821512,  5.730243611234441, 55.340353008556370,  5.034358253927130
15.869461441273733,  8.102313527943268, 68.022263005441502,  4.689364718566204
 2.220011973036747,  9.206933575563420, 75.700547996119511,  5.066575428616246
 5.349654248977137, 12.335433245899269, 90.807871184357580,  5.497536543496929
 6.769134641535737, 10.610591358272348, 77.355521595226477,  5.008617542814527
 2.760421127735528,  3.279431992806070, 69.569187435045350,  4.868447716582006
 8.461384088164367,  2.256483961752634, 77.081042533089047,  5.372194460300395
11.599212784009092, 12.319935619856583, 54.785450560630665,  5.086320355285765
 5.025030697259528,  8.166438421602562, 14.212092050504307,  5.366295762851412
 5.297140096160155,  6.159574696907900, 45.836196682473080,  4.860541409236157
 8.088867867999276, 12.602289119551005, 97.722613664368097,  5.195574385034719
 3.211586512296039, 16.194531977575355, 36.584222818194334,  4.756215586573071
 6.399836542460708,  6.327368233710612,  7.910627339114435,  5.148623375756343
16.190631620494695,  6.572311609328727, 42.845013764844587,  4.560668026004159
 7.447821624982256, 17.278540911128808, 99.833213830908448,  5.144956567909484
 2.169104396487644, 10.034488159953803, 87.312072582625561,  4.980149956317582
 4.704987677531501,  1.358219221957589, 96.256121963338359,  4.491373044417744
 5.128409817411139, 12.793351010613643, 39.473455329722775,  4.925155721206615
14.019831967657955,  8.502495650301446, 31.141897487088364,  4.896746881200492
14.916489071315420, 12.771466361640584, 102.908412826081815,  5.160822609069170
 4.020306128194625, 11.116685576584635, 24.269622162379378,  4.878051649343146
 9.012209280139215,  2.788461061198428, 86.990371930247449,  5.282498223908575
16.806485451451884, 15.868278235015755, 36.867605155417898,  5.201089189123628
12.999019249082922, 17.260340502935762, 111.299823888360066,  4.568989623589371
11.476479328739948,  4.671363927918333, 61.472093205919634,  5.263710970118440
15.678878883368462,  7.615306205309936, 59.366417492006470,  4.869454003686910
14.532847080708205, 12.609922678253970, 59.128763118884969,  5.384783339459524
 1.004287712716557, 14.061393121722981, 12.717266579448403,  4.895855638775605
 7.351788791329440, 14.037425914104155, 35.233763038976740,  4.925380865839954
 7.816785714738132, 15.351115905833751, 53.203769834560994,  5.106177981326562
18.263129522984833, 14.536518702990103, 19.680554605068213,  4.729113950617039
10.822060899924614,  5.024549552846351, 107.342854618078277,  4.858219719416024
 7.281285517627881,  3.793846561492547, 24.723902103644367,  4.966138612110115
 3.364534569959388, 15.203754961304710, 97.477407449680044,  5.003263682937656
12.638671414524802,  0.272957919372911, 91.350094614021486,  5.230535939856499
14.329596948584959, 14.410303373331439, 107.692603928556267,  4.999711032241726
18.310705184494100, 17.708416840088532, 29.385824592096171,  5.173107997197094
 9.511767834745546, 14.141523820075129, 58.841393305960423,  4.715883671196909
14.273909193399003, 17.659675561750049, 60.110300306076972,  4.897380875224301
 8.247333710993209, 10.264881768422828, 45.938369766509702,  4.989860392486910
18.151037496218070, 13.898951698791437,  0.814259051261707,  5.041745025968379
17.486515575296544,  0.098663382950314,  1.589128973674987,  5.017496751333028
 6.107742868214435, 14.287926484741263, 106.689427448550461,  4.929761073735046
 1.549972010176902, 12.601903177126887, 113.230517922342472,  4.528903712931733
14.984813617973993, 14.723913386810215, 51.777546328562963,  5.158382386555172
10.230037909118700, 18.141373363922899,  9.121182942975096,  5.453045026920816
16.519348001889341,  8.136494694332656, 38.488642934388032,  4.718514526113304
 1.774158088185713, 10.997579876236802, 105.183008797138967,  5.090105129015136
10.450315642921435, 14.890263949814257, 115.133853619466663,  4.632920726889073
 5.485414792809621,  1.168446798238181, 81.019411298584231,  4.737081820108791
 5.562077919879662,  2.046644538508965, 73.096043849901946,  4.470468310301158
 4.340962048304024,  7.361020196105465, 113.388236801368194,  5.407254103507997
12.245363012547923,  4.624544186660533, 74.665009962316375,  4.739508673725290
16.154285751602895,  2.104548438649567, 114.424714104334868,  4.792633063038613
 0.712842906864860,  1.218086747134451, 38.604948545730160,  5.121356327122376
13.284469241576360,  0.152910705755278, 96.446974257415135,  5.029539900024371
 6.338729474932461,  8.280238518513189, 41.392478844682735,  5.162729898437492
 9.396889626832458,  7.978676706869776, 114.289219376269997,  4.718098719243763
17.152607318558395,  5.873113072813789, 83.753928239670827,  4.921028878893069
 8.547651708733429,  6.697132838652534, 54.455869101210126,  5.190918587577039
10.116097698963980, 16.258606963683594, 44.448400815872873,  5.308057984552986
 3.147562036263638, 15.748720492224155, 87.573292495067079,  4.880765399913416
16.822632292590214, 15.591973043259227,  5.409922875443478,  5.089776541341349
12.019131683103121,  6.641057462052403, 85.255079637761412,  5.048621217420126
16.747379714483401, 16.734407418557698, 93.462710042272391,  5.069930246084847
18.366126941373381,  0.264073267941235, 89.139914445069593,  5.160491971602405
 2.648999261670857,  2.633079940683731, 48.124524258931750,  5.075762434205079
 8.238825445437342, 16.732688419129008, 89.616588628251890,  5.262697031574025
12.367084286811847, 14.023153108238608, 94.327490298369256,  5.371060510288709
 4.949013843174964, 10.132629765162461, 67.057172209007973,  5.577794287407509
 0.624692670096045,  4.373383330017796, 111.822587025196896,  4.629179193393393
15.678077497628573,  5.192645146306447, 108.661309991950660,  5.204209758156568
16.125974816178090,  4.149833427640794, 91.775971069082544,  5.232035710252852
16.497376364446296,  1.944537734113621, 45.871730077826548,  5.237730693568889
 9.089964683493895,  5.291201545519461, 38.068485093652342,  5.320072586271951
 3.878544669899278,  1.402194138265432,  2.235852772947496,  5.586339742026607
 6.850332140168167, 17.290502719044905, 84.791274803348514,  4.833570065873021
18.646516039977087, 13.273474960687290, 90.340152940176296,  4.951659852698543
13.133059443120555,  0.554123291384941, 107.077669158513260,  4.804755182729670
12.552005537173414, 11.319932495309011, 26.764959552144969,  5.421903889006033
10.917104347038299, 11.006814676050041, 19.989642100461719,  5.117177903813573
 8.505725705134310, 14.396616211601787, 69.627038758599184,  4.662164655824543
 5.397056624653399, 17.124750344284486, 25.675909518971256,  5.136427316092329
 8.279439612705389, 11.263150133522286, 11.221176171258627,  5.424755392845225
13.577385944352697,  0.670538322203625, 77.324673422208662,  5.149379415550507
13.864902869625496, 13.868749708343088, 89.440784227169971,  4.846045554586644
 0.565171055770949,  8.407044294606802, 91.967482894991093,  5.381791640955167
 6.089042382702856,  9.071106404969397, 36.449863624810092,  4.854672860983540
14.439038952960706, 18.436460833164340, 102.426924204280127,  4.981882092825047
14.649542573666611, 15.105827322179637, 80.986943747423140,  5.056885239913212
14.818147634867268,  3.035232097110646, 39.904520837729997,  5.038595797275163
 1.151823084098302, 13.502390126026979, 50.846148440458883,  5.120471352745172
 1.477495091630110, 18.143055829726823, 72.582270344917646,  5.272723759271174
 7.034698521571758,  5.653505723907835, 68.957579358155996,  4.983877344885232
13.055846105758459,  9.552976671035537, 63.110015968132217,  5.057772684752523
12.340100143488320, 17.447995255096867, 55.382485584197788,  5.296632405778756
18.069253783553744, 18.127296281077722, 49.881893216882993,  4.777551281551396
 1.368140771006153,  3.827332063509568, 29.382292980553764,  5.157896997829316
14.164345148565026, 14.556878381845804, 76.032766468557156,  4.955885998893920
 5.335601437058090,  0.834791607492459,  7.441324668778289,  5.280679844404406
 8.569163860811649,  4.558243447088584, 82.294209175426460,  4.775662310998518
 0.178821955878792, 11.635661315145702, 68.095979675170781,  4.630909762214907
10.336529189618441,  1.929478816006225, 41.677944707140668,  4.849155869403754
14.929528793929043,  3.142389800849072, 87.054093721816713,  4.702937006007496
11.160340348045940,  2.853004891795766, 70.115821544431938,  5.253318228422273
15.643351516591881, 12.927963190017531, 112.279863373529125,  4.924933091189378
18.037326996230146, 17.074052210582714, 42.546350218379331,  5.038322398157934
 1.222081041282734,  5.883016349895866, 61.081485875794947,  4.966801312515038
16.148631269578264,  5.210165447756753, 77.071854738444387,  4.504987511330392
 8.451805963764000, 16.590678164081602, 39.462087643674494,  5.166011182117245
 7.892418533296406, 12.995726680314789,  1.544223448425715,  4.850551411570202
 6.587966479950974, 14.554932589988525, 80.471002062800466,  5.034601617736733
 2.443361974333729,  5.343721576169374, 97.544433871619020,  4.847203989447749
18.181014110673409,  1.449516714284182, 62.139360958543271,  4.817526918511758
 2.448523023711929,  2.379859482592672, 24.486255983105202,  5.069487365478309
 6.869158529353306,  5.946101203422233, 95.910719945573121,  4.664408065897614
 5.485456595120884, 11.263012724002378, 72.324084436335937,  5.174250704140633
12.443857278906588,  9.675657002491270, 106.250069806523058,  5.203709812417642
 5.233492359158928,  7.145046074830187, 29.014379935656443,  5.052920791557331
 6.373329356472508, 16.128582823825894, 73.623143043861319,  5.032303825440877
10.352130311999080,  6.532979582376887, 28.043307942766276,  5.415187750395514
 1.537164766729350,  8.771262874304728, 42.491405456246937,  4.732090506889040
 8.616721747248112,  3.634866005320760, 116.118340167977436,  4.830080055852353
10.557997249985778,  4.719097956413174, 10.550260091533090,  5.187376393736521
 2.673944054268448, 13.971854633928178, 64.269785054965752,  4.940673071314940
 0.284844771597539, 12.806731467869550, 40.199621393561287,  4.867109973182551
 3.318380024914892,  5.658807080768904, 83.174688478537931,  4.908774027864815
 0.150055709614454, 16.091006619622846, 103.776490721854316,  5.328890078533094
17.415116407710617,  4.200564314999820, 100.618523052367010,  5.135188916997213
 4.113821637451351, 16.877786202438017, 41.819241819776437,  4.685360429957695
 6.264853431595899,  1.502147764051553, 44.505500964787004,  4.803205769765046
 0.867724167804848, 10.770225922423487, 58.627579982798039,  5.111438643022150
 8.328709630917373, 18.605135241496018, 107.871558805824407,  5.018299949292389
 3.231407899766955, 14.046042396753698, 76.850025456955578,  4.884760190707252
14.086103917916532,  9.436065838973350, 75.691178736240872,  5.294546985142495
 4.820644475345317, 16.495519755008502, 31.863498358463445,  4.807250448284849
 3.481905143765764,  1.610513338565245, 108.859498125817439,  5.253716795926040
 0.179178815046920,  6.888518304287759, 46.823327238440925,  5.093300023042294
 1.552107256862958, 18.516784208445124, 66.348060773718586,  4.873831228862135
18.561013071848471, 12.373488452034163, 95.263298129540573,  5.036190176516083
 2.279533793921415,  6.581119219358508, 107.759544055026851,  5.184138484786778
15.899614515202774,  5.411730322527474, 63.642005144465060,  4.668542182660762
13.424453470695852,  5.862889290622950, 116.529379109182145,  5.406602320579171
 6.823736186302443, 11.252623791881401, 55.982612279422710,  4.988855296525410
 8.882259106429290,  8.073288728343188, 32.665644697244048,  4.757182440862558
 6.635040898616841,  9.504149840243354, 104.983411102071727,  5.053637497462405
15.245654458670083, 16.725435525435604, 10.171232987220762,  5.158423473236830
16.005440571310753,  3.087309399267706,  9.992839539488150,  5.118594300904308
17.726169807748196, 11.985923026994858, 78.441618276250466,  5.062070781628393
14.480159159408091, 12.604545021616351, 71.511872921035689,  4.900833427273492
 5.255340858734876,  6.321993159221681,  1.208974402441721,  4.835038966420636
 9.021455318040225,  2.079091293439776, 97.035778547984251,  4.398765792564268
17.694942242142382, 11.390866743054703, 25.619659876517957,  5.111700455597065
16.617877299457010,  2.463174428028610, 57.544564437326628,  5.025570523105217
18.642541562044297, 12.515413625835466, 45.065066466772009,  4.909213129654670
 4.764911201518714,  3.148289501119232, 65.164803177916866,  4.717158930209830
14.024189922638863, 11.187228502540620, 85.299187692020197,  4.871995936862191
11.087664287161521, 12.547630971718842, 32.101674747723621,  5.269091753127584
 0.778160292526382, 17.222527604194450, 114.333566480770912,  5.083724770968474
 6.001479100149462, 10.560677513760291, 19.797173522863446,  4.759602242178177
15.274213695308919, 11.525274280128745, 34.797758934988565,  4.891184362303966
12.558523076707178,  5.951851858719730,  6.058014118040763,  4.949725053701987
16.635314380280416, 16.507386728994092, 69.151790992684184,  5.168511120965848
18.390020240354787, 11.004253288179571, 83.228102998193876,  4.796652742415517
 6.642712222475691,  3.593167748916527, 60.858725665074502,  4.703423701497054
 6.510153853517823, 17.650865386448878, 57.464561132382244,  4.919855439110772
11.212994801834325, 11.994625417277872, 79.014914295760349,  4.872722363224452
11.406035428190533,  2.086768914556236, 46.492756073120091,  5.018840972235551
10.542721232877680, 15.306040746277089, 104.388521384303473,  5.195422045786882
 4.339939056354140,  2.134039781356226, 114.057705621239734,  5.127215982188089
 3.928319830400553,  0.014447475614229, 76.798710644062368,  4.546443937460634
 4.146113342352787, 10.222476046262909, 81.548809964545342,  4.913348992386047
12.163028584169988,  4.716238240541510, 94.867055587830862,  4.876321176766051
 1.875931111270210,  7.990852614430857, 70.817195062224414,  5.019084246725771
 2.953398847450103,  2.455448192813885, 57.799173923404446,  5.131644492838474
14.550910856321140, 12.399424980756985, 66.742348239430882,  4.634943661173799
16.574249316450800,  4.772914001732457,  3.395277894232510,  4.963980912112358
 3.833238018713482,  9.618806546639270, 62.201325258672242,  4.408270888832188
 8.166043045177759, 13.606341192858872, 23.335017417512333,  4.964561398304994
11.734377494711959,  1.915044815307658, 18.458980519558018,  5.236737997863018
 0.530146549281366, 10.172536851190213, 21.146060077147453,  4.676791047882920
 0.365340252934339, 16.298480266659393, 24.354572184050085,  5.394780365587015
13.140771514820168,  6.762495088184273, 18.569427925578974,  4.859616620843832
16.155993384162979, 10.681761883994886, 48.933227058795623,  4.988512476491255
13.831699563558901,  8.066092826076732, 101.732809763811900,  4.777505699623922
15.769208450183324, 12.964344452756860, 30.227737851375792,  4.581666457281012
17.652384255806503,  5.212121857267050, 21.982927282139059,  5.004786029053122
 6.671185161157274, 12.067906793881253, 113.859871276085883,  5.137756555734668
17.297105807696902,  8.961112616785567,  0.673121050356407,  4.813405276492890
11.464620453337290,  9.836794239309961, 15.096067536106391,  5.002675208876190
13.940415336446943,  1.225778056802043, 64.288740355014440,  4.664644181693935
 3.260683854413139, 14.670332297350967, 55.248505010908268,  4.912458846756381
 7.393256579520644,  1.466904458921571, 49.096086671604255,  4.624805174345955
17.828525020232135,  8.657791931668312, 113.032977231836227,  4.764559741030259
 9.736273951273299, 12.066417037519738, 41.464114626914849,  5.009782885616983
 2.550960579417225, 10.075212671315761, 54.051438699611538,  4.670214680794438
14.228224488335666, 10.279742470150348,  4.333044200507996,  4.929721211883018
 4.620423867758312,  3.904565042835964, 17.165120326684047,  5.023733294202676
 8.912276912957857,  9.399365001199763, 82.486160190577664,  4.936883482644882
 2.389409095663554,  3.493367263017215, 92.699120871242499,  5.007615378872290
17.365875825638490,  7.405697026944949, 104.675151015441330,  4.512731433752195
 2.907691171666831, 16.932583684790050, 16.644061669533279,  5.543646149326119
13.421540514014326, 16.976353088640060, 40.539810546969832,  5.029686688042866
 4.940198641752191,  7.122484088552012, 58.028021374311848,  4.963947901814011
 4.706455676259943,  5.829756117885990, 78.473054187202706,  4.890084090230378
10.563000194623642, 15.208950389682107, 13.870529259898429,  5.116935984415152
13.078757109286212,  9.249528010022420, 10.180516556381058,  5.172122348894247
 7.714613892401085,  0.196921630795633, 15.788089345092830,  5.008670967140074
14.837343870946139,  9.197362508659587, 22.304050205780076,  4.674447349623422
