BANDS
8 8
NANOPARTICLES
cell(1), 18.757
cell(2), 18.757
cell(3), 117.230
16.898181269972611,  8.703122729359707, 100.058863800442097,  5.257656351044259
 1.898436869114405, 11.573628410152393, 82.058001418010889,  5.216408997877303
 6.947537613151745, 11.535311010451508, 63.461881389102075,  5.160249333780321
14.440331796854068,  4.529353380237708, 101.608094886963457,  4.904940701590967
18.097973251244234,  7.368018962152225, 13.051425700908498,  5.423731975169106
10.551907630599002,  2.722947074827681, 109.624406597459142,  5.116647233254416
 5.544514255426823, 11.134528833266925,  2.195014099319641,  5.188190148019516
13.294630801554657,  5.741529463930731, 29.286249207140656,  4.978907511155866
16.657451451500631,  8.203481126012063, 108.805202793734026,  5.333035855070075
17.172748444511434, 13.468257245612287, 26.836729096868844,  4.879814990018033
 1.785306697272484,  2.139806744785578, 25.432783733940663,  5.153867690842076
 2.709122954320474,  9.415199653069093, 90.999519138544585,  5.143046524332023
 6.013846523227318, 11.792061793115053, 46.165918345897865,  4.868540092845145
11.553235959888378,  9.515730744608051, 67.494749774858249,  4.469266635583889
 9.159673130472388, 13.730296256691945, 38.284086268679452,  5.270257668598600
14.223059083180498,  0.877974214929598, 48.032705112982811,  5.374316696976638
 1.394578396447914, 17.233626966823273, 67.342883543310805,  4.614782305345574
 5.523216963252308,  8.255963503379206, 95.025652515818109,  4.939687783975369
 4.147904476216540,  3.262143663824918, 46.746469484840325,  5.272770484644988
10.852114837424732,  7.555856355286385, 103.241783942594680,  5.020579740552765
16.338301311885150,  1.699628344837955, 38.008049591443005,  5.163138313139370
13.670300315571588, 12.676034851272956, 56.529327192420425,  4.828615912142363
16.559073694486695, 10.569377445590549, 91.645683423395965,  4.958819503719758
16.756477128512099,  5.951477807366577, 70.657365970802829,  5.488689268327808
17.118170934358083, 14.067142603379112, 65.905379018530112,  4.611434224641568
 1.949735240044977, 11.686951009105327,  9.333506973814714,  5.146950871582631
17.416065557422577, 14.699863777392762, 105.109376984152036,  4.977447190810784
 9.065933468418867, 15.701467538942456, 54.585092090796749,  4.981410925598295
13.906453241270356, 12.068927330058255, 42.696473173162012,  4.725591768299601
15.940257221052390,  9.388433362307493, 65.161151184496916,  5.114607965939918
 8.642608702030151,  4.142741529794110, 67.703460083285336,  4.946233268820194
 5.350900424974120,  8.104920492738280, 20.670150916345644,  4.612982789736472
 6.088412932024659,  8.378537421412473, 59.414444319449970,  5.236865280531972
 8.158551748803742, 17.810764979252497, 41.027790605132715,  4.682162394432726
 1.889804366233032,  6.431931602244982,  8.630703317606748,  4.938321287268273
11.286751446653733, 11.859422867932008, 52.297307392850762,  5.003495255848856
14.141889132890601, 15.057423915720415, 94.331598424548559,  5.037081473180900
 8.669186398003500, 16.283800710080087, 79.178447576322469,  4.830313783560735
15.679928509215701, 14.780465193372033, 15.598815749384132,  5.071436339734914
 3.399495208338144, 15.768474037831929, 84.987979894943862,  4.783572625811962
 7.211501657857744, 11.071285294240695, 55.169680662610133,  5.061738073154087
 5.947577090893767, 18.752647332850380, 67.254755581726684,  4.977505362286510
10.327960011989358,  8.062003807484400, 41.394973702540845,  4.856127854627867
17.840796480968557, 17.171275000310754, 76.045153905687741,  4.811422886510071
 1.353389470678588,  9.779493354190029, 56.675997489485987,  4.882199577798872
 1.762795464631067, 13.684630192476259, 44.195302916542069,  5.233369434231839
 4.665801011539931, 18.012104895901331, 50.544654834441431,  4.736224831316090
 0.975934116814802, 10.365124242411254, 72.212510950745113,  5.003317322098403
 1.739790392989037,  1.534206442813951, 73.327422909846689,  5.010838059272851
14.250465678951270, 18.723804024832223, 107.143742622899566,  5.342739201983926
11.234717959704115,  4.317279969121232, 75.730747117977941,  4.716755147191304
15.435435881009990,  9.187056815739862, 25.410299133508762,  4.759465397892345
14.930961212667555,  0.828802690865913, 29.195154575954042,  5.336683664505337
14.728309123065783,  5.194790486396054, 78.675494717008107,  4.583887563052635
13.065190776276159,  4.113995127854250, 20.072568176559930,  5.040844318457149
 4.403186201255951, 16.018275965318356, 10.882437726060900,  5.267353343553057
 7.926992542405380, 17.400504534555189,  7.451738669537898,  4.949358643465710
 1.926686504477299,  6.686920851236539, 86.465986027664812,  4.884322744834114
13.664873206364184, 14.909107074917429, 35.978489526624294,  5.104257926172488
17.504474237716398,  3.086773250200535, 10.284002332697991,  4.805590234958654
 4.538659423796293,  6.344281605165437, 63.869701863071995,  4.909027354324353
10.978786950813381,  5.964390426545085, 98.377121486607251,  4.979924988692833
 8.792237433461198, 12.972638384374532,  5.546323900151126,  4.838211286852927
 3.098568747312923,  9.346043308005754, 99.175151062472793,  4.888148549803094
 7.505713310524604,  5.591470510315368, 10.748665121428067,  5.028638705024648
 8.644275122890116,  0.737475984248838, 17.043299473417516,  4.735729333740489
 9.914298485213918, 15.596057300882425, 20.673125322755094,  4.976142510836596
15.789195205660601,  2.698360759454943, 74.693556441857908,  5.051584852599320
 8.329661660370881,  8.359460842591025, 27.654245160847854,  5.056574433704199
 4.488458500212706,  6.340372808794204, 54.988663785860105,  5.006279542580812
14.201183922744168, 10.974069473772003, 105.206773404441606,  4.864737435473945
11.721778478803937, 14.426924040183970, 47.639035172458946,  4.883294304090014
15.410335837384203,  8.094783321764490, 34.506571329372719,  4.660642660149903
14.281936386204974, 11.023503512488366, 12.362794351037026,  5.219855406068985
18.214422124495673,  6.981769579961225, 81.962453462786300,  5.063352509967337
 1.274300935023441, 15.962713912868836, 18.366425646712969,  5.502758984295166
13.262863445894970, 10.376726099080015, 38.179260129845019,  4.994683394765294
 5.710334210475274,  3.937672536034459, 114.232464114866048,  4.413735807250058
16.454562460798847,  6.169544667917192,  1.907097051064320,  4.891898369754714
 4.000862376695888, 17.151131835681067, 76.289873577423563,  4.720078121572844
11.277241485406698, 17.421255252771946, 91.001773331005282,  4.936791164405208
 4.254227938209461,  8.761290229988633, 12.654642187678522,  4.820517555116811
 0.213246023553636, 16.426782725416988, 61.113758375142687,  5.102678703460939
 1.606885801734497,  8.438314567330574, 33.633367268398821,  5.067689229436550
 4.407375206236964,  6.742100334842310, 103.491818136089663,  4.963456823644460
18.495729603921319,  4.840440266450070, 104.876027419157737,  5.468572697554199
 0.595544473637995,  0.899073271938682, 108.203160665823674,  4.986488355174299
15.844910605006957,  3.489520892458074, 110.285546680244011,  4.618388428513886
13.274951307035638, 18.134593264871611, 112.482365979081095,  5.017241607317185
 9.779777125534785,  6.728587918982373, 54.395379222216050,  5.146374234096279
11.624602608128688, 12.860547901545974, 77.095440935806806,  5.075147831199107
11.093233813694830, 12.186476514118592, 72.130148100367308,  4.996346906211484
 4.439844649592416,  6.836878174956124, 38.800545333703312,  4.614979544752211
 5.116239131554696,  1.864613891539900, 104.691869623982981,  5.172253339066328
11.482078986052411,  8.820847282382617, 58.728253975867197,  5.060189221913094
 9.223490509924297, 16.268928195611821, 63.784639749128942,  5.337046098889015
 8.221989731951135, 17.293436523175117, 112.559462777395836,  5.128533220653288
17.599879050384267,  7.478139341886359, 114.006948559148825,  5.191518801339477
 0.057847405651224,  0.804398625404687, 89.104946546522399,  5.574508274198394
16.620084654455745,  3.423772376941204, 16.341580794214416,  5.263523472997988
 1.171941009724395,  4.346668203008882, 99.671866093276122,  5.363842878697517
12.555088542304224, 13.218715159827726, 24.836425091825557,  5.187438328027282
 9.757966703553826,  7.369506828391106, 71.349968722595278,  5.031633807739446
13.601253544158357,  5.298096565751518,  6.053054500967616,  5.311550509537661
15.130555846338693,  3.107288023016280, 115.400276550959305,  5.112794041943526
11.036541239269352,  1.122071217856347,  4.330252958818825,  5.016736802862578
 4.817689451943623, 10.722113423493401, 86.191409603578876,  5.044866883819068
15.393978630620328, 13.959316413209734, 116.915683820743084,  5.391045481926373
 2.509885541836447, 14.351351000344511, 89.578201556045258,  4.974702505207602
18.281177218349804, 10.974670183949559, 17.634870356042477,  5.005438022421217
16.150720513688380,  2.259696667018847, 43.127110118225161,  5.109698175936544
18.267737538311906, 17.841490742751454, 114.787629044693603,  5.162186439315476
 3.792406376269580, 18.068250581069339, 96.369090750733491,  4.934473792329339
 3.741884110314458, 13.131713466044159, 94.197802856605847,  4.878251511694049
13.795830293781105, 15.917050639427591, 61.097529520197028,  5.292903848344721
 6.842775953356923,  3.743311006879841, 51.231267003017614,  5.232516221748792
13.542705196744656, 17.067133231697444, 73.514877711767014,  5.069122044196265
 8.313470790190681,  2.786265867984175, 90.443369519208744,  4.745186444405784
 7.841115600649964,  7.971938244219237, 82.988062807496760,  5.287442610699057
10.661700563015872,  1.635565202742499, 94.931297702367985,  4.966993197057024
 9.407486355401810, 12.062811884683065, 104.837478143811637,  4.965847636272922
 1.988462803405746, 12.540304457327114, 76.836032055229992,  5.400285766817503
11.143660463599316,  8.146124189078050, 78.451153044001444,  4.665107202060324
15.171544223470713,  0.639098311985461, 82.765072157809954,  4.616494331832782
15.357900486171847, 10.918227939178765, 69.927404898193430,  4.927310775041780
14.659126369829803, 11.380439803052381, 112.424911826089314,  5.059858544568195
16.302818537597467, 14.882046461769315, 89.119321832428227,  5.044772471272763
 9.560848081702451, 11.040158032344962, 112.285190245291787,  5.158399297253567
 2.778249064624015,  3.896317269279169, 20.841749297999446,  4.862975880459145
13.525260576083816,  9.173379322962649, 116.712328909759563,  4.791173563753191
 4.658138244788626, 10.280705146436588, 24.972508599352061,  4.768078425510946
 7.526267434167703, 16.505344959840428, 87.703101846101561,  5.200225643515577
10.371556860587937,  0.933190964228878, 31.760490284354344,  5.120555764463983
 1.003003855401523,  9.743811114369894, 40.821492496691846,  5.248551942911734
 6.096429812513133,  9.594136764632669, 107.549477144122520,  4.889554199793644
12.932754358248902, 14.507904426366478, 85.535500273771348,  4.781912011672658
 2.399378399937013,  7.011735210905948, 17.153061696796357,  4.820059276305541
 6.890404769238012, 11.444511376778371, 78.969554557967740,  5.486486377144510
12.886102383241187,  0.295273553045431, 78.319570388006241,  5.402857736304893
12.627521039742334,  6.604947961208694, 112.448082171473089,  5.319463431331833
 2.750816559705099, 10.304953588286306, 29.235181766634820,  4.560172416576070
 6.081831227460625, 10.867924783034491, 72.192279550373797,  5.248034241346424
18.536215467230573,  5.066642308073940, 56.400550744596302,  5.057039215122988
 1.033651654805460,  7.086829108994759, 25.277591643140727,  4.856291060809583
11.269943631085555, 11.463298608072304, 81.809560093432239,  4.775769343044098
 6.256298864582026,  2.333309036365769, 71.572880633843809,  4.801168120664492
 0.499094922573471, 13.097614870822110, 100.855060203171718,  4.830272634260671
 2.183091346071814,  3.178449347226954, 68.527698623655525,  5.174727285933668
 6.088192597618507, 10.728672506082011, 41.248407633924401,  5.143754395585521
10.796688586683857,  1.682336751472869, 53.934195052080689,  5.189430948011682
15.382559854763294, 14.743140266500868, 20.740952637411791,  5.217108078833095
 0.577045984473753, 18.344062296829854, 47.767366906955992,  5.169213670386631
13.719676692074216, 14.672464259168901, 30.791078599696846,  5.273568159314138
 3.272595808742830, 16.841040813972210, 111.413119644210553,  5.058504678494201
10.395674024691818,  1.880259898862055, 103.642121025295211,  5.584281687684953
10.195891307205139, 15.800532034465318, 13.802440982587678,  4.621813965885018
 6.105971133082242,  5.514110106935033, 99.050792471860319,  4.848984393765444
12.048240690489273, 12.477093783592672, 90.495928466128674,  5.102606127717228
18.206889500134739, 14.692729998800589, 70.697168491606448,  4.654596572900102
10.479199582472008,  1.126388315012225, 23.291176826185769,  5.099690778188336
16.031119549300495, 12.799780376750739, 74.601415785943743,  5.046414237210931
18.574889063566339,  7.191446442710728, 51.688714194086771,  4.700805564537637
 4.668494905556192, 18.454656601541014, 91.479324620422190,  5.028658586680186
15.345034251177996, 14.731318300220533, 80.042327370963960,  5.108550777509037
 7.059845188336204,  7.101189660613570, 75.762611580698660,  5.313544454210327
 7.255986419714779,  3.084281692496047,  1.480542658489947,  5.208400630066397
 5.843845320992294, 15.714305733950834, 15.816906253419585,  4.967790408605508
 6.787121356526504,  5.167212138199975, 15.752213293908863,  5.098692649707789
17.749173775825309, 15.839155806369796, 39.764128674507717,  5.004887520010866
14.028737059381550,  0.223588364268480, 12.816909725987900,  5.525772827070480
 3.798544025846892,  3.552803499740373, 59.438236752190868,  5.441481728923557
 9.379804762456368, 17.384800430756069, 70.648161505920370,  5.053795503607546
 7.267726508812775, 14.613001914057314, 24.858317865091930,  5.020352494424530
13.560339959762297, 15.358046745970560, 68.803644920692335,  4.908606385941705
 4.408327640703000,  5.725985154199069, 29.676913222679694,  5.209519244877884
18.417350913948969,  6.883330938601022, 75.524216007071971,  4.956851799021333
 7.813656887621263,  0.804284303111824, 99.050468463848347,  5.167933343086855
 1.637075124888852, 11.463175167089224, 63.618718953410422,  4.918229556953183
17.412363356112799,  2.448191971039962, 60.451976167394861,  4.796749373553016
12.955561128658726, 15.210892298251713,  4.119790595017092,  5.031065570279210
 5.841569157074542,  9.181432944863998,  7.013724519172730,  5.207067079604712
 0.279916352512128, 11.318518089672770, 22.671238389123808,  5.194791553825550
15.531243393231428,  4.030540092721005, 24.794517685548428,  5.601604553561947
 0.580998559976266, 12.161512099876081, 113.712430075422091,  4.758731135058146
 0.126236091985575, 16.418731808411266, 93.424988391089968,  4.965086423445334
12.467307617619559, 15.728455320842540, 103.263894359779727,  5.087549843067319
 1.083077203322422, 18.263005916902600,  8.012089036726527,  4.578342882391454
12.961577012984986,  6.924343418023107, 82.864722591771908,  5.138010488154967
14.607608849485228, 17.631451292709876, 56.164281875951687,  5.267828273679303
14.676346664661779, 17.736610539109613, 24.578653008254125,  4.613172078736266
 1.382819491927984, 16.391153502465997, 80.353019400111720,  5.054959656502315
 7.307835220242242, 14.000399364886448, 50.309786286704671,  4.865886740047658
 9.877622425910705,  5.901370140456782, 33.102128691070469,  5.217607559881082
16.387030501472488,  8.730611013985184,  8.460535356583426,  4.746703401077747
17.102365339920524,  9.250320745704169, 45.360556016761954,  5.300601212400679
17.109647268656463,  0.874918170721983, 20.801605415579576,  5.055078615646821
 8.619058873944621, 13.058495554921681, 29.422313039576668,  4.987982049219471
 4.810758654610968,  2.489569189593334,  7.881595356395863,  4.972624932255756
 3.903865580524995,  4.895344485428746, 82.372778234205029,  4.776166891311256
16.382393570989041, 13.160516129507442, 48.609647608496161,  4.955048540165907
 3.106002957087252,  7.972971282297310, 78.798621820484058,  4.789884618190729
10.073042966422706,  8.556850977229049, 13.853921832280250,  4.976096676073549
10.978763145194151,  9.331853443170063,  8.500391657305537,  5.482411821039142
11.856743161414135,  4.750103578570238,  1.266459237246251,  4.477754404882984
 5.479096920039828,  1.449540513814250, 31.974570829576454,  4.723068476722519
 0.912457170457733,  3.044510731771199,  0.169087260635900,  4.723732621512101
 1.921050693640503,  2.855455301049470, 52.398524869360237,  5.037275239511978
 1.796000950439937, 11.692441356564883, 108.920496300576232,  5.060492678902481
 1.393509078421396, 18.436980110828774, 29.901544979890826,  5.077350308583596
11.546906511574734,  4.624449345301715, 50.016557403351364,  4.638134766251455
 1.955204210659393, 15.917099334279939, 35.760389568157180,  4.728202798970385
12.056308573212347, 14.108940321249280, 108.786491081509766,  5.342778319629195
 6.002182640301150, 17.016462401065287, 45.643695609496255,  5.615488799531645
 1.348880046690368,  3.276562906050464, 112.544281241061739,  5.019987971290711
 0.157770456312025,  9.977506722096891, 104.546077515736982,  4.859086619275011
 9.349844845097536, 13.512638659876911, 59.237262823674826,  5.294547671216014
13.005057004096040,  4.173337995560151, 89.872567880796453,  5.082955577869261
 9.099994800492061,  4.344204403397896, 58.790007327875301,  4.904551414101183
13.530193761795676,  4.996798340969826, 66.653636704270994,  4.945463306178556
 7.865895139687280, 14.907132492285896, 74.630598149554160,  4.801853695074318
 9.543358728679983, 11.461892525645542, 94.962205402364347,  5.329972752130680
 8.369550398084801,  7.398242601928239, 115.961967881331915,  4.784568025088149
 3.344143459328725,  7.304181237999852, 116.696093411786677,  5.177484721350554
11.441538208748762, 10.826127450666924, 33.470788021399166,  5.135111358920631
16.355847869816589, 18.724300462627046,  2.275259316781370,  5.167291835265088
11.405909627921647, 12.306189007799965, 17.056876823761932,  5.221106730616557
12.444181856742443,  2.372384356573744, 62.057729371435819,  5.116078325812341
 1.776960386126326, 14.665345644964811,  1.104091829047795,  5.360294486997081
14.319258321487180,  8.087085704850475, 16.574569501769403,  5.008333105219330
12.828755191317899,  0.545797149818147, 99.210094168482172,  4.861988722923080
 2.592005595913199, 17.636984884502137, 101.276717690342934,  5.202068981445147
 2.856707969933920,  8.219811136336485, 47.840172470096753,  5.198879549483101
 8.693589347408519, 13.232153328223468, 67.901902204975102,  4.942789127807376
 0.862969608275445, 16.279107757598567, 23.589668209463419,  4.957151153154630
13.806544063661024,  3.803361084167482, 57.411845104735583,  4.927479198320218
12.721484039647017, 11.293230813132316, 100.694801412512319,  4.646217105495960
 3.770704181836777,  5.565929916226215,  4.167678763687023,  4.876819361538022
18.346801282015917,  3.407612618921759,  5.478398587029888,  4.874568901072148
13.126374531684272, 16.409188792181464, 51.670310280313984,  4.506032366808244
 1.130274097599837,  9.493285462013462,  4.978637560679102,  4.711670559344227
12.797915795434260, 16.519429179420058, 40.676600818766907,  4.971765288497925
12.340556562431116,  5.671667768117426, 37.455040297056350,  4.691563508332257
16.208239246741016,  0.062840277178464, 64.803635767029817,  5.280757737335427
 4.197607176370967, 15.647099277637269, 63.927497216257919,  4.774243781291021
 0.945746245851164,  3.315596948693138, 33.715175128499666,  5.066743819425234
14.984368794167327, 10.528550623305490,  4.051136218286436,  5.172885100187257
 9.701555990539354, 11.128179047481872, 86.395773492696492,  4.718835653684526
 7.616839479585284,  7.442421767655526, 88.905535271000986,  5.115328118103495
 5.070082859660557, 14.008681993877529, 98.807587695036759,  4.870133572928845
 6.439827408649736, 18.037214739689190, 36.368475324271266,  5.259510715935343
 3.086547151205091,  0.342672835402820,  3.657534661992628,  5.105669804968052
17.623883286148192, 11.627586561381673, 53.017879707301077,  4.699017915096262
 6.481043850135825, 13.723943921726482, 109.739477970831118,  4.465551391557123
17.828926088862637,  0.102451621351102, 97.638995877777134,  4.936007663472846
 7.575167238142413,  3.866902703313765, 20.426639823755650,  4.724077736452350
17.845214038608489, 11.919559039940189, 36.469663434715649,  5.206597876679291
 7.294631105786582, 16.089087552402649, 102.753437319590162,  5.037135812623019
13.587257832380704,  4.945840575552263, 106.385248864951748,  4.802494903391946
 6.480636496237540, 10.786171745392476, 16.586283715606509,  5.080421283113887
 5.444136627221952,  0.288615788927816, 81.642088468837969,  4.978030679280384
15.030366091396228,  6.516702858118176, 61.236337761171370,  4.752126664957345
 2.682624899925366,  1.404533099844725, 63.920103047467599,  4.743876655497777
13.360052922630020,  5.537733502901094, 45.676646663326842,  4.896553807729158
15.244255643287062,  1.025544069305942, 93.086010517793511,  4.958769678703687
 7.486997293530619, 16.694529899986630,  2.445806410154181,  5.189218243603523
17.421897974184695,  6.822927621063028, 20.530921121315604,  5.252089250817063
17.746172809774020,  5.832784092012205, 90.535584743880023,  5.047241132588395
 4.779152022889291, 12.906734719629734, 20.841744767817971,  5.018802654719924
16.471329863300717, 11.180371864391336, 60.364108047896593,  5.107139988804820
 7.802223414355578, 12.278398122446598, 11.433214879898458,  4.889624147574350
14.357357223670355,  3.452357822733346, 33.625996604543403,  5.016850114946683
 4.076847288976064,  3.182581649294904, 77.655241742371643,  5.238310667796814
15.562656551205334,  3.316188961155764, 52.578729711237500,  5.240412677065988
 9.994228332971447,  6.443077547302823, 93.383175784370252,  5.217522962553815
10.271456599692835, 18.486457744363772, 83.546952261723163,  5.460648347835985
 2.273284915620973, 12.859903753800673, 14.112399823550721,  4.689583539947828
 8.003566433811287,  5.370621206578064, 106.462404119128081,  4.577163522337186
 9.466095278613100, 13.784972110223897, 43.352450836298281,  4.882446664832822
 0.454789183960511,  7.332021670961705, 95.283670991906092,  5.330526125589341
 1.076868226333526,  1.194943208311776, 83.907414131459007,  5.024223316522766
 1.071908320431342,  2.504039820304472, 93.908132620038955,  4.781679253354839
 9.122780942791445,  3.243089396393452, 46.255387958247525,  4.718808547968974
 5.798706707959278, 18.558622660619015, 27.470129516633769,  4.873309912975474
 0.318306725488873, 18.404269155013505, 13.907863306688597,  4.818162835930576
 8.319556727738679, 17.465466602731983, 107.480097218092283,  5.015370482711811
18.086972167701969,  4.848087572611458, 64.656441870182732,  4.979001861659646
 5.298199749024418, 18.138367296813669, 21.460376076940836,  5.534039644707788
14.981537664151215, 18.643628244837124,  7.357709678600184,  5.227939038314339
11.648794949741479,  4.119081794814372, 15.315533364423088,  4.881446571995152
18.643574811499107, 10.983225621762655, 87.338450169101520,  4.619021271867969
 5.222784988743164,  5.380784784392169, 34.500492286417071,  4.557889038902806
10.209864491650700,  8.831368108895942,  3.171430655779747,  5.098508949176439
 8.516136464327017,  5.057315947380844,  5.930915785645903,  4.843090486396027
 3.666077518491386, 13.008870365343471, 68.060244064894533,  5.063035704425421
 9.015036790093136,  3.607925881130938, 80.068041638903679,  5.111239129337448
10.801188397701353,  6.157641612350592, 23.962391335560383,  4.840128077535262
15.175180961882194, 15.051188516257241, 99.159845841230975,  4.829956001293966
16.890943779860887, 17.951660277469831, 33.662799320836989,  4.890230329141390
10.175801569226401,  2.686185411328293, 114.612554198234847,  4.886241535148045
11.961584180416711, 14.663218575121396,  9.235351023873962,  5.427406966755080
 8.918463559874215, 10.480345699277436, 22.711678864829011,  4.857530407332533
 5.803067858710635, 17.686416603955720, 59.953942663398486,  4.688218042868739
18.454295445328697, 10.223834765596505,  0.675953424383089,  4.467590856744549
18.486080136798609,  6.157629026351069, 37.571688599407409,  4.757810573722676
10.810483322347430,  9.806973061928485, 46.021585490811539,  5.058769278547995
 9.398504546846782, 18.385556808002171, 49.492425962543372,  4.982746394781003
15.239841921056140,  6.867446515950169, 41.174184375281307,  5.026392969267169
 8.013269655221729,  4.003850566303655, 37.868613367051346,  4.612517936226527
18.134695220806755, 14.183717949477153, 56.875987720996733,  4.600297561223814
 4.469686712509511, 16.542966021002375, 71.504104349803470,  4.929724369219806
 7.715129561433343,  6.579259225089017, 111.003460477034437,  4.829899820135526
 2.506529161256111, 13.874677360208228, 49.236751117416858,  4.950796833531431
10.903497853536068, 18.023121339581540, 44.743497906199551,  4.489740982594992
15.732024795473121,  9.881048835351308, 78.678238870275848,  4.992630188299202
18.186123205449544,  2.038082503968826, 79.227904982095509,  4.836761642904586
 9.064871876298731,  3.432531744190710, 27.620880778708898,  4.895970717619886
10.246009319043544, 18.404030598048063, 58.509851957942857,  4.754430470417685
14.058971286617243,  8.689317599467598, 87.612692276299299,  5.227119158262849
16.261095754936996,  4.286921598354249, 85.875520601306647,  5.209391873594997
 3.935925877755313, 13.136686451958093, 59.424648559003153,  5.203242536959249
11.206232839059142,  3.033203348049458, 41.577586372301091,  5.354499166826346
 0.097323028048687, 13.707931472651046, 31.635956357956914,  5.294873552171222
12.111204616815922,  2.885345605031429, 71.117244282411548,  5.099512700098873
 6.759564735053871,  7.163634813245395, 44.744886323514521,  4.921093456810393
16.634751332002146,  0.597774562017501, 70.065481646409509,  5.239486638989092
17.780730913376452, 14.590016115963312,  5.582057751089303,  5.128206395572469
 3.958056490153070,  1.312551217543788, 16.907795510362906,  4.706639418763443
 1.562199252271002,  5.050182831633204, 42.719515034418649,  4.938670711255033
 5.625114087363288,  5.377545050810181, 24.626672682531879,  5.013488103358898
10.139631367921652, 12.919309237205766, 117.150728483506981,  5.330077854926659
 5.917176287555788,  0.826529745663401, 55.416627379186181,  5.135596647998364
 4.635980420048602, 11.769605669465903, 103.264741336806793,  5.098716934485658
11.713952814923577,  0.558182815407044, 66.854616861437378,  4.641651827627084
 8.035577003138782,  0.814994749233711, 75.732838681770275,  4.737812006291556
11.434998413605884,  0.697701969141748, 36.776275396772917,  5.142189278787125
 7.634858949668531,  8.878921148971390, 50.080282922175627,  5.403720851382926
 9.883082366712555,  7.037827084918193, 63.468751643009362,  5.551621032488355
11.942839673729900, 11.828662506340496, 63.466383621081675,  4.845100109606950
 6.728731945666801,  8.707762273124890, 67.634192456407860,  4.921556719140575
10.216367310475922, 15.019211231386606, 98.736570880741581,  5.122829344882851
10.986772765531892,  8.679431174414869, 108.076001365209208,  4.897814817987193
 5.481704466610436,  2.286667245581875, 86.291968167530243,  5.131494142026638
 3.815161947359832,  4.539736675484622, 90.465821141733144,  4.908723678538441
 4.234764116942962, 11.658298347450570, 36.544066220112533,  5.018954066169842
16.527985386557638,  0.107495459685977, 102.478536225838212,  5.028209020329761
 3.323799858061961, 10.258787112204919, 52.330225985918261,  4.697650949053929
15.973309245141067, 16.118082881275619, 44.565163917923634,  5.098889629976602
10.684695892789000, 17.110655679264180, 27.462293371465776,  4.915222759599131
17.958838380820008, 12.297678764333536, 96.140012956077570,  5.052187534115818
16.914865020297860,  9.213271180132072, 30.062087468359554,  4.981358004865596
 3.371317934894688,  6.084329351337157, 72.442712472404111,  4.816652472088494
 5.429039506882503, 13.334249875996804, 114.619249763479814,  5.376664043652092
 7.485803832550138,  0.916641001940112, 12.421311857396454,  4.777106493178174
17.929593452733361,  4.582171328768319, 47.556583476940098,  5.147428013570578
17.425081497928229, 15.632601749165612, 84.418416728831914,  4.732839039804474
 8.041761657063224, 10.078500457462292, 99.804841744567071,  5.179855015873287
 1.816679015178039, 18.610696445521892, 42.807940111115066,  4.978164658003934
 1.680670725305388,  8.300624799970629, 67.571010575791760,  5.202372573898759
 4.200791748172616, 15.256355266345993, 40.016105672911763,  4.936387042485503
 6.967574820592149, 12.238329571446817, 90.508999062792910,  5.065565409979183
 4.065229732119905,  9.182910777960963, 112.294989271276620,  4.494760307352379
13.596030802453186,  5.775179872831228, 11.170944361916121,  4.837565978397453
 3.189018156852462, 14.559612334477128, 27.468883238043563,  4.651287617779553
17.073754921539681, 15.122381774484021, 10.669313254127777,  5.196489512466130
 0.936555462204816,  0.069501608409312, 56.592472924208501,  5.208002274372402
14.014270524758626,  0.065686390506553, 87.263867616358951,  4.736019061277492
 3.148390449391584,  3.527018484074757, 12.552627415850601,  5.131663505586380
15.811591096803904, 11.089742792412293, 83.490866792105251,  4.932154393910282
 7.982583175399656, 16.303305656114166, 94.459069782391680,  4.854700486714328
 4.409291069315374, 18.521453671330530, 116.029948021050529,  5.026993464986159
 2.689159452887249,  6.348223097520913, 108.840986655329331,  4.855962296552769
13.540371739757891, 10.039447262789899, 21.054237968636528,  4.882992688407631
18.030465824680430, 16.615402657356320, 52.343930551375330,  4.802939949097388
 7.570965619732673, 14.096266217904843, 83.323537869956084,  4.796190097147202
 0.928883842678800,  7.498376887940552, 60.888899439860346,  4.724365947412827
 9.449655953565317, 15.278872630769293, 33.593590490929806,  4.607434980788836
14.074489720140821,  8.969405761153226, 95.718659035705457,  5.102277378826599
17.139727128528428, 15.425358332342041, 110.235430105198404,  5.386669432005559
 4.139569771631141, 14.603373820090669,  5.781225637817990,  5.032667928184348
 2.697867484679280,  2.276583580784131, 38.435536117235287,  5.164350524901844
14.724965617665232,  8.089583808210241, 54.846457140583006,  5.149837491207228
 8.375074220694755,  8.841748519740133, 36.965553911829510,  4.946577780342583
12.502512867247454, 10.389387156775957, 28.781799425747241,  4.494164053911259
18.309635653596928,  4.610328679567965, 29.156305631609140,  4.804267591662167
 6.017953137155339,  3.160824266077769, 42.057223490527882,  4.804709719028734
 3.534086108501188, 15.855536457173979, 106.319517697780441,  5.330614813131467
 4.957039420294594, 15.371995165009634, 31.915537725425647,  4.983880506932499
 3.672329913259833, 14.859561067804155, 54.394739578154251,  5.379792814370190
 7.426743107303952,  2.341204612793389, 63.056159013231060,  5.067768484140618
 6.057458216070797,  3.368953113970331, 94.655679514382555,  4.872202293194037
 9.855818218446748,  7.772585169362600, 18.739946057430465,  4.927343229694725
 5.472887946099380,  2.340808177329320, 109.777365877346284,  5.062689830848334
13.746128061810502,  8.285448411461569, 74.325880107568707,  5.086737370837770
 6.391108933396186,  9.640479555579013, 32.395216915089300,  5.103433730930482
14.296785720619468,  8.669454651536773, 49.735363514218058,  5.153925633663621
10.013826167713047,  4.305350500982878, 85.901083581722574,  4.803871521474218
15.385958331144053,  4.277920280525946, 96.793412299134218,  4.855304226644264
10.851743179564947,  2.238693028667187,  9.176972202567274,  4.934993140886175
13.221156095512496, 18.379315246867957, 17.987800800265095,  4.859013709061728
11.902431998882451, 17.697800592061853, 117.207525239010025,  4.851304201284852
