BANDS
8 8
NANOPARTICLES
cell(1), 18.733
cell(2), 18.733
cell(3), 117.078
 1.641649707178743,  3.616716725619275, 12.855195931822646,  5.192276994454432
 1.396584404367531, 17.266910475812985, 87.059575841718797,  5.053790064398664
16.490790057101766,  5.079522311497814, 68.669401782660714,  4.755910636730127
15.382030142777641,  2.516320206745027, 98.185949651307624,  5.235053336895696
13.780188641483022,  9.483223876126219, 15.180501220285501,  5.231416872762400
16.134005894129540, 10.481238642869981, 71.468754717539568,  5.694883790783051
 2.404069952890531, 14.636585366129896, 68.442806710536075,  5.032470707451809
11.749651222981676, 15.302514641116073, 67.076957040159456,  4.867015503065447
 3.355428407412322, 16.050722566107037, 96.516120345265804,  5.182843157800963
10.480321281722208, 18.021391431759390, 56.100184556048262,  4.797909288325815
 0.719200801785885, 18.265048304130691, 16.039989513673714,  5.328142518698663
16.464106843661821, 18.671641229305362, 28.731532147986314,  5.399429952814015
 1.852728722257522,  0.876160321025389, 37.379228253854009,  5.094107545396257
14.482982124024913,  4.410933876644470, 26.549805094093859,  5.215717825662616
 2.491378155626433,  6.255035337487906, 37.850188153517450,  5.113324769525182
14.414942377644991,  0.677896833353459, 16.459441682615726,  4.988351056759522
15.162868566493081, 14.536164873022260, 75.557063841442911,  5.173916818213771
10.907644542855463,  0.862683245815500, 112.141617038246167,  5.362527334099390
 3.693391728522688,  8.376696043658420, 98.709418851265383,  5.284735662766416
 4.927546444585957, 15.533247731636363, 17.552488247036710,  5.104603768098336
 1.134420891340409, 13.719706142357078, 55.351557281039732,  4.925011968026349
18.637560750203608,  4.606999434940123, 30.699421408236297,  4.726098590547299
15.768134736218363,  4.109615415016092, 112.867290858104283,  4.612926460580786
11.368201231066131,  8.747012757308630, 50.714412232045021,  4.685523202619208
16.187135892355961, 13.720148868231748, 51.755784016595207,  5.355782927540286
 7.251145475060675, 13.367205556123366, 60.642210175929897,  4.940225862246328
 1.795956037379717, 10.883428833203347, 39.550758858563675,  4.692544347170891
 1.414834020775467,  7.224661075878801, 61.014622837819751,  5.283065067683464
14.517518164279712,  5.433488069886033, 94.147138808626565,  4.876860340951847
 7.837869717187712, 17.861853270284737, 95.885332078349137,  4.562693136430050
12.945788770772799, 12.051180050949700, 29.553305018278856,  4.601644670700126
 3.858475025904565,  0.387132518072180,  0.482355017380181,  5.055607228418165
 2.889403305750537,  4.075478662101057, 86.842908511238861,  4.885354234078008
 5.336764058704456, 13.309369152168562, 26.007318018181227,  4.849306130260575
 3.408775538281326, 13.532159906555151, 30.794623993268264,  5.456972811028406
 7.535877585425849, 15.326166553275176, 91.880131214833909,  4.923072850716877
12.444408090400444,  3.362011401353155, 76.773949873446625,  4.735431978631565
16.168252451951044,  1.501356352527748,  6.571267187080677,  4.671507747614882
 1.945370322771062,  0.078708265232065, 32.296056208186961,  5.188665931056783
 7.144675498878026,  7.934000004360434, 108.549080743558761,  4.736431291622500
11.500486193774519,  7.274182156231848, 60.349488626588666,  4.801354892961122
18.094654529319147,  7.516724405134719, 86.738246070657354,  4.966451399224685
 5.607763499796540,  7.596444813323107, 104.048192230989784,  4.750466356518085
13.163316835539041,  3.432687286993010, 21.272528517096848,  4.697969515396462
14.130895599368911,  8.176185708675076, 89.687698487568227,  4.929362763604541
 7.285300727373058,  8.487532616473310, 31.492509151213866,  5.004405331373333
 9.991771124972214,  0.570978120366539, 48.871901446841562,  5.062862463073897
16.935405641231579, 18.450586616012547, 44.352462063353833,  4.722501839162820
 4.619221114294993,  5.718408861282730, 65.045697709366252,  5.433241416190964
11.007058810482274,  8.417648664943743, 81.173760127422085,  5.331026084054766
 8.989881931232368, 16.194652663181976, 52.218361939129252,  4.270768477473177
11.503616615601997, 12.545468570971375, 53.883619772911800,  5.179752214389069
11.138921471216758, 13.526432892869842, 81.562485187845354,  4.855392611367529
 4.942421982079128,  8.491504222450938, 26.339567172390851,  4.830545076869935
 8.758121238955475, 16.504554178330824, 108.316817437726641,  5.350233837917345
 4.660414432129051, 13.460427048577378, 100.680712337733681,  4.942489379066967
11.200988740804986, 14.179493604099868, 72.244097678629771,  5.177935310860329
 6.658263748415542, 14.403369960356821, 55.812641253571805,  5.000732473040736
11.234693287382141,  8.404245066862075,  6.854030152659135,  4.806202382111196
 6.055802971449888, 18.144296891228265, 100.180507574744709,  4.751618062535632
 4.084807199403715,  2.827561440667919, 103.708954596861219,  5.263167378267337
 2.579797155783611, 11.407992104483929, 105.406134625790330,  5.296395905956988
11.553804795541296,  7.211570800032809, 29.476199439558386,  4.755208126953353
 2.490765184383770,  4.465174404233386, 69.646021002462319,  4.985922144870422
 5.017465916593601,  0.795520086926706, 48.750768677067313,  4.848322456309516
 0.482836296071324, 13.260953615723347, 17.107513737183645,  4.910084400557576
16.626302230414318, 16.592233791532234, 21.171335464035835,  5.211793582949968
 6.311812549369549, 18.210918150424128, 26.389890937757173,  5.161418920749430
 6.354904204158975,  4.294577674865860, 28.529219738381180,  5.044345892890541
 6.624236401216772,  9.673233390619208, 40.414585667167650,  5.336608615418863
13.117807845613664,  3.311481555837458,  3.049509395365597,  5.318689992898331
 2.394919392672244, 13.434778153092084, 10.548827994906549,  4.990412122069422
 5.552122695452109,  5.207689596703394, 80.666006062106007,  5.124871726150221
10.347349673729358, 13.183907005263208, 48.890223394179088,  5.106449325734863
 7.713963765604002, 11.789076079305790, 35.882146195643479,  4.898046249880657
18.323888518659722, 12.686283815535694, 84.914140368585947,  5.530023553764157
 9.468941348083648, 14.778890717182419, 101.340849345298537,  5.020923184089926
10.516690188233756, 15.352940460236310, 26.977441945228620,  5.069606670581672
13.337155864500550, 18.074100635821026, 81.991481701340660,  4.857157688881094
13.343904656995354,  3.475979118622644, 89.978888933871929,  4.607367079488656
13.031939012495050, 15.855443036018919, 42.858056240242981,  5.098502825727225
 1.997094036309738,  2.866101038601157, 77.591998889954155,  5.371520599000426
14.746258599483832, 10.721347742890819, 47.594900835215604,  5.299024879315272
11.606176485838876, 15.832233737293517, 60.375590930917781,  5.063558794369363
15.373301702033395,  6.993920365516876, 105.636149364356001,  5.114001358754360
11.941213383060541, 13.324253875421610, 22.455742656467208,  5.229426810461542
 7.219583175645790, 18.044917900418255, 59.512900953346637,  4.623980753702724
16.327565193683956,  6.758508734356345, 22.275367954714405,  4.697129975084151
 5.999670424511512, 10.523787234414700,  8.853588402406542,  4.868877535687013
 4.214248696046531,  4.697081498036729, 33.167497237109792,  5.204124379561694
 9.214967769425380,  0.575381242019081,  0.305802915384613,  5.669656468362649
14.187299818951468, 16.185608504938891, 47.717040516847362,  4.911921051385821
 0.196462802942119, 11.207084888723122, 75.839499964118886,  4.779565499681150
12.849264807044191,  7.577682545026433, 55.484617315571498,  5.207484494879351
15.848444997460714, 13.587797729451722, 80.446340725009790,  4.815849939478968
 7.951153845652495,  4.011409142061086, 61.464171396441650,  4.926640773838395
16.066817160531844, 11.648367699153580, 107.245600953019007,  4.814502364888250
 7.073783957943229, 11.364308705601426, 52.068302531423150,  4.673994998413998
18.182458595102361, 16.423796566993243, 116.860879132519358,  5.371076658365870
 3.560610900429866,  9.691579066889377, 111.419735673302299,  5.077805689507945
13.593595594636168,  0.602607054870905, 93.809528187867400,  4.942492919319051
18.288737030678327,  0.502951644179075, 68.451751681523149,  5.087397986109269
 9.967564830978130, 11.817125756409050, 43.908873500918567,  5.235018282731910
16.203708621103335,  4.518423412671311, 44.084438607385522,  4.983106523222857
 2.874881374244367,  8.090298583689817, 21.818723526354834,  5.136635705798620
 5.182587626254230,  5.943601852594139, 57.624599088500347,  5.171771238185314
14.790317542128944, 16.277945157785599, 86.296790242778727,  4.907198605709345
 2.937194330104496, 15.717142889460666, 59.560197881976329,  5.047198584161484
13.207319092054277, 11.289720487231612, 85.513313794344725,  5.121279246217728
 2.213171488147246,  0.542426883857813, 107.868560488389662,  4.876475847298773
13.674700691952856,  9.441938911408128, 25.468903247022258,  5.188851132577159
 9.186272766347109,  3.938828235704370, 32.538095241102305,  4.787481453020483
 8.344725045376999, 16.564194774088644, 44.972815579031838,  5.020222998703696
 3.131575048158936,  8.705804567691251, 53.643432509714692,  5.337941206565976
 3.112098043373810, 10.317758102492599, 34.924459713085156,  4.950836661701473
15.262362295549551,  2.012679253048175, 47.980097612474616,  4.462927706009697
11.870355975211048, 14.705796807727131, 94.168787982103780,  4.931400555469811
 0.536295886246129, 14.871226492743752, 72.896582819968984,  4.630226560076932
11.606738606267433, 17.328147634424425, 89.823939548089157,  4.822782950015604
16.711349541440381, 17.432208226627775, 90.569402145890663,  4.738748067141161
 5.315363853945883, 14.466363901867144, 48.583705990546882,  5.295549850146766
 6.223414458826962, 15.079277369771949, 79.065275824625218,  4.789203348896374
11.760624394663770,  4.775727192695115, 115.383596685417615,  4.936528260201034
14.283557325205560, 18.043428358251166, 63.941170645112301,  4.882318006234664
 3.237346281761618,  5.160323155423443, 17.561147807300671,  5.203008525786960
 7.466713403323806,  5.750970587394179, 20.322792279748636,  4.956749628781501
 1.552024448736675,  9.503491420104284,  7.109740502627950,  4.873234224726283
 5.317619794983935, 13.117272047317094, 88.273004873753408,  4.621618122529890
 3.576535567167002,  6.353612302936247, 49.131294211049237,  4.860244830828790
 8.643559943200213, 13.401809843199947, 31.269822240779028,  5.043814462560702
 3.253845929690896, 11.172547413343342, 94.424994016927741,  4.956761459422374
18.126828269698819, 18.608222343007359, 54.279958875743915,  4.898862852716851
15.515831391730124, 15.517426184482149, 70.136395550215440,  4.776297052096924
13.204227477839861, 12.752327118398226, 98.569985875797045,  5.058071687554730
17.977370319460078,  1.369055071092666, 104.137617081067333,  4.800535151566573
 8.515270399376714, 17.532156539142253, 82.577395546206645,  4.917399257007528
15.780129137903950,  5.121139204669845, 59.703628470772166,  4.756950373412498
16.482109373752959,  6.922532061788010, 39.653017729110232,  5.079523744556428
 7.143369575652576,  6.825968797129493, 69.723637724460943,  5.426017805619364
14.683554976277096, 12.592859553205487, 116.671047826609012,  5.002807696395734
15.567317738389193,  9.254828472466475, 62.233343001314623,  4.943440292908410
18.144751991056683,  8.540137414069916, 18.145477660091640,  4.990111639382050
 3.175913853012859, 13.552368062586162, 114.656682267894084,  5.016638544838038
 8.486029116533569, 11.611601878301412,  4.043743404475451,  4.703484470476371
 8.052423865236166,  4.646633217279952, 101.009203581917660,  4.991782532741665
15.350516576695819, 14.354439944877424, 26.096232608862685,  4.955937396967069
13.483629140888821, 18.039939319045374, 52.197499342412556,  4.874160937009601
11.259975797799937, 17.459038398045344, 19.673127184355515,  4.824341748596981
 5.142948110365409, 14.431076276075663, 74.210019466268463,  4.937075016944096
10.028358299339919,  0.106533091144284, 10.740744923339927,  4.978593735637822
 0.124163790086903, 11.879961531242095,  2.368397804740709,  5.119388563496341
16.502943775860860,  5.573805974675057, 77.657405442595405,  4.656768667533473
11.854497329101781,  9.429737419310451, 38.762905455040155,  5.166433873685461
17.832591517899221, 13.703196033102579,  6.895997869404782,  4.854969746229396
 8.644956293900611,  2.095783693316703, 68.513497602614393,  4.785292271052804
17.786408977558537,  8.940703049412017, 92.955443246153152,  4.990295529027243
10.134213319770870,  6.096414400815355, 92.188410421131834,  4.781610345268994
 9.806615892186825, 12.460336901979259, 76.889463473183085,  5.092193666478262
 6.853464652201126,  1.097917566693107, 78.012627447488114,  4.994176553913589
15.147193126164513,  1.886232998794481, 11.666229785721576,  5.003418400865588
 4.671553311000120,  7.917041965917006, 13.036590585659599,  5.324827222724161
17.952338240931653,  1.825618188670446, 73.320190209166725,  5.021885581215109
 8.133518548419552, 11.988125599030882, 111.154174576562141,  5.098796523963236
15.022828039689536,  7.677884116091790,  0.851072409066085,  5.160659515230314
 1.223633518140575, 10.972614227408366, 48.982577331722467,  5.493931916055767
 0.964657575187684,  6.830109710644645,  2.878805552853150,  5.160691117194396
 3.420533854899004,  4.772406270314701, 110.181017746095208,  5.062163239107438
 2.171619011244442, 18.485041617187647, 112.805871024667496,  5.096364336756238
 8.134282147610676,  9.958227803266947, 100.664876670244695,  4.918958917273196
 8.113823416346978,  7.825518699582035, 96.244325914277283,  4.895855713172516
12.496648934880747, 16.672549002930847, 31.456187247198450,  5.023099784255565
 8.195410650207197,  5.096296521959177, 48.870307571098770,  4.667054040139369
13.194486399010808,  3.926454690280533, 64.603891507070330,  4.562129918333727
14.268031541135976, 11.363458722298384,  4.413266857271195,  4.962789339265037
 2.697318673381591, 18.510805169951986, 21.067298531246909,  5.126631726192575
 9.521850763628844, 16.256820579663451, 35.334708875048982,  4.782847229510360
17.142534933422279, 13.582430217667183, 60.377325909712297,  4.968821736169250
18.691495735890250,  9.553497607902237, 114.951563739722260,  5.003567626684231
15.933846825207450, 18.133468494759001, 111.550076457325815,  5.171265390157061
17.813491263522923, 13.311428935756597, 111.625853063713677,  5.175564392706344
13.109439577384105,  0.475944166119855, 107.241603834310865,  5.099854369110890
 1.764178661429209, 16.372269784558696, 77.360260754662718,  5.082921485778963
 4.209248453701099,  6.887064184445942, 44.281275662082045,  4.975705961359344
 4.273841107102970,  0.835542966172813, 66.766261470747082,  4.942588790046806
 2.792581971829725, 13.239938566575544, 21.631505950390139,  5.169501871173439
10.464983738261381,  3.377735167968850, 96.677739210551209,  5.194025993971047
 1.369391299819255, 16.333848554995040, 25.532709935182549,  5.124200708377049
11.199083336832972, 18.153644763508055,  5.983528431206420,  4.822730483817529
17.223950180619092,  4.184626131039630, 35.396080710155232,  5.119158471825768
 2.706229642259291,  9.809166445024955, 70.235664578581861,  5.273740262416397
13.355139504824963,  1.075049573364458, 68.374185918774728,  4.833555661926858
 5.488417910582716, 15.217927811393421, 40.475777511292577,  5.027252574152162
10.115584011570874,  7.436576536859893,  2.172122210831239,  5.009233154823921
 7.790725662564017, 12.003441661997476, 105.294159745727399,  5.188451384372136
 6.659348694755210, 17.936676807276335, 87.440486525188788,  5.516500307009947
18.604857164570305, 10.006650477734491, 13.311532694003654,  5.150734497475145
 7.281151429849356,  2.554210315644615, 44.960429199530147,  4.655172963206000
10.180469043152653,  3.213593501258095, 81.073379950461771,  4.983575722766035
12.215860898432087, 14.064528984178502, 105.695203017000196,  4.605877363456693
17.670334993182081, 13.813002459592759, 44.932889007829608,  4.739342334821298
15.913289538011057, 11.921136660381611, 40.727904920544937,  5.038954128761619
 9.600624127163076,  6.182730433949076, 24.967259569492573,  5.280455466786929
16.039798412154383,  1.651368110881255, 39.801782482186418,  5.310942245639978
11.221289972796594, 11.596303555103484, 63.173060924060231,  5.107133373754662
 4.837159358948181,  9.908959594335672,  0.950136732578482,  5.450745165643624
11.388705230794155, 15.486338989043528, 114.844639242589807,  4.483918104148398
 4.464458835717254,  6.476084867056322, 92.965633340026699,  5.159203620592425
11.920682773604000, 14.464855817785892, 12.589127901217839,  4.940732249420490
13.590849811627447,  8.497340357405431, 43.272004717128198,  4.674251644855131
 1.494700416063679,  6.596324166818272, 106.098222620979584,  4.653995622916629
10.614373619772092,  3.601974212419552, 17.300530105359009,  4.742281061527144
10.193549625401717,  9.861873805748647, 11.475312324748472,  5.104755437227099
15.826969190242172,  6.726250855296642, 10.613366247151479,  4.989112100345233
 7.218689122064371, 16.120940622121836, 68.986571856741122,  5.096049178578674
 9.290782935879653, 12.658676577485640, 17.932328647316481,  5.339530291039278
 5.228983755960189,  3.183139769752435, 96.960836476135498,  5.296850417818828
17.849059778990117,  2.369244241179910,  1.954142778490741,  4.552209068299709
 3.206392718748972,  8.858036370652664, 83.584803200712017,  5.328138727703106
 0.797132943484955,  4.698790532798402,  7.947015926104267,  4.996096779007734
 4.583208368668916, 15.702094345699006, 35.491867746861416,  5.148327605848125
 0.701792802663493, 11.280170290839488, 26.704920738086564,  5.335125542488587
12.649866469946248,  5.776831239013952, 47.235274638084960,  4.801263416139144
 1.364837973020210, 11.044194177360296, 89.343573669304760,  4.552938580970443
11.552853071735433,  9.927524929642003, 108.057356086390499,  4.978449425400168
 0.450947175140330, 16.587439737702450, 64.046302900852353,  5.342687000957218
14.333514694726254, 15.836148012354425, 37.887176217491103,  5.127993319229722
 9.215591582764874,  1.591586803405401, 92.400841012737445,  4.404120796360714
 7.994080529993337, 11.041480356627071, 84.666682005563615,  5.249775199347234
12.427320098120704,  5.109000736086542, 109.410059604964857,  5.175142366959589
16.175602695799146,  8.609540756046371, 29.811841427858951,  4.836812049594065
 8.871969614963469,  7.912428355577992, 15.974112297499916,  4.899818241865534
 5.241763948384342,  1.498522716531787,  9.057971161425995,  5.036164963795490
15.606967317457034,  6.807328897061485,  5.723154185907951,  4.763441255379266
 8.573061151417164,  9.909795694513711, 57.196975849686027,  5.118095740861490
 3.519502517473120,  1.205761575748471, 56.678193133401045,  4.976745353082170
 1.560011186756275,  4.522474574864987, 115.153604819588381,  5.558482816132986
 4.947173632819889, 16.512657221462533, 104.710860117193732,  5.129404046225911
 7.045963586681405, 18.269836879927894, 31.509455494128130,  5.177777908126388
14.906068424671178,  3.790597590447701, 81.614625818805365,  4.586097717674190
16.398487236020760,  8.613435733565479, 81.726975572766932,  5.496531234267828
 3.480731228621694, 17.802577997625750, 44.343222252562043,  5.093135258416066
13.184129195377984,  9.176164952394176, 112.979758871419207,  5.482738397532508
 7.649770743371474, 12.954795587502350, 96.528811453650860,  5.334412577367357
11.852677985458893, 10.401126396590554, 68.123337248460743,  5.154153263887646
 6.623507843285540,  8.685566192982924, 61.500196294709568,  4.638537489615345
18.256925081744683,  8.962800199710026, 44.162826541719475,  4.799735438062689
 7.548293694018533, 10.381836864967285, 92.100004138704492,  4.908222056182344
 7.109094907695217,  4.012457816243033, 89.155098980269230,  4.720804790717516
 0.570967586617323, 18.191622051291294,  9.854490563782392,  5.278893101916765
 7.026075202213132, 16.410256748290188, 113.302729517902833,  4.937285807757659
15.963112013563510,  8.697106959884433, 97.561359794243288,  4.925710641200541
18.488006499515262,  0.426992912750719, 94.734158460641837,  4.948568659477959
 0.530026717480184, 16.942041483164445, 48.655044470592223,  5.480403307254762
 0.408743882218023, 15.950478886322472, 40.709708312069012,  5.113938479798813
14.095891546317080,  9.754544239716493, 77.102062654519870,  5.052554150786030
15.188624992030707, 16.445246261225368,  3.898232505610415,  4.802704821952774
12.248242155647945,  1.983071190826031, 60.458477029028174,  4.782960900077588
 0.528431158270998,  5.224903332519389, 96.048036492898873,  5.113970784376018
 1.279138703871773, 17.693663488005779,  4.685374292179501,  5.193259538496219
 9.130303393262501, 10.637236191649565, 27.243494669452858,  4.749711043272156
 6.253212145922695,  2.484026624190099, 113.510329472695233,  4.803231537756725
 7.309487167542652,  1.826855989813168, 53.133733258133880,  5.255932096659333
17.502731636040473,  6.634060262684460, 48.182696400646513,  4.599467763909793
 9.636695600403034, 11.321973512910064, 116.184216103772314,  4.933758554993992
 0.357567928572234, 15.472373323771230, 102.554612592992783,  5.222475546892335
 5.126784911672393,  8.337777528236625, 88.315940110641833,  4.935587171491177
 1.204701594011205,  2.905225943800138, 46.747798563652793,  4.737026559193847
 9.687195894123292,  7.123261393656537, 64.874013894342042,  4.919818422697429
 8.782099243150656,  6.430920540677862, 77.056405223691755,  4.832788213306539
18.021190635812541,  3.674519430252052, 64.178133965783090,  5.129014170283333
 6.103150983802187,  4.868135913906881,  0.697047802197241,  4.954451718147912
11.164892205000417,  1.733002170755165, 85.892670781270269,  5.266017402065367
16.001928562883158, 12.755113371081420, 65.947221912056747,  5.290789087913711
 2.528605064634118,  2.884568837479253, 52.252075890049937,  4.689731222216035
 6.354343619227882, 10.235322128051877, 79.765345532208144,  4.926844844382978
 5.450597223858536,  7.394775443676140,  5.298714440038689,  4.654017493084344
18.644084250744061, 13.885387879619868, 36.142920668565843,  4.926584981621366
16.830607537766760,  8.644213738318227, 52.489787040528398,  4.980856614838788
 6.502617703099037, 12.821021438969822, 13.479947832948646,  5.170943997687530
 7.217766722805501, 11.684684948388769, 70.920362608060856,  4.581747516486247
 6.764805414342193, 15.418393819062587,  9.084932061479549,  5.037585985855513
17.714060858895422,  3.018952527158822, 19.469977699814727,  5.051115564846444
 9.709834240444531,  3.999106983386310, 56.953216662394475,  4.755674035787088
11.847323362814672,  7.177995985755964, 99.469592780835342,  4.626236069551099
 9.469736595024548,  0.098756410201217, 40.463751361763144,  5.318170906210310
16.863695965384878, 13.842019674008073, 94.018149575227383,  5.195655041085678
 6.965473281097038,  3.094530155928853, 13.773974859265813,  5.456004394893562
 5.306023663056508,  9.359921607235240, 74.838840331796590,  5.282199017494579
12.296240102773096,  9.794101716284539, 94.432842162423555,  4.889828783728474
 6.424393636115962, 17.888550202642374,  4.680119422324823,  5.082648788329246
17.004754737648955,  3.260931005402542, 108.425039696520628,  4.751011750280525
14.769964107873751, 15.587870546770448, 56.418667137930996,  5.078165049107768
 0.819339252348582,  4.496369956329276, 82.338238873327725,  4.921734905935709
10.052283529498734,  6.243128317481131, 105.175945508267930,  4.774499516403939
 3.599927571999346, 12.028468241689701, 44.166182950032521,  5.360863479083799
 0.914240816373144,  6.614277366766501, 73.995274914958557,  5.212247530546803
12.563113981827325, 12.346404770424625, 34.465600266531091,  5.266190328202625
11.957679720660861, 17.557658778892630, 98.127752167588625,  4.814850021414045
12.133933204745937,  1.841136445809936, 36.136682898858417,  5.407966911785568
17.137657049850478, 16.330029151215047, 107.076508075095106,  4.771374847346671
 0.339025083112759,  5.025459620078216, 56.044367481839672,  5.032633270086087
 4.565885321044247, 10.426903495968920, 17.591211530211840,  5.075863147569219
16.918788047159627, 14.162840424907383, 31.417480491726913,  5.130128556533149
18.726615813574224, 17.330364315637834, 82.088591490139066,  5.156763340754818
13.400443383090787, 18.617342719787683, 24.521730616729180,  4.930324327064506
13.101703524188457, 11.481975601098632, 58.601429440310746,  4.781257351353595
 3.744391304432117, 16.965937996437248, 52.738548497272120,  4.894752213744670
 6.796813152096566,  1.518890342862596, 36.253804406959972,  5.050066843538134
 7.832458355910363,  2.983514029974901, 108.238179928196743,  5.211428895892848
 0.478193701448001, 12.317068281914183, 98.339056822051504,  4.904339508209434
16.611836075184293, 16.399329564445114, 98.303868156086594,  4.772725085480897
 6.650810263103510,  1.305612915988119, 18.539154564810140,  4.736861097350082
 8.956157039046767,  1.672713922223852, 22.745063252037014,  4.850559311540756
12.177421968703817,  3.757758444097401,  8.105836570910082,  4.995429405807247
11.241685584778768, 12.555609595152422, 89.867153880505214,  4.750565580842844
 4.529766976441098,  3.669282953749447, 23.836585755101591,  5.100322985602893
 3.818027102145376, 14.635520110193928, 109.552682843006735,  5.497357749424092
11.900940243989616,  4.664311159127152, 40.501027420966281,  4.977926769596926
 6.267481212960942, 10.755206364202815, 66.129788737838666,  5.360021563917118
 6.538444760710193,  4.435664612866240, 40.500041530263111,  5.134464275830400
12.241947865605187,  7.284889295241734, 34.241098763552529,  4.872442312064621
16.150974787217848, 18.340923618562812, 34.124746410274952,  4.614757652090318
17.100368274959216, 10.776922135288400, 102.535138836959788,  4.973317176047656
 4.071534002583767, 13.398655089126979,  5.256379273315031,  5.115290978309582
 3.453750117540143,  1.617053637427653, 61.785826770605752,  5.272044277275036
 9.031213528617508, 17.340437036869581, 15.336681275969454,  4.888677032507664
 9.178451988724012,  6.825246499386479, 44.020157985536557,  4.870512706076298
11.208646257314774, 17.314226549255377, 77.554889044251965,  5.094295732388153
15.875258609561236, 12.789523876162169, 89.340097195754723,  4.583897840508280
13.971961548316683,  3.516496963999941, 31.561812703706316,  4.994885221785334
 3.549492681736255, 18.498325864314516, 71.639437250686612,  5.128623420290850
 6.621711003932536, 14.725151246592795,  0.874024651639281,  4.799795554975209
 2.423464684973777, 15.192708364258836, 91.548493256513808,  5.044119003903101
13.243583708370014,  6.316698356792476, 85.257811056864682,  4.824932434289323
 4.221671664219064,  1.062553469965238, 83.237978210143638,  4.878246358590775
 1.757118441497056, 12.352588740565185, 80.224633504206139,  4.787073860418393
17.492477534227280,  0.258934076371694, 59.461785919010794,  5.546894211107402
14.546768012153343, 16.522028039556172,  9.038679234333536,  4.797631602059653
13.225451155971250,  3.482554249815247, 102.708943548609156,  4.968626839940095
12.873726339085430, 14.135492936506880, 110.497863740326878,  5.088714342385821
 2.254445432874398,  1.857143389819579, 27.735162427050970,  4.621521548762470
 1.367809647467434,  0.921945147020370, 99.660693992425578,  5.147103469748494
 7.770413626333070,  5.887220174911572,  9.361395445691777,  5.109247787739400
 0.155171444721674,  8.418871770071824, 65.919897117416710,  5.118355943999514
 9.726658612549727,  8.563037025466349, 88.407587306366224,  4.274850936504051
16.661464405821683,  3.826016001748102, 51.963018276933653,  4.717106281139101
 1.793691558238965,  3.194739313712922, 41.895101176904056,  5.054898886514014
12.108292148116972,  1.770672213258822, 44.516730494357994,  4.913603361303604
 8.330472199247188,  5.922213641239221, 84.845938923982857,  5.013774718345723
17.466391519688262,  9.638998449941258, 57.351672858254062,  4.992524342831261
 3.747891601145941,  3.172618366729262,  4.491896466778260,  4.576677933623780
16.636165799025090,  2.465428198627624, 86.215410093015848,  5.589583461191249
 1.774748892883071,  7.788411777911647, 78.770679079419651,  4.758812285436387
 5.308634702391903, 15.421967497713201, 64.538620498613867,  4.685241865143550
11.631590657825184,  5.233500052363273, 12.842235642281603,  4.965631307340250
17.069206354476385, 14.890286742143667, 12.979898999962160,  4.829549622346441
10.603089372872965,  1.519145097243646, 28.367034523104167,  5.107549116445894
 4.411343141479796, 14.759368543839171, 83.721156490326280,  5.221593111735137
 8.316598784904379, 18.222720100575909, 73.480803496233648,  5.058154510438837
10.066893607869115, 13.969729671605533, 39.441740522121016,  4.680870588397608
 7.870377470632636,  6.841262923265840, 53.334596152352155,  4.841351032386510
11.973710386175147,  8.431826307599264, 20.136454208062883,  5.525553162502321
16.220944096586532,  5.082324973281492, 15.241306823067342,  4.821171362623895
17.610058556602070,  7.891367091998970, 110.224738663325667,  5.236595450081199
 7.729337414490224,  6.847219782036681, 36.200364381882714,  4.997010073027691
18.401740332633615,  5.766142631342361, 101.339459659564639,  5.648328239707017
13.302703062445262, 18.712796454906979, 73.184773819051529,  4.977572198679306
 6.950874157885319,  9.632062276339411, 47.495600114608976,  5.095988416886552
14.228395076626972,  2.446698252673123, 55.934096089229989,  4.990355558940228
16.728135130969786, 11.568050624490116, 21.983551573926526,  4.959487868438903
10.357691473546534, 15.029195661283573, 85.994040621605123,  4.318715920916707
16.852195159372894,  9.311033624605798, 34.778618536254569,  5.232729599524119
14.204043591441295, 17.248809927673708, 102.573483549168273,  5.157424807461291
 7.704961834654746,  7.351575653038538, 113.547996458268031,  5.348861343190361
 2.365323192082573, 11.904034309970818, 62.924934308655573,  4.996518328706178
10.801497374788591,  8.976694862862647, 73.095772810217824,  5.392937515917802
 8.410954846933677,  3.689596399939789,  4.945821677956149,  4.825665882376202
11.802507722817182,  4.100123152942155, 51.925923790795807,  4.941772438390333
11.111878128233531, 13.230363161262247,  7.804301706538396,  5.021980493226314
 0.603654432432221,  6.108625779695005, 26.076604712364791,  5.083067289399328
 7.327766272030146, 15.625496158707060, 22.073791501104914,  5.089390938295515
15.035455668179765, 11.532838604667962, 10.205767138954018,  4.781048016815215
 9.229802517460314,  0.548053167373634, 103.846553217967966,  5.202520470940074
 2.533713041042991,  8.518108628485496, 30.472939938638440,  4.700453596314807
16.145804647929126,  0.287428357404590, 77.946326810715902,  5.168820118299183
 5.414961502277620,  4.022924108271498, 73.813030937295309,  5.020707624755736
12.296249824791463, 10.053402514555598, 103.204003754768749,  4.832485441789726
10.194431855671763,  3.953531735809815, 72.633071675627008,  4.763728452356712
14.247895891266099, 14.323073820398450, 17.111520658188038,  5.230893062642789
 7.503203967161221, 10.438965631280910, 22.431214230880983,  5.291782353739310
 4.623875988769173, 17.369858878835498, 13.009757765153346,  4.707824662483047
17.973181518566474,  1.806915428013558, 24.175984526784163,  4.678630031864411
 9.177654019325887, 18.526242541515654, 64.065940356439526,  5.279883571670108
14.213568220577626,  0.672689819047578, 116.001758107842235,  4.703385031711533
11.075439203858505, 14.976948465051034,  2.248631108685752,  4.516553737829590
18.586840434397981,  4.261770320723103, 90.973091983250541,  5.284028818131006
14.736372216262081,  5.628326952369611, 73.163693680902369,  4.941184419986256
 3.787933103010843, 10.784388227474309, 58.288539264800839,  4.851982534191216
11.920569364655400,  5.610237622062030, 68.699869163482177,  4.441152169679421
 4.098763516300775,  1.320706568607066, 92.132306507821369,  5.296318160668777
