BANDS
8 8
NANOPARTICLES
cell(1), 18.750
cell(2), 18.750
cell(3), 117.188
10.396550092544432, 16.465665209797653, 54.651587524096016,  5.244350350732771
10.440416629213811,  8.363031084472922, 46.537147746280084,  4.814384224991526
 9.250317356683249, 10.084276087552542, 30.359830272530484,  5.005116530822813
14.605740084176890,  3.347938286241134, 49.392062790460592,  5.167456840665850
13.781033701016346, 17.929913839209330, 32.108675047604443,  4.781689476893938
15.251792231824627,  2.906803676037700, 85.746356211699791,  4.923820313570069
 1.555221100585252, 18.671745816550285, 114.414115478934363,  5.173083978101504
11.498056535182743,  5.287191040886404, 89.265931832879602,  5.280245401650585
 7.295242021395016, 12.980236687494193, 114.758919625798583,  4.965975145234702
 2.209292999010712,  3.969498271129004, 71.616908362468450,  5.147321120169345
 7.959351685411939, 13.990419931070864, 99.047940452813748,  4.979478646776775
 8.054635779228486,  3.237669841822081, 43.539819863369459,  4.995922355866074
 9.095480110337725,  4.333918559073755, 11.355182167441956,  4.861541470361224
14.433382405011900, 14.050118897893443, 109.806196624712854,  5.035762290306313
 7.351231729369307,  8.011770706369214, 50.306697027651126,  4.849531133764452
10.392104034008202, 15.426614400542970, 23.827079404939390,  4.995902542010063
 6.654900548093799,  7.125283098359954, 27.113860026250453,  5.197235369341893
 3.767299102468116, 17.914249372332748, 89.395391679696232,  5.208051439002837
 7.797213515781256, 12.278810090474048, 70.167631672271838,  4.980654835264266
 9.788153303594244,  2.210033257528154, 72.007932036316006,  4.701249647009744
 3.377784502072611,  5.161908856389243, 79.668349550647747,  5.210109469338993
13.726491034649534,  0.114177760460014, 70.712666398664794,  4.415166328030067
12.075770768595110, 10.820375723262613, 71.757839088180774,  4.565410936717369
 1.260568190700959,  5.240567546057394,  8.868658652752993,  4.993488995949155
 6.980265752862477,  1.115685932227655, 21.662807322348815,  4.946310180514504
 0.082046175799224,  7.916610387839570, 62.067140759707584,  5.167090910325903
17.773466683580743,  8.160823362115913, 111.442843598276838,  5.043241558215265
 8.545945001918252,  4.708605229621355, 81.020418713415310,  5.115155938216062
12.818039635383570,  9.565282020873431, 18.024564369207088,  4.869315343742581
 4.458349101352843, 10.607802869708678, 101.001583490511152,  5.397655795576475
10.380421388486557, 14.068435582842929, 13.312221422884338,  4.817350174823775
13.430403339660968, 13.001569243669262, 39.077545998436584,  5.299988980768746
 3.807309727279319,  8.988772031682212, 70.233635182644790,  5.263135951033250
14.833712660220440,  5.823023843806441, 65.449806079703293,  4.417137235752277
 5.320133369645469, 17.232506447187667, 75.510819376616951,  5.035633522246046
 9.347372477637691,  3.485136111387400, 105.806624123118922,  5.343633764715927
13.519726896554419,  9.264441972627326, 108.637720133558688,  4.983394842077615
17.309546273378420, 16.591686873036000, 28.336587881926555,  4.604196450795810
14.906563702376733,  3.253832792346300, 114.867227042266975,  5.022667081057455
 2.350792274583053, 18.212167690428867, 22.991692012126236,  5.009916545677933
 4.453993518431183,  5.347099389326610, 19.109100549827371,  4.649715202105743
11.328180071549832, 12.892411493213686, 34.181778812271830,  5.318596847166289
17.413047373103787,  0.896237593879600,  1.021042341477453,  4.564183768656649
14.171625592167775,  9.849833597947841,  4.402353237552928,  4.750704120935106
11.951848811578431,  8.102099137145315, 56.089084700274590,  4.847980512707405
17.109910589404034,  1.568621751564364, 11.913016912949676,  5.073309442105120
13.575433306541591,  3.600167473485643, 34.208046908417046,  5.006251757422807
 4.888563034087671,  6.066628697351078, 104.036742584810042,  5.538019783770402
17.378423558738632, 16.854316215801703, 100.569246808513157,  5.140164789322536
 4.747758123353123,  1.949503910333848, 47.392592075731422,  5.036234132193038
15.615347224819383, 17.547268100996057, 83.098564354398988,  4.867617885331772
12.857821020534894, 18.222628524876285, 27.246828612655150,  5.119640082035734
 5.108595294692163, 15.855229818906862, 47.635119055450616,  4.666468974526566
 9.800219658322051, 14.950049361155443, 74.234900072814895,  5.305673529609638
 1.504131833389783,  1.664250647524866, 76.067678235118777,  4.959699073264878
 6.297693500529777, 16.245056613307753, 94.781164321915782,  5.206005835498057
 0.048481738280929,  3.934082087150585, 46.200356020610748,  5.434304111468114
14.674764949761474, 18.637524862732217, 96.184973332956815,  4.911034269011648
 9.140510046177507,  2.753058026116318, 26.296493739193998,  4.975310197269417
 4.375442153357412, 15.190810453600694, 39.772768727491595,  4.448611285654131
15.380040875833897, 16.061234367630352, 14.274353996622215,  5.230177574721667
16.759172127095972,  5.340194258403320, 41.690469872050208,  4.841569804816602
11.295938023812630,  5.825826639322850, 76.669006371449470,  5.406065938075671
15.589028953566805,  2.306619398855060, 16.638836786312378,  4.961346514006182
 6.959518674590469, 14.119717470794930, 103.984687638620656,  5.087244856948169
 2.926294694272410,  0.924286585320735, 61.143243965583586,  5.179581149428926
 1.155791197599189, 15.946021973392117, 64.148457466253092,  5.005600539353814
15.079547424560209, 14.636372819026962, 72.686807820349571,  5.255685117340571
 4.471452364582218, 10.753512094720346, 52.856116827227176,  4.590204080943681
 2.253084783398405, 15.331134262200990, 58.457177795603251,  5.121736816204717
 9.158265612217983,  1.154566538002929,  2.537387499829868,  5.021834593486112
13.538484080116538,  1.098636908326393, 100.675548893640268,  4.599012670254833
16.643187668567073,  4.122653741265196, 98.610269962261640,  4.887821574514041
 5.925294963960547,  6.591895740921043, 46.115601823437459,  4.424902887936558
 3.709421466620570,  7.478872591812169,  4.978377137758228,  4.857296832837790
 1.857344992471551, 12.305768615164157, 48.942385185980740,  5.305440434342582
 7.000888575474642,  2.923871913597345, 15.976119839168639,  4.718487007423624
16.346502193573169,  3.734294586974995, 69.359705987474527,  4.909352504698440
10.263855647494294,  7.500440170680929, 93.842123473142792,  5.172303542907220
15.008607282041215,  3.751676619861547, 29.268252674640724,  5.272066351309772
18.168573868413908, 11.473447662777415, 65.658129887405678,  5.027801379589731
13.632911174214808, 17.595294025673301,  9.291415924057191,  5.195234035946891
11.176285221656736,  3.206021420292178, 67.302309607264746,  5.289976196521915
12.496816333091616, 18.497615456469621, 116.800563401277145,  4.263197553618685
 8.140969234720624,  8.035336635511927, 42.236157887381594,  4.929965288253618
13.725147430626979,  5.043829925002036, 81.368483014984037,  5.286333708901001
 4.975833246833762, 12.749093568448899,  5.391579897514397,  4.510774148540315
10.111124730387065,  8.625084672460643, 37.531670123852457,  5.302529270088801
 5.576299078014395,  0.341442239589956, 70.997000324368329,  4.731603801820709
16.326692168911457, 11.234092414406140, 33.955160826874085,  5.221753500276374
17.243046850804845,  5.391282533925464, 89.555484691707704,  5.004367100727393
 0.290847557707125,  7.393073066173733, 101.611272654132321,  5.191230337879855
16.834143928947871,  2.003164785288391, 24.755883701059254,  5.068660820724920
 5.216965257900173,  6.967086167677000, 93.065059089768681,  5.088364850792939
18.026276969246357, 16.980283008575416, 18.781486854375938,  5.382568271500164
17.620824863298811,  4.169181659584955, 58.840517496204775,  5.013531066463617
14.825035672468669,  8.759584725900584, 103.939235748997703,  4.820509354277497
 8.551151236773920,  6.129338601960714,  3.765804415666304,  5.284432334666536
15.066136031244937, 14.639572746221036, 104.656588133593431,  5.214090093617775
13.235033456929649, 13.589234261343853, 67.936915296120702,  5.146245352482606
11.305374629779829,  1.151899642095575, 111.977091959800177,  5.123537900809182
 5.813586812390832, 17.678482236156942, 66.284185554222645,  5.119768474483458
10.173889517737576, 15.803129858565324,  6.138830927857236,  4.713269756514806
14.330246227633230, 18.055845890188678, 46.154819171077563,  5.186890956874907
13.286671659551777, 11.964892147025518, 53.384070942666824,  4.868152045545522
 0.787996540639935, 15.114724855583027, 32.280788508896748,  4.924865340556995
 1.729608029617484,  7.019437583832009, 54.259593888177534,  4.748323076101256
 1.340553266083002, 15.600786559773855, 93.373054564562267,  5.105673273577422
14.838582418743597, 10.986948807606751, 22.351632990453265,  4.843091435384430
 6.962720534350917,  0.060881321297056, 57.688223212263701,  5.004108635799364
 2.467774045592807, 15.825640977899049, 84.928190810379007,  4.716328469263159
13.430623442375015,  1.538835663266026, 57.358235470813547,  5.079761670987594
12.560003756604107, 11.694881872325766, 59.390827042279000,  4.933581799205594
 3.261021777725322, 11.795904603743507, 62.449400425518306,  4.892538941191209
17.347744645310534, 12.261615364769552, 26.367261525323542,  4.800054439060651
17.010081801334181,  7.345251565864070, 16.828755338022159,  4.906373198308930
 0.979111873335000, 10.879058656384341, 84.797745406116292,  5.609661060083442
 6.307621513687693, 17.393403122296998, 25.966872228018158,  5.024592354448239
 2.015553037787207,  9.562190021454622, 115.677679852355979,  5.199995986901176
 2.822746820484122, 15.189401100098268, 71.448559434014896,  4.813059954333148
12.753529360242728,  2.823739012811429, 62.311049326744119,  5.195143504361257
12.937653337392453,  4.010846591724971, 44.572884648222079,  5.092132570972382
17.149542980167276,  6.173477735625715, 77.499568861969976,  5.186480588972561
18.121341351470349,  0.033386985831931, 105.777308625202224,  5.313972602892109
 5.659318525231393,  8.753349640263254, 65.480699594609590,  4.944334206907694
 6.756325880434060,  7.408402777386105, 33.435230881158475,  4.518202178243100
12.748114843789486, 14.962964829857654, 99.920139067642552,  4.946969954497227
 5.849394723954109,  6.315428637971796, 38.450409452666754,  4.560688489799232
 1.597616688686720,  0.375999639320493,  8.376129129419430,  4.805117628315632
 2.330702850359077, 14.390359885944381, 98.163109466121682,  4.970315799615624
 5.297658774931797, 12.156287336268017, 74.643063149281986,  5.263894826084551
15.994859018192034,  9.781204661168260, 81.040367813807791,  5.180180911382111
 8.840928307010017, 17.030810152885095, 90.039234591755701,  5.169337921928873
 0.719313152370032,  8.220867436015517, 21.172886944274680,  5.190877218109218
12.508044140425749, 11.073307420216546, 76.562648825638675,  5.093358625363567
 9.373880134044562,  0.797233916096746, 31.315844243744060,  4.736081804129194
 9.582862803434594,  5.640697584104157, 110.473954989821507,  4.947463255173720
 8.882176204221341, 12.815407259603639, 65.052372404806505,  5.396746090026598
 7.816301297163743,  8.704764098657940, 17.473992837517009,  5.328565345575600
17.666436452005353, 10.456936557679295, 40.511320098938121,  4.978956181679647
 2.510496932059815,  9.543765870307260, 25.661029591308925,  4.828393564177142
 2.549909707213470,  8.837936264523231, 34.384977333112793,  4.351349389984636
 8.603740858263537,  3.276679611626136, 35.649918435910372,  5.360394496420965
 4.087144549329388, 10.721637731137562, 106.116276277140457,  4.774100983362587
11.785470844484657,  7.187073034740040,  8.025251821227572,  5.417906200354493
15.508338854826501, 15.920469438738921, 23.380469070401251,  5.315666286494772
 9.964050810763304, 18.329250156852297, 17.948676129218583,  5.036768553523500
 9.462569875742014, 11.024046122126682,  5.263902196636277,  5.106269856735251
 3.614381037413216,  1.964792296883396, 108.256921686174948,  5.239475866544407
 3.373159656323093,  4.062059617927506, 34.778196980570470,  5.354725107835623
18.025666311258501, 11.261012911524517, 107.328409497937244,  5.201482556254137
11.017875732441137,  9.445895053645788,  0.742808942265882,  4.928540837135206
10.984427399018417, 16.502840495236232, 59.855068763284550,  5.225429754506302
16.397936787991327, 15.109652435844758, 49.952083806006165,  4.978864422157097
 0.197424814309043,  5.981400339499986, 106.846578109540658,  5.362695638429237
15.517075677766993, 17.221487458906147, 113.537491493115922,  4.978356245887665
 7.047262622594337, 11.893375675986221, 45.376112941956279,  5.243421714961420
16.620273715278774, 18.299018933216367, 60.940942986650811,  5.302941184320709
 0.423895551892008,  5.374045089750531, 94.348396605779087,  5.329428423712810
14.073699030759492, 13.650198980606872, 30.019840533043656,  4.760702892495882
 6.023037420450193, 15.074994051604993, 21.618385608118036,  4.820069418664534
13.983198397906285,  5.770639379623964, 12.854360924892296,  5.561919228231124
 7.601764369709662, 14.950387058604283,  2.132895683508306,  4.945479318864262
 2.206840241473592, 10.287055436655383, 79.551625209490851,  5.228267994698313
 7.696450756637005,  8.622876871054460, 89.171343185432576,  4.700193901334847
16.561875365305976,  9.413925629416429,  9.067244514208655,  5.319144792013873
 4.828134480877551, 17.977403751314586, 31.864709870678446,  4.895161487422991
12.215931959961255,  1.336351079293445, 22.338518757694334,  5.437665215443772
 9.679762893742986,  7.020698809931249, 62.731658644112500,  5.234282945546235
11.550001130639815, 11.392916728527492, 96.743420144683498,  4.870763712456601
11.533190978119650, 15.600758313246724, 94.063414763699868,  4.686583617081758
17.465627862502629, 11.922417505080974, 18.418184492740021,  4.798795416871720
 2.358882955830230, 17.832423869137489, 36.269249197465179,  5.205413633659165
 4.583791372676621,  5.047428428704857,  0.771248379280998,  4.884436413497864
15.442190101048118,  3.432959112316799,  7.478604992675101,  5.108675665864035
 3.014532157026821, 14.450026591639682, 117.029594082628606,  5.132206348769723
 0.709228334904278,  7.921799454945508, 12.798124165251817,  4.584273627779477
 8.647946774439227, 11.688411216780450, 55.370160683291097,  5.007718718597165
14.055216940053761,  4.451490712305535, 107.621479425285941,  4.911346637158891
16.194821949518886, 13.780705096151365, 96.280095755556772,  5.249861974068030
10.443854007978667,  0.790945558385370, 76.499803811978538,  4.804129007324332
16.823100686132111,  9.565664472242350, 56.673742306532780,  5.385860554492770
 7.528476596176835, 12.961257191986411,  9.405008642549969,  4.810802214113819
 1.267285133326887, 16.624682555172225,  4.117900712058926,  5.053966178367267
 8.159646263321953,  8.060841199923468, 73.009914518303674,  5.216040578445534
13.768863092813877, 15.970729193158544, 77.559423514336601,  5.179903291599374
 0.544749823303820,  6.831910855090022, 66.982196600432161,  4.870662192343659
 5.010339167071455,  5.651146863557151, 84.424031535250975,  4.862663596518842
 0.397530029250051, 12.551162522235799, 13.878885988984441,  4.932482021722813
 7.826615962276335,  3.285558364442153, 100.613573738867387,  5.059946765195265
 1.461872503004139, 17.292207071718344, 14.223473491295668,  4.736191122244218
 6.299164255478708,  3.658460025540712, 75.439121219597254,  5.495102796895529
15.161391139411370,  9.064697909261126, 68.703540845842895,  4.788478177417726
13.128965021636272,  8.818206587232922, 42.268792939681504,  5.145284831139397
 3.938028056672406, 10.218905680273615, 40.524721522725130,  5.070956504172523
16.232947547979805,  1.397241034815647, 78.884481843505426,  4.863915792831310
 5.839942285813245,  0.228663030273360, 104.003138463101465,  4.879673865274387
 5.788117162920823,  3.650998408619868, 30.447346310568786,  4.584657842329419
15.235634387675322,  8.960008798194741, 94.214187657354657,  5.215487963297682
 0.477270752978187,  3.230736646955570, 51.260844060482853,  4.800581517361816
15.367180231723642,  7.879007266041073, 46.820749716936419,  5.087957732258623
15.583453976386465,  5.020436105073123, 54.217770796559158,  5.232313165950806
 6.720664654848153,  8.146918705307369,  8.838049347688171,  5.017551630824972
 5.696352326103545,  3.463100238950405,  7.203084852551226,  5.113670404829424
 9.389833498600426,  4.451864823937826, 58.222598291070497,  5.028459546348262
 5.194591842261016, 10.231273835088540, 21.446408185935976,  4.614279328113337
17.994487553151469, 15.308135480044172, 10.058559966690057,  4.756871460838021
 9.927723725355341, 15.288821009419310, 111.097700146586106,  4.659436438403390
 6.490747167955014,  2.395871463754789, 112.334096487851397,  4.757472216594827
12.621496345208469,  6.506623254326212, 25.811853222324689,  4.761545985583607
 8.830820775914200,  8.687666601442551, 106.527976886458731,  5.102051485267739
 8.629184830207237, 13.272764367267932, 78.962921289056723,  4.993434968125570
10.544690973818335, 11.890597537703099, 85.902725520186948,  5.060991773263541
 2.215574318868534,  1.236342122567675, 27.900759939594323,  5.407445315661202
 0.721909401418980, 11.285947762008758,  3.346086338845324,  5.350219444247875
 3.325694905310964, 10.352187507248587, 57.609025172929982,  5.204197227182998
 4.788277884293223,  6.957718634132253, 109.354949576969275,  5.242919728353548
15.128177186996075, 15.335438083649333, 56.765104630831942,  5.361979728857212
 0.479427469890974, 13.464410061723841, 53.927342451538486,  5.289448332885528
 3.977397383794355, 16.073959889777960, 107.082005070752047,  4.357021548982980
 0.463150321042594,  1.175934144762826, 41.939250058334324,  4.717105291382574
10.437530056942650,  2.981430491737914, 53.499322455421392,  5.076499108748279
 0.215964539139682,  3.163922069176176, 20.283538115191625,  5.101238620410863
18.035889641674217,  1.102326283762622, 91.877084694481269,  4.787454399189799
18.261864590266246,  3.330217529361987, 63.786958202226728,  4.680797271416204
 6.673244660449705,  4.803681436058691, 69.284954010584755,  5.054872970136137
14.385804468065240,  7.988934031483845, 85.683051757135416,  5.213803588694145
15.219009707732488,  0.057295038635083, 66.016809374813363,  5.275778062010885
11.857865027749053,  4.202453016445240, 39.643807917875741,  5.001518581855160
11.726321793544559, 16.724437330261996, 85.935387174751185,  4.697013068915452
17.118679201168700,  9.298648197602530, 51.423215505277490,  5.138183514199560
 3.914118918731014, 13.082234718612773, 67.164260145478522,  4.966819234228042
 1.305371271102912,  8.982352958993472, 44.832248750045409,  5.322977516188532
15.466657531797621, 14.597508606549294, 91.061934135539047,  5.409706873946271
 4.711743950585598,  1.784732967932517, 11.855720045547725,  4.944748625810195
10.354885809761727,  5.323225527456553, 30.283365022275049,  4.752236242031488
 9.468791479695767,  3.779285523941993, 48.462168585083326,  5.302125725892274
18.500309459622176,  5.865656777161447, 83.293377106241849,  5.138582598145988
14.467346578616489,  0.093377453174489, 41.054659613026935,  5.129758455024800
 2.585654807131897,  7.249085743262811, 49.490388852714133,  4.938698086805943
13.491542906878122, 10.185723083136777, 64.143936104102025,  5.052140108840554
16.808939289112502, 14.923649091684119,  0.625907305106435,  4.946581351191775
 5.462676384922117,  1.652199920257998, 39.324006874601871,  4.815030968804418
12.718291872000256, 13.789518761228187, 81.913795209761901,  4.782769640224807
 3.721117637905357,  4.324974747475919, 23.866952345392050,  5.186842555084578
17.788213270114724, 15.364579525801940, 68.566498532746721,  4.701896862413697
 7.963767208383199, 18.107008277395948, 108.081178139845576,  4.477369951156410
 3.318315365806701, 13.894164870503730, 17.678791060105819,  5.021339371130131
 9.236787033161288, 17.908168673177194, 46.179469618555025,  5.002005725280528
 1.437418861053976, 13.227897105015733, 22.387619355738323,  5.166230237923373
 3.754250547539671,  0.387732215182719, 18.201617750836856,  4.625861023113824
10.862626878130380, 13.092206455609816, 106.671274351341623,  4.599495033044071
 1.587771984336984, 14.075830443837843, 103.598062659264528,  4.987022240622604
 4.520702355157344,  0.218072290183972,  1.236468884820545,  4.788943834993079
10.086454257265615,  4.240285849478291, 115.817262413727690,  4.929173885784715
 0.339905383279144, 16.068785030868014, 110.135381585224195,  5.124371447399977
12.027904521277717, 18.270612693708067, 36.657832451533785,  4.990437742879685
 2.195267662916732,  6.131539528943629, 28.903545295874025,  4.583356873901725
12.426175122235955, 10.217856565988965, 90.198927489633078,  4.893575079418607
 5.749566661913368,  0.735597039478179, 84.855217929986310,  5.110432483541140
 3.797783674057195,  5.823748771182490, 98.221122240987512,  4.980366860876609
 9.912095994349789, 18.445759001248337, 97.700523755692615,  5.071451982691578
 2.730024529820467, 11.334117917603901,  9.499452901827789,  5.269540808325254
13.824554014332259, 18.550885626795893,  4.169604159055099,  5.226622275492290
18.060218218835654,  0.015934469365250, 72.101359647718382,  4.680389640054534
 3.079042189920572, 11.694159117824857, 110.977304867381108,  5.330149533154009
 8.599832502765029, 17.701114826081195, 10.391624847686749,  5.105404509052930
 8.329441890919014,  8.049325389873150, 98.567634879163336,  5.081605603266198
 6.010158290564966, 11.176811301157734, 36.190950922652313,  4.720747619354332
16.844389963391226, 13.072358530418695, 45.346312122296467,  5.123931441947303
 8.389853177807231, 12.659920613208147, 40.314917465632611,  5.085680221350874
14.358588522474719, 11.055871272208963, 13.520018210002926,  5.093368837869308
17.938023235791739, 14.394193876908533, 80.089145091345358,  5.004947620095595
 7.730949368580687,  2.078108748136200, 62.290166444565664,  4.956704061810719
11.769298873009294,  4.430755823376234, 97.651820650248993,  5.064116797533161
 6.312322825560183, 16.774871254326353, 14.839575858260581,  5.039667110249145
14.582810917214795, 18.568112159810731, 52.890825125814722,  4.759805281130596
 0.661813893138757,  9.783707987363909, 97.091279413374494,  5.060098013645017
 1.320295942662061,  1.051435183825701, 82.154887742135031,  5.239156063747718
16.390440117255089, 15.910944559534313, 36.035837946032146,  4.979932736817474
15.214024726028113,  7.345154225685562, 37.288630747498743,  5.229490085536360
17.096965372454768, 10.213788846527587, 89.167022970919717,  4.672416440866610
 1.758971796580052,  2.957849237341097, 86.802251030374592,  4.814268647003173
18.293384211414836,  1.261517135576211, 32.487158146969385,  5.182335131687771
 6.419399190407115,  3.681633706903636, 89.098285766855142,  5.275005130966119
 4.113855636122460,  4.063554235339099, 65.040694916777852,  4.957107215245322
15.937272416034501, 14.182163808913486,  5.776286169171704,  4.996677585678322
 1.785960420160982,  2.274569954136688, 101.501937641963679,  5.475226151568398
17.488307487360856, 12.700277355991920, 113.472772638981709,  4.883424775036801
 2.697684776353928, 13.671184551389612, 43.747640412659564,  4.693311122407408
 8.014865080874301, 15.364442983762762, 83.331656750438981,  4.764303374877835
 5.304814182384771, 12.986806767308282, 31.663701711457371,  5.131915985548190
10.794319752551944, 17.521341943784844, 103.980052079221196,  5.159266794546014
 2.798094789702437,  7.639167485046476, 75.149925333158777,  5.105536777614118
16.097027498069483,  3.863129137602887, 103.336638280886916,  4.616652509350978
 9.474422817906982, 10.566172034058702, 111.088789342080801,  4.826606259084120
 9.538660168740780,  7.197642347535695, 85.111603158075582,  4.655413481777679
15.293455091006262, 13.468490539084831, 86.020811713817238,  4.925911616788725
 1.475558962275165, 12.815615106860736, 36.874725779663265,  5.014074060432974
17.753589410255607,  6.884691211335850,  4.953282038969392,  4.613620997410749
12.660822980838647,  6.088307620968447, 71.668976882928675,  4.970830282265400
 5.316352900986557,  6.720966962637619, 13.421987262585022,  4.978372375414461
 4.129259385653103, 14.917224817367833, 80.404434916561399,  4.941295730333786
10.943774631497581,  9.337180576709596, 81.023677458910129,  4.960472387056176
 5.319961827454273, 15.381964090004969, 54.320419452799655,  5.144239214797403
12.264767613313452,  7.614111029226273, 51.111412997571875,  5.140038114076241
17.400810343872109, 12.653378216228235, 60.825776226320635,  5.025671005679007
13.035786832888910, 11.867614917438889, 48.572555100668914,  4.750961264549407
13.681339930859501,  4.929223692359161,  2.605546892187868,  5.499780229944126
 8.420568939591048, 12.404621909546728, 92.143129752372047,  5.025702024921315
 9.880643826177904, 11.018186171649797, 21.645073051143477,  4.893911120732050
11.900914328724435, 11.308776171990516, 26.299801907960671,  4.994589790137129
 9.662446788363155, 16.847165279124376, 69.452466632988532,  4.982111915627845
 0.782254144343716,  0.511764016299787, 96.727228089339050,  4.878186495901981
11.763207899884533, 16.323634005222907, 49.931850866873994,  4.564392643125191
 8.130705313751246, 13.024170979177558, 50.417900033487427,  5.291404578428256
12.559065600878423, 12.989026280082507, 114.609357323015729,  5.247737353563429
13.323444960117433, 14.633687879148644, 18.845226791414948,  5.063204058212078
17.638754180451016,  6.312584566406827, 32.882143779064791,  4.987014987481659
12.377068963955649, 13.838822369206060,  2.388402104170400,  4.830499678733601
11.431123061169485,  6.077816500660750, 102.149935712396143,  4.532676443681086
 1.069867591724537, 10.588389171833358, 30.250659480350070,  4.987532784796054
 6.568689423691852,  7.188750709661769, 55.185151821771996,  4.902362600278597
 5.220235238458039,  3.913336687327750, 51.874288055304696,  4.784567367193573
 1.304284337682220,  0.852618473238641, 67.672165404885106,  5.067999415535031
17.632572324621652,  2.308460890731626, 110.581088188794240,  5.309610323355971
 9.375365043108101, 15.043878863221702, 29.278376265521477,  5.146686324899361
 3.492128121250985,  4.968295245470256, 42.402004778750019,  5.024418785978223
 4.287255043081384,  2.035481283807123, 93.599997273745743,  4.990966131069474
 1.557833502883683,  3.787041737473123, 15.323711085642691,  5.249182305515660
13.998710809078013, 14.886713128898972, 63.333748752921394,  4.529428232962245
 2.947380129269199,  7.566206877234863, 88.537687888609710,  5.099310803454230
 1.939005355999857, 10.717552102114228, 92.327859543918251,  4.948638109774772
 9.421203939002355,  2.359309071779020, 93.277341937569972,  5.278959036222619
 5.214747139681142, 16.403138102272067, 111.625444250148675,  5.083708482803431
 2.376767422563235,  4.916567007189133, 113.457780723282255,  5.110187274004998
 0.702168233615621, 17.440959672360176, 46.183691998276878,  5.130467226659510
 1.118070542576952, 13.867111548878027, 88.890033577743480,  4.512974569828224
 7.365104356704943, 16.067406247812755, 35.935754708223691,  5.421959829831994
 2.780106120552122,  9.152735065442116, 16.774120834423353,  4.690566216228087
17.345036426206104,  6.825398833350417, 25.423411025273474,  4.713346514276464
 6.934508469389878,  8.566516498563578, 78.043134626463768,  5.147754333787234
11.295686061598349,  4.831900897350548, 17.373266168618589,  5.073802371280451
 8.620837982621648, 13.648891011938082, 17.828349834267797,  4.703637395620241
17.551135198072568, 11.082246902724865, 75.732196273229306,  5.119246665499135
11.157881997152806, 18.432287993407446, 81.207714989055859,  4.973745437234053
 7.513981703145095, 18.453210340101680, 50.919043618148095,  4.987785225856878
16.896397978999385, 11.867859004176612, 100.888564949454462,  4.822184258766765
14.063682779183694,  7.181568355817313, 60.306169825370816,  4.748318167318562
 6.265084480004142, 10.526451421477555, 83.076311088076409,  5.529998765231729
14.673951297172607,  6.012277079757963, 21.209324787038479,  5.364083068509504
 1.238049062449978,  6.715340347807255, 38.466379456779208,  4.685176524287103
18.179706067310939, 15.386667769628755, 40.646252231007679,  4.937006175731390
17.380320461124608,  2.552415300906836, 37.497253937950511,  5.263845915951053
 5.365586603460184, 11.125167036711813, 95.904260906941531,  4.983831326835698
17.679163813432041, 17.786458161321214, 87.520441805912384,  4.872662875033945
 9.097478369978413,  5.889210312016479, 22.080395319069833,  5.518648741285838
 2.716132345332056, 14.440436638566553, 27.640732382336061,  4.857741762208539
12.453695609200778, 12.603197038919539,  9.070067198264763,  5.070113816593771
 5.705186124840815, 11.722105158096838, 13.813342991185927,  5.046547147359156
 7.672960713648968, 11.068016846982671, 60.265554107916294,  5.051840872626324
11.929940803444648,  0.988447634133230, 13.571283540107538,  4.944619556338095
 8.215425168454143, 17.803767393298578, 115.341218895939591,  4.868042667361909
10.559013723591796,  2.245429152238547,  7.173555905157658,  4.902649198573911
 5.881392113815485, 13.356783220945827, 87.708936331457380,  5.354274390229677
 9.799283887548032,  9.030040137656519, 12.696401146069228,  4.998961503917637
 3.737275346857805,  3.704473536796159, 57.059131771696123,  4.806939233404538
 9.375875596272326, 17.698505402318048, 41.035098558682293,  5.280732493613353
17.323312394443963,  7.241653773009914, 72.582050216384758,  4.807224359158194
 6.115885071526377, 10.133840378087372,  1.532700243731103,  5.069121944537692
14.692648602605558,  2.651344333481435, 74.489921191415590,  4.738562657056032
11.801438780011704, 13.893320592905885, 44.092975007194255,  5.386123127354256
12.556016471088920,  8.182526514763186, 33.257032203171867,  4.572357533590328
13.605940216787531, 18.439493991444717, 107.908767717912085,  4.669751357987147
 6.703582327643555,  7.701562200660137, 114.186763515605037,  5.254271062984970
13.450385523548441,  0.509696056875544, 89.751724802723459,  5.081406376665906
 5.799912334353632,  0.725907928830674, 79.875831963466325,  4.825419117828424
 2.069415404247979, 17.376932519814378, 51.026986158159879,  4.931768528405221
10.506525162103054, 17.640023599354773, 64.706965281995849,  4.777987294315406
 4.944558290958812, 17.957119405514522, 43.363488383076117,  4.684592034566077
 5.623281311593763, 17.284156826981842,  6.405296819375418,  4.872229339660854
 4.892988214554136,  6.689509054049795, 60.841924988506918,  5.052026234376616
 6.882263593065501, 13.282471582154143, 108.564807402252868,  4.218627920733780
10.232137499910669,  8.415396207740862, 67.784161539977916,  5.306369934959448
10.402965807821319,  2.510552590506724, 85.161530394272702,  4.862234827234220
14.353834882335109,  8.310029666552719, 99.051809294834101,  4.616024526884675
 1.658523216846244,  2.931832773174987,  4.172313426274686,  5.034288426549485
 5.304696582032983, 18.045895771848063, 99.314232697211807,  4.724583904018187
14.316588243567050,  3.933707789158261, 93.343919047407809,  4.993370773852305
15.952648537231076,  9.863516536561285, 117.124753311759648,  4.852267216871812
15.178391961209076,  8.918768323904422, 29.280785810587915,  5.066780963358334
 4.106208511216869, 15.898936675390740, 10.670606939358228,  4.545306318098252
13.027931105941644,  7.848319568657945, 113.529654937590749,  5.248072831091613
 6.221632610076276, 15.712419474738411, 61.613693108019589,  5.046058204433538
18.374133725602068,  5.532623270047544,  0.421985495357100,  4.921881213261965
 0.158798115204036,  0.393263759706650, 55.493128581267477,  5.402104159694537
10.614995401151981, 10.921171193133116, 102.207016540931946,  5.255384382435398
18.411355668419844, 11.488314371465918, 70.990391256573602,  4.516517559098100
 6.845965862218101, 12.186905587619918, 25.699993406849309,  5.313592503372218
 0.433677597160598, 15.717647346483679, 75.543090105652254,  4.715619263253453
