BANDS
8 8
NANOPARTICLES
cell(1), 18.766
cell(2), 18.766
cell(3), 117.288
 9.592195032742765,  7.494871391954058,  6.009728320287701,  5.216560208735677
13.414302428651066, 14.610511690855372, 76.608945543253142,  4.802559179921062
15.368870551128662, 11.974445000198498, 21.924333717244689,  4.939717519599095
 0.026610076926204, 13.644744643764369, 18.747406274744748,  4.951264314573931
14.077704438365171,  7.888835234100699, 94.122040135770277,  4.798706898100040
 0.182214402929552,  8.173379593819991, 75.278059871102812,  5.219099995649654
11.292384029927527,  9.990314303370933, 84.462933096142081,  4.566318584931438
16.937571571999477, 10.716835385725522, 49.525142128367918,  5.561120423461847
13.279754348893304, 14.612459539590489, 30.761780840977600,  4.709000654068466
 5.528522738372404,  7.149618611129492, 55.178891263609955,  4.797236933348666
 1.193866402450119, 15.095114384556886, 116.384936946828518,  4.896403818525346
 5.898259750097456, 18.317738603883708,  7.324574241356281,  5.009397432834794
 5.818260303428405,  3.372541594627256, 58.109496575746910,  4.777730182074686
11.346217449524513, 12.712926552350760, 111.304043571059452,  5.008609478707441
14.122103242043870,  9.012655376678419, 76.786344466758280,  5.007041298499289
15.722330458073854,  6.490386834489708, 21.320176373997807,  5.153313469505632
 0.014773413223392,  4.406813593820360, 41.507425662465323,  4.977649928043949
 1.219834409256845, 17.472861499796995, 74.418486548141431,  5.036597516291949
17.139585588781767, 13.791144356168244, 67.584429183633617,  5.544127879221575
10.424901182678681,  7.158325168717893, 51.364093358537296,  4.914033619390231
 1.617340414495806,  7.867370412238567, 38.032038024429127,  5.334986719471124
13.897175556849710,  7.652678407633736, 42.996511483095489,  5.119379993811403
14.472474523017866,  9.920467303027536, 29.730094508786667,  5.155783773377397
13.859022925850580,  4.935863057461743, 73.659761648480313,  4.885108494873801
14.674497033260042, 15.086584446580805, 96.203191817286339,  5.283654386844312
 4.204790907151366, 15.742474325568784, 19.176989397672425,  4.433497128042416
17.657529011410958, 11.700612745954254, 26.257657235961080,  4.822754538510578
 9.788373191853228,  6.886069404521315, 75.636796324473835,  4.915773761036992
 2.575100630138208, 16.464947141430429, 53.203288406145916,  4.684141416189066
14.917595882856205,  3.702291406651288, 113.125343332747974,  5.036922094955157
 1.838086181691315,  4.774897264219968, 21.953485141087054,  5.262009777785376
12.543054725428121, 16.731145849472586, 13.667543427263299,  5.545511193238271
 5.883850793657385,  8.042037446702832, 20.779300166603576,  5.399659359893789
14.072845391556996, 14.752283755461361, 107.352282885635390,  5.289904263914527
 7.490105939359574,  1.686329019382665, 106.228922774920164,  4.931671200401088
 8.037796787509073, 15.085691984710490, 65.219994343511630,  5.116782795554890
10.864029055870231,  3.360034456202871, 101.753325329123044,  4.990388512188804
 1.056367979832744, 15.222898297526203, 23.426686673700551,  5.119870090154752
18.359463378773430, 13.232839698385202, 31.027157402951193,  5.254126237177275
16.057298400476778,  1.189467778777457, 61.329452518482853,  4.510551280383720
 0.784572555005340, 10.735092374746083, 11.727195818510634,  5.466984785267287
 4.427121583738661,  5.121384103981022, 108.053451967505964,  4.942484094510073
 9.670237844814901,  8.630663115154093, 37.486949826652115,  5.234804781106100
18.159625739363737, 16.695237722312260, 104.984114612615741,  4.913142621013876
 0.821609211595701, 13.414956498383251, 58.921919183001464,  4.868890149174442
 6.851341689261961,  5.854971793871791, 99.556356134662096,  5.421254496859081
16.713861592302759,  1.993444178965443, 15.453066154367427,  5.650810165119456
18.378067994956478,  1.300523609058966, 25.013062389955337,  5.010124308235671
11.212334651795040,  9.183579213956229, 20.441481115689395,  5.494747908484914
 9.796702826185513, 17.617774346103001, 90.366223955302047,  5.195182313728428
 9.271583536453276,  2.249960315722834, 83.020537819272221,  4.716757952346148
10.171645028999198, 17.139201335299827, 73.902904351332054,  5.038137816143870
18.747075374808208,  6.005608809066244, 17.666745007759530,  4.372192366865243
13.708832220256447,  1.657098636283476, 57.069515047729574,  5.258738475395474
11.803254952039477, 18.121989040426978, 61.633220994895986,  4.732219553701120
 1.062120748735575, 12.535711174655289, 35.891541990803347,  4.995894416950581
11.104809468290771,  5.238270714705643,  1.731472045581267,  4.872344443314981
 9.729725482458209,  6.123235674124893, 95.291025188197253,  4.873281070739632
 4.540627857200593,  8.937910445052712, 46.948521812000720,  5.022236736279420
 5.462621521743320,  1.299585812663336, 20.724989989986810,  5.069043539609089
13.121591179039974, 18.415988923269797, 36.729290526091006,  5.298602293384720
12.086866087100896, 13.226433833043520, 17.507943194618367,  4.630885833486307
 6.310358421471974, 11.790342519973986, 107.430712469300545,  5.022484375912306
 1.923377262199669,  3.199422972951663, 115.759144990525854,  4.818721226072282
17.575557589479587, 16.849983519739713, 110.091010640384994,  4.532679783159418
17.088437010429214,  6.261041176753706,  0.007750751480056,  5.112894858662401
13.091336499175155,  8.337627918354066, 25.185667154171600,  4.848927340901497
10.010651079684250,  1.024784850050644, 116.614923104337151,  5.068611169604085
15.892600190783906,  9.440961793342311, 84.779474220827154,  4.720694294045530
18.330998974555818,  4.668747375374680, 50.192615049784244,  4.948348843079294
10.394838076957214,  5.677271533579424, 114.144431164118132,  4.997421375078341
11.146649378520195, 13.582549248458497, 37.831015799193366,  5.108231300981040
10.514394336136633,  7.266136189395564, 70.411972511733367,  5.513868286419054
14.433032654578884, 11.465381450329239, 13.229332333144905,  5.267349471326636
18.567138100784625,  3.490120236745224, 73.332836942196280,  4.822077666376841
 2.810791250445583, 15.192502855239812,  4.329763571354025,  4.978097850669550
 1.061512949632249, 13.598674155197967, 95.763047794823265,  4.969894522687070
16.707650209132670, 11.878950233544387,  1.082309325958086,  5.048674709455905
 0.261403334559969,  2.644699159964957, 65.251691840836969,  4.986952058626322
13.715620462866815,  3.351784325293730, 24.922605288375465,  5.173259628477587
 8.801705445901035,  0.822464866442651, 44.577696019309386,  4.994623951847213
 9.533449521598291,  1.730993734652160, 97.328412529650464,  4.805646536128426
14.152084858149300,  9.218773645827429, 66.842281719811311,  5.329645197989463
 7.542773527307613,  2.625605171402549, 87.600179920590634,  5.102079815860598
13.461475649304059, 10.331092959292620, 53.420934683221624,  4.781998924533977
17.933425732374243, 15.517595758846088, 13.935352529859795,  5.517389204747508
13.994354275517713,  6.042431116946178, 47.919843187094244,  5.220779847823182
18.483067570828396, 13.828612255239964, 100.805643361884790,  5.239369825265994
 5.800477249552261,  9.293543881742741, 11.844192224156155,  4.908356395630928
14.490203817742124,  2.201307874947006,  0.561195861687616,  4.515541202142494
 3.692207072223359, 12.314796021131153, 26.770727275497368,  4.897941837102839
10.152944857290917, 11.136378721207926, 78.344495311971812,  4.334028681956423
17.569889363092773,  0.630778929819190, 52.916267120908500,  4.879216560668801
16.833595250687676,  3.760689242655513,  4.395103873749500,  4.996867150370302
 4.234292152779749,  7.461840003474738, 25.720867738422463,  5.080540289385606
17.333068793050597,  0.040729049249498, 115.092464166624254,  4.482905654398464
17.825725175570255,  6.547501142042081, 26.199673538258864,  5.471376010305129
 9.447683350394751, 14.402837311211902, 83.815060390821401,  5.084853013345387
 9.075755503129345, 18.307815962934129, 57.610838848627345,  4.974704269518420
 9.771556352558557,  3.764319820789336, 54.766427099256383,  4.673092551561182
 3.097285229546624,  9.890748699867599, 99.225417434867794,  5.598236455544699
16.576012382422153,  4.286895553369242, 77.929739905063144,  5.318002870759436
 4.808393441876697,  4.629908513760522, 17.161868417814024,  4.771327450629572
13.120872310520953,  5.920516800288600, 98.504119570740613,  4.434273950435205
17.179447925647018, 17.244470859910557, 78.803939399908998,  5.380847967051445
17.484140248779028,  6.981314585665831, 101.607544566236896,  4.778841959210546
 9.270167632562773,  8.804829304366041, 91.327119649645027,  4.740335820989230
12.225964446107785,  9.437223224169996, 61.183584755971701,  5.607242628571463
10.050164076051287, 14.249066964340168, 21.965371219778781,  5.336341166137564
 4.812368824008989,  4.994014542281390, 63.640114971320465,  5.460056244294333
 2.015351423012609,  0.831534544856836, 107.950029328587433,  4.900439861589475
14.864800913695449,  0.945260178496151, 48.783971829889893,  5.009065314113704
10.897711880461896, 11.489938525667492, 73.655424024011324,  5.154303403804365
 2.332585826796437,  1.813262751949522, 78.199874475772560,  4.975876599749897
 3.003818004835565,  0.240752469113176, 15.951533879492770,  4.964050855436343
10.621445574534906, 11.100311023591871, 33.027250472405839,  5.109514819362778
 8.651046915104835,  5.086300644726847, 24.797263296468284,  5.114822846767155
11.757382909438789, 18.129721251825050, 27.610136590372562,  5.211266270988929
 8.305796261253825,  0.251975836884913, 39.000079766294114,  5.048545806351371
 9.942772148294768,  0.544315547027067, 22.988474824807152,  4.992866701185388
 7.064849955610673, 14.002122381444485, 71.680774584036342,  4.813767717661791
13.953482170633418,  3.548631342614197, 82.193531617391400,  4.798616399448227
 6.964769729620855, 10.638120775198821, 52.048919174505613,  4.993593120144426
 5.078082839894440,  7.504653699977905, 95.020803615993245,  4.845262382993269
12.266133983077630,  0.407260598824385, 105.496350944099675,  4.943550096926577
 2.388422912682748, 18.515688831687505, 32.855545352238536,  4.865915931713475
15.679725395178977, 10.916095472395330, 104.097387010695812,  5.180880034399847
15.063990949956583,  9.352495300016779, 71.867093824983058,  4.870292424670079
14.418418733878941, 15.157629089710367, 84.952759235884088,  4.547711066819976
 7.936149823335062, 10.545515677616805, 114.534610839273455,  5.332571795459084
 8.805704567682696, 16.634892328925073,  3.337808902189863,  5.411253126749549
 6.732398838892130,  4.612576009816017, 117.164093226510829,  4.708352161477408
 9.359452559065600,  4.323123938654301, 19.785411004559627,  4.970470023071027
 6.004984153042087, 16.748120903046502, 24.326612932904837,  4.771733769118987
 4.729545690702000, 11.633276196857196, 56.772864386042521,  4.734702250442602
 5.314255504745645,  9.891668559043543, 34.851097541522165,  5.225033229410361
 9.408239027937055, 15.036688816790578, 105.039100832321566,  5.137735240731279
14.770749239884465,  9.043406061933295, 38.165973059724280,  5.029533369228791
16.068402556482454, 18.602140461219488, 32.137477965755160,  5.404649839571649
 2.990318785894290,  5.873943510042158, 70.106716548087888,  4.483435750419980
 2.213551385073115,  3.657523279406815, 93.753375201644701,  5.041716648915727
 4.178660904904722,  1.457293588748446, 41.840389123979342,  5.244638378806176
 3.081218954436269,  4.228570955263948,  3.293364921780412,  5.308952975055627
 4.273647754768172, 15.412001857726924, 104.167926555923700,  5.303820272034389
16.095840766677181,  9.769831142811832, 17.613982808053422,  4.701525146300939
 0.144918747113447,  8.048993476075662, 95.165776254377519,  5.067917172398113
18.055435066839308, 17.840618265832315, 57.522064733302443,  4.891200986457565
12.897184566405548, 16.022836372562928, 69.814975900906546,  5.023977483885909
 4.034722106096591,  1.367209022821172, 71.202469802312564,  5.024616918950771
 0.083747064746624,  0.208618695719994, 20.079787025237966,  5.116109704023807
 2.130287579318659,  3.912157994826929, 54.242830882935479,  4.751560509842863
10.343844072612162,  4.195878733285078, 60.523299318867387,  5.606231865671193
 7.364595923703430,  3.709096942869617, 78.762568242687109,  5.054258101555745
11.069577326587231,  3.357499589602946, 109.553180634143928,  5.366872521910981
16.672541136223966,  4.736871332479994, 91.382800234726361,  5.024044916576010
18.663472438888299,  8.378236533662948, 88.610749242788017,  4.956348365104411
10.106987898811214,  2.462016817280379, 15.359999701253008,  4.744566585952557
11.926388855901182, 12.221538409655258, 93.162021866045436,  4.660881468984600
 3.015899080370458,  1.255075426062992, 50.100535445584164,  4.703993429997393
 2.570514255031974,  8.378661587844194, 51.499740228625100,  4.948933263371455
16.053625129218286, 13.477323562702756, 113.424165136383706,  5.426241651981718
 1.817560258991917,  8.998120877786501, 29.681707421531296,  4.674287759645651
 7.716281237340382, 12.047855040819897,  5.204232466826778,  4.716603401322127
 1.637782320323555, 16.541113159148285, 86.192357226212366,  4.395431962604022
15.900931065593477, 14.151305041387145, 39.413609241287602,  4.971888726251048
18.480675279932697, 14.076991087977449, 82.695454101128831,  4.980061678227680
12.952066556261157, 13.449533447733391,  4.155552691047715,  5.142302771165824
12.138149305430948, 10.697250969679466, 47.551787532585379,  4.811963570760587
 0.579623809795021, 13.234032069787256, 45.576537713503434,  4.919793504787802
 7.083794190986789,  0.057808352204159, 29.784553340117178,  4.981371598004976
13.536212803075600,  9.357543231606510, 115.392405946725702,  4.992571552790483
 1.761623329102486, 15.610715372037623,  9.266700777780015,  5.148532860681646
15.130082913630181, 14.840685071767460,  9.572466009786952,  4.772348142118351
 1.959845317039857,  1.804042166560043, 60.643647817749567,  4.972026398833364
 1.730864312206536, 15.635918709687887, 41.038622381013994,  5.199930032243927
10.260140703552432, 12.058115508317877, 68.517296977905204,  4.801849751886472
12.966905858018004,  6.887334808669964, 34.151396448301746,  4.766912882769181
10.480008865699435,  3.862340736911164, 36.692546259072572,  4.560343603803104
14.430221867774570,  4.222645602132694, 39.220226936983742,  4.841955283469445
13.715916586816562,  8.474448004663884, 89.252082728954690,  5.018523556039355
 4.892255323209390, 14.085044162251540, 61.488198401602702,  4.847263435000612
 8.310384378035703, 18.172014458009421, 69.290674942557317,  5.113340108637744
 3.790657305620359,  0.899164490607373, 83.100476429375874,  5.374011016081440
10.773578214001436, 13.668999784709577, 51.167961808354804,  4.899389413061913
 0.856485521208599,  7.674032415337594, 66.099414648884931,  5.278417580811981
 5.916728026044557,  5.620538419688708, 83.906320099270374,  4.947941358608480
15.014146563318118, 12.688030642244563, 34.795101271640171,  4.876100060154925
12.958672911486881, 13.187797856253441, 26.118497486840496,  5.022970314094227
 7.083897693861819, 15.372852934969780, 42.347362166344418,  5.140137581536090
 6.013166325941028,  5.045810609105480, 38.245387379732243,  5.115883355444656
 1.855254865774670,  4.825723132527448, 98.585810152144333,  4.910060135860875
 2.019833378703819,  4.219038698410283, 86.754354600154315,  5.078973716988314
 4.324922255606261,  6.411476885589989, 42.719730912172423,  4.815985577096725
10.280330955868470, 10.019195222249751,  1.721820734927924,  4.822571224049017
 5.880067725774511, 16.590740374002522, 109.031139392938826,  5.126227834507783
 3.845500327024675, 17.082830443830094, 45.997615570028266,  5.192471134626307
12.473485215332820,  2.309850903130946, 69.674480329214560,  5.054281502147748
10.586971225551519, 17.231071595793054, 109.705825440734628,  4.466598696207173
 2.563840088698094, 15.038631424649584, 70.343349584086511,  4.788570127605243
16.220079993489072, 16.878312501118064, 44.812457449733166,  4.795538353277813
 7.127541230954199, 11.220653112350096, 102.467056386882874,  5.074185624106089
 2.919117413068032, 12.673124675686930, 74.808120251480361,  5.159312436029963
13.994759062085890, 12.241269918285573, 81.019764096965261,  5.273744622098580
 3.917809371357026, 18.011049263059462, 66.493540122722820,  5.301515412906929
18.530712817710594,  4.556480104166242, 82.486390582030737,  4.591121925166191
16.383981540465534,  2.324826315990076, 103.122889096014362,  5.252894616778926
 6.608782918918687,  0.188794144147777, 62.052966567808511,  5.250155809032256
 4.591257703257294, 14.592282085972666, 82.833987162160241,  4.815406614414396
 3.185031941769541,  5.839166445596113, 103.280733715759538,  5.017296696317312
12.708106865526949,  0.817327867323589, 86.417941364612048,  5.363496141114894
18.102002666732620, 18.211412310030955, 93.835904134221124,  5.121462372042764
 4.438522389759245, 14.364805962863862, 14.297096282068580,  5.295628410515072
17.710690196346640, 12.953410403300870, 87.337925105285052,  4.690316305713590
 2.075076570916328, 10.657108025810324, 104.576798818422489,  5.194511400681761
 7.006707822946934, 10.220253346046936, 81.896015404160963,  5.324719239434819
 3.545137327234483,  0.662838342491119, 89.964693029374928,  4.975494981296003
 9.331973456551438,  3.052221628183162,  8.675921410236182,  5.153592415154695
 0.163185295836707, 16.330288896696217, 63.097563545578360,  5.355696360843004
13.026865647765259,  0.771155738902793, 94.207403050415721,  4.757288732538170
12.172141587943978, 16.892221839225094, 41.737410934804629,  5.334338540374828
15.431468571348780, 14.961761343028448, 52.318113782468018,  5.031359123253426
10.861374095503132,  7.015633843128247, 80.517117117001504,  5.071868943401988
 3.037847906007126,  5.318638081317445, 33.589898908086774,  5.293443049282105
15.820161339848772,  6.548682776997967, 12.875651577969562,  4.958125498173851
 8.621357072225702, 17.184414882040024, 17.831667511035040,  5.183176561233672
10.783995862518294, 16.965014462551874,  8.376776167318379,  4.881115111898619
17.764997217593361,  8.613521483192407, 112.916122493787384,  4.919363752953786
 4.470385250820270, 15.445179198839160, 98.945058409318094,  5.015337892172093
 9.657583838111853, 13.962831003434436, 60.502042556736498,  4.885026523280717
 9.377570308582589, 16.165681261393271, 33.607262086340960,  5.385096496199044
11.781510764771681, 13.856096066249506, 116.431172515730523,  4.877479456146082
18.254152564857435, 17.057960085325906, 36.380174513152269,  4.625353353083907
 6.619862374261976,  4.444489732747351, 12.678741767561052,  4.902943500539743
10.867279968939433,  6.437012899948445, 29.103528075882132,  4.925085057767839
15.457319547098971,  4.784156200047745, 30.513949131582923,  4.984549859566040
17.156681576787964,  0.125358035911968, 83.738816874232725,  5.002005635066349
 5.727996683828855,  8.531462428129384,  2.560245538502604,  4.888667329342927
 9.393330519978694, 12.445581052695410, 13.574002807978349,  5.023818279451302
17.298270579637720,  7.400678712527837, 54.193950386849046,  4.949194869688979
 8.255970354053170,  7.823774616662392, 110.026749283381605,  5.218297502031500
14.169700651748522, 12.636665716619193, 43.705866580432378,  4.710147240211852
16.484751743027719,  3.574047061112574, 96.222471357808956,  4.937357421127241
 2.643860127892776, 11.485853132095302, 79.863235583624302,  4.605422774342654
 8.438568226906879, 10.184804199326786, 24.841619507161127,  5.087135065098118
11.176432955263754, 10.454577084844932, 106.619778656499705,  5.176701482275773
 2.368419246199287,  1.892263936823630, 37.213661328454180,  4.729886002938037
 7.181828291677187,  2.461958619832522, 92.997121992683475,  5.154361942986537
 9.170284891057142,  6.909431692717063, 46.110086879389897,  5.217495452576229
13.513199604290516,  1.897468640974187, 19.733578346441689,  4.610586022253441
 3.906310901882536, 13.216399684737285, 112.639056204439669,  5.051735859967338
11.083966186910004,  5.565002838568074, 85.865978472915202,  4.718560469858742
18.578653853065550,  5.196714783070718,  8.902099133158778,  5.086602196492411
 2.610994487162479, 17.121536882755663, 27.993077868599489,  5.238613504417134
 4.039360708792053, 11.314632729811722, 42.539545946078690,  5.010477881653451
 8.112806747115076, 15.994559579602026, 113.686830189000489,  5.228350855026577
 3.316840106214567, 12.900198281147107, 65.995903331014631,  4.990947682388374
15.831672894745006,  4.916324366167261, 86.471319377905985,  4.937203720043439
12.487180356574830, 17.636305140883934, 81.221873451160590,  5.192547998740690
17.842683681877674,  4.130455744085696, 57.685958999813963,  4.452432948526040
 4.931679979196540, 16.635540150329632, 93.758538015523328,  4.797672276381019
 0.397758032760921,  0.098045378639833,  2.097042352565109,  4.822683779808409
 9.815476143009649,  6.802596588752316, 65.172362767024055,  5.095724245839895
11.908618006448682,  2.178097895812197, 77.376323055585061,  4.926084370880228
 1.076638300839633, 10.286102209543117, 70.618123779745531,  5.162816137175272
 7.296778216959473,  9.274637761790677, 86.926666194033359,  4.924879747291542
 2.862632889696481,  9.827423417630168, 16.668928338451341,  5.405625908707858
10.008612881427656, 10.662408395914312, 97.322635834598557,  4.988549166725453
 8.109852274961144,  6.587936352706378, 104.756435399549105,  5.368939556768161
 1.984016160272511,  9.064365490766171, 84.057423331060178,  5.123344833150292
11.957103594600978, 14.358462932264432, 56.029961165925535,  5.201326415693417
15.818539003309208, 10.685913248806063, 57.588485761381108,  4.809081256099481
18.269516032265141,  6.655963267615733, 106.802349520997183,  5.285768298520095
 7.513938370212484, 18.208719802909059, 12.306865454123058,  5.279434767716464
 8.613184281132236,  3.003907116978886, 72.809830915853979,  4.966017794445771
 7.314189284882559, 14.159917810782460, 76.518791480967849,  4.725537748308708
 5.918818448016348,  9.215514439766681, 72.165555569464317,  5.048881908353465
 3.451002096866763, 13.284568162963110, 49.638238962951490,  5.027652541506091
16.432580426504330,  5.362269327871372, 69.358501060574426,  4.937129471912608
 2.658387463613013, 18.136348516850362, 112.689084290936179,  5.096436377878040
 5.138497757005096, 12.671672856520644, 22.325143493076308,  4.472279522317212
 6.690416095652042, 12.246913003179369, 38.791583871939089,  4.357964324456425
 1.628624140170489,  8.094824728364522, 58.024111837861291,  4.997163349534765
 5.638280160804150, 13.636445193736908,  0.598947785710747,  4.878688690273726
15.207167207382490, 16.500538086210994,  1.084778564219983,  4.589079973080799
14.038381808085616,  4.057150751325092, 52.591999461719567,  4.920327564312361
 5.109660369930057, 18.577531192976735,  0.150637043257983,  5.061535917216254
 1.208670799387048,  3.039436032246387, 29.389399522749756,  4.930153233469941
13.063332787952341,  6.728099953900041, 56.705580636846442,  4.986464120656733
 7.630533794418636, 10.670310884917527, 63.244927975996916,  4.580283925858233
 5.784983985775012, 12.243953622288235, 95.454550779704647,  4.770972477991188
18.661914378914290, 16.615948506162688, 49.011084469714966,  4.782397135288734
 7.480642815812262, 17.552434170777207, 80.048346818131435,  5.070683330313494
14.562142264283020, 16.954981954788760, 22.891235868300186,  5.333298757105766
 8.292706602656056,  6.187419679041446, 33.279902095359468,  4.778800834883670
13.700018413308843,  5.100413272445905,  7.807650727750130,  4.628923976083749
11.254253963610109, 11.663445191778205,  8.792319017417324,  5.337747892565210
 4.432426900892604,  2.340993920508147, 25.526393574869964,  4.796055273977005
17.974798970277948, 10.351126969544895, 41.824482193340643,  4.930847740925859
17.536171629232449, 12.402649365590094, 77.456480705633396,  4.694944288090283
17.626900294825376,  8.547843020688211, 33.600870811998831,  5.185298614667795
17.463956658188092,  8.639486039617392, 80.358298128536262,  4.799348351685119
12.874233150233033, 13.654151766522327, 64.408977016861058,  5.087309829136422
 3.217739550189486,  9.731999349384903, 62.255653154102959,  4.604747001813194
 8.662738874888447,  7.874810985639624, 15.859141230395299,  5.299522619148828
 8.322018149755266, 14.259245731201332, 27.947788433101902,  5.159881123213443
10.062053710093810,  1.849212157517655, 65.328129854567450,  4.823316928330689
 4.774554417194469,  1.232412691447229, 97.162606307507133,  4.767148738210695
 2.636568547875349,  9.393933932400619, 109.732070728602920,  4.873426216992227
 6.811653910227577,  9.560122113782336, 29.779385112814268,  5.366010266894502
16.230688503245851, 17.285287548794006,  5.601314247544122,  4.801198613785069
17.872352700902098,  6.263051116172305, 61.685134263249580,  4.611822308586929
16.632565371172813, 13.976732285951458, 72.893780684674297,  5.100992186935403
15.036573697016818, 18.751582522672965, 74.038086121923243,  5.214914199757130
11.578585215745017,  3.985541933345376, 90.596141968566613,  5.273327933887606
 0.279024966817519,  2.034854248725755, 45.956467114759960,  5.111062832545236
 6.869631650283397,  0.285511061129597, 101.487426756905663,  5.026350907615692
14.326795575771269,  4.438995722076931, 64.524705317428769,  5.171376735535287
15.032714253120211, 14.878217721876005, 60.040037329144667,  4.957054140874666
 7.708635001589712,  2.692287049041613,  4.077104656188205,  4.566055425296686
11.591219438134289,  8.987984793053549, 101.757662000685670,  4.997005114865517
 3.665669113806002, 12.504777121907757, 87.212459136513658,  4.793616830343485
 6.236064214587458, 16.613757211750226, 86.931620380775698,  4.892999806256240
 4.201751307851619, 17.195670916850130, 57.719544736109178,  5.018599286860163
 1.948582290556029,  5.884843528533261, 13.408839239131419,  4.974793318361192
 0.480254104391116, 12.127518343163747, 54.117899118123098,  5.093371793149045
 4.751158826536767, 14.137298052723946, 31.781773661629373,  5.311482954523115
 9.307214059154072, 10.009278405556300, 56.412201051512561,  4.988348439342447
 7.721853226150260, 12.935307567156419, 46.851525449765944,  5.181709707600272
13.155137657639925,  2.676925370308618, 11.760360394384387,  4.693725190360242
 7.230466502938451, 12.289504868443366, 18.093388204845013,  4.999187483054478
 9.977643830586269,  4.673493908304356, 41.488716325873384,  5.153554306603617
14.420846425306399, 16.023541192537504, 91.278562418107896,  4.744449208085680
 9.206731056080496, 14.987365548037545, 100.073663117303525,  4.764009921451350
 4.675112542769543, 16.110367786086240, 36.704984534320161,  5.293661217698102
 7.200163976140726, 15.036898966132037, 54.363417290976471,  4.958233623721499
 1.329553868681060,  1.034896348056283,  6.712985117473379,  4.671189882038036
11.220414167598497,  2.217977736906091, 32.048831077101426,  5.385215406028458
17.005771688158930, 11.015262710137446, 108.839868764666889,  4.664060136054621
17.376887726259305,  0.388224439106580, 88.819567967454148,  5.168777454307372
17.181566915375907,  3.798691705624182, 35.233507151410691,  4.882652383146750
14.038329052437202,  2.562268003695622, 43.983827608979993,  5.249816221569695
 2.991244018923108, 10.498684901643601, 91.805213776008998,  4.878332402053487
 5.111179332476518,  6.226653393976433, 90.236791247012235,  5.057067269164856
14.670157329787026, 18.228651019156583, 65.614132623977895,  5.022592719701871
11.570282402243178, 13.072856725497131, 88.317167306358115,  5.199855218815921
17.959878393971231,  0.039001560371196, 69.612882570924882,  5.389621622494082
 6.637219065047145,  7.753607759220487, 59.772105517548674,  4.698998549859054
13.397516607204858,  7.953091127406815, 110.528326008316128,  5.105153754680016
 0.234023487962024, 18.741329882429948, 98.947847830369497,  5.305275135432433
 0.701329728937233,  4.333734614128575, 111.183407725681434,  4.912216307458587
 2.990354423068111,  1.517813244171900, 11.169859770637009,  4.886623086035747
13.197527020263912,  5.801124345674137, 17.001159599702373,  4.925426997556513
18.617837137469881,  7.207690981503387, 45.777365060646410,  5.232840380935147
14.425335909334610,  8.316859908065327,  4.086861859671788,  5.305693543871247
 7.460762964990721, 17.251477100813467, 49.757397420276426,  5.235000145894788
13.278840120884814,  5.865890109107560, 105.467954392133706,  5.162285743676880
 9.619606801658820, 15.985268292899139, 95.250763119293850,  5.097726036356908
 6.944549107063363,  4.129565123938912, 68.286425808996654,  4.893413600525948
 6.050408608097412,  4.923493613036943, 50.890040534753652,  4.920559046934753
 5.699328253729997,  8.746394032513276, 67.217042940297873,  4.883506451718227
 2.421585367251721,  1.116411109582024, 103.237248543506098,  4.545261311705910
13.694375011622851, 15.279314113521218, 102.178526494030493,  5.135189735579732
16.678447600725928,  0.109087011139791, 40.448217122819479,  4.819928623842270
 9.639197964099962, 10.725962446496505, 42.402587691677439,  5.448006833382097
 3.404497098066392, 10.827177107252838,  7.165182889692321,  5.037598110354163
 2.361985358313813, 10.088245874264651, 116.411618756277946,  5.216080787399687
15.154001452603435, 16.614597483433318, 17.990107735320443,  4.555511411042595
 1.848542321791359, 13.912179245005628, 108.272479244589647,  4.655512215013124
11.581502282278214, 18.389161977441759, 52.756732147280907,  5.179527081725588
 1.555280108873603, 15.017647204425806, 90.735600734441249,  4.820868216873393
15.630950449508340,  9.217069975388295,  8.857547953534471,  4.690882919470389
 7.031098579917384, 13.271265173474307, 90.777535186151255,  5.120008553536404
 5.822742471256825, 18.616195286904112, 75.497469907261078,  4.685185210602910
17.197949649751582, 11.099089431774765, 62.820389779474112,  5.372288636187736
 5.727162268953364,  4.674647306022238, 29.440844184737422,  4.665420666099291
10.176379211760070,  2.785242169895923, 48.995765539571394,  5.039847497099533
 6.096260029587250,  9.624834013359521, 77.014747602520288,  4.675123273407845
 3.207306322819070, 15.858722232490132, 78.507962791124328,  4.612435686802691
13.903624233791797,  0.475219000802801, 99.074825198358212,  4.934107124684721
16.007193337158387,  2.236483871268768, 108.269522805595869,  5.059057841204353
 3.223949148550421,  6.608672768105169, 79.680542803229258,  5.213810473729435
11.109414560001538,  7.146031598252928, 11.311585249746628,  4.985247759832792
 4.366596473647943,  5.057752841268940, 74.788938758336428,  5.258038677371119
17.095526505058778,  0.396608023961363, 10.354250292970052,  4.834230051689372
 1.180435921220670,  9.916261730875561, 22.224580867338776,  5.113319721509742
16.778607179863368, 11.656260124547202, 92.098646889201078,  5.316207093115840
 6.617497718626820, 13.883189204707419,  9.611608841453005,  5.069889754885688
 4.938398538022446,  5.910731117677886,  8.026463851094789,  5.398981354649623
13.149490981465872, 17.653933259527431, 113.508876669731876,  4.737149169651501
16.435984739828974, 16.341710510191575, 27.564584828158804,  4.801490675727572
15.336501560081722, 10.289801211127839, 98.420420872206748,  5.362553032257130
 5.963143036140641,  1.010994827213414, 53.878100725144897,  4.883115373359535
11.757988722552664, 16.159615895972738, 46.910636497824505,  5.142261449507155
12.338696540391197,  1.487750743962488,  4.820428883194726,  5.111835416160591
 4.523347891845735,  6.632650285384218, 113.351881708208808,  4.974798454978541
 0.694238494837186,  8.683844943901939,  3.649703200555936,  4.820818466465916
 6.622171547998748,  1.719617907510011, 34.478377613593928,  5.008120957855950
 6.951239185461951,  2.213793228258715, 112.665796660442680,  5.200199651342998
 5.065206459454097,  3.395737183571838, 46.393581857598022,  4.778819315752716
17.615339678665727, 12.594839444668557,  5.993769161869827,  5.009176025523694
