BANDS
8 8
NANOPARTICLES
cell(1), 18.718
cell(2), 18.718
cell(3), 116.986
17.464779853756056, 12.999179354840383, 41.643738748733597,  5.165808166375997
16.651138414935705,  9.642242368124855, 22.928514444302476,  5.028824172700861
15.962143093125590, 16.794540977556981, 114.502140746454273,  4.764303494139621
 9.277013965040776, 15.058953577923715, 99.081284359271208,  5.080649948114859
15.934141649269945, 13.222391010028133, 75.402612906636179,  5.109967407542426
17.484191487317702,  0.014998812419330, 100.157492959791469,  4.791353273427977
15.208831059541003, 12.610961160183134, 116.954964593405251,  5.040952933100589
12.959158143136907, 15.072296107325048, 50.183410733783987,  5.175886468416909
13.006931427551804, 10.486172272411428, 40.291533021787565,  5.418199501798767
 2.230394698469557,  6.162203246819492,  0.018482362872638,  5.216873361237038
11.299376913583218, 16.184899010139127, 54.892503162669470,  5.032174345098261
18.518933044782219, 14.835376021771198, 70.995645754639952,  5.125329297532694
13.318334772176009, 11.917136811980869, 19.984475309048097,  4.937817619570875
 4.469834514282168, 14.199533963839485, 97.962090007700013,  4.904546624920793
 2.474681845994940, 13.031681607374116, 45.419232800429164,  5.442302483048795
 5.731689717544712,  8.594717337391698, 107.783646252737427,  5.073605763570746
 3.622345144680996,  1.140802769160552, 88.972883023793457,  5.003796640010586
15.310167085576305, 18.312852584693381, 74.733552869601141,  5.202158705057804
 3.640580829176679, 13.851674538147815, 40.355969605294412,  5.069179927471000
10.236571208131648,  9.216228671011333, 28.757709722245650,  4.640014138730267
12.487432244454750,  7.816163902919102,  9.330470710054318,  5.417560427366793
18.446772530777579,  7.919431365929565, 59.952222126470176,  4.799758789730426
 0.551670303606740, 15.785085866074043, 54.645748303220010,  4.830022234924568
 1.864825961245081, 14.589567727973163, 81.750172165173595,  5.040542228300405
 7.409822061125054, 10.465070043618990, 99.329369746541090,  4.842681777411765
 2.095276286825410,  6.420069778904575, 56.047995626352716,  4.807362720253000
16.703843862499980, 11.913671669520369, 31.402009086338524,  4.389221000392217
 3.597296391469107, 18.597937597077660, 79.379553319559847,  4.874880610040901
14.851581933686546, 11.474548769700936,  6.416297951889344,  5.063795554697997
11.338132658823861,  3.709640745713043,  6.750657646777020,  4.543582867149599
16.771750373780748, 18.066777900024078, 51.251650732973694,  4.752388558789820
13.413842286242350,  8.920825860940321, 32.253841064217070,  4.662047804170181
12.697718194107397,  2.601998065532932, 108.977693687986999,  5.350200233976368
 5.138934786495263, 16.224362005592781,  5.838947095381406,  5.259275914931503
10.975120798764848,  4.028031068104553, 81.529709796536039,  5.026499362709258
13.589299833605539, 16.250185260965804, 70.589921781792185,  4.673415671531821
16.579167741455752,  8.906010860736217, 55.484024986755514,  5.070827137483271
 6.757821687210316, 16.971091821279920, 75.784949215638790,  5.216790759971921
 6.220418321441111, 17.509394459052341, 116.924117519196599,  5.026756025931569
11.064218588203614,  9.802979904672499, 64.303836958146618,  5.474140404477888
 8.177930528796519, 14.139969418434797, 27.747703241642593,  5.099145905170173
 4.716095218262509, 10.451068058207904, 81.608026383192396,  5.011856960819538
15.512092983629090, 18.583247878525967, 55.903956910610340,  4.870735809820188
 4.083205893294850, 12.130940091892720,  2.864746506874998,  5.076539156066666
16.005813955637830, 14.550515233058499, 83.653392331143607,  4.869024905158557
10.690471136195001, 16.586167532013874, 23.855115277262840,  4.613136501862519
 3.743156740472470,  9.773514119057630, 20.128885518450456,  4.665657491547988
 7.761518739955352,  7.765506947541871, 68.278969137406690,  5.152793799323727
 4.107810643556103,  7.421298346954414, 77.352162516881705,  5.407103644918594
 9.692465801876688,  9.619300748375334,  5.195125172701111,  5.191742381933182
 2.671663239876263, 18.029702749121920, 10.038241150959729,  4.761542674188052
12.199559525781625, 11.191194676769486, 100.140089934128667,  4.835877010651714
 9.717732949009720,  1.334507270279862, 113.036044530485640,  4.993147928603328
 5.755710812073051, 14.213281949786365, 35.805994231110105,  4.981947761217463
 3.955604154748635,  8.539431231271330, 11.841170592011084,  4.902135505443206
 8.926907758244761,  6.367919523973272, 61.007551617329035,  4.954055645981675
10.432754964228732,  1.584423755626437, 73.787392974374185,  5.469845607677546
15.329919811679648, 18.147506396271101, 27.127979963597774,  5.023056136722819
16.009070240468738,  7.242634098440863, 115.838330390130693,  5.156884256113861
11.161789403129507, 18.412279220296366, 46.630053865007731,  5.201375813161300
12.351346767480058,  2.791422426676194, 87.232108235756627,  5.189134697388758
12.122842147105771,  6.897302638823606, 70.541644622326132,  4.821881638397714
 6.618339219326571, 10.202224824890921, 90.499998803557290,  5.237921720917550
11.324399615092451, 13.734325038281844, 67.440558357591868,  4.572573437796324
 3.141693984588260,  5.169648830860419, 68.928333548968283,  5.148303131747681
 1.770909648784910,  6.861784795988972, 64.598321233482835,  4.520359083096179
12.608753758225188,  1.559774154959580, 52.297928896147944,  4.797295262714791
12.742139927008935,  9.428114674080136, 74.629279231960084,  4.701591987013847
 7.568120515232165, 11.874295546632334, 76.176737238558289,  5.115066796276308
 8.204103459099928,  3.304313595578791, 53.112887867654962,  4.775999963005938
10.210451485925701,  8.406885600399539, 18.991626871186156,  4.623640332081813
10.253260207871154, 15.121102629817997, 62.871809893271973,  5.139940790774860
 7.916696894331038, 11.139549501557296, 22.368782209503230,  5.179672514104054
 0.040999914208470,  2.047211850694784, 82.097763481189006,  5.042422906439829
15.749063188527444,  4.032739347569648, 96.229392736013210,  5.246756083329201
 9.197836634539906,  7.668560836167156, 84.106951064915776,  4.560989097221634
 1.316326008205179,  6.792050598740879, 15.648371578308506,  4.519332667106789
17.095071683402523, 15.730814227670200,  9.414814709381252,  4.834948146896190
14.556149378283294,  1.871158192589702,  3.693383479216971,  5.021053564874702
 4.117263524624695,  3.775162867347537, 34.106936614388047,  4.781518604040727
 2.666467039080974, 17.000358595861570, 15.059182055375103,  5.295101622030252
 7.316069390679387, 16.015423727520076, 111.732926595920219,  4.747287627211207
 7.841347742734681,  2.746780608676859, 69.393008857410962,  4.978935818424731
11.633419456373222,  9.157368748810836,  0.525456181684542,  4.959903906105668
12.925879261054842, 13.320480402763758, 95.715367503783369,  5.078853908093956
10.963141747113946,  8.634658419595940, 36.152240601335706,  4.528302777033407
11.273789943898290, 14.981874568657078, 103.715912211950851,  4.990162621087396
 4.716901286482902, 13.378688033259998, 85.807332133600397,  5.162191430195318
14.980658411432954,  0.853123511442445, 62.178197961461215,  5.375700477404727
15.055074026315797,  2.942785794119773, 79.024620230725247,  4.730026226003566
 3.884083668719135,  7.330200292642365,  4.770200557304402,  5.108352090846875
12.494001372781574,  0.014146704813676, 20.036381565614999,  4.846307776276443
12.635074754286839,  6.664105327148226, 43.896482052388791,  5.111832863885199
15.362111925884941, 11.896150717279641, 87.913619104312630,  5.241084921684051
 8.547452605315023, 12.933588246152489, 51.047277582255326,  4.780305863824272
13.330915326237488, 15.715656650602799, 40.528577584107722,  4.964709966492560
 8.862994730941521, 13.997373857260957,  2.533234962555806,  5.179982215454922
 8.569220810297193,  2.763022755077611, 32.030965960565538,  4.822183348404377
 1.388659405362496, 17.725499628268079, 47.605014995646663,  5.135099313665789
 7.021465414080097,  7.934056347554218, 56.629886440057106,  5.090036124659939
 5.535056666819536,  3.170259563071046, 40.062904646823277,  4.762678359978250
 4.153957006369857, 10.869031559155264, 59.395084828694792,  4.805252894160551
15.411252759297716, 15.578379164596351, 22.729325268607113,  5.084131409607590
 3.691891045174624, 18.218891166413279, 100.927244126650123,  5.197164593741603
10.592065820274586, 15.239248137010438, 90.743553767982675,  5.057435520379539
 8.254373124411593, 17.249761402632505, 86.520529987751161,  5.396387501313929
 5.969362524584102,  6.348690003110705, 22.917103663869842,  5.221108151309257
 9.357422968723158,  3.819134845460023, 20.079177257257470,  4.954281053988981
 8.431386050790675, 18.576253166200868, 102.297391148600383,  4.599680930455937
 4.909854939419341, 11.926604131842803, 31.630996607599705,  4.576223028993573
16.812584379199830, 16.976927806844042, 79.426498129896771,  5.000728610702097
15.396395262432481,  6.684076261247242, 110.783478114627144,  5.076359575606264
 7.707919831501923,  1.755008634730032, 24.275662881900651,  4.963749572651403
 5.968711839409127,  6.336692691273644, 102.971687829719514,  5.140771959929082
16.272958465796091, 10.404304863074534, 107.439090382159094,  5.078782993794591
15.985503784472089,  3.870510432470020,  8.362016644524168,  5.277281205650912
10.368893788418188,  6.568137357649886, 100.238587247712999,  5.104855602564653
11.801760342083034, 12.491740079210054, 107.922778481999245,  4.836802988991836
 1.671866680254113, 17.392196088963921, 74.972709740463301,  5.038978534204180
 4.730849750090581, 13.585409593415637, 72.418618088429582,  4.854907351303978
 9.802046130473258, 12.050031434011684, 86.618848997179327,  5.455664901541931
 8.367368067506922, 16.993344289812921, 58.713242955312786,  4.725265491666220
18.437152456734349, 13.405044465167080, 49.899532601143051,  4.585073145792337
12.076304232697453,  5.045624182139436, 16.384115151211191,  4.534300961607103
 3.254660950222365,  4.467311559872843, 44.244410959757381,  5.100516424611194
 4.144512623886453,  6.205045943177401, 60.333979616894545,  4.702768837440968
 0.949838748658100,  5.808387793668048, 20.646734798700582,  5.083969563865416
 8.806986661317618, 17.699102004824415, 50.961801572648952,  4.747954002742724
13.314420701866215, 18.318859474610861,  7.880164457452685,  4.819531685729582
13.920149327875819,  0.501332084893545, 103.909483419360598,  4.952468554104098
 0.512991524505484,  4.008602320199122, 112.692542752295495,  4.995566673880855
 5.231861323120593,  1.583249301960744, 105.188762198619315,  4.689022196066296
11.692790550413413, 17.981043069488834, 78.516359422724904,  5.279113732921386
11.128883829403597, 13.593367066536132, 44.454169079788691,  4.979971630560019
 2.064346998208074, 10.210162776901930, 68.167895968307860,  5.271923799253591
 7.054357100856969, 10.946052810298179, 44.557736072721355,  4.737644290132097
14.135290623373740,  6.172674007637743, 62.201029720451793,  4.893864532300188
 8.795171326409911,  6.801970656298593, 13.308337712530363,  4.562597062132322
16.072237967235118,  8.994043255904502, 65.875893682318718,  5.146352638138289
15.118197259549643,  5.900973534005670, 13.110791385104053,  4.556551424288917
15.524626974116668,  1.631054694514515, 47.435963870148733,  4.463677147271544
 5.409043217149571, 11.254664765955830,  7.766693935556079,  5.212392725543849
 0.255415510350150, 10.272556690226265, 72.856095902576257,  4.765355770631610
 1.968447618623364, 17.554740156020202, 20.568190247852112,  4.785782928055070
 1.623323330284791,  7.323838857689132, 25.338003493818906,  4.863376969617455
 4.707737424600599,  1.329631412908447, 112.731364702359187,  4.937323499360169
 9.435038287230766,  6.045657041439394, 90.673358163628265,  4.809472324933812
17.835929654520395,  7.908460731540497, 76.784824870467887,  4.682481615338837
10.841544582098177, 14.060021714193564, 114.736407090118632,  5.171798283086012
13.134160485068527,  0.581315218423119, 15.334518851300670,  4.592548900249025
 7.000583955795764,  0.288083583396154, 36.111872709315328,  4.591074562620491
16.745090747798262, 10.505936930810886, 93.567649977689101,  5.332964481077473
 6.723695144892437,  8.471330437873558,  0.648123400908611,  4.957469007272420
 1.633407711003554,  4.078404850261728, 101.695417950579554,  4.957024290776802
 0.894396326286531,  3.929143904687867, 48.662864913881187,  4.974913303176778
14.750540809940368, 10.556147352796174, 51.229438409080522,  4.752745659527267
17.725726959618306,  9.773577234915846, 12.903533362890396,  4.779332507237882
 1.003343319947718, 10.900837037386532, 114.915028766615748,  5.414073893187942
 7.626829785891919,  5.143896517290283, 27.880657366921184,  4.930645792810452
 4.687335129282152, 10.491630483528702, 49.372394056201045,  4.944396803359527
 8.787537685317089,  1.968181670133505, 15.731615259334404,  4.561237556328488
 1.136338238631556, 16.469568147523564, 93.549451522024953,  5.318572383339857
 3.422937788341700,  6.323002776153316, 90.092453520123556,  4.766946941099129
13.917351593593722,  5.854066188188495, 20.895505035619337,  5.149894546005350
14.190017766496887, 12.473765693812014, 35.354714478440215,  4.892681509755596
 0.828340173736791,  3.294858299416231, 76.959959518764535,  5.155603397029781
18.127710096256571, 13.621876375325360, 97.683927864861758,  5.295958442409822
17.111281160803124, 14.431470326612709, 14.083740709038544,  4.851147453768912
 6.964245491569832,  2.922440174822922, 98.489766365128858,  5.448673235350034
16.587549080793682,  3.664933726424061, 39.800110350615803,  4.531785839718419
 6.483814146417004, 18.650279997023798, 19.325797540232415,  4.822717265258369
17.023331703323066, 11.419974077315018, 79.998217660020231,  4.966919707326528
13.864143108534259,  7.521002654633358, 79.308354746272386,  4.736009176025426
17.410208202587203,  8.417708769455002, 98.882647759600133,  5.470931972333362
 7.301185131511858,  6.402032715708668,  8.608549058414891,  5.330323086698212
 7.150935265995237, 17.903762238441058, 65.858476703624660,  5.078517335633573
18.343733724287713,  1.600439510502051,  0.203671432910726,  5.288642995143221
 6.550204943176356, 15.222394337984863, 10.686914385657266,  4.899299969626099
 6.927668159844753, 13.537335194729671, 107.508190090999605,  5.077094156375987
11.287215240173206, 14.882021866808373, 74.543854648528082,  4.825609523910113
13.178313486044965,  1.599525404093099, 42.377885304900687,  4.949126365285093
15.218699320856286, 13.462911725121995, 54.806615782346725,  4.503641220760698
 5.333905000898755,  4.170007933493121, 93.852499657592560,  4.677411927004854
 6.168909040393617,  4.248464849730629, 64.769248745189145,  5.277295260470000
 8.672360179493163,  3.366704848747174, 43.935073162155042,  5.178115738982312
 9.136084069024882, 18.066969408107607, 107.040712084507049,  5.033954396676658
12.385237240712373, 11.957597159805287, 25.081046780284357,  5.394973719910563
17.362211371620930, 13.615511499578224, 111.120384393158105,  4.927127073240135
12.531144631192623,  7.778900167820965, 87.424312447098231,  4.796988489742133
18.473675709455982,  4.741932355951065,  4.104364442490684,  4.726372645384414
 6.674805486465816,  6.826436724853728, 46.902456580528458,  4.740068868452943
14.046374828369240, 16.779458230284721, 87.522437452783308,  4.874377612105022
16.658210315627404,  3.659588594900698, 17.120958207494340,  5.131930005161128
 7.482505990384748,  1.127845301796996,  8.838829458172050,  5.229964349747561
10.407231948098694,  4.281679856505087, 48.813786881955131,  5.043459768646240
13.775460815749424, 15.470604609063777, 59.302027055483329,  4.909571468607092
 8.077380503598626,  7.919029038848235, 51.776802491908420,  4.827933135260376
17.271433907271000, 15.886922134668655, 37.391791359401743,  5.111732172888003
 4.641741950876527,  3.167534570993717, 13.001592299058480,  5.640574608163585
 3.429523828589198, 10.787543426068824, 94.490447339012505,  5.041603866167688
 8.684125072336814, 10.831474023272166, 111.406480750485713,  5.042719879999231
13.460192039719061, 10.282173306012742, 83.312667011082311,  4.997570849566258
17.346078922102084,  0.978864278166468, 12.641432288977320,  5.397829569732567
10.527731862747988, 15.708467745335550, 36.354879314119032,  5.074825597937910
 2.399859446808986,  4.373311430283928, 108.031639749212204,  5.084542828498479
 2.688954305881449,  2.543490446030850, 24.240898338265598,  5.168776269314412
13.594061815586416, 12.750400962325337, 11.095874366130355,  4.955602842319576
15.647742090065734,  8.855598004615425, 27.869479265573133,  5.175520215394513
 1.846538510163685,  5.789574354738408, 38.034569027344347,  5.145104007403011
17.553149596685575,  7.158825165744393, 88.331981382861869,  5.189333550812271
 7.476057112782424,  3.819586865047254, 109.080432848402012,  5.334965337517857
17.096237863548893,  5.657753463558412, 31.671947642207758,  5.159852260258154
 0.444410331067748,  8.369771711277025, 51.023754522191140,  5.099173466235310
18.387840599546131, 12.695291469062314, 58.418539838693519,  5.069767325451650
13.293647967583297,  0.582974547710686, 91.614922726440170,  4.799712646910604
 7.269267838566059,  3.918325505624451, 86.643441504063134,  5.277564476754609
12.568177131735196,  2.549114772776559, 24.440661098636266,  4.889678065161183
 1.276332999408522, 13.353782116260922, 34.186393045739230,  4.698045697021944
18.070654024620662,  1.965465917612740, 35.339106056145987,  5.418427268574264
 1.891558782748684, 14.875818497537916, 66.603784716727901,  4.564783845111998
16.645950203069798, 12.256705396083325, 102.603998627763161,  5.277817206447907
10.991630233276020, 16.866740881090092, 11.868545700322247,  4.852255972545021
12.472857161940984,  6.380922197160291, 52.919879162997240,  4.752618375344157
11.054270119554021, 15.187464720685661, 82.709292091236293,  4.876184608054063
 0.399934575034696,  0.300661037399655, 104.960660178875074,  5.317577271013284
16.160459714366507,  4.000611042470599, 58.346190291075779,  4.813696628507468
 2.391455434496799,  0.998994910634405, 52.232467818950781,  4.726679333228063
 9.105756761580073, 10.336665980865128, 104.086961798499331,  5.253542742433519
 2.111192245702253,  8.523640169070838, 33.714001415024704,  5.092974121390816
12.147661238437589, 18.342248997547284, 116.901815781180474,  4.749646470426237
 4.825385903660874,  0.631829858040527, 61.283489385362543,  5.116253275847949
 9.780009091641945,  1.546036062998442, 62.181145193134242,  5.115874906398619
 4.829699159760756, 14.170205779838009, 18.739428574550352,  4.798581275250618
18.662391332929456, 13.014562877725508, 19.536449642256176,  5.346890105270523
 3.181194674967784, 17.743472040379586, 33.368084361387943,  5.003625667825124
 8.285223450718094,  1.145631544725399, 91.191105817731682,  5.307402835789945
15.360920854280424, 10.653518657341980, 45.565507596502648,  4.848936905851344
12.089336262474349, 12.182968891374690, 78.739860971141368,  5.279164915890986
 5.379744257099530,  5.445040062119864, 82.055396439830147,  5.098661795724345
12.395176509908399,  9.622050111771145, 14.841645796812667,  5.057813268004939
 1.468525943368682, 10.125890499367719, 29.179834975975503,  4.604622282941838
 7.974614531461389, 13.122214427138809, 94.544274187538150,  5.092583465212130
15.503093945344579,  4.261572365368159, 101.239115170830189,  4.785131095455545
15.189655008581555, 13.938697392598424, 64.280434852658459,  5.393388311643720
 5.009212149629777,  8.404659099158719, 86.076574849625018,  4.812277386628219
18.081203585350508, 18.286112442340798, 41.864863038466808,  5.090151743279098
17.095193801275311,  4.521698336572340, 44.295037843368803,  4.622578272822273
 7.004447300629757,  7.539413017516285, 32.325910001745953,  5.240660046839775
 8.141071808714996,  5.175901846931682,  3.817415508800260,  4.613768570503339
16.740146009363972, 17.744709366329296, 67.348647576752157,  4.848452824313920
 7.865064143048738, 16.657521474355573, 32.062405388662725,  4.904335889818913
 6.003195525239936, 18.038638542513524, 54.764436327042290,  4.705037244333358
18.055963702405787,  2.459085344918408, 91.649209285214766,  5.434249105140859
 7.680204168714968, 16.120029139777905, 15.351317876527604,  4.863696643937856
14.060060600164766,  6.876031657912046,  4.374076248786358,  5.058305859291512
17.171458831256370,  1.875069857732927, 86.728940116713815,  4.624791632603819
 4.057124567550719,  2.090284266638817,  3.334783304426227,  5.284365138736860
 1.023743358876327,  6.481609799914496, 94.343935574653827,  4.814227265421347
 7.995323896538949,  8.070772582188987, 95.030561017403741,  5.045818437173821
 5.817469557730571,  9.343268012800594, 63.806549729116760,  5.096977952097705
 0.607597178672309,  1.236776309761048, 29.641084360391929,  5.076513513571538
11.813495764621610, 10.342838357038184, 91.664927328868103,  5.198933167075155
15.636724087485838, 15.761899996736123, 45.715617288120711,  5.330611431984086
 5.902279497997877, 12.770883240064681, 115.158622867889008,  5.068365424257021
 8.911693132615149, 18.218372290817157, 40.519341198563495,  5.143487960163509
 8.595828044159919, 13.186836238039925, 40.218080647363330,  4.923705458563526
 2.825776202460843,  2.451163168460732, 17.718897645190786,  4.566694859238871
12.881598524439946, 16.425948479587351, 110.697087063595177,  5.029759650215285
10.871997625054908,  9.673118127520091, 47.858253664708720,  5.413016583795724
 2.104323205883024, 16.078285562187148, 114.382843169409384,  5.061042535682594
16.909077999380564,  3.890329542607617, 66.080274589059073,  5.200751944674522
 1.233876104978960,  8.106531228846171, 104.741510288001876,  5.130217749469135
13.737430748127428,  8.130956917579578, 103.695853505067262,  5.031825226941178
 3.056976339641894,  5.622532602463814, 29.717326030047776,  4.960383744488942
17.031589400988985,  4.063195045485418, 53.258175554830835,  5.497557854174772
15.399874607595855, 17.685559620124209, 95.838829181179747,  4.934705856478624
 3.513926412364206,  8.938770603406269, 41.755052696816279,  5.144772798716821
 1.868080366659027,  2.048526013372844, 96.724500674856145,  5.254993788851593
17.547635323026260,  0.010305852747565, 110.085134440707620,  5.080420360227619
 8.475382739695739,  7.684204233803288, 41.237306250334925,  4.947404864721368
15.750760838433017, 15.408898266361744, 106.644054058688724,  5.105246268259956
 9.629123983516054, 12.006246462210989, 32.916909860551243,  5.176466273106000
 7.862859272761263,  0.197509118347289, 81.692058461478084,  4.839900081743786
 2.199856738528708,  4.527769700163323, 85.744633134733789,  4.750076939807320
12.604704732948266,  4.736081929772925, 29.081806738556946,  5.340177969882927
15.340794987002214,  5.512289376840571, 83.862761674509215,  5.301339063362095
14.142387850036602,  5.881607812026941, 91.805489077685834,  4.863786674011370
12.217755109405175,  5.243434037660832, 39.139647957476861,  4.851196848666524
 2.838523508663937, 18.306651261515661, 38.290377484220706,  4.878419872588808
12.894274780710564,  8.291055100431219, 96.215477843335918,  5.000019569704359
12.039469293761366,  1.221257409205744, 99.177694767137098,  5.312116680145192
10.501970737828699, 17.549161830181170, 95.045787923468140,  4.709404697614644
 5.932824449666597, 14.031308567512704, 102.644079641012567,  4.901487407893778
 0.028355302951066,  0.190026454786010,  5.977861514463566,  5.073550955513113
 5.719211747486897,  1.991801907573608, 48.232257698765039,  5.455654388978690
 0.698325406288313,  6.860599255648538, 81.154422378573656,  4.842033600401972
 5.390025333777825, 15.315852362515145, 90.605086198436297,  5.272271836480823
 1.009217705107413, 11.428539253627882, 63.216865605224292,  5.120157838841499
 4.130060198807671,  5.327611209154030, 51.925864016868466,  4.618183570261515
 2.116774110735286, 13.107796234868109, 11.167932680221934,  4.948958983468451
 9.532844551762233, 14.950900983687072, 19.627077508076002,  4.744022988751445
17.386430916755668,  8.038936667914975, 41.191666637033052,  4.773193895294638
 3.818792315438020, 15.551156622018308, 58.213236902039661,  4.853982462970262
11.427346583374476,  3.121511256581581, 11.553614485467660,  5.133428091333635
16.355717822169378,  8.838418576660079, 17.707235391837514,  4.834916021032813
18.248883227158796,  9.620944074584367,  2.956520727981616,  5.307059290609018
 7.036689964287805, 15.287695199007379, 46.935483631315186,  5.161231907112980
16.784331499771493, 16.548361997933402, 32.385929548603869,  5.032769402851044
 6.780481509173345, 14.565746889779655, 80.160015511775754,  4.626880139638176
 5.879739115117116,  9.278081672802829, 37.140106296428918,  5.182597607130974
12.068226281909128, 18.335024554568314, 66.239765828118678,  4.822504583734545
 6.944988607319305,  3.688541570307585, 116.429537224122512,  4.909986096555905
11.069934493477824,  7.532190943606274, 108.043866139751387,  5.192468243614341
 1.558697651274506, 11.402427343297488, 89.716852268644942,  5.262759482501936
 5.736300877285204, 15.794487841800493, 23.451667386468614,  5.320940229039762
 0.693217373251545,  3.304903353685630, 61.801035037528443,  4.772648200876536
12.556723859703336, 14.534707307282014, 15.872990416834815,  4.923885803108725
 1.811923305212447, 14.884604244565743, 29.524458834436377,  4.957068856084947
 8.643314528365730, 16.420903996420634, 70.555559209001544,  5.214002476427058
14.283382208943712, 10.734198811858445, 60.388471789258169,  4.832924437090327
 0.454282568086355, 16.059546600716271, 87.387503502393827,  5.371255984941764
 1.615208696801134,  1.337357824928929, 57.200410978679194,  5.340642760666752
13.499763010055471, 10.964277032566836, 112.058520275299358,  4.570496093163708
16.946811917592584,  6.790191730200037, 70.262591835389031,  4.815829090444197
15.108223086652201,  6.380686645248488, 48.461104620261018,  5.277032095698842
 0.503984816282770, 10.532629560509257, 84.617979008786961,  5.257127529698788
 4.838179952759850,  8.657109576161760, 72.345108339491162,  4.998728855262097
 8.961039841760195,  8.094513106212911, 79.310442615081712,  5.074313479583807
16.768419286079794, 13.481271642652802, 26.898311662804538,  4.535779703620342
13.613065076566736, 15.603977456324730,  3.737054156579381,  5.086069881710041
10.383593241478582,  0.042506025614013, 28.232845503652204,  5.181089380158831
 9.164617855555926,  0.327519652869457,  3.906238619898851,  5.295490810760926
15.368738361261967, 15.014080964948645, 91.802259996565027,  4.726860420599352
 4.799686475990364,  3.273559100295462, 73.433316765801422,  5.173373331557114
 0.572875831012161, 16.462991490174790, 61.984813871744720,  5.256820320771246
10.337830845933295, 14.208909155588971,  7.504701975463735,  5.152123356492780
 2.373439784808348, 12.566003662580819, 76.925425290929070,  5.463693452533233
14.716036720011401,  4.827846584725522, 74.378962919371844,  5.319898121674418
14.632759966157286, 11.338958019908539, 70.360290989670929,  5.362398727329752
11.272611229669421,  4.616215035044116, 66.088311065396425,  5.247741739445872
 2.149587533193747, 12.115408658049766, 24.169742026152349,  5.054266219968818
 6.533041614474745, 12.785872996677584, 67.522943799988184,  5.122213743232621
 1.191020211287746, 13.386935090244197,  6.497940598744361,  4.528290198951686
 0.771750141326584,  8.267566170080196, 46.117991214486068,  4.715097837857031
10.141070936622986,  3.807313063921169, 104.567389709133209,  5.123434872804974
 3.431584841189157, 12.873759176332385, 110.908431225018830,  4.752654261979057
 7.569460359115599, 11.135634435118771, 16.005414012106236,  5.035524143592163
 2.506193748487938, 11.067657758031269, 101.030374075729469,  4.686149087343597
 0.510842455997931,  5.503412566091720, 11.500453897893307,  4.302644029260838
 0.192576574738654, 15.450835831187224,  2.145576783563881,  5.251694835563469
 9.453849896224250, 11.402148723341003, 59.448310515889034,  5.082842579715745
14.488894893029761,  2.744562475668832, 113.882577643927647,  5.090395845012700
 5.746392955156884,  9.714079915062227, 26.868667419854123,  5.140336670959673
12.920296063420578, 14.454249235768597, 29.735797009037004,  5.203929330243228
14.100533119786180, 15.495483462091894, 99.879443247020802,  4.584138516597062
 5.731225967355178, 17.944927867619594, 95.123715671775159,  4.825266818088815
 3.796081227144557, 18.390906523558868, 84.272872161944775,  4.845806388015691
 1.226083394412057,  8.645625332135658, 110.298630757910885,  4.862470769222170
16.855121993161816,  1.720950632107252, 21.929686590715111,  5.165022331446377
 3.755423255790795, 17.999882425850686, 70.379181599437814,  5.064031324027916
16.657289615654090, 17.423526929660685, 17.893209646550947,  4.875629037674300
10.750958350031135,  6.400801242953312, 113.180734136736419,  5.346158230212671
10.745402444358994,  3.830155966526932, 94.884165867483873,  5.060803206648814
16.474382991638326,  4.620644630538350, 106.040246643032972,  5.028651808308854
 7.502041205761685,  3.388900656079112, 77.848259220092515,  5.175389223832938
 3.813777415840510,  7.161174063808069, 98.379363121383932,  5.089362562672756
13.495634902750773,  0.845553233189046, 37.443786721495513,  4.891176224501393
11.558651515749839,  4.311082656683570,  0.712009546662966,  4.736882640013442
 2.949297736503261,  3.690471433233903,  8.050132191770180,  4.856605067212565
18.645841041390039,  2.359320651643241, 71.859833539867495,  5.193716015353477
10.668542947434567,  7.063091779378083, 24.527014769478825,  4.781114096875974
13.899194531591890,  2.332596722673751, 69.916655932146526,  5.025173197348152
15.888719009040175,  7.825915127326643, 36.419571615311717,  5.203280523967652
 0.848188143635860, 16.743139447514402, 25.135853513599454,  4.751129809589597
 9.005742411840538, 11.042697466810738, 11.275710707583690,  4.841909129332310
 5.914159413476951,  6.344824181537708, 17.263849023142797,  5.259488326775236
 2.356140066513514,  0.883425951364548, 65.758968350487066,  5.079429118836294
 1.994129275162752, 13.159760608560351, 105.892115877780782,  5.332752372466811
 2.645129628476831, 11.251439136004734, 15.633497795638741,  4.769535917879476
 0.928072471271282, 10.614074715608556, 37.954371777979283,  4.639973268018134
11.204457795037230, 10.842140180051596, 54.642527845439083,  5.089161535775699
 8.954635721640141,  6.514153426077161, 74.186048725377759,  4.848784038352289
12.490164242190634,  7.105449666273615, 57.689636957747787,  4.889497435608101
 3.611882677151021, 17.273883553600236, 108.685700745042638,  5.102907725245450
 9.507096733874745, 11.400992320577497, 71.462974727901923,  5.120387220443095
 4.113160813515504, 15.188559359717136, 51.189869319570690,  5.164038648475815
 6.235222104167803,  3.184213593983661, 57.377250626092632,  4.616514111670426
 8.203132350161626,  4.849370439760198, 36.427644129992380,  4.856717816439588
 0.248082819012707,  8.878740063159684,  8.131442292854958,  5.241754569258605
16.858288643744803,  4.094954763455755, 26.343484662087043,  4.845294036588955
 4.425864010869423, 18.125017182965468, 43.303558147406370,  5.413179025412052
12.628645645740971,  4.537607064607680, 34.254788744979045,  5.013462253958385
 7.254846516881990, 13.573546077132089, 55.564219576157491,  4.678817466456891
12.352022454919261, 18.589946075637581, 32.802195169133441,  4.762406412363267
 5.223751703466536, 18.363739745772946, 28.144822390473475,  5.136743051928732
 5.389796909854978,  7.037096869045259, 112.832865519123345,  5.391275463902925
11.116311032365223,  2.190261223252116, 57.113516678705622,  5.359799345180710
 2.936029449797041, 11.310990324777396, 54.512480045090030,  5.294973148972365
14.086543128804941,  0.379019423595267, 83.071301984717181,  5.035068848312433
 5.202994908940161, 14.315071014586872, 62.831467068900864,  5.086600153404128
