BANDS
8 8
NANOPARTICLES
cell(1), 18.752
cell(2), 18.752
cell(3), 117.203
 1.317757922755780, 11.984963756396997,  7.234399045672316,  4.506014510297112
 1.288492032805534, 13.785797738984995, 83.436687056588937,  4.810687101918297
12.481310482282469,  0.242899316375557, 66.742599765701229,  4.922607438872880
 3.468163392714723, 16.238522963672782, 103.691911418596888,  4.983384197928434
14.183954190394038,  6.258143397052657,  7.207700919143322,  4.867044637589465
10.239937507012504, 13.514615008007489, 54.507008419373705,  5.123758595700244
 4.858558632795740, 18.684401734995966, 11.894555664413238,  4.968759312088166
16.856756889007393,  6.612790080009180, 79.785727759966477,  4.623253831163906
13.437443740742518, 12.112706607661133, 26.350370059928093,  4.706018705170661
11.866603394222780, 10.174262395331320,  9.141910958757528,  4.776790732636675
 8.036435238695146,  7.446450792945930, 94.714604014974768,  4.831438321446979
 4.892598558688414, 13.884743125754515, 45.521263936224400,  4.601740378572081
 5.911728316108859, 11.980916950454183, 94.714302071006699,  5.154117917809923
 6.361964353595494, 12.549367866199230, 32.530199810376445,  4.956702575793084
 2.333031237942206,  1.512142541419643, 90.102871393990029,  5.413555244390202
12.251421392560847,  4.788674429341665, 97.335310372260096,  5.369503251487061
 7.358623724977386, 12.284388835925006, 58.514212816115034,  5.047405691879068
17.343094316051406,  3.373530923302422, 93.324416693475712,  5.007480241859727
 8.231952750816545, 13.303018155111657, 66.969453984486023,  5.267030971569106
 8.501879033691811,  4.271811651911095, 35.877381616174567,  5.101759878045916
 3.640527139180785,  7.799490837956808, 111.367669058571380,  5.171216097897483
 2.091711125633950, 10.736733357498748, 71.441739471583873,  4.818686605461685
17.506818996418666,  2.442285422401021,  0.218113041165982,  4.880680474972631
 6.857449991171997,  7.437273064803143, 71.666774856742492,  4.975075633340553
12.117228340836666,  7.155494055989968, 103.992208818241352,  4.223132251155420
 1.876845742378156,  5.384683301798304, 107.052577946736164,  5.324805208937608
 6.853195006584358,  8.023193413231317, 19.622674571764822,  5.242353957104709
16.652768489906471,  8.711446301658254, 105.048433638250657,  5.555618677545661
 6.525219436746550,  4.068369020059401, 52.425143092232219,  5.290542091731639
10.393460521731873, 13.438110249036781,  2.241469649037614,  4.872701556592156
17.063800555801055, 10.917654554592549, 23.410146337467868,  4.930938036485753
13.967196558649993,  7.942958744574000, 76.159726644935148,  4.954575446738384
 0.811253430171734,  2.781609840028827,  8.346027678733636,  4.834452856552067
 1.035625861456434,  6.974305935864569, 44.517137307823525,  4.854654047376070
13.057410973899115, 16.539724150531470, 110.618646830035559,  5.063808070840625
 4.274643303605623, 15.933926669431207, 87.031745937704216,  5.450621493977811
16.291365018775718,  2.655326386196589,  4.855309001494968,  4.714429385670383
15.237692802106775,  3.057391345329431, 10.895382609970333,  5.104009524126390
 8.738188155839554, 11.281142185257304,  5.992084949513160,  4.373590013892228
 8.657200649683123,  9.046737819916714, 37.923296870752750,  5.262441358977132
10.614942451892727,  2.875928190853698, 102.312044648088786,  5.364274621424294
14.312650588825818, 17.357265008413002, 36.085819818944088,  4.737233446114196
 1.124258017422723,  7.630407493918058, 29.516750024229427,  4.776586088464255
17.071205782702815,  3.127958480883680, 68.738644803424677,  4.820553072857232
18.248939304265463,  5.395484677866675, 59.981549504255007,  5.407465721820803
13.673839062052018,  9.365646545382267, 67.257822014531826,  4.820401437920339
15.838542206027940, 15.844671589710542, 58.206893200085446,  4.939807851772000
11.930129188305193,  9.143770606438027, 22.223999041393199,  4.863624642927790
 4.484125937801114, 18.522945913259964, 44.363787918277332,  4.992902116732244
17.055489494122874, 11.921777491607331, 74.753311997319685,  5.500272287365330
 2.162500200912580,  5.807878855976629, 70.541381359680969,  5.198012101118067
 6.969281238743486,  2.033023858621818, 40.155796194453188,  5.012055184887299
13.913892698854671, 17.910060023167137, 54.006811425955654,  5.096681014975697
11.557706517847246,  3.695275064430962, 53.728007669498943,  5.129280376348430
18.041194515881738, 12.173668450161463, 28.316112660618909,  5.299107049825032
 5.333044085788501,  3.363811662998335, 103.565697428438440,  4.947351629220067
17.324859999875358,  7.884688152138223, 110.312816266255794,  5.180373138210221
 4.447709635509548,  9.014329165025723, 98.525997202979966,  4.872562766393262
 6.149014570678467, 11.345307379800445, 114.555680278282182,  5.206573395149306
16.034262289316292, 10.040623846133757, 44.379530399639421,  4.831928223039545
 9.955818092003859, 11.321721338439191, 75.951730700395487,  5.536919616096470
 6.389234858035615,  7.810905943173035, 61.486884997588227,  5.438251218560770
 4.591832083455007,  4.268576890379435, 75.033218974185857,  5.064265952682566
 3.942292012434720, 17.974677985935127, 20.168578880622640,  4.972654636310716
10.575142309808571,  8.949107039660092, 116.009455556962195,  5.268807284842826
16.065253672850229,  1.133709618657279, 15.525822735430284,  4.622255236112459
 7.065014781711654, 15.242261959449417, 24.579609914318720,  4.950326067705036
 1.935000782338076, 13.298345597844223, 91.798202286599036,  5.028488681231269
 1.571014602270597,  6.474536800427425, 54.398506558266334,  5.114593369614398
 2.650627325409359,  9.217682868106611, 11.019357642646813,  5.189015991856865
 1.670626429965820, 11.538719011511835, 42.968487883721835,  4.854986564737337
 6.257702523819575, 12.261760753920310, 83.837378057133137,  5.054526895728696
12.817954058321558, 16.347560800431861, 28.856960189970561,  5.179009656275308
17.754360852508587,  2.103496390706080, 37.522623917345754,  5.482705635670619
12.424336559869776,  3.757559565216573,  1.813005333647139,  5.360970082398685
 7.556249509172022, 13.236938757212092, 50.075487549767665,  5.249435649559185
 6.809254869397204,  6.873245763404383, 87.054547955801311,  4.569599970629682
 3.997265558232293, 17.091407231405892, 27.857622862168693,  4.660450573409888
10.412389834692094, 15.085163316421607, 101.032688801599519,  4.687268787526746
 0.185893934388557,  7.418486793249497,  7.000367794137504,  4.901374578021522
 8.803842316046010, 15.437603546460180, 96.657108452211361,  4.660541853896891
 2.095251188332039, 14.175134035386831, 24.336841607615462,  5.223299596517566
 7.588235625910889, 13.189920096956699, 104.353811417479577,  4.790498720523042
 3.290642964194989,  9.613547868347306, 57.820904456074373,  4.783370031424394
11.032723238974128,  4.347876884484137, 23.410040284157319,  5.174600847252581
11.471573324816827,  7.192938423695230, 17.583138421166133,  4.988934478958605
 9.073098849609179,  4.802611315011458, 82.787373497091551,  5.289916371192955
17.730512987674523,  3.435782623805743, 28.369833676147564,  4.863097030138191
 3.751682941327583,  3.860255736743026, 37.011515992138740,  4.689161868223870
 5.593439146478553,  2.684173248206367, 62.388435059674173,  5.083672935607555
 9.872878467205707, 16.515783043626246, 70.788065471301337,  5.236316891050048
16.130775437720143,  0.632139738127920, 81.468456266952629,  5.009398222520206
16.246243784640757,  4.982816131205512, 41.667998536416029,  5.052072617983314
16.741502392208787, 17.077152032577558,  7.039042873413955,  5.025303422060170
 3.350364666206603,  4.926022853844427, 95.005201108065421,  5.536452446259422
10.046020710678803, 11.975715708475297, 18.509444065778887,  5.151309157074139
14.422915420218690,  2.137074088277790, 45.327379038143683,  4.886171142058100
 8.256361920693330,  1.247769548132641, 95.316065588794061,  4.912486991621624
 2.447874499667925, 14.462759797343832, 116.492004248208971,  5.213242374182764
15.092653660948370,  4.255378543577182, 73.068637984840365,  4.919931321392950
 5.133646985950386, 14.895166663248911, 54.540419446631503,  5.431934521319114
17.915472940311250,  9.092884177635803, 83.939507258397370,  5.265239448519278
 1.773762511703013, 18.443773444579787, 95.147883421131397,  5.362057674199179
 2.417487683518365, 15.826422554765621, 40.568743879329972,  5.084495395728410
 3.851938665937682,  1.211088405062703, 55.771538057662148,  4.990118143935660
 7.606770663058225,  8.947048951341177, 11.015759299400962,  4.729037119839915
 0.083701414597482, 16.446013155938125, 54.179517537690998,  5.156322814419738
 2.758653982551625,  9.426495377720718, 25.499397161493182,  4.610077592768472
 8.339853644563101,  2.954716790921263, 57.885380662191615,  5.470248585830357
 2.842257865418314, 16.403138206219683,  7.975895889645209,  4.949982876615279
 3.049774592330598,  7.201415571927966, 16.230593626271588,  5.064960065550239
 8.542118275055103, 16.260916523763228, 75.625870286795106,  4.703949315449683
15.655378698834845,  1.148400980674113, 113.410793753665800,  4.303383249540269
 8.508288645507150,  1.565666908199234, 78.789108963598693,  5.055843337503893
18.584234567532061,  5.711843470744245, 24.037517303420721,  5.066180323230080
 7.212838534682261,  9.577682475307169, 46.423296988544806,  5.099480379491969
 6.676580128073633, 18.311448236749722, 48.975498742672045,  5.221202642182838
13.603807828572197, 10.707361141474887, 30.809089803457013,  4.649545827532582
 5.098308715107908,  1.682967302136211,  6.525663355556744,  4.732218432170846
 5.110546536599436,  4.632122202238580, 46.502046355666423,  5.340995709095798
12.114953041530059,  1.516097136690745,  7.170663969943909,  5.093868882895302
 7.949295540430601, 18.068974635296140, 105.018687523990323,  5.045586727828853
 5.532701960511512, 12.554881169952944,  8.872180616937102,  4.602884293603888
11.168618261366190,  1.477524627924766, 74.470949511991293,  5.085203976479145
 2.583435041112022, 15.046854465295093, 49.779094051940177,  5.335383201785785
 7.477448131799565, 15.931124981302206, 41.299759550033791,  5.010385020473745
10.834144834244338, 12.564053120554656, 80.974229282708464,  4.949463093129135
18.430430817500316, 14.150252324275080,  3.468443828650863,  4.774606085153189
 7.756688401427855, 16.834598686688956,  8.341465839980314,  4.906150916825299
16.454436643579420,  7.950100600657684, 11.256499268493490,  5.002358693357847
 3.582754952441732,  1.136478203603445, 116.421552934301076,  5.319586806528519
 0.500192918994647, 13.561843123301648, 19.352430703218616,  5.295246993421459
12.052232718234322, 14.631678001836635,  6.839193273144057,  5.186056835733731
 4.399267663316494, 12.595334397221805, 28.253419191338676,  4.385912561530587
14.268967281484253,  4.853886694792228, 83.775704702969321,  5.287260052616182
11.733436190390892,  8.626205730862583, 71.733428268064245,  5.040464552851962
 9.001207966919097, 12.853911993379720, 110.698136348935691,  4.849553918527445
15.497907020920064, 10.900565094173205,  5.818886521907751,  5.161784976198372
11.528046264887930, 18.637511111428605, 98.421978553068612,  4.403256495793645
 9.524305593468672, 18.125640198668293, 36.645756750843894,  5.010612445879985
 5.807502906053859, 16.571609428638101, 92.352742953986592,  5.142820507200858
10.764618226305517,  4.327135116719519, 87.546000340000447,  4.802738677759152
16.830905878470038, 12.922103732052074, 88.038900153955041,  5.135407464668909
 1.978710993629702,  8.889056399669293, 20.811970712659953,  4.930813332341915
13.684290073665034, 17.706836114021051,  3.169706118041815,  4.894203365034127
 6.224825514790791, 17.368830323832228, 31.989909438546210,  4.741551593139949
10.482848805141005,  8.280885529101679, 26.876729370792141,  4.987486987369378
14.469175999111215,  8.240242584483916, 87.863249034554769,  5.312597643025524
 7.023128092669101, 18.477289994465526, 100.040058307519189,  5.105092742551605
18.622275347052202,  8.442961127827715, 90.771129226972761,  4.833809756616406
11.758718141732293, 16.295429899514520, 92.656936510975981,  5.430301127586970
 5.104879964637227,  4.734830705603942, 10.387672111942294,  5.103585729870353
 8.422522794180084,  2.573786684961862, 116.114840397452696,  4.789556627893802
 7.938732362112440, 10.803577115334406, 23.775095551354866,  4.229381673069138
15.902770266477123, 12.727527783256125, 108.547996371480778,  5.135590642907234
15.422581638231879,  9.885694210031906, 18.883382789899510,  4.913153534499960
16.909952994613121, 12.761047680900894, 48.383222543943504,  5.001803243036258
17.835055375618953, 10.208491172843544, 33.258322124978882,  5.175172032571124
 4.934392583092687, 13.113207010218654, 62.835804574463872,  4.995283695134963
 6.764212750559444,  1.504244141870249, 24.012095495060951,  5.145340702429698
13.158778309838187, 10.983366657168006, 14.339194260940417,  5.443308717598412
 0.455729684763445, 15.752173769102146, 45.169374075835478,  4.907865220776930
 6.324151622094488, 11.238271168176700, 41.876294767972482,  4.715184247676919
 7.453696420487264, 16.192049136699012, 116.271669638949561,  5.381703941512490
 7.468196937169290, 16.979503296276782, 82.543948480137203,  5.005074166331054
 5.200778143047283,  8.218210737245993,  6.692805099233397,  5.050918533828169
 6.262804391611295, 16.009167911751810, 15.822779213173325,  4.940890158760849
 1.014814743785526,  3.077046728639343, 64.309701922478396,  4.869684544661483
12.746104841939971,  6.050111011680617, 31.119032502263277,  4.840285254254280
18.171093352157246, 14.115178806217374, 62.695522483968261,  5.274718981672953
11.027897240028802, 13.597973175614449, 22.841492827850843,  4.303798749232904
 0.728315929906239,  4.096899996153992, 83.282455983072751,  5.287635071868156
16.508740992393939, 16.441446906772189, 116.531407987246851,  4.969433884275173
 4.844629510654654,  4.635683464579033, 80.039075472247831,  4.796821851901233
16.075609141462373, 14.842928502921190, 32.382929118859373,  4.881115841521885
 0.859989483913366, 11.687505067016392, 38.210088063957109,  4.731060672707281
 8.373647680662772,  4.236771599484161, 107.396752354960540,  4.750669556824440
16.546762034089287,  2.567929605044271, 99.594134786362602,  5.055216423182892
 1.375920666981503,  0.603155491179818, 24.345556961325258,  5.199008434889563
16.676813927528599,  7.059711656939380,  2.366244863564919,  5.430525119966886
 9.152564701575153,  8.636337074970363, 67.776511005989519,  4.368053025261993
 2.197891653251628,  3.200038281304097, 41.547668535397541,  4.989260036155798
13.903058991373028,  9.125339012280206, 40.043547948942376,  4.996755394457769
14.175294522057442, 17.844921773886451, 102.369940071944640,  5.018830583963408
 0.222925500113808, 13.707491884338403, 96.508559755018311,  4.957660280874740
14.551147944922718, 18.479547927949181, 71.188804945211501,  4.940092714796376
10.424528475973624, 14.366443342019430, 85.531950416931153,  4.867529133452311
 4.048101842607633,  9.960221937797092, 66.825892892979894,  5.325025184508207
13.325818014183419, 17.238653781535419, 10.907462002592611,  4.803412220284589
 4.648154272433555,  8.451612473903950, 91.432068899660749,  4.808272212783431
18.000465846020653, 17.295981407764959, 28.518621049441194,  4.933254613533131
17.701271513143311,  5.120142510402760, 33.126108228933710,  5.002431547990699
 4.545721403732372, 17.883871809614497, 36.508592873881163,  4.953222443625789
 0.606452042454598,  1.556935511840061, 103.848762537202091,  4.965692025868632
 9.845675904732950,  5.434723040506402, 64.490980325625429,  4.878332196193760
15.228965732968751, 12.884826584809561, 53.997007159247659,  4.969332517234766
 1.561130986849427,  9.493761424397690, 62.362388097118995,  4.929014864719844
13.063751376720973, 11.265679122573545, 102.220506129219388,  4.902368447796309
 1.759175251608832,  9.640746260954478, 94.800839305045514,  4.379398415167040
 5.935460282256299, 17.147243697763724, 59.517717012109316,  5.261245046824298
12.186875114671670, 18.473527785611182, 115.898999578804322,  4.659191526909082
 9.319065463817525, 13.478562103693461, 11.755967179097695,  5.069241058162350
10.345232032856119,  9.409471836646695, 84.880084707005139,  5.128226126383896
 2.295404963171941,  5.874834239789067, 87.629927860633913,  4.613085612546745
 5.225281608501647,  2.338283727011202, 85.595572230705670,  5.416287817126485
15.209794618881379,  0.945018365685926, 31.883288962040062,  5.031440337884917
15.320567469383638, 12.773221377002900, 36.577427806324089,  4.594036885408251
13.847822788463416, 16.892121728851553, 88.028809372626156,  4.791483432137582
 5.466759494607931, 12.882206782871387, 20.491679943016671,  4.977199381317771
17.809852430084828,  7.291831583292996, 37.554034376805063,  4.854177256366492
 4.207503324259085, 16.860928733126347, 112.424184656097879,  4.774657771148696
17.703370180008761, 18.489959175081729, 19.876285693700684,  5.079899525286210
15.407449098810211,  2.000107190995748, 23.591910165614784,  4.743876362249062
 0.901936156808633,  3.988802234059575, 13.071293285661996,  4.916777780201246
15.028735393514431,  3.742949175268075, 104.787233080931955,  4.884038577784882
11.407345421048767, 10.724944764350354, 106.903586497898331,  5.082405268279798
 2.963843445446357, 14.037130325095049, 12.661931251346651,  4.997095385210089
18.663532850444625, 16.859946801499390, 100.303467192479502,  4.915542073239531
15.612094038887816, 11.360289016215798, 79.852448983225244,  5.155023625339519
 7.748992618061195,  5.282199717356499,  3.427845216207901,  4.983395699988549
 5.540867947271358,  5.041692784289860, 66.832867334186972,  4.951210817221726
 8.431887024983416, 18.180686059897440, 28.019016061123779,  4.474982254704795
 2.124981608983803, 14.825432383940898, 31.604410184757462,  4.838695777523724
 8.795362605728485,  8.278164773238146, 32.894815850393037,  4.899268869075903
12.527668316779145, 14.387327486632723, 50.105027170665274,  4.949285249340745
 8.913687301791168, 18.215219394604617, 53.485566166297190,  4.846298163940925
14.769051262902220,  5.860571323092400, 114.568181861610924,  5.536244453250025
 4.596736499018633,  9.664439728802321, 75.703142415726504,  5.292425082186929
 8.758388804832119,  7.274196098830942, 111.441173505761540,  5.118677360088894
 7.488078768489957,  8.137549511792333, 102.880288551897976,  5.492327575409188
 8.389692564635073,  2.776191707329459, 70.359185099950054,  5.170009719370062
 4.487764118849122, 14.092730080643635, 99.207296251627341,  5.160038834764659
 4.816419278856347, 14.499020399455443, 108.180115420157648,  5.008547709898285
18.245643874540576, 16.664325026452737, 111.466262497905831,  4.853207101996637
 2.733986991558779,  4.845417346564460,  3.562613377108106,  5.078008196102561
 3.575988172216256, 14.781359534158115, 68.625361868377837,  5.000776647291623
15.041057106231124, 11.789663651426180,  0.804831580690575,  5.052071252112504
14.210401326716900,  7.490017670889284, 93.122164821781041,  5.320411761448979
12.004874272017647, 15.468663905727517, 105.981814177079457,  4.654384197912006
 2.661837985330743, 18.259419513917098, 81.929270348242696,  5.017610575452916
 0.605959003360530,  2.784867693074568, 78.306450360653983,  4.987422266752374
 2.968697718959347, 17.405818075157029, 64.156258827766550,  4.806299562638874
 5.106533350991546,  4.105906036774264, 31.901810303704686,  5.352218078332282
 2.437094103154933, 10.423769256379801, 47.633998914294430,  4.856384194094480
11.848898868291258,  1.161406850920833, 107.070043902076208,  4.491813877857430
16.324449940220934, 14.054618837476296, 41.261218553372167,  5.316493166005915
18.582015683936032,  4.105162066743356, 18.028068125026046,  4.563143375869616
 6.725308656638301, 12.487614281899946, 71.871736408438352,  5.118854058281064
13.745183170581297,  9.761405812651704, 97.640542759138256,  4.830743641751885
 3.995204212168680,  5.153547728280390, 58.202004009004192,  4.271880772193009
12.947486602156458,  2.534046234014906, 27.726339409207586,  4.935779891513823
16.378590523448221, 12.773071845262990, 113.436732801709198,  4.620127193439296
 1.350816034004871,  6.135429377106376, 49.493637101772336,  4.726139899915135
17.770400601643594,  2.363140818798870, 55.744302001945272,  4.917257404190697
17.195151375655147, 10.900114917653664, 58.306046602844603,  5.294444301683290
13.426243226313408,  3.904244976840612, 35.387067981463822,  4.810024579171250
12.744311904443693,  6.179026308112234, 108.388338513674015,  4.841728156039211
 5.048784601639802,  6.424395326758740, 116.305699994130961,  5.454720304630700
13.745846873183988,  2.666636213432344, 58.864149591687166,  5.266701674395420
12.276570629534254,  6.934843174049820, 44.181414932674279,  4.914610575066825
15.508462414506599,  3.131229397525964, 88.568626480657855,  5.191254526903013
11.632870260527886,  2.752394520152286, 15.388080123383409,  4.817118793600887
 5.931112602583202,  8.227031948626836, 28.879833095203836,  4.953805421733189
 7.615720562216178,  5.570748684352863, 14.743615319266411,  5.073689549528490
14.223391289649427, 14.649383160395452, 19.580698586164491,  4.996405390331017
11.365206983657718, 18.054102773967657, 24.250592751236130,  5.064676611941876
 7.631370383857949,  6.536315972617250, 42.353816084065983,  5.087106867085882
16.666288135555995, 17.615283269091766, 49.694419205161751,  5.064633058220375
 8.949666867234196, 18.358945908000873, 88.471014271309272,  5.462940737162810
 0.730941122289398,  3.913118444238639, 113.051693940576243,  5.104529151137480
 2.204838266574429,  1.442064572147269, 50.932809039320311,  5.237861160556946
 5.613251784870593, 14.581004867120537,  3.941554905029790,  5.467180436411052
12.339276306109467, 12.349979413641721, 59.271647937161624,  5.022898170748380
 2.240110042202330,  9.967857191894549,  2.987567023334080,  5.044005535229889
 2.786673391091707, 10.791081232350862, 87.371358981470607,  5.276419584829022
12.834008111587917,  0.812033196161703, 19.687103296336300,  4.899165607378086
12.724796989298925, 10.052835422904197, 47.880384048221522,  4.798691374565993
 9.426871742517339,  5.624418152134842,  8.056814821925032,  4.876548837030059
15.448070337136722,  7.803618061403189, 27.387434599712680,  5.018116769904190
17.857359207903993, 10.569188087657942, 100.225188209586022,  5.009228056057118
14.643175538207338, 14.415100260719168, 98.792111161833262,  4.919452546762536
15.048424155683998, 18.113717877887876, 62.488528684589461,  4.879007490461952
16.534863878571866,  8.812803596678133, 51.412204781373880,  4.978959552724672
14.801495222256982,  4.254451157059044, 63.970971285532372,  5.357722997467527
17.338025033035454, 16.950473459256237, 91.397293077689326,  4.908960277536111
18.442147326261530, 10.844858532448397, 14.950747401057651,  5.172677290688139
 9.117213143487703, 12.842247421785054, 28.407399936653718,  4.973182833558607
17.774491287882075, 13.770665757048704, 104.010438243207304,  4.893266454454177
11.803645705157910, 13.787288852600067, 114.676822692900799,  5.055936972678384
15.900203582635349,  6.264712549538922, 47.318511019375883,  4.737721855980833
18.274035008867966,  7.340563424193063, 66.400280316041020,  5.078764953630942
10.879803644431520, 11.366294591393538, 94.016147870643891,  4.943136297693697
 1.344795493792745,  0.723386505506687, 33.029699707543479,  5.012255916458883
 1.857124198626568, 14.539104870354915, 58.375896036990845,  4.681945376546777
15.319220141232504,  5.636747769778665, 15.263960251347317,  4.519711201976609
 6.516884175918031,  9.836403910845128, 107.726434283010718,  4.957943592763564
 8.755080684492453,  0.240616839781411,  3.419670599144595,  5.285862111117346
16.399304931182016, 17.614940891450420, 106.923021188595968,  5.124887048804453
 5.681432546718779, 13.772450086460095, 78.907209262946310,  5.321796842380372
 9.035181296997655, 10.987458514324009, 98.679075905210667,  5.108581436330449
10.354064733380753,  1.028743896622116, 62.341883682195181,  4.978519694008723
 5.407047388723181, 18.121441169431726, 72.522588520401129,  4.864260147788507
10.973775113290900, 11.479715182513607, 43.645626292691617,  4.601160556455648
11.258544654902710,  2.604442105806412, 111.814413955121722,  5.493945230212613
11.812246190595383,  0.670542579329732, 49.458719155135547,  5.304244451671183
11.569866285909397,  4.595729482052923, 39.872599310731125,  4.991825652882121
12.567129693873360,  4.846173853084507, 68.547664172206183,  4.828222617986843
 3.598071576833446,  4.162395299764342, 21.019749231978015,  5.059498283972601
 5.042579566217319,  8.976973821270299, 51.604273158411786,  5.071070393571159
 9.998167647193450,  8.201433350194201, 90.343107737414059,  4.863852093014072
11.396673066466645,  7.315691287434590, 59.385977675164199,  5.201170396354477
 0.129602343563477,  6.876263047102890, 75.246271529248432,  5.267322670134432
 9.386976144303711, 15.384522533256863, 45.855674869352256,  4.894042650912087
10.961758189495663, 17.095713518391491, 58.105227150824284,  5.126390460080865
 1.255116993595930, 11.506234650469970, 53.775499144515983,  4.976835264326112
 0.101771657446606, 15.935121684404686, 36.195380077924099,  4.768495177384425
17.651190033347056, 18.673262348154509, 41.934926172359582,  4.343636957748322
 7.430635509105176,  8.972506541367402, 80.021842501937002,  5.125734558531715
 8.794192407006712, 16.671513367147867, 20.094010257457189,  5.071549918083675
13.548691562471488, 14.131299961745698, 65.365085103407935,  5.390441732906633
 1.647825301078442, 17.065416450206008, 16.141604728250790,  4.464302742592562
11.826165264042610,  6.462227488604043, 12.227585071501004,  4.874921157856635
12.713464103562535, 18.229425645755843, 40.995531788250211,  5.734950735913071
 4.221437633711702, 18.360189770992257, 77.236596780376829,  4.867455462671939
16.469849198989895, 13.161618949250757, 10.553517466205403,  5.509831756556237
 0.536755176993954,  2.239295137101835, 46.161002150675557,  4.986871202579357
 4.175647762127459,  2.239430568354901, 16.284115237918140,  4.874118649517637
 3.294626307636360,  7.865522237236504, 40.094458693310834,  5.021376462304037
 9.306190242722064,  1.697513724510258, 44.822248974316842,  5.433064514485066
15.631694109482362, 12.504868455113273, 92.970722686858750,  5.045189799075826
 1.710035000358438,  6.539444766199562, 101.935092998083476,  5.170245635426316
 2.762262327022221,  2.281198461924130, 99.464971449004139,  4.897670945940392
 3.215991323116843, 11.233906784128274, 103.233596236691284,  5.025699629627415
15.396521108618643, 18.264365878163723, 95.796506999305919,  4.949978506609304
12.023379083129816,  2.806441918956276, 92.373196027072495,  5.123806330581417
10.188961097991177,  1.518675832256400, 31.942106748835918,  5.074490120418717
 3.915770602726761,  8.524361167320999, 34.880748257118896,  5.561451373591345
13.897854611710345, 13.162671895955578, 70.585637944425784,  5.246642072314251
16.627562231140288,  8.401761113327659, 70.975660734997589,  4.860747158785393
13.130429227929092,  8.777821323450794, 35.158035017500119,  4.910357647929494
 3.596256294861733,  4.296265725671817, 26.996424037634174,  4.916844179830824
 6.997081582140598, 10.093287471931003,  2.023914260158227,  4.611386358933592
 7.553826976909784,  7.853991642656982, 55.936643057633439,  5.180599784673091
 9.963362612774022,  5.633095309135676, 48.615813969018937,  5.417671024473955
12.176602870078961, 12.373024232030195, 89.497666205575626,  4.670628862489470
14.878085977264817,  5.423296330988038, 20.447181716199271,  4.577460756908598
16.288272658321425,  3.131046455262131, 109.395505203335276,  4.710427354336195
 7.124874136178216,  4.713889577388805, 98.803434554590808,  5.169555555935333
 2.092376911881880, 12.565346077189202, 111.824643621652626,  4.870742372572725
17.488076976938650, 17.308840671138885, 66.784258201515726,  5.122326634361902
18.563596575792765, 17.955240214496715, 11.750940571945627,  5.217914361253225
 0.993330028642834,  1.286928650108131, 73.338951907776632,  4.840506567535411
 7.239544336903226, 12.350477517851019, 89.675284394835941,  5.187381735564115
 5.749657097555116,  2.938072222014687, 111.753492446413375,  5.441574751697334
 8.259428916929304, 17.585188782654818, 109.933187192523661,  4.846053758432599
13.161395203879934, 15.284055029236059, 75.082433661967585,  4.800504332806301
 1.816035284657290, 10.555557976644970, 79.867803027609170,  4.866371210264925
 0.512380748463875,  9.195031709642389, 115.352757977476912,  5.336283062298499
13.147797725303738,  3.629496074070733, 78.693775942545471,  5.099670382810836
11.201911966213448, 13.934174945063615, 33.911173659598404,  5.482862117554594
 7.053482098209001,  3.963529308934240, 91.098706451320425,  5.395156068145451
15.974616311201762,  3.539678877913995, 51.310363555058352,  4.925158361554344
12.161319670487917,  7.989655819310280, 80.585553107971734,  4.600993022432764
14.286215533801714, 15.956921590084018, 45.588038086604655,  4.977963023146462
 2.922169429661555, 14.403639807844582, 74.595992674283650,  4.990740499955366
18.276011643790152, 18.229918932397062, 86.021097330544535,  5.293711639926051
15.930006631463691, 15.782003062151418, 24.201372535302774,  5.106840023699810
14.959772930339957,  6.774874006837810, 100.857341244393965,  4.272285729418720
 4.017859428485870,  7.901594899235729, 83.445801775028215,  4.775079504371004
 9.490155895667993, 14.942434118856738, 62.352957259022709,  4.842369495849628
16.303222719405170, 15.262386088625066, 15.215139537324227,  4.652813226473966
17.567388838477104,  6.743390984721153, 97.001873031779382,  4.977581284658945
11.567807053710361,  8.419792888143114,  3.734982749500508,  4.839328778967252
 1.446863391129160, 18.708768108162992,  3.779349860075195,  5.021782785504399
 2.593086036533353,  0.379962475359701, 108.349670273641209,  5.094740459441559
11.804086985807681,  0.297850632131655, 84.081442404072277,  5.082882722976254
 7.402726163079703, 18.443765334382434, 66.288481398342498,  5.221573954189208
12.938559946212036, 10.029309143698514, 111.607106450369201,  4.899513072047878
15.177762110689372,  6.714362000894433, 55.854218326568684,  5.212926264573599
17.985511108253359, 12.289724775691861, 67.534434460439471,  5.057116171335853
15.775167191453194,  0.462828596807004, 75.982538618702577,  4.734998477912208
 6.799102180260927,  6.584038718135896, 24.339272718990014,  4.571561078698196
18.302108768699902, 15.436003878492119, 71.262469212696431,  4.712031011885398
11.261566467140737, 13.345307548835986, 39.167186250434852,  5.089264223083202
11.535072377110122,  8.808463769893201, 52.649322164370894,  5.319414125300394
10.577436771066944, 10.252204234528827, 63.512570397937068,  5.057359443500137
12.212657580828388, 17.066303224005829, 79.498005239713279,  4.903041992360682
18.365676007640289, 15.643692501443077, 78.497249110761956,  5.343720700280916
 8.271666038567208,  2.985061773300299, 19.175708583230708,  5.257439753907556
 6.217268266646222, 11.033514448535083, 15.234605760349199,  5.070382685803475
 9.326917371629900,  5.885371432652104, 76.183920484303414,  5.023817004951098
15.402405221902843,  9.179597485434611, 62.735441860070416,  4.862839544481107
11.414207053308351, 16.397460819292661, 15.564405482252438,  5.401023812933301
 9.307003625319899,  1.940783364174657, 11.231941182518495,  4.806890460044341
 8.347433480383808,  4.048141087291568, 28.013235756956806,  4.762731022984582
15.038791215412537, 14.880659180044354, 83.599967967245334,  5.189458809484290
 5.494744510847488, 13.087660736843576, 37.467166534441638,  4.971146922725437
 1.823674011707562, 10.366538883628751, 107.705873878299869,  4.475784595632591
 0.647160556191440,  0.246397476955443, 60.032256799768625,  5.130619404133162
 2.881158526714402,  1.073964097813388, 68.527808638494477,  5.184553493180864
