BANDS
8 8
NANOPARTICLES
cell(1), 18.738
cell(2), 18.738
cell(3), 117.111
12.456565079153053, 18.587617744697631, 18.641395472402589,  5.427632677873530
11.641968694038576,  2.782718772348350, 67.630668186610180,  5.078215162935004
11.021966956128237, 15.882457228239725, 88.579141333020075,  5.067308379666629
15.436446243798274,  3.229414660906049, 81.984960351934433,  4.773123435662501
 0.939868518717728,  8.517438338760535, 95.120878175761860,  4.939217912577299
 8.991160955452186, 16.476576416308859, 38.053997966730194,  4.871215557260326
 5.089461813840579,  6.351282084502713, 109.030605600126549,  5.174738200938366
 0.398711255412257,  2.974327018018430, 73.748997155821627,  5.069682211787131
 7.313552315982318,  9.668385553110419, 112.372520129025901,  5.229300526669391
 6.102660629809166, 16.957076574812131, 61.953779005383694,  5.043264437667723
 9.270837646401967,  5.031500761348243, 76.558850831200616,  5.140025437714835
 0.452000657053232, 12.436108786233172, 102.968896539380097,  4.820426501999957
13.409669982678734, 13.802780488910328, 24.885832670842984,  5.076033420895071
11.218696432200442, 10.800939692289525, 57.261033492541458,  5.365129252233666
15.508789219390065, 14.845125559522739, 10.954165870175650,  5.319468700157665
 3.524038169508601,  3.970121829048747, 31.608642737505335,  5.102172530473694
13.143936783938665,  0.158745600256243, 13.371138694031218,  5.218410430473475
17.488037181262882,  1.590535644724161,  0.261760903507767,  4.829247623852162
18.136593826501052,  2.382790293750616, 102.781569488777478,  4.640490767583952
 7.224856728813783,  7.824292907866133, 47.591219982456536,  4.639576298449354
 1.690729543198334, 12.845567611682265, 40.398854757337652,  4.670586438606470
 3.311868992053600, 15.051905566222500, 16.866610142380051,  5.085817617034182
11.098381555923662, 15.094961577224622, 74.649517433230969,  5.024704536203784
10.368199103755511,  0.850785371728168, 42.396201001758264,  5.315790071457237
 4.413933380838485,  8.034520298586379, 60.230651059661895,  4.857562069753981
 7.809664721135469,  7.961957991831457, 80.112614419376428,  4.515740931872183
 0.098986638200041,  5.374286381448478, 109.458486847563023,  5.022566938576588
17.149186503777518,  9.134036397939315, 99.607781910691273,  4.974666414918588
 8.092764070633498, 14.120809577159738, 54.497780505275465,  5.296268949124713
 5.900077024102502,  6.934046538617590,  9.060446201101461,  4.691136741277428
 5.661660226682504,  6.552985132970823, 103.831754614433308,  4.951343495806776
11.587209778390351,  2.126994076871828, 72.823361927539835,  5.390198130197427
 5.771168622679291,  0.623456130530853, 28.644661055353847,  4.894256427756347
 5.664769609118637, 12.360224411082109, 64.315210930260733,  5.199394526962499
10.793150615079266, 13.574870846463746, 111.945890879475883,  5.257473609418080
 2.216128189708321, 12.582038065120125, 72.359381522514852,  4.990935790167002
 1.921608298864145, 11.916478727423579, 67.561266891879370,  4.614981695271698
17.297639885005626,  5.028929383412398, 39.796721596355574,  5.034982142963520
 0.568921346860357,  2.278556756974507, 13.433410806340637,  4.990469586448764
11.023874968183048,  4.820456271884206, 45.737167016275379,  5.134014125130087
 3.140920563245935,  5.096137485681780, 41.827458396384941,  4.928038474661525
 8.492698767683272, 10.833627166909315, 50.830913326027854,  4.559865539657453
12.711824568226508,  9.575104650060036,  3.068131723610542,  5.270421593279007
16.085237039387106, 17.921472738034684, 23.637606845704354,  5.051720001843067
 9.926003705630540, 17.866004593784350, 99.214883626414561,  5.015073118348217
16.878905543215815,  6.287907890613077, 50.421709505593050,  4.749519501646266
 4.109456204486520,  2.619352875509186, 112.570745255549951,  5.241720126024956
 0.257098411949109, 17.225695755905125, 19.843843397329071,  4.482764486733343
14.491765309605666,  8.040818900314658, 60.413315914837234,  5.249220671329884
 5.288248655510833, 12.672427514786493, 82.284363759029574,  4.910893667286824
10.022527003157233, 11.820775064165035, 70.932134663428968,  5.102881060685248
15.779461709065469,  7.158744539955054, 112.890427261852665,  4.828527372179574
 3.639250590659979,  9.094050921304179, 85.316446027441486,  5.014783098424748
13.232153856102187, 11.379957378427930, 52.353934410700674,  5.293714641047029
12.977038544044728, 12.564679918815131, 35.610963971922544,  4.671317257750119
 5.925892229047095, 11.047325317867795, 19.577328570973521,  4.979384159913066
 7.263546504262778, 12.115810202606413, 86.935261303453075,  4.960112683508872
12.690021354014199, 16.544845122752932, 70.055276547381126,  5.100818771034155
17.142241592223606,  5.458551590969217, 25.530992359965257,  5.172562424036739
 9.438503714647149, 10.279641790521312, 75.965595394763099,  5.423370135630307
16.376090513287849, 12.814574113486650, 96.259269841992946,  4.887043589801459
 7.068079258568957,  5.182492896932696, 63.074272094298955,  4.770633760801005
 6.630141699036117, 18.251220324238147, 51.663839217127084,  5.139058252393286
17.191495752011335, 15.593812170647524, 38.215055113520627,  4.877146008805012
 9.589298393498339, 15.067931223692854, 44.075894826397722,  4.447227487867152
10.352675538955271, 13.985783082080745, 19.295871925764320,  4.774229397007001
12.881574895812415, 17.320955064171184, 64.955668486612069,  5.182689243106739
 2.942342421654703,  5.945015915083390, 70.427274404185354,  4.844346057952410
 1.768260268812917, 13.379778005085603, 93.150612345031206,  5.507014867947289
10.584273019094567, 16.813326742818553,  9.509353598353886,  4.922381832840935
 4.943651561627020, 16.961807602945555, 43.254313529718964,  5.706268576706311
14.506335180020058,  0.948296751165710, 88.960654293857374,  5.266181878174805
10.150003484377885,  9.346379731960688, 38.135311202041478,  5.263930515329382
 8.086965952266864,  6.876263573495938, 98.368557236259733,  5.057810346951833
 0.510305717165448, 15.153102815711287, 112.547172390437197,  5.157887714277844
13.315384782834839, 17.762279519403201, 36.216622183549795,  4.859848478435524
 0.361366901791926,  8.720712080574014, 75.323422412508336,  5.142756980433752
16.016292796291307,  5.825031185729363, 45.503088613791419,  5.051375678591285
14.923117574106634,  0.827089443475987, 40.329254493895355,  4.672108988490400
 3.852508815143801,  8.955634183285451, 33.311281107935834,  5.449739811371215
15.190624779737131,  7.037943193294019, 54.984218251945826,  5.064836240774065
 0.220437817466173, 14.175886338851758, 83.221937459139923,  5.121812847619286
 7.000265540569324,  4.691466080443654, 67.919912712656384,  4.970811030198800
 8.874815184425465,  1.549582943766047, 116.647952889174945,  5.000571631458383
 0.662541555806181, 17.912868993371013,  9.495467050809546,  5.010524440149645
12.616142718204259, 10.927811766763130, 98.768945086301628,  4.905354993075375
 4.361872982433781, 16.791470231846230, 57.187203656429901,  5.110319809626601
13.967312170835820,  6.874415016614776, 90.510622651721292,  4.680247155764910
 1.777981707747270,  8.969912630817122, 24.010355321926042,  5.025547709622205
 9.640425008532043,  5.684265356902018, 106.754055524330553,  5.058701260113979
 3.611281334486105,  8.682888348929131,  1.743071456026786,  4.682645333177189
15.280530067024792, 16.181594054001053, 104.504158017184764,  5.064737199217926
 5.961871210497578,  3.895465765874704, 54.400680118748291,  5.212074344002510
15.687794417607430,  1.050129535695058, 54.525145458353805,  5.088573007688009
 9.864893848979850, 15.367354179926862, 33.460707352423618,  4.727291188147820
10.156892888949892,  7.026686243915870, 53.581909094537671,  5.383244495463944
17.899922298002611, 10.120517803566420, 80.176503175352124,  5.228127309286424
 4.353781548228818, 14.166776077909791,  3.461279829882942,  5.436295951933716
14.366301441857136,  7.161097483852902, 36.497102382620973,  4.765975262409206
 7.506770874615251, 18.402543724490286, 66.768008291689810,  5.392352939905873
15.132130956626479, 13.077372153653712, 61.003397912785950,  4.639915297659714
 5.022656971093731, 18.314411646712127, 13.044680394199020,  5.455227535905624
 8.080643695712562, 12.917192066561267, 23.857764573053441,  5.286763456204027
 1.034455875944863, 18.730099883243870,  4.464067078467021,  5.114446813679583
 5.506248958267923,  4.903034147701335, 83.083728005981513,  5.166307716795527
13.710634409350261,  7.704379313107458, 77.134826419904229,  4.791352757660998
 4.497949709065296, 16.408375823534662, 100.139617505797901,  5.131363986436801
 7.071883867901481,  6.122542132529991, 93.053865135514840,  4.918420381817993
 7.856673021095713,  1.364666843287328, 86.006693793431879,  5.107522850771287
14.288460624446119,  3.488829141302170, 21.848333704356307,  4.940165462246979
 8.451897776869766,  3.852988315665764, 49.924955921599732,  4.880193447857381
10.419627519357725, 14.283372414324118, 103.066044867889957,  5.508123959394049
 3.375616369391941,  3.252058771473826, 49.783149068563603,  5.346840351325360
 8.589562240083124,  3.410965369942684, 25.939129629046381,  4.704133767248358
12.016424257348264,  6.436843095566132, 24.890400914734514,  4.670671486784212
 1.186736775983592, 11.734132857313668, 61.615906465221791,  5.329183336569314
 2.386198301769340, 18.159177488360601, 108.862942948424021,  5.058617152806131
16.421775732286367, 15.160810851199390, 33.275547960727216,  5.137712630309566
11.381208812813702,  3.715661578969396, 38.237595983372373,  4.984221822650142
16.227783525286380, 10.033213631983802, 32.900387274402682,  5.147500224460863
 8.425144958310833, 13.278426564455181, 92.086726488542425,  5.087772779651095
16.774172415018587,  1.378647255397378, 107.267810938282736,  4.933885779914804
 6.830158792621203,  5.559441865676536,  4.217789129381467,  5.547076983674237
16.789332796468038,  6.462780818743101, 14.925851000240774,  5.220544389299301
 4.269260021659066, 16.009239029378094, 38.261875824972364,  4.536825488651443
 1.157118558670656, 18.576980650148382, 95.097729654022899,  4.901671994413205
10.720014895214742,  9.240376063475546, 20.968195157476025,  5.309414958483935
13.026916494589116, 15.376571714125554, 55.564775224754207,  4.960749106220772
11.937236327705630,  8.804048055644079, 110.121381728139752,  5.198462084941067
13.601123289983292, 14.154879525430687, 15.620548691358126,  4.525514443968230
 4.924611016386286,  9.373424744520694, 43.633603166297270,  5.019278368432820
 3.649771551202313,  7.745537524354465, 65.659157721212139,  5.160511056192624
14.438901396875901,  0.940841929137888, 45.728689187452282,  5.200885435267056
11.822818950867044,  1.140393823467229, 106.155958222009943,  5.081686508894390
12.078719644908944,  5.132228078202047, 12.586694089303460,  5.044070191843764
 3.163158065355473,  7.447152527450347, 99.432954572519890,  4.979683597287223
13.234045103039085,  3.260873333882014, 49.967436029655545,  4.756684317627315
18.346186601085531, 13.586833202795736, 76.472298255868608,  4.943133648501338
12.986372310609296, 17.731727028734966, 30.754787332155487,  4.790376248189292
14.222938410492874, 15.397776710852069, 99.743120679816826,  4.787645501004217
12.096267546565118, 11.521460700934195, 86.598063209452519,  4.749641965102334
12.675685931677993, 10.845009011386461, 64.239031018064892,  4.622785735023733
 4.834022449335606,  9.882325892593190, 90.678056353256011,  5.019637975264016
 9.268042671226469,  4.340199118628072, 111.756370254413241,  5.295605562409873
10.872029728982463, 10.426785600881615, 16.079824318590163,  4.748158528080126
 1.452968392081211, 17.709803768092172, 90.264848616405743,  4.918371660891244
 6.627120834418009, 13.738361057332035, 73.747430670851969,  4.480808976691129
 1.713299570179457, 13.143785531810066, 35.505956730285689,  4.909517819903434
 4.964551214604002,  4.739544143150305, 13.216165499119100,  4.876530734641968
 9.475111960785044,  6.819034281592740, 71.765204066180985,  5.097294619162523
 9.196066912560912, 15.257150846386216, 116.564237802795247,  5.064629422771361
 9.659325034036469,  8.940414065982203, 89.898652158032320,  4.935905972218267
 0.240201022156356, 15.600739443777332,  0.524747818365206,  5.067747664137120
 4.630836489111588,  6.207424107821155, 21.105328247014992,  4.812161259727944
 7.158500418919902, 12.776845204900699, 40.733946689089471,  4.971203961901383
 2.742533647262503,  3.313269495651104, 105.915710942600711,  4.712319595654948
15.323002772485035, 16.291963576066461, 109.575222878958783,  4.440994750781908
 5.245510646556566,  7.447914844023445, 74.557815756065153,  5.037044696594664
 8.173923489006313,  0.107691166577391, 76.140767465800351,  4.941040780635108
 2.338815818943250, 12.247083501860416, 56.664480318414164,  4.881879275085044
18.158709059722117,  4.774930186390549, 78.294949740641556,  4.900623493428315
 6.600460581167529, 12.691002709383682, 35.821301510769786,  4.915399137091619
16.786685881843425, 17.315645052694229, 79.777164530115158,  5.159713279347635
15.146265587282663,  5.825249288874359, 72.915733208791394,  4.874555077417146
11.932590295717601, 14.865648508884791, 95.428077618910251,  5.036611815302252
13.032390956245944, 18.491438460493484,  2.102541053806219,  5.008394302770378
12.815972250266471, 12.189846532850037, 116.109629832792123,  4.398946950589225
 9.026472070070145, 15.659868654723061, 84.062429519942569,  4.817163817292095
17.231300732306668,  2.988929524567187, 29.750500976871177,  4.606565572672791
 2.965599228956713, 15.970229381782042, 79.341759841558954,  5.035888392323856
 3.300318488964303,  3.096721412939716,  1.221997384870814,  4.939972186875898
14.877059851216652,  8.367040489144625, 95.288167339364321,  4.668880455535258
 3.568989534970815, 13.167962824703341, 51.725679118229507,  5.456981426268779
10.460820355302666,  1.885049925231598, 61.974763280694859,  4.941766928157402
 6.266207982522352,  3.001797229013713, 45.421301100562964,  5.008425127926953
 4.675263453130732, 17.551302406826345, 116.125641427261328,  5.077110014806826
 4.939031586366298,  8.738483090293013, 38.539983144720196,  5.232299939317984
15.294277995261469, 10.882916745124419, 39.530568121468086,  5.014283467420673
17.768572722800016,  1.129110907921531, 35.632257020875429,  5.008397307262234
16.178608840430055, 10.947308648971172, 27.715360359300522,  4.680944161617089
18.737691533222016, 10.567757880787930,  9.388401318249105,  4.975215230690327
14.559432868576923, 11.174164524898263, 103.213138264037170,  4.790401175561426
16.821754487541480,  3.526342537390238, 93.081225990420677,  5.497285443103106
 3.557160463817172,  2.628763344191955, 17.659942695110683,  5.351878387278354
 3.078683931212725, 16.183387099474974, 65.900380408781515,  4.556714083217281
17.006881155409662,  2.315078214980305, 17.875605850010277,  4.965418301518952
15.993293181905029, 16.411897891435093, 92.747020674481931,  5.171521253044694
 5.285819903305247,  0.669849260020748, 23.745800362498123,  4.935243457397756
 3.840313567388124, 14.913957981568544, 21.841830675863463,  4.896539743672824
 2.643591988173549,  4.430886961618507, 36.889771791999756,  5.059050902382603
 7.406092623182086, 18.409735692578639, 103.568451252201029,  4.710248893649439
 8.275677096466383,  8.147642329930116, 12.898177143141794,  4.644138550968787
 8.496371942229173, 10.254433081509791,  5.887454092189712,  4.958108340701576
 5.307589124718300, 14.512341694485912, 105.342605636168614,  4.729518538696764
 2.397797810703014, 13.361851824211465, 87.835800649534363,  5.195850000929672
13.104676498284716,  5.042477047018123, 85.999161888167222,  5.190026412953430
 1.599626416070540, 12.896838614156284, 45.494866269417052,  5.355546640033522
12.879685026609021, 11.988618889361451,  7.605610869878270,  4.934070912901060
10.618350428382724,  1.580901344642889,  6.125201844426462,  4.803409450869839
14.466615675584441, 16.605637398624967, 114.497269061771590,  5.547478709128949
 0.595425370709771,  6.898914031576637, 103.598845778946242,  4.844203454604221
17.393213884685899, 14.188017175802822, 52.700533718486987,  4.763870625437687
18.442994731431916, 13.526781445845877, 24.173085797823720,  4.980005225408116
17.186219434526407, 10.936116761721857, 49.118443189421598,  4.913677810032746
 1.207084000674552,  5.731748238678152,  5.031667236768388,  5.033015452072431
 7.719159897513421, 14.620698408840244, 78.543431663460467,  4.805392423207984
 6.495305734804797,  0.214673790741196,  3.772046207718363,  5.063163051475922
 7.673974700092232,  6.981040766344491, 17.435803105034754,  4.799615372246040
14.425205556854630, 11.209512477514433, 73.389701847076211,  4.978782069623373
 4.747488708257338,  2.781866580091098, 100.597875978792587,  5.133691589652465
 4.238888112023066,  3.106130759671628, 77.192280280016192,  5.172643838587200
13.592367590368072,  7.290851695704751, 68.510421286063121,  4.897681387480096
11.609257563454898, 17.570716796623305, 79.650029304480739,  5.204789238370385
12.462911633559585,  0.304933325749112, 84.380571175940915,  4.845826519315591
 9.156696372334867, 16.001954273133418, 107.803793090004902,  4.880654820815236
 5.767657290536556, 16.493794815421481, 95.118568804630328,  5.212343681762562
 5.724032532143314, 16.275694568907959,  8.156453874001466,  5.211065397067521
10.660595879013306,  1.785493724946849, 53.935415692191327,  5.128087313967653
10.617814198418021,  6.192392204048280,  7.884242093134898,  5.027685589298679
10.429006050667864, 14.270356146095455, 61.583900750550697,  5.132361072156125
 1.241066827989756,  5.857894927465973, 10.105192130096013,  4.861799376353749
13.728215257684861,  2.861654197135931, 77.447490991552499,  4.897690433803834
 0.402194044620636,  7.979025587433034, 57.660135674030492,  4.660133305557574
11.735067643574020,  4.620973496512351, 94.434314999802709,  5.252749454235160
 8.882930262419608,  9.466169544990501, 61.662897001658187,  4.952115945543774
 4.149436549431369,  2.492493219828682,  7.738187499248626,  5.213690451165833
 1.418211355799084, 17.036801796139546, 104.135840697844628,  4.845971561798213
 0.284058520680882,  9.581240263471315, 53.305083577444961,  4.618344349722457
16.541306178141049,  9.324015785924701, 107.323606460573515,  5.027096229147598
 8.523626389561851,  5.846636543755161, 58.356609413609839,  4.854427628179659
 0.111217879647880, 13.761250372129510, 107.681890382593537,  4.991928462617145
12.326974218455272,  0.593757306409215, 110.872736788228266,  4.446889951620914
 9.275198427938808, 16.046327417163781, 15.027328137567347,  4.941414474472757
11.410729295631866, 13.340435949619151, 48.017180793593901,  4.889321822383075
 0.803401928338026,  4.461185852025260, 54.214569982884676,  5.163037181469581
 5.301553295379933, 15.440059987338541, 31.774783463421251,  4.993524742413486
14.046677153242719,  4.503715663613156, 109.488640184390917,  4.454054455577082
17.872238273388366,  9.129864772766950, 70.385259883046245,  5.065473532247185
 2.695471323162421,  2.267426974656833, 86.595181548546606,  5.237109934132528
17.343311310468952, 16.392762341704366, 43.096505572287803,  5.010201677901056
 2.147802193158236, 12.250090964718595, 98.315061932513828,  5.088914628116056
 2.979058430581399,  2.660716462635867, 64.447985553589390,  5.220004129226424
 3.174384340605646,  8.036857014426955, 17.096922424166351,  4.445324156085491
 8.056359582132783, 10.861544409739544, 107.318118692305148,  5.190532116866458
18.013158857930648, 11.658711147603462, 14.537410577632663,  5.482301490445827
 8.143037035895127,  5.959786887508109, 41.591021411975049,  5.208009901265234
 9.867788053104913, 13.766469652831676, 66.475253153890819,  4.611450442640726
11.604885907619030,  6.262080932675397, 64.123599922059611,  4.776288468114601
 0.317820926206735,  6.183606540875543, 83.106083706208153,  4.832041482545684
 0.156029239503733,  8.735124808882864, 36.928907564012306,  4.850452124501793
12.915352166217275, 12.918673492897138, 107.400700609083671,  4.858721720778824
16.025158851105594, 14.755598328480700, 87.842567810558762,  5.152851453557983
 1.029869864542291, 17.464814823226167, 61.672264092280010,  5.162684169840983
15.535603895624924, 12.040970768723916, 111.351343189887686,  4.774214183902513
10.617585201854826,  7.403572198296930, 33.417637378008898,  4.934175835103443
 6.767583435791068,  0.269381013058039, 81.045529488529610,  5.262890422287356
 7.553711169443579,  2.362493983619339, 96.271016663548536,  4.934122898988260
 6.297085257349358,  2.980307114628538, 72.545015624769007,  4.980325204655415
13.862512447357496, 14.466218154710207, 83.077670133462107,  5.071056477728040
 4.538956066723134,  7.977411215921753, 51.626040583742366,  5.057565274352886
 1.220131800997146, 18.243982266840003, 31.492035615481086,  4.899056975016407
 8.203313986979602, 17.412562362402792, 71.613286256362969,  4.553066694171632
14.414548104302169,  5.443667489902357, 104.455219732821433,  5.500065946406789
14.423672142733718,  9.401152731834298, 11.522530062748647,  4.922955818563057
13.476394649118671,  8.258012605031388, 82.023731347074332,  5.053508906709661
 0.237707532061063,  6.333138795587712, 62.187155207093909,  4.964424220950067
17.273001531852561, 14.559258059934985, 65.191001916892247,  5.196253111428776
 6.849963190704536, 11.830080928464424, 10.219982699503410,  4.823638245979085
16.181898171844733,  6.373099889631167,  0.954877257892852,  5.066178883284056
 3.425729229432716, 17.444379223523679, 74.359434529399365,  5.387335410814642
 3.673818658263314,  9.989739023919286,  6.268165616855496,  4.706488922899562
 3.051142144579488, 17.046889941130374, 48.262129549407220,  4.994606584415199
 6.230208632786143,  1.723639950619635, 39.315257793195435,  5.140792611727599
 3.483604057060574,  9.334806020638746, 12.645408799016252,  4.838863168181531
 3.267833594746865,  7.408296806637410, 79.458061940324399,  4.706571884090858
12.999605369310583,  3.709831814696888, 58.077218136666666,  5.014913524493759
 1.245842715585449,  0.284906666182682, 26.605508428821302,  4.991849847501038
 6.463436282785181, 13.450044788787435, 47.312847110537994,  5.084698786491241
10.040138036589566, 10.174113218882374, 44.176471764697084,  5.378797769118802
 1.529642928840812, 10.141153619344296, 111.162295474499359,  5.428778238121556
 1.779362642517515,  1.686764239312394, 81.507628708820789,  5.149513432862787
 7.481303917273765,  6.462008486676148, 29.664648779463175,  4.870762845797048
15.060651831372605, 11.989182915086701, 44.580877260949521,  5.326359394614587
 4.116021749323655, 11.600176777116262, 77.152462353641283,  4.999829133851579
13.649547191996570, 11.811989304532837, 91.541239412401723,  5.425539753161162
17.057861853193035,  9.649138967505525, 65.118084324026654,  4.630014546965641
 1.627133146218285, 18.200620441320392, 53.033069244440966,  5.224393852192080
18.031600933962221,  0.323527703533697, 66.103158400382057,  4.112757609799790
15.053943898311859,  9.776928902956566, 18.322137756410967,  4.820728238950102
 6.840405196519873,  1.658362848859921, 107.991595417137020,  5.050575089712645
17.851915625936289, 15.791981219364677, 70.071850793208128,  4.867091710756843
10.275882193094269,  9.484628499011825, 94.731092181260962,  4.864126685300257
10.289684387572402,  3.545946442231845, 89.787580767848439,  4.707223518518056
 9.186086423101264,  8.069018322304489, 84.695597767413801,  5.046463316622467
 4.512874439442892,  2.817206202530983, 59.378719950625687,  5.370359613704332
 9.946644868482338, 15.096250561009452,  4.660589174103128,  5.437817213561188
13.408292963142516,  3.158273123228017, 114.850248715434191,  5.258869740547285
 5.313674465518258, 11.089474930169640, 101.979233518099861,  4.867026246362754
15.492930604138996,  9.605103512452580, 23.165353256965215,  4.904568921353358
14.567494266348735, 17.604792847010145,  6.787358268844988,  4.843966766291431
 9.134431730441758, 15.546574652006928, 28.342269141119068,  5.288390297420477
 9.246082146876160,  1.167607985766275, 34.698084896898045,  4.714609340195350
 5.140383786367041, 14.025833984712362, 110.326311956407736,  5.289442162103762
 5.549917490748556, 10.006832879335153, 95.523559441310212,  4.776021431004379
18.014278988471613,  2.652318009738949, 58.807418821831000,  5.160305026251829
 1.533310392895354,  6.448452114440514, 114.984594079620905,  5.172509089339798
 4.613226976439631,  9.980918889918701, 27.918119784590729,  4.839653752693541
18.465939962866532, 17.576823534945493, 99.630839277488420,  4.740077286359237
18.096013565771177, 16.139110522721758, 57.090302364106591,  4.944523321791246
10.082698997746743,  8.897911422436588, 102.708896695102396,  5.303080092632379
 5.204752679683571,  1.701569504850025, 91.949905462132918,  4.916107833981274
13.906842621003667,  6.835031002581961, 29.486568595254361,  5.285025972495740
15.709879979602164, 17.698035809819324, 74.541550311033504,  5.556116567839122
16.243108184011099, 11.613006493517229, 56.616042863337569,  4.865179555746016
15.995644839487611,  1.661411146079255, 69.983174753891163,  5.047406123947994
17.303650334550166, 18.582076288788276, 84.877921893945953,  4.846849894009907
13.706350048142895, 12.582731073000852, 78.277575921722303,  5.209055327049881
10.286406774731836, 17.895688125918621, 23.617807045604039,  5.509641053334925
 1.272987091730832,  0.760830216800932, 40.143170481247942,  5.081931393995245
18.396009736345093,  6.633146736228150, 19.731544986324458,  4.771291691365916
 1.767238928833471,  7.596867608143805, 47.249475764941941,  5.212542759343960
17.528590049845022,  1.527327365275026, 49.733585947864526,  4.405755060240868
 9.303914542041070, 17.757160669448954, 58.014247778771733,  5.095072793916286
12.900271707318042, 12.914633667527637, 30.551141458628361,  4.818425207668477
16.658252539931517, 15.715899201606952, 28.262079526953244,  4.954377125130232
 7.983865298690277, 17.912570270984382, 112.275988998791789,  5.095972023389913
 6.109483216703820, 16.553332092807228, 89.075976523981680,  4.897558776533438
 3.423141280904013,  4.557527237705671, 95.694339414347397,  4.466487733133573
15.186161720082183, 14.366245109121911, 20.151979138677692,  5.061885943746033
 4.162316379627692, 14.860593668923904, 26.861070146068791,  5.160201170600022
 9.787144383260594, 18.469443224011950, 92.711760190532374,  4.955994121630871
13.120727885678695,  6.939773846186163, 41.630609595678010,  4.856421778040103
 6.650365506919922,  6.040508851023505, 115.994795329048500,  5.105735723129381
10.813763363941851, 10.352092893826295, 27.146001376886968,  4.670908280659958
12.449518084658965,  5.583196191329921, 17.646585503323280,  5.139224126939731
 2.424382524300536,  5.644383042583419, 91.294706485693894,  4.799263936501049
 7.368787136033899,  5.206689242483937, 36.121686979875989,  4.563804333410338
 3.953128940133658, 12.400225218413796, 115.461111758763664,  5.406863302952655
14.159798497499391, 17.794849263165350, 59.910403679829919,  5.236988181780100
17.527068750509610, 10.908310114681679, 115.874363949999506,  5.355691795247984
 0.960519004961528,  2.587181378150557, 22.166417600434503,  5.022637672550227
 5.889584499499319, 14.093733874627638, 69.110498913137192,  4.933512878269548
 8.472490772779381,  2.447227815814096, 10.415319930874288,  4.941625137384139
 4.222006880044979, 16.701707557514439, 84.639356912858020,  4.655291149675680
18.044662437259404,  4.299900213021766, 98.239532680292172,  5.217485575786365
11.685117328610216,  4.580067907533063,  2.368645066356797,  5.015923135883146
 8.966495715318295,  3.672117024795537, 20.979123931299934,  5.231292937414985
 8.776624356222065,  9.159247024420534, 66.748997039350229,  4.871976969373731
 8.103861296990603, 10.485407236826884,  0.896644133373097,  5.057551293959229
12.889861864327857, 17.133310950352993, 50.882833990466324,  5.020627469091562
13.230479365625428,  5.952018259781442, 99.234266990347990,  5.143254847982937
12.946156632419996, 15.153974345676005, 40.736366073030247,  5.024271919953979
 0.847279868834148, 11.483629299064274, 19.645910652174148,  5.209847688743893
 1.253288377187595, 12.634111981123867, 30.505508306930935,  5.159956288364183
 6.225111594792790,  5.738455750033289, 88.107922986057446,  5.114319705748843
 2.757257472948317, 13.967030438069658, 11.548226597631302,  4.784540908435428
 6.629296885476802, 12.060169904960008, 14.934398799828823,  4.625973689505737
18.066754373309607,  5.273812886118747, 67.047261008597943,  5.141072634507108
 7.480004356896458,  7.872932118877848, 24.631960721384441,  4.843866627058120
10.467331963337784,  4.037929285644586, 81.558230313871377,  5.329167719109773
 3.171314193113697, 10.104982206395944, 106.260698407580691,  4.908253148383627
 4.564578689138542,  0.406748535043133, 34.850321565014468,  4.746729183244565
 5.831816453313509,  9.582978092604968, 70.375081492933319,  4.423379528021290
17.536987321632587, 16.796247272968408, 15.373058924461526,  4.946819819214472
 8.113777789246972, 13.178027629199494, 98.372553995086804,  5.173163105298584
13.357219174121195,  2.114399354541536, 26.866286724149514,  5.205118294463516
18.292459514435375, 10.261019099972232,  3.795812994666431,  4.906988965057915
 0.874147519698363,  1.925144565874970, 45.225152068648626,  5.370835490040918
 0.563788758179843,  7.744137666961244, 29.483001286927848,  4.919779217756622
14.366418279697417, 12.113560763812186, 68.494683987082411,  4.869762729694235
15.781414752856159,  2.897141658758498,  9.683808747140757,  5.372716523804146
 8.832834316099317,  2.410366999026161, 15.586912257332338,  5.316175107162088
16.851329644600547, 10.023699287212452, 85.659488416684141,  5.384966839199576
 6.378766473227316,  9.550727318806079, 56.003446846108815,  4.912894552111769
12.982927034770276,  8.737781366495943, 48.065077227007009,  4.783194724315403
15.809717116940273,  3.006435354023519,  4.573873847472541,  4.841536570741714
15.298596255130729,  2.928263964366561, 63.298343069702653,  5.290489514467009
13.733401852252603,  1.137379424659600, 101.584925499234132,  4.813301466097373
 0.184108748313133, 14.285298598225427,  6.322344263425071,  4.668507924684599
14.168866249698580,  0.561997309795760, 96.641045274212885,  5.177470131580190
17.848244329765222,  1.348225907326960, 112.344041325241250,  5.054116119495029
 9.592009077046834,  3.773936710719929, 102.069059520226034,  5.051670712467665
 9.865990861775424,  2.448560976304111, 30.285362007016051,  4.544786124484351
15.508692692100441,  7.445415643606340,  6.967846428983028,  5.224319923175731
13.625638813796366,  3.252074099898713, 33.399495281857476,  5.316067103847728
18.725937465294045,  8.913294014463874, 42.618883240349618,  4.978878278934841
18.182392886767907,  9.531893935347851, 90.574023548582616,  4.838257836328462
 9.460809250092595, 18.416235556568289, 47.435085882759338,  5.024782041313479
15.095961947558834, 14.111345807654880,  3.364591560940022,  4.993440390019895
17.763565412564542,  5.492890290568694, 87.868140730396675,  4.849686453640938
 2.642563587753203,  0.901199145325652, 69.477499360775482,  5.428140218135427
16.898999209928469, 15.842013582339606, 48.094259440164663,  5.068897777714312
10.063219398364170, 11.732480999322240, 81.553684522090393,  4.728450243825844
 6.099312813329902, 12.861513596092403, 59.440140413122919,  4.543724573672901
 7.116137242086107, 17.805446001660517, 19.282100532735456,  5.221538700240779
 3.759275042568138,  4.817038410152581, 26.436555221568270,  5.377816397822388
11.103029501883110, 12.794219225509597, 12.033380829059301,  4.622018271752268
18.060185033095408,  5.521178789293184, 33.529484217253859,  4.638148437078493
11.302694823598316,  7.837604059670087, 115.116508585174103,  5.016810980695475
 8.176725314918849, 11.265716189617189, 31.219179687057700,  5.203060610839877
