BANDS
8 8
NANOPARTICLES
cell(1), 18.768
cell(2), 18.768
cell(3), 117.303
 9.922718901021812,  0.816745598390079, 41.473622197292990,  4.940651412701950
10.597435578991341,  6.094356062633977, 45.186284311969132,  4.981346313338838
 5.392896928105343,  3.140053501564529, 115.675041356217662,  4.769037439876429
16.482526994231897, 13.880250493208342, 98.008158901464455,  5.193315383547024
 5.347232591648663, 11.917958056646846, 104.978883309679617,  5.086612355227336
17.791286325058454,  5.387930397848854, 109.286698797471132,  5.171062234180818
 1.628519475557883, 12.201193089617712, 95.216360501468543,  4.799421943637729
10.185411315640005, 15.231418686497545, 31.668201104033816,  4.978674964848167
 3.647102626682381,  9.275070129834946,  8.373213932212956,  5.095600210913394
 0.628445742912487, 13.134008504636947, 89.191268521757920,  4.532489394334362
 4.537623097735158, 11.185297737842379, 34.747147360864012,  5.211592388637856
 5.033553115901886, 15.470549274800241, 61.537959269310981,  4.776231739510290
12.642572140378618, 16.072071929066500, 100.224996420833321,  4.696945971300512
14.139313858852351, 18.673960384793602, 115.927777952703181,  4.903375678701174
16.889061245044271,  0.409374586741891, 71.195683061962868,  5.161788631602014
 9.903881871151693, 16.252852889494928, 18.691996670247040,  5.005956389956687
 1.473637775079136, 10.718044175745206, 26.657941445536878,  5.224308853385575
 5.785909593409633, 14.984556620520918, 82.811817348952403,  4.928533949916756
10.674894388805413, 18.768312950844383, 109.617491385189155,  4.562498737701202
16.105358249048088,  4.470738554445369, 36.058243173814937,  5.032552925281482
13.809092117562619,  2.150945524714512, 32.040854591521949,  5.287126290935733
18.667767910105301, 13.617108178760846, 84.593723872963182,  4.819554801011139
 5.416190803997726, 16.759520036987055, 30.937438495363434,  5.015215278653451
10.833230775779635,  0.070835103953031, 14.382143024756205,  5.217043096381589
 9.829301096220027, 18.753342642453294, 23.047695002433564,  5.034754344378047
14.768613553761050, 12.461801740417203, 23.706359466364010,  5.007242651683571
 2.039865440734224,  1.538257613090337, 10.496239089640877,  4.885056735829178
15.930437943983828,  8.640553558763024, 64.516119289982541,  4.893482127844335
13.928309453228577, 17.615307059167694, 39.859070021280615,  4.547426803554346
 5.008818966158836,  0.889404405385258, 23.662321688034620,  4.832276868422705
18.219380847873332,  0.279743209536654, 88.569545781735172,  5.344403160244268
16.526676735075679,  2.183622799000248, 27.591343784688696,  5.131897339538076
 6.777404726660741,  1.596450635251310, 37.500887616538151,  5.307525935380967
14.454576163556025, 13.456671487294992, 116.345984568390875,  5.303055746215773
 4.567608102517512,  6.526181057644588, 30.663468657336320,  5.433937735604177
 2.132231093634798,  7.043954825189124, 52.370894382798319,  5.291386125322443
16.057807660100423, 15.515419786465266, 52.120216790588103,  5.022881250453014
 6.129754735974553, 14.732666956880911, 97.247979968043552,  4.701592441712476
 7.118594004549925,  6.625226304512485, 53.444295390117702,  4.891786258171864
 5.023957237995157, 16.016878305158492, 20.200201889537905,  5.212766448082857
 4.621584997992854, 11.163536609383213, 90.786211028533401,  4.925086115840043
14.927197139180166,  7.727392402956707, 105.462137894149578,  5.468056397594781
14.053169382341034,  3.664319592356457, 40.710683757836456,  5.207342990478724
 3.959885019871079, 18.640182641217386, 41.501741836900763,  5.056156831652868
 5.110288153948819,  4.504012228458481,  3.105575244580301,  4.952996176933150
 0.103903358529975,  5.009280061489658, 65.054184136708045,  4.438492517830951
17.083421356170483,  3.997134983989700, 19.396230867052221,  5.058412850814791
 4.427189021643047,  6.923528052655169, 69.880735516158666,  4.924980671646303
 8.720047920282154,  5.025635396587706, 67.082808055362918,  4.703746280431040
 6.779263129593506,  9.202197416255688,  4.245165707039019,  5.260176238334902
18.513641054382614, 14.627615060560320, 70.347156475865106,  4.641042067185174
10.631023618168213, 16.830846894246495, 90.927315537238997,  4.936523684750177
 4.845923834146395,  8.786029032422883, 39.158245852785242,  4.802133804425317
16.604795404505360, 10.211361947089147,  8.889036415543346,  5.063837726078944
 7.378337550483252,  4.922482981129466, 60.788328449614355,  4.754454778206019
16.204639544879001, 10.285916274763508, 111.441093226467132,  5.187261440942341
 9.056159044518449,  7.090694599271968, 71.766856714019681,  5.075140448494546
 5.122227059834364,  1.871121899218785, 52.603998444650102,  5.546196978253775
 8.419839514123003, 14.859439651871384, 110.823351597373474,  4.777672313576621
 1.089455951935559,  2.472997890953586, 113.124544161593349,  5.309946682198871
18.008739612352471,  7.321085700668416, 60.223529768775691,  4.996585146745221
 9.493170099822017, 13.385703191180443, 106.650238022876536,  4.320448847951993
 4.448547159194671, 11.332640523045155, 85.820375570449428,  4.879399102456331
17.735548485774288, 17.845185269183119,  7.630583167318115,  4.850293231216739
 2.895541386058824,  9.980761566484070, 77.827772573108462,  4.763206070410825
 0.173620404251913,  1.422415041533417, 23.251678988755980,  4.911626620173831
 2.671806526311550,  4.979020435894615, 80.703308696717528,  4.988651943793280
 0.965609276116419,  7.477734107470386, 102.813260036254476,  4.932620199005356
 1.034120164355819, 12.180963730955078, 51.582173999876296,  4.975888302322362
 7.472978202508624, 17.704492170444475, 74.867451540922744,  4.886739908764014
 2.316856283536890, 12.496732364733063,  4.668498694306871,  5.075986359515521
10.313041541928811,  1.533158805460085, 46.027567020100470,  4.310433745138582
12.164983120106125,  9.738378601668764, 94.086387327656055,  4.424385619572949
 5.411048651880025,  6.784871646152184, 75.184228114827263,  4.935890951137555
 4.142882967812485,  4.443220345502060, 40.407844657071998,  4.341511855590364
11.198484160968381,  2.630282390658282,  1.497531344130745,  4.959869908987210
 2.802833905394448, 11.389938884597383, 46.158856095459576,  5.031866369384050
12.351403854450382,  5.202449888595324, 79.086778217805403,  5.159689923795445
15.508862505715982, 15.338850256915872, 74.443600297344361,  5.147389671714198
15.884103020675726, 17.502378422812789, 79.010032451843387,  4.980229774683822
16.853987768938165, 12.408917985826802, 13.264485235559629,  4.666167615890005
10.512864484848871,  5.280042697324261, 102.809572765998666,  5.413711408387611
 7.025745906629407, 11.246883837436323, 73.737660431654831,  4.972497356690871
11.396869718644004,  0.019878055793991, 77.631083137626945,  4.751486513296942
 2.694075099451401, 15.804878590399786, 48.691931396007007,  4.863103542587681
11.020123715290470,  0.375137613184116, 67.572006431740732,  5.712738084125814
14.345233133680788,  5.351926236735951, 49.805224011745580,  5.052726692001942
15.390185069051780,  3.981630386401786, 14.731835454143646,  4.768698278321169
 5.729698377486119,  1.215075624548880, 111.153961538094038,  5.079178874942222
18.345578117475387,  7.844315499580914, 14.090148270772792,  5.035358711433231
 9.691683568546679, 15.487936808909421, 80.296889639531003,  4.390728234883274
13.077804670004882, 13.334567149189771, 55.139419135785793,  4.509083180763319
13.140283442126190,  7.157896270909009,  2.188790994502313,  4.982161160422510
12.141284618128410, 11.763247055559098, 19.423205263093148,  5.126134442286194
 7.486657687135622, 14.206714619168258, 88.276602828663471,  4.820138047354584
13.741443679222469,  9.276670405263321, 15.348735839050576,  4.930075050665827
 8.821523158086841, 18.270726252226840, 85.442423402707831,  5.440771647356529
 5.777375250819171,  7.277602843800463, 103.337078120932844,  4.753042812908954
10.525163724623605,  5.315812685574450, 14.705600997733073,  5.305047990184359
18.079712842717303, 18.151476774750538, 33.583444409282102,  5.327121024401978
16.823876084634911,  3.365452128127282, 80.300009113416976,  4.797762315239479
18.358762887933988,  1.815618183908264, 42.142662557869691,  4.586315645831226
 2.116127561968353,  6.534504593101038, 35.488810661813162,  5.371284505445421
16.666388283451454, 13.472270526188764, 47.649767491268548,  4.881368600262438
13.208707182969254,  0.798930636350035, 87.797853201982662,  4.844921102758981
 1.413502045136243,  9.479354256289840, 82.425975857671361,  4.948607597472055
10.986673608798530,  8.612822410030887, 82.321067322161326,  4.626168763212098
14.662478345379540, 13.914529065487926, 42.848808588245141,  5.071302981033183
 3.843910496007595, 12.133864633557495, 70.017131064402193,  4.975499359977259
 8.678485906210433,  7.887854671072057, 27.894485859470414,  4.667010069445414
 6.398103071951356, 10.213371077641289, 81.344729213209163,  5.127363825064515
11.668155540770185,  6.981423924499450, 90.380319470608896,  4.854460363185169
16.546111240287399,  9.151802535109040, 95.898327440222957,  5.113399272142926
14.064172180464221,  1.603166592834979, 101.912801938377768,  4.966023237303259
 2.788651148051617,  4.685803260851675, 26.040449097888196,  5.132162337147722
11.611885197104623, 11.206252978106653, 72.386574969694394,  4.589353593892383
 2.111090479287412,  7.710708732922503, 112.867504143531193,  5.365303500293703
18.435303403908552,  4.128577435414885, 31.741925237035286,  4.791291530562238
 6.129607209409061, 13.923905428860980,  1.544750639107133,  5.185841399355130
 3.444322629115891, 17.332554533256747,  5.584385549134610,  5.004601144784439
 8.215466462973174,  4.663823152313901, 24.229656678103474,  5.136043590089649
 0.419789652854724,  9.656869475027154, 31.620621442579175,  5.133715182212609
15.518796248987181,  4.727322580008495, 114.727266781244978,  4.559855024421418
14.275403283634700,  9.600500987999116, 57.591975775970361,  4.717969482001524
11.379993153707742, 11.746187794804403, 89.660523598503431,  4.796468521178329
17.617781832959853,  3.461847573180595, 104.687077490051664,  4.736796074246131
16.222415005370404,  7.675163124413482, 23.638087347736466,  4.997524511287119
 4.817857009036934,  2.331502683577304, 77.144534266698827,  4.862344867487172
 6.506429482234144,  2.048496089052124, 12.575641231545454,  4.957559981777888
16.999559850763333, 13.990648633085861, 65.778147359846898,  5.057567080012467
 1.252518773169622,  3.010438264518705,  5.841458422280618,  4.914513062172208
 4.500781081842337, 18.481334149843086, 57.537051996948279,  5.293810629017740
18.500281897314512,  0.825282796500124, 57.648604773509867,  4.477442513776976
 8.631538579457224, 16.670155036030810, 27.445928875316348,  4.467298761247926
 5.551409159116417, 10.414997034274856, 50.280017371141028,  5.049640771991474
18.760800565159073,  9.852631433149595, 56.052445022831705,  4.768023011536127
14.272890136302836,  8.456747024120491, 40.194826817094679,  4.429851195263000
 5.994112448179369, 10.098694805534423, 24.823384443106733,  4.598789380311611
 0.386330181115715, 13.152958955541505,  0.346547310224666,  4.465529238622292
18.670445935430472,  0.996907938487466, 52.888101923752039,  5.054879232854133
14.375536751832575,  4.250948706838208, 66.139526633401573,  4.927248562390658
12.738254988361829,  6.202198326528938, 110.795203673224066,  5.499573051787339
 0.061876806322922, 13.359109616692580, 34.839347727099373,  4.691416238101304
 3.927471706996581,  6.197248618352392, 107.824286152504655,  5.191350316760198
14.927566949949478, 16.391408088443807, 29.915813710543485,  4.959899140517557
 1.143113991840520, 13.858152755304658,  9.275017546460830,  4.810980072560561
 9.038140306742706,  5.845985888461693, 40.125618708598765,  5.616249337451626
 6.777482278756767,  1.246465496500841, 17.513945107728638,  5.032559130551553
 9.952123741231702,  9.555512244586989, 77.583908229177069,  5.203861319475201
 1.659171867991207, 13.750540495686954, 74.800620517325868,  5.208036984226861
 6.640919500129456,  2.219683075701591, 28.443995716442718,  5.103164479402222
 3.198142280753688,  4.515623283341372, 56.611469218063732,  4.795688423453497
11.116437316800663,  2.726545925729383, 62.838704760139265,  4.834280340052768
 9.169934251877637,  8.993913888427292, 58.083930840748899,  5.564155809937795
 2.062796858481817, 11.609358601452589, 63.090454031734055,  5.441090756935632
 4.297502834832186, 15.485973811621854, 53.335393011144951,  4.941218721296157
 5.479873160876620,  5.480844883824594, 48.466930637533522,  5.448169108517398
 5.967381948942284, 11.019326481681032, 20.134113042775873,  4.957069174480460
 2.343652342236295,  8.136229476889513, 22.270915534373959,  5.099258800293917
12.554244068690268,  7.689085730615875, 98.656609462532614,  5.017491215121603
12.704137782395286, 17.890464687919092, 49.218076852794859,  5.005212606288883
16.249044554474800,  3.050554899332083,  1.898202912947732,  5.085349559365251
10.274344733606725, 17.127840887276463, 95.991165685692266,  5.195820725088731
16.709503817094042,  5.147282612278528, 99.697085086732187,  4.924074863279909
 8.495168580634035, 14.484259286156439, 102.063885593463638,  4.907952788299643
16.671679281313033,  9.321731761228820, 35.921461132975764,  4.665025168187869
 1.633674727904277, 15.381687574727430, 105.356301405383931,  5.086855623795666
 5.399976143730917,  4.474867478419265,  8.256681186937444,  5.099884097210500
11.364166428564499, 10.454744323266043, 102.703961571048396,  5.064756663563814
 3.192754460970654,  3.708831138117063, 20.176106310989955,  4.832267625421613
 9.684170931672764,  2.582862231411289, 93.016944082607452,  5.200766647837995
13.147584047670167,  6.257708442543088, 27.272387976805010,  4.913753600973211
12.504605745600415, 12.202346192065651, 64.486998879645100,  4.952954753918320
12.930978472467782,  4.082421225370694, 70.832597968858636,  4.871173064920311
17.008314818044287,  5.081973152132649, 55.657206558876339,  5.353009495480213
10.281653920844887, 16.147965429685879, 10.197748010950123,  4.787188861716494
 3.574515505517142, 17.446034095337460, 71.653314764189261,  5.217214650904987
16.636469528077193, 14.140424770113986, 18.033766264080366,  4.904432465378497
 1.026486909363197,  7.665482207792394,  4.189928287903045,  4.967816161875112
13.615251287383568, 14.745533805445437, 69.607565632214104,  5.261919165837340
 0.001287609457594,  5.948801837365433, 76.598961156308206,  4.993422417552532
10.669399782327627, 10.157718618617077, 42.488187804396247,  4.743944994804642
14.635810539180081,  7.328213149254103, 31.936758113166853,  5.107045297349922
15.147213767724852, 16.704843637516511, 11.701826485463155,  5.055853706286207
10.903410331042599, 15.583155496875062, 45.401462340225137,  4.609801848774704
 3.175406389601916, 16.012608475728697, 66.405208052832648,  5.690801894917281
 0.187113930264179,  3.924807652042045, 48.958874220872126,  4.736542065916953
12.131990594901316,  6.589893278858725, 54.266995739151085,  5.207340995616279
 0.105355307517149, 16.745269113553832, 61.633640888534792,  5.292434234382782
10.398193845727656, 12.277322815384522, 97.903718450665735,  5.229717551477396
18.391234867813939, 16.028573261602617, 38.913222154073672,  5.088085650926831
 8.543999230414304,  6.707668479597512, 117.278259759463680,  5.233009442626072
14.979141127039226, 15.005187323911608, 88.892110766641807,  5.034342565017664
 6.291567084105044,  8.428130062112922, 43.957937655806248,  5.111623402849227
13.747956826612720, 14.167479498046150, 93.722612852896432,  4.986418216265996
 2.747548129797961, 17.532628882586117, 79.834508715914410,  4.980377941022833
 6.692611738451298,  6.568828315609100, 90.751336157731558,  5.152768397430399
15.083255430368368,  1.399206794669855, 111.183713198590397,  5.184829624728327
 0.799888180218408, 13.069855961365533, 22.029683486581941,  5.233296931686435
16.101209744274783, 12.457082677465234, 61.063717687750412,  4.983548812283408
18.246512516259269, 15.707547578969921, 92.837892510082838,  4.682872693025836
 9.132334715443799,  8.428889246506772, 107.156995286293849,  5.670228507165192
 3.802277236475011,  2.564317290835129, 103.721935382579105,  5.494922321316642
 9.985954870072039, 14.662637956918706, 40.757233705952508,  5.002180068722065
 8.833546860305287,  1.096378896563083, 32.824313257278860,  4.940850279740572
15.386553483128491, 10.101418762754706, 52.557856321768455,  4.959078728558882
 5.037662247212205,  6.969886301385967, 12.836725925228397,  5.327054619614817
10.150443845584793,  2.135951480095122, 113.915723383418921,  5.078490838671875
17.346246275496632,  9.215969606155465, 18.913650745056508,  5.185638803876413
 8.873775666311834, 11.613708278730547, 46.520598156480482,  4.552029920736814
13.151926526298684,  2.909222722204559, 106.675467652583379,  5.073721312419985
 5.182902443470649, 10.720454079675809, 109.862593693312050,  4.944492120605232
16.509641681227148, 10.497495391029011, 76.034574429433832,  5.226627416416684
 0.641198351828270, 11.232033584322231, 39.224736041401016,  4.715723434443118
 7.395530828815819,  5.683599376827275, 79.522244621092369,  4.833007718591610
 7.868962886151627,  0.970537413388413, 80.661387931360352,  4.738238980500265
 2.760931417836908,  3.058890194511676, 61.385302595437352,  5.224237244584942
10.196506787599709,  5.442955371648215, 31.490061656803487,  4.542057870931723
10.117513971865421, 12.967204116258031, 84.277399641574092,  5.065366882008743
13.673124846078448, 17.032475349317963, 63.239208641732723,  5.284159824226484
16.014743630300639, 11.277765277577956,  3.741940587968402,  5.506010407318648
 9.062689783343485, 11.538892906699624, 53.560655245707586,  4.807584087509172
 8.732608836980164, 18.207360326967969, 60.277782873038333,  4.757499570749332
12.758645263917462, 16.210883255728348, 25.757159526131431,  4.411831287193563
11.527993993842887,  1.613205774174654, 27.479833729154578,  4.931663461009598
12.192622159169247, 12.999256453138676, 50.083582487344458,  4.981342127991704
 1.616680892787465,  9.041850548497999, 73.197975775630965,  4.739690457121456
15.429778379197460, 10.925542793622098, 28.441250457041704,  5.027909285230208
 3.193706583342109,  8.092646721396868, 17.407367178656578,  4.775451465451193
 1.251920556259785, 16.359118811362993, 13.789002260180176,  5.511894181024587
 3.722317108749200, 16.468590167692810, 35.610994029635847,  4.941606692342189
 5.295972088595110, 16.465304308546244, 10.260851734164541,  5.191911950202549
 1.264991979509581,  8.095501055092187, 92.511383319376407,  4.801677286029022
12.940899192247549,  6.796229699396878, 19.540742880135703,  4.935740073868887
12.799628904894163,  1.145823821037495, 82.297317877165298,  5.220367986862951
 9.902541853826380, 15.996517851416442, 115.415415954261476,  5.115449762160122
18.275004993787157,  4.644417186477709, 95.209295888484476,  4.632101562653068
 2.749287814481970, 12.742067124521069, 113.628592988279777,  4.888878025442633
 2.217287997676411,  1.021703040700890, 45.886304976051953,  4.631733648432722
 6.021295973593832,  0.429741352752621, 89.932625547910362,  5.296289598594205
15.920577854624863, 10.351826330647729, 90.981847609039619,  5.060739675376293
 6.566317332598615,  1.169624814510643, 64.464937688079033,  5.261532964401244
16.133828430326965,  5.334507840195249, 45.085025142834112,  5.039290145818661
14.459112089730439, 12.587928808684293, 33.020423336158650,  4.897409761828392
11.572749732102201, 17.201283149662562, 104.888278938909295,  5.055082438826681
 2.662101193955918,  4.107589655602087, 89.271083340993300,  4.744527845567308
 1.628649338954920,  0.850470456206401, 108.205465685223317,  4.975476382299541
16.413113852877874,  0.662544286113587, 97.644307402930011,  4.957956860387205
13.569803331982762, 12.520437182762372, 80.057416835599639,  5.375682555079461
 8.017918162350581,  3.114547756055671, 106.962806773333128,  5.194784235969535
15.287827602291989, 18.365243369921036, 16.352735035158478,  4.546957053743017
 2.175925421958572,  8.181498298871022, 98.064921935982497,  4.879529294303282
 1.348738014303489,  1.854890229843106, 37.660629334580705,  5.040944747389701
 9.190436958526121,  7.564104897795961,  9.976421743343453,  4.824178209260030
17.036751374121323, 15.139188406605305, 56.992939614180827,  4.943346891649303
 5.012499084300263, 16.847845926930233, 114.931897391845524,  4.838357985821571
12.196185915365160,  8.470845551677566, 67.928813301104810,  5.218210806630040
17.932582958776440,  8.710554389097570, 48.445687216102002,  5.096876707401839
 2.243860075905109,  0.001347787400928, 27.727356414133798,  4.843944492930794
18.112630559286117, 18.517979666637455, 83.393311092163898,  5.060271877027059
11.888152054906138, 18.464291961368676, 72.806090078254726,  4.963770447313733
12.728353264186522,  5.334200015630229, 59.096152657814898,  4.840235088527420
 9.239620660472442,  3.725165486662914, 75.431424491693093,  4.877693554195813
 8.651045067362096, 10.284913577501761, 15.740677866199968,  5.442818792768303
16.090546712248194, 14.344740501564988, 102.999858649585491,  4.796126236969852
 8.929940714515215, 11.008901386903359, 37.433619811458350,  5.084067748724545
16.330861484515943, 16.649883729632659,  2.875224639012920,  5.347834369237726
 8.882569780218464,  8.696583914609901, 86.673313554966441,  5.031349778319093
 8.440192128687123, 15.089668962625174, 65.087277646911090,  5.090027419250737
 0.676487937438889, 10.440785684581428, 107.143431346962515,  5.576704511986637
13.735378267410026, 12.675019542767597, 37.985628349622054,  5.134970123117776
18.732428674666689,  4.453564101600033, 84.760746916811698,  4.811406708818797
14.303285776943559, 15.511493330694607, 84.076309424270377,  4.737300928045718
 4.227985831949924, 15.530088065088998, 92.908625492258224,  4.806644989952894
 0.474600245654491, 18.567743037202252, 75.591394013308417,  4.831441906868946
 3.808959964004616, 15.608669872806846, 109.910777538325647,  4.736246123173585
 8.423308598051937, 13.083172140327306, 93.281897786632427,  4.926053365467749
17.496524222031649,  0.274031245933409, 66.108291596942877,  5.085055136982479
 2.967111015661480,  2.444035921427060, 68.035504356762146,  5.185232313492440
16.262453540794390, 17.906938992607728, 106.183798131311917,  4.750029239032021
12.112386547834772, 11.540416077546391, 11.066118191530681,  5.267712402905738
15.068333156172942,  2.623757699190835, 75.514239740994554,  5.189344649807035
 5.989606795666209, 15.250769986569352, 44.855690875140318,  5.293839966781001
 9.755137462555574,  5.050310296454112,  5.664549013534488,  5.075840599348636
 1.755211572416200, 16.754080677545300, 96.955268312844240,  4.935782372598207
 7.679362844875481, 11.230615949599878, 114.464931766009997,  5.554617420116895
 2.458703327181914, 12.854077971945232, 17.332974874160968,  4.728160511897437
14.385008748706577, 17.187755432676372, 21.342971593477124,  5.153202336661025
 9.799199431199204,  3.160416250190551, 50.430460151802464,  5.078439445207548
13.707876671549748,  1.809236817485347, 53.340282973010858,  5.028662030930149
 6.116998347768574, 10.517769841032360, 99.829011933092943,  4.788148881238107
 2.429446322054642,  3.477697616402872, 72.991662888752728,  4.985777999431813
18.301027171729881, 16.459059307187939, 114.344149358464733,  5.038087348347062
 6.476093014346318, 17.020666419579030, 105.944878055179046,  5.203146301361537
17.445751153523247, 18.293576870463042, 48.443290152375383,  4.600314678994513
 9.430800689794809,  3.489172594865053, 88.290532877002491,  4.430813272754659
 4.584825211498580,  6.326680336434911, 85.229661189906835,  5.197724091082767
15.216836521962993,  6.061905897506304,  6.525120218946752,  4.878629987116947
14.065374614306252, 12.614694244816139, 107.108953505310410,  4.980784810795850
16.504967142738490,  5.160022598689093, 90.180029790578033,  5.488813316326663
 8.121903477164414,  0.269109225843211,  6.728626094602889,  5.207444921571346
 1.928469676099515,  3.384490095871328, 15.252520136036324,  5.310803151313633
10.810194403546978, 14.277335312152140, 75.943425552112885,  4.916302481240374
13.325837230004570, 15.448081782920100, 111.757807092253316,  4.951319896054901
10.045556573338157, 10.209702997743868, 32.473031867528498,  5.188598758524441
18.685353844011239, 13.405274729050658, 79.670226934107149,  5.030568824543235
 2.687185489232129, 11.336072293455041, 12.933342719930728,  4.589313002644775
 6.911788274790219, 14.105667769530555, 57.133183666132126,  4.681205124251657
13.825144336364540,  6.784860063955568, 11.143339535087430,  4.839543289832156
13.848491833349254,  3.214583857226028, 23.262855790425530,  5.135709157639915
 8.989941743685062,  4.326806547614667, 83.816468084529674,  4.714050324640408
 6.357700523121101, 15.164723072878475, 15.203430226033667,  5.163542381439755
 6.569823898868668,  3.183363911097000, 44.049382563203842,  4.745782966840051
 7.629503210019302, 14.929436108956972, 49.707401792723481,  4.950506976975930
11.582940850319442,  2.663534219143048, 36.507492718995756,  4.735968391932922
11.047173463587420, 16.207251158162599,  3.166622755833945,  5.250336863650684
 7.138745203639638, 11.103350121410337, 62.398958534966908,  4.852329764945170
 0.679159061131259, 15.511843547436687, 43.944735826878102,  5.241901795915679
 3.617848279135247,  9.626703400640976,  0.166006515955043,  5.031799410363421
13.506841546106600,  9.924650060097647, 46.405172688684772,  4.938077685080393
 4.667793153031186,  7.018502307091349, 64.643024893939071,  5.559233479894877
13.703842888312899,  5.372294470951522, 85.454144698830078,  5.480051837962244
10.869471719772779,  7.745100584411115, 62.967703867674551,  5.007488925253906
 7.247938160874316,  2.342999137229817, 70.992068142579313,  5.197842796528379
11.551206871982433,  9.789794196150954,  6.208813365736534,  5.118620363986318
 0.740330933187645, 18.391413577474133, 18.639021264486576,  5.053543185679215
 1.942101327848809,  1.098724755251834, 93.034336334929449,  4.989705822438509
13.298611672666597, 16.896567471299885, 35.187440184623583,  4.977029660539524
17.151017195184298,  8.993571772741733, 116.349277745152094,  5.120241966609624
17.696106009417605,  5.360268695395019, 69.804362278946599,  5.204537683015472
10.884362663263580,  2.934257012257640, 10.124738581591339,  5.039867733306503
 2.127223748294857,  2.632767809880435, 98.734625594434007,  5.027454387927468
10.512099107822634, 11.400199287596989,  1.565134708077824,  4.920295723502783
11.232524518431960, 13.808095090366756, 59.724977472363292,  5.411244885850938
11.377306590944624, 11.130205741801532, 110.943557528004945,  4.659329586700984
 9.079950036082820,  6.773911172398081, 95.475986499759969,  4.571590899575403
 4.956065864829250, 13.812201045532532, 39.839450707063861,  5.344264019294725
13.323690151229084, 18.557517873737115, 58.131889201080185,  5.398607726900487
 1.633754675430692, 12.384072525820082, 101.139517345106171,  5.259523037909139
 8.493644997581020, 15.772856739837382, 36.228985381823009,  4.777109778683532
18.555159760470364, 18.436794796201447, 101.925209395670024,  4.807581260109308
10.134426238345341,  8.233283523003253, 49.764488828832626,  5.148476132695125
 2.261435838042949,  5.541872092192127, 44.453079130579120,  4.837952476996003
14.609654459304460, 10.741709524832785, 85.818386811763503,  5.422258029333922
12.373457164870866,  9.046579309046118, 115.058486416407561,  4.774152281695633
 1.911434002024613,  0.330766660524772,  0.978395658727782,  5.324472299610670
 7.320942759936358,  6.243782776784692, 112.015235693835294,  5.573833944341546
 0.898289832817389, 14.562071035930201, 30.103333265802604,  5.161003197985832
13.898996583403346, 14.686271399714503,  7.189261160940663,  5.052997923614697
 6.959905633549432,  0.126148173272494,  1.815020141043088,  4.894822915492083
13.643992222805307,  5.315723270838022, 94.478324661678101,  4.833059877584343
13.457036104477023,  1.266216146894456,  5.927522882998602,  5.347289142119629
10.653226344440574, 12.341684959941340, 27.574847462199834,  5.085162290781103
 3.829613653885919,  2.098163360973292, 33.309352503686789,  4.986554319570228
13.110218002645908,  7.133672256049958, 74.564953737995168,  4.774123170276162
12.714130611378851, 14.290477083079217, 15.214604116079396,  4.755883907774214
 9.058473811206030, 13.750442201356874, 22.972072539025373,  5.047533429600611
 0.477227737178939,  8.689240886258585, 87.314501596703948,  5.117941604104063
 5.793207292659766,  0.626196184512017, 96.086165499946134,  4.840558269546842
10.936445606335084,  9.023789446062150, 23.635979385354922,  5.208680171416536
18.532973681860007,  6.269532773105482, 40.188452395929119,  5.144102936245275
 4.117151123743938,  8.351510569512126, 59.542436387327008,  5.031462032211805
16.253395216096354,  2.652191498862421, 61.625248274919628,  5.360474956640738
 8.506340943874806,  0.631424907442162, 101.514309631114287,  4.984519125635091
17.564527513568496,  9.891718575132920, 43.570585627092804,  4.951850807875063
 7.331861606275782,  6.750470751147143, 35.133893206378893,  5.085985572680033
 6.714838347667945,  4.755272118738969, 99.197744232939741,  5.119940707565025
 4.652770944283593, 10.449284938433905, 55.120669400280491,  4.795977813741051
 5.824710312441642, 11.715418527512107, 29.594453019754752,  5.455318183011156
 9.827519055352109, 16.821138470536830, 53.947149932840780,  5.313918236134281
 4.294551252638595, 16.832457319593242, 101.161524169351367,  4.882249779383155
 0.198610388624437,  5.933316610475150,  9.597174721911419,  4.802864161557913
 4.130945179429448,  1.362834512976469, 83.920772726774388,  5.091375791684033
 5.857453143292054, 13.979548739072014, 77.856219497983346,  5.185062997219328
 2.462613558675645, 13.185572806954529, 58.300683068130255,  4.668820518495592
12.132095938154745,  7.425936027297674, 36.224100022731562,  4.823653840638032
 7.607222112069266, 10.533395311782837, 67.256231876062913,  4.880106684639927
14.536335038856885, 18.740010538331376, 44.549108324230993,  5.162015262646009
17.780565114499051, 14.802607892539996, 109.632535506248786,  5.003130323536134
 7.753475546525807, 13.836824670719862,  6.490631407937476,  5.220635243560877
 7.027854319299750, 11.788499039441890, 11.065297625159253,  4.902141783318720
 3.313605197320045, 16.197000714112935, 86.853729454872351,  4.852283244703601
 9.021057784148770,  2.798463237023594, 56.413707348857258,  5.498608154492397
 6.378423089355358,  0.423617527137704, 47.872144453850886,  4.658330013071459
17.428877374757629, 16.171987431939517, 25.659000516791377,  4.918274172659498
15.723734360096351,  2.530937246572672, 10.215019359124557,  4.657921047981807
16.180809677172647, 10.285846825520746, 70.801606391221512,  5.253551203990732
16.057499659659353, 10.007879863752441, 101.074893766609520,  4.644950323400273
14.776810435739433,  0.626759392318208, 92.707506892848116,  5.442249318929306
15.608132566907479,  8.068339044273426, 81.523691249921654,  4.783870595302807
 1.448802511409012,  5.249226266714293, 117.302118364357398,  4.743261120759558
 0.945269004503205,  9.227063314502535, 67.437744507004624,  4.717554175991147
11.263577436623178,  2.907791065060551, 98.024891030996855,  4.963335926239043
11.588714104549599,  2.122100376210066, 18.927875993499327,  4.867079740667099
 5.615625517468906,  9.741261260301840, 95.220463573000529,  4.565373263727078
 8.279235265297853, 15.123646139165771, 70.404708480984681,  5.546332889378575
 4.237217003222208,  5.069899361898515, 94.863771499260309,  4.882543864246259
 7.617466487974119,  6.162882742851705, 19.172135691328176,  5.478491041196887
 4.543659475664712, 14.852874421479843, 25.356426550488429,  5.395582746126730
17.744028095517031,  6.805761995725261, 28.034102707875039,  4.456402046656382
