BANDS
8 8
NANOPARTICLES
cell(1), 18.792
cell(2), 18.792
cell(3), 117.448
 7.562587924595761,  3.009384025644772, 18.078708346963158,  4.967651364323692
 9.028398399062739,  2.559212179889105, 59.325498401568346,  4.858866121323588
10.726138736304465,  6.173395183073538, 62.709723974843030,  5.067242462519289
10.973235856193439, 14.107111261565828, 22.957901304848203,  4.697863661497604
 1.256868462024869, 13.858437626873995, 69.561259479853049,  4.938389679340850
 2.083922707282450,  3.029935632901491, 81.104519515119080,  5.114857661804159
14.993560882899470,  0.598580772148727, 63.698710756235933,  5.008480927262623
 5.307067490179435, 17.624957682504267, 66.398186750460255,  5.232818862625980
 0.453131845405996, 18.317692722157528, 78.031908521108704,  4.740277319246776
 7.393281581178015, 12.838474785344046, 43.692701650101384,  5.206183989687384
18.617413493151737,  5.402906063715938, 111.386931502731343,  4.895966530786242
17.563163307142734, 10.226354892428057, 54.332448972508658,  4.964142086204960
13.898636191778813, 11.694770021897419, 75.019715784563999,  4.759086874364346
12.265192509260400,  3.578041509365961, 85.397710776602622,  4.889364467962930
13.137854652399591,  7.740400495687632, 83.038974088415799,  4.836374788667052
11.798841892193929,  7.480360734998786, 78.287653192094410,  5.023903497428646
 8.123666135541914, 14.913566734926350, 114.111491124841649,  5.018854070592718
15.153622278998787, 15.518652492727222,  0.363905246275375,  5.069038380927325
13.715883775618563,  6.173570325299970, 45.627712293264132,  5.196931195572082
 2.576964255586257,  6.822866850933797, 107.194283460856411,  5.510621714638487
 4.405966259132330,  6.406471885566809, 10.043603531253137,  4.921952112730995
 3.098256863685366, 13.042780464979280, 64.725821059596583,  5.284085993623920
17.299046722402714,  9.301203158230051, 43.371206429388700,  5.311360943604736
 4.518018167182748, 16.514961811455425, 103.870649173119730,  4.848765055944141
 3.079178596097587,  7.541629858000374, 79.297705690790252,  4.804325928740862
 2.386661577208847, 13.277994927434781, 22.629151160170743,  4.869002229825153
14.676594354840773,  2.495817753279711, 36.597083876424236,  4.840552740836722
18.139576747268045, 12.741049598874529, 49.423458998688396,  4.839023909220090
10.004352717441622,  5.947871131933053, 72.185031353216857,  4.766795239981094
 1.496358850997050, 10.452688978085087, 103.153429698020830,  4.931405594394254
 8.232762928431583,  8.035940524705550, 91.887453613426260,  4.951340515982142
14.468438727756803,  4.299338872558667, 29.514424609585355,  5.092866476804200
14.876186509733184,  6.775649283591864, 33.894495251704583,  4.997699176740417
11.828220415684163, 12.218158110338090, 84.420143860355111,  4.894497016254844
 7.383412756596364, 12.953232945615007, 91.573518821111378,  4.960706428595721
11.409550865041602,  1.576839511022010, 108.069526324119721,  5.301174393389217
17.243040472648467,  4.024331312123755, 98.515000738663758,  4.953378593949203
16.896122024534986, 15.213638569052069, 53.622538807612237,  5.193359929330440
17.472953442092397,  6.695394577907726,  2.486032188220150,  5.116323085619548
 4.809805207907798, 11.242747914796563, 115.558831079924431,  5.076046487311433
 3.380819443545360, 13.405963270947016, 83.560496632367986,  5.308885243129543
 2.979571837456180,  0.431882230552522, 25.172325326063344,  5.224520496626296
11.682518070872257, 11.286688435202221, 104.660861347374066,  5.187973821475629
 5.598472237063384,  4.824985970462320, 32.901137005301415,  4.957949567606128
 9.316461844642511, 14.391750847301465, 17.652333056187615,  5.215480634027964
 7.002934172123340, 11.754053350755401, 96.399226383828562,  5.012813428902357
 0.216974413486011, 12.664524385325015, 14.689134482398265,  5.208011207516791
 6.332083819826308,  0.209267652997374, 37.779541898697481,  4.994134882461720
 2.354555173659673,  1.531332326968866, 63.825597888646094,  4.273042242557364
 2.242489768006728,  7.332566357637377, 14.419060789926212,  4.996515787080815
 7.804228834792837, 17.839151226690944, 91.503712027823596,  4.836528248592812
 1.467514450608377,  9.525844759303057, 38.920432590368193,  5.350758145345041
 3.434189545562345, 13.874652139665619, 99.680117820643503,  5.283255016526479
 3.906789241089973,  6.021826920614235,  2.120813970458425,  5.445197938510654
 3.923361993447178,  1.099471520237905,  3.465716596867233,  4.757655204756475
 1.951024363372960, 17.276433501967080, 12.968816434191133,  4.796929373768530
 0.117270475355375,  6.369850384147274, 89.346522602120828,  4.935738507283029
17.902625188564819,  3.188403879680536, 23.338250577164530,  4.937629585821641
18.088839071026626, 14.692506538639918, 80.887962635460255,  4.770335904751043
13.747810975087781, 15.805203057333385, 103.009458605007111,  5.268125574379011
 2.056460681744748,  8.487794121740219, 33.777960945494499,  5.196959459765327
 4.977693873899351, 17.129016534500288, 78.845953373083319,  4.662439314945781
 4.751840560422094,  8.367470620978622, 29.163514285556897,  5.471081382750603
11.949037905042639,  4.539236299465688, 112.714696020527867,  4.882894756690711
17.769637748158143, 14.616156801682555,  8.265320247046466,  4.987043663956364
18.460136195617697,  1.090770431687585, 53.043061235181483,  4.720029374310251
 0.372265719990345, 12.986744520575160, 58.110529693085546,  4.925299240789148
 1.106718843847337,  0.273018963140862, 38.134500056449326,  5.022902782763063
 6.841584248549837, 12.187572041880490, 103.251230031954933,  5.048399161176248
 6.375513819608451, 17.675087310006791, 42.499265531390428,  4.773772774240693
11.701295124037353, 12.252895425051854, 99.178267515917057,  5.935560808779923
18.640744135070246,  4.374483177080192, 56.772117168781890,  4.700018565767300
 6.180105042407329, 15.396289847933867, 10.093079947083536,  5.169061991732059
 1.219784722979659, 16.290405224107452,  1.478467962382023,  5.017452194847569
14.582990263230256,  6.402837427381174, 20.040646567806824,  4.898486470842643
 7.227575035079652,  2.893607773168974, 23.567022672903203,  5.103143693925967
17.097739735022536,  5.807649193709151, 62.700069051506283,  4.979861861143898
11.331563825299343, 17.599836635229362,  2.993951371909785,  5.088237125474783
10.013904912348394, 15.203053868828272, 87.969241359828501,  5.022684032658441
 4.230430776468050, 13.720932478638636, 111.381406417057988,  4.707036814444808
14.464707534880535, 18.293421002277295, 68.474661624999897,  4.846902225990156
18.608266220286605,  2.091425086875026,  1.476358623587914,  4.577018016329530
11.037515419906482, 17.728198931190018, 36.315572297021703,  5.113263334366273
10.313457167199406,  3.736959079384817, 90.083852793567900,  5.255639830406942
 9.196636450455703, 16.093086796588022, 105.365734187634430,  4.986557957368412
14.022698588956233,  7.034092664949425, 91.752889116506964,  5.206391702809519
 9.895274765181110,  4.097011793833105, 36.513794028865547,  5.233049546829083
 1.684655493324123,  1.660893458096297, 105.246950348934348,  5.225242317493726
15.852660665657636, 18.201692393349148, 40.551252593534322,  4.550592529753747
 0.516048568622199, 14.659385598311394, 89.226535040491243,  4.629118128156562
11.928700592482102,  8.065803149940638, 108.914038232613933,  5.484841628047471
 9.373814539496992,  5.884203472022078,  9.288197712751554,  4.925131157005320
 6.822362447181970,  6.541681462985391, 115.152708406302310,  5.174633798128670
15.894129838091139,  8.269687460740226, 15.322586128446703,  5.566914190655441
 3.356993463394168, 15.866917252993185, 93.212864233868459,  5.452145901871188
 5.880009380973218,  2.852569247727248, 77.663771940547903,  4.763313532466939
17.589091686110919, 15.471453164379358, 110.984862053190724,  4.967840533259651
 1.640022796493223, 11.056416323424365,  2.017215746008787,  4.979678190328643
17.508073606804082,  3.509283031131754, 66.891035370212833,  4.614704759823430
12.079777817135675, 15.777825875901065, 42.189957741892904,  4.957755451995220
14.274228353818225, 13.381324935558217, 15.867639672505097,  4.615420325928604
 7.296411374797668,  3.621178379275726, 41.398091259743182,  5.115517611654561
18.561979710687396,  9.803115903658716, 82.300633093420615,  5.187723775275900
13.666749637384100,  7.672757130984858, 53.626263174936653,  4.448360118679052
 3.955808931590216, 18.551231386316928, 74.157732516029057,  5.341362938116244
15.432130364721610,  2.379257603585325, 94.089055911653205,  5.160485384892459
 3.947488666331019,  3.387403411793642, 54.140650996067066,  5.237418150806912
 2.594142440939967,  2.993945092739880, 29.493847507244855,  4.826520287345943
 3.400953187270240,  2.636657148185743, 15.448454803328540,  4.883425832883685
 7.592982563474802, 15.623067830746651, 33.436028889415518,  4.799761731225209
 5.032045857762736, 15.756711574440907, 87.907062679872595,  4.983793446179984
18.457287085513240, 16.008876425646370, 62.103711097290677,  5.184416843252760
18.559015241280463,  9.525957243690451, 67.084263620583485,  5.477371178048726
14.554538676065427, 13.758035828524566, 89.694453271444985,  5.060046825089857
 3.094305600804074,  4.804961321754494, 99.017870905778466,  4.511008413546384
18.208816599186051, 18.101261698431042, 47.603363724568879,  5.024896265724188
 8.358384221873044, 14.842958077388737, 39.250110826092374,  4.707385072659118
 9.442891126989860,  7.852073538680767, 101.552003457287569,  5.036570954067379
 1.622713234101100, 17.872997631919624, 57.167676051211352,  5.134278917964060
 0.485728432836980, 17.345055842962527, 85.225532461365120,  5.008179115766517
 5.133407390680651,  5.447222168333572, 103.049157264618515,  4.610197204266132
 6.044933479952388, 11.898873193310536, 14.113934492789618,  5.487633389025225
14.351000767948387, 13.186110815313556, 113.656756585496012,  4.582249485198982
 2.493829650265704, 16.574154522567934, 108.143313945173233,  4.588835020776803
14.292619004955046,  4.063163506650413, 70.532660511938559,  5.161163109658093
16.969170519827948, 12.812670150514982, 100.373363351290593,  4.924701081440420
 2.110694581078443, 13.052753918668932, 43.556117035900996,  5.089961920922230
10.268944826072945, 10.872951730294551, 60.482698316268085,  5.371160097975217
17.082751653531304, 11.552716123143673, 19.212793975922981,  4.846800754990947
 6.458392072007919, 11.262427832687750, 86.866896379938652,  4.646700515238201
11.045301262991723,  6.834754065981659, 26.906084131462308,  4.886751334907922
 1.228377460022514,  4.787314815564669,  6.487709472452466,  5.093024865153167
 6.955883294711742,  7.437139028376858, 54.145524834540204,  4.833331708651358
 9.412036864900532, 18.564664570800829, 79.504437868088459,  4.743179789658736
16.486221509656211, 13.314020262284950, 85.182327868171313,  4.795382600185703
 7.551817972312872,  3.911320834837214, 82.330086530423259,  5.361611514762167
13.788728316076542,  9.605696876611010, 70.643247021618905,  4.881071568501890
 6.365026564606391, 18.702040533467418, 96.358506269362209,  4.904673773626584
 2.164134049687426,  4.430300231617167, 41.006475380113230,  5.299112768991901
 8.007039461498088,  0.677435457352012, 70.709633790903780,  5.415859238040570
11.966713747420705, 16.746055759706234, 111.571845481872046,  4.835277159798965
16.052374805469036,  4.357204933438294, 115.520104529565643,  5.053083383498969
12.422994207932586,  4.515880183845148, 99.395856051128504,  4.890654394254008
17.299678090291362, 13.650039613040988, 40.042282855368441,  5.036679977970638
10.285529384246942, 18.462202144256924, 63.145663364248776,  4.651811817537422
17.733557899331000, 17.101376661832681, 16.962683936859342,  5.042910025161705
17.834638183543433,  2.679270664807336, 32.861423953946179,  4.936581780434291
15.809035640432734,  4.203626455271579, 41.095699459863710,  5.005278150715437
 9.912120199038128, 15.342370936971024, 29.383000709641458,  4.522010590701423
 4.553187457953372,  4.249812878390917, 45.572390372282207,  4.949918047986937
 8.004929281819530, 17.083959224152327, 25.044967420259955,  4.685457543606992
 1.211355842826905,  4.117879640677215, 75.878828864378519,  5.511826041589668
 1.122069431637528, 10.533506777795331, 87.041890755126730,  4.779424987293629
 5.161979580594338, 12.263733638323083, 59.756287253615675,  5.304998015664362
10.759765416987713, 14.632516932485080, 12.563931687894851,  5.342335916507539
18.348998322295653, 10.342851600009046, 77.183515079715789,  5.108708231956259
14.240302027159920, 15.569488269224845, 19.948212075988224,  4.642634920828208
15.396180587637776,  1.903329008846003, 76.554233674323967,  4.763115526370753
15.197101010001891, 11.777015487079071, 11.437545636931221,  4.951179062779485
15.731112309245628,  2.006468848558799, 102.975860828748111,  5.292011003872447
 6.693852677984693,  1.475336528080423, 87.576890750254066,  4.636687951832233
 3.210593478710878, 10.393331488031922, 18.486628779170029,  5.357926757710993
 1.674099732468910, 18.683233583646107,  7.544409373867223,  4.865392539587885
14.055633689817475,  3.033522497457298,  2.449797029268574,  4.895428035408242
14.102281179806791, 12.643502226965099, 57.231739110800724,  5.277152786866149
13.847024692147672, 16.279746871193073, 49.221066347836505,  4.958411005822705
11.682161678624025, 11.472633315302481, 65.529242509548709,  5.174418042846144
10.733385598854239, 13.062108385395376,  0.598845627540279,  5.051078801665704
 7.716969078576655, 10.909666769980918, 21.137978197351821,  5.128244446751990
 0.323141745008620,  5.744945509067031, 102.676911984150365,  4.799632240440788
15.299560148699761,  9.030424525952697, 87.236806850751904,  4.928858953362863
 7.494039967858980,  7.874920521554950, 17.117357513482535,  4.948506692443130
 2.444695457169466,  8.569476387774948, 62.138380033231492,  5.022438590671900
 9.590158916221604, 18.460929773066589, 84.293711579511793,  4.831921190305980
 2.679750234122521,  3.321385999977981, 115.077672971698505,  5.318577264065432
 7.084711316756993, 17.473536173979255, 109.800973886755600,  5.207287215664515
 0.177427004556263,  7.838872314663513, 21.780790335429081,  4.939747709280346
 5.733296818449089, 11.621388546934540, 36.195437015269839,  5.605414555847767
18.609797746660494, 16.702312585494806, 102.629886308676788,  4.647075481372431
 0.970891989873797, 10.105683704561448, 26.080160744406989,  4.886741683719074
 4.026433589058606,  3.086634214864537, 59.394860424766279,  5.201302002152648
 8.758956935500812,  6.966395560226049, 86.376311252406623,  5.055710810062928
 4.917849762184344,  9.035007160264151, 99.952331860132560,  4.848841758926728
10.264055749907097, 11.544495804659910, 26.817615697887181,  4.662745326183680
15.431734695358156, 14.277836338195311, 71.226313165383573,  4.900404505750481
13.867707889352976, 18.654428198360772, 31.853079884819955,  4.986362081336495
 8.029163453694215, 16.190996400952137, 100.364051740445518,  5.090071077417216
 0.158075347835591, 13.131553273653887, 115.169044549516968,  4.990286319666999
 0.906453244260874,  3.071718603646076, 11.220401151452897,  4.969157500350168
16.044778928409261, 14.182621779545210, 45.031244015871756,  5.298217583035378
 3.549127670710801, 10.537073608397465, 52.363269290762879,  5.026456535487994
 4.410254406457597, 17.960871002304831, 46.992238797150669,  5.038773357777759
 6.809712532813566,  3.066833940721012, 63.793675607615448,  5.151324089495676
14.287051724596045,  3.053481674107991, 54.848459093008060,  5.175503529802568
 0.259452980862523,  5.970565599878092, 70.984014163981470,  5.121955852873939
 6.438914676754228, 18.639685321840524, 51.440051227145567,  4.799184317486387
 6.747355274673969, 13.153517992236342, 68.253214027948545,  4.861798914112159
13.707239715673349, 12.999969023994035, 108.959551908332983,  4.903500277276988
 3.511181601349733,  0.834290652722525, 20.076697179075342,  5.049274292688691
 4.577971066478824, 17.100376951909876, 61.251073422043206,  4.882009491385261
 9.770789407324109, 12.011788053899529, 77.652899574303575,  4.984864906027573
 0.364207255546681, 14.729667456392992, 74.604191046216272,  5.183398973302253
18.156765422304439, 11.721763297523941, 30.315644220288476,  4.718550784379647
 3.031749854577880,  0.196093324341158, 99.945578468260194,  4.888263838401298
 0.855598263211803, 14.957853873361445, 27.012097174455160,  4.990781888145113
 7.388687315656652,  5.161034083056640, 68.256405810167649,  4.774686992592422
10.218173250133569, 16.348714464081521, 67.350378938196073,  4.744293248374773
12.229466739271665,  3.315595460099478, 80.653829688955639,  4.590778900774802
 3.696224942513153, 15.427660270214428, 17.252720453205594,  5.050900812165106
16.522403125826553,  8.824265557660830, 106.534063114862036,  4.770635262949626
17.933818461071947, 13.566009260526299, 106.321716930288858,  5.122043219941688
12.739418659020803, 13.158090047818506, 37.998131499008352,  5.006164594964458
 7.162515433959801, 10.312975430625380,  9.371433333416723,  4.731770736289110
16.032298750778338, 16.496928637636763, 35.988119609596190,  5.190054991488369
 4.491297126306162,  8.598830955611236, 43.054666364264300,  5.057139718092063
17.881943208537589, 10.633483782494871, 91.630410444274389,  4.853246306482632
 8.278068186661997,  9.169350286439087, 81.697328630108629,  5.328078363506888
 4.969720558871916, 13.712467149193071, 72.795769796196197,  4.909847241512717
 1.887801547128508, 11.548140046893183, 95.381437642856781,  4.643124562679561
12.635017442597627, 13.974769901814172, 33.067603642846564,  4.989132412753606
10.389187118701084,  6.883850892758956,  4.465234293554669,  5.118791202199091
 3.275493917129126,  2.094777169092449, 110.092323151281462,  5.003818793321628
 2.282404746543901,  2.714830732234193, 49.512132768841511,  4.641216843793686
 4.837880212169907,  5.601289458904737, 88.915674999453742,  4.666764190297437
17.770273200251825,  0.484738051508068, 72.267347746864345,  5.404470826784229
 5.523056947300894,  1.610489518591899, 10.162578147808265,  4.922818376691900
14.087533438415489, 18.526244236334108, 98.456685074838930,  5.338487115296565
 3.438843734434191,  0.311900600688474, 33.616838574855223,  5.145342188318282
15.178643543321597,  1.390198522643648, 111.285202482526373,  4.576227097941944
10.417546018178809,  2.676027485419020, 95.188510406473767,  5.115327453066149
 0.197721154003835,  8.627723003978241, 98.768586671602890,  4.905666195944367
13.916386708691164, 12.908776084507716,  4.538801154508056,  5.079018099496254
 3.490865178021258,  8.636255556518254, 74.548487422466977,  4.943881201821273
 1.748443430400048,  1.833332424231203, 95.209064847003404,  5.349754282010849
 6.044990072927352,  3.324538514959261, 92.906025531510110,  4.826978166573533
 9.143033377515312, 16.044361746536179, 58.633339886234346,  5.825452982927639
16.968574370701525, 11.597183456416678, 34.993161529154115,  4.926140829375669
16.396241631035295, 17.960558572374453,  4.689319789327978,  5.171162378801095
 6.706608525735082,  7.263414207949219, 60.048752962223695,  4.807602034275098
16.120462356535906, 12.829841744396823, 23.926172751750101,  5.103192869087517
14.042669170736428,  0.903394518710291, 44.914108743203620,  5.348705770387939
 8.861334979674449, 13.497405026278717,  5.973955026824465,  5.176186257822604
 4.419249722106003,  8.925637890629519, 69.591797446392491,  5.150378463618707
14.699173794432868, 14.887324661443028, 28.462517924401414,  5.255093284173284
 0.389807290723694, 10.588101242758540, 110.459458333435592,  5.341640133860430
16.157183793278140,  2.504394846174229, 14.661447597097871,  4.930540880648715
 7.630650047920392,  9.390022814355762, 49.710312075560907,  4.910671205121274
11.713183867042487,  1.575971504345614, 40.459100330495737,  4.794226030109890
15.600792301869815,  7.838269071366397, 58.309027125317918,  5.010925705752766
 4.580512834865933, 12.988913501009790, 48.019223572725188,  5.109588326590990
18.300390856434088, 17.223265776242421, 21.949754697633356,  4.991301315831302
 7.651795206715750,  4.823250755028762, 109.980966259462946,  5.311295762798543
10.416576232453179, 18.602385973993886, 20.875907687199451,  5.267212797374170
15.526091382126488,  1.784097990347715,  8.908470045857452,  4.905761622184079
 8.332263840796513, 16.185934841193959, 75.407548612814267,  4.917277122114496
17.960201798447500,  7.721606367586928, 10.459769169347188,  5.053898312331841
 8.651655770302737, 14.183498319124327, 50.930305300105076,  5.179892193434796
 3.007528770956210,  5.529673382882037, 66.084897068790653,  5.001340510059973
15.783040227175116, 17.973520321810469, 107.176626275739039,  4.829836935809298
 5.145612721666858, 14.682557208007683, 55.004066515957142,  5.309244437388118
 3.990446044774297,  7.375761870564051, 84.316113020035488,  5.337524981887137
 7.484417617191461, 18.293106731618899,  6.233725075615046,  4.812085053193233
13.997328112761718, 17.517530843995910, 24.237416318456880,  4.768727314585888
 9.352090699102416,  9.405695859115669, 69.202756242005165,  4.455368670618153
 6.173258260906247,  4.163454429932642,  6.197597588358203,  4.593591625268233
 9.133322542433234,  2.907390497064928, 54.317085492706184,  5.179311019046502
 6.909571112154410,  7.631673047205052, 24.658874786419005,  4.625139794390505
16.478792322856254,  5.724570139643432, 79.690409714187822,  5.354687665119890
18.103241170756004, 10.522379433702531, 72.353282262864795,  4.570278297080275
12.221520759379873, 18.361553900015284, 15.985637581422655,  5.167753905381765
10.590991884932743, 16.122056444148413, 95.319065445192692,  5.213441262909162
12.811367478503740, 16.066954395224940, 81.686129616273277,  4.731216979166673
12.912136214648184,  3.497387005432819, 23.724718520214921,  5.052710305719435
18.301330877486031,  1.779073771080534, 60.524198874174232,  4.449385923678154
17.824588870654921, 18.532696707880756, 114.860720192407726,  4.910908431018274
 6.915423908516381,  9.142541568099485, 64.861241604359435,  5.507926908280126
11.955957638949807, 16.901508985570914, 53.927912164796879,  5.260389422715036
15.056357964633751,  1.522909310166130, 19.668331071242392,  4.913963385750606
 7.330455475150656,  4.639345134944332, 13.497860273360695,  4.758951719185743
 9.475164684121005,  3.230654095543267, 46.029792048558939,  5.141289879633319
10.696251994915674,  1.099346083628085, 102.510827209592563,  4.977698771492322
10.809817343608415,  9.245216203189491, 13.310101448523779,  5.507429210868054
16.107961464491961, 12.741769611583107, 95.583792515662410,  4.780915349324160
17.020452946017212, 16.564613940963621, 92.856199544548687,  4.709580452329002
11.716135909562489, 11.301593133136812, 93.674310605748630,  5.217624570877637
 6.257878850955399, 15.431030650431028, 21.208542646846553,  4.367283940572815
18.332220851831888,  3.898685523798563, 45.463945346140100,  5.097671588472951
 5.483955320134151,  6.493202965793058, 37.617914360567973,  5.045977101642919
 8.020715575888602, 10.049975669083411, 73.560081553461416,  4.741516088086757
13.396392253138330, 14.874819492488779, 61.907311966307596,  5.161253019309559
 3.869977414007314, 11.860625073281190, 107.087510923519147,  4.676926364448021
 7.669576718999291,  1.485257778940899, 114.177422326147877,  5.251378288792165
11.196299233401900,  0.857232700982346, 27.700337616806433,  5.068369329630252
15.282849976909169,  3.099950499621691, 49.657848227753796,  5.394315477178930
14.963028392309429, 15.883592612345522, 77.306957837455911,  5.014251132648629
10.341775138032546, 10.209822176129537, 113.682091680504939,  5.402009356150338
15.181815906709787,  8.552002086068839, 112.957963719859308,  4.929603979574953
14.868194074691051,  6.219714259215420,  6.786869198734116,  4.973042656216374
 3.919375938321128, 13.037576018649942, 31.393013322421609,  4.995136998475501
18.714202830427734,  4.423112745717666, 18.321904750653921,  4.779427009917895
15.899108845951995,  4.161596128748601, 107.552476030488450,  4.823563792123359
12.598298044836172, 18.074705777138213, 73.230951222121305,  5.377953889581240
13.558883272886311,  9.894070091603748, 30.090046847414541,  5.184067332493948
12.595316012836754, 16.536060014121180,  7.971241151278616,  5.247718188865860
10.590269043184284,  3.104140885620369, 76.133651581274151,  5.023331773090137
 4.878303260380692, 18.430571434982792, 83.377978049879687,  4.761090426054738
15.385106797843841,  2.979298035236574, 89.129102582787922,  4.828898613363121
 5.524163742977221, 17.346389660907647, 29.267685577939798,  5.120660719310035
 9.113328125898414,  1.346407848961147, 32.264717922281690,  5.007595309053399
 9.424386509220479, 16.817457662993181, 46.462905038902903,  5.299783185504662
18.399518396492812, 16.595975002824627, 31.520767975284109,  4.917760822286334
13.766352116887234,  5.423370170357681, 11.572279205414302,  4.761245116152995
16.046775719734644, 14.119535399126400, 66.251138018411623,  5.125389175708762
 6.693112937785829,  4.541593150783859, 50.021335065075355,  4.928529197238883
 8.486265180216504,  2.882512265343836,  1.695077725055735,  5.172176495435910
 7.187652813082158,  7.264743275606035, 77.144596284231710,  4.486933880635384
10.774766536795740,  6.744526208404101, 57.288997598339975,  5.067662735553101
18.599998377350442, 16.450903043209838, 97.328197204692614,  4.772170267599496
 3.806312656822951,  9.177482963322303,  6.124881664005759,  4.751316580773473
 9.485343256115383,  7.394816317158003, 96.600602290859996,  4.871995217128722
 2.575721644476547,  2.835874424856241, 85.946454565755474,  4.619083979638841
13.802218381997340,  3.478825098158327, 59.845923599453911,  4.900300538233584
 8.176996462329420, 14.393020929924532, 81.796865625680127,  5.090240836964580
 3.140561035672805,  2.077728636626345, 69.650150982226592,  4.924526480739063
 7.185809325398963, 18.116818405798057, 14.481620912836243,  5.351557038205347
 9.073999764224025,  8.209679091821744, 45.099807025280171,  4.994731486982555
 3.711582987287028, 15.213973093694847, 39.508169352729510,  4.627970495584290
13.995452236995495,  7.037094328515494, 66.429390277663146,  4.985989995021589
18.770770041396545,  5.921187737472810, 52.211772954322178,  4.920023034204253
11.349036651297739,  2.406365519498056,  6.457577615673442,  4.857309493706078
18.434291345007356,  6.496551406870541, 94.310080037029380,  5.038520950399315
 2.317646132681823, 16.174807233376541, 51.079492227041882,  4.813043621642428
 3.726177054736140, 17.123725011846851, 114.730507313140009,  4.891468949926703
 2.500419970000338, 11.594225716604216, 10.205728820941253,  5.073002864537797
12.447547299943928,  9.572493588783640, 23.083905871510702,  4.839443919977682
 7.613256403300197,  3.530051166921875, 99.455492450705037,  4.915397054848705
 5.559702719080722,  4.460012568677458, 73.126717988444156,  4.794139451934088
11.269266177482816,  6.197777365989132, 49.974304175311097,  4.764805715104933
 0.762079486393658,  8.144654030198989, 115.462963290420049,  5.072051222079319
11.412537546584783,  6.353198495719218, 41.199694756652057,  4.770514077732007
 1.769391889400322, 14.730396310939607, 35.341884631141276,  4.612330448300177
12.470466063458561, 10.889276221830416, 42.346516482894998,  4.817284560002395
 8.211282721796072,  9.590446051601095, 40.141814810936040,  4.554705589855776
15.391037538030167,  6.956981188636021, 74.677489696840553,  5.184869462655413
 8.687940453714809, 11.124121538793386, 31.513120347199028,  5.225988334379713
17.083325732864250,  4.949004239272822, 84.858482373292347,  5.162386771279412
17.788432899123745, 10.157024657755310,  6.107338271841455,  4.920573422827830
14.906571495900149,  8.353522303439048, 101.782992002318068,  5.256986231763591
18.486737202625463,  5.360401198422992, 36.784192445317316,  4.654429679707316
10.481098556941536,  9.181490536312593, 35.919955597435845,  5.033753770493808
10.784011658966453,  1.014433788797266, 50.143029348692920,  4.562646654825799
 4.538220999128783,  7.445426897350207, 95.249215677857379,  5.107928122419416
14.365360312205986,  8.170332540255950, 96.700795769420395,  4.967778890509025
12.665290918540959, 18.141991673259231, 91.154338231456009,  4.923425421329669
11.915137934673881,  6.624954022472878, 117.145799266654734,  4.904966546065584
10.509883735928007, 13.667119119768952, 71.423604163220276,  5.024451045821472
14.250379878132909, 11.605574451488451, 80.039984370263255,  5.190459473792374
 6.446170660122671, 15.930771582299817,  1.500947263418367,  5.412755110643252
 7.050530538846426, 10.194545314190306,  2.522109994699647,  5.032532466581989
16.672865342497676, 10.874940515100784, 62.273222902134258,  5.202279592515465
 2.833871863181905,  8.379404382954839, 56.998534879748291,  5.292803983907175
 1.093842475523883,  0.733890336430678, 90.127686682103743,  5.125316351860235
16.276956121708984,  0.820911495030854, 81.789042419878200,  5.178650932859244
15.571879145385260, 16.826036224082436, 12.313867916234443,  5.224194742234519
11.888252911211008, 10.019815486837908,  8.152863928707367,  5.011505457849633
 1.781266363257137,  8.309967482829475, 47.752809769778978,  5.804766201903071
 8.545480600499744, 12.386258842078071, 109.013946460877364,  5.490881989652166
 2.831452348981687,  5.462638386045580, 25.413097537295297,  4.719054639782493
11.013168893041412, 10.522518019501877, 88.828665044575885,  4.688643244062598
11.840773379217913,  4.765951742312826, 16.169428146438321,  5.015927423157680
11.335276757766504,  2.831620686717997, 66.613391119627792,  4.959207783981884
15.262486879994540, 17.748393996795201, 57.959428104529941,  5.291114140221447
 9.851844536291980,  6.148151539630498, 20.980410209949856,  4.728938452196630
 5.535719405246749, 12.955875147032645, 26.547082487637873,  5.198614006317777
 0.324612781954959, 17.906147556649390, 67.053349447577105,  4.748171724137640
11.932671563272974, 10.094448101295896, 18.297331707985972,  4.780289016655072
12.539446713302851,  0.607498931684128, 115.765868114951260,  5.138925550521182
15.037486783976512, 10.471064187927681,  0.120473035025320,  5.031738909984346
14.220797800591638, 17.719175089590966, 86.276790936077973,  5.347390551614422
13.146714917733846, 12.092808126350713, 52.071690678508944,  4.977498876018990
15.053193417758603,  8.642551690419870, 38.650005226760875,  5.223599099082570
10.316063920140417,  6.228302721242060, 31.805282811990907,  5.087995246614506
12.219479653182074,  5.220664945649866, 104.645881101055892,  4.788564824317318
 9.355325466208342, 11.621258569501146, 55.371969142277536,  5.119626214048749
15.878268153891058,  7.112690697093455, 25.586302498426093,  4.969242637515321
18.639505417044273,  6.922707587149763, 29.598417117864436,  4.760855898681210
15.559631156499375,  8.684306011332477, 49.533859884464867,  4.772454347270657
 7.398102320487410,  3.959875568714323, 28.421281451279832,  4.835984583774414
 7.940692604272187, 14.285541885483385, 63.588304547619501,  4.959770218380455
11.696118382246700, 12.098864418734996, 47.171204031624249,  5.239792892386022
 4.644220499082610, 12.207921188452609, 78.108855893226234,  5.306901660606957
 7.525898323645240,  8.178131990905104, 106.128500233101533,  4.904950407782231
 3.774921072572894,  9.744196259713590, 90.938892844507166,  4.780314462575616
10.871401331292724,  1.371344601577722, 11.337553129927544,  5.152976688973289
17.195156908766563,  0.519493892707817, 27.509120830506944,  5.050798066683111
 3.482536900527355, 14.228390208380992,  5.697760004450398,  5.404554685626488
 1.389054601660997, 18.016644788294311, 43.008242790836903,  4.954292149082019
 5.175434483078403,  9.060846573780175, 111.141844208235028,  4.769991626832066
 4.565017083996660,  5.947368446984976, 20.653441394590434,  4.876841197999275
 6.814389879346843,  1.747610328138649, 105.675205257678485,  5.066190807353148
