BANDS
8 8
NANOPARTICLES
cell(1), 18.751
cell(2), 18.751
cell(3), 117.193
 7.602152465978277, 11.410174051924027, 87.403465033106414,  4.823509235908760
18.184212351421781, 16.252532529615731, 22.872976795057220,  4.895447517684984
16.696077582997109,  2.523964141252667, 90.949372778595020,  4.719274696660035
 9.556879208395976, 17.630119330008629, 16.945487884359949,  5.045003284445373
 3.761101806640289, 12.381030354623002, 72.436710717288364,  5.239695538172638
 9.573357201358595, 18.713035243050175, 38.469276896869978,  4.529552979055165
18.726931833152840,  1.141059391531118, 45.100293831246859,  5.064924157965257
 3.106456270782190,  3.809322027373519, 61.559845565562078,  4.956376022054763
13.117028971722142,  9.960055012335316, 52.863501927977751,  4.896164231100979
 1.649893548752233, 17.496094168993476, 30.699264365277344,  4.424810928980095
 8.275908896006960,  1.901240074927494, 62.594554970737775,  4.564598983037409
 7.301059760887577,  6.598507655577359, 88.299900138224103,  4.801965722227478
17.845137310058696,  9.693169843293310,  0.162225609393047,  5.483259509919657
13.412572370708881, 15.287524580652194, 20.136515322792821,  5.080832536493403
17.158404329787761, 15.971174277883495,  4.625505357418968,  5.049020118419052
11.941398765759411,  0.938150277244445, 80.194313367603158,  4.811307855884102
11.938269987342187,  0.861891783520131, 115.645614994793533,  5.253571802112489
 2.983313610002752, 13.072204943436912, 29.757880502440475,  4.917462000226179
14.884727769515697, 15.795287735888156, 81.289449438710193,  4.905052452409829
15.039900111326837,  1.850053997005506, 21.990804983786770,  5.047266307855990
11.062669755159247, 15.755401005976925, 34.431699754856389,  5.432064350994001
 7.481824667912594,  6.020162152608551, 59.883000241614027,  5.387574178649280
 6.943718923481095, 13.469103791238158, 82.980333754568846,  5.012319392622518
 0.698044781319034, 11.455481279301612,  4.890108466315638,  5.074046286820685
 7.912068661898792, 15.815298688333810, 49.813108382511494,  5.264830046356427
12.110558310769134,  3.768444984058839, 25.657994983518101,  4.836571411617324
 3.768504268820374, 13.288321054915123, 47.654534811937339,  5.326092141416708
15.288017968294955,  3.703405545237020, 64.752171514071762,  5.208549671706195
10.849534098304970, 11.243447731860101, 21.552598693413330,  4.897155819688818
14.946014349804219,  8.200799013421555, 39.104605604266489,  4.618390644186874
 4.819627910355845, 15.824526332668688, 25.972460559175257,  5.100316498062186
17.892603555291707, 14.412295859871456, 17.811847481530872,  5.148038446756559
17.821378358502187,  0.355318636701545, 67.828594614148443,  5.195010399048026
15.773412789086789, 15.992182153104290, 59.356117456720668,  5.055647163200289
14.755284899656994, 11.378772648460458, 61.036076156017053,  4.961982030797424
10.180185276050240,  9.614422325872534, 91.050041947861928,  4.740140722998889
 4.555399607939886, 11.473723742186380, 34.308270127919315,  5.144615410761503
 3.980278472206694, 15.240627517189971, 65.363904920137216,  4.549753821094206
 8.780427665751201,  4.274182682537702, 71.591018092168284,  5.040337215172688
 5.198045438710833,  9.836880582501939, 57.359233259190027,  4.810711216554940
16.956840057802118,  0.932380791292164, 79.671585320216664,  4.476926588154410
18.105959782667981,  9.796811377272121, 20.857191719406792,  5.302886773014741
 1.704296207542032, 13.917477317066592, 108.872058595146100,  5.248573411729647
 4.711738145188922, 17.890978892350784, 41.173683881883797,  5.163658143291263
 3.941211090308649, 16.762697813820786, 74.826931461504657,  4.747977824904334
 5.405101697640172,  1.785598256449119, 36.701990614228286,  5.200220794951812
16.356402087366554, 16.040682240155721, 47.016324529920588,  4.756748645422596
10.417363781335899,  4.446585273559239, 11.664306654253977,  4.875065838696048
 7.068403508897537, 14.999484872619007, 69.240205231753237,  5.101319616766733
15.939615184465573,  7.220838390525882, 25.088897101902234,  5.506004746928048
13.566548184566168, 11.595604759550286, 93.976151177128301,  5.048288424587445
13.111065774086812, 14.871479812754835, 15.367263971749857,  4.488736976400734
15.895785803071607,  4.374448181428440, 41.955408381088830,  5.058250624396839
15.575482096867999, 16.496248780499631, 32.256644796928107,  4.695294304535795
10.224057362375699, 15.880138104585575,  6.454444707459920,  4.688083739640258
 1.047904970518105,  3.917786410297676, 70.944033062223681,  5.061205677553800
 6.689996593603565,  2.452957321370171, 51.830885227136726,  5.398607363630521
 2.152068788035566, 14.148653421922825,  0.662507544940813,  5.358976227932733
11.194403723026806,  4.967876587181553, 38.188313363306470,  5.452285076515372
17.611157644595956, 17.961796989506258, 108.918339951815781,  4.632898950621134
 8.326823280892276, 15.470449311123659, 21.285923423361215,  4.940852536922293
 3.258773143401497, 14.953948210917233, 95.271977249859347,  4.850704560246794
16.719127236838560,  0.611306217034721,  0.954385085223594,  4.982039264512700
13.592037378328499,  8.449596083359710, 43.714448576889303,  4.941394343967276
16.818299901182272,  5.211035121222647, 18.357078086132997,  5.454883697119005
 1.342715703896018, 17.163946134746826, 51.105595630580545,  5.038909555296392
12.372040524976116,  3.744487370650840, 52.720090554189660,  5.444882370905057
12.618729723293638, 14.308885221046395, 44.592682819125883,  4.782282263414853
14.180614248007915, 16.152584011343425, 112.045607920972046,  5.306094567905284
13.980707536114544, 13.200072509521629,  8.233105668655881,  5.167169538185719
 1.457511344810050, 12.093706174426874, 25.033380556598061,  5.114030007794592
 5.009976005334543,  3.404221974474743, 94.976236019801505,  4.975371244194041
14.184730648557705,  0.584756974609079, 75.861685948518016,  4.967346354025977
 3.645543287877860, 12.135512451019684, 52.951155296046736,  5.516141909949852
 5.280644958594537, 16.859598370178990, 53.954132374047212,  4.672224988693593
 1.046306800245047,  5.408789863020896, 97.395413563670687,  5.138015413702441
12.314859847350338,  6.411565899091573, 61.657900739943443,  4.936207149729702
 4.075092016959699,  6.767528277940818, 53.533494605077209,  5.250250680848176
 4.986404517582710, 18.427067824553070, 98.412381187808023,  5.127687522412150
16.255718265661756,  1.227840380081434, 27.273555355537926,  5.400612955241204
17.864455729991736, 10.160770249840963, 29.002810845364447,  4.874655926160448
 5.349535986669394, 17.278800765322966, 114.661328564763849,  4.828277769673075
 3.105450494192145,  6.724246636234315, 36.426545323205566,  5.315285520379430
 0.227544051596524, 14.313402420999507,  9.103676728873509,  5.151430649508526
 5.957752635529600, 10.391846572837991, 23.299018807963147,  5.107301859704438
 8.878551827484024,  3.703146411653933, 91.909561653361379,  4.907364839507982
10.647473566643695, 14.734227520968577, 115.406824264602065,  4.840104539595882
12.326039033915601,  6.473155172514217, 93.999605610825085,  4.873765772845750
 6.629377339005496,  5.168165414565611, 22.967590594967071,  5.349503726237205
18.111649172570111,  7.596487512646873, 78.821039727464722,  4.799022882326232
10.682452306580775,  7.384260775537991, 49.280509510942473,  5.124970877839012
 8.064857997350478,  0.523877122792189, 76.932297558010958,  5.288594688406950
12.095319391949021,  7.882627418296742, 71.891255780771417,  4.777200096391262
 6.224711270689198,  7.624668119638005, 92.868331635584596,  4.752088544462473
10.308241688665543,  9.774501384918111, 106.409672710504680,  5.102890737112478
11.795551167282362, 12.397145127296923, 83.415541267906889,  4.908106019678539
 7.753347875771663, 14.568192371926116, 30.454291841707121,  5.161590358312480
16.624580594184408,  2.415718650805380, 105.371437321481707,  5.127991602595434
13.884111351729731,  0.775290480539113, 36.637534491332445,  4.967373931750132
16.637324743184198,  8.067918752479423, 94.916026817069863,  4.484253557068632
 5.644976594899924, 10.046229337613306, 14.764189085717170,  5.016839413396116
11.195210648063155,  3.986407927136718, 84.273762137046006,  4.952591286698681
15.833294095373775,  6.774059503198002, 50.140554296945176,  5.086590099354433
15.560676047846794,  5.800387719213268, 85.636379737962329,  4.886964539960156
17.427704970379864, 14.999368670689055, 28.062872225371404,  4.948650576330225
10.909375833025447, 12.477992333247158, 71.130283327300688,  4.834987957469805
 6.748916530758410, 11.892447012109391, 116.683887912470652,  5.127292532388436
 4.495292377993065,  3.656863568519742,  4.902222020168498,  4.601334381972788
13.438615551928553,  3.919313625072557, 46.505725467496234,  5.323670156442351
13.971144484101103, 10.478873487713789, 17.541999578026278,  5.380143265474508
 5.103199124787667,  3.564948572613105, 84.832753980313910,  4.979648586309597
 9.256047368717825, 13.404222291458931, 25.719107338202495,  5.014789572689227
 0.199298241665732, 17.477034171329379, 97.914292664120666,  4.670860527432484
 0.068150640216037, 12.939840336773051, 81.318782541462198,  4.815263025618330
 8.564929942123536, 11.184062644039894, 51.682691778529723,  4.807609705566752
 8.376935496450036,  4.017012159227651, 80.421261515471372,  4.593091895202886
 8.192285832963197, 13.522132562189624, 56.021052513485827,  5.052826135682758
 9.294945782700381, 12.645141373906027, 17.029911217796389,  4.926928679299346
15.441096939744202,  2.800820450267071, 32.278988409565891,  4.980545014900359
 3.378651349170735, 18.257901688418769, 70.270630015000506,  4.839711114255400
13.064757421053027, 14.630594577126679, 74.920279622782289,  4.883241081237197
 6.564403155179754,  3.682957904992171, 101.497946009770132,  5.461857208522004
 1.046889295422401, 15.124128261764783, 43.555271862137637,  5.174205153860273
14.282735394542533, 16.854616000742478, 96.730951435578007,  5.032438160754596
17.446729147445605, 18.463967898394021, 40.232405577479241,  5.352096743519355
 3.216145408408618,  1.172920987116017, 78.417378105188035,  4.896106304438952
16.550262876762677,  7.994943576220723, 74.102317466735059,  5.159062701264520
 1.934416106729107, 11.355040925572785, 77.094153002107007,  4.942737317331022
15.626374843516800,  9.518854464797174, 82.482162130195491,  4.820846705296458
10.115827787464713, 17.857473891563732, 54.098061112942467,  5.182381248991200
13.157048845051472,  7.256157004256069, 34.022375372322735,  4.827372129870080
15.550820708475571,  7.247685305082461, 90.354080473801105,  4.980778811221716
15.151580794062060, 11.633557142053181, 32.893605227398147,  5.048267388756750
10.967543836908401,  4.686644345099373, 67.155242474778376,  4.864011946109505
 2.924807648948004,  3.226618649892817, 105.800082907613842,  5.085756893812664
18.334499011806166,  3.474539762347739, 75.823491930210267,  5.146214385213980
 4.024513246443645,  6.008327907582827, 79.515531473400728,  5.144424210153947
11.218032541636324, 13.134874814737975, 66.305747134232689,  4.921399313627175
 9.109546845487827,  5.318526488592555,  6.781348939205867,  4.865430035862444
11.188524696226287,  8.354588435708914, 80.490137493530625,  5.102534209054582
13.651602965797457, 14.898366365247517, 51.499208400738638,  5.399470499413686
 2.040173447653387, 16.982621480710065, 104.550287655624231,  5.354339391244886
 0.486558656592767, 14.028596092740031, 33.662592040581245,  4.545586239099873
 1.303173303296177,  5.902671095387444, 92.265763107493711,  5.162008540454657
 2.486767834866561,  9.192522512270902, 11.352179843120021,  4.423941216676838
 3.115807668215239, 12.127833853909827, 113.322901186445606,  4.751898382824630
 6.860352973573172,  8.247809282936823, 83.454907837969785,  5.390206560542183
16.348058514250631,  1.759062159450924, 113.400758698054105,  4.795702744600773
 6.679879973838089, 15.101911337367612, 107.641364368280549,  5.256430692633463
 2.970313175632179, 18.569420679667562, 14.362950129715005,  4.770178969529463
14.465932990387991,  0.555386513915766, 16.992512394248418,  5.327186346468829
17.408598304406219,  7.245074518754163, 105.532271658647019,  4.655562871243880
18.022166831302478, 11.423606916138679, 91.606701815244449,  5.042132419377093
 6.199405584580685, 17.894202567925003, 92.578223505597165,  5.052549180409922
10.358248036784152,  8.482514339741622, 14.454496426940104,  4.929298289662155
10.019501855995786,  8.237906124993648, 25.392732160805707,  4.995024652931527
 9.527375465940224, 11.201193118311968,  7.100776560128655,  4.852281832161069
12.838352683926015, 13.687639782100794, 29.067512963143173,  4.791897611380876
18.430640853933429,  0.107929355477244, 62.679965385477040,  5.174040801060844
16.359289898160398,  2.899065699416610, 58.807141998334522,  5.220309263770381
14.019378347720670, 11.022487698283630, 47.994243265960357,  5.077140690101174
12.529601818368784,  0.307443468658464, 42.542898421507296,  5.552685137075746
 0.657684498544024,  4.038538757222530, 22.894669954096223,  4.869203034013459
 4.291716659762702, 17.637865164181047,  5.999024571307944,  5.190366297151218
 5.487392011325237,  3.421619925684973,  9.665391838710301,  5.087858031424362
15.198495635476190,  3.147695519012908, 96.488589696828768,  5.219828030515805
 3.511379691973211, 18.574017204393094, 109.387449580539965,  4.759168749950768
 4.567920160451750, 10.905628618967709, 67.435230587586148,  5.128499937434094
 7.308977093860289, 13.777723503928485, 112.290446927981051,  4.491403795383611
 6.947922286444083, 13.317232032863656, 61.260469694318296,  5.197335005387296
 5.677297672715017,  9.376142495947553, 99.206065332062821,  4.794688545783980
10.891507688676784, 17.381007487550193, 100.092266259148190,  4.574833551239965
 5.429068016976379,  6.979607844526661, 40.990307319759793,  4.647582322676571
 4.738174057680544, 16.420397022615660, 33.965694425029525,  4.744951807874497
 2.952837380606875,  0.480460431368233,  1.323634744202191,  5.014529864263070
17.899595565118673,  7.596938169860818, 33.375048513201520,  4.762586414571576
15.675766755929718, 11.684818518784578, 107.796344574564372,  4.747631471802418
 4.976974677096917, 16.826551834133568, 18.196113224335893,  4.558620018568390
12.540132245891193,  8.687963622149255, 10.033085675792345,  4.939021777113030
 3.989431024394698,  8.902160390704138, 45.080043740403958,  4.832370188302735
13.127594602377767,  8.716013864977644, 29.306935424744960,  5.044080758504058
18.026596067455237, 12.869916942536102, 50.072383072390032,  4.652766080101717
16.547526901683195, 14.357424857752394, 100.504110134515557,  4.749421191599872
17.106243870233051, 14.982777187555984, 85.752729870187181,  5.192505907904319
 1.497419088536307, 17.563115375341919, 82.525608116586810,  5.157778622764490
18.270303570616917,  6.463727074751438,  4.694998283667182,  5.038530665447920
 9.326182965223945,  1.065437051186495, 96.361052061103763,  4.859557266966960
 7.987895162192462, 14.083250698224900, 74.693729085493587,  4.916867371120978
 9.172304699092704,  7.349352612384349, 54.932011843596577,  5.122168807451677
11.542202089794845, 14.757727650175056, 61.883774101870344,  4.510066376802047
12.301072152089892, 18.632413134519695, 66.612878076796775,  5.166209728837796
 0.658746056891994, 14.282786559023869, 68.748284492750258,  5.122011767545097
12.615776479862557,  3.679992435431424, 88.887485024123322,  4.705005667935622
18.323887521875541,  5.999147176368630, 45.931296456892298,  4.806587805715463
 0.707972230339179,  0.559892677160741, 18.787132781010445,  5.275608865504170
11.783713997512280,  3.425864942396164, 100.452478182522782,  5.195469374797619
12.529103642021758, 17.175513451201354, 24.805550628290327,  5.128349599322252
 9.081748181943972,  8.999663149267857, 68.308128783654126,  4.821812331602390
 9.493003953443894, 15.688987160567766, 89.281949171852887,  5.238830976677653
11.940237628541814, 14.990711753183080, 107.730866901277849,  4.655701671567579
10.260824978098661, 12.999019588395731,  2.752346787308650,  4.671416359474373
14.719791272588273,  4.850227410926855, 80.917046495638303,  4.881720042496459
14.229562688072475, 10.114487581475968, 102.933573902651858,  5.233427871789734
 8.267166519467940, 16.668751864293213, 44.685140511551076,  5.117830483888366
 7.119178845709165,  5.202432173548213, 28.311860049493681,  5.229553856465186
 9.139012577757388,  6.114355732433459, 109.392922401729052,  4.615343722698712
 2.936803293331156,  1.996269566133393, 27.126977500629611,  5.566538906042353
 1.690598346075413,  8.726570037924153, 49.431290497948083,  5.015649369077752
 9.990721103529104,  1.493359244542363, 21.298787743703858,  5.142377838935419
 4.479126546357284,  0.509001651007721, 22.283878948008130,  5.001652966773518
10.448005870452850, 10.160505353876527, 58.938760624859626,  4.918061348361200
12.581089393841452, 10.236534957249271, 116.562948184610690,  5.216643124291973
 0.547896344545300, 16.435248945440922, 113.337721810877497,  5.257112192825785
 6.396841104588971, 15.250562485392074, 14.035420655094958,  4.776392674683675
 9.025283486559733, 10.553456769529749, 95.775372557668092,  4.933981303916376
11.841315130558925, 14.736643078951449, 39.975507993417530,  4.594387248089792
18.062533952969638,  3.090829907408132, 13.688525187349175,  5.096239898071295
 2.899138811010323,  7.260915554221095, 26.038672172633394,  5.169418723759068
 5.521709252119325, 12.920702483768590, 42.792963241219518,  4.908689955343402
 7.022521436115656, 17.388608485094970, 103.002659937764022,  5.104372826538509
 4.482144163432916,  5.408471722975975, 110.001688103499873,  4.878500562822066
 1.224383861035428,  5.689974326122972, 66.075126623949629,  5.307497858382759
17.725313589204148, 14.094500373887081, 54.909695930448990,  5.344580341015124
12.762539451172930,  0.587077924842721, 61.606027232981383,  4.985009142535825
13.931774333111278,  7.249386562510090, 108.895199811150647,  5.016867169361424
 0.470632753192611, 11.785065313972316, 104.074141597718494,  5.532631160693692
 0.956565422326831, 18.615474264480884, 56.642965982043563,  4.797106556733611
 6.332627746887638, 12.647381609321386, 92.063551768565503,  5.146741299262347
 0.301156186208492,  1.685218047326264,  5.203077385723015,  4.680669244143048
16.428346334082143, 16.135737457073798, 92.252766452954603,  4.986364046506605
17.307457503132824,  9.150582779774933,  8.792371545764407,  4.947796581289580
15.846503333619534, 15.728852766550606, 105.079415651311194,  4.897950927985731
12.281139966708485,  6.238178519613972, 21.163348600393469,  5.396255780575559
11.214731409731566,  4.678062775819034, 30.757037577371992,  4.348398461505004
11.978514990112664, 11.179554673072468, 36.766863874654014,  4.986968068936326
10.247702457971577, 18.020327064283634, 72.181858520946193,  5.455718649219076
 7.694169748043203,  8.767660015103385, 37.104700187934313,  4.819444675117126
 7.169537186770407, 14.303285355216524, 38.026789661882447,  5.546691037388650
15.661360434751685,  6.055824080249235, 69.195975959946097,  4.875044239621732
 4.458772399828170, 17.780267496319404, 61.351991913829529,  4.970710982176128
 7.424751163277419,  8.197903465862849, 10.432440758164740,  5.023491796561013
12.649253830612265,  0.685683563850119, 92.801139731135535,  4.909422690746749
 3.775347174992604,  7.986035553466190,  6.951456857985210,  5.054771714055172
 4.943565291994599,  6.519424532217584, 69.780925912311986,  4.551720520207658
 3.044213620798601,  7.119356736736092, 74.473890069764252,  5.261224190072514
15.246686740490784, 18.061438792976002,  8.750876677086577,  4.921793333054664
11.648932883195352, 18.625840060262846, 29.826178483404831,  5.468967169261376
 9.970452915186334,  3.182459424047974,  2.498705056456910,  4.855187915722979
 7.014836902408123,  5.872953373163504, 33.297944362500921,  4.834243880277014
 2.241206134272133,  3.465431256097271, 40.293813593021575,  4.943012746700854
 2.274703750140999, 15.323372732705861, 90.265854064683282,  5.156928873488901
 8.863742867523092,  8.174464564049027,  2.535100246799933,  5.369383689197048
 9.412400278392179, 10.165445859084294, 32.518080192132345,  5.109563047240353
18.159122915081028, 18.078273931781606, 73.026916930752890,  4.827364709983681
 0.851600532403359, 13.971126242906680, 62.041606552822444,  4.900934124944924
14.741654285075343, 11.879853267435179,  3.549792023660372,  4.681997156286385
15.059436905871246,  4.289644843163246,  9.673486185844393,  5.210887679742245
17.510146244725668, 12.959330206625722, 73.472215488532626,  5.031486307442706
 8.589532211002226,  1.563930493988108, 87.579488991141034,  4.757005001541621
14.287844018868999,  5.267086634771070,  0.485154809827675,  5.524066438750467
16.846348343253368,  6.711640572053691, 113.046375681374911,  5.183533333678137
11.338184971394190,  4.942227590988682, 105.299073078821024,  4.966053386085536
10.417807943684203,  3.946290108755476, 16.741311857894313,  5.230970165822703
 0.991334364790990,  8.864665558676560, 109.441257800796890,  5.003848643638681
 8.759909259924832, 11.632650781847444, 46.602533991999032,  5.398208865779311
 5.618405009677349, 12.861282834215682,  4.426628385037714,  5.183726004412216
 7.752521998307253,  2.760142132335449, 112.951879707867903,  5.398389773649392
 9.714313858214025, 10.564426323284929, 41.286428826301034,  5.130939788548055
18.263732069553139,  9.053592367652634, 53.917735189726066,  4.973383273225052
 6.645813466049097, 10.192769639923464, 28.351645229580100,  4.794220826264433
18.461188418691737, 10.616455971851410, 37.060202475987708,  4.819866488129145
 5.925269320608191, 10.199082177438076, 109.316895069388664,  5.212360367807615
 7.952459930336826,  8.158757024060387, 18.867824172965847,  5.125819469523932
 8.674724584827381,  5.852049803240781, 97.258260280828267,  4.950280458912758
13.947350104731585, 17.856227755408771, 88.379937919456566,  4.826221684068462
 4.783895496076341,  2.520872761971652, 73.745090699442088,  4.671502167656564
 9.778799672334321,  1.992260805302618, 34.216008709255057,  4.867791046160497
15.981142705858947,  1.101660437863873, 50.024160885732407,  4.981962527866028
17.632678074487949,  4.052295363303896, 53.974101029586485,  4.976091180015038
13.058207577286655,  2.027780471837427, 109.375593733610913,  5.609858369550976
 1.346921443649276,  5.517033575686194, 87.235546871041677,  4.749212361984127
17.147076293521611, 16.826070086265187, 13.245410408499779,  5.137257164261985
17.248590466970711,  4.456821735695341, 37.087110544553958,  5.038644825199051
10.880049209942506,  1.280842442377089,  8.067519220097502,  4.310556675190648
17.587844915575783, 13.372895706748244, 96.028407642857019,  4.648800234378881
10.918165675458582, 17.253405686189936, 84.441191115192964,  5.168780403691005
 4.280934497961095, 18.425512170652791, 47.242106516510923,  4.977972495114416
13.324300235705152,  7.495291403994490,  5.216530863008472,  5.107810472402848
14.538190506018074,  7.606072050871344, 57.181838081629856,  5.340352765794202
15.922885285962657, 12.360245177581145, 41.452885930148220,  5.120650088810180
 4.497751298144974,  2.902133051043170, 89.792213227820028,  4.901007783138420
 5.287098980165801, 12.869252499322799,  9.688938811577042,  5.357903917312014
11.649363537227726, 11.368457915401418, 111.353108832741711,  5.605094891306319
 6.397465148587255,  5.482600401941755, 65.273420358204206,  5.136572206135373
 1.832937758307134,  3.493421979929427, 49.751021658157107,  5.367185297938614
14.656795654786121, 15.721721738876139, 70.221286366760921,  5.231949593373148
 4.113693033590003,  4.034992668190100, 44.829105991237533,  4.899313074272633
 7.514374304991974,  5.464835299453811, 76.116899754798112,  4.650581931862644
13.120575765104181,  8.731968397419305, 65.798175385565472,  4.687817849891142
 3.556993589699309,  1.179630387228196, 65.683740783766027,  4.864590660087885
13.665181139632283, 12.492043030865887, 88.845300804205067,  5.308682900993254
10.231840909804415, 14.974798482020358, 79.244064589245141,  5.385647472238168
 1.945719087765098, 13.257932640556058, 13.750650739221832,  4.977703365783417
 9.575014794361843, 17.398422001257114, 110.849125066592478,  4.523935671052946
 5.731007885444744,  4.595234622041438,  0.267165567427091,  5.133263636461762
 6.780586203770957, 10.650309539161857, 78.621259103229505,  5.278177507416199
15.110669808333419, 18.578219740670949, 54.895605592705294,  5.031346877080151
 3.357180701011552, 14.424866241578021, 57.733775964612413,  5.104021348715892
 1.282659162347936,  0.494890006289799,  9.810543034259318,  5.029264139274006
 3.685159703437538, 12.162824789014087, 19.004362210419057,  5.235297715049318
14.508188737726071,  1.842636345736461, 71.186034409310025,  4.684589864573892
18.351584548343325,  5.400924766075156, 29.207577108679299,  4.701110575435070
 6.586149464214512,  0.737191420603541, 30.698305250590366,  4.949304490436129
 1.471762940355288,  2.059535101055235, 101.139946610004216,  4.944966706530747
 7.795298709024935,  1.699335323728947, 107.326625819095767,  5.452823055105664
 7.764774992413144, 17.318785216143919,  1.989570261020658,  5.419808763542290
 2.767110646342073,  3.489203310921521, 32.388642394204155,  5.050488937076139
 4.011597884132754,  5.195126477639472, 14.294394793327637,  5.234981178020456
 8.425386848787854,  2.535639257704492, 46.875835463904394,  5.099935712575103
17.671874242091334, 10.055740829385883, 86.850970786415189,  4.877856627933855
 3.109642038864819,  6.525888515028358, 19.280953512316557,  5.127906762425237
 6.365954683713942,  6.807202551068076, 105.615369060071828,  4.852823743149258
 2.577272075359931,  2.397898186170863, 113.431675671923486,  4.996532736171581
 3.807092838584350,  8.819455223606001,  2.077438270930936,  4.829019461222886
 5.481367625830329,  2.019719208724485, 57.000503828461390,  5.250595128185078
15.276670589135056,  1.110198770504170, 84.096743359114839,  4.995781172045477
11.755281075571864, 18.427011340285343, 12.426062052955041,  5.125007349911438
 2.443364279942621,  7.049603554156545, 102.306966684586612,  5.297876361920798
 1.063449787173450,  5.267343406066075,  9.789194259335195,  4.491455614055833
18.688541770389499,  3.709610289903809, 109.617139835939938,  4.644670766641649
17.311110068446528,  7.122712206299806, 61.536017126613629,  5.014311672342966
 0.822708563587508,  8.882775464502057, 70.141299471870681,  4.958977137924991
11.063715281593581, 10.322511661971447, 75.928434181172832,  4.827948584045992
11.417211515103135,  3.443236390554739, 57.797267171725423,  4.901764478647198
 7.456205957953549, 17.601171256891572,  9.957035624518507,  4.869372367478985
 2.519449982830805,  9.949082235155521, 95.326920498655227,  5.266107086099176
 7.499124800415720,  8.991298577122347, 72.902619839735550,  4.892190411129796
 5.349242124129852, 16.857048822178125, 86.541042746596503,  4.942227326442806
15.784378896902894, 14.563085315629555, 116.758517994504601,  5.138890009786358
 8.309954136399641, 16.562743666001055, 64.681577995000424,  4.604575128664217
13.028544673636640, 13.293373926667087, 56.388928709181378,  4.628118402056780
 5.899907493823306, 11.529470193678600, 103.792241500746840,  5.290561249700086
15.672523730927525, 14.778388234810032, 36.903570048949966,  5.193554609131127
14.995541503148104, 12.487069345973975, 24.267260192179879,  5.319154457453508
15.034124276198456,  7.024208607481063, 13.876276127337865,  4.790829945411735
18.297204264062746, 10.789436922982047, 45.522835276218920,  4.807185387808539
17.017630492907308, 11.820722741463811, 112.548535098725736,  5.087357210867836
12.000843849094752,  5.554682297636762, 113.072714535833285,  4.773882031679010
 3.190291344150620,  8.140235847419481, 30.919586264610409,  4.739701395556373
10.225992477588532, 12.863241800247401, 11.836993716005146,  5.261414968515648
13.411585422355113,  7.953825669109300, 98.459493680991969,  4.756687294904981
 8.224075237251162,  0.793554030294540, 25.992139962324977,  4.973694079795430
 0.545403422617782,  8.874678220278334, 15.616574351370325,  4.947486119561102
 2.813553303080328, 12.769877308833943, 85.524281222663120,  4.771844900122012
 0.158311592581624, 10.677360503662333, 58.508237684914043,  4.848582590168278
 3.366835820572760,  9.550031259198118, 89.239301650324023,  5.121565750474232
 8.008243112031465,  2.972341831223483, 41.842405311747008,  5.033070769016289
12.515278946824571,  5.451845417814695, 76.329938363269477,  5.359451402026513
 3.528535998422270,  9.133480584315054, 62.359480790409670,  5.821272785064592
11.462876119454775,  8.472131270410051, 86.446063678447103,  5.029389024508690
 3.254058801987397,  7.439851098543048, 114.219855929545943,  4.797060062550860
 6.570065572081980, 18.440929959785368, 81.886705310259785,  5.183469410851666
 8.939057425304796,  9.355387677192500, 63.532040524081047,  4.760485090051494
12.795692699740986, 17.016247474379959,  2.649662335545618,  4.744005129556999
 7.515294097668813, 14.001719340763117, 99.142591116926539,  5.157674656858142
 5.891349766142683,  6.358013274684837, 48.666474697211328,  4.745495017160509
 1.406283345833762,  0.376941251483346, 93.499097817779315,  4.889701020371993
 1.332137275513247,  6.076219326867737, 57.655276280991060,  4.744566076640417
10.565518039520514, 13.743599722182603, 103.239306090131265,  5.057465449639063
 0.586315332325144,  8.147134957458213, 41.384131372387181,  5.211177823656009
17.913822069335790,  9.775460503266443, 99.311307468643875,  5.104049004407328
 0.719594865264164,  4.764451295920729,  0.184189016332510,  4.896020067244844
 1.743389962024890,  8.724833987852763, 83.080594251121440,  4.910032680264908
 8.952656322127753,  6.923435475571894, 44.623180049200705,  4.812502350506422
15.472733474342890, 15.148528552763310, 64.612750463367931,  5.068314241786158
15.658953869966323,  0.289657363155009, 100.974728804629507,  4.826837822024306
 0.200160179100027, 18.731702818915561, 35.150264955962605,  5.247891622062782
17.808187272296674, 10.538568052135794, 65.431064517338399,  5.381234554484274
 7.286933414590609,  1.626775966762952, 13.743738808204201,  4.510666652524563
15.900426010945072, 11.844727621790355, 12.831560858108299,  5.159755590160780
 2.512294969101259, 13.913310451350831, 99.831812288045469,  4.591060412254480
 0.739229478583839,  0.579876915921302, 87.340336215362996,  5.200228965493045
 3.868904286683217, 10.737806629807176, 39.037014565993914,  4.377791425087882
 8.880317546565109, 17.503624496617554, 59.034245891879287,  5.017097233665329
 7.990929165574292,  8.236042036229408, 113.492375604003726,  4.890095205851050
 5.852751640214620,  2.611752649781927, 18.136770589638438,  4.679540797961787
 7.707168670829582,  1.000761480708400, 68.105765234758621,  4.750209106675709
12.371934389228333, 12.685602438706386, 98.705158315585720,  4.929594685931535
 9.705996100636202,  8.003451291592132, 101.683839781023536,  5.053584035062665
 0.561997447609414,  3.869866045160860, 82.643566300656104,  5.116550727086400
12.003357019622966, 17.939725886379481, 47.720854735101710,  4.839998328634249
 1.870864619133600, 14.911806964150797, 38.165182688084492,  5.022078386802338
14.221603672916519,  2.404343965918245,  4.953561402683527,  5.085293850073088
15.336100051065927, 11.532310407365184, 78.001808916844780,  4.931780122435520
18.642701205195451, 15.878845039536104, 77.391939057562880,  4.995990961864427
 4.300040230598468, 14.977669359783029, 79.201422263887423,  4.680550027794426
15.150615100925330, 10.796594715203392, 69.722237482747715,  4.710783765914817
16.458137304858891,  5.316650463744320, 101.206136277432222,  4.993918980092372
11.938540848064058,  0.034395945454715, 104.582752879022024,  4.991826282560074
10.094358105419584, 15.242862715780097, 94.412896878644204,  5.059975408480970
