BANDS
8 8
NANOPARTICLES
cell(1), 18.756
cell(2), 18.756
cell(3), 117.228
16.927409489777705,  5.758569744857541, 29.299503382602907,  4.964738545034606
14.917776577688761, 16.815830067026347, 91.798812073594604,  4.708237930959315
11.398620531083544, 18.721604713374266, 75.835409697427167,  5.193279795465731
 0.620710751251093,  9.146128159619206, 26.606629920708862,  4.969648538018614
11.378144923693359, 14.134742881990766, 113.463454347999502,  4.440156733481665
 9.976867672006556,  9.070976811697461, 73.987950101614530,  4.810049152660221
 5.593119042518873,  7.958320427556175, 27.298478395108596,  5.305380345404311
 1.864200898319459, 12.827534283471476, 16.249869243803630,  5.127024248876127
12.758966487851886,  6.710705845774019, 43.926592438887468,  5.239200029258322
 7.955613537002656,  2.853686366704304, 102.947719374363899,  4.742251237228474
 3.751345043570353,  0.760238267465900, 109.647777918162802,  5.199310931014279
 8.138388481155031, 16.606018681964279, 110.915941289278052,  4.797166084420796
16.700569522918268, 14.641507300295352,  2.891095541735457,  4.889484287617912
14.787972202576331,  7.390240855195448, 34.107238208098558,  5.243088265926075
 9.402699022067239, 13.391203694883760, 37.693567066823498,  5.353504696246249
 7.776912981268588,  3.417532292930061, 27.940511698788860,  4.842385871130804
 1.181255082790357, 11.151624890226248, 54.769965054681030,  5.173641966375989
17.566449747923194, 17.939632330746896, 106.300241411415030,  5.100734210813830
13.749163064432183, 13.773035678540060,  6.701251814075244,  4.895520365203484
 0.666891374842537, 16.763077469016970, 23.805638231009741,  5.024793352696418
13.837098013222514, 11.799572712318223, 72.335116535071563,  4.970493808606756
 7.928328593373170, 15.992723218328118, 85.025162779823376,  4.822710613858045
10.309007034826656,  7.844125822650249, 25.315507721963989,  4.878154337172991
 2.890776099045267, 15.534583239245329, 104.693306011092204,  4.869501365647824
 0.008052779953046, 18.428181951071629, 84.154212212413199,  4.828931288311840
10.811240639666604,  0.855563719195952, 30.655920117529980,  4.778278718479947
 1.661968689694945,  9.484390135608630, 86.766558546338203,  5.244157512670124
12.093714695108947,  8.359908967151490,  5.633526706083747,  5.406578462469279
16.986421844105259,  8.398890733187976, 109.620475097117932,  5.114142852068318
10.646572488692954, 15.077915453322015, 88.956497459610304,  4.907039828006057
12.168656513218865, 13.167743988054415, 93.791679874125364,  5.247957391584242
 3.439264478346022, 14.436893257000085, 58.058341907439029,  5.161525340501697
 7.852933210073671, 15.210579105445731, 116.661602698915303,  5.311194341505484
15.728185250159143,  2.763069197487190,  9.967168687363330,  5.053858305182942
17.901229204514426, 14.830211594745119, 47.663813706599022,  5.007575992178349
 3.830794346365161,  3.278131534087443, 99.698905139173277,  4.745465463533090
12.837694503129079, 10.422241058440692, 10.304067264964667,  4.909459734209349
16.056906105853304, 11.719583257766844, 51.380208244434243,  4.836511840924415
16.581100164963711, 14.175037694258220, 57.370245803630638,  5.230101190201681
 8.615749056160984,  5.109642043876218, 89.610048616614449,  5.172936397873206
12.416672013324325, 13.328981522873230, 67.399405235204497,  5.092284083407089
16.381325142066984, 10.244367932706972, 42.827496471273903,  5.100311451985203
 8.735097440045571,  6.897296849024138, 100.403153284500192,  4.935604422823729
18.578087772935369,  4.024702941367348, 23.562555608827015,  5.357225598977342
 1.442805745669162,  7.040454525407530, 70.754720190583953,  4.847251695508517
 5.595744358625171, 17.751605263350616, 101.311729516454236,  4.859741041979339
 5.312446328383774,  6.832595383381912, 77.657793232804920,  5.069629940506991
17.527801352938368, 14.132646837085924, 102.439802832126063,  4.925946749768003
 3.131627963740118,  8.689315962381196, 45.899209478746712,  5.009157916623132
 1.644122138378055,  2.512882816340707, 53.127606885059180,  4.840798728634058
13.242186613854235,  5.374730970070146, 109.801046617039930,  4.514586120602449
 1.404110387515344, 18.132460003171040, 66.926873714887563,  5.495445681581360
13.230680480273740, 15.212164960661843, 49.464472477536312,  4.924518719674453
 8.296678000928814, 12.822803324084564, 26.981493830212454,  4.879482630197105
 1.445473935824456,  7.765698018131425, 81.793814226156343,  5.285150803003134
 4.345966564626128,  5.905723687678373, 41.741095533296061,  5.287778515602556
15.556007992328839,  6.817279845199195, 72.290200788580904,  4.928755903986636
 1.785252336863286, 15.169739987140213, 11.775964929591499,  4.935768786813698
 7.946978668924375,  8.370893024406710, 44.529385982574169,  5.010660985578973
17.052358571454011, 10.373923457528825, 30.636731988613672,  4.641570359772571
12.584769364734337,  2.706823518102798, 71.528994240485730,  5.281603462398690
 7.093007307168596,  2.249443688872445, 76.895051766207132,  4.764545518795199
 0.926422942356007, 14.953436141076274, 116.476163299009102,  4.450303339988596
 1.277221766590359, 17.157865861874829,  5.723793988065605,  5.201772757728676
 0.251116771704699,  8.119845570384342, 15.529293075601020,  4.872808506808457
18.230596083180785,  5.551706813729269,  1.076696457861571,  5.163870768548129
15.299127737960225, 10.884325027435183, 16.803767277357977,  4.580861293337743
 2.072859698310367,  2.038353106831214, 95.470825070642462,  4.668324273420326
11.690385204221661,  1.069014671522697, 89.816340556533831,  4.963939526695563
 3.021309699389256, 14.989961788769124, 86.111897387518496,  5.041698743413312
 9.524917578090903, 18.011837961729373, 21.571470615856477,  4.762925900269590
 0.591788561369518,  4.142535365770708, 48.648999355131650,  4.873123334600273
 8.121425470247379, 14.579900395671089, 55.788182640163789,  5.207521656854118
 0.712033081245732,  2.789769941637835, 39.497114118815986,  5.282669412614813
13.832375761556815,  7.830745829848392,  0.036887616119425,  4.942852247228065
17.438344819494652,  2.160927746085138, 63.429041698884454,  4.882695786909503
 9.238491028729078,  0.849907669232037, 68.199014253930244,  4.846175570528914
12.881426902737484,  9.082350619160874, 21.131837835518589,  4.995151526950147
14.233689801508532, 17.329076273861673, 23.438176105115925,  5.439821955637508
12.972550550917880, 18.336695724366578, 95.898201951943335,  4.847863578174646
 4.106222968568509, 14.168552087738547, 109.348460341129254,  5.128240738068944
13.101280385206309, 17.391140013572681, 84.552268187979720,  4.941035271575536
12.664823614091409,  9.948454459380319, 111.707104431405440,  4.970261436721192
17.675053579961258,  0.579494584422744,  1.794602637427665,  4.941678569665683
15.215390856913700,  9.583467099678360, 55.675254597604209,  4.903593676927398
16.366517325245766, 17.001753542973578, 80.037086653181404,  5.098814159475441
17.025749169452588, 11.711429420287160, 94.669791065207505,  5.032889132887217
15.806720519765767,  2.690701435356875, 93.059107370561804,  5.023270263607555
 3.853940832289692, 14.998705682505964, 39.275672806151725,  5.362223647860370
 7.808478280890202, 10.568679423090897, 49.379869592282198,  5.148586166880961
 6.039407126641621,  4.528951689467519, 107.098065415384880,  4.986030677259450
16.398752134451602, 10.602602872077332, 89.779527335491451,  5.045333344741232
14.779656387386609,  6.009652941217793, 17.449103417587516,  5.301027560909919
14.112309007660889, 15.876483017249042, 39.135503390908802,  5.270520265396858
 5.225147258657370,  5.845603796861846, 95.651953859502484,  5.222474654061000
 1.773730079267004,  4.598183589421836, 66.417429937466352,  4.983726942504226
14.010954011420816,  3.525518152919945, 84.664799251792374,  4.849742397267572
13.772596180706746,  7.985858803640920, 93.621525828868457,  5.078584778984825
16.554313294087066,  9.905474400366062,  3.575547328225729,  4.660182178449487
15.231441539385642,  2.111472132699122, 32.130259976126879,  4.871119812165798
15.193901283927275,  1.905749082532266, 36.964826651814079,  4.806244349440805
 7.024290588953119, 13.943262640755465, 80.153616814418996,  4.825206906770174
 2.473377445132423,  9.201643049931333, 59.500450544801360,  5.377011646129137
 3.717957820758120, 16.996104555290483, 27.899937183419784,  5.197789513483722
12.901374344030263, 16.216331916651360, 18.544151360901171,  4.942250736420947
12.461130244233567, 10.763031220368644, 47.169434923378041,  5.152654324735058
14.285379026138539,  9.034197312760998, 76.620413446415199,  5.110859275889083
18.214910684004568,  0.513185357730828, 45.783074336938910,  4.644529345487116
 9.410386175396958, 17.426932841764032, 15.099996009877474,  4.699872910981439
 9.500656332901483,  9.605507686354267, 79.005135121002851,  5.325015058319217
 6.682718590698460, 12.913809882089375, 43.012217423408522,  4.894555516241188
 6.163350559803621,  2.400029484883571, 114.015129551679848,  5.300077359732449
 7.084705048111066, 11.968032947290201, 60.824947022921144,  5.194386617086357
 2.247643373456303, 12.556627137689466,  3.899441080423843,  4.883546796055919
 7.165732073085294, 17.796089037655445, 106.113608666248197,  5.203134789274729
 4.859349785210260, 11.638245215531645, 114.758985851822118,  4.746358715076651
 7.525304202175845, 18.755193137232759, 72.661854531332736,  4.797326446811651
 6.539177652125057,  2.519392732535584, 51.682688323158715,  5.192203527301259
 1.766958595841893, 13.031632020380492, 43.761275157884732,  5.047374451038212
15.400407885372054,  6.953811971516524, 12.530393360235342,  4.792242918382897
 8.880733881502765,  3.330278805494340, 13.746120910016389,  4.889763893855191
 4.369945244153434, 11.628138538576733, 76.845607978799251,  4.838744407408689
 9.575558743176071, 10.262983514079615, 115.787774851709997,  5.281550540837069
17.077657286337477, 14.805192722824103, 32.366134722567224,  4.853144384815421
18.335407367473984, 14.426356472890205, 70.386217562454277,  5.274584855435865
14.392571720898049,  0.509776442779364, 110.285943706995624,  5.423787292722847
11.293903647002498, 10.108738455082859, 89.642907194021163,  5.194364539780191
18.011005732249323, 16.678295770111262, 95.752077791005519,  5.322600564987312
 7.655189794931498,  0.079558969515076, 47.474967361526829,  4.728732358386338
 2.143119813308161,  7.406593052601784, 31.656270895806337,  4.842225777186640
11.731081944412574, 12.921286957601348, 62.549951184392086,  4.731318881045302
13.783035463733238, 12.646747608829299, 85.985509314000424,  4.990629902844058
 2.503262315315145, 15.840445290110576, 80.756190468008825,  5.051950663320839
12.859493792953025, 12.027241902104384, 32.727088209045874,  5.167462833770585
12.823508408530220, 16.752861711302518,  1.225671870028176,  4.466451303014307
 4.843322136664825,  6.348582477176005, 102.937217415396830,  4.406222794421311
 8.757966504367921, 15.870679013405599, 65.033742958584412,  4.993539730103248
 9.329333249151128, 17.171246888010060, 93.057802531963489,  4.650732213334854
12.521166233512256, 12.194842448521465,  2.228358457558697,  4.885852773405748
16.827169435262608, 14.405624164332327, 65.669030698044565,  4.611610515882848
 4.580114904128453,  4.926949461828819,  1.046029446879095,  5.095527250332128
11.501174343057672, 15.844184073844708, 79.986461060815884,  4.903905280775946
 8.580803042684554, 12.111353691449805,  5.142004468402130,  4.912432156289786
 5.737825410028902,  1.736468448501943, 64.475287445456971,  5.524720679058435
14.448971849228430,  4.229239741600794, 48.047661906071994,  4.944086917799615
 1.851744353505470, 11.353765589713076, 49.826849529760018,  4.808534100450743
 8.312638987849564, 12.428855545795356, 70.389088668715715,  4.904690428797890
 0.182071884560295,  6.663907299459128, 76.817772545717247,  5.216064160258579
13.697992250107205,  5.610997574317540, 89.146633913643626,  5.053112796718306
 3.570897919285164, 18.478699246391383,  0.657227030353482,  4.746304305171372
11.159214701299424, 11.154577798761602, 57.945491900789072,  4.890069929503133
 5.179139316391795,  2.876802937845330, 58.080082707067959,  4.772138845224278
13.360494426577853,  4.284804258481621, 21.975849432730495,  4.787965488996511
10.981925664775085,  0.164408455066500, 114.444777670158629,  5.354236075164430
18.074129872506305, 12.922886889405220, 39.129892315877868,  4.607761920868981
11.441747739687351, 16.079657760146553, 71.499279856557862,  4.961916967846509
 6.158735209124169, 10.120815337883531, 54.153765649719119,  4.986479782974980
 3.536966740940409,  7.085747354687009, 36.604952710754588,  4.856736633618498
18.353009791688621,  5.435114257201671, 101.478988666703287,  5.401505011696318
 8.651912222302363, 14.732609971685056, 97.122084537044245,  4.907913610711689
11.058932629629165,  1.467850781504283, 38.993746668142293,  4.428161093862311
 5.757370283674581, 15.324345314091543, 23.423646818178568,  5.189704765383933
 9.574090272551629,  2.381956958351297, 109.845589633824218,  4.940767792227525
10.398065924221561,  8.364423188037387, 61.896283297244999,  4.797274899568155
17.181158724050508, 11.481362134956509, 12.461123313642810,  4.918814584230651
 9.706032949515928,  1.117459731798727, 55.955006042652229,  5.805285273030115
12.386199423405950,  0.765454994074621, 64.113566709684235,  5.450728649974647
 2.971288553959870, 18.388470325561535, 49.175647570304371,  5.264277051043607
18.461325967034892,  0.402407703218078, 57.344956906770570,  5.352127577444092
15.604554576071903,  4.557063896574874,  5.288603841825559,  4.951338141224753
 8.070262374264525, 11.792345921141402, 111.205843853764080,  4.832463865806358
16.530811779345431,  2.263580345629371, 97.912092864898270,  4.815664532064172
 6.885026815336516, 12.792557861324990, 101.556760970229263,  5.372597838541118
 6.102452316599123, 16.796815550616916, 89.560198028196893,  4.881735801299497
14.491095126333020, 14.830355914827328, 44.086798478262814,  4.870217325634950
13.917506523780682, 11.650207993003855, 81.084890289514277,  5.014532745260505
 7.780806206008868,  9.300516199521331,  9.392269144325192,  5.400185376084539
 7.324321810541789,  9.405141268154479, 39.859298084084330,  4.624959681556004
15.945737035865934,  8.511825758296959, 84.597591138969477,  4.696646340093451
16.471522411643946,  1.165487739448492, 88.286178804783333,  5.077539605786344
18.672078505709983,  5.989013033738696, 90.377230232278407,  5.220872397984238
 0.947054686704803,  0.577803894342237, 76.977957792281401,  5.082642113603922
 2.183245219875409, 12.907968071602557, 90.682029146171274,  5.112601135962707
 5.690774583654015,  7.064276305388399, 63.206026727436331,  5.314181061410047
 9.112383194497660,  2.877383904455610, 43.518868569987831,  5.355398519118733
11.022515387201864,  5.163540973142692, 76.776547902106245,  5.015377721341816
 1.476289439426599,  6.426254526668270, 106.250108236583287,  5.040562060565658
11.292790210601270,  3.718934638169939, 34.536251777742550,  4.901552488377808
10.275279697084486, 11.937321916393948, 17.801189504303004,  5.197517907953034
 9.695714592107404, 11.831955339277682, 83.499648313895449,  4.712676827278834
15.258515574935995, 18.653349043048557, 101.951740737403398,  4.837318715628279
11.442370471548584,  1.239461455349352, 50.770724656724816,  5.103448164351694
 9.172498178595777,  6.241178565777950, 53.823609688756676,  4.791091751155114
18.402121758473424, 11.544287176456811, 78.596066003524442,  5.223780178544310
 1.114598654755165,  0.194316860862047, 31.944743373901584,  5.175689957296962
10.682660125347875,  3.386545055473330,  5.545187929808153,  4.848081392762142
15.185828917260855,  5.041116547193223, 67.274178485402388,  5.728057555149161
15.351774868485304, 12.329480678639404, 115.326560231959107,  5.049155979752383
 4.456075755333908, 11.420883802237620, 83.207590233637163,  4.596080550536644
15.030829145605610, 17.995411547766778, 68.466981566284986,  5.173057636312817
 0.546894330272097, 15.926506737107227, 53.565829520345325,  4.734990048807523
 2.832419371498378, 17.821894839179070, 72.184836779881181,  4.793848870160871
 5.133844237775806, 16.509869899546942, 76.358995537147067,  5.086288899703314
12.903201922845959,  5.967192106166028, 38.769139234591613,  5.176131283785247
 6.373272194744632,  1.242892219845555,  6.437176282284828,  4.937602634638729
 9.590407624033947, 14.388198470429687,  9.682809618475863,  5.409496015048065
15.100388673543408,  7.403834296098892, 25.122517972937487,  4.727043131835310
 3.137715481260841,  0.067430634384696, 14.770404299247161,  4.869698406307466
 2.185331283871172,  4.317865309220739, 61.254179203603400,  4.399652952516568
10.953228000777589,  8.150507696650308, 14.360211466800846,  5.102851946095111
13.945214367108369, 10.897097448062194, 37.747783332758623,  4.995200204874345
10.587022312302988, 16.674337848492737, 101.460323786437627,  5.351129806900400
 7.011942449042404, 12.678949756883986, 92.760687457018619,  5.243354334554152
 9.809767118515353,  5.078078968852680, 65.674410431071323,  5.062781580425170
16.881312220253424, 10.090587840555445, 99.491363389286178,  5.139760641269668
17.216670236870272, 14.139691311101515, 19.696220032189999,  4.908742256916450
 7.793489207831437,  0.012032717406486, 81.092831097071468,  4.793011733901491
13.393279226105060, 15.616397066340120, 28.661610741507793,  5.500071474379568
10.733567572793035,  5.584388475949638, 105.785510687729627,  4.827358247757295
10.926951113194912,  3.756773315359471, 94.048036232152384,  5.150403509171983
18.091485129993824,  6.880151724383031, 52.613658437660014,  5.080547569803970
 6.200219508662290,  7.304535858543286, 113.806035192190919,  4.515467661340439
18.413395855325099,  3.642656880423100, 109.882141691047821,  4.799988237963751
15.856231252352842, 17.304656360964202, 114.889935075959357,  4.944449102336321
12.257069147149030,  2.399400177602245, 26.299305914578483,  4.899725529423696
12.140216853038687,  6.286220090061129, 57.784163577876683,  5.037886651693958
11.393032382320545,  8.556105781606549, 69.169669691117022,  5.282643461379595
13.454572281880916,  7.147161245832216, 101.968577632821834,  5.009548002400598
11.381326659077825,  5.509427687402764,  9.999345696173082,  5.117876269486467
 7.441147517536232,  9.434646029993569, 105.674108117519992,  5.306804480293629
15.128438438554232, 18.430431054393093,  5.933944524398678,  4.938648201115980
17.040361031424265,  0.749473125567488, 27.527886643805275,  5.374845080452083
 5.592264396844379,  7.047437535134391, 84.691349883412158,  4.888964935694575
 3.324547061048078,  6.353598104374786, 55.415007131919133,  4.706973498904837
 3.016560100363607, 10.783115377522943, 95.015594574371036,  4.666074479207206
 5.761327696597941, 15.863715375060588,  3.969341856264329,  4.759727536476907
 4.682356233634349, 18.083475189090517, 54.976975854385273,  4.703710304636093
 2.994309807873812,  8.710174040587985, 99.345505957513097,  4.932776488533750
16.713595828307461,  8.422833598443960,  8.092183428580896,  4.851082059954623
13.896964741896186,  1.816658369827555, 59.250344782702129,  4.935264945134655
10.059945033282682,  8.718142389863051, 35.526777342226701,  4.949341177287152
 4.941155850821864, 14.113821262108047, 47.385289095555819,  4.801274545463331
 0.659778316691080, 11.832179214119437, 112.363171283400789,  4.898570754283595
 5.716488831127847,  4.548067391600087, 10.113939604573675,  5.035706697814494
13.157001985573125, 10.546732913271441, 28.039612249863744,  4.672548919386113
 9.521717051072583, 13.800017844366755, 75.726755699753625,  5.304942611720625
 9.553647777685381, 14.660330645738012, 46.424554604945662,  4.679050401668928
14.401209064652894,  5.729548691236225, 62.115376842239485,  4.792343573690983
 4.127548711864637, 16.435055692439999, 113.645949622959748,  4.576889259690719
17.111084676398193,  8.532133730416319, 47.651765475601351,  5.169887756207643
 6.743807540270467,  5.575048102762300, 32.921537416782591,  5.362279871460985
15.836237458818033, 16.783945155946380, 61.552170918735790,  4.735870441324306
 8.499019355708837,  4.946160218023912, 81.182418635714654,  5.136579300369947
 2.395530677184336, 13.723708287262063, 98.931066770192984,  5.193868889548591
18.236177419489366, 12.899923069791036, 107.353448622376604,  5.259394917207464
 4.332974230424053,  1.440239905827383, 23.961267911683905,  5.016950146578158
14.554866741483915,  3.469620271550285, 54.236477695026437,  5.225426522149098
 2.733780762127350,  3.625763169952886, 28.340653871378745,  5.280670586971629
 4.000165352292521, 13.217034244583798, 72.359932910259232,  4.705226158987704
18.735701159599174,  4.307418155647676, 34.703411612995637,  4.844044508916458
15.464455645112366,  3.047457652398132, 75.789672155574763,  5.011045394489294
 8.541330134847369,  6.973811879794979, 18.977014190839682,  5.556593255809378
18.691544448696629, 16.470386893794508, 110.949064398256212,  4.904675503499790
17.297067299144967,  3.393823063635514, 80.712423327013056,  5.426958863624133
 1.834447765097855,  1.190632911746570, 10.057219066338329,  5.161350056949366
 1.093489219802925,  1.420434082212644, 114.039957847491337,  5.010881894869341
 6.261060112755996, 15.243713313774634, 18.248993022514110,  5.203410564640842
11.397556825092320, 11.395914107639221, 42.128545997755637,  5.158760681763265
 3.974974783977435, 17.731411654413833, 44.115771808115987,  5.133279703376494
 3.663098867608438,  8.960325035446802, 18.992367174655623,  4.973564865841290
 4.281070949951345, 16.252935558698805, 95.025387887287806,  4.808738722361627
 7.246812188475623, 17.329418556518561, 60.287809586679941,  5.380286660955060
 2.138002906979686, 17.762889028027463, 61.719270999169368,  5.035344302430948
11.746098039196458,  6.025514056488861, 29.941837658466579,  5.416544375564486
 4.699375705738884, 13.406658394400331,  8.130729342022905,  5.029301136917649
17.763934292287434,  7.699188994971869, 38.630671216135049,  5.078000428477981
 1.085152512511152,  6.054516040724627, 10.922910473540249,  4.821515949018525
11.980459178561697, 15.924212190249296, 58.784392493681850,  4.907918000025256
 5.862893464925955, 11.091362433324324, 34.902600138392962,  4.714315906496498
12.977406078867354, 16.938743563077605, 34.193971605346555,  5.083922893030489
17.764820718479140,  8.328145703376778, 20.876773379100744,  4.894289040632663
13.644440812448170, 16.725655274944472, 54.123804984529144,  4.902252336325555
18.607292930238863,  8.800846304047306, 64.146500781125752,  5.312048709830087
 7.105653622314742, 10.171005317420310, 97.244247546186273,  4.725669458728489
 7.470555461671887,  1.008056221710623, 96.963654119840996,  5.426965716680505
18.457320523944414, 10.535916683781537, 73.633967947123438,  4.855473586502424
18.125851715224254, 12.717574013979423, 83.547892550731888,  4.966108298963444
 7.863786246382300,  4.901622009563363, 38.017850553220661,  5.151251989566938
 4.351373291546365,  6.082505875290336, 22.776894999324327,  4.551706879912005
 5.739175113964732,  9.733775994481377,  1.898499684346358,  4.935682052921901
 0.953416481132009, 18.299242966981634, 100.221074237047631,  4.739046774988756
12.379497316976046,  1.882392549804999, 80.385188997564399,  4.873724426706741
 2.612378860295090, 10.994001633029258, 68.089872707802130,  4.967306634172007
 1.979051949631926,  3.822208413284551,  5.475021274485591,  5.410477891038179
 8.946462299506685,  8.169037073963962, 93.467885925746131,  4.578599053633256
 0.809055834819394, 10.258707578478042, 117.027543844891241,  4.935715294102576
 8.074249736695940,  4.876293061518115, 72.456541177327196,  4.896079694297949
13.010964510861864,  9.820417217661875, 106.740784357106278,  4.965019446802966
 9.455332680177737,  6.234101161540516,  1.720866957134774,  4.934082019525491
10.621433806910852,  7.267991385197071, 85.315115905301965,  5.241617919278416
 3.291912872399850, 10.380240955850022, 11.959457061266804,  5.109015894856590
15.720963562961520, 17.410824280344215, 73.551303420660773,  4.829730130190122
 8.315807777638284, 18.096463591967598, 35.779772160612360,  5.030175078696594
 8.991712114943510, 17.580796660078104, 26.484094727987038,  4.776881687261655
 4.604279168678952,  0.594064975862307, 84.754685367699835,  4.623248839495430
10.331948225000982, 17.141433840186036,  5.278609148032782,  5.079892254472716
18.495850875458611,  5.408202648021106, 43.921269222856537,  4.947268183731317
 9.250979927854948,  2.068519249586890, 85.442655377373754,  5.222678982600494
16.000086173604913, 16.557971015665792, 10.417404374183995,  4.911735861218907
18.436202476647484, 17.000870132668183, 41.582709784906562,  4.912352828567318
14.314901717106819, 14.411607873135122, 98.607010561262243,  5.056242414186329
 4.521035208813686,  5.525994793767975, 14.978180871332897,  5.168744674624340
13.651002290286121,  0.764570475097254, 13.907503538932053,  4.689931932588437
15.529605799579766,  4.241167995715950, 114.004507524415814,  5.304415861780726
 0.874142881746817, 11.152912121231457, 34.796476763878943,  5.255176696153621
11.325127901122491, 12.031938727552742, 52.757834793169707,  4.974235506285540
15.266170927997139, 10.298272466978135, 60.541160220054643,  4.927080137944100
13.152928862955736,  2.811271619583455,  1.220869297803403,  5.168324041468424
 4.223697158399612,  2.174099278291540, 35.847450559214707,  4.920861336567701
 1.540889378215034, 18.099207285665397, 91.243137904782657,  5.169708782136444
 6.012448777332387,  7.212150237406803, 68.461686444377747,  5.214029145161609
 8.907641534259710, 15.950533581703240, 51.179146647113804,  4.454397675443319
 9.228018082701773,  3.480625516324487, 60.856625332656670,  5.116765891226056
17.358989499036532, 16.654617623300300, 15.354018249582698,  5.088064903081170
 8.667171543406099,  3.773769178470884, 23.132972114274740,  4.924431446404386
 4.157200742600152,  9.019934334169829, 109.749928073308979,  5.186606314980190
 8.342278578087303, 10.838105941805621, 65.656434119865963,  5.034242567034864
17.354395179287884, 15.106506649686169, 88.153254302366122,  4.701583830164467
11.266578781981076,  2.196937993029622, 17.999550013472021,  5.121685225443609
 9.526114962471990,  5.633022197510742, 48.640512277702435,  5.350813162580057
14.833580360354441,  2.004903161253828, 42.239985449070652,  5.584129127694745
 2.737982090229246,  1.839534573485990, 104.315565961674153,  5.168553130918936
 5.920123038748814,  1.963108057622100, 18.858149801487780,  5.716280884920526
17.980755114689430,  3.148597756452237, 14.505551501979410,  5.094684214371344
11.299386742706655,  0.503901499469393,  9.708972858513089,  4.898300894732927
 3.822453179494121, 12.159001494589829, 30.288501056112224,  5.593138285508815
 6.601484968445392, 18.434359087824003, 11.206531916829217,  5.100099634698190
 8.559356624059145,  9.968843640344732, 30.956982946975646,  4.921802482418626
17.470326288808646,  5.655796503262691, 58.079929490760939,  5.341872858076938
 4.643677364373374,  8.280364879769861, 90.984478859901301,  5.355534806457928
 9.826496739190233, 16.683150851443500, 41.966067678105645,  5.109247649584484
18.037215528451405,  2.495798855986991, 71.224343161248783,  5.258653626484157
16.601063862647685,  0.228315806957330, 50.546439574009632,  5.413636473714645
13.274199851210717,  7.661988321809879, 51.519184830498681,  4.909255557456996
14.469884930862966, 13.967675866998317, 76.646006073305585,  4.759548151434579
 4.749710427833361, 14.309442824143101, 52.161227714514339,  4.694703716008305
11.991543315493201,  0.781555470892790, 105.605720706595918,  5.104871130291762
12.199445455701330, 18.557344992647909, 46.107674737094129,  4.760719898475213
 1.912987110263447, 11.990825606231565, 22.657315413832855,  5.099555864028738
 1.362872661200943,  4.628977374291105, 18.744652065827751,  4.820137410902120
 4.892955883437829,  2.449190751003900, 69.501181538156601,  4.766355583889611
 0.235196980682803, 13.219201265826467, 61.665760820161765,  4.785611098263366
 6.198018401774985,  0.673503416812482, 40.013755925025677,  4.771086755200136
16.598909638109266,  9.967007420320963, 68.683332252682860,  4.860935636867104
11.783834226263638,  2.825837687536358, 99.645774176677463,  5.348338984942501
 1.393068548523286,  6.683329129375545, 113.484224205851234,  5.198477542763846
 6.592006054227071,  9.937279040120952, 15.397744604652980,  4.458575513209029
 6.556228733181624,  5.969523230887615,  5.538992926676246,  4.661205915262801
18.441056766598308, 14.055342341164923, 27.793660732157150,  4.786076029646138
15.685900133785497,  4.269907245906607, 105.823558820125484,  5.056641126212480
18.645079543949127,  4.666425829816814, 85.495053386862367,  4.829752724029708
 4.251158965450686, 15.675966506884432, 34.184843136248695,  4.938907251231630
 8.725454068660341, 15.076006706060980, 31.565725220393457,  5.364001504306846
16.359100214826352,  1.232986200385413, 19.250374149707614,  5.348211399180439
13.010168429722619, 14.149409762678156, 13.829968035480341,  5.351342765936877
18.379810058318320, 12.976299515045726,  7.967414508639555,  4.834262519215282
13.749108343332198, 15.175901365993466, 104.941765803630275,  4.372906884377436
 5.703972304321169, 16.124106038623395, 68.844254718114684,  4.629569801532069
 3.795163415389384,  2.904479127293498, 80.534701030336493,  5.128554057168742
17.010722864116428,  9.331554795288405, 104.253915434180186,  4.504635325167308
10.494180607358588,  5.304539472541841, 114.192350489350090,  4.978040696378415
 1.911493088044726, 17.418835538478316, 19.165387674392004,  4.668554977682512
 8.955365813516714,  7.221738266571395, 109.964267903844515,  4.803547525562744
 4.134181004339813, 14.081301855936708, 64.478439160135053,  4.980643204711806
 6.090748719064655,  0.691124248344035, 31.586441145775595,  4.841050691807077
 9.924427606617646, 13.669656029570165, 107.105093598186755,  4.915633705188606
 2.845583041725334, 10.220994895881079, 40.026850859231054,  4.452331957088759
18.590978605118689, 17.058376453376212, 36.562894166750851,  5.128052781082686
13.270655669320146,  6.695111477279749, 80.977951917672996,  4.980367902810447
 4.221791718671209,  7.028444575672926, 50.603774964016196,  5.173832050261744
 5.254871139484814,  8.730981906755382, 73.139511199780941,  4.732329313402400
13.779777981071584,  9.406140060499292, 64.949782896281178,  4.546960716107137
10.805595783178061, 13.394788717628360, 22.702887932001723,  5.077081077559559
15.616310806596909, 12.234266195790493, 24.100249288225562,  5.197798864191437
 8.200837204972643,  1.290170456058128,  1.598072169616707,  5.204045757816762
 5.053641506294301,  4.091771930467160, 46.513115165755238,  5.017921500242157
18.468701088855685,  6.584436768307766, 95.748144156528824,  5.583394276039509
 6.768301976924848, 11.751170719552096, 87.559890914566665,  5.278159696799600
11.879569379851899, 11.848525657673926, 102.461550339076695,  4.584440160534693
13.992263828884411, 14.216334197015671, 109.674735339013139,  4.765678282965771
11.973181951650027,  9.919890946173860, 97.992362916508924,  5.127858879418433
 6.747025264279761, 10.297092942334869, 22.772105715962443,  5.133738968654353
 2.850271816313758,  8.762351275618466,  7.115549330740163,  5.136267506658189
 0.674785671398772, 14.879006094362159, 75.161675442196739,  4.550782017264652
 5.638150286672378,  2.068010783803376, 92.272940244336596,  4.863373650945811
 7.217328100475587,  7.375839832474751, 58.240755524715638,  5.081781284417096
 3.940400392671679,  3.933959258137587, 88.090817392489129,  4.900281675038133
 3.442153847814298,  3.858243878719336, 73.994878646133358,  5.073071302108874
 6.193825109726596, 14.066037877177145, 13.427990159000109,  4.719810659867570
 2.781099119209562, 10.675558207721627, 103.883057300972141,  4.963970338865356
