BANDS
8 8
NANOPARTICLES
cell(1), 18.733
cell(2), 18.733
cell(3), 117.084
 7.312540474173673, 14.571412881113154, 73.184051536340846,  5.010585068125743
 9.510247442171664, 16.295631368705848, 64.506399955832052,  4.579374613778818
14.041334986080827,  2.612038830783629, 53.707362440158050,  5.197092666512657
 9.194597042950981, 16.946118394907970, 40.867040814963225,  5.191844628628088
 1.255631639058710, 12.998724588014587,  6.680034021749923,  4.876710065892856
11.041364500390591, 15.551333790330943, 94.250852949944573,  5.175697337880402
17.666750403402858,  9.281001750501572, 31.630874145918298,  5.378043733238983
 1.332755254778035, 14.025637000896017, 21.954999581981031,  5.360133176959620
13.819334817049173,  6.344012304974060, 79.847360044585741,  4.892304023732803
13.414497007426650,  0.886174124851320, 17.168080846830293,  5.246531247427286
11.012121753440951, 13.319816321400332, 44.151221020657722,  5.220915604816082
 5.536268319733736,  6.907206698384843, 69.204297399473433,  5.393565349436001
18.490731377728800,  4.588023574562584, 69.025893952527170,  4.886912213920717
14.893639880562260, 15.998497763831322, 34.195556377413119,  5.174333977815455
 3.734484285223512, 11.360098667623454, 12.698075420814977,  4.991258837623838
 3.966748029365381,  0.908638159111532, 112.227855387106246,  5.035779363754904
15.181463096022153, 11.290054161851746, 63.189133560032857,  5.014476826175454
17.297185732653247,  0.182070880706922, 40.580996300668154,  4.986923115626688
11.984452563264332, 15.789219770557741, 29.696796438116632,  5.547601065414973
18.123508435582924, 15.652473996190887, 101.135639665919484,  5.219747186945187
 8.805894950197830,  9.856283725445936, 112.619816530511528,  5.021424575344549
10.725104258195573,  7.718649581424174, 29.840398582664314,  5.064584319905824
12.748997614423846,  3.741495413047091, 67.054782356096339,  4.583593535009068
16.229259996887986,  4.246150387183118, 114.659431962196763,  4.797674434234618
 0.835459853092930,  2.135707125163444, 102.133765505923549,  4.820641393698957
14.937215764885694, 12.822101253914395, 85.442278153468777,  4.928419900433098
 9.793948696544264,  3.271516737111130, 78.679600243253461,  5.146438746447944
 6.471822987975715,  5.181045368707251,  7.066722512141033,  4.941702098509500
11.303636512112535,  4.893003551887693, 113.678297837428715,  5.329810292773406
 8.894088189803874,  4.895599920407264, 13.278583770703799,  4.816300238726039
17.572556328540021,  7.303378155156605,  5.784575407928993,  4.756519516420182
 2.739919081023919,  1.696471219604069, 77.391027561315653,  4.585811603296163
 0.501165570211325,  9.277242367854896, 20.478644486450509,  4.721414214845866
16.677019613486628, 17.143689660736737, 19.948209952530803,  4.650859737494074
10.567256953851011,  8.851515672037428, 54.561652167671312,  4.598101985142512
 7.768661746564784,  1.678933970090588, 37.004806845940365,  4.609608644587255
 3.259114237309938,  3.963429038180766, 65.624228599699492,  4.927582277309541
 3.262440127549486,  9.821100476276271, 72.915338907991085,  4.959724600864644
11.405717852436036,  5.504909449841109, 24.907466719210120,  5.454546068637590
13.286938496505208,  4.832025355438603, 105.566727245831402,  4.988945881246037
 5.113309099463248,  2.478152507219961, 52.674594862545533,  4.449725970256843
 7.971673380229412, 13.375912643931287, 32.578991847186458,  5.171279329077081
 9.233899719082819,  6.659326801737741, 91.543406104352400,  4.755150903176514
 4.163995133895199, 17.828115540843868, 44.612850340243924,  4.994707384486962
 1.477504005523451, 17.373469719735365, 105.241381743963402,  4.611732029877282
 3.451879943472972, 13.307854083007639, 104.192693860711103,  4.610550667842326
13.765061702418155,  5.970801989832767, 92.771241576973310,  4.683202371472440
 2.576251577840869, 12.040663529788581, 34.333477266016857,  5.221962149440573
14.631941503992424, 17.107843551331438,  1.816438813380103,  4.628475863236146
17.524845582137011, 16.330747415154971, 79.974223044709490,  5.125239902411235
 6.275926230964852, 10.405245524392820, 101.288644558276332,  5.350596456305367
 7.802203020557357,  0.975036994233705, 93.654728762595212,  5.322749805083033
 7.486022344688729,  2.118198320971064, 108.870706146137763,  4.976040427067760
17.458353243450180,  3.367632705644390, 84.665632778233856,  5.198962773513744
 7.024731189695971,  1.197007593613399, 75.147124086306135,  4.742523689565298
 5.330570936178769, 17.419738766497048, 116.445362136295358,  4.671175974712321
12.465462446961864,  7.772697048593725, 10.159827910176215,  5.161819676581771
12.443985491984387, 15.404984012253113, 81.927043896405493,  5.093587227465734
12.164144505719918, 18.411355822964097, 57.445114604579942,  5.016677680508830
 0.027052429260394, 15.234950027591553, 37.475924658689138,  5.075144629823270
17.990049055758377,  6.378687785945264, 11.712051299531790,  5.281923631622742
13.579279049842144,  9.587579823562754, 114.454173811659686,  5.217944434974296
 9.912062264246892,  6.563756919950977, 108.924815358301572,  5.119572224729859
10.633435351498989, 11.949271885699396,  8.448273036426780,  4.445013437182744
 5.689302469513693,  3.361693863022699, 48.070926900507637,  4.974757127563743
16.827864113284051,  2.632183125985478,  3.971265586375153,  5.367319209572268
 8.507476417011215, 17.473711812837685, 98.299080688769877,  5.080642603630357
15.956799071757590, 13.817339577064745, 46.073179278349421,  5.430936608270647
13.890669994233482, 11.070393009212612, 27.335441641405172,  5.421539606872150
 8.531535689131012, 12.752230418619083, 81.029623110931183,  4.504192889371160
 9.861326806200903,  9.252924853870606, 59.433112493358607,  5.277086482374454
 7.385735311968338,  8.313167996730686, 87.413295629926040,  4.875554650146130
 8.960445536848084, 12.430146431897629, 51.435345276690413,  5.271108057585582
13.218444108670981, 14.670202088085432, 15.289799301598107,  5.346078149829363
 3.361138829328941, 13.957619229690089, 70.179425696524874,  4.958419926084099
11.985025336519472,  2.587294726087830, 29.541833865893643,  5.516079754451648
 9.232095130231398,  4.871123705032703, 33.542562733866127,  4.735217184567948
12.601613803351773, 16.945973591707606, 100.950730998587730,  4.731618531147999
 9.878406464469606, 16.503620156477851, 109.181298670385800,  4.519948627595031
 2.746483487179933, 17.119569388818295, 18.047767767057675,  4.989774507285794
 5.811581638254830,  1.139000209740786, 102.189448780148879,  5.328802347496575
 7.477136881036010,  6.838934675321856, 51.353084373076442,  5.176549607242486
13.436397130838140,  3.093160027796423, 46.545183481741923,  4.834200121826568
10.588717598435235, 18.504355558531913, 12.868886714211008,  5.136658267125956
13.607287177583457,  8.133015471387845, 44.373033741923749,  5.102931657734852
 5.936816098008616, 13.347399581787862, 42.821955636640453,  5.256165150130280
13.904253136456271, 15.424711555397701, 65.533112687077860,  4.594970017424086
14.153286122260608, 11.470339996658778, 52.866067229739002,  4.905203436664288
14.931215887104083,  6.971496337089151,  1.524156694073050,  4.964649539629264
14.184584500861460,  0.073206248416969, 25.307185137639710,  5.249584865192983
18.702465383692171,  2.158831488723067, 26.355450387352928,  4.895963103666702
14.598044346440693, 11.382943283604360, 68.310121487983594,  5.287078304220286
 8.890409111056567,  9.197992450378829, 41.893625415701486,  5.091136475169704
 0.127768495171345, 11.682675074761452, 59.868389283463493,  4.918500502323924
 0.635546710478858,  6.993978896285608, 81.554441794801548,  5.091017006634015
 5.992442822555605,  6.308310811729808, 57.720916973923188,  4.954241081498815
 1.534798185238765, 15.659990777469663,  2.634825283897408,  4.812236862338468
18.572088123644846, 14.427624349067267, 11.535476346363218,  5.192371930166225
13.367677673740886,  7.058248335752224, 35.100101034323295,  4.755554369362171
 2.891923783157261,  3.412045958726660, 90.004369370423305,  4.523939904071209
17.148487120749234, 15.690871000431390, 62.088612350480361,  4.864325736866198
 4.290375145241925, 14.951838713618974, 99.710771283796689,  5.059220852137773
 9.309834454921555, 14.150521524819348, 85.597635652287622,  4.858650929794921
10.846899608813661,  3.151121688132442,  9.294939071864874,  4.713364180696275
12.555118041992207, 10.815095437765898, 48.365235831336435,  4.713944856948805
 6.511693981583957, 16.183524892310043, 48.793152966557763,  5.126118413585925
10.356100773083904,  7.908176291165482, 99.605726461310780,  4.779431977923304
 8.381519896838896,  9.537989300688348, 72.888484963014491,  5.290841371066068
 1.043138875830807,  7.244616080959282, 58.316813686491891,  4.653778659692663
14.026061632790682, 12.552652318041552, 101.892348041631138,  4.655852961389633
 5.134468015362116,  4.753519032235988, 80.399457003011108,  5.217436838790050
 4.580066661748290, 18.446779298859816, 87.108864327595484,  5.458388517060906
15.641216845820800, 10.392023838874353, 13.814799336004134,  4.906435484970484
12.309967031310268,  5.332451727960144, 87.741501151582852,  5.271337200246405
 3.307183428620046,  0.537217687878956, 29.785467346671638,  5.210334210293760
 5.236138308550214,  6.506939936227947, 44.185482222535356,  5.062471031520680
 6.954634389494873, 16.082139433506612, 28.499501490447066,  4.804946749467157
 8.966423881037878, 17.373731198878325, 53.106743103452281,  5.077317702116178
 8.106408172306987,  2.763080191239458, 66.088595416721304,  5.090936167880498
14.004050369511100,  7.377317118723657, 39.618310187601445,  4.347696876169185
16.382124062624889, 10.683415239625713,  8.992699860593147,  4.862972485676194
 2.466800748665471,  0.582524272604330, 82.218852208045377,  5.332197274459070
18.449149670970495,  0.342018513123183, 116.695922987057926,  4.998472062832256
14.169882004349429,  6.314647841318740, 70.921170828941399,  5.120782721760044
 8.938547328271074,  0.177735167452128, 113.367689979977328,  5.226856980235108
 5.272327658784112,  2.002094780969094, 15.598331333976954,  5.099219647776099
17.301493020449737,  2.792535623187782, 79.564765079054084,  5.067990776825661
16.622158491289387,  2.794306657687315, 58.210461035081792,  5.159050696760272
16.407210076580132,  3.886986410176249, 37.240392441336390,  5.001082855166637
17.903839910371154,  3.482640503790341, 63.191627575504214,  4.574933481685365
12.723157794032542,  1.767595591805745, 34.612088264904408,  4.845746617441918
10.458555738976029,  0.327321975415737, 86.838657792653990,  5.462103290345604
 1.581277432303298,  3.678988435430821,  7.602192588333789,  4.875964773821809
17.455021036342014,  0.806197999322234, 97.940661336029422,  4.919895353874099
 9.127100692897946,  3.580725120431432, 54.918389879724415,  5.001041257177237
11.512110354785163, 18.084531065208814, 68.869724115531781,  5.185782184098303
13.458222551128495, 18.675122687835913, 78.381744058143212,  4.762638987755174
 3.857600548786437,  9.865582859826150, 111.310791921168160,  5.206130973076629
 3.454763448407936,  2.695360875523238, 106.304071042776826,  4.645434144881062
 1.571368694842755,  9.853521325651061, 106.882738974279349,  4.759429085872390
 1.122978128344189,  7.233653476819339, 35.828687997778587,  4.935315582006320
 7.206545839941238,  3.725438815240536, 88.553033602425572,  4.547992343239441
 5.666504090113022,  9.303633657959590, 82.818799190826866,  5.133566830068315
10.176631755969160, 16.429270370145264, 35.942566161056185,  4.903511938880399
 8.573608640934438, 14.809630125369159, 102.559528442706281,  4.866309455895746
 3.819192128019740, 11.913948293293796, 51.486394501427547,  5.036621688168935
 6.109560233215051, 16.793421589674374, 106.314780364772233,  4.945651145475618
11.740156480149631, 15.835600513658900, 19.971948966516813,  4.745393489480306
10.882475876407758,  9.173105944536749, 14.919791537110290,  5.158379800673729
13.506248850041862, 17.794667787597955, 43.679550635459940,  5.058065999460275
10.529819553699589,  2.809909870740196, 100.245928252206525,  4.798415370761552
 3.624682447783981,  5.219955410471314, 85.448297663646684,  5.342779763175376
 0.133999506496458, 12.854444653186457, 16.912099192526441,  5.263901857769330
12.880616631618231,  2.332430837344381, 82.621591643828182,  5.036236196730609
12.700613000393103,  1.521941329407527, 39.449124520655126,  4.835942704126031
 5.215174587011375, 15.182645337414344, 83.210120205269405,  4.788816012276693
 6.819102618106820,  8.943446151975555, 34.968129159730481,  5.137062872810652
17.466125153972850, 17.385457210779261, 15.346076437751400,  4.693554532666814
 6.740022429016921,  8.081505843293614, 25.489213853165669,  5.119493165038985
 8.913356005660992, 16.417795044458749,  8.546155549837611,  5.026692882928579
18.446486503485190,  0.219701358593176, 53.858430874756891,  4.814763070878245
12.869350621899130,  8.520228542326452, 75.396070636650265,  5.188368143519376
 7.637953249407537,  3.496658124337961,  0.347257652697906,  5.509732033695975
13.664763573306221, 15.325621833733589, 10.078145456883007,  5.183725203180315
 3.325490500642534,  1.687310529290822,  3.150665376016081,  5.389810812705372
 7.974873334875476, 15.859785287105177, 90.178832560770545,  5.037664179587549
13.127002158462421,  3.499238697729506, 74.932699296395469,  4.891792504888375
 0.095533797851433, 12.944314429735194, 88.833593886321324,  4.668611006543504
 4.716437252794651,  9.521260409719387, 30.149723140728423,  5.436238940006730
12.428483473815794, 14.852261735062458, 61.025142800067435,  4.952296770035550
 2.256677459334470, 10.947297198606693, 97.238620597259086,  5.143282773116080
18.215823498109351, 10.958080500201534,  2.265712713478419,  5.470251232508750
12.854376295347913, 11.411907866812554, 32.725982936278299,  5.214948081003197
18.289883258420062, 16.002807333301181, 26.354605418460803,  4.908754484053151
17.737888171194882,  1.159389671676484, 108.847145165758150,  5.198234675610344
11.707273019206152, 10.385802808985291, 93.823390245352272,  5.274980267717059
10.108321764445201, 15.381826453937862, 24.662093755344145,  5.222894524890217
 8.573257142872247, 13.441147338072023, 12.818336703431291,  5.400311868146162
 9.178022841993798,  8.334146516341042, 79.230993921329954,  5.091967903396212
10.655460513580092, 10.457011366649258, 23.223752435999472,  5.094923669047533
 0.578360301827404,  6.189567768816363, 23.942472150234448,  4.560247301690374
10.067406325301107, 12.457544814641185, 76.649689099676451,  4.795710831303348
18.289073905908570,  8.151023570129807, 94.041306130033306,  4.880202727194537
16.564243942551169, 17.937746300448151, 93.237227008701950,  5.170836040224705
15.401562446009022,  1.510640233821282, 71.142055338432698,  4.802637257816732
17.649147414316051,  5.750564590828550, 46.424972966943074,  5.129135244025130
 0.297342433979556,  3.202975491720839, 16.872483410749435,  5.400689900509160
 0.235694985131657,  4.244402231868887, 51.085834699347522,  5.007715182635694
 0.910554799551210, 15.548405758823357, 96.217184765290540,  4.638981972447231
15.757963134011783,  6.981042943056940, 60.847303344302141,  4.830994617835122
17.384507889909727, 18.598887903944597, 75.384214535575410,  5.116899412237785
17.297359280500750,  9.923249086121979, 49.325004365526333,  5.051448796904354
 4.567020603909153, 11.843233314930380,  3.096836454164852,  4.974438124306261
 5.262177804606637, 11.125347731010384, 65.519532132663372,  5.332421822532045
 2.466341627854568,  3.222010253266665, 56.356120010603021,  4.733401968651672
 9.521340438674502,  4.194274088422925, 71.486094991380241,  5.081560650611707
17.696275887924386, 17.834494523260080,  7.755028075493460,  5.123987389272614
17.177562461876029, 11.479407265861274, 110.465041472822051,  5.235103758607833
 8.015690759094955,  0.307280346514474, 32.286888399450071,  5.038176948183516
15.908673190094243,  0.209279679478126, 49.642316250102510,  4.957721615746095
16.589419283320723,  7.289304486604506, 54.482048542104579,  5.275246282418362
 9.964614217915587,  6.293937242054288, 47.137476186985076,  4.651357870745604
 2.665279803429159,  4.338354430370519, 115.749475901978400,  5.110830636647598
14.450169193683118, 11.400584505732523, 19.128199674116669,  5.033373070544923
 9.321586100232995,  3.546971428747291, 17.761162360746173,  4.584356199871261
 1.328512459665878,  9.722393347498263, 44.369320360955093,  5.033797843248754
 2.108269042805812,  0.041134219199691, 49.057528271719960,  4.980077249455515
 9.871237878249241, 17.340030812568159,  1.061190172161479,  4.989559723321652
18.176203769381488, 14.631274036552682, 51.245659418886341,  5.256309086492368
 6.612102714323721,  7.352760912736139, 16.859193804941519,  4.880325682291260
10.484675516060470, 13.602933347496201, 56.402127428824535,  5.380733847297163
 8.845172489489700, 13.590289352479024, 68.472500280840691,  5.078284307711656
 2.176622855929870,  2.505441756059875, 38.350670519369444,  4.674095386289128
 9.384044884114193,  3.204927044360494, 60.105637816204599,  5.401843385814757
 2.884646192746831,  8.540636763007672,  8.488950745458563,  5.280473307144242
 6.225518131006779,  0.067038136666125, 57.217218202913415,  5.203859447952831
16.282489717802925,  8.661422342120542, 89.361312791115040,  5.340486483747343
 8.330903378552687,  9.316859533331192,  5.093359245290550,  4.915984424540062
16.382814425023042, 18.582171877076668, 30.063023295802633,  4.896097078868706
12.856349656534318, 18.631777841902810,  6.139658526666788,  5.200819082651335
16.710754893776340, 13.911944154697867, 30.245795419619444,  4.469995004830436
 1.135245167578499,  6.061912872881858, 98.339637268415046,  5.096563985369100
 4.038075650915022, 17.153278391337775,  7.237132325576932,  5.167720139876822
13.552018476543083, 15.566644570153890, 89.606315574704382,  5.381436227978202
17.300382721784352, 13.731356761738523, 105.935016545918018,  4.813912138376422
 2.627749306947188, 13.241366310516707, 115.282315806273516,  5.503427602664598
16.238089815751149,  4.307632838762394, 32.246084967065940,  5.027939662862913
 0.862582636147028, 13.258836079645143, 75.762835262327300,  5.151162826489153
 5.328390174251632,  8.740500640772529, 116.232328527542620,  5.157921441344915
15.246016435504409,  7.962952212657830, 84.333517944409749,  5.019928760976645
 1.254968442180981, 18.520730184100977, 69.453222281657773,  5.193193654376753
16.936075140416634, 10.168347885439351, 72.735188419855433,  5.005421110441329
 7.611906921322404, 14.519740736001085, 60.479612131057422,  4.759208780726546
 2.634438294866855, 14.247808881189616, 29.765283438141680,  4.915854134859769
15.274269130153062,  4.051985429608698, 42.387956462632737,  4.456336927197411
10.919146858209706,  5.088515561300666,  4.814142420262283,  5.007041025750146
12.424041022413336,  1.526052589358757, 91.499015151725516,  4.930361935295647
12.614775834378841,  1.779603067198712, 109.624050994711141,  5.223861408832142
 0.469356762838515, 11.526099813383084, 55.033634092134484,  4.727502923833671
15.473905764991562,  3.771152136942854, 21.088459990993492,  5.272962757038634
 8.080563089442474,  1.029210389617734,  4.990269634578396,  4.877344490257827
 7.245772792439216, 11.112640375928192, 91.395181062492711,  4.861983472309370
 5.355922976257666,  9.986527251283643, 20.933971177370900,  5.132137249443225
 1.436307231459928,  5.283110358285361, 110.848299624743404,  5.159266804287030
 6.659964125423327,  4.640948706247880, 29.314717159404424,  5.170599867266666
11.556997787416108, 10.797383999519063, 88.628184071270269,  5.133405102108692
18.709681157107603,  8.605383182186404, 114.569139807384943,  5.231054306462158
 5.834065995990779,  0.014444837271748, 62.395029407135105,  5.177408813253855
 3.214665990558803, 17.476655296792003, 92.296209338978187,  5.232005271823488
 1.820100010062969,  8.107612310031755, 15.957114913577559,  4.973589674842986
17.996057998800730, 18.381164203892681, 45.257401958795406,  4.529527389048527
 1.622288308727750, 18.462225665067209, 59.644520733639773,  4.899281710621650
10.502455477948613, 10.216557107444311, 104.368951074488677,  5.114846651078031
 4.898128325527810, 12.746332312069248, 25.422958058355462,  4.908130186809710
12.000618853929419, 11.166180143568347, 108.997677157471472,  4.755299958074726
 4.250223250469224, 16.336532415853839, 13.293890799556422,  5.038806586675516
13.763575497613788,  0.933119578105486, 62.189585404288408,  5.305720566782283
12.261825883951829, 12.504210322786694,  1.549605869035245,  5.234523880275928
 7.680918860920387, 13.189083292390258, 116.553901458517558,  4.916855299002505
 7.027794407819068, 11.938334775204561, 107.747286843196548,  5.170011639624812
15.057624014898391,  6.567659068605196, 110.177355980601561,  5.465420144740096
 2.927387228339875,  8.435198006092925, 90.092641821209412,  5.518553646442834
15.443604554783571, 18.073258304629078, 104.709164050126105,  4.934595090894024
16.356079682995723, 12.738512667380611, 93.121877882621121,  5.236112903717369
 1.682606677630288,  3.139338870040397, 43.109460441230198,  4.952378336382576
 2.668188692723555,  7.557734875416624, 77.138772314058258,  4.687151750149968
14.175624597533682, 18.546583385942160, 114.117789222023788,  4.998927071016260
10.179394789745514,  7.985642713483231,  0.769650262603823,  4.837350262617641
 8.966514355969762,  5.299021814321430, 83.792937816552495,  5.060041568600745
 4.222629443862476, 17.037463691099010, 39.661015669673070,  5.030039311398341
15.248323283391967,  8.468166519310447, 23.068351429865263,  4.918256368342836
13.725229709138357,  5.043463240762091, 14.228338284330915,  4.955160059881603
 8.076469669654152, 16.746087289752886, 16.898262254298345,  4.986327588688771
10.771538168861676,  9.845895210837366, 83.845970918097137,  4.714902937123025
 3.364269983382678,  6.362094831865271, 102.939989257753638,  5.144119668603252
 4.332950176200103,  3.651667328484222, 33.951578250167024,  5.385052999194077
13.241708815399024,  9.429128306621125,  5.462970561300303,  4.909315582778532
11.971267004931001, 13.023933043785039, 72.286858593261044,  4.779269225747662
16.436139260517162, 15.224524039301585, 71.452227062331616,  5.281181753517366
18.488362073485529, 14.441583759601672, 66.751312068784188,  5.037639577003509
 0.089652044092848, 16.689436989777107, 112.477840968827678,  4.721762869562101
15.004432793014354,  2.729456399949014, 101.473586629732694,  4.471702935744545
 6.340694538643864,  1.567641335866736, 10.603669170081076,  5.133264886972984
16.103316154289281,  0.614140712913565, 66.561097809006228,  4.631049044025637
11.294623108159206, 17.634240826468844, 74.026228426186620,  5.165753787846080
14.612626666000951, 14.382615843530543, 76.241571022317160,  5.101704090885011
 5.100484644816770,  5.433351943579948, 93.867329711203553,  5.019820618556776
 9.830687663334633,  5.963239029944051, 38.199079448685332,  4.901072634382357
16.969472052527745, 15.439584375443863, 57.084275473670672,  5.160733171411697
 1.356445191251670,  8.010611954103549, 63.204158001537287,  5.225239949679428
 0.526315743498239, 15.163347012850842, 84.574528005978834,  4.974522692702003
14.505160088282219, 10.633977373227870, 57.754531621595838,  4.969022183858256
17.107177714339201,  9.489415906039834, 77.902300972019333,  4.842895898947040
 8.922707338271492, 16.859383634794145, 78.483239147816121,  5.007858873429316
 8.965408428965253,  0.510252174480697, 45.488241126683221,  5.128921124235068
13.842671578234643, 15.118033056483716, 39.253361488241936,  5.304397917522514
12.831679840154345,  0.824894901730488, 96.554134499841552,  4.722463811576436
16.117476920886979, 13.943885837570786, 115.518425498974509,  5.086972015361696
15.192384674399165,  9.379149602445846, 105.850009453415765,  4.853474459638160
13.832194644644458, 16.335497030456285, 53.267719375398450,  4.868381917386727
12.715187559349268,  2.625700646314960,  0.932366433866533,  4.856884095349359
 6.311504017501320,  2.386813769141219, 41.582291484879626,  4.906938852556212
 1.475102245906933, 10.002030449198523, 85.387930556551069,  4.797233793656742
 6.261613895272693,  5.161433037525109, 98.832014883144453,  5.187868042567763
18.647467774454469, 10.357470892668665, 102.018468049964611,  5.566581629154160
10.309162385696650,  4.847500658783639, 95.870227360374997,  4.859683943602474
10.985195115268894,  1.513189907279502, 21.682766237597868,  4.831422118629335
16.765466675216459,  3.452553107904955, 89.796258231087222,  5.153529678507309
14.579053046026495,  7.287669040107227, 101.615871971616414,  4.656428723448957
 4.029254889763774, 16.005017895623876, 78.571061663306111,  4.924101837004836
16.291301190733872, 11.254117680379590, 41.519645967293286,  4.896685474224158
 6.079855405775715,  1.259539102709820, 20.636111180362828,  5.212422264504379
 9.319966969990176, 11.945088372106131, 18.718528728976548,  4.743064601884218
 6.651409365518274,  6.537277617199467, 63.075719335747586,  4.996296701049285
15.958168595932243,  6.211482552443893, 27.526096696585412,  5.141249727452050
15.037888006426908, 15.315762194252025, 97.207877902597730,  4.767902302157519
 6.190936507189705, 14.386497880077846, 95.118247295479804,  4.922241327094489
 1.439609123862387, 18.408948440200440, 64.545138678327149,  4.628739993920979
16.359748524519791, 10.830837852274273, 36.491399172142572,  5.120130628722969
 4.206365532634896,  5.673327198451057, 12.439902204359113,  4.816606847198904
11.442431696379957, 14.259128294998646, 113.261112664647996,  5.301877076106294
 3.188545949976455,  3.549397844116019, 72.750508237738160,  5.443210881356566
 3.010336445929390,  7.479018952218279, 53.832716645872793,  5.117645567831295
 8.566834976562404, 14.116334569598465,  4.328898010523010,  4.537132395557031
 3.160084875044210, 14.561627157346161, 62.471643682881584,  4.747509435460357
 7.106943652732014,  9.526485103369621, 96.161502424350445,  5.184909582817314
13.728941036892619,  6.421267953786702, 50.241202518962695,  5.096597634725511
 3.816237850913813,  0.768808700995178, 97.218768953191983,  5.354940779268067
 8.392883646494527,  1.322834705760700, 25.861780224139096,  5.009397938052371
11.607928247514703,  6.525757642225241, 63.371257919192303,  4.920179502638591
 6.306620140151210, 10.771127809679696, 55.625039358188076,  4.832593043404379
 2.488622485817503, 12.673757377476100, 92.739361671979523,  4.505655361297224
 4.922962772223185, 10.419889926318360, 60.387028477636221,  5.047861674954145
15.833337921962885,  7.123272656714994, 65.794380949614904,  4.894112342185773
 7.821551646868570,  5.670474859087498, 21.511018793757145,  4.421733578034154
10.465128778076082,  8.244845941652770, 67.944917316019229,  5.114310833189658
 6.851546979424196, 13.208188388753003, 37.744449056450833,  5.016402518806533
 1.728102217991468, 11.996403405183555, 80.736240074269375,  5.255970500814271
 4.760729447818841, 12.923242278687093, 87.521323520724039,  4.975611257131742
15.291670860722533, 13.965268992310254,  5.429435574743489,  5.033730089240951
 4.405694226520027, 16.715394687562540, 34.736575526458687,  4.844421295474450
 7.527390360933595,  8.821051112865138, 10.676598590262470,  4.986780649392849
 3.248748028000532,  6.957334435827820,  3.523361944170308,  5.164350794616060
 7.199103955372018, 10.374618396009136, 46.941324789036585,  5.212717643126410
15.178122095353396, 17.692317007226084, 85.311375619715747,  4.727092689136057
12.231689963135894, 14.628750923862457, 105.676573939999543,  4.680057616866912
 7.581301940352773,  0.664475461731237, 82.532119319867903,  4.915377829012957
14.727934215167926, 15.876724119236796, 109.654383800238577,  4.957000353692415
 0.762872210235040, 14.889963376654297, 42.500723292713054,  4.852073911684620
15.356296748142180, 10.245363921918834, 97.670289692539853,  5.321688833608320
 5.939221070760662, 12.531897962779055,  7.877419699756693,  4.836673994044649
11.873463216925977,  7.136228616811418, 19.630590147889716,  4.975087070273498
10.619441445643194,  4.414485772687522, 42.789039861746019,  4.913154493174321
 0.909746358122210,  9.566682314669622, 68.285106330579737,  5.436070397127521
10.150380328282933,  2.536858828108514, 50.148069866316256,  4.974096577225486
 2.552842591290145, 14.289035788576363, 108.912516758025134,  5.185732895192824
 2.355570798463023, 13.846039149644348, 47.060870389011548,  5.019155674100525
 3.618032569823047, 14.403666139492580, 57.599724798178784,  5.018314785502874
 6.369787057776579, 14.934628086914794, 21.215974564691543,  4.980951345425477
 1.173332328407639,  1.439432463283828, 21.593142920315557,  4.790803493319667
 6.472217915411753,  0.055126617775426, 70.249933413941378,  5.359327563459283
 0.584469227417979,  3.351838803071948, 94.150722512319533,  4.937345877759113
 3.386907323205919,  5.479502145576038, 20.238457620361022,  4.800901132443075
18.227976334168357,  5.478926449581508, 106.131402187250927,  5.041024675642586
18.512269386737433, 17.667539169271016, 88.677406838543376,  4.745285902519042
17.592040582284849,  5.647543574972504, 74.802812320829730,  5.017029419349761
15.333749735726240,  1.064895046367231, 11.764353954484182,  4.935911507012643
 6.785806423932338,  5.843377760286932, 75.783688063323083,  4.618914888536305
 2.462829389417087, 11.123622043748830, 39.519779328486344,  5.307500660223232
 3.117857805203039,  7.688513061917758, 48.694267295506478,  5.167660727611125
 5.369105608579918, 11.467744901180922, 77.127151847822248,  4.811970500893668
11.747796516037164, 16.080579170300588, 48.605507382128344,  5.352080911201146
 1.670905135999785,  5.342298472363351, 29.719743697658295,  4.925156880777013
 0.463483470802090, 10.391616908716253, 26.592269339611068,  5.363952046339105
 6.305051930875635,  5.487186150714580, 112.392641209897732,  5.053093018824018
14.888814265495013, 14.164108213595112, 23.278431064899411,  4.967313032606050
13.121416263973034, 11.054428631370785, 79.927020096610846,  4.574845998989655
 4.479378085989728,  3.827496864305933, 24.564015770075180,  4.637647531309492
 5.178051418100922,  6.857993012346744, 107.587705262330005,  4.722539252295763
 6.517624878378356, 14.662661088162931, 112.000466275554814,  4.875026889330459
 8.914641709887768, 11.800912394783618, 27.876825390221356,  4.692108562058467
 4.911531558630808,  6.520991420057468, 39.084873946643071,  5.146070963982231
 3.989649040151068, 16.649286412032655, 53.149438190746771,  4.976046045403542
 1.513130105036526,  1.607977015944769, 12.079536319551035,  4.960544436848298
11.320256657808441, 10.780627000598951, 37.659459831171588,  5.152617492922144
 4.036162654243081, 17.669828360155218, 24.792857279585736,  5.147879472670150
 5.075937688938167, 12.988910597516528, 17.021298820735144,  4.621815514863227
 3.232525619458674, 17.257231916929495, 73.900943655110524,  4.862667861590536
10.420642991660827,  0.548481486568847, 104.887353513910426,  5.401094893680757
10.440509963347282, 12.693025558003335, 98.463771410454243,  5.045266968189302
18.511211458172617,  6.912171352874966, 40.575928592874227,  4.902381588747653
15.021086348403644,  5.083517497503706, 97.349471602077642,  4.971984187808348
10.225764869277265, 11.526099020560125, 64.054369750545703,  5.046102486916579
12.764015039326983,  5.764210357980150, 57.325522853817631,  4.727374816356144
15.196981888988853,  4.260019303311462,  8.316827740851052,  4.466945231869822
 5.283538692271314, 16.002436466572306, 66.350142295915788,  4.509380544506858
16.198117145043827,  7.199729659850325, 17.663271731890845,  4.521411385979325
 3.227030584537028,  4.013269308539843, 60.875020883745897,  4.557272226245539
 8.409294381921271,  5.442972771316053, 104.010790364814355,  5.321215164833965
 0.144073002977923,  0.525006978238701, 34.367781131358562,  5.090577338709299
