BANDS
8 8
NANOPARTICLES
cell(1), 18.756
cell(2), 18.756
cell(3), 117.225
 9.507592036439107, 10.884708072305093, 57.371530011982784,  4.894009073992087
13.578628528344707,  4.103966641940089, 53.329335009068060,  4.993056338427098
15.429115467973865,  5.421057938919413, 36.379960478709314,  5.129773360371522
 0.440296486269093,  5.599633804388471, 80.881461725568656,  5.503585344443768
 0.391736874159426,  8.365136089995493, 69.407107697197560,  4.500669372108526
14.802688107117735,  7.472798897893147, 18.101798555037952,  4.898656539491491
 5.784915269953401,  4.427986981360877, 82.333133467624890,  5.075863854746686
 2.789560290431528, 12.732882318097099, 112.105205565425777,  5.348751507287813
 5.550042959548019,  1.029217262698757, 78.338300657380245,  4.292501081535005
17.370209576368339, 10.644891700379526,  4.318950344491689,  5.270624545456807
14.530351343635433, 17.043449713748288, 116.417313580701403,  4.984347045055951
16.064524706668120, 15.347585782394807, 44.434394587703473,  5.311359111439323
 7.088532017097829, 18.284053333767542, 82.494281003955436,  5.061663793236783
 9.112368156209900, 16.169240441281829, 88.892583898751596,  5.422113363157419
17.132717844306857,  4.377693446059514, 40.976340067848511,  4.880667085705517
 7.075953400545775, 13.532064345340764, 72.326081710658002,  4.929741375669441
18.515466729987363, 10.812975470711345, 56.306253842805702,  4.843202319643091
15.809948090378299, 15.663815015241527, 109.839854410834519,  4.922314795855469
 6.469078825259374,  7.079746537143973, 37.058570080507273,  5.489982155680428
 8.724721171834942, 13.608531753300005, 105.521243096231501,  4.595060200650279
 4.068294938923988, 11.714828294997837, 26.680653183347804,  4.985641842336020
16.009866075773015, 13.703440774607298,  8.207663715613196,  4.987213020480330
11.847670820064350, 16.594546277068687, 84.146427263495539,  5.560378044628280
11.429077237120593,  5.463720093486883, 70.263906627748653,  4.910010918208892
12.303807825257314,  2.452784922555947,  3.807957783472530,  5.054339722995381
18.466451633916776,  0.453325617616184, 87.985663344959818,  5.377113277161619
 7.806497252571140,  9.529050846732908,  8.477811088695066,  4.967283121954226
17.320369967160218, 18.317892488887491, 15.022342126132177,  4.749209145664488
18.370677946969828, 11.904485609330200, 108.302106632456230,  4.677795684352015
 2.368585246199018, 12.442927912002322, 52.474104071804774,  4.942859944572235
13.123883547580141,  8.578029267227564, 66.270716617064409,  5.205421900934398
12.235895787123374,  7.724166519834691, 25.738487484314565,  4.883832703132958
 2.690554165160361, 16.565755223361059, 97.476985792086609,  5.224927259995729
17.477130177122238,  8.775773471654315,  9.347199914529840,  4.586082907396929
10.722330289628399, 13.737794695667915, 78.573336649128848,  4.799723452102231
 5.822983813804558, 18.091592236251604, 46.189226289580880,  4.678714017331146
10.167504965886858, 10.455040019180338, 69.975554979374849,  4.974459871826574
 4.436617617109087, 11.859806690046547, 47.549064486369382,  5.275420023732640
 1.071309350844101,  4.924613996416355, 91.268780043328448,  5.413971184806507
 6.815361163076711, 15.771742353928753, 35.502716143753723,  5.226314894000511
17.184691728640647,  4.035211933102234, 98.971905460102093,  5.443346931284010
14.979360112928463,  8.890586262302509, 41.144792388749813,  5.088642852508787
12.241643606895867,  8.843291032389210, 53.877548809176254,  4.870663870219908
 8.626100102566886, 13.304220146074780, 44.799317817208930,  5.015288426125560
16.656263478826364, 15.098221959630090, 34.654955724195212,  4.735908032085214
15.333491148213797, 15.685240116203067, 54.817892504771322,  5.065788845752509
 6.985177177942541, 10.987070472132748, 52.227466902561353,  4.750437474168142
16.305773602416551,  3.608465602769642, 72.275389406689627,  5.107103440155373
12.671118091460677, 11.826142469368421, 82.415009500539085,  4.621849104397620
18.598592955395315,  2.208394758229676, 114.358659608742698,  5.073144903886456
13.766882737024153,  7.825868922470113, 84.685478944264716,  4.822712665406470
10.680134316710650,  3.634086935539942, 111.167688783726732,  5.339961836030612
11.664014074907001, 15.314793604113827, 70.955467337923722,  5.175952057851942
 7.773148529511928,  9.769022148643375, 23.842158247623566,  5.124878319413262
10.938850295069198,  8.676512659290237, 114.281559014878766,  5.339153583515197
 3.260010829746287, 11.369990157580359, 99.410799701294806,  5.085924759207325
15.789803598343159, 15.367655810789389,  3.615876103653729,  4.785528595275268
15.806702422393892,  1.245532629567300, 82.422563180743921,  5.434552472154993
15.172023996052456, 10.495990003602403, 78.345785277274999,  5.258583118454835
 2.931962527123980,  1.508387411125234,  4.678151343093290,  4.840416582573501
 2.440461092339139, 15.242541296360756, 44.268754709156234,  4.958308218607491
 9.035699007439346,  4.091618479956369, 116.209280637302072,  5.305331139968779
 2.918252164534253, 17.627188357652301, 66.706320815986658,  5.136925494493006
 3.889256062879773,  2.285197774262677, 42.895009309144484,  4.856316962386584
 8.362339031049748,  0.025553395758942, 22.645369581940319,  4.703475311795707
 3.259506391787197,  6.002632975830937, 72.456833760663429,  5.107318481306096
15.938046083746837,  4.900660095974056, 27.368425649654117,  4.967172473188277
 5.885670321397445,  1.904986198488055, 38.169211021265454,  5.152204653281177
 1.938968995988547, 17.561374715877612, 61.602854357522887,  5.247703818811466
 2.323220869762430,  7.441273324233439, 40.393376769243289,  5.160715318160449
 1.325178588815870,  6.422124752939751, 104.099060495078731,  5.008357602792469
18.693443424987326, 16.196027609146320, 105.914253874481901,  4.868685069091860
 1.050067009150195, 11.312294287501253, 103.828499992715734,  4.793032723608675
 5.550665525035558, 16.155686073550790, 40.486868987786821,  4.987838091014913
 8.544175680784015, 11.060033136486204, 33.913854343383470,  5.294312960929375
 2.639686417065470,  4.060058595328623, 20.543554976465909,  4.932491053346187
 6.387572640777901,  5.431045025915706,  3.380563108434644,  5.298467525030938
17.509521090115435, 15.288485492097477, 64.921084935374807,  5.013415226543446
 4.101833894369310, 10.205649098124525, 14.606554576788840,  5.446156483100648
16.707078861638607,  8.904588434000519, 24.063405048290910,  4.951568779438888
 4.431094557004006,  0.982579093389121, 33.438426196215737,  4.880267020569210
 6.313515804561837,  5.778266142984275, 90.555773072569764,  5.025036361427003
 3.051239013152485,  0.846399835205920, 71.622031681166376,  4.579148215388964
12.567631567479978, 11.937170333919688, 91.475095568980933,  5.243684651259727
10.931937346088194, 10.687327884117884, 49.692968416492498,  4.638239575806879
12.586064627273487,  2.895589348421014,  9.358998858010333,  5.157247779900310
 8.514349681869694,  0.896311321062281, 42.309654532105490,  4.855676673853477
 6.447684516732088, 16.007734621155517, 54.540477506075867,  4.850465149336173
17.537133218553841, 17.779206689760549, 10.336205284380448,  4.668255045091068
 7.015824567015067,  2.881666816654995, 18.792100613527509,  4.780983400898909
11.539692953314326,  8.593086034927769, 37.383147487451382,  5.106344888577361
11.729255640822624,  7.273117073168951, 32.175727852692958,  4.949092272289864
15.741395965102873, 11.363124898913222, 87.487457155651228,  5.010824988418044
 3.860496199766478, 13.274818111023272, 64.031711430602329,  5.249754315595367
12.009061127131819,  7.177694231160873,  1.948560614465576,  5.110672939011905
 4.443928696156045, 17.968086461376767,  8.728814603316321,  4.945484394085113
15.362859384531983,  4.095405342020661, 67.297200045607354,  5.021536266964764
14.868389818918887,  1.026948524217532, 91.993555013415701,  4.776882272420750
 1.462340729612314, 11.994103975513790, 78.297562173483868,  5.265724541090246
17.977001738980647,  9.919950801727330, 37.230150224353352,  4.982953020585462
17.871256851672829, 10.250707588622834, 65.166328774489614,  5.097289449093866
14.289888689815632,  2.667659422723902, 31.501390768881539,  4.969800460438570
 4.659598391349931, 10.614075508930229, 56.479981798615377,  4.969953663610659
 5.351516185978934, 12.634103839948356, 87.295873880797956,  5.125895783731126
 4.073425982953125, 16.583053782685710, 115.035959988977211,  4.640697522818738
16.766098867572545,  6.176539274726490, 56.641687311053367,  5.083794096523800
 1.008427228822037, 18.703089549735925, 93.061220010083957,  5.139013027635442
14.020199987300785,  4.924347773646141, 107.414554614173241,  5.033420673614431
 1.131688027983576,  8.030677274124928, 18.130921059129065,  4.743071999473236
17.260580522659911,  1.391155422160018, 108.586034088202396,  4.811593304355956
15.980082825529125, 18.043225198173747, 96.614175575698809,  5.315463506511500
12.344795961695301,  0.167158103792959, 13.739651585586216,  5.111185210091691
14.036904509129588,  1.240229563784930, 43.300002872642999,  5.081670855989633
 1.224061848479782, 15.942403983960912,  5.774546950865775,  4.679138360009288
 0.108430861433075, 10.850303121713468, 32.612442817428381,  4.597979906447482
 3.338110432038342, 17.039886920372798, 50.401344153226070,  5.314861303578435
11.847628799925817, 13.435969584283598, 66.155517883296781,  4.795553578727327
13.959905114226336,  5.832038014699608, 80.240925869301179,  4.924721639804519
 6.286517839191346, 13.642202881147684, 11.283604994787561,  5.047417310369108
 4.029361487147284,  8.285504993098545, 108.086701763582042,  5.310981656064937
 6.509603466559606,  6.467136481834027, 112.241358542554281,  4.965042105799114
 2.976833362432884,  2.852154670570965, 11.776935992924459,  4.984465758457898
10.670613398145003, 17.657535249836208, 46.299575477978195,  5.050933176990782
 7.128755055649981,  6.537768701927417, 54.480988147706000,  5.216075970505641
 3.891711723404561,  4.665950016509846, 116.139517441178938,  5.046234760959610
18.460776783643567,  4.018253453813792, 50.599685805512365,  5.294388267892417
 5.849335236644161, 10.240119238853417, 103.702581889734759,  4.952690075575561
 7.246090503237941,  4.772868726023296, 23.295138109002682,  4.975658159104455
 7.991135432784842, 14.962508890629172, 49.589656081055431,  4.997875810329791
 3.142233671260660,  1.226193103335956, 16.428408015911241,  4.871026690646423
 2.148235313040129, 12.591654109637004, 40.148093952972701,  4.851793232165224
18.379448152402482, 13.419524895023800, 28.865038277201112,  4.539513728276966
16.546561522623417,  8.258480805327233, 116.939649270188752,  5.213621523933944
 5.156228104302691,  7.254450850871385, 49.987844979380334,  4.688707056823506
 4.236259011723742,  9.358980061559818, 81.933697894057019,  5.288203835443567
12.423846701629687,  5.987523164059006, 44.593749541586078,  5.273470211802224
 6.001921755254806,  2.062604014161590, 27.452768907945281,  5.247719102193297
 1.609617798723435, 16.675756713985457, 37.411778215401931,  5.025479697902980
 7.357523751092406, 14.996173828794227, 67.370576025611058,  5.013642512365138
17.737009840527840,  1.405720726366167, 55.097952211879530,  5.096275192761091
 3.458085697260248,  6.614687731388684, 45.397689775610168,  5.164405290109285
 0.078758245846072, 13.418059649283405, 15.649095428953808,  5.032264596149393
16.456896476944827, 11.500740790169042, 112.850746445855847,  5.220889830693459
 9.233011404860324,  8.130429213956120, 82.726040959885665,  5.071193151038615
10.300428460530155,  6.024285333884628,  6.372955944063190,  4.608154073588127
 7.866135415688520,  1.971704641349370, 86.780113126025554,  4.927094271659439
15.195305197413910,  6.156585345291031, 112.331781442049916,  5.260183080411996
10.675908708033612,  3.340896760101496, 82.962569994887829,  4.938396099559001
12.967465735383554, 12.237467636961256,  0.640326149201418,  5.514400827942612
15.818135174855501,  8.929916064687987, 60.749161951441295,  4.972165256613757
12.018122388702688, 17.587671170273563, 63.479731563951049,  4.883542488993581
 0.695234077687891,  8.365600999200256, 28.167561878733672,  4.975029843570828
12.722781848693028, 11.562445562144557, 22.523448438228094,  5.109646232703865
17.012520301024743, 11.562804453106583, 19.899309835151399,  4.932098503411694
 6.087040062028889,  1.525197365486094, 112.691115363386643,  4.992665543636507
13.286692181587544,  2.718092509249284, 18.919982841175614,  5.202447314118940
17.859912310231447, 13.393391958203519, 98.198754995497922,  4.453937994314285
 8.428124441711404, 14.067206627349607, 20.899929219021853,  5.349061385448140
 0.811243719085150, 14.242513028897068, 88.687813183556443,  4.856171135289946
 7.748614301430007, 14.848720489975298,  6.439353468453922,  5.229471720427648
16.037452563854401,  0.339479244303045, 25.106593609014851,  5.091681121104711
 3.682633606156664, 11.368416849588717, 35.695751408999726,  4.876277219850836
 6.780949572506983,  6.825992723383176, 68.775076550572635,  5.203791543483450
 9.088100973318749,  9.929492580738790, 13.266641079925556,  4.893426509616984
10.226129577039824,  6.194709307606461, 87.564208411650810,  4.853017178395730
 6.437117908413185, 11.312379069817263, 76.767754191040922,  4.880155994551346
 3.624067765146024, 16.069953441990698, 74.623899107884256,  4.753159976286036
10.090161532044851,  6.043988494492647, 50.412021190003280,  4.891747362013160
 1.941830552220357,  8.155611402823041, 59.896531111301158,  5.044132524230473
11.954218076677451,  3.111744858281911, 23.878068599517217,  5.072005915203378
11.432148082140150,  0.888303607457080, 68.069735160311666,  5.238016734760381
 1.985010257155753,  2.596797244081363, 75.894497856826618,  4.897564637146147
14.375501864791529, 10.935002968426662, 34.044837921283154,  4.827334214945953
 0.558221495324489, 17.421890373014815, 78.822148895018714,  5.294734401166919
 6.297908018753068, 10.096595205634948, 61.031312139048808,  4.759100739217475
 9.791614310493731, 13.979829633913043, 25.958130276281732,  5.127423246180038
13.676841185309431, 16.045415659322547, 75.537758390723013,  4.790295215723345
 7.692211508544478,  3.584308979046386, 98.886476486062932,  5.251089087886315
11.410375103965670, 10.825816745360271, 102.365078727763759,  5.376829747750476
16.934896889769437, 14.413701438722905, 92.972622201078863,  5.134755103729271
12.853806701448196,  5.859537616549860, 75.401643088861604,  4.938644936246837
17.405194964071985,  4.008945075184700,  9.819483793857662,  4.775897111372021
 1.320011809910712,  7.791268091945017, 113.045721728714852,  5.128983765897691
 0.454599386603560,  0.622923830676885, 46.369152034298644,  5.112155657415554
17.397331529925200,  5.245671630008313, 45.769415835875101,  4.870664995958430
12.004786670333326, 11.644278379693574, 74.396472809313522,  4.889846257271021
12.605165742833329, 16.557875235522115, 22.520723454702907,  4.874842890175869
 7.411380965348639, 11.088759422458329, 91.793068993588648,  5.223229577673843
 9.170326181483906, 13.835814905285023, 62.119617061950130,  4.919048667646885
13.983377983965235, 15.054208407275496, 17.847047129276575,  5.176293963614558
15.236902317141404,  0.387601816348504, 38.180820441708455,  5.563380442948015
 0.995130240574115,  3.206257481908475, 59.284904896550550,  4.853980583961230
 0.376086567703834, 14.567053414499474, 23.859914702677134,  5.839065338597375
 4.265503863731350, 17.434142239001478, 86.479017744419096,  4.847736263389324
18.755049539983510, 12.926484064076687, 60.715347300714960,  4.946884473139997
 6.668626507184362,  2.114613121773394, 67.135872122782985,  4.773681699663539
12.480110227482140, 10.438034633650602,  5.723332933503246,  4.903542516542067
10.173967249487021, 14.495485288551862, 14.614042520057620,  4.872171781142538
13.243206812625337,  0.938647434755359, 100.836107191440675,  5.251612292194106
 6.758526867372796, 14.289510882919757, 30.000522185900916,  4.991906045943169
16.550488114647454,  9.217554391884883, 100.345989358928634,  5.244053244523059
17.894387636290471,  9.683314729593299, 91.691115891220022,  4.849601470185860
17.424720841613464, 18.377356724554083, 20.099749982662651,  5.397054274690282
 3.992870972276305,  3.222729663521263, 63.196574026297100,  5.000790222125002
 9.510070709344024,  1.894016901875410, 55.384265041579944,  5.126807633489597
 6.285842215355497,  7.849576887521372, 19.264719291466641,  5.191487564833584
 3.883392129269364, 17.598003439355960, 20.820163856286982,  5.230289664107720
 2.473847679076966, 17.512992398497907, 110.007800802915014,  5.103335223255130
11.081961638627893, 10.784154919244003, 17.782340042016891,  5.040920222093185
 8.949489663080795,  4.346972805530644, 78.311753398649842,  5.146815634110944
 5.369377100768100,  3.831108680128973,  7.852396724547333,  4.412169549714344
 6.664624428783325, 17.837716917936493, 63.391866860978872,  4.860534266682106
 4.630768698917141, 14.841814570655634,  2.339512714569215,  5.042490548393964
 3.368892272353924,  6.524928074963680, 99.712136793472538,  4.625068467379965
 1.706634092355579,  4.030039255064178, 25.432988583133533,  5.021078980702320
 4.665213588961493, 15.438435669744443, 91.569576936170407,  5.060408660773974
 2.861347362439604,  1.852824846804746, 100.533251276148462,  4.916412974636839
 5.197519048089826,  0.710987766921345, 57.980194068739316,  5.211792074825653
 0.144637690409661, 18.474912757039540, 41.621189614528667,  4.572835654605319
 2.519117733608162, 16.701901494352079, 12.982062463100942,  4.714853214451352
 9.911427689579376, 17.929056353101522, 17.988758502349803,  4.761665964663885
 0.450055266203364,  7.905620994889947, 96.253141991124778,  4.837739543627208
 5.309516725781747,  5.343593501548001, 15.154322436204405,  4.616287980410377
14.778734997584303,  6.693109443834227, 89.349723099102235,  4.971251494105225
13.107009467868039, 12.928975289924038, 106.935189140451754,  4.711984396801498
14.356827197255207, 16.009092416562279, 88.871118870789573,  5.063738964743365
 3.737914061769667,  8.062662483305623, 64.762915951089184,  5.162940325956744
11.740086981118917, 18.284103011349295, 27.434396932600634,  4.759453661397277
 9.558327215599894, 17.372700131121711, 98.471387996088538,  4.654199687764518
 6.632898864364021,  3.869016517172283, 108.086078564088595,  4.839006093694402
 5.802997230617507, 15.835932546416766, 16.436582175248311,  4.968536541694319
 8.930822616900015,  9.840815566307990, 28.859669079256676,  5.126195274512710
 0.672456692381997,  8.906358223341403, 49.354279678167245,  4.948300135180458
16.812244383631690,  2.722551308597009, 103.955404509404374,  4.865990736006383
17.865005127528303, 17.706226949493100, 101.227716968064740,  4.671469198006661
 1.341011979831593,  8.740845047364378, 87.294795869826416,  5.145289133513052
16.811850830290499,  0.999573403667325,  5.851817142148505,  5.235356459546819
10.537130142753117,  4.091546429797323, 28.581613535619617,  4.941911254693870
13.391019581310838,  2.147003512414798, 87.218060657977645,  5.432516141910283
15.913231484781416,  2.299965461106205, 77.236911236839020,  5.136914707467314
17.033889915640088, 17.856932077175212, 50.639521417473915,  4.944803815451590
 9.813958594383802,  7.474404422145733, 106.104721766501768,  5.145662468984898
 5.257574095164876,  7.004758593363865, 27.142069222767166,  4.765143246889996
 7.338228972531070,  5.740934590886324, 42.117963035154858,  5.025234159238707
14.103126236968116, 11.870348809172691, 57.445270165340986,  4.505764203260088
10.111994825772491,  5.923325089345154, 16.238144019214637,  5.289202495487642
10.340751752796432, 18.366718276642594, 114.247279971608620,  4.815304022068326
11.023024721523878,  6.110999646203184, 57.884618548288081,  5.125056982094909
 4.083192091114696, 13.594563592391347, 107.069859625704339,  5.188273597836993
 8.185700594141492,  8.468347888443725, 46.318914263924107,  5.127809296708135
 8.336740854116066, 17.031837929069383, 75.735037219718649,  5.107708658065194
10.775434326050238,  7.148470323178716, 92.750308062816941,  5.274607063054963
 3.801611555792013,  2.515358603257108, 53.376484221224644,  5.041233164771228
 1.027558875643119,  2.896016030876222, 37.075269846859754,  5.001068167687859
13.176794003007515,  5.868924228600563, 102.484713829919102,  5.144517587855272
16.994356553075711, 15.357689896218186, 84.595973067612746,  5.063007699037120
 0.349156643355219,  6.763422686297121, 13.478421959892827,  4.979801237490054
 0.706589975461030, 12.631847388740864, 117.020092537698673,  5.297069931645218
18.605076401167004, 13.748852052506335, 48.510231417199293,  4.801480649283726
 8.243239784695746,  7.531027560946420, 73.810009232515341,  5.372513207845127
 1.346095026313125, 14.984571067975820, 70.587345322792302,  4.763986743446702
 2.095394041107658,  7.241144075157079, 53.836653268296544,  5.016243605832386
11.704456545612713, 15.778631847660677, 41.799735596340298,  4.901323745456166
 7.929597207301656,  0.960717062175437,  5.410017381948948,  4.690226808270512
 4.739661456007203,  1.292704250351388, 90.321038530269391,  4.492052488891188
 2.388697064532198, 12.062062208084184, 94.497310450029460,  4.968119506193085
11.775445007487590, 13.728682741995451, 30.737653314571759,  5.211042513889121
10.529087871902489, 11.125511570744498, 86.761794029326637,  5.153764512470158
15.136058467558048, 10.543671134784956, 95.641321733401014,  4.931498513859464
 6.940738424219449, 17.793279331861147, 106.998080894336624,  4.956237089983512
11.656127401120640, 13.736234919498061, 37.190038655971250,  5.182292375422624
18.358860126673495,  3.956517659785632,  1.904079299860707,  5.098302677881116
10.256763241562142, 16.727589070626198,  2.098522277267893,  5.362999362638840
10.393571889287863, 11.156411868356024, 95.846238810500353,  4.627368068809098
 2.315250142854424,  8.091062020469639,  2.068639738503359,  4.777009114600458
 4.182605516291895, 11.307006413895948, 68.843995374579762,  5.155311953526116
13.304818003118354,  4.863500328046332, 62.464553575411472,  5.180464628790615
 8.393888748710378,  5.315671954822447, 11.300902950366600,  5.229851274692921
11.187428094227299, 16.351477360670334, 58.027695181310975,  5.498641869528817
11.003311497949820,  9.297079917836898, 61.749870557702472,  4.882330961289555
13.831235255636361,  2.504044213527262, 48.388316016228927,  5.401014321702610
14.490787869234207,  4.788184559991083, 13.712449436665990,  5.069777546776264
 7.765743617224740,  0.982347347555368, 50.799675366040248,  4.843200943148286
16.338509595398854, 18.087007619988235, 69.044269146829734,  5.223555475172350
10.318735500932080,  3.205049378733635, 34.796850990317729,  5.111492077792168
14.499631895999473,  0.725801426465766, 112.325297378026619,  4.536590724152219
18.174454168641692,  6.839113370688465, 108.592851016816127,  4.396428335274982
14.135324417945677,  3.260669573092887, 116.426831033328384,  4.985031831690741
 3.278540538890187, 15.424209011108811, 102.418545825792378,  4.923688687577441
14.052893378094312, 17.679352918257877, 105.439198001152334,  4.920856858995616
15.004414399474767,  8.611603671690492, 71.802740743210492,  5.081366237512437
 8.383462311867348, 10.719480037610165, 109.977221701447803,  5.356239817746990
11.735475774945025,  1.348247503584850, 73.296293857039075,  5.262449724771455
 3.427354513430685, 12.382377007216860, 19.595869047688449,  5.521160697621984
15.843137925165586, 12.889456689022625, 69.096654616313131,  5.176513657790558
12.443909779910506, 17.109534584132845,  6.882827773268721,  5.182868553153162
15.701151729699216,  9.160810147139802, 105.376189813909576,  4.950835890690345
 6.551466540735280,  0.331873429200203, 94.824319684003868,  5.402070885278373
13.413004940481851, 10.997677444069778, 45.512738960725265,  5.102803980044812
 2.859136160084843, 14.114907657115950, 83.178186390928857,  4.915315098994528
 0.024986375182510, 10.591445028052641, 44.443905597143043,  5.499925608783827
14.616292517083764,  7.611374768758588, 49.115842440841050,  5.027275817683664
 2.353617685856240,  3.720056473128266, 110.357697144589878,  4.842012914109323
16.300654948747859,  1.031618861511291, 63.492699686339847,  4.731009529745903
 6.155406827110358,  5.534984461324357, 59.363464565139822,  4.935453973651223
17.908699789031925, 17.833642433667745, 73.888574086387379,  4.971096349483848
 8.430798498692806,  3.403935368059973, 46.559237915276974,  5.013039184090170
 6.943178546366442, 18.600671775935972, 102.200176381765033,  4.771938295939997
13.754321758715488,  2.074058247455828, 57.811251121918218,  4.579372351075953
 5.132193871114872, 15.337147278387423, 79.085207112840607,  4.762085335980011
 2.917785613315367, 10.765160476979801, 73.573130559582012,  4.681674224753150
 4.433083401697079,  6.728282015191548, 77.413912010452421,  5.175309761471598
12.904211701320055,  9.102262189954601, 109.327530817160564,  4.312095626036560
 5.150679759821572,  9.818446327730612, 115.687646668215550,  5.019854633701057
15.008678170981790, 15.179538240824328, 80.110523048441664,  4.746859616597787
11.228900032405040, 16.479005892556071, 93.836781758830185,  5.338778998380868
 2.145113265315689,  1.146945895804593, 82.921451238998813,  4.794624914603487
10.198733594449470, 18.348951369291921, 38.069001457262907,  4.634694093276178
 7.110618237330282, 15.531594947271758, 111.429555374712692,  4.998826493899674
15.522360819188197, 16.942178068961915, 30.007576992723596,  4.768316339184712
11.232627642344143, 13.038075935925455,  9.894831236499536,  5.230272855803020
 1.526659148640996, 15.813413675506260, 56.183713295262727,  5.193116185487856
 3.999633170864826,  7.358825867133679, 10.416255199745965,  4.602875527254395
 8.413485371069381,  5.613093242725546, 63.998508886045592,  5.175351118242798
18.137761790659336,  6.983871658616923, 75.772892782814935,  5.275496470413892
 6.015546422908828,  0.626273017767312,  1.074270732119511,  4.782297917080331
10.299358976626030,  2.329144985163101, 104.978288311958465,  5.251290509686602
 9.517728701270599,  1.979477951743161, 60.505402449026299,  5.109742350363152
 6.702884267285703,  5.090079395785787, 31.692562425532181,  5.125324517157515
 8.670244016884988, 18.692145476858173, 31.216037339886313,  4.902375510114926
11.536333789663107,  4.016940864556118, 39.756509135444638,  5.203587956014140
12.216080099567945,  7.098921329710090, 97.673148923498616,  4.967003812834169
 7.511739001803210, 13.643961340702017, 100.589917658152288,  4.835003373210557
 7.499173954336570,  1.194291908965545, 14.279019673133881,  4.842809821520734
 7.988258058265783, 10.673216213022609,  2.926365029065227,  5.686788950891223
17.190192943273662, 12.803827446615733, 74.101115715627401,  5.190005892901625
11.224340408804377, 17.551507714799211, 109.484801205182720,  4.953388335454501
14.616874284339476, 14.117771880343907, 26.400759578699169,  4.561659728964700
 7.695081228841694,  8.804933539200718, 99.206921311348438,  5.167623584334554
 5.160258680589497,  7.811356758678039, 94.952390047960819,  4.932982051247697
 1.816608150034493,  3.882271550597287, 67.864043092944883,  5.374389212250072
15.664210607547291, 13.737672578100922, 102.886984389261926,  4.984719652653191
 2.457061476919875, 15.155327631151273, 32.600157052619153,  5.205907398350323
 2.773785353160989,  3.635626878479699, 95.964827799892547,  4.888561056821025
14.025550971152771, 13.363660505422263, 61.865240708255492,  4.815379785417166
 0.576742975375980, 17.740787093273546,  1.053091798241396,  5.161906488628161
11.699569341075030,  0.044723063869862, 79.229485441075326,  5.216649134317521
12.243058197829981, 18.199143035362109, 51.954033148860098,  4.511259496397441
12.698615006993544,  8.039809986968178, 10.161111664177186,  5.193928905460611
16.049094465587729, 11.452727627095596, 52.051353606872333,  5.057183194103549
 8.992408844233616, 17.611940892393655, 10.387677041987743,  4.705817583785467
10.425139541270511,  9.029400811206921, 78.082532811977288,  4.677780548072136
18.395737745510392,  0.485269566956063, 33.061807710345732,  4.762705030488049
 1.501924585851228,  6.129410639357755,  6.468531576613715,  4.993284227277445
 8.086243620416147, 10.460166596675583, 65.510321527246390,  4.875962415165766
11.706094931837660, 13.724561940344469, 112.835877002775320,  5.265272687138968
 5.298161127814462, 10.395175128153847, 42.897454147080296,  4.588652954831736
16.771657748952439,  4.375881399943502, 22.158596966882445,  4.868201167263737
15.183533119446153,  6.151932117670153,  5.896660784085126,  5.202996659062564
 4.096086499557573,  2.956981007174720, 48.583338560204659,  4.594263464639840
 1.450625261661669, 18.050130145879862, 28.207738941737254,  5.502868762737551
17.910006904560650, 10.547662015468021, 82.873083759792777,  5.309624887748705
 6.011237801095654,  7.928357046899947, 86.291180737493377,  4.544437205215274
10.886811314677487, 13.683390960298990, 53.492896520022093,  5.037986908522491
 3.353182116108619,  3.993597588710717, 86.698946988230077,  4.950369433108097
10.222728542442319,  9.663816406596965, 42.002899550392918,  4.695609881046694
 7.632391249553534, 18.251204040683945, 71.004725358771140,  4.758506965265348
15.445487392155233,  5.414371621471473, 94.175699366426102,  5.082105104186136
 2.743224526706839,  1.686053313964158, 105.656739382980390,  5.318214334116344
15.449177536950938,  9.981884209879746, 13.983554472037593,  4.804986325724077
 2.854226314995624,  8.402568809628493, 23.065890177945359,  5.101106287961442
16.101711589373313, 17.076048309822362, 59.530571060212729,  4.877072896341730
11.124437847227959, 15.734016739479348, 102.445336188766206,  4.289027004588387
 6.537995760999282,  2.775249979386456, 74.276488922945390,  4.760361788732244
13.165107845162742, 14.109693821751698, 98.540132545093812,  5.068406711706561
 4.473809056505241,  9.578020128198764, 31.182511088826327,  4.934473837307278
 5.403473644244603, 16.255815065444676, 25.415125731267445,  4.812549944849974
 6.128117555546147,  5.294464099802314, 103.428449404975609,  4.946719421516358
 2.004570141309030,  6.962506441225879, 34.479832101331077,  4.819344741612636
14.934136092959136, 10.161753006280916, 29.041814302972803,  4.902178928325099
18.418058739151387, 16.191448714549566, 113.764953897997614,  4.548764948835614
 3.560500293941025, 11.454884795207184,  6.190282570205808,  5.417593050201308
 5.285745695021620, 14.597132731469273, 59.267331294917078,  4.830538410745544
 1.851360860511890,  4.053918181620350, 30.480054048940961,  5.073193816605380
 7.326573820571693, 11.844640375781109, 38.887949027483586,  4.849918837421594
18.280430578776070,  5.499521379444714, 63.439916915490734,  5.039621981576643
14.919776550374284, 14.723479356349907, 12.907868613848477,  4.870721074496390
 1.358008828837466, 12.515919609967096, 10.799718971845536,  5.006005784133546
 7.802406394113077, 13.894394652995455, 115.951910545157219,  4.719150940948141
13.619060002370890, 14.630091270211356, 49.011973537949970,  4.988338895610792
17.430164223326475,  4.866448349777975, 85.662372834697351,  4.790425152613869
 7.871787959814562, 13.150662811994277, 82.719298463106455,  5.330742749015592
10.044430731210682,  2.185248897446201, 91.320965031775572,  5.154075177945969
 6.702082851807219, 14.057950217148605, 95.826602929041300,  4.759057408737625
11.842044529128843,  2.363893565979106, 96.090873292151159,  5.045087952553518
10.970467114157588,  7.090371768306410, 21.089034639984792,  4.834023874260455
17.864661588477052,  3.801424186719070, 17.191271307554704,  4.817907692769877
12.545452149702882, 17.530724378071945, 33.987384937860661,  4.904385533243258
16.244576272971440, 14.082837730677719, 39.419938888725014,  5.032916934821095
16.793100245416735,  6.770660523736051, 31.870515054271159,  4.670167977866883
