BANDS
8 8
NANOPARTICLES
cell(1), 18.761
cell(2), 18.761
cell(3), 117.253
 9.411945976644601, 10.687255144492392, 82.987718964084010,  4.777025250996053
14.561019809898964, 11.731309347720421, 45.492846875069297,  5.231596511730281
13.217527581996107,  8.251538279577144, 20.679101707648524,  4.575229497564994
 2.128669793953825, 15.368542696016881, 103.638833981093512,  5.211952980086465
 1.611838798305616,  0.418017853190080, 106.573954273323650,  4.458281574016182
 4.352084627838560, 15.926219747849871, 95.097475137031594,  5.057599790917514
10.214345336992366, 14.396214199455974, 45.245128184809069,  4.968947340133013
16.197161884578794,  4.583766015107409, 21.921143561903477,  5.176232368967365
 9.622319887252935,  7.478166715335673, 14.314009054982867,  4.475064797261399
 7.150365033298492,  3.438084356416345, 78.840115978505793,  5.396832648708658
 0.045810881498941,  3.854924336713511,  3.827831761671294,  4.968515148982698
18.084971357815515,  4.514742642193289, 96.431770142985513,  4.943820482736431
17.538566291400265,  7.812712538387246, 25.449868386443338,  4.743500921107536
 8.940242725044232,  8.508274779872878, 70.719976850044461,  4.999410551901051
10.936551886893730,  0.853897391267417, 74.703506252049593,  4.746159612141390
12.218550670364367,  4.596615058735593, 114.063474008973017,  5.294031808644995
16.194860436668527, 16.582776751623989, 22.260599356142826,  4.762614549233503
16.109402718439764, 17.750352443953702, 105.548269693370727,  4.751503917205599
16.360890853369536,  2.425001734142674, 40.669203348924974,  5.243586202974946
17.081044952654945, 11.902444042181452,  5.013655803014637,  5.266836884372688
 9.342883872380066,  2.727287845096639, 16.475084330640104,  4.994977864710510
17.109455690439233,  1.232262752731409, 25.819968006541078,  5.264104705230931
 8.556048306072796,  8.928708019153731,  9.887226912288517,  5.068156041557192
18.598745486144047, 12.868011684011291, 22.886596520832711,  4.174650801020186
17.619421574670923,  2.282908378206650, 88.650090518526198,  5.458221013703417
13.298556821860828, 10.446835496027036, 79.893699431487022,  5.150420746333451
 4.574270422708827, 15.023113036201455, 64.184974524353564,  5.046862907999452
15.494240822015490,  6.128601541516701, 110.122348336973218,  5.125631825886866
13.084248365465875,  0.998299582116160, 13.934140835344671,  4.640776654861614
 5.360246126722513,  1.800696106538308,  3.549587713666755,  4.854723732252599
11.061230328392666,  0.659033041585258, 66.521084540314135,  5.279532243685908
 6.306685064541130, 16.009918446281016, 41.047645252985845,  5.163499283665877
 0.868078856315694,  1.041875524093765, 84.137407262098975,  4.720208915617486
10.157146928566366,  1.354484755936084, 83.895679669130914,  5.049578435121060
 1.461559425514120, 14.380570246711285, 39.580980659228203,  4.384057499929460
 2.733102329764391,  0.657943548588430, 77.860076441769380,  5.223054447207952
 5.990010677389452,  7.830717430455953,  2.111109274686281,  4.507729634933329
 9.983492333886877, 11.251199764551602, 36.285813300275230,  4.906098830684046
 5.955329092736135,  2.778972700659653, 42.765968803809436,  5.168310313125406
16.809116744864603,  8.970368610366819, 75.235145667551663,  5.496954411015152
 7.055160360931884, 17.884778409224300, 24.935292482465631,  5.342718659190124
 8.308545187968765, 14.962003651859083, 57.673377476231835,  5.234644941955632
 3.336775575727045, 17.598506711059297, 68.501889691016544,  4.879681001213574
 4.053196871190324, 10.650322620114583, 23.215145899023593,  5.353234162894124
 2.507056690405500,  1.818967859563385, 46.432093693677743,  5.076628259716864
15.010900007848130,  8.456249323416852, 49.154387085371468,  4.628908180219795
 1.321041706626543, 14.755791472548873, 98.687854790058665,  4.626262035360592
17.248506118703997, 17.890797219354265, 96.526019612222953,  4.846491604402883
 1.866711660873251,  1.804028821252401, 33.169958311088926,  4.837602993167015
14.415858598131365, 13.101817461439632, 36.667910889251942,  4.728691345286940
13.998107118303434,  2.362520479978220, 98.336674821016501,  5.001214975719880
 4.489932532485791, 18.148777737402050, 37.137597287663539,  4.459070292606332
15.280806383506397,  2.854988643154598, 73.865970989220145,  4.956031780164484
11.249164440944934, 14.382997920936248, 91.323536052864782,  5.157633350221190
11.870703533604475,  1.469835491336339, 25.823952081623023,  5.196442629347784
11.961878511549001,  8.926461017682133, 92.227806761306113,  5.378954409999791
13.415676580508585,  5.353255014915253, 37.147402006159346,  5.646060763160127
18.666100258483265,  8.828893421229200, 20.875579773058362,  4.841071760344887
18.012339546941583,  4.473782380491969, 77.781904909178962,  5.105754040187657
 6.964830934862301,  4.635288635382190, 98.795096895419618,  4.994907211341997
 2.080013606672599, 11.735833200877630, 73.497396545182610,  4.871591201855530
 2.054617105696363, 15.778300484703164, 81.506712047084250,  5.155914146680019
 2.385759051527345,  6.518159635562291, 74.381481766672579,  4.602751358060978
 7.547508364385012, 18.136480784486071, 91.599840869274246,  5.394442456913003
16.336064263442115,  4.328850340300542, 82.589485936682465,  5.078124366002124
 4.298360455578538, 13.255109555658736, 77.591434707879287,  4.884994757690936
 6.398458987950034, 12.860163682028189, 71.167342052327371,  5.102589318749544
16.529879912835479, 11.828613114693336, 40.814740671656985,  4.919448407972464
10.408049679390670,  9.173857419033489, 115.864402537043546,  5.086492287357546
12.426381833979983,  0.010261924466098, 93.967981556862384,  5.340267718164525
16.565681335857494,  3.981549909899288, 63.944698102998473,  4.488785120162651
 3.638251653308783, 16.566906496764766, 73.536347099547797,  5.275445200413273
10.342542661699770,  0.032706349021529, 42.702602516763740,  5.183909236210301
16.406265100832037,  5.940786673602632, 100.884037794959383,  4.948834627358876
 1.422980346308331,  5.720804349681670, 85.600634081235071,  5.062865796003964
 7.505178095287135,  5.047069261104294, 24.029190878900099,  5.216770891571323
 0.349019368479426, 15.792706380576732, 61.840973360791118,  4.737721231290182
 8.622164879817342,  3.910363460536566, 28.873345190504779,  4.939357667137064
 0.893518437857540,  1.720888134467110, 61.354499574203402,  4.743047465205552
10.140949986696727, 14.917268556210828, 73.728834673940270,  4.855055012611621
11.112575597090448, 10.514814657438381, 58.131208618982164,  5.315562488131597
10.136136461404480,  4.362641432728904, 90.536004191563563,  5.005520634171375
 5.900503804114474,  3.855374548370898, 93.876388862422445,  5.180591578110977
 2.653164055660997,  5.571225991590372, 101.265609862425251,  5.113273126961766
13.592068415436845,  2.047266633372768, 108.137777330088625,  4.708606059782365
 9.652793970008563,  4.949571215025252, 109.395336677609990,  5.370735281219249
12.317163947863667,  9.436788908542397, 40.202882217649410,  4.773280495225234
 0.127059962689485,  5.192930586017309, 17.869636524536510,  4.598466647461600
 2.896327280269190, 10.518790363819246, 102.302195445699198,  4.964664988069159
12.521110533356662, 10.264084133252783, 109.584479404092235,  5.111222115879751
10.423273493574889,  5.077329470616124, 41.623519604858672,  5.132440539257177
13.781944291958109,  2.042710610069653, 54.771237411966958,  4.827491396336430
 1.430203621789906, 16.183870949986005, 29.993505704004328,  4.553359709498827
 5.564058425474344, 12.666382220850169, 44.682756081050464,  4.819975967319423
 7.377063178086877,  8.717061149925701, 101.481330842602148,  4.808875660668533
 1.778266187925036,  8.218014769447795, 65.573535375766127,  5.005604418155983
14.815047796147832, 16.352765150970516, 43.231119021699776,  5.049993573262024
 7.412262419205836, 11.391117928934820, 40.661332628393566,  4.366365870194016
 8.544946785203390,  5.958180559622337, 35.064782072129979,  5.014769432397880
 8.269893030377954, 17.861878209124161, 13.014987701266014,  5.246102427349998
16.314326530844014, 15.104346736870822, 101.541249985341395,  4.846666154652233
14.549960572433147, 17.057234965165865, 114.902284295049597,  5.126825741517849
16.281369900520279, 13.593067838774603, 82.690415474313113,  5.163437155387028
14.159453499194978,  2.036898183730169, 45.100748557494953,  4.678606680371770
15.506613497743103,  2.775346278937091, 68.637109840010169,  5.427236465579556
18.658664233916387, 11.153014940502104, 36.405054756740583,  4.621214838322611
 0.591654814802255,  3.980632458114298, 29.212430451455177,  4.544129662589791
18.612026902044331, 14.437450093903225, 116.624406773850808,  5.102316227270069
 5.383442805677506,  5.501117872566610, 63.245458800421815,  5.150954338299218
11.990402497026093, 10.823891756055120, 65.291091448004352,  5.173722713096394
14.035296760318404, 15.248150982977464, 66.678763170804572,  4.958584308324517
12.306051857326144,  6.402134044004148, 24.920935956602918,  4.850730214566173
13.010316215973850, 10.876931814108005,  8.202274616878922,  5.211621432036349
 8.056052275980154,  4.621031011042125, 103.803304711318432,  4.686301294677247
 4.472189576562078, 11.315664128421153, 54.256070525340377,  4.556509388095455
 0.676111502180201, 15.893115790212251, 34.927674837825158,  5.421640348994606
 7.240397937866510,  5.821384996835507, 113.878053644018379,  4.956335243119154
14.447531796313786,  3.851261576917973, 59.527947508746962,  5.308234533366825
 8.882743305056648, 14.646818042976308, 66.993463576182677,  5.247779072427208
14.769539245447485,  4.511368451922886, 92.622316738003278,  5.106181506861796
14.798323826828065,  9.230643114719729, 34.140577233735939,  4.543786586028792
14.212791087856566,  7.702303390919993, 96.774786790086040,  4.997724329347899
16.250909535511020,  1.913474652144193, 10.449452001900523,  4.949163272074554
 3.014602818296083,  8.364933851096961, 27.687739850620989,  4.902103297603779
 3.015805216609573, 16.229173788672682, 48.947627099766045,  5.015097601352565
 4.513176273176805, 11.403164736630817, 49.380297911218740,  5.127058682540292
14.906823005359865, 13.145564231510738, 106.275157156747426,  4.877053985432138
16.654029604592075, 18.595786215468848, 79.883711192961670,  5.395857164166924
 9.720045425531817, 14.607647773793772, 108.884415177953301,  5.283639165895626
 5.675254067759111, 15.719166069786025, 53.550643717298115,  4.664528745896794
 2.147009703365026,  8.229122873325757,  4.728681113719825,  4.781200724604382
13.483125706692661, 12.425343491874170, 95.648373422525836,  4.796612315008970
10.679621403954291, 11.525881749774170, 18.701442778767312,  4.605826235289025
17.019075751868698,  5.086109307829822, 116.643738122616213,  4.321078598929925
16.487628243801968, 16.581222866545591, 38.806163368958345,  4.415674070721063
 6.310924112326092,  8.595177235103849, 58.704000151625749,  5.089732370720699
 5.559169083208958, 15.416480296072445, 32.298071073385664,  5.002702198089459
 0.779469734700849, 14.215000599194958, 44.364477993247569,  5.188489596591825
 7.644018721537907,  7.464035854509632, 49.919514902672347,  4.990178963964301
 5.968949206664708,  1.551289450678586, 20.258509804487215,  5.408529823798005
12.946807113140068, 15.578272743104289, 16.840963632184774,  5.382078008274366
 5.668484403808310,  5.566063638510375, 54.192599457602483,  4.911567239325006
12.545304372932401,  0.181618529990006, 38.243084792463080,  4.747702936619881
 3.398987394706385,  7.368025667211420, 96.589067305828337,  5.004897554337294
 4.822051804226742, 13.112196889104657, 27.815187056487606,  5.184005743064144
13.383211003339705, 14.607727978501856, 56.327518874589153,  4.716330332621139
10.735963440918546, 16.154179062167536,  1.064998321767064,  5.204421961913469
 0.197651971542607, 15.034161422835608, 108.560994502023121,  5.159217296071777
18.336181473005592,  3.839788553023945, 56.428100182357653,  4.633469098320185
17.949833318112351, 15.981398811221073, 70.486221201129467,  4.859593963412407
 2.838741396313972, 12.592899922789703,  2.858591547210958,  4.779597664254617
11.785709074216056,  7.868477474810234, 52.716912784334909,  5.036947049767076
13.846264483644349, 10.431079527853663, 27.539452591892378,  5.216866068679444
15.583101158398726, 11.646559988447018, 18.571351123100531,  4.676478496382444
 8.588457502761507, 12.452796557678095, 87.463423139762668,  4.980390509898823
13.584049020421622,  1.957655060407351,  1.008804183488693,  4.981045859601767
14.674761712786559,  8.684969824173983, 61.463765450525614,  5.103348818243436
 7.963785574350584, 17.081714690100313, 86.817175115403160,  4.435867205101902
 1.333214091329392, 17.831456104835084,  4.500850743447788,  5.030483023595578
 5.225652357483186,  7.019112948624297, 45.392437074094175,  4.859085935027154
 0.900259854490458,  1.776046912787143, 71.682681757688982,  5.054646303160998
 2.204282899391190, 12.662953061336703, 68.121651262962658,  5.271052269875708
16.397143322702291, 12.976010368637926, 112.395910413461110,  4.874954700636523
14.919453987820546, 18.599946405668501, 84.829720134134206,  5.085089227241173
11.340073764562128,  1.180176934359076,  9.314432029938320,  5.230129267942875
 0.482121345108883,  6.580683215513143, 61.037199862305258,  4.968210463266536
 9.126787724055783, 11.968256696944565, 53.650880969627032,  4.903330920145991
 8.132903209623873,  2.125633291809031, 38.276354183186939,  4.888465385264809
 6.561883324232990,  3.829823141499050, 86.880624899512028,  5.251164339102230
 0.525393917474639,  9.163643934377578, 46.374443877537800,  5.657257859288929
11.340806786512323,  7.676206134525802, 31.133758456567012,  5.130122275467001
16.674404433463394,  7.356095834653145, 88.846327884548828,  4.869629398729262
 5.808417812221859, 10.938959719148579, 18.227482941808287,  5.234028066371162
 6.705049332403883,  8.564515752998433, 91.913580002671267,  5.133991095768065
13.533146752280068, 13.667453547482317, 61.389751801061095,  4.960365410631459
 2.552228867237859, 12.794464889922667, 112.409964107344024,  4.903439440664962
13.773478981333074, 10.668510866080265, 101.090666382860405,  5.397214529026437
16.784357987884686, 18.035481305738418, 57.905056957685453,  5.439487806669975
12.520513253806470, 16.310267336184317, 98.551220082955808,  5.064319890685782
 9.266127964244443, 13.090856806464087, 100.561203241816727,  4.888503198558812
17.263295348632354, 11.985437368671679, 64.468060905670399,  5.214707055236361
17.792425227473423,  7.398433175592758, 39.181976952810665,  4.830619205898470
 1.158988816073673,  3.499998993016083, 109.923931929492639,  4.674317043311103
 7.315118875880247,  8.336253426853469, 106.534692183060216,  4.647776586278997
17.388683656879980,  9.228211518617208, 104.548857274650075,  5.011733634347685
 6.846789878665232,  1.429722425687322, 33.471007465808938,  5.155970881700010
 9.915722243224211,  5.243003137269099,  1.682926967877705,  4.932143437375769
10.915837754717884, 11.234179786250024, 49.072800280318674,  5.034914247267709
 3.235800108711174, 15.164522096966893, 20.573395640686307,  5.219296438224351
17.317884656666156,  4.499492303459655, 47.577403755663717,  4.738632459382801
 4.472705539213971,  2.521424836062126, 14.609242492384981,  5.441720424584548
17.847288205701911,  1.125093518483050, 101.426877741946768,  5.159125005968645
14.587973106134568,  4.528814694722418, 28.858390740581719,  4.990574446609717
 5.417474512436492,  0.856442502856984, 82.879791664981894,  4.693053737106863
 0.317524473439969, 10.517073163323095, 85.425654027247290,  4.771489945210555
 3.410015603076270, 14.350450767173596, 57.949234815179821,  4.648574713155370
16.510204410819963, 16.925223235392494, 91.544037095400228,  4.849543409253602
13.240616127731515,  4.201013317344215, 86.621412495305549,  4.924913460726465
 6.873869599300005, 10.058499751772498, 32.409483468355418,  5.310751926312406
13.225614555428242, 16.872053640992153, 33.874290649229629,  4.953054035694474
17.976051183663227,  8.616932149693330, 93.559865549251555,  5.061989290690609
 7.848475735483422, 18.209832383655510, 70.686170636645514,  5.209870063095501
16.624078671040042,  2.358268107686008, 113.063732658471793,  4.696763723186728
 7.172047833841393,  3.170971473388062, 47.595025636566319,  4.800677040689214
 2.633396900250226,  4.169639290318584, 81.234870614008472,  4.509046693002312
 7.515622807513328, 13.883273860681463, 22.246287084554922,  4.315860692278484
14.066451767588326,  1.684816494503478, 49.870549940335323,  4.888192337171972
16.500332494558471,  0.347696250417974, 30.851909939434858,  5.013988448657708
 1.890191611958067, 18.539508923181355, 41.815305335682282,  5.091909351325147
11.447106618658610,  6.098797873039379, 82.198371657182477,  5.347654671080177
 2.339438404864588,  5.790874633787212, 90.644604118284931,  5.181985712367027
 5.901991612707175,  6.896841733928690, 39.455339544768719,  5.399557277405510
11.205071827708824, 17.061541645168223, 21.681559915410777,  5.316506058689306
18.248719050754303,  8.830278551775780, 80.704976905142459,  5.388538886102055
 9.550394082200301,  5.436920977796858, 74.506637382605632,  4.826415940603231
 2.592714589309814, 13.928691607568647,  7.828381019320068,  5.524451631980292
 6.301110779677478, 17.613279097046995, 45.690276078846374,  4.638119367831003
 0.316815571466586,  9.527151259522203, 51.834085017356173,  5.288278900790502
11.578421271174713,  5.578621721147432,  6.478306467752058,  5.238271441115724
18.020012103615784, 17.845714885308436, 66.191622923461438,  4.472023804829757
 3.274953102219403,  8.118985396418504, 35.306098589063616,  4.701411141852454
13.843671944601414, 10.244945564690955, 13.887834357700287,  5.631506950124538
13.960550289029705,  5.300251637730063, 16.621239871846463,  5.567522101669323
17.993174438174698, 15.334359310484718, 87.135491876331272,  4.969864106995606
 1.964144631722036,  3.728524428716378,  8.641258116753523,  5.358629519016153
14.774318536877123,  0.902173997861604, 19.041297827566453,  4.589756366632813
 5.599782397907966, 16.272687893247742, 100.080215864579174,  4.866466904466504
11.940501523513754,  1.725189414557854, 79.315249824870605,  4.807455429448424
 9.838059923786112, 13.620773398012844, 26.427139987535337,  5.262862769070720
 9.126449602758489,  2.744409625284970, 61.253283767333293,  4.958902675841419
 7.981981897465152,  8.876470698778895, 27.466133616597933,  5.091355386133090
11.595096192706405, 13.326813470243833, 113.412811278241520,  4.845786300830340
17.566854649748198,  8.284732320512985, 30.341151846643651,  5.038722527781561
 5.262705290961092, 18.318786069496614, 60.294629438454756,  5.229452630440715
 8.968743059651008,  7.035301498477066, 18.937931235908000,  4.899185147755698
14.670224959150815, 15.503946279049099, 26.850502286627105,  5.140929710817652
11.499281305787196, 10.134307257715149, 74.948072291275011,  5.382957366083188
 5.094017764069910,  3.388713293382306, 107.294618197705873,  4.782602363198042
 7.349024089881367, 17.259522058616447, 77.106373485370824,  5.077970971218159
16.653431854946746,  7.060110913377778,  7.352584970710092,  5.473633051517504
 3.531897840578393, 18.497536680471928, 88.134420041045729,  5.233596112139587
16.786943107765822, 10.863896858771527, 70.387009377991745,  4.880268185503776
 5.214515188289847,  1.686171127454233, 111.908940664138797,  5.053025431006134
17.947641208039119,  5.807148574387589, 34.578250096855875,  4.798087871315730
 7.704475959523797,  0.971013296545469, 56.102236699914805,  4.865262306065734
 7.142672757460111, 14.989284539201540, 104.524750638380439,  4.871555570492816
 3.335979269600689,  8.825293461976518,  9.676012138905943,  5.380153410719916
17.605164626322459, 11.259577390160350, 10.291392940986501,  4.908899208320057
 0.709381198426341, 14.586209991194190, 53.640163793221056,  5.483041380795692
18.024797934849250, 13.470211359502070, 77.829503498730830,  5.165441772096615
16.254150524998003, 13.856919007935502, 31.358671582795420,  4.963627305324767
 6.187824515549418,  0.878338688261244, 65.091225977033616,  4.886958712323374
 2.991131393119844,  5.477417798631432, 49.952300620992112,  5.116209055098380
11.562052891468014,  5.490376702747988, 47.393395330879166,  5.102322305985498
 3.052073214948057,  1.396315419181190, 98.051142649985550,  5.270097459817924
 7.673673900488203, 10.485088812799155, 111.590872583920643,  5.386379518290764
11.751830207136251,  2.793799412314371, 32.684609553304689,  5.146600272533023
13.735070388459572,  6.969779016993576, 71.367552011422930,  5.152558189278543
 6.376601997671838,  4.259855627249798, 68.965024768633469,  5.392432099628147
15.464036212157303,  8.022224926645883, 56.354852422643717,  5.312186493895481
 1.281237102709729,  5.288691414317022, 42.925678764397986,  4.811117851583296
17.399885385419196,  4.185040698914595, 105.655142916918535,  5.309012279090725
 1.543723930699189, 10.460442284026239, 89.860771218357385,  4.420120258959016
14.827408339805983,  1.749909777596228,  5.740615519928675,  4.811901267461016
13.255156956670708,  2.229920143802778, 103.291121513703985,  4.988899612201876
15.804131459301999, 12.080091697700924, 90.400095839760141,  5.202287495909621
 9.690682383023942,  3.198913079162718, 51.986653095237038,  5.292417123735552
11.658364759639257, 15.473238104455824,  6.155164753201489,  5.198994655194575
10.407108179051102, 18.555390292826207, 47.570152027165136,  4.545074169980928
11.425736568815928,  6.041358702795849, 100.595896273409807,  5.027048846115536
 0.581046444156693,  6.909858568244764, 113.159302980972782,  4.795435226744241
18.634799490396844, 12.144169624035166, 27.381610794810388,  4.914138785732473
 7.962362601733338, 12.118833023293611, 61.894071963110648,  4.966568064424849
 3.895728582422838,  7.691144975438376, 78.600033984900392,  4.627587515471794
 8.757202304637387,  8.140551324768465, 78.584482860286059,  4.541803412083533
 5.033843286669288,  8.893383253424824, 87.114340436538285,  4.996684740103904
 2.098762635955462, 16.570641059161741, 25.314425165978950,  4.928196122056496
 2.083619375339187, 17.961631377642124, 11.217100437188002,  5.058269970309358
14.337655496579554, 16.427622814133681, 109.755956047021741,  4.740388458817748
 7.985299279098620,  4.186311329516770, 11.357192849403733,  4.636623715874268
 0.087874776923983,  0.886326913112348, 51.537837510036475,  5.034334404866414
 4.494811245980038,  1.261620567778692, 102.996269953122024,  4.876542021887708
 3.094988509108261, 16.564422628981433, 15.819842040935098,  4.671669862492167
10.931581620653835,  5.911813618799258, 66.779243117018623,  5.238073896234891
18.111547607764130,  6.423907873803391, 12.840999628962951,  5.869779616951355
13.459599959079435, 15.334176076509760, 48.689248497338262,  4.605307431667686
 6.714251257202350,  9.608086748863323, 66.201106929897193,  5.311512493609852
 2.765031290054851, 11.061198304115020, 61.509027511627785,  5.108045324052982
 1.013461985943026, 10.582938629655404, 16.155827739543035,  5.211195724085067
 1.826833033134826,  8.069253875135095, 56.502633324838158,  4.938680122933930
14.113981445032842, 12.186153846756637,  0.591900387955980,  5.249291619464965
11.242104569929687, 12.855666561794150, 31.432308384367804,  5.244747683122286
 6.327820074397329,  6.861017185725135, 82.704243221189301,  5.049218400874829
 5.009062240878376, 16.639523356241984, 108.647606052403717,  4.981153116167532
 9.827532331994608,  7.719120705968545, 86.833328053045022,  4.886163394778431
 8.947151524295620, 14.136347072155099, 95.789158436815342,  4.900599037131672
13.159306149819185, 14.248247561862952, 86.638448847392155,  4.956879421840164
 6.875423773286863, 15.575968460863971, 113.478571081858391,  5.587452570015286
10.055974263134958,  5.419110024571913, 56.950107648937674,  5.335983307590000
 7.952458863000593,  1.345613648332362, 116.281733225220322,  5.282213322157777
12.898730316487812, 16.130604343406528, 77.495470692281813,  4.778674402572747
10.562595450795929,  0.265864312877704, 111.633105311036957,  5.164510887733349
 3.829095482207522, 11.123327697669154, 82.178076249260499,  4.862364163508459
17.673354462459528, 17.544841137082663, 75.025711959290717,  4.751345568311111
 7.779526063319246, 15.105563495443256, 49.388539878937998,  4.742673203005189
 4.312812926150826,  6.996161818107942, 110.244426002551137,  4.667067691539979
 1.989001088570133, 14.807036447678032, 91.024713851468462,  4.614576492458024
 4.015382134975679, 12.927452727430136, 12.777829361378803,  4.967067854491741
 1.189580592274130, 17.567758989438900, 112.875639987681069,  5.022766176310595
16.490547742268920,  5.179548331859236, 52.260424670944097,  4.863761421553151
18.289600703165501,  0.657197840096473,  0.068279140511688,  4.954337619979525
14.609594192945226, 18.454110314604261, 62.759552113896980,  5.226343412296784
11.737194163138101, 18.509270731008545, 58.449703578916022,  4.753027938329272
10.608969692962727,  9.877625218350206,  3.695067385415093,  5.184955539979931
10.931269372161243,  3.141302235393199, 70.732358564962254,  4.408631049765277
 8.766967475506219, 16.235099159022500, 36.126510065839341,  5.116317527081152
 9.838364584589145,  7.552923982770920, 62.101742528046003,  4.909777897246181
 3.947035070382084, 17.190758184635037,  0.290181194697349,  4.934922767427482
14.609092755537676,  7.102541121822957,  2.667011268885388,  4.748467272170787
 4.613432709896006,  5.515919079600681, 31.421067230260160,  5.017638226033748
 6.959423124507082, 14.947056308755828, 82.678632978310631,  5.064495756241649
14.925337517167684, 13.773992673488827, 73.818736283154735,  4.849764394467448
 4.050406726790546,  8.562745257562709, 70.401905156938398,  4.799980645255890
18.343868522240353, 10.171676735131033, 98.472457966833090,  5.182269225033409
 4.179986142845435,  6.459273200125914, 20.146110403399014,  5.035486283079902
 1.641718398777418,  0.998422788514966, 93.015508906413018,  5.201229399011043
15.071757790094814,  8.745645224850302, 114.306760412183820,  4.778820591930143
 2.033620221298459, 11.826470925546165, 31.911231268627731,  5.043057640538970
10.106674320083233,  1.179469734346287,  4.414402198002911,  4.867440711097234
 8.034172808732437,  0.199562302651281, 96.714094778456726,  5.001902411349082
 5.209669190260738, 11.785490794101833, 98.077236761200680,  4.974122984002468
17.858256929519222, 15.630087467003552, 18.008916549087296,  4.561641202560486
 3.169557852402450,  4.437873255396810, 116.891836014624715,  5.544701607492806
 4.421591876340808,  1.074778649758544, 28.982690062834980,  5.063864957651065
10.379027399699668, 16.797752151603987, 53.168608506064636,  5.006789773220087
 4.022923522052687,  4.165809822833734, 58.599556610453170,  4.882757610408294
 6.219821835375938,  9.384433456978286, 74.782925730089076,  4.929883337346970
18.564275185508038,  6.397760218945988, 70.470673529852334,  4.733822056628439
15.715550720632825,  7.702225402737398, 66.758959027752667,  4.975910536369318
15.462435045048952, 16.521772516538416,  2.912487351100974,  4.935255969014228
 6.287808762022521, 13.349969129911370, 91.514289878914781,  4.503816544518932
 5.401086221427086,  2.709593441248476, 73.912195719989938,  5.152248517914546
18.025039995719208,  1.026931169616833, 15.240388194467831,  5.403410334454585
12.910110020106043,  5.580298088904234, 11.436197117657773,  5.024597014588111
 4.929288005264396,  7.676353182176615, 14.445865305675836,  4.900690492954368
17.762325254502588, 13.431407846916397, 48.946408109730953,  4.759193409868099
16.500252352917784,  1.317552106698075, 35.717830694324135,  4.906677520916846
 3.172935794724315, 11.229784344330481, 93.889730793022977,  4.403770798144650
15.124578583960378,  6.773252339327581, 43.557882974073756,  5.468328953805297
10.622745674239448,  4.559027693318718, 95.470587819186520,  4.883844373145602
15.111025886326406, 16.822352803447163, 52.668974086277373,  4.490742682973297
11.189582298793908, 14.295611384515848, 40.247566737509267,  5.199203905218139
10.522898890240837, 11.476764498256191, 104.981749982386717,  4.850574062009305
 8.835129053911576, 12.247369985608087, 14.199004135246373,  5.163960899559124
 9.138027950230796,  0.514721932781035, 106.484063561851855,  5.268915442359443
18.029338214408632, 13.507414583159036, 94.642079012083542,  4.758394512381285
 7.697973232439425, 15.845429159980489, 17.856545086290101,  5.305048276023860
 2.323486140989143,  4.415556823195305, 24.490957568789096,  5.259545440622012
 2.033147840728803,  3.496133397384277, 38.034922657573610,  5.277566770086608
12.820618635806087,  6.938932545304022, 105.527642968946608,  5.378510741095883
 6.204771414517944,  0.524005582147789,  8.383649220609771,  5.284328808065848
 6.611377308970186, 15.645268120442365,  4.462742482676451,  5.429410447306732
 6.364084363593397,  5.728212182274848,  6.519495809809256,  5.194004151810571
 9.062254201661215, 12.844921848762171, 78.673700284298988,  4.886313639015854
 2.776910533778337,  0.210346625614954, 55.798557288112988,  5.124907721136255
11.814710513544677, 15.786418122343337, 82.171989757900690,  4.837941559322899
18.547313710921181,  9.417195390283911,  0.528910824061799,  5.141481186807608
13.313212176052382, 17.493055198142962, 71.029852555989208,  4.939151780620043
17.222715169383651, 17.866058412808854, 47.248845072021751,  4.794427587114724
 9.670129266674381, 17.655869751902575, 29.853140435445589,  5.324294789775881
 9.635602704632861, 16.738628332075990, 62.426545161143082,  4.910109741355313
 0.734236180561437,  0.966225123343916, 20.295630772116073,  5.126110405892274
17.512062523237478, 12.529062940062296, 58.317450014978313,  5.337066864726626
 4.130309730403932,  9.285322287053605, 115.358847197176061,  4.789412040562391
 4.033829870315251, 11.943839958694744, 107.025151049484151,  5.144291113813360
 7.756015431358547, 14.041637431213415,  9.419674629899804,  5.237920136426299
14.171848358816586,  9.535401260101086, 85.088551795097388,  5.154919908188578
 9.416599040426465,  9.804823818072238, 22.858766721702949,  4.715645363134213
 9.624776291505526,  9.372973278809448, 44.446061371753601,  5.265680168974079
14.598317089186317, 12.026807832069029, 52.388076818069315,  4.999205806944030
13.467166830604839, 12.542459824705269, 22.867361784364700,  5.054689538858461
11.898363969951355, 16.027721558332843, 103.577740641597572,  5.039709088046981
 4.960657989740703, 12.670753197413687, 36.654857827096862,  5.357431383333165
13.298368226963772,  5.953777185004239, 77.477044665531054,  4.787260607751962
 3.877617293256045, 13.693548642061037, 86.439113675497552,  4.967237010933453
 9.017222837323086,  0.621041925922945, 101.471821268660662,  4.750244878931573
 5.057606782486691,  1.198272687731428, 51.463130051936709,  4.854728969750285
18.742887533643344,  9.916654262814104, 109.317273974551370,  4.981369603702825
 2.843767333124849,  7.261947765443105, 105.836090166432712,  4.636051049535828
 9.369159963566641,  9.177599651927908, 96.922961827089793,  5.111006291745202
11.347708527248237,  3.389162628340996, 21.182605936055236,  4.895460126712681
 7.044555169383647, 12.413685855982035,  0.431757495146999,  4.937336767101927
 2.486858421649018, 10.233279155130514, 41.518608903590952,  4.978467576217625
12.106444294064081, 12.273571350901221, 70.119805186019789,  4.910504876136305
11.896125577340436, 18.748367644817989, 88.839544923056962,  4.961773516375766
17.434922440048645, 15.053982190701525, 13.355814807799643,  4.850690867612831
16.527798597185914, 16.280601157464954,  7.884859308023660,  5.211965572593112
 1.709902848322612,  3.247168160196625, 66.695511502686145,  5.141750987688408
 6.136002664307426, 10.706663491592435,  5.824179476276790,  4.858187663749804
12.632939084608296, 15.155749189635173, 11.414650461132512,  5.508473771040903
