BANDS
8 8
NANOPARTICLES
cell(1), 18.759
cell(2), 18.759
cell(3), 117.246
16.545971127589645,  0.060640736054698, 19.697093397434603,  4.844387588186748
 2.700663999489590, 12.677230104924778, 108.716323951204473,  5.142477992473908
12.287018650637402, 16.611906100206738, 44.452195631752751,  4.679009736154104
16.803655682530607, 13.465313860830808,  6.512180543524348,  5.008175447858032
17.858509050008990,  6.442188216004316, 30.231835772619927,  4.651318610720644
 6.864133878232461, 18.313355880789619, 22.041107824208968,  5.058929177179659
 4.236657272098637,  6.042017230305365, 61.615251134286986,  5.337632874916709
 8.936204908678933,  9.216548930568537, 72.485785634589590,  5.030018308655376
12.317682978129195,  6.635103217194646, 43.382831859036948,  4.691943488481846
14.611578785063367, 15.283280941168696, 105.616646253806763,  5.225278909750416
 3.716639582719696,  8.570121136613517,  2.446336990330118,  4.976218877717513
 4.356270548066660, 11.342049298210386, 90.603912876873807,  5.069958754749171
 8.106434113797713,  6.321329772982863,  4.085593297601084,  5.414734733011958
 6.228003557234582,  9.244942994906319, 83.061720662645797,  5.179823221803642
14.023305320919469, 14.335432264196644, 10.420039284322318,  4.706725780161167
 7.549782862873045, 11.692740536749126,  3.432171649749181,  5.008185129726074
10.557423434050650,  2.933354790319620, 50.512327235121106,  5.214681886180958
15.301178409302075, 18.078178860446151, 86.002194217991317,  5.726033494137275
17.486703554878574, 10.488383594189809, 106.265827776158034,  5.164159918857683
 8.235083387695267, 17.890679308504005, 93.256538258890686,  5.001946769534134
11.926092594802761, 17.891342802176183, 22.189751182293460,  5.099112855596331
 1.168550174868267, 12.169356525634827, 16.193451398249056,  5.160833813949969
 2.230111408668811, 10.825235009699368, 61.624044094204358,  5.034883048120454
 9.528192800114649,  5.528906416444393, 64.687165636498335,  4.643014834231242
14.343098835082747, 15.053668574093662, 93.074638388283773,  4.720678891593541
17.701054234278473, 18.074807751959156, 90.931181395175088,  5.221522412231192
14.784418242922396, 14.728421230614172, 58.131468489207471,  4.860505704823312
17.864594719270034,  8.719528369179963, 93.149443443792208,  5.044606943025404
 9.772700201895644, 14.578169830555334, 65.770576950774128,  5.343162924670017
13.350333778551180,  6.016257200255658, 53.312883055861235,  4.800368053639141
17.963316125549202, 18.218042677636419, 56.575559194334943,  5.074589542114481
 5.120091617624963,  2.382064020255260, 95.454099445041223,  4.918125486347625
15.293115814962650,  4.672507135594583, 75.328242801898952,  4.724355542068135
 3.713791618249744,  7.318885083744857, 75.820287674482344,  4.503756093841885
 6.277262833482729, 13.093038096898509, 99.509228369491581,  4.545049550425180
 0.232043292243859,  5.977078877676067, 41.402331411576554,  4.722055977253642
 9.630996853889219, 13.711221962868292, 34.744599455577962,  5.139743647038801
 3.976167651464456, 16.703987524421095, 90.746954682747599,  5.121088228550507
10.727801710713143, 16.303914612665213, 60.225327363524748,  4.767198417788294
10.755134968190553, 11.803475416598557, 57.117968449868791,  5.300056952648982
11.183503737629271,  4.784391656794468, 72.907484810711068,  4.802984088859418
 3.954176392896295, 15.468323725656001, 18.998907312956216,  5.099959243630781
 4.851716130861700,  5.477284605457470, 16.055535605611666,  5.121767176736048
 9.851288791947399,  5.446332562176632, 39.201024391020418,  5.296890911607342
 5.429018191331641,  3.869226754310196, 71.574477942023009,  4.775438184732363
17.754877235408870,  7.178123445393533,  5.532809241406861,  5.252819726733629
 3.887792266398777,  2.627206574766027, 44.179389867655765,  4.373152039618853
11.143395264424637, 17.476067482043632, 80.634212253889501,  4.327584963737408
10.521138941923930, 11.664150034569539, 101.308907437721302,  5.100770996745513
12.813464488473040,  1.333036880284464, 26.498906536191118,  4.437820223879622
14.813816893378455,  0.843599898671920, 60.577029898462875,  5.475740112581473
11.766249117503458, 12.293324653911558,  6.375109481844193,  5.336558106852705
17.854042369708790,  4.966764714208752, 107.354053902454154,  5.026562948835876
14.475639929612937,  3.328533847752000, 22.684046583091970,  4.763933322360479
 1.765974527200944,  8.858763786961326, 49.402516633087409,  4.686924343187465
 7.240744881847715, 13.993930641262558, 81.930104333281520,  4.776777736791161
 0.132725082445487, 14.644272666588440, 26.357459664218926,  4.899255784845216
 8.945422807681453, 13.169181027433659, 91.332258249213623,  4.906380075867975
18.747386665639919, 15.907251912454115, 61.016625741332057,  5.053871126652842
16.273564812303448,  8.531407144576466, 65.189689759270451,  5.173651475585852
14.654513894487872,  1.238616729221724, 53.147844864929382,  5.090821491353450
 3.583125107385585,  5.431942254145776, 115.691025581330891,  5.192078724275555
 2.948413922195854, 11.421306876279012, 28.852458388300406,  4.915864288456198
 9.172193563425168,  7.125488295630218, 60.001132920624372,  5.251434401934778
17.950874270569489,  1.820924502143367, 43.883179137608366,  5.167346664205143
 7.766197224645587, 15.820914729974147, 56.544377207380641,  4.721558459319366
18.055741070166821,  5.558918466624797, 69.033562684329823,  5.148117829536468
11.965733302357087,  0.609642088856777, 65.163647878055173,  5.248557755878446
 5.149857059362867,  0.321865135178298,  9.896432023109819,  4.953396061396196
 6.415929383359137, 14.911409031445011, 30.654013127405765,  5.538844487121505
 9.799870900491577, 16.204171529521005,  9.519659852279382,  4.699682575674822
10.010570208394746,  3.682566962166100, 13.667136222159346,  4.870352701003140
 4.045941392583173,  7.911994372990265, 53.318560178547010,  4.571536789709482
17.952972308789672, 10.533889306276020, 69.587372332589112,  4.844000988293701
 9.508815763212612, 11.411511016613403, 46.732457547430243,  5.078851939690155
 7.623035489694875, 18.447286858630800, 34.477701661755596,  5.148206108584034
 9.313451136452311,  2.979289282408107, 68.797908482495302,  4.916175031374316
 9.855222740752962,  6.721378601120447, 80.631592195613294,  4.855522783145444
13.963107332687647, 10.227863511019113, 110.495235450252508,  4.917985672911289
14.253746668725283,  6.457246927889161, 13.554933845027948,  5.243506088135125
12.408662838126236,  8.522052889951151, 76.042646981669435,  4.987520037269427
 8.771970495462725,  8.413776330211737, 14.597894096609963,  5.084355746100198
16.560859132231016, 15.329638146503193, 52.681766787152434,  5.019007461430200
 0.319287421674961, 13.538985507608080, 38.542027329784808,  5.453457962719703
17.583541655414500, 13.360648921339179, 112.205881931352991,  5.249239451076466
 4.284017425880339, 17.902382153930109, 81.687575366097533,  4.851554808362119
 6.873388677342553, 17.510567213742448, 98.141476872711209,  4.771994898038025
11.348198998877251, 15.295218752419780, 52.988217126727086,  5.423363482291464
 1.156907884928637,  2.169451248403192, 60.278774967355673,  4.880398830974236
 6.664018489600387, 11.491756161140946, 20.157740877599412,  4.775944518363016
12.095855479839075,  1.784196595091410, 35.963566540447552,  5.159423401373918
14.464504377324651, 13.326545018578367, 88.475439194327947,  5.099624189192462
14.143708981454663,  2.929070941639952, 31.033058913650134,  5.305178169483925
 6.307325551675961,  6.362382831489318, 28.150408511132323,  4.699873271611180
 6.827962988383704,  8.148630089056756, 23.796582782325956,  4.723935826600855
 1.785440304517503, 12.195383053967756, 53.004637751160352,  5.133098095835927
17.264949257895658,  4.575432403345639, 116.461429947813770,  5.066944115843139
12.469686788736952, 10.691040144903448, 105.820503605724710,  4.916451756812143
 2.683950088020435,  2.873872854793949, 91.104116401556297,  5.075333490621806
17.195752378840169,  7.625205225048131, 98.602827381085859,  4.996128324016334
12.665539369270071,  4.710333747818380, 18.233457291761560,  5.231041692015554
17.387194890455312, 18.337028304374783, 114.165298348241151,  5.312709170910941
 3.309619641948045,  1.708111333561310, 108.281098557000476,  5.150563403484159
 3.252587187787908, 14.103942603435863, 57.537110879015316,  5.118855112001866
 2.097468348706319,  0.063487284244923, 86.328005118748266,  5.375226271222257
17.660450247131564, 17.593094832603519, 10.857453464335178,  5.071523851532964
15.380266286625016,  0.673740567390961, 80.334721810628054,  4.672498751038481
 8.987927940292535,  3.888741099495900, 93.083005861777551,  4.628699231115592
 1.408447347958212,  7.125910886658176, 36.543321844119156,  4.981192804007009
11.780366217131290,  2.026435934072293, 77.376645123747267,  4.975654788667602
12.387612225264194,  8.108038328794240, 22.374683208281109,  5.494057577129554
 5.932698445082071, 14.568347622183206, 38.535924061121122,  5.176078088384566
 8.429958094056381, 16.282050774741649, 113.217996849576352,  5.183685042746499
11.013461472760152,  6.164485108552758, 99.409986532488659,  4.927390922867755
13.797467335538242, 13.642796376984544, 41.004594704457148,  4.844567715189563
11.163262004027581,  2.281815386060938, 112.687093340839681,  5.265457314440193
12.396143841305134, 10.230461703900120,  1.530806471443915,  5.258069627363135
 5.483006842395607,  3.041960772721164, 84.448373548485520,  4.394922556346560
13.211546153861676,  8.836100618968841, 83.918169070521941,  5.444300455080120
 5.398666358893632, 17.859454146902689, 60.505205944237630,  5.235993305244822
 4.201762713925375,  5.391047405782238, 80.730318554159226,  4.695453014381742
14.336424086402326, 15.171548536604790, 63.363657717294963,  5.033072267302740
 0.991466638566859,  0.398106949397051, 78.503923593172814,  4.607660213139760
14.167664270919618, 10.795959445520168, 44.981501737008728,  4.944095103222160
 6.096117311464765,  1.561658172974587, 48.263319081109188,  5.145146964778769
 8.300622948212004,  7.011165369628874, 19.362709906330416,  4.892346911324589
 6.712156604259492,  0.719750988618633, 39.252553614737877,  4.784910897272424
14.274046715661962, 13.561413902664533, 68.195041993789573,  5.081602067294607
11.898935636480152, 10.540239418966946, 26.914997079626286,  4.848145545017388
 6.288450485092187, 16.285060420510330, 108.105278217439846,  5.099780362790123
 8.184303002738483,  3.780066956372455, 108.206312280473711,  5.438233859868368
 3.635848728210410, 12.168750788242233, 74.114877076506644,  5.217225825058861
10.443233152517656, 14.245166334415204, 96.004547293315497,  5.125024814941606
11.921010807135293,  2.723069040238284, 87.735939925828546,  4.475363802464450
11.296248016983800, 18.262872812934692, 108.261956743384118,  5.140032160424687
 7.440545342088348, 17.315609901415790,  1.427935236336853,  4.741630368499538
16.644270930427194,  6.462423035837370, 45.715620630228116,  5.144564872778829
 2.490965004734320, 17.182594311531091, 35.018283847575574,  5.469858516593705
 8.141615109841270,  6.236933429634220, 76.224362190019718,  4.646939617442523
 3.994814109470835,  9.980534457136445, 39.759378161878324,  5.050218954961529
 1.639237731533696,  2.910517905220204, 12.738991113734512,  5.439310233492269
11.128202151537272, 12.058455858117695, 114.142495697343605,  4.997625408252496
13.475555372730506,  4.933422084141209, 67.211833694267227,  4.783573858265132
 7.819094355440484,  8.639275149045030, 116.386288064967516,  5.523602131393468
 3.539930297219426,  6.132601389446540, 98.409140504519812,  5.118476571463772
14.723429608501151, 14.858515176038811, 80.140041411601132,  4.561847240875260
 8.781108421762610,  9.834822698716087, 31.088043725108204,  5.651352373749067
 3.198603901994696,  0.328822753763080, 116.714770711377483,  5.241592485654187
 4.787271059500395, 15.958490174038369, 25.847312976832999,  4.806415409286215
15.796042076587392, 17.754100649837252, 33.935971097773809,  4.947361575160215
15.786275054340521, 17.577011476347955, 38.885589681486849,  4.935778014483315
 8.422020433465311, 18.062831333694668, 84.405895887642657,  5.033343669622799
 1.129177476520919, 14.660095146360941, 116.337672408638696,  4.563068120024339
 6.743930092472315, 15.858694012098182,  5.909354787668035,  4.780083297547282
 7.854322059902834,  2.249174344626310, 80.414678038480943,  4.947620692287487
 2.386215611607222, 14.191185056924654, 69.355845385175286,  4.873485343647810
15.633165094195126,  2.983875396278657,  3.641535363922045,  4.879874973040410
11.522618482552721, 17.362167530389332, 31.716538538529019,  4.651227988592142
 0.343754894027469,  4.190682956355146, 23.237855191928297,  4.682361394634264
 9.648466251276409,  2.270327657025438,  8.926889013685550,  5.026024413494759
18.118183863132799, 11.149910133431538,  2.169432812313284,  5.164503708627096
 0.276549731895898,  3.059549454487358, 82.468193721495311,  5.044448377265883
17.361548994648739,  3.494211991068386, 64.392074746215627,  5.105343262447842
10.825464367255151, 16.777927489905458, 88.577832238079466,  4.921016056795959
14.879493661449120,  5.703495500037516, 112.125676114424820,  4.746807207169542
 0.630063668290475, 14.658690430203759, 104.181607022976181,  4.822345960820249
 1.736973278043526,  1.026063979345472, 69.738082870468688,  5.216976870986216
15.420613365380609,  8.998531678872199, 39.086060200336100,  5.713851514126624
 0.006360714403980, 10.363503729089402, 57.301657662388664,  4.729923358661416
10.820354413357558,  1.887504891671577,  4.072536315448211,  4.981537366857371
13.904915899852575, 14.381327186999613, 48.485736794062753,  5.090507314274884
10.079192508312962, 11.726464845317265, 11.141460906917665,  4.837807467041680
14.468769908745381, 13.540701710141510, 36.146756016025037,  4.930825782665995
 1.586283945452799, 10.103185498597991, 101.945518695572076,  5.211981215451086
10.028457746241052,  7.320213571737307, 111.700566544344824,  5.159050017486638
 0.241655336765399,  7.306238730064049, 15.187313485914169,  4.938810767991574
 6.472480133715326, 17.372432870898347, 69.044354880206981,  5.500829405826210
15.445015009771268,  1.562349541379068, 109.944364298286999,  4.682279188872096
 5.131189856119341,  9.391800319745942, 57.757946916903002,  5.034006720729086
 9.331535007863192, 10.627318839528607, 87.026521413715500,  5.121221078009930
11.158696024878907, 10.263256912708462, 51.422368883833649,  5.109241739918051
 0.265382496863148,  5.362577162710100, 78.164595742203474,  4.692458557265186
 2.003656686211542, 10.766777039193240, 96.822518244379253,  5.142588462714251
 1.765066881391036, 14.345818703707467, 78.427083717478212,  5.138813235915251
 1.589420436841182,  3.950602831514917, 48.172166901617430,  5.057459006090129
10.512977363948313, 10.890682124992562, 38.748073041729263,  4.811693266228777
14.332431368472536,  2.160131880658986, 104.920689671790868,  5.194825888799583
 4.824101444734166,  2.607896847608080, 76.368703730829452,  5.186110770004841
13.741271615843816,  5.474477178592620, 94.994641825284816,  5.522201542442135
17.965703826400372, 17.162298030603875,  2.987490912401757,  5.455466095273461
 2.147862585209257, 17.414527924794115, 95.165822408566015,  4.530922619588571
16.038132945818958,  4.441423191036444, 49.972432984071339,  4.333502497726546
 6.833444291196265,  8.177686119862573, 35.880072726200986,  5.207216339593820
14.105971297173825,  8.020721235142814, 70.968543332110116,  4.741444206983397
16.773932652725140, 16.107961031341762, 15.590782843946133,  4.997164576035511
 7.627091652096429,  9.129600629295993, 96.653720959252695,  5.588267189861673
13.480694277103382,  5.575117061731009, 62.092205167401310,  4.802039704602003
 0.272926027626327,  2.503080921004631, 32.686416039346845,  4.914844930185438
 4.821036817165079,  4.105731038643404, 21.355770042664620,  5.010810707497249
 4.739338666218420, 17.732021336640745, 102.678033915688076,  5.114194975162381
16.530055317069237,  4.434433375160559, 90.474164387450983,  5.300651185180960
16.714072672484939, 10.576854563972024, 28.081921735746523,  4.945262712407319
 2.183186671382622, 17.891696708430455, 29.550967191322297,  5.034972507112972
17.986868288869356,  6.854264433671053, 60.677420262025677,  4.981120169224063
 9.873464468518101, 13.540657148328462, 22.928166683246420,  4.605907434618985
13.365168274922150, 12.779752992247088, 31.231417561367721,  5.247893805938268
15.950542605822378, 10.253352607599004, 79.402351244942238,  5.067463744282164
11.286145673861888, 16.532706632859085, 100.399905617806724,  4.919218354504260
 1.918160520765058,  7.270534924851081, 26.508704491380602,  4.832707712394812
 6.066889031632028,  5.348386442984037, 11.048770856357363,  5.158224508802290
 7.201956580456874,  7.146425601733728, 49.244087903737800,  5.841825205967167
 5.482236864295033, 13.768215358628964, 10.351202460517859,  5.345126519257422
 7.111951125297012,  9.580081804998750, 63.995070962393520,  4.872205186949349
14.225765003172521, 14.748370026867075, 19.365804993253402,  4.497844417187548
 2.417383510531400, 10.868052954790038,  6.771929928105776,  5.104262011327479
15.141777620669362,  9.582714376097208,  9.425848816854625,  5.248835013404262
 6.973951125507146, 17.781889547185340, 43.897908968743145,  5.105381134439842
16.298895532188983, 13.745246389368335, 75.861263497201065,  4.820363402535786
 2.529571854788176, 17.556610546683498, 41.281887057311494,  5.211746006318855
 8.191145755409151, 14.183315228746361, 72.884684214387875,  5.043806368136202
 4.973997705254196,  3.949218170397699, 103.939384860797404,  5.162039516299819
15.573917635198622, 12.004272805363124, 101.767307422264494,  5.062213092190094
 6.529296231171167,  8.461870982984436, 101.916018911429347,  5.204457727808432
16.268566792734731, 18.611944874584612, 95.979932221234279,  5.182581762697766
 1.301795120932614,  5.098622224581262, 86.869871985569574,  4.860056183705265
 8.103895296708815,  8.948397590974071, 42.560869161686192,  5.009169646541194
11.470473724233250, 11.174866472204094, 62.218269533756853,  5.062281865591329
 8.214436115632600,  4.418202600940279, 44.662965485015960,  4.971191642613690
17.228108258679235,  9.034573767581263, 88.090108906166734,  5.137781968465512
 5.863901515354395, 14.334016329800582, 86.657438679858373,  5.056219214041012
13.521471323477746,  7.943355847705010, 30.474112420492030,  4.532866764217466
 2.376995661809786, 16.985756746130516, 51.372292005209417,  5.051254109444568
 4.658609415046582,  3.002611326399426, 30.932537939917101,  4.552955668964947
 4.532267091303551,  6.642628866214328, 110.751145893550600,  5.145397131227015
11.743299502193681, 15.831106789657349, 76.196320183293409,  5.210109909691831
 3.292015606615101, 14.082749008774469,  3.160438606315505,  4.722235254355535
 5.272041043142006, 12.894499331304393, 104.236816992453441,  5.103629102743300
17.911367842724324,  9.007903026724550, 74.554665778751954,  5.522168843927266
15.813726961572220,  9.864157504374479, 49.554654594428023,  4.940910531594056
 9.218402015158119, 13.681752099213936, 42.387688220274313,  4.718812938370726
11.366606987000853,  9.464720008711193, 67.070555227344585,  5.213324513269784
 9.463476748192011,  3.756206231126304, 23.484170962621526,  5.215407158454043
10.139078890591733,  5.974697973648115, 104.123114640994956,  4.609883201228108
18.023716079217071,  7.539977080350946, 53.364540484196255,  5.018153994176818
 3.867266548900101,  7.174567276788610, 93.477495695247555,  4.950787546306897
 0.829177165560619,  7.375390904617551, 10.321706929243613,  4.837502209623027
14.725574896914193,  3.658775698831305, 40.194155687807211,  5.272461818623437
 0.438552671235857, 13.570429449270696, 92.879113319773836,  5.026922311894038
 8.196449065474127,  2.225229810439596, 18.006994500567593,  4.975584802073919
 0.092642489542026,  4.242184400943108, 95.213934680114988,  4.989931566050665
 0.814844291995426, 13.863673973748995, 87.757522860491946,  5.258167462023746
11.015752140900727,  2.863265254906010, 56.190987890196119,  4.923956620733508
10.701769179680671,  1.394123864067085, 41.925459581385098,  4.570297728566038
 5.696320110097165,  3.479730461494443, 52.901696791458257,  4.923733340955628
16.008608816623294,  9.426423133376206, 115.115875369547524,  4.997800894819968
 3.050735278728679,  8.062789944374757, 71.229322993698062,  4.887177872485161
12.790982093689848,  7.428557575742629,  5.615394053992439,  4.679703453379727
 7.655722933658714,  9.164383748737187, 107.205959288160713,  5.555840261550374
16.316321178110872, 17.061710948626263, 100.987284774077409,  5.259882344385959
 9.161528046554190, 15.538576494080539, 18.928056566066680,  4.442813589493062
 5.761838845692766,  1.826075815773055,  5.144333368226892,  4.942929182642753
10.885894874813843,  1.412920966404180, 96.937143042666136,  5.139959233956728
14.221567561909234, 17.958109767484157,  6.919830962829362,  5.368097159423767
13.218971026317085,  2.482785550574052, 46.003393254255563,  5.227466521486603
11.939906465571216,  7.856068596604389, 35.056286265453799,  5.153334512703839
 2.672449545639715, 12.830111824099106, 83.136004698473627,  4.912683771275735
15.780974998731018,  9.089467307510219, 18.573866758121788,  4.876244355070425
 8.357055681015952,  0.770964961423118, 28.480861979619043,  5.374875887575923
 9.200898734049179, 16.267137493750255, 48.209856123296021,  5.059696175843595
16.633496793582005, 12.648675368996576, 83.861731480800415,  4.797886312512471
 2.886613351233350, 16.607391351863527, 14.021097291591015,  5.287418822807910
 2.120812013307193,  9.525297500093139, 79.601364180920243,  4.806679603827155
 5.808949606008992, 13.418619859317779, 116.407694599852263,  4.820792305385091
12.606959584407351,  7.225217560994847, 88.791009761369978,  4.871001604732712
14.864675753227536,  7.069551760942802, 103.153753307688262,  5.269058193395382
 6.980404432162080,  1.489754071474678, 64.729210359307658,  4.907764316747788
11.821271337007419, 14.174740507959829, 84.078233261134855,  5.289765000694319
11.203504165705262, 15.401267983010989, 27.188883786073927,  4.978667857231826
16.578589733271354, 17.917861683462455, 66.967581837307605,  5.073458162259297
11.219222768265441, 11.165179525592867, 18.161023071564909,  5.160925374947496
11.172884485656253, 11.701305368560773, 79.642560943493137,  4.916511887202831
 1.892229189415266, 18.387584591267576, 22.525167508648565,  4.926043628729860
 4.427913907091483, 13.316053615785622, 43.617447035351631,  5.186233365785099
 3.963243495362740,  2.502423908002013, 26.124466828658878,  5.173054603666510
 6.418671016761308,  3.530587268079328, 57.740124862534863,  4.860271981402210
 7.245771452499794,  3.215521691382488, 99.649609924806597,  4.628330013912550
10.814008678720320,  5.118320837089030, 28.029723585353310,  4.641847853768480
 9.011489708819973,  8.370723074460741, 91.747347496876756,  4.714216127800541
 2.848281897218786,  7.789063941097926, 106.150451543587721,  4.663411107139160
17.546147451878380,  4.690838973906390, 18.899977512620367,  4.583434107387835
14.978253960199222, 14.335327448158223, 116.692907497149164,  5.298132992995495
18.737819033386117, 13.593437943012889, 48.549379081914402,  4.702638086288638
 4.032378745757626, 18.637318547395690, 55.700304299223923,  4.768200019407131
 7.380692510416016, 12.003218358868082, 26.558604070473677,  4.673484864756918
15.080114153537746,  6.303137117796704, 26.389561767216609,  4.800682459439454
 4.867007701396853,  5.090315451399147, 40.329095467060178,  4.942388182645300
17.500805380765527,  9.316873063233922, 23.260490886219451,  5.118429573235916
 7.891898952264542, 17.949992253932233, 13.982504958402913,  5.072727773867484
 0.606936190850987,  5.269883332606378, 102.193281239098539,  4.607225817279223
14.885302670310089,  1.914554693238464, 71.020805922891739,  5.287389717983989
 9.693436480062610, 15.010503101942062, 104.804330288739308,  4.706067775608222
 6.951289964703491,  7.284901197207109, 68.333532500586458,  4.947962822061667
 3.511134526079744,  7.563181660612059, 31.982727516552885,  5.083602990494904
14.604698143400849,  5.455175448517509, 80.159132641137944,  4.996854115369429
 9.150241657760176,  5.812839791495120, 85.440513460355248,  5.008873152770531
11.955624131082377,  2.512867010133419, 83.080873877596986,  4.842775639128745
 0.797918408129388,  2.232874517341759,  7.569464777296054,  5.119322597846169
 2.817458092703000,  9.354842353743660, 66.447909176860847,  5.028225163399663
 8.302886131651672,  3.169710045472447, 117.091165497028413,  5.158488763239094
16.198209384176781, 11.302880959699985, 61.119043427502447,  4.647577692531068
14.862804400726978,  4.177926479781171,  8.817375963895005,  5.332241694989024
 7.147044414174406, 13.048410248256227, 60.531818058342822,  4.929179380391345
 3.752436567307768,  6.110209741074340,  6.718560375361852,  4.768634868369531
 5.026601794645046, 13.135160488181850, 48.903256130815343,  5.457558871057630
 2.079287154159464,  5.541820714013015, 56.891016089756008,  4.845495539500089
 2.221951460431621,  1.402467082371806, 17.797980258804174,  5.169750851866582
17.858544256729328,  2.483427539188853, 27.546702395988106,  4.914125511182831
16.648576290779950,  9.578869345835901, 33.814117278113820,  5.173152287901317
 3.295380507506329, 11.653514870552410, 23.816279548490844,  5.167954026403105
15.231116786532727, 11.489462070606093, 14.234682116933598,  5.091726194431365
12.371522430407456, 18.547218696597390, 17.302036818100643,  4.795485413452765
 7.093402851786612,  9.600667123993333,  7.899659456712560,  4.841765986203306
 6.827567290775185, 13.113164025360890, 15.422760886447435,  5.211830856274894
 0.969421475424140,  4.222625928939168, 73.565130563754963,  4.862613492611683
 6.665427084056206, 12.059332588754266, 68.797464943095036,  4.659966377022664
10.266181068213800, 13.399520693053493, 109.379320069278023,  5.046183951335102
 7.046153520768167, 17.727409614464740, 52.257555605304773,  4.560305507083015
 8.680499980334428,  7.170460976338460, 54.771181295818515,  5.251421358292551
 4.603909906958079, 14.122499815601481, 64.797003789504330,  5.209195984447086
18.247525244872385,  7.889434216540614, 83.321266949422409,  4.868596684937923
18.520218036281729, 16.831146086747516, 108.540981717391162,  5.015967809874412
 5.968459177641605,  2.010357520101144, 112.664940137837107,  5.107213485576146
13.072680529514729,  6.274694499375094, 107.761429611422514,  4.742705992454712
 3.240223620199024, 16.392301996088946, 112.253703628178130,  5.164845908010879
12.940572416952003, 18.717751140365632, 12.246087036383623,  5.015554769260504
 2.238776028968007, 18.698177189727080, 64.593796897877112,  5.072523738409916
18.501151323407910, 13.570783693818875, 20.835018152911733,  4.842766108331524
15.500516777946501,  4.600626596063787, 85.520848270842947,  4.699419698605355
18.444375987502923, 13.993929103848558, 31.751067215382299,  5.213429342710340
 6.844389617864651, 11.891776100244998, 53.699633434195732,  5.089691156790640
10.593008723330367, 16.590989851991580, 38.769918052101922,  4.934910777343808
 0.425890444827829,  0.965142533871531, 104.241061678377577,  4.886257636143115
 5.563553778282346,  6.589891913051034, 88.835170939037098,  4.988297865384361
 1.965028976777369, 15.017425561949164, 99.499686419930086,  4.899019696342337
11.478295031384670, 17.133662207834213, 70.050669324143129,  4.720193379246766
 2.122521589251530, 16.170982469845377,  7.331030126584015,  4.888335942827618
17.136861902652107, 15.427030476556027, 44.282620646095872,  5.114328506139667
 9.350513209646707,  1.119590589881514, 103.712583279197133,  5.261330849071149
13.319630783460171, 16.024879653997726, 112.224803427627791,  4.805142548704080
18.534159953430024, 16.627074576682798, 82.252295151373403,  4.588544512483419
14.061261078957269,  8.168190403977921, 58.128923829052269,  4.728396606228107
 2.334188190597213, 10.293150076283887, 114.783751694345526,  5.003668844120767
 6.428885571573351, 11.269470728399652, 111.962118825408837,  5.128292568044773
 6.622900490028306, 10.595533978068261, 77.946571230510330,  4.990758349144223
 5.476263291239875, 13.958774683312839, 94.840675092690034,  5.080276764553985
17.123190539579110, 15.969832292113038, 71.565610596532906,  4.965442928160152
 6.593844262700769, 16.258455492909498, 77.423900624703450,  5.386285277477280
16.066588526168722,  2.149234102429883, 15.294362876917496,  4.721949297318337
13.103501425938106, 10.153178423877318, 97.266659918935801,  4.957299283754897
12.890047616578777,  0.973385790483033, 92.167490536955441,  5.243828561679428
16.264528781102300, 18.067566899801790, 24.364225988535186,  4.607702550413027
 3.537836942102818, 11.979253042260744, 34.599176660893647,  5.175779689804791
15.032795437942548,  3.168095086580172, 99.722584823009001,  5.115807480016677
14.969465522114255, 11.139588182669012, 54.529797674523344,  4.674925319016038
11.494209688792388, 14.675063301937456, 14.646821304919069,  4.749869718772358
 0.364229936427782, 12.690206270592238, 11.115440431007022,  5.168095485522585
13.294673635054210,  0.762360908114029, 117.123780699140184,  5.002964785261403
 0.562165340864477,  3.778361576630515, 111.966401314218245,  4.928898736131245
16.234581467178472,  4.115614045799203, 56.862203708619184,  4.794457740804924
 3.431299966132972,  4.430319544941691, 66.405009554572302,  4.893984774709051
 1.801697089535580,  3.818849129206315,  2.903253866807733,  4.937527759981242
16.980671142954705, 18.614425607610421, 48.672732809152564,  5.365331567264978
12.470617793853947,  5.826938025963037, 116.285286878083781,  4.848857213560037
15.505693863637530, 17.138703299916891, 29.011193115704138,  4.984251104139680
 9.068226103880043,  4.306892906950657, 32.586918679605887,  5.217211675187731
 3.627899780090565,  7.513859913390929, 44.874953348404830,  5.463954929283501
 8.672651430904489,  0.493060138879859, 73.568042708829324,  5.222990332759665
 0.546719865158670,  2.349248109014388, 38.042729517301545,  5.176393697491444
15.919843192745596,  4.936606275629390, 35.493743291597269,  4.753530821814040
 1.558169057088791,  1.362608391694190, 99.256082848401618,  5.345162542219886
12.819317227486057, 12.283615777924645, 72.784207945136714,  4.863668204712157
 4.138668308195651,  9.511822792047234, 13.146724510151977,  4.856806801272633
 2.903096939297364,  9.619365870093725, 86.465365143977550,  4.341885428370461
15.963282428547721, 18.627998680130229, 75.605009849663972,  4.979946812112081
12.323678062693393,  6.901702542846840, 48.061090012729210,  4.675486905635608
10.710219045126786,  7.024733212090559,  9.947596166109728,  4.928213218351381
 2.499060233855586, 17.255175355101287, 74.220219319557444,  5.186750384828150
18.738112061717576, 10.781303642597738, 42.997149650568169,  5.009802444167976
 4.738947294474153,  3.616153155099864, 35.592320967778164,  4.846892973364673
 2.623982105066271, 17.178045308023034, 46.362314222008955,  4.951898629552780
13.288004177268585, 10.443302546426921, 92.372997166570542,  4.834201537297393
 2.498805066548431,  8.456964880369181, 19.691758045888445,  5.381696771623072
 9.862545194547572,  2.212563119266886, 60.879918175143892,  4.815701425205834
14.636829334827672, 13.495672242881847, 23.987916393273103,  5.105000049337814
11.751415349945251, 15.995212923097371,  2.937442154191504,  4.767112408067558
 0.750664996345984,  2.736341514286443, 53.018189896426634,  5.061933919578595
18.603592660126171,  8.545775901266920, 110.816186361125062,  4.974169658749999
 7.244781441786222,  1.693584142570691, 88.871628367893294,  5.345009202543117
16.598974050727470, 13.676892254574426, 97.149311627702900,  4.967635321775555
18.413504440853085, 13.117241999478287, 65.390621196421137,  4.954015881729637
