BANDS
8 8
NANOPARTICLES
cell(1), 18.738
cell(2), 18.738
cell(3), 117.110
 7.692902467093020,  1.928185259092111, 56.139718496584592,  4.720155060481184
14.456530858859638,  3.614631563484398, 109.101590781529367,  5.332187319949560
16.961167363226014,  6.193207163952577,  0.109132758918155,  5.131811896018879
 5.639343587490330, 16.160928881082718, 46.068906210408699,  5.044476931615308
18.661113833099606, 11.973831750560539, 23.756813048071493,  4.752127234269414
 4.052098540953545, 12.694370746378162, 85.481001380342576,  4.851125258417271
11.731838750884100,  5.460843969164906,  1.625263943420589,  4.965768352739423
 1.136731918591301, 11.665950093514780, 65.695126716154817,  5.051832159210413
 7.976424727229885,  0.948625292872409, 30.241350989404793,  4.700158259388807
15.928967046234433,  1.731224830398376,  7.948329297989424,  5.303201840936998
10.118612464800753, 18.615376250701736, 49.647973215042960,  4.486197875838775
 7.345295325028697,  0.058183789115543, 18.856837207887519,  4.865128459115632
 8.104443206106543,  6.941221865311034, 103.557452283063441,  4.728574367428641
 7.355377060173406,  8.905895289370742, 92.580589938933997,  4.882667492480135
 3.554696087933225, 11.177406288387497, 95.860702465219390,  5.233326560015657
 0.451402058888595, 17.312208207425005, 92.615855980777368,  4.901683104271603
13.762892698592811,  4.285655953736470, 87.062349207242093,  4.900636445983984
17.638356931105829,  0.127543497524550, 79.464221222756251,  4.820901794581397
 9.439768966493691, 18.563173457945954, 35.593541656460154,  5.242020188762237
11.499840958402407,  5.655881916694526, 74.074729351263329,  4.948062212937690
 0.947081722184221,  4.626515408755811, 80.146136296912303,  4.712473427374362
14.420001736535955, 15.299889681354294, 24.439641068220460,  4.948025764201201
17.533733091790520,  1.905122163016107, 83.886475048337402,  4.707468410516025
 7.593088957474023, 14.262741526454693, 59.509504408967295,  4.745323918299871
 1.870086699537590, 17.752959600495370,  8.946506680385442,  4.861909166834505
 5.681184775106766,  3.147526181462895, 75.869166789626334,  4.624719307647541
14.794563457760400,  1.412026421723140, 57.480063716661832,  4.904473161913081
10.640037437843892, 17.686263566190174, 58.318151502925154,  4.715399975139648
12.672601837019101, 18.196696925347975, 111.481440330955351,  4.880266369220623
12.202396337695287, 15.206936163083469, 65.532135407507127,  5.062098708276761
 7.712514731032901,  2.396325069322445, 97.611987641561555,  4.683551595672046
17.849883201858340,  8.521683998965305, 102.636606208125059,  5.301368250686190
15.534619365766577,  4.684140068673923,  4.268182674485625,  4.161527960315698
 5.665378304311246, 16.065981333603617, 27.620346575818871,  5.331557584346177
14.614899291229449,  6.315571346534380, 45.992875653362070,  4.598971037434588
 9.766337361227915, 10.258169789971838, 73.292520498424622,  4.988019496807080
 6.182717858231034, 16.494638316169659, 98.323992773929504,  5.184677002892875
 0.466343032189642,  2.285875390422413, 62.678628746217825,  5.527742430738961
11.276846895038762, 13.792603399828634, 36.829561984182533,  5.270962118816459
12.168759773261682, 13.782020569015730, 60.388825015676943,  4.611576683586981
15.851900867864266,  8.842027063301753, 90.129931652934800,  4.932990011279786
16.192968361522098,  8.033521308558614, 95.258333165484785,  5.470008739102124
 6.607847090497432, 10.968306827227737, 13.437186533989912,  5.025476853211694
15.905206798972346, 15.852843680708663, 83.598010615004526,  5.404032050367948
 2.441415039015117, 14.480432775152364, 69.898361677750188,  4.908384251218354
 8.969171682192167, 15.044042738135824,  2.712437849409768,  5.103308092145999
 8.944222926849276, 10.656167451561434, 110.248977065224850,  4.826518889762471
18.051866432113542,  3.138995386432283, 44.891117877248000,  5.003279650102767
 4.289664539525434, 15.914608818568713, 51.197271470947861,  5.436898949938842
10.378420929795192, 18.112213134438282, 94.918593060735915,  5.006488339321374
11.853730708394099,  3.803661335161308, 37.611848436285044,  4.897658133387144
 4.557271872227459, 13.185962079636758,  1.292945680578688,  4.883036484741432
15.226127825409181,  5.548769074711660, 54.502847696351374,  5.317154997549473
14.397315103110868,  8.230506457050238, 111.446059563020725,  5.021560794731303
16.688167945298314,  0.148041905284449, 17.242901939624549,  4.536054624249387
 2.207098314634753, 14.897941655649619, 78.245928565279726,  4.754341234214198
 3.045755904346936,  2.879555748122948, 95.745557687312470,  5.133944550475904
17.972968061465945, 12.460373787345263, 110.695053280536285,  5.458964060318761
 9.688607269075733, 10.035637583026531,  1.816321030405773,  4.990427271757981
 2.718124559954608,  2.545376968019639, 90.591527440013977,  5.095767932338091
18.168884532133628, 14.460171484929393, 15.947196433778808,  5.147566818159917
12.077481675022055,  6.416735370253885, 23.492645334031728,  5.030666379394066
 7.903365931841532,  9.458192876684421, 59.225616529341380,  4.897057717102153
 4.414477926519883, 13.161068525240593, 91.135255776085700,  5.016189041049984
 0.736482414241754,  2.265933314617014, 20.601180251421301,  5.065448027279910
11.353552446866741,  3.543872133320012, 32.602463397871396,  5.036519367335335
 6.687647457621305,  6.678290751625454, 63.019417781876420,  4.810172949758588
 4.962662830664413, 17.178221715348975, 87.995802968655667,  5.219613850709374
16.301884077816098, 14.130929027372689, 68.486578410653379,  5.265303982660788
 5.792503311457435,  1.676459914458917, 71.176626770195554,  5.209954582610404
11.979727869574479, 13.724977797675265, 41.871826244523568,  4.883221367450605
 1.167880973492333,  3.672833759882188, 10.439440409857747,  4.852782350417893
 3.778396951496216,  9.960186035483618, 101.216580396417882,  4.867440398907183
12.261714255229593, 18.360075827390819, 18.988257734982859,  5.006471655182568
13.138930777781527,  9.424583951047635, 77.001012060281695,  5.140358986859479
10.041424755131771,  7.735319592134023, 66.185735407056484,  4.647077968403480
13.463217192015764,  9.992208327892914, 10.552444743369696,  5.057775957943016
16.865717977381959,  3.915036145840059, 92.140416596407988,  4.934326993414998
 2.521643196666030, 14.979090460432921, 101.991671975704520,  5.594744184242185
13.202777867022869, 13.470804001649677, 19.271613724661229,  4.961543839248423
 9.832901899841792, 13.825310902251365, 10.734131223238739,  5.141502360033395
 5.642856383511725,  3.522887963581574, 15.548956533609333,  5.273069938045617
 4.635956467095212, 17.149852475557594,  4.118336740362412,  4.791900249200882
 9.575514040649646, 16.063321507731342, 90.186740914987169,  5.185102456531320
 5.488949031492646,  6.449843197097051, 88.490256773626470,  5.356030119057069
 6.861628315718202,  4.413357139869005, 35.052205479941101,  5.338704705958100
 8.586901160402551, 14.924090329343306, 85.180321129796582,  4.932889634408181
14.183811120788123, 10.729396395734042, 23.067886015006330,  4.601397454956431
 9.141947384329194, 11.740862183900237, 78.901488928249961,  4.848991401860967
11.968496275898660, 11.813439680958776, 31.964530880572500,  5.283149792593752
18.541824888114522,  7.772747366408806, 34.891688272119190,  4.853031845148927
16.922088754989034,  3.482776041375636, 14.116122722382103,  4.614448195770367
 3.898376038664643,  4.862370856459277, 114.081240419771234,  4.949847133948621
18.242763720830720, 10.980421892125849, 31.091721012672551,  4.765048588847423
 0.781674590705619,  3.065137681629745, 57.423325464671542,  5.105561725082113
 0.262316975966222, 10.663623615416993,  1.938604615992529,  5.084392211888079
 2.392279514982963,  3.553475791445343, 109.029335428428737,  4.926244403739708
 0.996875766498462, 16.696792337301837, 65.644088612748419,  4.964717440011383
 2.428131225701555,  5.624890384735213, 70.835578147523407,  5.184301028567821
18.176855294014143, 14.611696131872298, 49.031539852185048,  5.474746477282594
 9.844550100489815,  2.173558446230158, 22.415763083698391,  4.794805987602413
15.665512063626615, 16.277842650646697, 115.122245157803903,  5.292371672404436
 9.624905703543448, 12.126809911616400, 68.622919728472723,  5.072390716437030
 1.524062744087905, 13.706903141804212, 36.353103212768644,  4.882153528974083
18.045313160452064,  9.065205033630281, 78.588649956710483,  5.185803924791800
12.334808256868012,  9.361894102238415, 52.904651107459863,  4.771449314037945
 5.999656383564059,  6.818754129515698, 96.809541710944401,  4.929278998899353
12.153375412686140,  8.949137603608408, 86.816752500713022,  4.972426788752579
 4.444771082796949, 17.320934077276725, 22.674015332789985,  5.159947212567396
 8.169187862919262, 15.210670283902592, 32.004044809437467,  4.904512787115719
 6.237730879556132,  8.639775257759540, 17.938125659775693,  4.982872945661452
 3.857145784786974,  0.661990923073222, 79.692876550823527,  5.148394703080554
14.802475650237600,  0.417855314077894, 67.677810573725424,  5.285455428281747
13.647287007338688,  2.328808670463406, 103.546027253646514,  4.528628618155436
 1.458303543677649, 16.327414435455040, 107.308312826313397,  4.783811123970492
 8.897697895741519, 16.426538514187861, 53.826254957690892,  5.217374745001618
 5.239065668242241,  4.716076135533929, 29.245205878616211,  4.810134383530667
15.730553187578501,  4.612184420806812, 99.754835025072055,  5.244774947517557
18.438782272290339, 11.788664721966654, 98.918750793570680,  4.663089414487700
 1.365682193614314,  6.782115508904966, 98.404340084603263,  4.871566160558702
 5.510692364445358, 17.753686370513563, 93.236855044003377,  5.311326133264699
14.424680335199870,  4.142030342969768, 64.036132485354869,  5.077405480532242
 0.741951121202755, 12.741935333583619, 43.530495150675421,  4.955505826279381
18.403508620266344, 17.111163954164716, 59.164945179990852,  5.108418060351410
 6.508020213776782, 10.877198434878585, 105.962059723763105,  5.031880224637316
 6.112203450887196, 15.032888780748310, 36.836714764633690,  4.703796132915635
 8.716755687323518,  1.569119432490423,  3.487803999617108,  5.531510681088871
11.431893271616273,  8.027045160411051, 35.267282967503462,  4.793502337125297
 7.409218489473978, 10.188027703533253, 52.331143326366814,  5.206798906453343
 7.021759456421151, 15.472295085989932, 71.178050047744406,  4.759468126012460
10.464146679369005, 17.408306300699081, 44.998472856357530,  5.140458530406744
16.407487668404656, 14.102884424737162, 62.839429273169316,  5.164157622016855
14.906645513107483, 15.428456695486553, 90.934226475885296,  5.041210511464146
 8.636493332734124,  9.126035455920231,  9.235315100084875,  5.005326326873626
 8.628883652631723,  7.418795810858089, 31.432732813750935,  4.708980554868660
 7.838091991236331,  4.862019331577462, 52.045140213123872,  5.327369827292158
 4.348963563726967,  3.440719896520193,  1.602857104601422,  4.682392430759489
 2.342571685367165,  6.835979545595285, 60.557603432027037,  5.174563032664985
13.529811183050111,  3.507458341604393, 114.414960701767086,  5.167375588459849
13.358300575198419, 13.797885820232839, 47.112165395163132,  5.019226218896097
 8.624406444495412,  9.348648127885467, 39.273095059113075,  5.172567273551943
 2.232867643590676, 16.879985089194761, 83.737995840812246,  4.910675682739578
10.112108791794297, 13.312808742779451, 115.345333286032087,  4.748240741061045
 9.539225706164373, 15.776631137307696, 22.660370184113280,  5.484957760884934
11.406892416561563,  6.240265224697593, 91.086095904967578,  5.210425257287938
 5.764340996971820, 14.877353905823936, 66.062522069947320,  5.258745405653041
13.667973783591771,  9.924090324365693, 39.192583474411713,  4.973902924316850
 2.162914132147902,  7.115837793877364, 92.889794277620240,  5.195213018084162
11.796240330842043,  1.848253673782655, 53.601124521656466,  4.931049632740043
 7.783988392959999, 14.363766467466588, 102.641806649277470,  4.927271836727883
 0.435245653378226,  8.079010525751038, 45.535118839062648,  5.208902479153720
10.657606417008347,  7.543566073755332, 43.572891253674648,  4.991397509051408
15.135745356375653, 13.229813887386165, 28.613192064405645,  4.361810796983682
10.466877299418879, 12.299872245542634, 56.212809181000218,  4.816815065052864
 4.832233854071126,  4.407508491825897, 100.978507987958338,  4.975272782153087
14.772219981589430,  0.770485489440813, 48.019534414845921,  5.204167885490993
14.647006694921970, 13.061609634514069, 95.380587853644457,  5.045792530837162
13.793689007274345, 18.349346370156656, 61.965212718703114,  4.960428780003070
10.646150161280895,  6.815864844833071, 107.703755930843911,  4.992767564629143
 6.495768022746710,  1.851610877887127, 25.714869208693887,  4.616586437272987
 9.308409310884052,  5.235960188786716, 85.340143412637246,  4.833080036071173
15.875229383443664,  5.682897561307958, 59.510242415485976,  4.783373440699786
13.920973382326887, 10.525864593387711, 65.779815232985612,  4.923044339165626
 1.862172658181633,  0.725637651637566, 29.412941759264609,  5.329745767291896
16.202530362735523, 13.344590016619296, 102.851477702674060,  4.883902890507279
12.041464290813353,  0.864504444758446, 99.352451233407905,  4.840613395291545
17.288457437457065, 18.062442245651205, 103.440397655980860,  4.868118497510569
 5.964595454317820, 10.968106524608693, 114.174191468385445,  5.049089518937377
 7.929464165479725, 11.836507521612459, 44.313246813454612,  5.288714034895521
14.884465493423253, 10.403985101919449, 57.865354040768196,  5.346838006161550
 4.632163431731890,  8.047303250266319, 110.111286737489678,  5.249247767080590
14.870544777884525,  4.447021651040099, 18.628017127822023,  5.188758987308275
15.112113599708515, 15.882649181056712, 107.566503831292962,  5.429430998446851
 4.491933689272430, 16.894471305350930, 56.663445773850505,  5.168965486196469
11.698112452192879, 11.449707185872640, 91.472170962417863,  5.234470733387708
 6.382135417763138,  5.142779653883450, 67.631746160785497,  4.772410723310683
 3.475872581243812, 13.731297172627336, 31.664675503258362,  4.958614151952665
 9.955483444208202,  4.594609496537240, 27.684931905832450,  5.043450655196803
 1.537519946583998, 11.613159373168511, 105.977532666444006,  5.012554585997786
 0.815141930976660,  0.793947900919713, 69.855671434212340,  5.185436118069750
 9.540982113272690,  6.782004000272885, 13.714224518272992,  5.211972128191978
 4.034050605415547, 15.029890188955749, 14.234802969745868,  4.719594607475066
 3.419979552116030,  6.895755224838853, 105.177625334233298,  5.163550404255069
 4.297050516665804, 10.329886206642424, 79.333930951765382,  5.181864314598887
18.580988812134390, 12.052415124666735, 92.582771932353126,  4.814158628517250
16.388475720981177,  5.594161089808020, 68.624802853228175,  5.299116908506901
15.761671797958991, 14.032153213006518, 78.293470313314771,  5.754868658520445
18.538554428756338,  9.911379926911119, 70.084088612666051,  4.767828760393152
10.330789018524802,  0.939171119540397, 73.266229912409756,  4.877258142397221
14.591886934841321, 17.971009801806950, 36.384493823503817,  5.249915858786895
12.062600911987019, 18.407718726748822, 86.149071466874702,  5.096907326979707
 4.483216934882810, 12.081470500243761, 40.326023356337714,  4.967838464384338
11.311450130186365, 14.548609796799346, 75.322806052150611,  4.992540440806930
12.913614424672359, 11.525719224156308, 82.380479358345639,  5.386282460336161
 5.306750111286970, 12.457747353641411, 23.951332923399683,  4.970151905725719
16.049111290240049,  6.190342123371542, 41.438461414909604,  4.949980815801905
15.302766097988414, 11.101352298654726, 115.524307160805975,  5.115600520490968
 2.233574646498998, 13.346022282644785,  5.449221930557004,  4.588918838934885
 0.687183214646346, 14.776468775270674, 27.648323116167422,  4.953344426537486
 3.197395266522633,  1.005340845705313, 104.248952618307257,  5.010166227795890
 2.890977426990883,  4.538325046914058, 47.458425505348160,  4.223500758148648
 5.996338327474610, 12.927427052030742, 75.264420337439063,  5.053990748197545
 0.489829957898589,  5.659978392439228, 29.662390248082335,  4.902068550101133
18.000992311701971,  4.896461770345620, 112.521521879019915,  4.821250397565894
 0.164141853557553, 15.865676834602041, 54.325565139409477,  4.866966928102885
 1.951368214654836,  6.490445447289394, 65.728554967428835,  5.218075221673257
 2.370751918155361, 10.551276288780235, 15.702421571743653,  4.609382774977280
11.671433879405118, 12.098236306713792,  6.133988400085467,  5.350830253785641
 1.995536362606952, 16.337032553258343, 40.442213114006542,  4.811066473094482
 8.462665690684533,  1.896640336928312, 88.636216198073740,  4.695197036635239
12.189682000566400, 15.996876701634017, 70.722246111315158,  4.786437486306890
14.379710675455550,  9.317866115867462,  2.920052416438117,  4.715888888607933
 5.327322007470831,  6.220927946913573, 56.405385465767097,  5.095112025598484
11.059267767349311, 16.336990575263371, 80.486093374184549,  5.595826056205959
15.006259816202107,  2.449838645080299, 72.503818052876468,  5.056839800777394
12.569284213295949,  5.264845691958779, 50.148770666416546,  4.898243374041041
16.313630388964167, 14.394338498728885, 39.589877231420921,  4.947812122089500
 4.148739239337458,  2.164359652875181, 43.605705953584831,  5.163177597553962
18.442003527495995,  7.725184598200316, 108.538511073918386,  4.987640727922272
 5.432917563026216,  1.083572976788324, 11.258984128888999,  4.580719632170439
 2.654861920753153,  7.820897136511079, 83.901644591674540,  5.717552459818271
12.848682823618152, 13.684448090750433, 86.918001877128930,  4.598188191980554
13.706866740238516, 18.662871447633940, 76.623988267850592,  4.858543386744020
15.904687080849998,  6.791864029966781, 82.981896691663877,  5.590416492012897
 4.615163669914681,  8.248712184475615,  1.070271838716616,  5.001955581647195
10.832143225746409,  9.540247708365012, 48.205461152236616,  5.099862629196015
15.101346880937161,  7.901047243437852, 14.854342235656434,  5.051709810345426
18.727823353934703,  9.949051601829241, 39.390014742484297,  5.145441415441411
 0.335553425562161, 18.699819159164715, 24.796570970054088,  4.490462398752537
13.677443267175981, 10.143357533948739, 99.648924863681671,  5.457594321071584
12.645082029306076,  8.536716681057914, 69.897870116629036,  4.554244215769881
 7.580087487854235,  9.950600509131567, 83.264371797662960,  5.085316651614537
 2.969897619871245,  9.350805950243180,  7.944918404521363,  4.929849743680400
13.507467342890347, 16.037321641539531, 14.745857781353786,  4.982163145036050
 1.227767966505273,  9.125472020842897, 114.281698314039701,  5.112228207725331
10.925307022024917,  6.875057786517505, 80.894027948760922,  5.152908604144526
 9.634389726757643,  3.309344731236784, 64.686767898095226,  4.730632236428616
 0.660290281309260, 12.437948612910915, 82.038217493472786,  4.797786732552873
 0.020201346813264, 13.111802827835742, 11.069283432893204,  5.041985370837599
13.202090241180601,  6.921838177130021, 103.575098336567692,  4.693801645144266
 4.471141567664777,  2.748427941992662,  6.698436012506717,  5.287269681058107
14.514754977476871, 15.344320265964399, 56.562730716244324,  4.890812223810095
 1.028235279464166, 17.336183108700794, 45.002486374345722,  4.705309898659568
 1.542930081095566, 15.589760515497417, 96.942212706399488,  4.662958129410267
 9.052229403972328, 18.385283672427473, 67.827240994892705,  4.979156202935743
 3.647595761809151,  1.989387577932813, 53.311530932440228,  5.144156555893160
 7.816422110941475, 17.462991963758892,  7.827874049822291,  4.998932336032839
10.677379297379447, 10.775248445053119, 103.637248348983931,  4.502564675175457
16.982137744921467, 16.370158311869119, 73.326977665891235,  5.484901195368182
 9.635653493675113,  3.475745484291703, 46.527861976923923,  5.059691535389089
 7.695112858209401, 13.704432564638966, 17.968388367378754,  5.411634729226900
15.871011171437670, 11.879980514980675, 35.221839974216522,  4.883473824657562
 0.706258487544206, 12.228955451206890, 59.300501450038318,  4.876171552261520
 7.833675438461736, 11.041429509119480, 88.166278088445651,  4.968484974591964
12.590926214720291, 17.477467264639884, 31.651728577720373,  5.057142061436018
 4.639525513637656, 11.806883237261012, 56.317836709252809,  5.026968559426866
17.906941730828610,  3.970355106290434, 105.185194823951122,  5.130355350168012
 3.368781803843232, 16.992282638785781, 74.030080737443072,  4.933742376086688
 4.907114638617349,  1.129579857582880, 65.290239891256903,  4.976697010622705
 5.832329288883152,  1.459242589231117, 48.896036371021296,  4.755642094099715
 7.750903009097277,  7.407707436153808, 76.917872701048353,  5.075137414271270
 7.128738677392940,  6.341506449175222, 72.183640785416685,  4.671963664588723
 7.701928806239160,  0.883248736483960, 83.272952830888542,  5.325327965330037
16.691851589146186, 11.113387780483382, 85.841462674304054,  4.888638889788826
 5.325016152177358,  2.599599746497384, 60.440852106537278,  5.183049356871659
 0.737551754214795,  2.545127399660771, 75.249828853562235,  5.406099378121644
 0.440958492016124,  8.244114632366808, 12.018855827943215,  4.888474143988031
 5.454617870295185,  4.095114467823685, 21.057414965983423,  5.063663209824879
17.109645490665269,  6.868701042711280, 73.555676034459779,  4.891396161767028
17.156061530226413,  9.224059304276034, 62.432866590657198,  4.739287398410983
15.916879930039039, 16.447207485493067, 98.936364239239850,  5.082682024778075
 8.089978598013190, 13.426336720194806, 94.633701384504135,  5.142613411093198
13.618040585933070, 16.040118587517838, 51.689912660608243,  5.102481437013306
 4.177242856707249,  8.339704447211099, 37.059391811996974,  4.963880968510435
10.678747532655970,  5.784147009718090, 99.523736544764574,  5.098619253093347
 3.142990325230973,  7.267820551975237, 51.359917316058549,  5.306723734051754
 7.520232303819935, 17.510055228420256, 76.702453762650450,  4.987984378583009
15.912672014758067, 18.092282520719095, 28.104465195850427,  4.738061418496961
 0.427790607519412,  1.216762621222239,  4.076657362730192,  4.821695089823456
 9.570452169342209,  3.309398504435026, 111.190807037703962,  5.015103900321455
 4.407931911501200, 13.292494020195321, 109.911809942590523,  5.131745828819439
17.526076616237656,  5.025128852202425, 49.634611587562262,  5.071443209076402
 4.468405723937942, 10.244942456220285, 71.346472785845208,  4.916389484600296
16.560049980972924,  3.837107675458352, 36.719767197814406,  4.678653883288749
15.033594769009836,  4.167841735317756, 27.299396853794889,  5.175736839678073
10.422734343055943,  6.358772950412725, 56.276651590322047,  5.031384717330021
 9.480716990074479, 10.558607405825919, 21.934468481308848,  5.041127918865605
 1.752485480856254, 11.835673216764652, 52.494628520640944,  4.508366750176785
16.901553484463125, 17.610380472528774, 11.820413552698803,  4.514647273582284
17.025511201768392,  6.436172623243419, 22.769937315974175,  4.958084515766584
12.094105194583062,  8.097625621561686, 61.706437094883391,  5.205126017878373
17.089270432710691,  1.043983404604870, 40.548172791871892,  4.732779186482018
 2.072394760792253,  3.746813820276356, 33.753393127870012,  4.661206705116008
 3.980627881885989, 16.640610840161461, 61.659202270974035,  4.876255290215653
10.656137580061948, 14.507172804003078, 27.694578562374733,  5.124453044996843
13.061405368158754,  2.336526120572901, 81.927882284591377,  5.085947094612400
 9.623924161221366,  5.018429708705963, 18.476347269397571,  4.910749779803997
11.699415499921910,  0.315026851440037, 26.328458902342277,  4.584061730001844
15.259616152146872, 16.739436052432382, 43.708601215184267,  4.746375476054772
12.912051469996612, 13.252804458593230, 111.425219719908881,  4.879320381773685
12.774036752892881,  1.285104021930196, 90.917329046025955,  5.065193408389045
 6.106003030673882, 14.848256853571785, 80.999174066821141,  4.790390122627528
11.472186872960510,  9.452220239314579, 27.452504114810239,  4.937457548775773
 6.988111410260308, 11.242868866430115, 28.926729200187932,  4.996453242511654
 2.928404492990701, 12.995768480890314, 19.701550078582692,  4.824807834832209
10.050883001708844,  7.697964106207060, 114.286992831955914,  5.416025860341190
15.106129524536176, 10.524040355459107, 43.848741227768095,  4.842620541890485
 8.984817475811406,  3.949142492857495,  9.276983034551458,  5.370196204277313
 4.832422395197663, 13.740632540403698,  9.549520306798939,  5.123241711421628
 6.624952457927916, 11.548381613529838,  5.413257795937498,  4.897224002828103
10.201490489313196, 14.148809309444477, 106.999517652069883,  5.038670509441205
18.507192691935799,  5.446372252717611, 87.714477640192399,  4.947816457996787
11.421093692176724, 11.432630441173679, 15.001384754286846,  5.138879565758312
 0.885176703997088, 11.867782229814011, 74.527609492792280,  5.171445626068031
15.866177222825876,  9.819655045904383, 49.129484993625063,  5.121617014588578
16.619381449242546,  1.061459672086004, 52.722076711630130,  4.731090997281578
 5.995839733647795,  5.040204080842529, 80.901715387235981,  4.834374810644265
 8.484621015663707, 15.690489269017812, 111.507137250238344,  4.819713875327968
 2.313779285054800,  4.388866310128313, 25.117039077854102,  5.214309320071491
16.419975955686727,  9.053119668249122, 26.957003934081754,  4.974418727427085
14.461944846711051, 10.573210952884304, 106.800832346907228,  5.368979554736398
 1.775322520641260,  0.608728520707468, 13.980567602083820,  4.580078353319478
16.040029064684926, 12.185320689983921, 53.368741064644141,  4.586422374243054
 5.293037988288796,  0.842891863905023, 38.563904053855858,  5.153441379403990
 8.060154785222036,  3.402687517902439, 115.918938747164844,  4.586830063762345
14.924708316630193,  1.500699642783154, 22.881918754175867,  5.144047939808120
 8.116450674156429,  0.760094955703872, 102.603999842675222,  5.354448857733527
10.018610286813150,  2.898893997819097, 77.917806510354964,  4.944268945672484
16.288374772972826,  2.324723144782619, 32.047440510742966,  5.146793249201065
17.014741152211418,  6.602854983219800,  8.173444740407978,  4.498651472972456
13.362968100745501,  2.462562246317026, 43.321065528100647,  4.977228399388300
 7.552112371307727,  6.607947586580973,  4.925055975990401,  5.202102741054306
15.231893018630002,  4.671402056078949, 77.790615678024139,  5.359894339540968
11.363880720898853, 18.150877715316920, 40.154529391690367,  4.680025183562167
 5.674160225942205,  9.822106706648210, 66.602586995371794,  4.908960451951716
 2.745193923829025,  9.266697692086439, 26.953988331103496,  5.159174384276124
 8.411354118904983, 10.347663407504415, 99.430372660101341,  5.090891190830280
12.469728439067365, 16.521987659421274, 103.188039100527590,  4.877548545700122
 6.277509717137363, 17.294420245800463, 107.380171355144824,  5.046483851936903
 7.151025314719988,  3.929365841989566, 92.878830203325805,  5.071670869342788
17.538442120952279, 15.896425838095199, 32.426683344048413,  5.444186880791069
 2.857088089596780,  8.444978452950581, 21.837592530650383,  5.182935417955807
12.357903217035128,  6.955420763761716,  6.677934706874533,  5.010671807568667
 4.408244949214294, 11.052789506472001, 62.116788104090652,  4.716766493494254
 1.806919878574763,  4.581495338007243, 39.606021498818450,  5.270791512261456
 5.014892530789798,  6.528861883229586, 11.437341909526129,  4.931741319428641
 8.858322630204530, 14.058036787863081, 49.295692260446899,  4.992793746462525
14.851992669094752, 11.624194387200287, 72.780790191434619,  4.975411486385240
12.984509046196507,  3.782182552614128, 95.388892737358859,  5.178529295008427
 2.114153325650843, 15.445414999582914, 114.037774848625929,  5.174633462950570
 1.252958987842309,  6.189493719359918,  4.342828605582985,  5.237693492266567
10.891806370926878,  0.513991896324214, 106.992576575459680,  5.004660025698723
11.309238258224092,  3.917906898239127, 69.315552916436360,  5.121238948293359
 0.680612298840489,  8.475938000734677, 55.883149619866451,  5.272777767967525
 8.402397371250034, 17.335308949654934, 14.199189217131297,  5.123356153993520
 2.932052114389782,  7.204216601539759, 75.604794623978790,  4.913792102264287
12.545955637160432,  8.694497680794017, 18.800738210481704,  4.483153939556729
 5.295270695092136,  0.682460503366279, 111.806514693328822,  4.918924345817558
11.203232019643169,  3.371615772197865, 60.154349393326598,  4.860555376567029
 3.831935885655618,  8.660254612953057, 31.994521938301787,  5.208242591781596
 4.706043257116943, 18.401614554734795, 33.608844521182171,  5.027381350317061
17.156840582510892,  0.518518865811324, 88.502318646375187,  4.960798906870868
14.675554463519040, 14.120981311861613,  2.499098995229111,  4.823822424319747
14.749164861154286,  7.307415783031356, 31.511562104004955,  5.329681415217536
12.002268254422223,  2.486485356385060, 14.910709050068068,  4.971032498930841
 5.063124085767185,  7.474486632169857, 42.826126853943748,  5.561865893256275
13.655159368400948,  5.058940375385254, 11.052598354658555,  4.862211645965870
 1.686574010318401,  9.844161284439153, 88.699009464821273,  4.845562718688622
 0.794995543736849,  0.147963151896666, 36.547561145350016,  4.799637670688692
11.895186178594740, 18.531747008431100, 10.637577681094497,  5.131360270964061
 8.707710501292963,  3.344188154329580, 41.502501344153195,  5.149790716639013
 1.240625836731442,  5.970070924350962, 17.056503688868379,  5.207301310588409
 7.304204805805435, 15.965879669346892, 41.397333191057797,  4.864283608832139
 6.890676924801229,  7.299789234710963, 24.756941270793064,  5.010166368256755
11.114354666699176,  8.600181382423859, 95.534194022483803,  4.697938983363080
 9.036784505056090, 11.814530798409310, 63.506202642736021,  5.059772070729919
 6.898367024396380,  3.564209483617550, 106.883070679160483,  5.047119570838690
 1.230127111817525,  0.767119447987692, 99.785650939724604,  4.635343399901219
 8.752176962756824, 17.631154715454539, 62.800789009300978,  4.935840991454867
14.466981207084173, 14.580218159554857,  9.429517113450206,  4.599853573268198
 6.589688546764697,  7.111713452964886, 47.721225989821811,  4.718845047825694
17.937626047227031,  0.075650487585215, 111.045968986905166,  5.258513661190277
 2.860362406636669, 17.470427267143695, 18.045878113730751,  4.625128162405734
10.885400575100858, 18.150870066341511, 116.191745812868987,  5.193434016586754
14.889180873042607,  0.945275103515009,  1.761866650854982,  4.915696550443944
17.326811837003579, 10.204807465721432, 19.091804977792698,  5.555434089729858
17.172207163664840,  1.451015722595322, 96.185654782748387,  4.534749456991875
11.068719853618628, 14.706712344027176, 98.681037743025001,  5.226846508676767
 1.121074172884473,  0.706140908022761, 49.243095779817473,  4.764917491534965
17.935668377520276, 16.035825663808314, 20.926056722486567,  5.098201574196195
 7.587880042850174, 10.998247955029635, 34.559282206128188,  5.016910492583206
 5.793073257760761, 17.953317739113103, 116.526579370041745,  5.010254100887198
17.242957698472846, 16.054602828715336,  6.008502272106351,  4.688865036264211
 0.429391001439480, 15.745771143417455,  1.645917159814093,  4.852963958614899
16.799895291143557, 11.207862893024847,  6.771921895305921,  5.125857031500026
 0.545635195521406,  1.400086119166948, 116.058246494790311,  5.444688240480034
 0.462653598788788, 14.656591086891183, 88.333403313839938,  5.101671618099773
 3.872815815478146, 11.494337283505509, 47.920779456294937,  5.589127899094381
12.492546237149140, 17.255290759166623,  5.693376104359262,  5.130147988462093
 3.355858837050381,  2.690224270469786, 85.522352291481255,  5.104370634005189
