BANDS
8 8
NANOPARTICLES
cell(1), 18.703
cell(2), 18.703
cell(3), 116.896
 1.070294593332624, 16.546399694385421, 33.179504001081888,  4.815921771939193
 1.692316604348771,  7.213203828384480, 10.462886822419199,  4.942364150345971
12.065285849097538,  5.628276879972084, 17.713716542921247,  5.034423077671394
12.851342334825967, 12.529761646349032,  9.882042877230022,  5.118196849392779
13.796662498500147,  2.626008924129423, 44.133242503824945,  4.874791083893444
 0.856083997149531,  3.468417477300511, 26.891257336260605,  5.078717575982119
 1.028798552962379, 11.855717152659414, 94.291892871335349,  5.078885687884895
 6.819402241248608,  3.778742151263149, 73.474685218701296,  5.034552691753293
 9.497413832694647, 13.191259957935857, 89.649384164537565,  5.272760306980119
 2.109025550590272,  0.812370263342948, 18.514793077010598,  4.962118239363210
 7.507202690496428, 18.635835123740069, 90.116218997266770,  4.829511300128056
14.430543203729734, 14.999561794017161, 58.075757635055609,  4.626076826140637
11.440394813376164, 15.126593927643809, 54.046330576248039,  5.411671871054444
 9.580898624466759,  1.696706788051741, 29.403824736169017,  4.817171678672824
16.683949304940384, 17.317525589464395,  1.956515427972015,  4.972557563512761
 4.896280381157890, 14.755643132205734, 59.655662130249404,  5.147550593028079
 6.516215266067525,  2.951556797552574, 15.436065676159947,  4.861306793460302
 3.545347786440859, 17.981511461958057, 73.023061652494420,  4.751787863416348
 4.995150482173638,  5.174710866101154, 60.726065874122952,  5.256182213294835
 2.307248562989771, 12.033254124245053, 11.957682501625687,  5.200380729707421
18.484489473426649, 15.940195423310874, 47.509064807775253,  4.608935353806967
 5.497592453063525,  5.696454976340354, 68.971527998033025,  5.083216854753330
 8.612848377313236, 15.999750088280392, 64.367286841862594,  5.157710140217303
14.670096837250419, 14.547993541411916, 70.644121314124234,  4.793137534389999
 0.024390134446551, 14.417714091315771, 88.937453120928637,  5.123096544055286
16.521974434673400, 13.402448988288532, 30.809104690840744,  5.393353867298368
 8.045248800416854,  2.966652556169457,  6.165016752184402,  4.764480619139356
 9.982953376021497,  4.202169224725450, 102.588347925418503,  5.077438425140524
15.138795314836628, 16.780238281463294, 100.335632797261894,  5.205160735780090
 8.133435522834935, 10.592928094182344, 106.264218303848338,  5.342134542263437
 4.766337202465432, 16.628397680906115, 54.733340041093413,  5.385109727486549
 3.420009126533438, 10.971327954672594, 104.056721523827065,  5.093854549020295
 1.249201031488492, 10.108638476904712, 43.533030203340573,  5.181221607200898
 6.825778348948672, 11.069245547786881, 93.528058619065192,  4.445628593520260
16.643113818129319,  8.340818919872129, 32.002081250005745,  4.985886247835439
 9.046835140843255, 12.765473783194254,  6.146441302798775,  5.487958324261408
16.202026940114767,  2.019994800524036, 67.276214181300844,  5.136571598309299
 8.297421706640760,  8.986701842317039, 111.396553492677782,  5.412057516461140
 6.307899765452390,  2.801089754129764, 64.986963591048649,  4.725673897356081
11.896424501428086,  2.615839408941399, 74.589965901409059,  5.356924180666083
 7.152469103242591,  8.466476918943249, 89.219480518337519,  5.307925924659551
15.279598003440919,  5.838150908992310, 109.103923995992162,  4.938344417660027
 8.637905666658817, 16.089412732785707, 27.030267766932237,  5.191527698461235
 5.419445468410535,  4.011511517232239, 91.604992213882767,  4.801593059886677
 1.594070110754390,  2.706074982285862, 115.911924420831582,  5.071074002868557
 2.612498132519663,  7.194754753422525, 30.085429487664495,  5.332707936452650
 1.421964575621394, 13.958828949820498, 51.444981038017410,  4.778313157310211
15.263717305541443, 12.084962362285731, 83.519133042563141,  4.708762235129479
 4.025051996630448, 15.529020453157939, 21.254478965740780,  5.334251601738501
 4.577725415707786, 12.903034010213739, 26.004156905205370,  5.332782771809072
10.750627599501680,  0.793573938846234, 56.510379255069267,  4.716284961094206
 2.894626485525978, 16.722381965375121, 100.862720741134510,  5.093498854396096
 5.492266318266067,  6.632379710617196, 102.292095307301310,  5.146665716771722
 1.088755477556249, 10.481072049264210, 115.821878841985964,  5.023535978103236
 4.449706142436716,  0.365775028635191, 94.911410485439163,  5.213070572234863
 0.359027258621343, 14.175348683038349, 80.612349902417719,  5.084529953689214
 1.909052172441564, 15.178827892669252, 43.228230249100420,  5.061027407914484
11.308591603430246,  9.903191395576824, 52.534858124317807,  5.049309889811981
16.759014973574779, 18.508171508723315, 114.140296930493903,  4.739082941569328
11.430444971589312, 17.540687127018892,  6.516635617629571,  4.986305129170512
17.560601075156804, 17.747845550456905, 92.377338680559632,  4.732726443988553
15.899837924142554, 12.920196911445567, 43.995292369463428,  4.559885102586602
18.192621005868595,  2.590129040409769, 10.487028896459028,  5.286155162948670
 3.340859899059789,  5.577073805402245, 19.878524402318973,  5.219980236502189
17.331163651340848, 18.436672575891393, 14.876760115622895,  5.292726830567647
17.627533675695275,  1.249525269420767, 35.793267824483053,  4.784277870823808
 4.809905427176196, 11.741498953734830,  2.554753200852544,  5.609741823591693
17.831082977905854, 11.224528084571322, 47.996242100016723,  4.945351659739184
11.493236507065484, 10.547809685085555, 78.310367980694849,  5.112961981076569
16.415800379594874,  1.361596053656212, 48.637809447642134,  4.876284457051949
10.518434276991320,  6.339908683356492, 44.485576103149214,  5.047890505822162
11.084506266007971,  1.236387319338542, 14.784641848280305,  4.961497129740565
 1.985733676514023, 15.824618059650096,  4.778019222336733,  5.268257989916419
 7.257620035172688, 11.976305391513851, 16.086858376934188,  4.771869321389477
11.248326156785661,  2.270798915155467, 66.033561926034537,  5.084657752123155
 5.946627847281427, 10.677706371248426, 20.800830469214354,  5.127026797172451
17.033013773383104,  1.191791696429509, 22.877554482741797,  5.441812955290511
15.500335494107921,  6.302054144310376, 27.643254594921984,  4.901014494996291
11.301181889270515, 10.842147621499077, 95.508857052830209,  5.226311093145306
16.885234863910156,  2.406526654800109, 75.982079763611310,  4.910545308684737
 4.686569145809766, 14.819486156895083,  8.734962592410501,  4.520696997323181
16.191241547024362,  9.772790342487774, 70.764490732898182,  5.232273519351794
 2.533685954927055,  0.378867165088956, 89.423135075867194,  4.733647602885934
 6.238434976551757,  4.249932764207664, 10.481549602660856,  4.905838443488214
 1.260152459142686,  3.092008520456740, 106.496306760316457,  4.929989510293491
12.880015812045650, 14.129333357550218, 62.475587602232949,  4.862942911836273
 3.082492195462689,  8.592202878509200, 111.610278900609771,  5.030180436832977
17.334179331293637,  6.199299317375694,  6.505611856448045,  4.938476667107735
 8.666908534691309,  6.772313997674203, 93.968298659471188,  4.940435515259678
11.273893588603251, 10.029508617221202, 69.927983176717049,  4.636283877609411
10.056514727893768,  4.484988119534406, 61.211316253800156,  4.999359263369138
 5.801724376088215,  5.443474603737884, 81.697755287441396,  5.474619354722126
 5.352492085623574,  4.177169200068814, 112.780371961016328,  5.137892506634425
 8.508912494838496,  6.175043566519013, 22.233627837214964,  5.232888562396516
 9.862461343865769,  5.702997207405448, 13.319946938271027,  4.747095374468275
13.379600300427590, 16.612823079717320, 66.484077917138549,  4.539461204048593
11.693041059131755, 10.404002785962934, 86.123088057289081,  4.724788354475640
 6.890488437664092,  9.842201365877372, 98.323532935859816,  5.427410687857099
 8.160757154155110, 17.999949938405535, 10.711250523002686,  5.690063095290655
15.336194150163347,  7.944964637105413, 50.575081241286064,  4.713957545662212
 3.890517589019335,  4.584407865615749, 52.182365190946079,  4.980452985146732
 9.244003710653907,  1.607233796641534, 34.328247854386653,  4.472663413786257
 3.849946731530240,  5.499893578502741,  6.317288158168197,  5.011740031655901
 7.414723482127183,  7.294016401760311, 17.434284412928545,  4.860009082097064
17.388058206406392, 12.763779941945764, 102.906562578869995,  5.289107728091508
 7.171680194095899, 16.843191886235239, 15.770890865259062,  4.857902344506334
 2.168648322426335,  5.300140200996637, 43.630334276465227,  4.587529582382839
16.287818778302750,  3.259004861809070, 39.990243963280804,  4.870422934822751
 7.076240792038941,  0.495445791663883, 60.749698669660802,  4.967854661565311
18.545036160979834, 10.410062142860573, 26.741808119599281,  5.467062078760967
 5.735962060888346,  3.776826051657967, 27.427569529989075,  4.751615649460357
18.314945481285580, 17.874270316031652, 28.861785453802508,  4.666840240675277
13.123366664826266, 11.219123879849242, 34.122122542039499,  5.031461814754596
 2.494711630218707,  1.408545079435595, 68.522651136089294,  5.214969844058107
 4.121629327584995,  6.891502036151308, 76.716800081943518,  5.427259937624981
16.345598617792593, 13.484872782602704, 13.635093624468883,  5.100546014776411
15.531932061752114, 15.345358805422586, 35.523088263436641,  4.903047224858892
18.181578303135286, 16.340779951627553, 76.161878105107064,  4.949706643198454
 9.139791534169673, 10.441777319519543, 47.886424157628774,  5.156423594137688
10.438733975238328, 15.650668453721087, 34.760965744849969,  4.887542713880100
17.709658893809422,  7.720829480244787, 83.650847611566476,  5.085133232899491
17.940279313031656,  6.451776552070069, 22.996883373035637,  5.234588229266964
 6.054997998250933, 17.804225576087632, 43.043611784037196,  4.718556747931485
16.120986717694564, 13.773227988202256, 115.477999305497676,  4.829346350472573
 4.837589240682847, 10.128766410341008,  7.936165440244308,  4.988131946592790
 4.228366015811582, 16.119539598128721, 77.518205956095727,  4.928884965826065
18.136026047969768,  8.379462915868588, 63.767382945852226,  5.098673764504666
 3.237887646585420, 10.034482403360533, 60.686190059472480,  5.066758673380031
 2.808053065804776,  9.731125349690862, 80.937194354497876,  5.075138642803067
 2.755918685750173,  6.598758395986271, 47.996346184229580,  4.577646821102041
 9.800067298568452, 14.788248108477489, 69.328573116738340,  5.303503032271048
 3.291095054679757, 11.880139958599095, 39.463551272627576,  4.584486587759670
11.648591720064013,  8.840888190247325, 100.271341157252451,  5.040025642157525
 7.587093810739732, 14.254465504305772, 39.779623217697385,  5.251285325639026
15.621624869128295,  4.532442023872737, 71.600903754797073,  4.898798799892660
12.031764339305875, 16.690025916951008, 114.507250601246724,  5.401674186046710
12.031961143268752, 18.242359425635613, 49.928754386310423,  4.910614432622427
11.698822959453775,  1.519306212992539, 98.600852487276981,  5.094476772475926
 0.747938561621848,  3.554731720400742, 93.229335967571984,  5.121583216354281
14.829258590129637,  3.869114761662023, 62.731456343815189,  5.049633255836416
14.390338275417900,  2.753473378454316, 53.086171385029779,  4.940064164017008
 7.599076748810776,  1.112912672098611, 77.679857023550525,  5.040850488266817
17.233594356717614,  6.413108095361537, 114.886190300993249,  4.750586496930901
10.741951151249701,  0.530938497022298, 86.348721050176067,  5.166273391634451
13.690025435205074,  9.409418278865267, 46.458918620199789,  4.599169209711082
18.307246369208446,  5.645131182412111, 59.427120964105249,  5.143870810997378
16.452328873584680,  7.256361240307283, 36.982682376110581,  5.139733941838857
 4.902162421774558, 14.083831599430425, 35.284698017025626,  5.213939654192706
 7.171303242882440,  5.252613606632991, 31.938817185983989,  5.150257208975452
18.263070582099935,  0.429058549535735, 80.306660896637368,  4.974959224534610
 2.191564740496518,  1.022699882654482, 59.536545482721159,  5.015841042631064
 2.319957782128895, 10.047036188976575, 89.819789246898495,  4.905499745580457
14.150168340556217,  5.627165310890247, 78.294004677891166,  4.710959267270064
 0.670329195292591,  8.031330239189700, 107.186334321127120,  5.098946232165688
 5.324099944788392, 14.089219623371136, 82.040297888127611,  5.220451555736090
15.374091794785976,  1.109220351273058, 58.387783314592859,  5.103741129663239
 9.963363302079140,  4.788611488735242, 53.038359246083822,  4.703165872661949
 8.314259198204239, 11.025327078399567, 61.024261480268329,  5.298802875571607
 8.982862947999511,  1.737105443719377, 24.557276488114478,  4.824997036059911
16.589460337464537,  7.348240488176092, 55.157440321391668,  4.661472945977783
14.235324041289941, 16.031528646430409, 26.864597913576418,  5.128985307560255
 4.651835464733148, 14.291267686704492, 96.801480808946209,  4.987346359460656
14.675492043140604,  4.879254255218345, 100.901319233389046,  4.952347889208165
15.293274745531924, 11.838041395881618, 66.146152185450902,  5.035561730411790
15.708464233427193, 12.318045310842400, 75.033664428163746,  4.751125196573906
 5.606924117592228,  5.901591803392853, 107.656089906848123,  5.671612120545285
 3.397268931513052,  0.038315041260640, 13.010306928364033,  4.955785599076910
13.214439936632164,  4.554033493336098, 33.974647725115254,  5.218897919676659
 1.143971065683568,  6.676032027897961,  2.225996443320074,  5.024685685230233
 7.989874944840864, 12.540732940730926, 11.280298568097541,  4.981562710706148
10.805293156020598, 17.176741123452093, 42.439746374161501,  4.935376617638541
 1.405579713653938,  2.027000720539683,  3.885552946484411,  4.768506165336922
 0.341155555542071,  2.591508624324693, 55.118502201582238,  5.056309047270548
13.934516902748417,  2.936788445150567, 105.365443907531073,  4.894235107296987
12.439847099392560,  4.996874277889114,  4.730663186525012,  5.303155348936949
 5.749663922506806,  8.460817195266328, 12.980539378984160,  4.926282802576844
17.744982194467543, 15.708201019230350, 19.806023155285157,  5.031296927214292
12.473337405441514,  4.412434086147478, 48.745327113797700,  5.085999391080754
 1.170099938826033,  3.502628157140617, 63.910792249268056,  5.234405474391444
 3.939491553455038, 17.636382493892445, 27.282249927535236,  4.546097925040614
 9.612527100649070,  1.586592217886490, 107.271106904360664,  4.910643510578506
 2.875368345916028,  8.988984312017404, 71.878868009453299,  5.018172725060229
 6.187580926861953, 13.084751944591265, 44.414834556569666,  4.709912604361007
18.209957356993552, 15.930615348108338, 67.357867391090380,  5.253389517801926
 2.927462044897737, 12.325351110082584, 30.892018582627522,  5.039033061814963
 0.412406478319301,  6.190302409383266, 68.335218136608503,  5.212606124040855
 2.230149265639811, 15.850740421202396, 105.722302651766071,  4.864276178532187
11.817183881622626, 16.001401585224322, 107.421941288060907,  4.721914999010346
 0.967451822755431, 17.572327865772753, 84.949400207220918,  5.204483406369583
12.987380273167616,  7.973096795839047, 82.250972685227680,  4.761149200900417
16.626110535924820,  1.978767928381663, 97.237461078746477,  5.169416623304468
 0.116341138089429,  1.004813088423051, 44.359624543517590,  4.907655350964194
11.790429641754853,  3.143675374139037,  9.562974691179113,  5.123061858943026
 4.576514729440045, 15.344127551305741, 68.845645755546343,  5.203137267909493
13.629185768214136, 10.029353376870310,  5.464581680782952,  5.110428622136561
 4.693926849878368, 17.684343742333152, 113.632072323157118,  4.689948937877652
 8.907998507102294, 14.663440703094903, 19.833237877341087,  4.981849482861098
13.336898767921108,  2.162969550172994, 26.477826328654594,  4.719380038024719
10.256683300829238, 17.753674214662482, 102.911043794807952,  5.249800689576126
 8.445656265588914, 11.627564776058927, 32.826824979426696,  4.710225688733131
10.004692963620510, 14.619624390061508, 84.212917045223250,  5.109804001722248
 5.561677062851866,  1.532912503534410, 103.798055491896477,  5.463766413659894
 5.278427787413888, 12.629872294702821, 86.882500765324011,  4.879568344309707
 6.088039553248448, 17.331483894191230, 85.738135345554738,  4.724381579204049
 2.855609016753847,  2.021943221467766, 77.182310329711754,  4.648485255204885
18.321863105089587,  1.683949939056343, 102.027600047409521,  4.988166716730946
13.487109947411595, 10.737321370182991, 27.677092775380981,  4.826304893241305
16.163398433253896,  9.979759044556008, 79.476789183108096,  4.561211929756361
 4.418443217288972,  0.390289764349714, 81.504186795883385,  5.006364108738362
 9.159324255543289,  8.208401631856802,  9.315298995311544,  4.783134389187734
 1.931596558676934, 11.824310716978164, 76.477633032500648,  4.929929618742217
 5.839482073497215,  8.246850004747735, 44.713799033873528,  4.994895616546346
 1.537176837285955,  3.580978224496469, 83.679284688083115,  4.611272407703409
17.133335292354413, 17.704439784653289, 62.653935870568723,  4.949907294451149
10.068478821458088,  4.189575463358278, 89.893345551594450,  5.103373022283503
14.686686746196415, 12.721288905505004, 22.837811154535398,  5.329228784625761
 9.367710476869330, 10.795651224560112,  0.343442154504565,  4.597341118599880
14.381239945788979, 14.488379255242704, 79.076234242392971,  4.775347466799889
12.728901755140233,  5.194053005746721, 57.065539933509925,  4.956305348161036
 6.574365713956892, 10.653933892910539, 69.011029776810759,  4.895117461593852
 6.333798246428534,  8.972094798837400, 52.432477543082555,  5.072883224000436
 7.340559990378533, 14.070578712993878, 50.981143106033194,  5.032698433427134
11.275455686689172, 15.138924491723429, 13.838623630894686,  4.828974197539643
12.144212135630443, 17.374020761122544, 90.790721664155654,  4.860828701269077
 1.038752147120685, 11.956955269044517, 84.869185893021537,  4.599268342331291
15.003153290580183, 12.896578649167015, 92.314924721821683,  5.378747967308784
10.833040715340903,  6.324205995446613, 107.031925001536408,  4.873678638842885
 8.906508820764715, 17.309991042912618, 73.632978506874352,  4.820040996499756
16.252371038667324,  9.927430572912083, 88.086864523939511,  5.240185762885917
12.024189443012377, 10.830318568437461, 57.436108180599931,  5.023249256649228
 3.234881903428621,  7.101978737652083, 56.344640814537499,  4.806536948856053
16.133602095474480, 17.156202011908544, 105.382324214054805,  5.093625579697416
 8.931377872457015,  1.103960140846945, 19.517860750420606,  5.312878308912525
10.106037301807644,  4.212570615004466, 111.323347885337938,  4.796782478834879
14.141008313076458,  5.365245391867919, 87.172199406135675,  4.964141545119213
 7.282085270833266, 17.866840680370807, 98.863552586392700,  4.771041807628351
12.322617858795715, 10.076129641698392, 14.631993436317840,  5.625418023649989
17.456816242031927, 10.707605229489506,  8.620517570380619,  4.897675551700937
 0.351172655745608, 16.266871435084127,  9.996521232972748,  4.913146529942558
17.748508045872867,  7.776669267302849, 75.358870812929112,  5.223249004386956
12.217985612301916,  0.665569259126779,  2.016239186820843,  4.851513326935312
15.706042673056629, 12.193270692143233, 97.900311564510332,  5.130699223353992
15.775106168608765,  0.721044280004810, 87.918289363311885,  4.947037578692133
 1.801785177958967, 15.221367584250812, 116.716058888721349,  4.725629498405879
 5.449620876810934,  3.491707050027505, 86.637624475740481,  5.170891847642311
 9.805370931735512, 15.500510359730212, 58.977032380252382,  4.844904646297054
16.946923849630753, 10.790891329046746, 59.222742812885947,  5.445527542759399
12.248692204026657, 11.654305298367978, 113.395895509605296,  4.918704986801716
 6.620456371112025,  3.908166899347393, 42.290646019048935,  5.062299628670464
 4.323893250572791,  2.446245186936510, 46.612068259850076,  4.708112944218189
 0.133527530304567,  5.202606528883603, 79.498169794925388,  4.759007715392922
 9.050663061011459,  6.799207367546463, 65.547145534466509,  5.028190333215541
15.790811991504675, 14.914612441140028,  6.379300421648908,  5.194131973063853
 7.481518288220242,  4.369903878322047, 98.184068586413545,  5.039059979110041
 6.809113250325605, 17.224336628800568,  5.031900585160257,  4.734356033798044
 1.841457948152818,  4.569474074933884, 14.743858273779338,  5.120296723162481
 2.339349102828566, 12.055216744474670, 56.011664369481487,  5.263263922581356
 7.107590010055291,  0.763302739542837, 50.797996279070141,  5.385755544812676
 8.879698548734154, 14.077920807157932, 110.715942143495624,  4.900286289806276
 9.451392706030100, 15.246490116617748, 79.061431475949021,  5.198293104471118
18.011857052917929,  6.901022592349679, 97.387917159308685,  5.060173937363424
 7.206439551244209,  9.281009852077441, 28.688855115223276,  5.104048417182349
16.140235745478527, 16.695646606541736, 52.255630525158047,  5.023004386748843
13.097596131773473,  7.892410747151516, 23.617783644001229,  4.944542843468687
12.382831771277012, 14.480349631647407, 38.905759889061912,  4.497884317001389
 0.083815495763604, 18.052538489280742, 109.663293806459222,  5.131176766608016
13.774217176064523, 16.855884163231675, 95.425325740983197,  4.986480846398305
12.716532240499969, 10.990613307631348, 108.539721323912076,  4.918815085727148
 6.291034294997503,  4.712739399143125, 36.885773906899750,  4.946905971923536
16.622196107882793, 10.013001342379621, 111.563039818205652,  5.106302718764027
 1.296073948227017, 11.150514034071861, 67.674839197190423,  4.943628681112568
14.205688254724210, 16.825215613532219, 45.863678884869820,  4.722003924327248
 7.484894172716574,  5.612090113107373, 48.742059694561817,  5.170713381616219
 2.439678555792406,  2.040697353723370, 40.040349440155474,  5.114350511632859
 1.538738771643415,  5.082999541406913, 34.631488857870707,  4.781947559705047
 4.484623191801122, 18.534104643052451,  1.360861581593776,  4.325753563426415
13.852073591322499,  1.007096051535071, 110.131259881552225,  5.317358889057587
 5.761859958324625, 13.406998790433651, 73.523005824320805,  5.193095054071820
 0.599575542503299,  4.058348087211660, 111.240951878218326,  4.842606806723341
14.608149217023508, 17.103042756600644, 83.438193306541777,  5.403365011824950
 4.542117026504108, 16.399009535693263, 47.521832111645857,  4.951443744927906
10.953380098119641,  4.908704087254711, 39.543361120804853,  5.238805272608841
10.462751795254917,  5.190170964947955, 70.203929357062179,  5.154232783417675
10.339774502511995, 11.500414462885841, 65.581725563341195,  4.718185534944163
 0.888525827769631, 11.303445191726448, 21.606811758392865,  5.155835204684321
 3.467222692823357, 17.376542800477250, 64.041543638060489,  5.459000544519017
 8.182092184168534,  7.454809984045320, 57.173330676080411,  5.200176338879777
 1.067969668567489, 16.091415596632960, 38.221687316465925,  5.245332672188267
10.223297056454024,  5.773602350544937, 26.928334200892468,  4.789008852732312
12.677625412693247,  7.814397715134437, 74.093928848185371,  5.202956255612689
 9.536380138989658, 11.504742916751102, 24.548010072559094,  5.366776888467022
 7.710124273593276,  8.707380802682856, 73.409024636107731,  4.982737227537579
11.584031282532967, 14.055774694809367, 30.414656856593847,  4.570317695209775
13.928700307654083, 14.301558014872182, 87.587919087907750,  4.700440135693572
17.391600447645622, 18.545157942520465, 71.729354522298479,  5.052769134450016
14.835134093414357,  8.408408487536537, 104.664103791360233,  5.309890471324696
15.781149079420947,  9.186421154320259, 18.865547223971639,  5.140272042323205
 7.950193699447123, 15.529131920396502,  0.603428755409741,  4.970941035419879
 3.780473132992553,  8.219291109202860, 85.498844889875684,  4.728611179275866
 4.115464900715030, 11.194798059925867, 48.397774519052881,  5.032418055565135
11.367592252965606,  7.997336211427230, 30.946202637964927,  4.666788005300452
10.984805957795901, 12.084187412454002, 43.237497473422174,  5.367411701140623
 2.725387553488713,  9.785624465418168, 16.853660054141290,  5.216974654328291
15.709852485726717, 11.984437705096447, 53.997842496962541,  5.051335612752775
13.484950987159104, 16.520650945623345, 74.846362674823510,  4.765097609474293
18.152791864650297,  4.634812517882064, 51.143426275493596,  4.048388433022422
 5.028365728348160, 12.450505659282841, 64.694865738051234,  4.950560251537592
12.650698654113679,  0.296176388634166, 70.252117356190851,  4.264874735295042
13.190054764999427,  2.942177938865094, 114.757136727405936,  4.776689316665035
16.943559299912142,  5.811483085034516, 46.449860344766549,  5.093142687412083
 8.958682035029202, 15.508282955597229, 94.333125828661778,  5.231278066710529
 6.898907756666966, 13.790853956368144, 101.744332438265289,  4.983169902296902
 9.179835768251461,  1.584833422158543, 46.036496981798052,  5.105825734659849
12.120193195589279, 12.841527808690739, 103.532362859272197,  5.316973171800681
15.064255131353196,  3.533412523769113, 82.611753280163043,  5.035633933179880
13.928103869976374,  7.651704139970486, 10.032870648659657,  4.854626143112036
15.761514580820261,  7.734624022025752, 41.964504965031672,  4.946980980522738
13.429686264482434, 13.382666491178433, 49.382357858511611,  5.242532428780289
 7.595773063338900,  0.846879418928057, 69.354834962418778,  5.182571893660759
 4.090588291725648,  7.720185607071116, 24.719936319961814,  5.365393074143538
 3.662189056451125,  0.744757455168989,  8.056742317402495,  5.051706778811522
12.931349620992901,  0.569878059273967, 37.356079747643541,  5.204951942364439
 4.692123451247818,  8.937321909253722, 34.591323683827795,  5.175400651210381
12.972558762571571,  8.721800677674826, 62.259452163599711,  5.373809388937520
16.923793828700759,  4.127664024702172, 18.416461674430280,  5.229830470431350
13.844001733218615, 18.431513630003248, 31.636783435205949,  5.575938588608540
 0.976068257057229, 13.873668519755025, 112.212314899133759,  4.815866762873767
 2.568448998628493, 14.931141098155972, 16.228076013318422,  5.133400142470067
 0.125453468626330, 15.300547579723256, 24.737725907118055,  5.092727503961870
11.985004646782347,  8.856666116178801, 90.815377794377994,  4.871148170476291
12.606361605609941, 14.046525202224057,  2.265077912418013,  5.350437595245874
17.339139177189988,  8.518252661857618, 14.122001308577616,  4.929668141890875
 0.405128420390834,  6.687158290149330, 102.309730719846243,  5.028211548498418
 5.477791526526427,  4.306828352815379,  1.798397106877748,  4.882746953202723
13.569807141442427,  0.474311954697459, 78.897689259551498,  4.724645277025402
15.084325804274409, 14.756906489495766, 110.779156435325234,  4.968749644397399
 9.257819826121121,  5.958071889824318, 77.682676827101162,  5.164101928236712
12.453952656263901,  9.748174076491170, 38.863830001372300,  4.967546573252936
 3.145002048186632,  1.853357770030152, 31.142641336293561,  5.088829667651958
 8.532823352597404, 10.096012202856457, 82.402686477735045,  5.023894611968599
 1.762477171104719,  4.105598240537724, 72.886107805464079,  5.143922150715141
 0.722273988799131, 13.791982181014031, 71.971905285879060,  5.144250646419142
 9.240300460819547,  1.871573502513720, 94.255615349445378,  4.913171483725569
14.266539867004093, 17.528532013453315, 10.696321255131878,  5.075845567429365
13.456886925271995, 13.945674602579311, 18.023878993946500,  4.900758840055683
 8.879568148446650, 18.590938143486593, 111.435420781181691,  4.185697350438163
10.860313946139298, 10.065394791552196, 19.741022051010830,  5.000320313603525
10.207200038873964,  2.593723577465431, 81.716072769402217,  5.015338181082408
16.408072288785291, 12.422436208085619, 39.461466115284296,  4.610092489575975
 4.437285949070899, 14.902188580048813, 91.683480880687284,  5.310929331610860
 4.020275144972942,  1.685816260127785, 23.254270932001770,  5.167794346538241
 8.005749281817190,  7.806228350149638,  4.435041382624244,  5.202222088290688
17.246317713975845,  3.573092639752813, 31.213035946099819,  4.726848499398714
 7.466303885918935, 12.366092085887994, 55.982274459372576,  5.003313346276157
11.940261486564850,  0.050902722768460, 61.734343478726359,  4.685276689055998
 5.739573238756924,  8.176056632999666, 115.758279947224153,  4.820300056292372
14.164548051567152,  6.858158560822308, 67.027258157787358,  5.058665950430886
15.667309086370981, 17.161939552799147, 41.186458130099687,  5.099498601960702
 4.990078597434080,  0.689639446884420, 109.004847103886689,  5.124439480718390
16.408932720382776,  7.599782641567786, 92.657348778790904,  5.022702953722596
 2.432638293254719,  7.105692901714471, 39.100239883105850,  5.141955544758518
 0.012659647059347, 16.088688330435371, 96.794361550100007,  4.952924967869377
14.407132491489723,  2.884102378490135, 92.352235479124644,  5.200012566866497
15.793554095902850,  1.314955281460016,  6.103359716627076,  5.027842100476712
 9.699848427410304,  7.822225757215770, 35.345863682952626,  4.745822277673986
14.104134716541264,  9.253889980356261,  0.456893469232703,  5.021720208379783
11.924088026967738, 17.188546986899915, 22.672706959616793,  4.713175962598312
14.643077952928721,  4.442173325275073, 13.636983254225672,  4.866213878109694
13.113432308467845,  6.035208689193253, 96.238534913769399,  5.134628646220195
 4.312560448844848,  0.357749434328657, 35.739967368320919,  4.851203309458580
18.659226960808756, 16.503408009956839, 56.515360425703861,  4.876742396020304
 9.605932759100194, 15.408408371146175, 46.821265420510976,  4.780270786750819
 4.151817646379852,  7.769053186505084, 64.841951405154646,  4.541160526471434
10.732282659833857, 12.696225072986378, 73.876709733895666,  4.855199499648518
 0.540289746218059,  5.427998127904281, 88.282998400422571,  5.458099782299425
 8.081129590806619,  0.549329207061778, 38.875311126604238,  4.951074917664773
 1.901444177312970,  0.137706651741809, 50.985733061133679,  5.034000608439499
 4.120761345063834, 12.535855249372998, 108.768768935729042,  4.884437273186767
13.158793340382607,  7.144555710446810, 113.017565786235977,  4.312850435368575
 0.434347744474372, 13.217073023781969, 63.200426638380151,  4.788403055954786
 8.434831095961409,  1.523597174620361, 115.841804258990308,  5.032741881245342
10.867883220691622, 14.541066204044835, 98.904781745215246,  4.852511268358247
18.252775862691507, 11.317624599785622,  3.646639695796681,  5.042892509696477
 6.224599430021773,  2.745346607448377, 56.284474524005525,  5.147536595656858
 6.767033209467074, 17.090420931506856, 31.641497501052072,  4.928585652680110
18.128318184474896, 12.685856100921315, 107.758241068356142,  4.513947856831724
10.266805308015291,  6.078333575968562,  0.187370780590894,  4.941482362882282
12.593374801534015,  3.414613307972145, 21.985611653987391,  4.637930784093554
16.141516898335688,  3.483477422890271,  1.615419924521187,  4.822495829587401
 2.670697714059800,  3.359802501631616, 98.599968811636458,  4.766484717225353
 5.427653015863849, 12.832011535660156, 114.095041835277399,  5.067585061237152
13.918273979934934,  0.070241756424339, 18.620908080274923,  4.856549748872886
 3.696445422475505,  7.491567916476869, 94.785472184849567,  5.194963381851980
 7.387093394777751,  8.904058362636492, 39.763735789701897,  5.450965715392399
 9.601060063896593,  6.105632548638683, 85.240781936257221,  4.995288412869866
 7.104496308373567, 15.651806058476730, 106.352599354197380,  4.962194472971807
 0.220192996237135, 11.557064645151522, 35.289601180832229,  5.276777608940082
 1.248243295796625,  8.954474964202593, 51.972805937142041,  5.138437683910987
 6.542520154279582, 11.272622074753979, 78.026626572985322,  4.859400872904104
 1.822300475348911, 10.903293210786231, 99.222617411619808,  5.077917195606682
