BANDS
8 8
NANOPARTICLES
cell(1), 18.762
cell(2), 18.762
cell(3), 117.264
 9.262198755422663,  2.606791309456600, 69.363866009685125,  4.914018729034387
14.455104527596257,  1.705127468050286,  9.390492978927140,  4.716734766183453
11.229297029156916, 12.242558667317180, 24.353566908057413,  5.335596526027267
 8.274641182231370, 15.371070374299043, 86.857118520871538,  4.766813190425835
12.718219185018205, 10.924069700773066,  3.116535508234160,  5.215786008976112
 8.846310376829853, 11.051602518628489, 103.288846058187843,  5.279701991621186
 8.530373048267482, 18.359111324683226, 107.957323125358457,  4.911970698667561
 7.140891645737679, 15.783280846445397, 69.898653785879930,  4.386048724940427
10.595778480740767, 12.827429970665085, 38.990728543615866,  5.072484223434446
16.121487354029398, 12.801754731654309, 17.582655674412390,  4.903141070858626
 2.557496999029253,  5.493765860607023,  4.650903066435780,  5.422056403455263
15.236338487138459,  8.335133187862024, 116.783293772257892,  4.978391981633137
18.640748629833503, 10.936101768040018, 80.151207476516959,  5.446961211795342
 4.139412659497181,  8.642370609409177, 99.488776461048303,  5.169252403555411
17.740966018738856, 13.050870294111231, 89.399244972930688,  5.252860224003171
14.314743653699512,  7.089129303283483, 57.086587008684774,  4.694366090492429
 5.198930935613922,  9.411408914811247, 26.861967554083748,  4.500058922128578
 6.395582313159807,  1.395380437207896, 31.989814072496657,  5.352427096142015
15.020632894497568, 11.801361241745290,  7.521198166224380,  4.870696553461050
 2.750257292843877,  9.107139155796222, 84.230191515596587,  5.110843466667536
 3.734711401770343, 13.276986755582657, 87.252152618263779,  5.172181085742337
10.145116432167210, 13.213807041309247, 107.678394364889030,  4.834313022935405
18.344848835821260,  2.432275924694668, 38.294149895413959,  4.758994340341843
 5.383099995105942,  8.914874218562192,  1.816612538329498,  5.090750833773662
15.207831654722424, 10.283978364649789, 76.024326127468655,  5.304448065550508
17.348620404093396,  9.974626166529326, 12.656539279557595,  4.995571736426903
16.607944960151634, 16.325267752668690, 97.886794421177171,  4.897078078029634
16.320836294679928,  3.493366570970867,  0.810193262533279,  4.984129889029777
11.122917586669345,  9.237585351532552, 94.733131231086375,  4.849863237841025
 3.638049311565038, 18.116160685314494, 82.559708708379134,  4.704601599820902
 6.176331811547342, 17.136004644312361, 11.943491109286438,  5.464785701216130
13.010812909330877,  3.547215417764410, 82.916466875600506,  5.328266812311007
 5.491063098452262, 11.828511168361640, 77.778476817073752,  4.586804371018329
11.759659167368763,  2.090918700979062, 99.648593708478856,  5.281409577593652
13.929632484310808,  9.108757191958329, 30.360582062485321,  4.698611001005071
 8.765453073767612, 15.677336256550886, 79.459773316211084,  4.787560324222768
14.362600595331468, 13.291278972640601, 51.175247629632935,  5.199904361571733
17.081054898351908, 10.299111829878752, 54.480697187358473,  5.238449651231385
 1.700466100807596, 17.936400832618197,  4.903714406690426,  5.100838832537137
16.155934939649043,  8.870030053661083, 44.924615586947375,  5.077188735622958
 3.791828794678981, 17.312483621688809, 51.409781183075502,  5.006194831276638
14.222478198791501, 15.751068566753007, 11.511696185254410,  5.487033913118492
 0.050853384652421,  7.809867213675112, 88.593456956069033,  5.371253488565826
 0.990577390207264,  4.697685012509063, 109.762377981830241,  4.751749416745366
15.604430014947116,  5.508139289016473, 27.588669198354665,  4.942899795257611
 8.303304664148701,  0.235659700085878, 113.673328090869305,  5.496547736294445
 1.480559250045345, 16.717441469451934, 38.174643482980173,  4.966766474357789
 4.932421329432724,  9.942293335517624, 90.686432794204833,  4.681828599094228
15.596162578335070,  9.866941548265592, 96.482799324646194,  4.837565493730882
12.214479805584400,  2.473147777307667,  5.368808200616983,  4.617508094898263
14.733298094948518, 14.238281775131808, 63.235220790097685,  4.885568980666664
 2.610939216521436,  7.799549269386075, 50.186843893610138,  5.370343848859541
11.644723741473653, 10.424174404214725, 65.286337721742527,  5.379056716398632
 5.289217624840553, 13.527715444367839, 106.232793586538563,  5.194191048046954
 5.995197441332912,  1.082235953858725, 26.885322669956466,  4.900968699119995
 2.809076552451198, 17.881613448360518, 98.090116246013437,  5.512824753515993
 6.467173942148762,  8.624901176358273, 64.372064796769934,  4.869850899810625
10.715963962544748,  0.757023622508245, 86.689233788667821,  4.793514803224772
10.637023168869126, 17.140361146561915, 66.707485719584483,  5.427320341433108
13.720870341486927,  4.025510869625996, 71.251105924274668,  5.105818687080764
10.950015812752488,  4.360321321973083, 95.019386424065729,  4.907824184660509
 8.335832461410728,  1.235606838503774, 82.372538997149050,  5.098441026750149
 7.988430495368575,  1.670973693041488, 58.727803493498108,  4.931065324863328
14.434192011647122, 17.211983776883613, 16.507317697556182,  4.782120564150043
18.715962514608282, 15.294928272981961, 66.378871843248248,  4.684718108529907
14.265599353744321,  4.815831102930964, 76.260329273058446,  5.048496537755255
 9.887339784709617, 14.394095362752715, 52.998771081396733,  4.689654947403535
12.612713064688487, 17.003555697032997, 82.477539160445360,  5.337346573667833
10.278171807447229,  6.898133624617557, 61.614415393011747,  5.150344518157453
 0.182812483111836,  5.205643568701755, 104.775309366503606,  5.129194821834091
16.111368903104012, 12.558354858921119, 37.839229782195787,  5.176046801582352
17.545699680654124,  1.937408794762111, 100.332368160828281,  5.286292946571552
14.489970865893266, 14.019580661889629, 42.382243033822931,  4.898584781592852
 6.500793310545422, 14.996158543465123, 28.174341567580633,  5.168714218692307
18.210380753134050, 16.250575629956931, 26.279373316200434,  4.652859330121937
11.851515445726200, 11.025962066742620, 15.840591476800919,  4.812427189039892
18.489739484757397, 14.615049441100306, 102.334372192286764,  5.344155657867787
 3.428433567330013, 13.156388616719710, 68.929802452876288,  4.908577773461545
 8.409258981039166, 10.212815901505994, 111.085830828991860,  4.714857318885540
10.657779057755906,  6.450561328913248, 103.896335019653549,  4.683497664751533
 6.521949931323185,  3.823228629061310, 117.169581490649321,  4.877703120599214
 8.108038534732771, 16.675518154517079, 48.796266120818117,  5.164407122141075
 5.449290531091348,  5.723222809636613, 17.616035674819862,  5.887411707563412
16.895268676965994,  1.001672553536037, 13.366297706200379,  4.691115063789441
15.111556642627125, 18.704578403209879, 68.827385563304844,  4.787647523176734
 3.083141835639939,  5.740906694060091, 92.286419135125897,  5.035283445577361
13.447652734678922, 14.698964872505709, 87.059811830282413,  5.054163984368513
 3.182842644303226, 13.473954677093268,  2.790526092013933,  5.206317967368427
 4.842803455352546, 13.689090520120912, 100.935550303637712,  5.400133335809215
 6.587610828561977,  7.711341948953526, 95.198707422288265,  4.735130268688707
17.407897880071420,  6.055458887441438, 83.938512341734224,  4.957484483808054
16.851054903154594,  0.385156277543975, 20.152669902350151,  4.771794234811988
17.690404932845183,  0.449392768051794, 105.131449087536325,  4.547177842111354
 6.453162387996839,  0.792247589323685, 16.299599410169666,  4.514281319491555
11.317838498376574,  8.699797452855940, 107.846805279765576,  4.496891422887400
18.032319416436994, 12.675795636684304, 59.086692225307715,  5.293434214429310
 1.687809377589130,  0.184473852127950, 75.393838742280508,  5.123117597160586
 2.521719852518702, 17.613072381358283, 29.570577202789117,  4.750997832441472
 2.817923966293923, 17.093871952625907, 113.225211533677964,  5.313532027209189
11.241673419222082, 10.123059990664212, 43.470616834617068,  5.472241374874857
 5.951596213333953,  7.006826551010628,  9.268181771015225,  5.119917715108030
15.368732295693812,  0.117477326370843, 74.263791446072176,  5.286332707723947
11.023362583361182, 13.158504912230203, 29.381488148811282,  4.884853877619042
 3.680822970184592,  3.665793104770424, 100.745947861456472,  5.129776904842249
 2.652121362334650,  5.035104162368047, 75.632265851656925,  4.778171580421098
 0.481195099933518,  6.795705359547753, 24.705619499912075,  4.674610911652572
16.882523859182712, 10.266623827997186, 65.368851873203994,  5.096307606588831
 0.751062231185260, 12.774852759641973, 50.893858559725103,  4.743646146437246
 1.997313088316693,  3.911179586626844, 28.705487368993296,  5.518818166319394
17.471811969066859, 15.789591255368880, 34.005532409278395,  5.211192885627367
 2.384115840368861, 12.021027088886523, 36.545672976070790,  5.047436386242399
10.852450486424202,  8.814657739922669, 73.703268364270002,  4.968639265882308
 2.792652585384806,  1.894246146578016, 13.494899211737941,  4.776628394536401
12.585284948939291,  9.638463947254071, 11.209542983105806,  4.965640520314824
 9.120589083893332,  7.262884814053709, 90.558028320273777,  5.202398307520546
14.112869870940841,  7.401340831119507, 35.313895247080282,  4.735814291490150
 1.270381833981326,  6.653591149674584, 116.993277038055467,  4.995690100048969
 3.455708388435951,  9.353726903374076, 54.941582922980068,  4.744680363425650
 0.750990498275518, 12.553903254594196, 41.755823406760420,  5.198520585606367
17.325831129206655,  0.376324956543768, 109.980326703810078,  5.118920498352934
10.188958835703831, 12.251361718181840, 69.885572237507162,  4.936515878794458
11.919143650209374, 15.352598659893665, 111.939682883693976,  5.338138158333790
12.811108994529750, 15.742611902827667, 46.870500890259137,  5.155455188235219
 4.639773767247839, 13.375857366536748, 82.244198511879532,  5.003127622844805
 3.613918277507480, 16.029721875543412, 33.986004437233206,  4.501465176322710
11.927296890251965,  4.969958012817115, 43.489180499008413,  4.907020119687024
12.847461930384114,  1.667353176387900, 23.409716663552519,  5.390120884346463
15.443761843623063, 17.433607929563955, 38.649880015313464,  4.767057630998676
18.481390130032690, 11.466110243608806, 71.619264445381560,  4.856899023006974
12.746463062142359,  2.385415504367283, 91.075727448446500,  4.505820631790364
16.055888777336232,  5.928145945984077, 62.792271884423030,  5.090237751507389
 1.406239369812524, 11.901005205436233, 25.298685245914299,  5.086223865620501
 5.068078653020144,  3.668915480757525, 55.050190064966301,  5.245594618041624
 7.237501187082283, 15.676729723214308, 57.166427799644516,  5.186446731076693
17.652994530724722,  1.540404743402157, 95.316485128155534,  4.776202891317802
17.487557053545739,  9.970270529819455, 21.443469133539722,  5.049150964344500
 5.082746162580152,  1.941302372650949,  7.934085995723725,  5.485666212391571
14.453474027135524, 13.955963733368986, 68.117006267571782,  4.902276712380171
14.286003321671936, 17.463412719345232, 102.429099424595407,  4.812158829685118
 7.976087485401633,  2.181055536988028, 103.445661539818758,  5.439209789099922
 6.498059391601069, 11.034062064393330, 45.064403919414303,  4.688766594358168
13.908311883395491, 12.258817719516200, 81.446072157368334,  4.711930201692540
 4.982955920836828,  5.296125049718313, 24.705946893589321,  4.799244538797173
15.452557593794713,  6.315343516933529, 92.680226073845660,  5.559947908260351
12.679079043002865,  0.005098629516882, 42.624385669692003,  5.270222974839433
13.744224908367549,  6.277324612347728,  3.518867270591310,  4.332569886944102
 3.206714590482630, 17.514315278833617, 23.420193482797156,  5.123907984422313
 3.743794114894673, 14.453428782443927, 47.238252151904256,  5.106288640990559
14.296606129906470,  9.068952095157629, 69.805347588707178,  5.442341171645450
12.388972102477011, 11.995888569385865, 34.173043289728831,  5.332971953663555
 7.638147919943382, 10.630713033399873, 19.063943731038716,  5.231490508676089
 0.083243784419132, 14.643499307547218, 13.822129872299008,  5.081547308785376
13.024683754000247,  8.972367421446235, 112.219107075670223,  4.901207441600913
 0.771608534885566,  1.397786136291320, 65.749701401850771,  5.215448024211979
 9.356766489056746, 11.978844247317387, 60.692114850705735,  5.334706832694876
10.840710575434874,  0.682284072470124, 77.585226720054308,  4.594199459575572
 5.343424637752485,  7.677240363398757, 114.071643093818196,  5.226603323848034
10.273766006578731,  7.332476842794229,  0.254067766514532,  5.185194010107629
 4.255555109882991, 16.186516684808218, 78.401274878597462,  4.520941489283203
 1.223673225422456,  8.777286641389729,  8.528203753258868,  5.082435797989449
 3.483584190631872,  7.412925399611782, 79.625415004751204,  4.657713885773472
 1.353235752838187, 16.729454177613412, 61.799182398277608,  5.310562530018113
14.532085737956383, 13.880747720111797, 116.624401181033051,  5.007984462350255
 9.113948215290820, 13.605387439276052, 74.790225269036341,  5.452433198841419
15.317698358618069,  6.945746636554350,  7.753823232588100,  4.790696837527876
 2.184094643217545,  2.035748933935393,  0.943613191682568,  4.716160159907246
12.616534708410779,  6.924838014078708, 48.136588937799445,  5.208651991815288
14.504793445112334,  7.650584885768824, 80.314031346438242,  4.838785080673294
17.519066743700460, 10.447562556920154, 33.389753309628915,  5.064291950684694
 8.818251263486093,  7.566396632578844, 68.666294636024659,  5.124144153281879
15.568722472516304, 10.150454192310045, 26.000228067225169,  4.843782650286244
 8.954836077273582, 15.066205947295323, 43.387838026238377,  5.324352340259514
17.562577305964034, 17.298965128621941, 50.509365251889101,  5.133121921520876
17.852780936431561,  8.121798815525954, 112.591651610372452,  4.898021129812229
 9.891298811042237,  0.207984431169237,  8.840791220866333,  4.885318577296696
 9.785619234762867,  5.072519669495788, 79.173521592909097,  4.968698492961038
13.376821029679389, 16.381589644722713, 26.534446600226818,  4.889612777327351
 2.016025332143920, 10.029727784332682, 45.766225304620917,  4.600299103491563
11.640637286423628,  1.253977329720733, 13.454982885611161,  5.200798039335630
 5.052314124850801,  6.138582538706967, 87.657916744122772,  5.032173921213984
 3.540230758208738,  2.649311698757627, 41.328035242721342,  5.048965611996907
 6.523979783898693, 16.143302840648118, 19.746313762840831,  5.147561377168492
 7.071091179820400, 10.869077846624622, 30.769771717479511,  4.642007655580264
 9.002778106227295, 16.950051067956068, 24.146934495242927,  5.081233998423874
10.691324360543238, 17.593754278611033, 36.832507381867629,  5.392172350269049
12.125234002925410,  3.567662315541941, 31.199358486122396,  4.955916537678438
 7.447155694566278,  7.148658017950194, 47.821504872797192,  5.001891430965987
10.623063643524594,  6.120877165748565, 15.198700046057896,  5.334878585144824
12.596287248343026, 18.256865348782295, 51.343600367664983,  5.113972486307439
10.541168849628061,  0.445458247611878, 18.827478241844844,  5.117312034450868
13.315986779136955,  3.534375828208345, 38.935808443153597,  5.013165024978173
 9.865669630655734,  4.036711858635138, 26.792538040831996,  4.791206760775332
16.007463028552632, 13.505794474011239, 29.636501174012039,  5.070646264259227
 1.475247822365870,  9.744723836868978, 17.165765409527339,  5.121969992479539
 0.888491873009084, 12.200286259627664, 97.932197350624492,  4.957256570965712
 2.564823329250085,  8.230239254369446, 69.192864837998258,  5.024551829395617
 9.678132952086186,  3.994396389752434, 74.301193653973115,  5.005303383895537
16.013575316029186,  1.460209234086941, 55.609081632543926,  4.917294747939756
17.280468448590241,  5.648427714283486, 32.181938487003819,  4.837351392190878
11.284204219819527, 14.227428494385284, 19.553942123807175,  5.052611174188068
 0.789836298155095, 13.540244479023180,  7.214446256238685,  4.833777777347165
10.304973767442315, 10.147476178435426, 78.711185237994243,  5.270502529412927
 8.227767949620212,  0.008509423022974,  4.155565996761382,  5.065302596419641
 6.109169406495200, 12.759952941364400, 23.565357618820507,  5.071978177502936
18.188169564265586,  1.431441059087977, 82.796769296358775,  4.694555402222172
16.342760741943760, 16.921532920925578,  7.138435260710903,  4.487097850221559
17.848490538361332, 14.566768476765214, 75.316756392164152,  4.856733278950397
18.738235259869278, 16.519364271906298,  0.235330964314516,  5.002063993703501
 5.777035323538732,  6.941459217845123, 104.069368799579436,  5.097558247251462
 3.438473045275026,  8.291191374138020, 32.948829438258905,  5.265011302117446
18.157882966413879,  2.566729938593046, 90.884068460326858,  4.357674422336362
 6.856413191819047,  1.963370865070143, 21.776940920217069,  4.787748292807072
 9.152263834983410, 12.220587539472067, 91.445370992473286,  4.860958682812860
 0.075823943092654, 16.532371302209743, 70.987632276566814,  4.853861068053239
15.729406987860880, 17.406752852214545, 91.043234423285213,  4.867614358239798
 1.215903799403173,  2.921820958051327, 51.640576255907497,  5.131313500112262
12.531906979285150,  9.558875928209599, 20.315612483410231,  4.703302019066210
16.930364092251249,  4.014618635927452, 42.882632381284807,  5.351430413631293
 5.461418713396253, 17.972558986460104, 66.015049409523201,  4.899719929710874
 0.661841238692898, 10.075068364985089, 93.302291346976958,  5.099641172816699
14.589855631479566,  4.651656982022960, 113.679548879394702,  4.740515089739072
 7.145443902943843,  6.659849036071807, 42.662768782575476,  5.368368623855817
 2.123451014824406,  3.239051867386628, 21.241397157360140,  5.067477697528495
14.795538247771724,  0.539697152343963, 63.931429867787067,  5.077325823956510
 7.229885556008151,  3.448891598475525, 12.520330762484239,  4.819418984328741
16.805488460619902, 10.812893612986745, 84.965577033080550,  4.850288737744274
 9.988622142949389,  8.744419661672460, 27.766048445225984,  4.737091461941499
16.648848379999166,  9.260372238542349, 49.689353487283874,  4.532660167784085
11.029376235555320, 17.496487953549916, 71.888327578008585,  4.984042136871179
14.978026935150808,  5.702901427705083, 108.850629677379416,  5.173218079670826
 7.409781139420791,  8.065362188530562, 82.460397647179050,  5.072099459639387
 5.216033941106732,  6.560275727367965, 59.323550181529143,  5.059797735992361
15.262250613821235,  8.030497639198883, 40.025158448950762,  5.021024003464951
 3.850385095711693, 17.626711979482117, 108.440058218950483,  4.531700131733164
 8.694228539727645,  6.260783267203050, 99.431925358636533,  5.058437347604515
 9.766909075636153,  5.214409562808764, 112.925119966770211,  4.975037181410797
 0.128114992003739,  7.003578035894951, 36.756874833803145,  4.942668413930490
 7.339591016805062, 13.209332000977186, 65.911133617592867,  4.950998341016000
13.921375363943069, 16.467272509431705, 107.271297120959417,  5.058499173698659
17.741692951316903,  2.019051531326863, 24.880058132343827,  4.851562121883021
 5.394605650358911, 17.294015498704550,  0.355085073812850,  4.859374496783757
 3.923455470069157, 14.532872932098266, 73.803344811030371,  5.268095724572419
 2.585553421098089, 12.846671681603732, 30.606222483190543,  4.990122523065182
12.033758128542319, 14.420148362468510, 99.080907286797100,  5.291256835924310
 6.165792583841329, 10.262577794965994, 72.039426820547618,  5.002964623630855
 2.184099924922453, 13.515131071682028, 20.484076929068738,  5.000060829597960
 1.744456418835606,  0.301769712313250, 46.792893563083616,  4.980099832757865
15.366293145830330,  5.176237933018456, 52.233574486017268,  5.203548307891072
 9.508369622964581,  5.998042340827971, 56.550144011870032,  5.218587324542105
 6.451984171495146,  2.695297670632861, 96.541067655313796,  5.115051917228580
 1.812748180758148,  7.268777518455251, 64.572433580320890,  4.515680306022970
14.082160725447853, 10.029842396256456, 60.817899720295586,  4.818005721473002
 0.341355824249508, 11.608821862942714, 116.072066748931888,  5.251435686616967
 4.153954092423970,  0.682989167988310, 70.659745865716047,  5.180581245958514
14.351452352188792,  3.192374714168747, 17.187601834904257,  4.799136828469616
13.048900811537253,  2.890348011659698, 59.586069501907424,  5.400882589846293
14.502635054715704,  5.150368145797384, 102.069524018478788,  4.213302531409101
 7.828902173473519,  2.228298559014662, 91.505241967796707,  5.361826104026071
 1.886876793365981,  9.766485050328241, 75.590808334232051,  4.786349621913931
 0.105326517737969,  8.975355213125994, 107.967768005088246,  4.674517737910487
 6.160878984619460, 15.572497096826829, 61.940466770814297,  4.579037441393902
 4.905029382898437, 12.379730745948232, 94.921119885994599,  5.085152304338405
 9.415157752738489,  3.701883795771769, 35.510601418382358,  5.004291955350300
17.925571314258097, 15.621977243191845, 84.961900180692652,  5.006557430341371
 6.618937992153903,  5.991744071247777, 29.763184866264339,  4.832110035428348
 5.635046263414764, 15.387830407740234,  6.962416388858458,  5.135210233123316
15.624975392533281, 17.184393545200493, 59.439506528098974,  4.868649781261688
13.349201072200492, 10.158373976080549, 89.496043394154555,  5.251610895811826
 4.806778783918507, 13.442309314111512, 15.615859489154301,  5.302858180779392
10.183936966553539,  5.291680517226730, 20.321084250619165,  5.033577392992643
 5.116699095090119,  1.027689282876531, 36.914722387293445,  4.844263308962723
 8.074594737649473, 12.782921488235424,  3.556100224059672,  4.726007172232992
 4.220533179844239,  2.328434783497187, 62.001312329590888,  5.136070199716646
18.357247057254767,  2.446448633234432, 60.028370209072776,  4.916689693235888
 5.299640039373253,  3.570233240590765, 111.299037127695712,  4.653988877092724
 6.815659857881931, 14.788935004051757, 110.923459273932707,  4.977921577001902
 4.357857877119191, 11.570829597368162, 59.250178902692916,  5.102101451474042
 2.733714511809351, 14.194294682044291, 55.215247305824917,  5.056451233431076
 2.449557421100717, 11.631533352478986, 111.335746180841710,  5.079957107859497
10.383266519805124,  4.102895598893921, 51.866541245515052,  5.017052335674570
15.006723897329275,  1.489598486850790, 34.740122510262985,  4.908720994302142
17.390066809702599,  5.580436837481386, 67.591489629223247,  4.875507894373501
 7.640820654916074, 10.215521544483375, 86.856241561875791,  4.714359007597334
 0.350625443917994, 14.386712285322876, 107.543783443102825,  5.156077092905036
13.381881000415378, 15.253629431285047, 77.521364769531672,  5.199588722723702
10.845298960514604,  5.190408293143091,  9.321815203017092,  5.302186244434418
 5.617949034883248,  5.355435682602934, 71.832125416380322,  4.880430514076041
 4.262800129223019,  4.151384182478260, 83.112285377623280,  5.011191315399449
15.340524127961649,  8.595548876975018, 104.825388313117784,  4.764519344854127
 0.711886525446852, 15.248836710968774, 93.840408895437420,  5.241835293924155
 5.834468396376211, 15.927623415197393, 91.128071143109210,  5.107395501320005
 5.421695340743481, 12.761618673134892, 115.395600310870819,  5.228878690534419
14.765103393235483, 18.125095413591385,  2.691689817193760,  4.593403170320514
 0.340577041919291,  8.794022884466477, 29.008354391811260,  4.808328448644869
 9.433420231471352, 12.592335273224640, 83.104328535645422,  4.853159945534379
 1.181204038873082,  5.483940068671106, 96.822109036222770,  4.814056063887072
18.271159841540932,  4.695189901353115, 79.287277186264475,  4.886459922364019
13.913314989342524, 13.799835066864766, 72.807547992284370,  4.537557843728661
 7.055857113510946, 18.490848085049279, 74.768621996396092,  5.003536332669972
17.871162428556012,  8.065887468528217, 100.570712705609012,  5.184732733968318
12.521925436932731,  6.974053451677083, 24.215719617826625,  4.653905197930387
 8.741467079040440,  4.657008540032830, 108.026406675173504,  5.082420719509489
14.976551617803931, 18.591451366517710, 114.749664668276736,  5.168435441498129
16.861367200533817,  2.394516316813077,  5.450635749330051,  4.603942256733184
 8.006254751722938, 10.824294877007452, 55.843247774102750,  4.987718641926347
 0.242239881845735,  5.617777002879627, 56.041137065282300,  5.348176033117072
 2.565452412374719,  6.905214009783299, 13.074940630957599,  5.070185329585453
15.526665493646581,  0.786739695762287, 86.702215430190890,  4.811024541768371
 9.666276225855528,  9.774036714918296,  7.112389522352323,  5.096134121070063
 3.999034121277968, 16.488075941825777, 42.547477785068082,  5.121735443077973
 0.255798006823556,  3.833668098080003,  9.629384519546111,  5.223734043031859
10.116815810900174, 15.927795445219486,  0.468636743084745,  4.974106984846535
16.549838310206290, 14.056241242694504,  3.672390972104354,  4.504592726807686
 2.144538211888465, 10.369977373474756, 103.869006821974438,  4.894758601758725
11.336464429096678,  2.179862921235159,  0.456380771777025,  5.339073256836279
15.015450157618659,  5.291941734978990, 97.666421515300542,  4.655704168827984
 9.774637787641085, 16.070415200495248, 103.705985882240554,  4.960530842620309
17.579192413449373,  5.122857191913088, 47.777992194722351,  4.744501497616874
13.520133381332231, 12.923647575580031, 103.849394171819938,  4.821980176630372
12.790599547268487, 16.684238946123312, 32.268206755477635,  4.815055591981971
14.097569057452954,  5.416521896916336, 87.633724738598190,  5.042145573365887
 5.412472069647945, 10.939343504401927, 40.373273141165434,  4.938183904824898
 8.196701956934236, 15.033755933535970, 33.017504187797172,  5.059240559212635
 3.185897854384839,  0.864638038055681, 93.203516617199568,  4.890059024100360
 0.152010120466229,  2.739006808638082, 114.000588518216134,  4.728765155075884
12.990587927159538, 18.505508033583599, 95.134244505765764,  5.183763899844513
 5.973578671763283,  2.793976021101233, 49.838168219749818,  5.035746079026691
15.666305656900329, 14.738582663109741, 22.277510077127285,  5.293578752168115
 2.731996177130975, 18.633113325072628, 57.325866607938998,  4.732547883588904
 0.269325884978881,  4.438318161640581, 16.761878493676413,  4.919240880205306
 5.245482855679455,  6.173512682696949, 37.576975554370811,  5.530096890972907
10.881156304831345, 17.056532527846830, 61.327005841206535,  5.340555892035729
10.805689239630437, 16.820650474190678, 90.767866877056534,  4.987775307591491
16.183196783332974,  5.098341420073258, 21.334824921471444,  5.036739670499458
 4.023873034238608, 12.433190212183062, 10.655699363226748,  4.807461343090417
12.905348514906217,  2.376487951718609, 105.487312330236122,  5.140313655684953
 8.992716452163158,  2.464337775740301, 63.817680447425886,  5.077431903657199
10.054768815574887, 18.654774900506169, 29.004314424846946,  4.553032930199689
 5.691175214641486,  0.902019511846891, 86.826115058452061,  5.248575864678978
 8.219513224972758,  8.424071333810360, 23.404958534358741,  4.565803034720194
10.342071315483828, 11.755386315337388, 115.169872458093394,  4.823725252752610
 8.589873131627607,  2.213368428428097, 40.282788059307855,  5.115985080442870
 7.009085955875596,  7.455618700850619, 52.586374365651437,  4.584275066041774
11.875958405995787, 15.421830213992186,  5.743828934855853,  5.333787241661472
 4.205337275627127,  3.120984404208363, 106.695506349934149,  4.676339697054797
 1.357577489456816, 17.603171079468602,  9.938958527737748,  5.002845430417821
 3.595871060047546,  8.847359847127350, 21.648322049672263,  4.955168343356015
 5.675859225864697, 12.207473088542294, 51.487125158088119,  5.238516325632770
 3.334735889397061,  4.985593585306574, 45.834389173821499,  5.094648451002293
17.086620098720960, 14.536629694378496, 112.279166739859591,  5.145006817260763
12.347433166983889,  1.601945061701036, 110.522967164612595,  5.110080967650643
 4.733600191585022,  7.791085846415347, 108.961483106913349,  5.037614151859027
 7.280070703736621, 10.747968551436779, 35.675916637431534,  5.177146229619194
12.317945621614092,  8.881774835423961, 84.510221357442774,  4.934641033454397
 1.246920700352448,  3.146536313691477, 86.788816759403900,  4.704200153268988
17.497475569794734, 13.600608279043609, 46.431649553879495,  5.180959907258675
 8.333348704186029, 11.067965303786302, 98.254073439457443,  4.826990835263934
 6.755364379735799,  7.547344677919767, 76.144151812457778,  4.895462961393642
15.522669202743360,  7.937747509498275, 16.857301438844047,  4.992207583375246
 8.034590514983620,  5.280855865656935,  4.678745063481388,  5.532162648977185
 1.501484401171864, 17.550332498408565, 88.996097502998737,  5.079219209175564
17.649504985140755,  6.826938991318189, 73.101968949091059,  4.974536072816740
 5.023048790114800, 10.660718549207013,  6.283025509474074,  4.488269425304601
 6.817815633516253,  1.261677533535434, 45.030276367633348,  5.188050297585606
 8.069870660472283,  0.017994948869468, 53.327360032303737,  4.810600444674788
10.078488503303323, 11.566878227470413, 48.577714176118512,  5.392481409234602
 8.824745305599770, 15.557271643262260, 95.205887497231430,  5.022246800063773
10.355239401549911,  7.698270998467742, 38.573602926494196,  5.230057685766163
 7.775419051438045, 17.639080568095480, 99.534656460414070,  4.806910480139588
 2.769975182887849, 11.983509036789908, 64.095626741930630,  5.126862817391182
11.808898393639515, 17.722376145059215, 56.299284500424065,  4.961406948578955
11.150023512388872,  2.159624639435510, 47.396162809158156,  4.837007322842781
18.362269487632272,  2.506124838860174, 71.097823565695734,  4.647781180330586
16.715460121633352, 15.429397275227599, 55.051416289629010,  4.822668369085079
10.027843944376448,  7.722294270703996, 32.733122278086377,  4.843250749327705
17.829610332163242, 17.611961921456476, 42.871630812369993,  4.919788457364366
 1.288100121646383,  1.619648073583685, 33.606932605871535,  5.343586032665436
 7.835538693822641, 10.038314291287593, 13.004702719425692,  5.197968847204177
15.700484654226829,  0.951273487242779, 46.661628389250403,  4.674069098599450
12.605978219733856,  4.935265337516593, 66.377813802670289,  5.055471059295672
 9.642900377223089, 13.802568109879068, 10.043083273494604,  4.866309594854482
 5.106515233044560,  4.315587288037460, 66.818555946152500,  5.405874331597336
16.316793185079852,  0.755974542954833, 29.724900841107534,  5.559434789703287
11.854400056542568,  9.023998405611048, 52.936913500077708,  5.306813733975869
 6.274852185110601, 15.150897791692980, 37.946119418880230,  4.930706452308679
13.607962827951683, 13.522203293853950, 93.567549565258915,  5.321394628098395
12.870533655262177,  9.256098500228617, 100.574915675949981,  5.069107527836520
12.797956122389522, 12.662173419202714, 56.684332422364648,  5.307519525656787
18.475024679965927, 16.200649618475406, 79.975761166501229,  5.091969531999185
 1.900482383119127,  7.493309784413850, 41.569131959622119,  5.182349006130279
 5.061360309030695,  2.082225397903958, 78.662305894848259,  4.931501787135594
 3.490608012020110, 18.092231467360744, 103.586159703143494,  5.187221241677023
17.630971238899303,  9.298267060678935,  3.946151461840793,  5.263533971890497
 0.780994259940906,  8.149798144778757, 60.253055121192865,  4.528113880922983
15.049153212858801,  5.451134113289009, 12.499313543870070,  5.084782417830454
14.917957389274989, 11.707619811472959, 108.556652901048622,  4.989604072292655
15.205298643377489,  1.008127641359582, 79.178231573167011,  4.706219965726390
 9.527816964716495,  5.277690165444161, 86.037366861566184,  4.638456624420279
 2.090605381028105, 17.692786566895432, 17.494590379843189,  5.262684639221411
10.056548483357391, 15.460462743370256, 14.910602181714859,  4.861312663701165
