BANDS
8 8
NANOPARTICLES
cell(1), 18.759
cell(2), 18.759
cell(3), 117.245
 2.038414737513432, 17.869629012731519, 88.603326717199820,  4.940776909994230
 0.435870112381016, 15.286101293688690, 18.646513663772332,  5.092614805577253
15.548678940988029,  3.141856302961634,  7.716061567424026,  4.994607049120267
14.159676496149356, 12.519625519549537, 106.207301952229827,  5.206106668099493
 6.068303224147180, 14.412843212889639, 54.954683295301585,  4.466665013224073
11.938624428486424, 16.414667189069512, 108.603650097933283,  4.945494145859960
 8.061205096902706,  1.980924441737061, 93.313536507188843,  5.017114118469615
13.299924441480655, 11.842791282878125, 59.451995959598463,  4.721406050697766
11.100268363535394,  6.819805482866825, 64.617894810453322,  5.061654778800971
 4.460029832494907, 10.284073301682687, 52.979923353636401,  4.902379768045060
15.167462043243297,  4.055975200210232, 97.843842376917451,  5.194848827572426
15.680625155824323,  5.517041894423791, 30.344640190016793,  5.258894103765867
 5.030225811257281, 12.174690814773431, 103.619792293288114,  4.987790498693442
 6.618236270295968, 10.945629721275186, 91.208254799343493,  4.777982798042760
 3.761826367037374,  3.659135666804483, 41.480953700147630,  5.157977700477670
 7.656711852032831,  0.494370759673962, 41.021671301688315,  4.914499751011245
 3.445219909217080, 11.903014680169935,  3.818169498934872,  4.823246021766360
 6.276445421287539, 17.195171609670929, 114.524131204717975,  4.770845439335050
16.007169457698289, 17.955093941818607, 82.188497929666923,  4.842197324939579
 2.366591127224897, 17.008625874373116, 13.763104703995452,  4.600972750887451
 5.423906493182765,  3.234100547203444, 20.675703390230829,  4.822134696776777
 1.888710181512792,  1.403992240315280, 17.544452387732118,  5.288969803573142
 1.303245190534589, 13.332585911641559, 55.821019681098619,  5.434430321108701
15.358639334949443, 11.470835693069668, 23.792567638680186,  5.276172444948434
14.754023847569252,  5.462118390947917, 12.041882246052872,  4.930766219053848
 7.711014470426790, 17.849178472619666, 51.941090229548813,  5.156726684085251
 6.140202822210330,  2.173238021225402, 111.458859285495478,  4.848041628388321
18.743886706599714,  0.715571357867265,  4.046976841897600,  5.170173388740123
11.249885840086463, 15.684900017273931, 23.837776024197161,  4.992246740019229
 0.129453621063200,  7.796881013777135, 44.538980709613455,  4.981363478399031
17.319553715161277, 14.154225676338404, 61.116012223119633,  5.116212692010653
 3.503336591214925, 11.890895061000180, 28.113057262502764,  5.024571089917265
 9.396401296628799,  5.738484723863502, 56.540455006993618,  5.118775290004297
18.583650791956622,  0.438876788962745, 101.800314649058535,  4.781797838406284
11.330338478446551, 15.957937465747346, 32.421525773580598,  5.379561474988221
 6.285602014701544, 14.532365264524810, 24.676265360367992,  5.275362205060214
 1.211150835562687, 15.823819322774336, 93.234312550874705,  4.740382093698107
 0.466453779366606, 15.741721697113535, 36.390173022710940,  4.983082935926602
14.524150513780665,  1.594941774813719, 77.498637735148748,  4.649812630025374
 5.443512274045784,  7.968216207521068, 95.037774677461599,  4.902242481022356
17.180147716600420, 13.620406751280866, 102.322765026016157,  4.877132187348309
17.640114328362479, 14.791958211138246, 114.064276894931027,  5.241387239560186
 9.888494491455154, 17.787105140851406, 47.311349886287971,  5.069651838209388
 8.140856180010779,  0.437642313139628, 57.016808290801549,  5.378465285661450
 9.495411837214196, 10.619265694667996, 33.292945683344634,  4.631898243041907
16.652737819015996, 15.004417933728458, 88.772210372290331,  5.135206144971508
13.074661743966244, 15.610935041744439, 85.303780574270974,  4.878051296646778
 0.487855728346412,  0.176020232938234,  9.239520623705745,  4.947450022055379
13.674729908613180,  6.678247354923786, 24.738019668926274,  5.014067162793276
18.362484596224135, 14.330721409580510, 97.626328993990313,  4.904889055479849
 9.458545664619065, 12.157120123253813, 71.961141993162585,  4.688335961430259
16.077708775146103, 16.461406681762082, 24.206308015459779,  4.813956566129119
 8.906177721094924,  8.365230348074967, 69.076742563026883,  4.841630887456422
 2.308404247804471, 17.366745412908337, 75.295455490048752,  4.897513609007915
 4.228575776245628,  6.243068387808538, 69.242170213508160,  5.016810173802858
17.694816438038103,  8.113860527940323, 115.939382317956202,  5.504098587825037
 7.059461432033948,  8.390738756767393, 28.208028551431426,  4.940918445336133
13.853237688228207,  2.933978112658760, 16.217623808344541,  4.953880836639627
 6.268555512422920,  5.371313030175889, 60.678329631295199,  5.275262803442164
16.525378699850002, 10.266328312820207, 91.274692741000663,  5.574805298217056
 7.741575605309692, 13.924015409173791, 99.937995867862583,  4.788670210883228
15.174912384324927,  4.442395289455052, 36.718496205659363,  5.146783855017960
 9.401428842686183, 10.540693164740885, 43.013320329183756,  4.875558155464239
 5.371706369432813,  2.840850132825374, 106.057478321870917,  4.947347176689349
14.323316716579756, 18.521970747109609, 44.539576493045018,  4.700274107318577
 0.039437287346070,  9.277234001363560, 20.567189067818980,  5.010136034405955
13.084009101078280,  5.709953237275016, 49.227445032246422,  4.958869390494301
 9.317861786631511,  9.840623181518566, 61.161327906230426,  4.730602347726841
 5.665542553637438, 11.703687916889749, 86.443240270007593,  5.047791570372885
14.889708311206226, 12.855847558953680,  7.543497907021153,  4.488168203053836
 8.137286566750928,  6.113450578493711, 41.461343050859497,  4.839277282209200
 6.624246568511588, 15.358845992714366,  2.297604283186827,  5.020042112058980
 6.435787213469633, 10.512205400956793, 57.400329660645561,  4.767593329009610
17.926116247841737,  3.453122966197722, 74.481066861721359,  5.141712948192002
11.064763561344856, 11.800203079084575, 92.863842383818465,  4.843076492075104
10.469923185320699, 18.066649317602746, 19.402473896807457,  5.195479213957946
 0.465604982657000,  7.076161949842415, 39.505700818452567,  5.119923597885284
14.623146788912685, 17.587407909186634, 99.110598974810799,  5.272952952595770
18.268024295500101,  4.513926862428909, 104.109423240962414,  4.547937524181735
 5.671172169553696,  8.365045799497063,  6.661599444120423,  5.280955720552320
 9.205652222934178,  7.787643718272302, 10.280028107816811,  4.891193478501704
 2.056510944274543, 14.317980095861206, 45.084626145914029,  4.759969074577829
14.003307343221302,  6.624588846764221, 54.954439981251113,  4.778461002360455
 3.676149797695755, 12.310832584114927, 77.530264740336946,  4.945520608936485
 1.375861008682473, 10.364251183956251, 81.641392153861034,  5.239500195637345
 4.364227608640450, 15.999295384580934, 59.042897944328644,  4.929778291282886
 8.125952656296942,  4.628782695489362, 71.948999963626221,  4.711752962796742
 2.348618802633526,  2.043689394426071, 70.939597658647202,  4.787034037014978
12.029905906317779, 11.853686196736030, 80.411734379329133,  5.155562124973232
 0.104164906776381, 11.786176959969174, 41.524889885891000,  4.591808679547305
11.022131551034509,  1.226195568714699,  7.826043986459152,  4.683455433497731
13.421350621379188, 10.022410888641588, 70.141267315050811,  5.009804182141268
 2.917829195466652,  7.759193834482303, 90.760226936038407,  5.028879099045665
17.885898274362738,  2.080971574735406, 13.448656052122576,  4.671528979034339
 9.421272613012242, 10.283075081242897, 97.179133559847628,  4.818229817503755
 5.434076886915890, 10.232525445127152, 113.682716184894062,  5.312476059220018
 0.216131470368116,  9.069880589939803, 86.589047554276405,  5.248062989648264
 5.130891397063191, 18.330527916488681, 45.358757516630085,  5.239691131002409
 8.292418205491101,  5.321391888228153, 24.294661972535312,  5.298841532361209
 9.035508822623912, 13.758149715384175, 83.710838540469993,  4.533000208645513
 0.728428863146222, 10.290468183113745, 111.446960277097119,  5.101427052560709
16.029239563545381,  8.286528732845804, 108.353691015190719,  4.980908258096758
15.006070582944616, 14.901498609485849, 93.783689013046313,  5.349553523971394
 6.897988697000184, 16.323348586923991, 76.782696512686343,  4.946307623428575
12.710299264517221,  8.445494107210543, 35.688939395125892,  4.464186635685903
 7.234540768759834,  7.375563665963060, 46.249336943337468,  5.146980421499980
10.141943015823461,  2.359663733950682, 107.780710833045660,  5.241968452021838
 7.311451672102842,  8.437143963070708, 20.480943723137610,  4.565617786727660
 0.773386788811436,  1.347421642302215, 107.710727547984604,  5.270635950757413
 1.316815843798222, 13.872828441906579, 85.286938650071676,  4.874420487759184
14.382749558646569, 11.127094514510119, 86.621864584154537,  4.800013449180735
 1.612879280571529,  0.374431223001550, 112.827031113418059,  5.263612578137909
11.583395481680283,  5.737293458574567,  6.649134932884449,  4.707306657517929
12.178123206837117, 17.327770219114328, 90.043882468734097,  5.198723689973994
12.292562408457357,  1.906347751190870, 23.527575185628514,  5.192303076397423
 5.104781451344112,  3.488304416435983, 97.014663241388646,  4.853137031558314
11.476056021254326, 12.663321498511833, 15.859021270089389,  4.806297311401499
 6.683411490500728,  3.707661827339226, 28.666434854989689,  4.487976317522085
17.295471839113365,  7.927943874317227, 49.075584516544481,  4.562332727794120
13.330730793060217, 12.446094480332569, 75.092454734653543,  5.180992781436608
13.835538997925282,  7.919747382758774, 44.753765342207004,  5.130391714494370
 8.343752658083464, 12.428509357070991, 11.683437759648257,  4.949304870577543
 2.293170450936590,  8.120034135886348, 102.730957696937253,  4.955252553366554
 1.631866266987724, 10.158608063649844, 71.125863515879601,  5.099287369990515
 1.780392692951786, 11.199360517704092, 94.541831090272922,  4.892614323978916
17.373363947127391, 17.055980169644467, 52.934731961662649,  5.390693306653740
18.546991946569886,  1.562319391709315, 67.020779569158250,  4.613232717915539
13.962471380388166,  0.848607956986246, 49.603720317682232,  4.939887558966142
 4.896180867957588,  7.116769277183887, 84.816435719599639,  4.787187309036217
 5.746882341342273,  1.869379271975107,  0.546059449617681,  4.755300344808782
16.304141994408234,  4.231156665694430, 42.361435559288012,  4.830381064083608
18.201211644938841, 15.007311928670484, 109.060728910867823,  4.830470386671452
 5.375328659944276, 11.905356646699749, 67.954790577695235,  5.310680855153415
13.786398711610994, 16.484842565273237, 58.420483920231703,  4.836284316385472
 1.689620690331549, 13.723756634789424, 65.254415914295762,  4.513176134883481
 3.746427318327369, 14.742238701761075, 50.703108510898126,  5.201103543899585
12.626320800614897,  5.293285845223416, 69.069424318861707,  4.806657794013604
 0.318978451903586,  6.951354705963320, 34.175115221951607,  5.368852082233729
 6.692294063416281, 18.627722476793991, 72.211987609484055,  5.245012676807810
 2.406434501667697,  0.996413733977765, 49.689146995640719,  5.354924083826258
 6.405941811249445,  1.768794618174003, 88.785967131260023,  4.618379512941486
 2.797586976964104, 17.253923952126456, 32.169654582396241,  5.109422024413583
 7.042011400671595, 13.238364310834076,  6.666401088841159,  4.709344673121277
17.318329097276060,  3.557122912278640, 47.142486303912598,  4.990749562583167
 5.398393505687061,  1.125547368502608, 79.824063347472304,  4.884990450867978
18.417683556915385, 12.463028439800377, 74.885729700791472,  4.555855607564358
11.494382346751964, 16.211895261823269, 40.627703630061646,  4.771759586236659
 1.536565964314822,  6.704954483337678, 61.434014883524156,  4.650165009950034
14.213135167035240, 18.544688727683528, 11.219718333765368,  5.067744861955932
16.389413882150745, 11.396718223714302, 16.451778899463161,  5.405063525503722
18.460430179162909,  8.707847758760018, 53.742136620581277,  5.172199739554865
16.551330468154852, 16.007205057043688, 32.162515805929857,  5.007664101435952
12.637329603511475,  8.223995288855079,  2.560739408665263,  4.923035411581205
 3.118815394420012, 11.448019363843674, 61.108278958432557,  5.353157082193764
16.863291884546076, 11.079558560884466, 36.926028168487548,  5.493362589239578
10.627076836475418,  2.606607599591857, 61.081022132122776,  5.076977679291699
10.961062154312570, 15.244129504759584,  8.602397250341005,  4.900149459276893
 2.043614490355381,  7.853910676419783, 75.848827542623212,  5.113036770587974
 4.648007310006654,  5.671487011374114, 36.833946395402997,  5.105202190050805
 2.218401975225668, 12.566976896138007, 89.874803043196707,  4.830823705176793
10.155240887216086,  4.552166243402373, 19.402087946657492,  5.281474526062618
 0.199618089583227, 14.933301303711351,  6.316782547855862,  4.969826497864393
 1.452236992298626, 18.571762652330836, 23.006253672349796,  4.762488687797586
 9.954144935652490,  7.097201725575226, 93.596205195257312,  4.705286194796519
15.652565521859209,  8.158135751133845,  7.862116469528329,  5.037112763405724
 8.049663177608119,  3.714332537157378, 67.164867843933706,  5.023891140164666
 4.678420409305641,  0.465242688793522, 36.626496192672057,  5.296307538294919
12.632457454955761,  9.801755186497170, 19.728056025543609,  5.061827494914843
12.135430791884556,  6.121877669909323, 110.532329421762526,  4.888866012007598
17.888160232585498, 12.524450876817061, 50.377837653741736,  5.063592403012188
12.148779946860961,  7.101232330288109, 78.807663225943173,  4.846727111354387
 1.097831090945341,  4.967667151173653, 99.236856653723038,  4.749593546841999
 3.723096418535249, 13.883773816787954, 10.282402633180753,  5.130317488499019
 8.422822637251342,  5.282643519057832,  2.916975797202891,  5.110911633454694
11.461529647686699,  3.510491150944185, 89.858002249563043,  4.788724839814304
17.347281411245426, 10.364785281571660, 28.571754108691245,  5.306167982620135
16.291758173687388,  5.831009135824953, 64.416660002534087,  5.474433866675576
 0.292790889441269,  0.624524374812392, 96.732261708031629,  5.402889188471955
11.380275961161290,  3.859004461825540, 28.151952487488174,  4.947779652739048
12.339112982275351,  7.542298029859642, 100.242286872279308,  4.983977738233453
 4.044991944430623,  2.622189407532577, 12.440217318092042,  5.107547747021224
18.366556185045617, 17.822295760732160, 57.876522436130919,  4.766477998767689
10.768960624804286,  3.664934768846426, 45.095927763379336,  5.352977199025098
17.315865871800309, 14.198739288271351, 11.779656863974516,  5.635870277461438
 3.971299876880963,  9.158333171301326, 23.928328912479856,  4.896670143863949
 8.410404258336836,  9.655365266359004, 38.091916353763722,  4.937905607364053
16.826694323978241,  0.525248060386184, 91.581730048871208,  5.108152481410123
13.280928754951505,  2.246401668314270, 56.800080300832064,  4.785553638206236
17.767541742785976,  5.781146540057249, 69.700573392308058,  5.494832432350170
16.313547668066313, 10.401698731299652, 78.459091040190430,  4.694198192496663
 7.407670327122585,  0.636045210251751, 32.239088097576122,  5.024581743358591
 9.129700715109772, 14.406327674938396, 58.953722742973710,  5.117330341144795
15.210336747879998,  1.168382331602824, 115.895388535359402,  5.421438880711890
 3.394637954953916, 18.414869421911732, 54.713149982319955,  5.164866337745948
16.790430058872147,  5.727601194108394, 78.725178000317214,  4.697956513447208
10.143930319355920, 11.012170131574035, 103.194664564226215,  5.130195605145686
 3.378883221638628, 14.478247124247364, 111.824115349621749,  4.827164065153069
 8.939779561111372, 12.822444185278098, 51.557390410240707,  4.981140035561888
 5.371434767500332, 17.251763486686169, 108.362803272687032,  4.890821808887840
 3.619186650157760,  6.565794834190017, 56.350924551090941,  5.120942727272894
 7.583970565387780,  6.556884483783992, 89.006127626903407,  5.218142349576735
14.527753423108816, 11.788333493281723, 111.456709495947791,  4.840422378970791
 1.106513657963220,  3.391301851559205, 117.042764065325997,  5.115770908980785
16.811183974870151,  4.819030746894827, 111.907880928225410,  5.055144637986417
 6.761329475664258,  7.613408673403409, 105.092749373385658,  5.175532638314408
 3.168590290246677, 10.277205556008784, 47.921897319889467,  5.362052239389581
 8.683427576074148, 13.125313531868454, 28.856902755188912,  4.750644440767296
 7.781853950093344,  5.575636948659054, 114.952243922338511,  5.403567736218015
16.314569608466506, 12.282020681792648, 45.589436610023895,  4.984550207807811
13.767259997466244,  1.618310254281713, 66.098873121046154,  4.903297656047294
15.528828256142129, 17.098319179237809, 15.797171813413199,  4.851733089201010
 6.546631687831017, 14.740347532641156, 63.552446009339263,  5.329494164378619
10.137086078495253, 10.105642795022664, 108.319746551144064,  5.050949220746407
12.975327971104660,  5.855513518112896, 115.414701337020148,  5.004410649801724
17.873465639066872,  4.196872446399054, 83.413648717954032,  5.390904846919060
17.208098873935658, 12.012146384632070, 67.976401993912916,  4.573536982996388
16.487037887764309, 15.995637415436423, 40.697652637550242,  5.204251120199626
 8.836301623974803,  3.380512167249577, 102.358865586114732,  5.245331485652392
10.973898943790157, 10.493791032540068,  6.560898599898327,  4.855333448107443
 1.317917317367343, 13.618024413481033, 23.434335996441551,  5.116449934189523
 5.214040192298114, 16.947776515033993, 20.099592321680564,  5.277078511008241
16.879812815837088,  5.526074785430486,  3.417238671423961,  5.190749992554593
13.141158875184479, 10.710472284402664, 11.543935171149716,  5.231133473144031
 8.978770803988855, 15.509299367953732, 68.539562107458025,  4.934991680201462
 4.254997860943292,  3.238765110559704, 75.376360522613084,  5.147183612769015
16.985254441287815,  2.744793791094696, 24.897427502437619,  4.720208102670960
 2.370550364782861,  6.996662649281022, 28.971337679120737,  4.845568483426798
10.901161241332982, 10.452986592073945, 55.476660889960996,  4.952513250453029
16.135401427444851, 16.753726864139967, 74.603713384633636,  5.135149860157465
 1.998594272846588, 15.994970260596638, 104.835721182208388,  5.047167226433744
14.984703450966467, 13.112233821215510, 55.149265338933979,  4.811824259212004
 7.308693352643314,  6.791922927049118, 77.447418325510455,  5.092830653445079
 1.959246120323840, 18.520376261826758, 83.636279542362360,  5.068960730508777
 6.978876533232560, 16.090928957262275, 91.120005270807340,  5.438853278589076
15.670339042111578,  0.060086841749819, 110.819034469850308,  4.960853040584345
 7.624962399588917,  0.443597174844581, 23.773847292586616,  4.601117108344424
15.014906181368948,  3.571875665215863, 107.488229933204238,  4.805330190283719
12.842962543624294,  3.149353751583308, 81.915218541237039,  5.295203382764925
13.515407544233447, 16.016424693694454, 78.544557403206255,  4.426056274890774
17.492173533477221, 16.725683088412811, 47.707398229537610,  4.909749344835733
10.077664451806108, 13.094947918655579, 88.266011960247084,  4.893828283397503
11.953649030256898,  8.758341404136868, 28.963549241379180,  4.985838356744490
16.021424633270758,  8.184456288880565, 74.087217716199120,  5.086838449614670
 9.885309199438764, 17.694235625149179, 81.134668421700098,  5.021301789767561
17.994902633686987,  9.522432992417508, 98.783463748788279,  5.002502647494626
10.190560918205074, 18.180751594979260, 117.234601816821908,  4.933980554858768
12.143067527309176,  8.260236828798423, 89.668868544694561,  4.580497360257445
10.053658698449921,  3.114936043006410, 12.542990815656996,  5.611504391049376
 3.517523152469345, 16.484781398662093, 99.869208949752405,  5.084051729400838
13.035061323760548,  3.627775070671735, 73.520164815217129,  4.728544159426896
 3.241693956489941,  4.543773344029835, 46.270262487850310,  4.631155707957531
14.254107589563271, 14.669016049582375, 19.927927367682500,  4.996588060981974
 7.072931082983392, 13.588503178897843, 46.959463514477548,  5.055220026337057
 4.495289285207432,  5.890668005788574, 16.464755583141255,  5.295733758030775
10.889906551672921, 17.191800831200883, 14.533253993707170,  4.699796936587515
 3.020958014449767,  6.021452248234701, 50.883485990700308,  5.002511643765271
 8.371052297561381, 14.173668387252819, 106.400927654912081,  4.545160240249216
 6.304369346034412,  0.592734136410046, 61.771722140904892,  4.516210672488209
13.487834061774722, 13.875416350078661, 27.986266567638204,  5.073095745757433
12.336346565289665, 15.126452731937144, 62.890676470270321,  4.938846827974491
 2.964742885881678,  5.696016149040190, 112.913060800647898,  5.044969425539136
 9.624943831000333, 17.975767277051343, 27.956751090011242,  4.976097305929216
 9.372076550873407, 13.492681259067218, 116.107903476518658,  4.522966885438438
12.244469257702878,  2.283164552543104, 40.312978637961166,  5.016131021120068
 4.720540930816587, 18.317656181121823, 27.683676399133049,  4.867233436023602
 6.626185908404913, 10.240854086078674, 81.261789827491654,  5.275132519585112
 3.891984752179729,  3.968262023584264, 32.315214363416551,  4.654896051491380
 4.403277856962310,  8.770292033983175, 11.877576592885216,  5.415846323014152
 1.584078901401597, 18.107370849080780, 62.876799726377719,  5.437382994570765
 6.952301186486887, 14.524012278094904, 37.475020694539616,  5.265897534924640
10.940665284081051,  8.020433249502622, 74.080841491079198,  5.063869206777773
11.919360623386737, 14.148170374816621, 44.828924535019823,  4.626919006046706
12.731871904731086,  7.067482550285233, 40.032914823141596,  4.616936075690983
17.324126024597724,  3.694777204234945, 52.378830469933668,  5.462478978624062
 9.997702487114967, 10.531420347643929, 24.339954777103326,  5.660641878605750
 3.423548829412085, 10.664780349401084, 37.264726055736816,  5.198092474880360
18.201519877905568,  1.777242666195921, 33.927999528215466,  4.650715402398102
10.116802017749857, 11.651521169162391, 65.639015124898464,  4.971505978392002
10.173338612629284,  0.919153879655445, 85.803815361031596,  5.133506151950409
16.851960451729244,  5.203673389917903, 89.396994999088747,  5.181402980022236
 2.224099684347398,  6.652683830616090, 107.774043212226331,  5.513837789343526
11.172214005993091,  0.832393336071948, 70.131777022089537,  4.812242102206828
10.534834034129869,  9.738876883609212, 113.459942734842940,  4.945110063395045
 4.551358063187725, 17.551752202710656,  6.534944800819540,  5.195122542328277
 6.762613136439583, 17.588424051368772, 103.517436449489011,  4.912481074981702
 8.480114052913407,  5.541243013679399, 82.010851628364435,  4.654931883128753
17.716394810729781,  4.562432496013295, 57.704375561761132,  5.334366344465352
 0.613991095418970,  2.036778070693927, 29.162622484641503,  5.156839013517801
 4.832235027106356, 17.845965121442450, 95.338239334120104,  4.549587810075133
 0.595135099659884, 15.955663530492922, 70.376724883914903,  5.567191573465622
15.861732956716397,  1.013415302454794, 70.754410949959009,  4.639779559494935
 8.053023357034442, 10.423549903975914,  2.434554237666638,  5.239179260237797
14.765683625619678, 10.848846785592549, 63.985639772686014,  5.010775203870396
 3.061745338233485,  2.058309378221382, 58.930205046371263,  4.564753787798950
 8.679004134443009,  7.542408667152007, 51.485824502997687,  5.591403832773824
16.101659030133494,  8.723250201951586, 103.363655965249478,  5.033410069687079
 8.390786158074391, 13.933005309979087, 111.319109164135966,  5.271253923495013
 0.634628001906150, 11.350633296985466, 106.071213990573426,  4.908418817004242
14.056566319572255,  5.118639187510017, 93.291617413210247,  4.397836362529165
 7.208271468401072, 17.593144487891408, 10.968927537528517,  5.137968371957978
 6.890766941478343,  6.754846560992777, 110.043611194926427,  4.840212157977311
 4.129030089908414,  2.243881968383878, 101.499130676925105,  4.572427875766812
14.871490647956520,  5.465659405497794, 20.289315487448533,  4.484676201397802
11.053693287169283, 16.861089561436902, 74.156598924191570,  4.916706159317566
 4.708042350689376, 18.127388526694705, 67.306503141451770,  5.376096061165418
16.251138886585483, 15.793380944403598,  1.617544093945094,  4.948155291243434
12.308995620636960, 17.095633417324613, 53.824914708112892,  4.891956751510166
17.093777169765531, 10.916032200064480,  3.447160217541360,  5.584053394651116
 3.857364651298187,  7.723990467486230,  0.796524761730110,  5.221686957358914
14.615059324724863, 17.316575056030054,  6.032887902479179,  4.946599159986871
 4.450140500578972,  9.523635073545599, 42.310990256445720,  5.327752764582169
17.615418394214043,  9.680824253547661, 58.697865052752817,  5.040478239261639
 3.489457458783876,  3.812764716949061, 64.875248181068798,  5.039313088507201
12.634652826990886, 15.873121090427201, 113.532292180158237,  5.052248250468527
13.909708850778891, 11.596761288700117, 41.247686602750122,  5.025190683301182
 2.418185016549826,  3.813868851456117, 87.293510830451822,  4.822820156649159
 9.832513407928356, 18.695854532735602, 36.577203758282202,  5.011827358643409
15.739573967075561, 17.378976516634989, 105.426112867675215,  5.125884783574063
12.472756287015363,  2.312095038297668, 32.897140684249358,  5.134870641876502
15.244319083967698,  1.103961993248345, 86.761213520426679,  5.076184511069901
 6.830773838792443,  3.605779464898777,  8.334232522359969,  5.001517427359277
12.761811773189825,  2.360320799762261,  3.221969304612655,  5.176812015480711
16.361496632893154, 16.161884446955117, 65.684397948257299,  5.029060605459891
 0.361344290756369,  0.415923700693177, 43.693598925769344,  4.997112309337044
 6.217670317012223,  3.512120401753144, 53.521184944997934,  4.685632898645752
 7.204452361050652, 10.258989744792228, 16.018418345500407,  5.000450146331467
 9.142774469861774,  6.005430328283483, 32.018094616750233,  4.961665505720299
12.774837234464570,  0.771752997409924, 94.684052205532595,  5.075234920657172
14.001572811279608, 11.908552322750518, 116.426582854485616,  5.129171069687636
 6.533641251051380, 15.198713740295355, 15.430160670731150,  5.035776624923088
 3.744202765156633,  4.120669203244349,  4.427234989928118,  4.991693314939361
 6.466828915899666,  7.341491021575693, 99.936303964985541,  5.167485813802145
16.160821706327706, 13.092764619349477, 82.720670193626120,  4.615507230375431
 3.728299773176964, 11.354895397306354, 99.021359283258917,  4.709223593730412
14.686211969186855,  0.062099513624969, 28.352048401631002,  5.122291033063581
 6.035376676112285, 16.690348127804825, 85.931190160018787,  4.959499475770881
 0.528945563142860,  4.507171142031561, 21.187190773359681,  4.656840049981582
13.265714935885299, 14.584500917118417, 49.531574693917818,  5.193139966095814
 3.217687674162423,  5.640474966017294, 80.353236973098419,  5.195139395953903
 8.564875520876205, 11.625565647483072, 76.704942823412722,  5.001241445843078
 2.214533326243662, 16.848946224822761,  0.220523987330912,  5.114968454250973
10.070053893480560,  4.075919314075307, 97.416654346910704,  5.033996093835145
 0.441978647340365,  1.423903249786808, 79.043167570596921,  5.159263613263723
13.768726824491189,  9.996335365625097, 51.519694963768245,  4.857662270455377
 7.430712300108469, 14.738344786517764, 42.332999323022932,  4.498067668554952
 6.901518917965161,  1.337431024182101, 16.403687612249488,  4.966589535975182
13.215027028570498, 12.583717197815897, 99.406954143140425,  5.108772296310296
 1.339717745156315,  5.422275881313655,  8.873386019745736,  5.442846313106799
 5.045196539834296, 15.178850491892881, 81.321084118116843,  4.931512683358524
11.916579515125116, 13.066179677925946, 36.790840613355186,  5.164555844077641
 7.871794331013978, 18.658911676070257, 98.852383113256167,  4.790965680455100
13.986766019792798,  2.626240636641238, 102.691787090738643,  5.184124647786925
 0.454569154202466, 15.851433911282848, 27.914159971988152,  4.971068719578249
11.852702373518431,  6.526064405904207, 105.185932926140552,  4.985112117875950
15.633324770977165,  1.380574745044583, 61.385174016686328,  5.245144046100378
 6.102259247820234,  8.878891447564822, 73.049829651025703,  4.936851913472159
 4.171122462142989, 11.932717211348516, 19.617696351805616,  4.974700017743996
 3.337980742765302,  3.871097260887815, 25.175555681038571,  5.172745383260315
 5.823582499574444,  2.548405428340143, 84.304760438182086,  4.550815508397829
18.485493166664014,  7.188048175230027, 24.912091500726380,  4.644336476068519
14.972929445895701,  8.398452277425495, 82.626429743473693,  4.927481338834796
 8.348435085099879,  0.620027441649874,  4.153769790959525,  4.477141494437857
13.303813269943110,  5.628831478247788, 86.124199922918407,  4.490531854028407
 1.549201298167116,  8.947851893339138, 65.895157965125676,  5.077071126692967
 6.106400981982395, 13.319925186301823, 95.368656997316137,  4.852196436795430
13.991807911299317,  9.111984994414524, 95.782056647284932,  5.015129802814447
11.479825415186506, 15.958821654402895, 102.923627635283367,  5.127304721876732
 7.123948773082416,  2.969652139384345, 48.733625724572278,  4.965043327422711
 6.294302360836904,  7.862328589561425, 65.056221990450553,  4.795783225180370
 9.575033465401953,  2.095346816650726, 77.035269586609488,  5.340142555356185
11.608137701028015, 14.265348320994248,  3.194372723918179,  5.315465881441509
18.060239050763887,  9.039971604548530, 12.088377109167126,  4.805200222915920
 9.565649104243272, 18.503826107361157, 64.859810603348308,  4.625255149068429
14.159778963289249, 11.596243225130650, 32.447668684399197,  5.018272656221874
 8.917807552727830, 13.293931551761174, 19.937708087100052,  4.880954633576613
 2.458657234316838, 12.405266737543956, 14.961877529471110,  4.878013497615738
17.895073760819436,  6.191421290069156, 16.390893343636264,  5.431212920852755
10.478511696359373, 15.350200664209071, 96.172751113831765,  4.917413389207250
 1.969997893530532, 12.057020334342097, 116.646921926172382,  4.492924363840875
 4.865364468077172, 13.780017622298429, 72.831368220749795,  5.181869898324048
16.154982944767472,  0.760406684017134, 20.213756754276787,  5.240217988097685
18.484366416153584, 15.103096470890531, 78.947094792963085,  5.098828177462988
 3.166064390161857, 16.239535837647789, 40.649247351816207,  5.150551634586596
10.920949539154092,  1.868241549677200, 112.891600404651996,  5.135290418726597
10.823022984099390, 10.478304269343171, 47.715664997605003,  4.746911920989515
18.523108512897021,  6.511978622012408, 94.650392564750518,  5.278031815888529
 6.042359296164753, 13.659039780665825, 32.694320795353185,  4.616270301637257
13.861720735919901, 15.187431890171474, 70.138493161581792,  5.350188395520362
 0.032508699413714,  1.422517453859453, 38.755674712744444,  5.097808646747425
 1.232899196425288, 10.418437166000752,  7.798160061944676,  4.744874888988836
 9.684029792076624,  4.966461787857285, 36.896947468492080,  5.064364963216607
13.412004483836816,  6.852744292452468, 59.967118004480177,  5.312354892176756
14.805519516049641, 18.103663091987386, 36.362518059082845,  5.004276563624571
 4.989581583341894, 11.119401232545171, 108.549657616755752,  5.091603452711199
 2.884224923638047,  2.700547352477480, 92.358819983803457,  5.575537665762583
11.438935097357252,  7.541208271985569, 15.300322111810358,  5.162785786513298
10.027479230328961,  9.089001559691866, 85.117337583489501,  5.241462773462800
 5.024112048825594,  8.732942978533481, 32.796125365105596,  5.039395682050241
 1.258651070161936, 12.251908912732704, 32.725724678805840,  5.259340636214997
10.853644319868097,  2.980606767216360, 52.678164607895475,  4.784084466679966
