BANDS
8 8
NANOPARTICLES
cell(1), 18.766
cell(2), 18.766
cell(3), 117.287
12.976044675392638, 12.822249470842182, 66.210377666944652,  5.347637654288564
 0.399752909778065, 16.474706600652112, 48.538754521764446,  5.299479419345602
15.309522067212308,  0.375173076231880, 99.981133131374051,  4.739547223496571
 1.479457929675794,  4.386417853349878, 40.004164115080385,  4.986529604044846
12.672979316016727,  0.301801339204443, 96.091517595434382,  4.654880096789545
16.366293393871857, 16.382671631666803,  8.875836485606987,  4.415550832374817
 5.768769133646150, 13.406673443294579,  1.885904618466546,  4.630681515360903
 4.314807817544375,  2.975700694838884, 98.134455755668910,  4.393460123758052
 3.243479595147638,  2.980302025399111,  8.977829027022066,  4.739613827402773
 6.073069456000561,  9.599185421891240, 63.944022988134421,  5.000998399508106
15.038085654891498,  3.881929798235698, 48.215450277189589,  5.371690359276291
 3.456244111360076,  9.143321722859644,  2.848822347672726,  5.082656957118711
 3.380907543815877,  1.485092186650559, 17.549827002933220,  5.076996661752100
 2.761462988059161, 11.668760022729074, 115.791823389960925,  5.059064019040370
17.559849990962590,  2.298745294431995, 74.078331838990906,  4.986043532849260
 0.689435572510897,  2.242011123185764, 46.428544618388926,  4.681426027858143
14.524337432129887, 18.683826152175598, 51.933553659987020,  4.862934969235229
 0.048064176675073, 16.057024356384037, 113.087213795727521,  4.979350952617665
16.752642424960889,  7.797419419730628, 105.778342371575633,  4.905277665242499
 3.073574424958486,  9.603250773319031, 106.312220045837037,  5.936617131860118
 5.850531126857262, 15.780176863902730, 31.614993214566404,  4.891439933002014
10.777046603945706,  8.059247386317079,  6.444068153120194,  5.163972393790083
11.205583716005801,  1.069663826890914, 34.068468540555770,  5.004494979170408
13.546087873751835,  6.843283190752060, 83.925107708001477,  5.141407015678660
14.270200924077116, 16.210786632988626, 40.488701072917614,  5.361206924876827
13.436940446588189,  2.906001369177946, 13.380559794675902,  4.693550018811205
10.558970860705930,  0.936383973938420, 83.531085352223457,  5.221743574582499
 9.446183828775428, 12.442604694489910, 70.198885859018802,  5.306872995542836
 2.064883685510813,  6.581394705791140, 114.934761420061520,  5.338037705127115
14.628463493150104,  8.674163256581148, 60.981751523322714,  5.364405859722048
16.794545868394831, 11.609314114225542, 27.487581777861784,  5.049768260556626
12.325175086203776, 18.586421490343771, 26.764764192160403,  5.308156407794447
 3.095877847052581,  5.454806340928406, 49.401511208016977,  5.012274345213229
16.632814077513437,  7.261545647926490, 100.881129351099815,  4.932034676293984
 1.950771174360369, 16.372530662698242,  0.595471628463801,  5.353537410266388
13.816904800803034, 14.697759889093884, 70.739954131513997,  4.586944520856239
12.146204146696450,  5.507517278968564, 17.497892084307079,  5.380956269924815
 4.754539575803691,  5.485948947651042, 30.515782321773756,  4.986269672563019
 1.810414228919574, 12.309100460336456, 17.736990844808869,  5.185785470756289
 3.471934087670772, 12.978172481336911, 80.338598072501114,  5.345371612975749
14.054911189022265,  3.565228423257169, 87.778392181960868,  4.943371719221276
 5.110157280894781,  4.899951741937883, 73.201241761721349,  4.855513302606657
17.217067127232173, 11.446465556927324, 57.244720141386807,  5.117179312567007
10.150250217631744,  9.058479369980502, 37.725604841041708,  5.125751765041742
 0.685452549825286, 16.265438299772836, 77.054598775925555,  5.489616563420795
 0.658745222947932,  6.485835801019316, 56.981837134839175,  5.011723118264745
16.487956362096099,  0.287638063622796, 116.120733461964292,  4.729748786844962
13.554200173495142,  0.388565554459969, 21.644038740117324,  5.208605537688934
13.830947455709339, 16.692166198878233, 81.756901158801725,  4.351961574112247
 8.430529743967060, 15.629775895676604, 48.813465923069067,  4.805113582539017
 1.778685033897981,  3.834446012810677, 13.472908044209793,  4.862508561944282
12.469021386712472,  8.569542530623639, 79.269371074712453,  4.983792238332250
11.999082454730619, 18.078976901639106,  5.672941638952625,  5.304041917616653
 9.004771834407736, 12.500866104615481, 33.628681537627372,  5.039752719818559
13.043065451311961, 16.136595763250291, 86.479539703856418,  5.278082642102022
 4.185548801716210, 12.093283530003697, 10.084593585100793,  4.925551621611217
 0.339608031204683,  3.767696978693329, 29.403211918724995,  4.679945332002291
15.672286617548146,  8.533419127652019, 65.914829723469865,  4.704914551412105
 0.148059125711105, 14.125536139036591, 39.375454648704626,  4.937135480965750
 9.969305191174241,  0.389169237249076, 39.653477721844496,  5.173026971086249
16.865499332700484,  2.020125354083797, 94.229653056879727,  5.136652703209952
 6.301461793731675,  1.545082892519517, 48.008909815924881,  5.408293151620603
 9.796777734881058,  1.154773376071266, 88.551894351640712,  4.943703259242541
 5.204931300939839,  3.619634887381277, 64.250035890450818,  4.908931352024780
18.429982143335270, 10.931031043092110, 22.660717907256487,  5.228058539002475
14.977624448816998, 18.717524423735910, 63.357897682841539,  4.725432783089415
 6.131168017492416,  0.617287464580519, 42.927998965930207,  4.925986186657541
 5.140712034266235, 12.244074223899553, 85.186961435937860,  5.012159061236200
16.896646977481961,  9.312298725684910, 73.780948401224407,  4.715288341136060
 2.159850098189961,  5.544433020490039, 102.736890285244968,  5.026742001444138
 1.776713617189332, 16.372490466637220, 108.482913392824244,  4.871410150839364
14.516910441842272,  1.965677639607603, 37.803832360793393,  5.135279881796121
 3.585118606055810, 14.423698323189607, 103.904951072458758,  4.885150848407836
 7.996582451380810,  6.474458376653956, 93.702349601709173,  4.813309284422597
 9.417253015585713,  5.231323664955157, 86.040785293647644,  4.659281973194275
13.715534864464134, 13.613009006041473, 91.055116900928098,  5.194894999737158
 3.397432067207536, 15.053282343737596, 56.575117933335015,  5.232584031920089
17.722347815353146, 16.597480292574936, 72.292316473399850,  4.629330578043258
13.086273525461097,  9.040722934307757, 93.914612648960684,  5.133965615240001
13.750672714928506,  3.934277951362695, 59.177746782829111,  4.815374573329883
 7.459166852869234, 11.928824604796775, 42.959832508306945,  4.766213998575058
15.165345583346131,  9.118326820959352, 88.488058256479007,  5.252675129263572
 8.838101604522468, 11.413792909859540, 116.130876923671650,  4.869377247178587
 8.143878836746829, 11.200897134977748, 78.653530541560869,  5.202740032963981
 4.114260722471766,  3.957775834321845, 54.204430809352274,  5.189472712352477
 1.097415218806017, 18.412290025007596, 42.115220632341121,  5.409145378295045
17.510914538912314, 15.090730177648062, 65.320165835271155,  4.947874151323999
 3.192709200034932, 10.169173470059453, 26.085255526085355,  4.719296252985582
 4.595120115444055, 12.595304190389236, 99.503453886474119,  4.842111321512670
16.197226159805055,  2.077226126920515, 17.462450435796992,  5.234667012100649
16.783437403683912,  9.990648740380378, 42.220265013084457,  4.755470136082556
11.524219667550955, 13.500367593114438, 95.736809264342455,  4.992648857734472
 0.440308440810612, 17.055306335759852, 91.350906188542751,  5.348829221977160
 3.362274254275703,  1.543292067511500, 114.771919465550724,  5.069053319203431
13.029511027189358,  5.962497853915038, 34.519919897751784,  5.476027535765890
 7.931477287465288,  1.862738352246849,  8.228360887916109,  5.013237954482205
 1.681927098388736,  9.442228134436213, 66.383663846040648,  5.037469937891472
12.051466658418521,  0.840263826075801, 55.953177366898721,  4.746175866172607
 4.164481081826548, 15.309098329215772, 14.095828171583630,  5.352748048484155
15.076579951024641, 11.270958573620515, 15.129170031054890,  5.072194302393500
10.567484773463615, 17.216414971542562, 67.998403283322816,  5.284739163544194
 7.581050257445765,  2.563074420776394, 69.633923631073628,  5.001866237632435
 5.921566444076847,  9.277562216686212, 47.344151990520160,  5.338038572335612
12.858246180021064, 10.082205704219756,  1.979121921954903,  5.485144600004743
 3.513506929786687,  4.438733543161026, 25.763895142425213,  5.051718411865716
 4.588245712119389, 15.162890941825822, 45.559278568919474,  5.306581050769215
 9.770802298219040,  1.421729437096394, 60.055339455680929,  4.708062764968222
17.534236888508630, 10.794626007469356, 92.576400540775850,  4.770226987831910
10.276875703602792,  5.647164729393528, 111.106424328235292,  5.428780908677054
14.797874216217458, 11.453628057029198, 37.813874330439944,  5.325126077509240
 8.070037437494365,  1.798401662584009, 95.430977235708681,  5.108168909333409
10.648809219329634, 15.282879508192682, 74.243056571504454,  4.847874505653492
 8.953130897353194,  2.806959277660078, 52.490997323236449,  5.307000852144201
 7.720310582372843, 11.425163750246215, 19.095925618311131,  5.009476330900214
 8.720733443604091,  6.354427228344484, 76.626148179797127,  5.107169793579244
10.389766384513122,  0.490606847144071, 15.887926902036611,  4.558926763595710
 8.138727152853976, 11.375908735036083, 23.980176225161976,  4.792282906706933
 3.993331555799951, 17.867615541109782, 52.166966881713307,  5.284652746019455
 6.213211043440729,  1.635228069264583, 33.273914491175262,  4.905532044205044
 6.308107507761163,  1.395872513962616, 13.162980369257243,  5.416999478206124
13.485418929210326,  5.582948948057007, 74.459703423003390,  5.473545628937619
14.863507887922861,  9.118906696335964, 48.405582459177289,  5.109717878172311
 3.425925493001487, 15.295572941182630, 35.729655080634323,  4.706254598971480
 4.911412526721020, 15.263750172386985, 40.386241723152175,  5.055706526802989
 4.532779533318752,  7.209889615917604, 11.093700670443775,  5.060982406282310
12.317603856054536,  3.435029557590817, 79.258403314881079,  5.283573851752256
11.707562450654253,  5.446913501065436, 117.219629026611756,  4.866065284409569
 9.977035574868578,  6.212923589701803, 61.961305377283040,  5.280706648254875
11.200925477541631, 14.883090309157545, 18.565848455770578,  4.842136791010560
 5.372160680371921, 18.312786854762017, 61.286157069653704,  5.115919566124864
12.709798531341859,  3.698029689854138,  8.512316904033483,  5.232974148133026
17.000756758567380, 11.496317819946720, 113.954238288873569,  4.716518128100184
 3.087379981245618,  3.898539458153271, 93.544200909027751,  5.219290547540932
13.692467972852576,  9.579590962085511, 70.182548269920005,  4.933781561684650
16.159840743998242, 16.189950577297097, 28.753105641035880,  4.523758080758919
 2.509747229312721,  2.680537355533755, 69.558566374073308,  5.058250889760514
14.628166865704600, 14.641031388306510, 116.813303004081234,  4.901885434338322
 2.121486892910994, 12.189664593214887, 110.923214036621488,  4.802318011082728
15.990089763311369, 15.685105311116118, 95.165943203383222,  4.993927523793067
14.482271853914588, 13.980763542365681, 60.846919134760576,  5.248933654214326
 2.754812885491676, 14.031602684203113,  5.565834525186420,  4.935905640798715
13.314401987266338, 13.440363348772236, 10.931746993417660,  5.004970996819567
12.004574192349658,  7.754377894643984, 104.164819762189182,  5.123761219744922
 0.794920677398603, 10.090655365531989, 13.117730197826992,  5.003367648588400
10.136250853467946,  5.975547267161684, 56.453928690838183,  5.098475452301629
17.455092217486204,  0.388014643578675, 12.321201683664865,  4.672730272070958
 5.361526560550519, 17.916525654469741, 81.023344906580348,  5.310286719376823
 3.678003244391825,  5.400061219640234, 35.516087700753118,  5.202696749350562
10.132057200892600, 15.746192885551730, 58.283109688892111,  4.851110801722677
 7.681696112057559, 17.412800084797329, 104.680316656751359,  5.195175120213522
 6.361601880298901,  9.579429900539330, 89.043102584683325,  4.661297033525224
 8.853127578820045,  7.293651340123559, 43.506247389871760,  4.972852640551658
 5.448965788484342, 10.396133619973941, 14.812253103353168,  4.902290371687408
 7.723320103193101,  0.492574542134494, 28.781030453340918,  4.826125807568624
 6.887592871348694,  5.278150422816288, 16.767621703164359,  5.238656575208845
 9.972010331099439, 12.318009971913098, 111.302853432478173,  4.918430273191558
 5.994993200117543, 15.465004272451417, 76.330459476316435,  5.343962303724431
18.712178101142978,  1.826573757305930, 111.232257443049519,  4.784185846245921
14.919345614182745,  4.497135681881581, 108.976136101288816,  4.986731332070179
 5.287214629966579, 15.585194154640810, 113.257657911710623,  5.543869205868065
16.350118364019252,  3.063585479694589, 55.171248941145002,  4.875743183190244
18.463642874207817, 17.848626780131791, 21.286764919599324,  4.966937896322372
 3.914040479121884,  9.185569383165969, 93.218686214055154,  5.029578277837660
11.389435147485438, 18.077020642745161, 10.826167833317157,  5.027137847205609
 6.560094221104047, 16.650067671857247, 71.267134191993222,  5.117312702417877
 3.001344482301283,  0.095728288457166, 28.021799416628646,  4.768140780901208
10.316051321058314,  9.739303761147298, 15.202413113369039,  4.914381107015434
11.730641159107790,  3.261045524161077, 101.764051378041600,  5.073825626560518
 9.708234328679623,  2.071328513307330, 64.690681412536549,  4.653324144520377
15.397250489737184, 18.272394459929188, 108.382198824406984,  5.107861775724818
17.146394031605396, 12.329864389534979, 79.712037299280240,  4.991642921540197
11.741089249624475, 11.071493989462788, 57.195211319890873,  5.266465645407802
 2.010561542004202,  3.291275818938158, 81.986592347613183,  5.510711633638865
17.292053299019067, 18.539026423491332, 87.056882617461056,  4.477206361251279
15.786143056518203,  4.898082640554262, 114.098188294872472,  5.428878626785512
17.930794819236098, 13.663983568138104, 34.579549632778779,  4.703796918139068
 9.766314824917636, 16.160790479422129, 53.439845241594220,  4.882519794465438
 8.145984020177467,  1.268548827261468, 113.031112974308869,  5.041684296635315
13.805829683304667,  8.320804489463974, 10.765775489972933,  5.280832318035839
16.117481267058999,  3.079382562647139, 42.362559261379403,  4.753627695668238
16.575294231025669, 11.131324227749234, 97.521330070197408,  5.317062782278557
18.365436294987123, 17.534442894448318, 54.542580825484578,  4.688697818852211
 8.463209055032426,  9.209354090017017, 107.612450340147646,  5.179481521381485
18.031290976858479, 12.143707959938471,  2.350967405441384,  5.253575297296383
12.591847773375498, 10.251629357089366, 19.626511496252736,  5.053200579924878
14.445331102414652, 18.470931418405737, 90.641525007180007,  4.664667924378969
14.367926169336730,  5.355394546550064, 22.103966499054707,  4.850467462423674
10.630181583803205, 11.603094667370410, 46.799543744142426,  5.213101164606006
 7.802093179002250,  4.785159669994747, 81.452852063565530,  5.108102233953423
14.805201634223760,  7.382046030826792, 56.206653036093527,  4.526068899456265
18.733444828741838,  4.757774256587298, 65.736792475771566,  5.015034667569387
10.346866643136757, 11.292061333148927, 62.082915838042027,  4.906704720025609
 4.893471801852942,  4.609329663446783, 110.989690929586914,  5.135199481541314
18.108042100023294, 14.593068268942906, 12.696102518523771,  4.468755408736198
 2.792609408373829,  0.682497273914456,  4.690950828360450,  5.027301670759614
 1.462070925797994,  9.319030599531873, 38.226181697490155,  5.284898736039362
15.878910691702151,  8.461173519297342,  6.011719480842554,  5.087877202849254
 2.156248861155860,  7.260089722355282, 17.032498574077408,  5.033119397489562
10.314851428603886, 11.902345510801391, 51.626883240518126,  4.434241255891438
 6.777539740446761,  8.503948934244368, 102.473271553347359,  4.916600868561813
 9.287904038723040,  7.279117170892921, 71.495412186843225,  5.343074031383587
14.823600492897276,  3.430697276525985,  3.767020623449292,  5.162785889803999
 0.807124892058596, 15.302826400452668, 25.458182155719204,  5.039468885490361
16.456045411807921,  2.837115175769453, 104.272234179284808,  5.408874850515451
12.182991522598650,  5.001871585181052, 26.538235310926769,  5.060055458498185
 1.978886135479468, 13.394019860130619, 95.318855090721897,  5.137520335724756
18.676196622246710, 13.918244046508546, 44.191791783576768,  4.715171226792694
18.304454984876486,  6.826946968746197, 45.559514724965808,  4.847608105952033
11.225454970817605, 13.107333195299356, 27.343756154015839,  4.966636589892452
12.826884973592904, 17.531979584220863, 103.983162998678893,  5.182175081814168
13.377653565890771,  9.387077847029600, 109.097709263386207,  5.077029654983938
 6.945167867721325,  2.516830849770491, 101.761726298525986,  4.606051530027752
 3.499467062710953, 14.361580594888284, 64.363139800097898,  4.844421495555784
 2.323743389268928,  6.929171489632908, 61.771539663101130,  5.168630637364944
 1.659652058274153,  0.287675344588731, 64.526640064768742,  4.837321653446146
 6.435910594703545, 16.335393402788270, 18.713334845350463,  5.123392432887285
10.113438961495543, 16.143759355224340, 43.995571561937574,  5.386395528106814
12.516516528814916, 15.412647405188638, 35.696004959694029,  4.745210287397378
12.623894754064557,  6.418844962648458, 52.068695444083680,  5.022074535492711
 7.005084784782037, 18.142885624337879,  0.334127074055723,  5.138192019103490
18.651069621120413, 15.545833143734265, 99.468418574874121,  5.105184294368287
17.613524653975389, 13.691657097269719, 87.548405832316007,  5.282812922403935
 0.106622917428206, 16.777924639359600, 16.615468338880685,  4.634426190232223
18.009907238398718, 12.339860974372050, 69.840962416602878,  5.197968220772591
14.946768041558888, 11.603477053698215, 103.528706797255126,  4.641559377016862
 0.925488323594612, 16.192231467540768, 60.756694139136357,  4.736044235771290
11.217915395027923,  0.669437666204766, 48.605179987772040,  4.635871419679055
 6.196746876398302, 13.867835048835707, 108.217996024557976,  5.251215458694569
 1.399977553488721, 14.072608708545477, 30.293989406723998,  4.994977216573243
10.623633141829634, 16.208558114662651, 30.956158238329689,  4.623463753602588
10.172377540702081,  8.512243095057071, 66.552870455865133,  4.954639882694461
 6.804777870709557, 11.157510011472455,  5.995886129822232,  4.948281269998014
 6.093124023599215,  4.797871567673536, 89.547918140146351,  4.921623542417594
10.080023305956567, 14.072746415611970,  7.595538401529926,  4.373855499310591
 0.578640488110527, 11.216182117563362, 101.815897905790194,  4.828060545110546
14.303745216783010,  2.759076501101203, 30.516117477587841,  5.006164156782029
17.604876897776478,  6.763898690523130, 25.736447204657161,  5.247111994460273
 0.117097198945197, 18.441997967983177, 37.094183955793127,  4.821483224475091
17.992913401384655,  3.102513230177371, 61.212982094961511,  4.730767638626467
17.202666215156423, 12.337996675010963, 107.714839816528084,  4.968317745219408
 2.863545986970184, 10.115372495893487, 43.178425118658893,  5.122987981387889
 4.799497489609245,  1.054308247884437, 38.092523756264903,  5.140788903836047
 1.263502550151907,  6.268430479860077, 76.255514855458799,  5.324366286037558
 2.213242832720468, 17.021627022161681,  9.603182457826090,  4.999341113947537
12.733509830297979,  9.150862268041102, 114.099948945757561,  5.013871141996146
 8.409579441509790,  1.145119787297763, 74.696146158014997,  5.026142456610244
14.215150411534133, 14.767819760286622, 111.769430773579344,  4.920485132621540
13.116362289734791,  0.703535886601796, 112.675328208809901,  4.903567658000952
 5.951816786212054,  6.155248036758135,  6.269806817742060,  5.209587423607428
 2.907484172236013, 10.842790982833492, 33.636922436864417,  4.758337185148877
 0.231188796804623, 13.058478970705911, 52.791136312650735,  5.001325474398027
10.287304424335700, 17.020889587012650, 92.491671493504754,  4.887191695086026
 9.657467282423061, 17.618058883622943, 99.798272878835007,  5.317995872753269
 1.674280583704448, 11.175575604552231, 76.092661271756086,  4.529269997944563
15.245374243851161, 18.182043666061521, 45.522887883572835,  5.040104159966516
 8.771820557201600,  1.901977193149738, 20.265304118958866,  5.187064837448355
14.289540356837007,  4.571583235794071, 63.838309829533131,  4.653695144984846
 9.074582556449926,  9.432722852605162, 83.467191030249055,  5.218333897785021
 7.562350613126370,  5.787435569375406, 115.182677141952368,  4.366716376637675
12.491213801088744, 13.330760010449454, 79.178592802670437,  4.531384823028764
 7.574279157599676,  7.845942655162218, 33.687843747623390,  4.692730804980689
18.125467812176524,  8.075153569250682, 110.595675177445358,  5.120842639768869
 2.840178084315550,  0.740788771719844, 104.583712674407039,  5.354814043577401
 5.884733406405391, 11.547873922939088, 37.309545140913841,  4.786624309717692
17.439834441977307,  2.017638390519979,  7.827921146762109,  4.876360841964435
11.776873864592192,  9.930838819401020, 99.436815775841822,  5.290346863479347
 4.232195739115432, 13.563108942333079, 90.772651148585993,  5.011263319939747
18.493591569760341,  6.440383042005664,  9.821606409041483,  4.993446208980870
 9.564605579904985,  5.616387116380340, 48.163611958949943,  5.028365008036988
 3.120985313550786, 10.433195870869065, 58.382124840751686,  4.704393438586822
 9.630966939021562,  4.524877699206282, 30.826369528998192,  4.964173793564832
 0.946331916857866,  8.504717853269891, 29.957835032095925,  4.788932576451415
 6.812751666499708,  0.131301969226474, 56.374649811370887,  5.049633439371265
16.845599003550543,  5.658490904162643, 70.356906858997903,  5.125058857188291
 6.989365021654948, 16.713757203287294,  5.217985835780937,  5.039139543946074
14.419928006952597, 11.871624059871806, 83.907216787798944,  5.042651735320740
11.949526677762867,  0.547213399995276,  0.646186098450272,  5.038837286451184
17.127862124515605,  3.085985721574872, 78.668960150547903,  4.359612803911235
18.077385373314936,  6.778138451932094, 95.290059878323333,  4.889384812274503
17.595349991452593,  5.388016310636755, 90.730633021159832,  4.668476392281006
 5.568491417706803,  6.785283173201845, 67.994351435467223,  4.909976814473475
13.681463842842120,  5.074794022657783, 97.288010881077739,  5.341012473116489
 6.025163569654574, 18.013354661200761, 66.127864926949499,  4.662697187233605
 7.541600193183327,  9.199865872677670, 58.911507053864426,  4.522719577869723
15.227020595184566, 13.673540345337688, 75.244070933416083,  5.061705758539649
11.408949003180251, 10.509290136010703, 74.849431609509892,  4.879268316873970
18.165247447016636,  5.778780712375337, 85.887898364376468,  5.111376705791360
10.521037738851838,  2.620094175847262, 44.220965588580214,  5.052201258891416
15.995834442051780,  6.615474406745343, 38.895637131662802,  4.844601092897952
14.260077947438747, 16.458247609080765, 14.926152571379459,  5.174349148915929
17.163254687088461,  7.403378946188186, 80.410089269998764,  4.950480720292695
 8.911238793835867, 10.539961193409379, 10.490105454699455,  5.033342855311520
16.758646149312707,  8.064985358678921, 19.167495211350680,  4.399141217791225
 8.029898766123559, 13.680250366875736, 65.592524432835390,  4.630381685907698
 4.841669250260741, 12.967810146930386, 50.843960261364614,  5.003761040054491
 7.643755920639788, 10.519254543152393, 96.354197441390085,  4.853437163147190
11.406841963153573, 13.257798325338374, 106.453742767934017,  5.089577866618936
12.274483699168757,  4.209804723158761, 68.356790513679258,  5.264489608884462
 8.720991606475696, 13.079022683971035, 102.159996305258900,  5.019131708281019
 8.048651121857072,  3.123218482241314, 24.918315675203257,  4.540926145692580
 7.793132343200387,  7.868045668003511, 52.333466763378453,  5.078264303347727
 9.172951323262341, 14.624535914399567, 83.040939928287884,  5.191016187337464
 9.380412491403140, 14.506695227538254, 13.942677289184546,  5.119996136059872
10.094451945941314, 17.511118364744888, 78.865626710637699,  5.124397859560395
10.579073561209654,  7.686601072818857, 89.873807278968954,  4.731665583659165
 5.880924264453490,  7.286516061440355, 39.612022049481190,  4.824769879150518
 6.738074795990429, 15.517208525647140, 95.858151488565994,  5.340307779809612
 8.619515883684949,  5.849546352371165, 98.611861945852979,  5.146118306992507
 3.307893039002561,  0.498495333017127, 73.869375652504857,  4.709989621990107
11.983518053494876,  3.630872347492697, 92.461840978182295,  5.289707776435765
 9.359726128739002, 16.293678940683584, 23.044536837110055,  5.243834039209537
 5.142428769112735,  4.012453673463080,  1.608797400010409,  5.172076183271971
 5.956643691474605,  4.421861098105031, 59.053733566686390,  5.198631848922231
 5.572407300750389, 18.607362805193208, 91.207429478298494,  5.373991956052773
12.033435362762463, 10.746344874102858, 42.039927988770579,  4.856924193554330
 2.748440157626549, 14.194568532298604, 72.911234578536721,  4.422260141438039
14.675834823276402, 18.298650153928705, 77.000578857322310,  4.890149021653777
14.372397257539012, 13.435240091104568,  5.752416562681967,  5.053939427439816
14.193028929305035, 15.127204072523382, 55.283922338565986,  4.907358457955682
 4.510500156262574, 17.481004851038115, 100.121708893455974,  4.997529440379060
17.752584135993871,  6.937857369461067, 52.136292338067584,  5.278012080954069
18.184290059216703, 12.033772884823414,  8.715487418401965,  4.988548897602741
14.610298569770256, 10.824814951232248, 53.060709842232079,  4.807045838448370
17.704893533920529, 16.078639359854161, 104.430864767820282,  5.034188852772922
 5.844122715462883,  1.936132111054562, 85.421667546844674,  5.132223138233192
15.910576761461273, 18.346702356641284, 58.616053281234244,  4.960137315487453
 7.968248544684224, 15.335599614864327, 87.946438890991118,  5.002637911304563
 4.551766718654418, 18.751104198016012, 23.078612337863163,  5.532467492920488
 7.384784869562635,  7.452285420557325, 26.777306126655645,  4.960522834582198
 0.672389895210573,  4.305370794965420, 21.230302146195616,  5.650238934528877
 2.093770234231352,  1.148682752613372, 57.868404040741126,  4.882066672476343
 4.546877479414339,  7.051899098173038, 85.063405250854913,  5.437794410127634
18.610417566424108,  3.237906786586947, 98.544854724373934,  4.398998853626402
 9.602164792074738,  3.587905245041811,  3.908242326724377,  4.861342561791256
 6.964276183503662, 16.247838060081040, 10.049025851894239,  4.666569509936149
 9.786588345314341, 14.065467856730027, 39.361932687668983,  4.783485331952311
 1.054884215992543,  5.379996881711442,  5.142283714077688,  4.952673412177234
13.896701718787039, 12.480664190808366, 31.762982909379090,  5.413932798754470
 9.501876820638874,  6.818265548584978, 21.991325198318282,  5.311350435062062
14.387341735772408, 14.281692203960453, 49.355947335242185,  5.335700109720523
 0.017695014146553,  2.045829967115874, 51.119012837684735,  4.789932771183555
 3.412969580933262,  7.791366620973068, 98.209795037583021,  5.380892450102237
 5.754475588332269,  0.257162930579985, 108.929045728629106,  4.647466925635006
 7.927420112735705, 16.712201185276012, 35.859761834571941,  4.731521695865636
10.389099022008789, 14.693949494734932,  2.159335826063131,  4.958349080707269
 6.039200159589961, 10.751862904313763, 73.876642991104262,  5.273397880965260
13.758805586682161, 14.583291820908569, 100.005964807820519,  4.884032379001231
 2.229477364181117,  8.435947136596376, 71.290480418500934,  5.034123107228253
 6.079645369583630,  4.900486849756205, 105.957981610576539,  5.199510572925382
 1.920031724398421,  2.472975187630768, 88.678645476571745,  4.760141331088565
10.739307777926783, 16.544232588280430, 62.998460498876547,  4.789963319478209
 4.259953106589102,  7.958533453659320, 79.997812363343570,  4.838155733221383
14.224586998480241, 13.752565007872208, 44.618437498015425,  4.190994513816853
 4.540736043588045, 12.201579821995450, 69.211181389352561,  4.712228528718107
 3.120692305480955, 16.590341762123074, 86.857044247743389,  5.133090065960144
 2.058173556129930, 18.355656948959997, 95.975244059710832,  4.787807394441872
 5.938339916459140, 11.164040941367842, 29.890407208033597,  4.867374941512753
10.384026564746819, 15.891373840611164, 114.655828802554439,  4.915248925689443
16.916543414425046, 17.497066581463354,  4.028425068530155,  5.129614984076073
 0.572254557970044, 10.381111703512865, 83.882996944961704,  5.177134714286764
 5.987596617853781,  9.432291152522616, 112.487225560947650,  5.195525200895942
17.260236486359720,  8.931657523535565, 34.112122113743823,  4.882405878971903
 4.411891882843030,  8.313434390945281, 21.575630819189662,  5.326516130234858
10.330088117388478,  9.267250398415030, 30.154214851788723,  4.708255635352203
 0.091339890296709, 11.530193463621643, 62.068406954772030,  5.063815750006055
15.999809603718511, 13.969101142696488, 19.308911511281334,  5.039247619388436
15.902919293852230, 17.778334384959152, 33.274125169997880,  4.827074946576474
 4.212344630496975,  5.178228256736947, 44.332916628297887,  5.359531537213210
13.663571064632727,  6.748048212027543, 44.214382614673532,  4.811606331153715
12.990608675780745,  0.628918696625970, 72.248873305758067,  5.407792357103929
 8.186359147991581,  7.919359474062690,  2.146108062566881,  4.786946892660199
17.779774537078527,  3.575566574150730, 34.149101399913128,  5.178563355393863
17.077951491013753,  1.591933112058459, 25.463832537095733,  5.160208098632074
 7.192747442110792, 12.004760443596922, 55.112768891791653,  4.905754578126452
17.201400068925484,  7.189538363576131,  1.296068465515809,  5.011873817449823
 1.824024345105134, 18.510852295112400, 32.616871288508861,  4.741568305974043
11.675072830679451,  5.138120311340750, 40.225472861797073,  4.659055985736694
 8.918349825371566, 12.449665663256313, 91.760177147841375,  4.738078966487230
 6.284189691336811, 13.467427961489397, 60.421446038013308,  4.866284313845743
 1.278056005922428,  4.627012725359793, 107.524963976046024,  4.878092663223926
 4.955578237207101,  3.045599597342183, 77.706233486786687,  4.890691996108401
14.713462582755746, 14.800160455831701, 24.131621012808775,  5.078091364961282
11.052301266623063, 11.655670346557741, 87.407147545209853,  4.647574547769417
 2.185813251983530, 16.439201475549879, 68.684478891560261,  5.038783128191494
 0.512803834887825,  2.981379722311787,  1.198637973058743,  4.342263091614497
10.688002761217371,  2.601395945483373, 106.762193948220826,  5.209541849762428
 9.426712882163960,  5.656586821435229, 12.151103629617484,  5.322452601223273
 0.942810320396772, 10.990425860098389, 48.115491738183010,  5.288168757359115
 1.523510571110636,  9.355308232370080, 88.790446762492735,  5.023679359824822
15.646950627639319,  2.154994773243580, 83.145178448876280,  5.248054013002579
13.273992181260235,  9.503040039903425, 24.556824950421458,  5.012571734543045
16.602338128121048,  0.610130255931260, 68.163296888700557,  5.493623901709777
14.895242204585260,  7.685934699940569, 29.962745262480581,  4.957253577542840
16.511585639652221,  6.432885828791804, 14.737971224704591,  5.045072782203505
 4.096852807439037, 13.446600455430607, 22.148280713439515,  4.997989285280199
18.737837732993793, 16.538689339824227, 82.529814505855541,  5.547007083458501
 5.850924106471011, 15.001549502642515, 26.654428412282353,  5.150060266691767
10.159545980351471, 17.038557595972222, 109.545316095673826,  4.981941637221633
 8.476438643077177,  4.257291936779528, 36.767659952483598,  4.922741861095496
 3.214059975560856,  9.240998009191784, 53.743010533359943,  4.869719519603401
