BANDS
8 8
NANOPARTICLES
cell(1), 18.745
cell(2), 18.745
cell(3), 117.159
 9.629359748402441,  0.208680071918629, 46.921901584005397,  5.091487336085829
 3.309317646824170, 16.334718299572472, 112.136070646746830,  5.173644791068537
 0.763398503321155, 10.704292283118235, 101.262547343209775,  4.718813673768138
 5.146768793038260,  8.121394951735198, 12.855984830868428,  4.983738044663399
17.444441171763980, 16.407260433529256, 65.410057000234360,  4.624488570032032
13.306053922738991, 13.310544892517871,  7.799541946247572,  5.035093876099275
 4.802528949499784,  4.185476356082344, 76.805636075835110,  4.797513462337839
 1.786238736539086, 11.138342104193985, 49.465272915789519,  4.633791967527866
 0.104262773235731,  5.583510637082204, 67.353382048916814,  4.779349074703667
 1.897582109783505, 11.957191360508245, 11.937414640308605,  5.221771733188194
 4.170932423307365,  8.457549040056920, 61.877016946246187,  5.297758397638357
 6.382129660030832, 10.055007806461340, 57.407070579417606,  5.171397213145887
 0.277211048664640, 15.870539886403883, 38.675264418842680,  4.946668537775391
 9.505406927446369,  0.950910891569017, 55.225450428717224,  5.012026768423314
 3.143200303073405,  4.904703177907249, 72.083049687398926,  5.216039576693458
 7.341122233489825, 14.146513973908792, 114.419015939486798,  4.902158043869809
11.170634338865055, 12.991286725218048, 59.100436022583345,  4.825671244008908
15.846955147810627,  7.481254795414047, 46.742581361128018,  5.270014338732705
13.569959327885535,  3.478087240139002, 49.106518326537199,  5.073308511815580
12.663894196448048, 10.972654114227961, 64.573588544097973,  5.017768983093991
10.082417503055389,  5.126787717889668, 45.835381670865935,  5.018828129284550
15.423950800524633, 11.261705776866814, 30.055376357741139,  4.840384869624375
17.081646511393409,  2.324105410975936, 117.131944998554005,  4.753362124603992
17.173426525620339, 11.739710236101338, 77.374400465573075,  5.445418689983428
 4.125793647908675, 18.505901856056159, 102.236162544760461,  4.859156511872782
 1.710566876284961,  0.123488506457694, 95.788733484689075,  4.717994486104153
12.517001019748349,  5.166745697478786, 97.058682971475122,  5.087871586645711
 5.857053328034174,  4.182409069963804, 101.911141822099111,  4.659711844233437
16.035613399926323,  7.178820805246502,  0.317001612842404,  5.171449892912532
 8.342150420354518,  4.668926527321423, 21.835032620554674,  4.858123551291360
 8.888520043267716,  6.835627940267431, 75.674891649318539,  5.186279947057248
 5.960479224088085,  1.837937002551580, 111.220975150652222,  4.931149500475786
11.162327302154321, 16.592435693038517, 84.746403662662061,  4.864100609843617
16.782375631817519,  5.297480956397280, 71.795653904540103,  5.035098992982921
 8.638615233749203,  8.026229564918737, 25.388014492511417,  4.931137864868439
16.356094818683445,  0.419941641643918, 35.676388178438437,  5.422862690573723
12.754970764746453, 15.867831795805193, 67.582597485962353,  4.819505797534654
 4.952181998552305, 17.571178046170996,  0.025063910717776,  5.103020486411310
14.237930952085957,  1.819869213991267, 31.206740822558334,  4.834506659446657
 4.664747684391024, 11.548096040426614, 110.809855817837175,  5.104655483668127
 9.999811703205962,  2.454018525859004, 84.841131908861129,  4.640211052214953
11.551858265153557, 17.928851720263545,  6.147330580853340,  5.367610983521527
 9.985046423059000, 15.893537002724900,  1.615587736822415,  5.048903354770314
12.881166019261563, 18.650071602299420, 104.836138294361319,  4.860589284041134
 7.321209849200300, 17.869578364780519, 51.195323446409148,  4.847848265074708
 6.836729947664977, 12.704483936719821, 12.500865759343650,  4.794799262685864
15.850151718256217, 17.323152144776984, 96.275976007080658,  4.933852503235813
 3.582053398842514, 15.372300671720941, 98.521089436116483,  4.910133119625396
 3.638144354970375,  6.160217904050202, 111.709370580365004,  4.917555028566087
 5.286366123566217, 16.336796827577050, 47.027392248120350,  4.921066280171090
14.008483912482054,  5.330374883095928, 109.434760782734571,  4.790715884407039
 0.884464935293929,  8.593089016964147, 29.974116433533307,  5.116670358699307
10.657374864851423,  4.071856006904229, 27.613191535969474,  4.972761172685075
 7.708192904497047,  6.391675843976809, 16.890201478982632,  5.171656124959685
 6.838157017612571, 18.376255861935913, 42.801860054955121,  4.922581353678744
 6.021064969711306,  2.952145941597745, 38.844288664561077,  5.518160593763789
 0.362733688736103, 10.695947195156842, 72.635799248483423,  4.990750088131275
12.696021954198811,  9.684246212678840, 79.486986162992721,  5.195076879149815
18.085147226477609, 11.200326926175878, 16.116207983191156,  4.693234650983624
 8.001002468313599, 16.044875518732102, 16.069212052043895,  5.248760309464237
14.923626294752824, 10.591224021145896,  3.914102836282619,  4.964662671347226
13.274948670564136,  4.875045849261629, 104.547405850188397,  5.125220349742436
10.514471549824163,  2.664879761918007, 41.506390351604054,  4.942848418164665
17.240651476563588, 15.424501830579365, 43.460671519997241,  4.877472109277529
16.729926039945020, 12.532974165907341, 94.890477323773709,  5.192432236407714
18.727182648411510, 11.035749441403032, 39.760502920037133,  4.972594670126401
 4.391225901589353,  7.661243413555516, 88.802331410754235,  5.337828491500249
13.658973378930952,  5.768842378329637, 63.706426448139084,  5.064056589304260
10.806184787965314, 15.231678051622607, 20.173887196508002,  4.825189002422499
 0.898166406797694,  1.978724706035824, 39.727030463992961,  5.057337890916250
 9.488794076578857, 14.155180768954070, 48.143143293250809,  4.807726097829322
 8.943400777647515, 11.286826221521599, 17.642079277416872,  4.942922217396400
18.379091414577438,  5.466536172708317, 89.579582554239039,  5.226418783798556
 6.190694908479825, 15.561652978572136, 31.458525427161359,  4.893621657749915
11.808182249777586, 13.674303791583316, 95.804668268124018,  5.073117350352743
 9.551341496816713, 11.331628966323771, 74.073798838988338,  4.439538164375117
12.014251211008011, 15.046560358958253, 25.544193922737694,  4.812144086794862
 2.143498031079905,  6.900270265292931, 17.470507306300213,  5.005832880653902
 5.703268712137088, 14.134787257462794, 20.153105577170841,  4.853625654904079
17.449653898266803,  5.057254038426044, 112.997261127173985,  5.128917479626654
10.183640480395319, 12.969771233209297, 29.744576571784926,  5.161727559275898
13.583196111110516, 12.814973970335945, 16.847241827644325,  4.872747021501579
11.212602290072098,  8.815093909719744, 56.514963937597948,  4.952508757259888
 6.733000363761812, 14.656641773038825, 86.509713315463443,  5.424772077181493
16.506761413916482, 17.062285188022393, 77.550993263912460,  5.287209331620179
 7.880659674801376,  2.237656482130556,  8.044185960563970,  4.891839467934632
 8.190434285066999,  9.873231494296530, 52.747099088152382,  4.827968026690971
 3.746754461036728,  7.308912160533113, 51.946450249807249,  5.124301721808194
 2.183341954369118, 15.694722163612633, 107.433669785051961,  4.575079417791965
 4.853119844609588, 11.717536333736181, 46.085492571284874,  4.538987994896409
 1.311309108128803,  2.158586363677178, 109.668269716803351,  4.854384250425036
17.121518774550161,  7.779925323234768, 80.525761617007987,  4.653964243245889
17.876871879630230,  0.694228527834398, 91.673246141355776,  5.036770356853245
18.183015521527320,  0.497177409914800, 70.555201670961551,  5.183051051270787
13.981689169021610,  2.411558466469207, 44.551044792764692,  4.296995210775473
17.634513361330526,  9.421525290265928, 64.232352563366632,  5.406458921982558
 4.362824096272899,  2.404980016267387, 48.224480519502173,  4.859964488081806
 1.478647208868608, 15.191142336178883, 74.312917811483302,  4.859064788703128
 9.557822982960831,  8.157003137761160, 61.639556769775325,  5.213243141072372
 7.560099453757625,  5.658790481890735, 55.078695163956795,  4.883305906524265
17.553840673175063,  2.333811662610030, 63.706626691851376,  5.319414869561932
12.512904115780445, 13.955310189155425, 76.636632228063732,  4.967978016888196
15.612422264906749,  1.270035882581037, 53.744635755156494,  4.748352385648179
14.738253137068552, 18.599354311559853, 10.823084477360613,  4.931367205937403
 1.195291641328973, 17.587435872470738, 60.843358062967695,  4.709269989056309
15.610673166430141,  5.631719756840709, 28.073523972655192,  5.403630868911103
17.385235150466713, 14.245466384117117, 111.918171844467224,  5.041869071297088
 1.009171151029025,  1.536588115636865, 75.258070824398018,  4.931284166090742
13.918226653265569,  8.954441314485866, 112.998851663823999,  5.338478428717002
 4.909835966548208,  6.396316377704935, 66.571429061097788,  5.056410593183509
 0.530019373762819,  2.883771742077787, 14.876681638695691,  5.075199472649943
 3.623498080397459, 16.429554832502557, 53.685274674155998,  4.517794536671176
 2.269658838809328,  1.908055989530802, 114.382563249590319,  4.779246384817536
 2.838187425493377,  3.237582016493480,  2.078452211870232,  5.348748461529802
 0.507666971710565,  4.725840661185640, 33.285347561328017,  5.068934184015152
12.156731022521711, 17.832071182516962, 51.252070094286154,  4.800379234131283
15.297950040381412,  0.116452861810554, 59.537374638746279,  5.141289031570826
 2.206654136048148,  7.904807104807988,  8.983874372395661,  4.745909608446913
16.798360510928049, 14.481451657267394, 33.568024310175609,  4.810009290879229
 0.208205366013776,  1.314547021160200, 104.646848277595680,  4.840746341348451
13.276749336225606,  3.083764908170544, 92.410189224876433,  5.202914229440539
 6.743103269782427,  8.141069919433392,  2.262672234373266,  4.846978065278531
 5.183785263245693, 12.274211463526676, 90.750916177005180,  4.778237517086568
16.929159041296316, 14.685628535078854, 51.545400274032779,  4.877503551258615
 4.399920717388498, 18.530095881669340, 71.966379617715475,  5.140709399825620
 7.440944249175923,  2.509133228619369, 80.671487119737847,  5.018416905606931
 8.502335287645144, 15.948610880628930, 98.897782855346890,  5.017941446629176
 5.676104345679611, 10.458776561708246,  6.543085785728722,  5.090991808029210
 2.540153570999678,  4.865693373056177, 95.170179489223784,  4.750047597999012
 6.050851919314666, 13.214051880790572, 71.302642710562296,  5.234122506427947
13.610435232356709,  6.064096322916598, 88.471279323893000,  4.631673878676929
 6.384377575173136,  4.412207030733318, 115.559823734505926,  5.132107780676829
 4.837153940819507, 11.323484395647450, 38.399652635732338,  5.123790836144013
17.506504593388506, 15.772406656056964, 85.242572478443407,  5.195679117019100
 8.038738866399349, 11.598181630471228, 78.559888377062393,  5.041081976598702
 1.024781598664350, 18.146573182416372, 11.161359295640978,  5.154771548788733
10.514967022339317, 10.214090402687484, 45.165626710305744,  5.271642178561014
 2.239734741738708, 14.734961987107599, 93.568740502933366,  4.722332825991818
 2.495910445453089, 13.480897491599613, 63.660563586650390,  5.513055396004876
13.080657457185893, 16.224914598852745, 55.801406231290137,  5.020375148099302
11.749487885660294,  2.248982927175981, 36.834081344499772,  4.750762408762785
 7.958502818391528, 13.640378369267674, 42.513225776931343,  4.783432635554083
 7.916882261674022,  5.368162877884644, 98.094157971960755,  4.324649581987424
18.644314258554974,  7.463007569389710, 13.139439082519168,  4.799696945668070
 4.243354319314011,  2.412190610808836, 53.263571596406656,  5.054476512871966
14.135237297413896, 10.440240715121559, 73.290045366144241,  5.020528802239991
12.453609718266140,  1.461658204526881,  1.125355589828523,  4.935073051106658
17.562946893041723,  9.772740542124911, 34.396019363564058,  4.871469810623237
 9.308682159354204,  9.591390660424777, 97.076408835001843,  4.798395901224005
14.738679148384060,  0.500734306817893, 16.136681538419175,  5.461507595861839
11.057992168333067,  0.613373875355240, 70.233014721009084,  4.564366632556669
 7.823629573511567, 16.051119785248193, 81.038426284007798,  5.147731808050475
 5.297188780333354, 11.184995903783499, 29.130650068009491,  5.179523651496001
10.047850239823873, 18.282274816539267, 29.776861323352488,  5.117864159006792
12.249818597677546, 15.702333374223619, 43.952182604265090,  5.150925869758529
11.213558229220171, 12.466373016904154, 100.740524309090262,  4.531149763851539
10.681847915923109,  8.069819833953087, 92.518658995725730,  5.194811201081894
 0.333001083752243,  9.660189511910179, 112.267680202103648,  4.743476453334703
11.671740611551318,  8.152383037283380, 30.145829757431535,  4.820662930179619
 9.487751029218623,  7.876367119619153, 102.108964795459144,  5.643803491996318
15.410781191852783,  5.011235733017256, 84.108634107679904,  4.984686962494705
14.521296814507274, 11.521798673000504, 42.307197070502980,  4.907378342425465
18.368633909413024, 17.532213123619947, 100.510014190250217,  4.925262847187876
18.298590825302831, 11.501206074446007, 25.969687474874739,  5.113469299598636
 9.855309559356670,  7.011946297860128, 36.536227666543425,  5.133300523291958
 0.589591689945651,  2.275671202643493, 57.024812611191557,  5.282852955399629
18.030943072626911,  3.005961607688626, 46.427080336083421,  4.705948409741555
 1.903482397902081, 16.229515011980112, 22.410969286423121,  4.904361292275310
 7.695977877064379, 15.492020790319337, 109.468876669565361,  5.187180322550867
14.314816805191496,  5.915232543279764, 34.138274669040264,  5.226044205979791
16.806806482658796, 16.186046500792802, 25.366993720260080,  4.791089049359085
 2.785339281221509, 12.459997717991989, 115.417689042472233,  5.001674864706754
 3.956788771021970,  3.585791655588158, 11.134385952955334,  4.999784150126043
14.083360562463511,  0.975683592076530, 26.622635656015497,  4.462150564862109
13.351971947448268,  9.799459851389340, 25.755897767459007,  5.121521572161328
 3.093289151211395, 14.018201101628007, 42.312166917194773,  4.966321470847921
 6.048544775275976,  2.940639501118924, 25.900915719786990,  5.073465331532888
 3.491038071893074, 14.796496809938040,  7.982912490028719,  5.014123131681683
 6.445499393867485, 17.430651492302104,  4.868082692426882,  5.033132545297492
 1.007817923431971, 11.493254759580248, 20.758175306823563,  5.177313698411012
13.177011935949464, 16.737546781992467, 100.357800285995424,  4.892319857235520
 5.631994665988582, 13.405105957429233, 50.831327726919348,  4.696164217620557
 4.175022405072378, 12.495130639953810, 24.473631932121627,  4.752070943594052
14.425345392927253, 13.952207166750755, 37.912133423085493,  5.131644451519258
15.331595218106536, 11.550649699476404, 55.936366156261947,  4.971248683114827
 7.178693186143962,  3.196464921417579, 69.602738380208848,  4.839863423841162
17.275665165129492, 14.244205886343375, 104.348669053595870,  5.412773960789447
18.192392874034791,  5.936810880291786, 42.450111404045124,  4.942287661594421
 0.524447207175500,  0.239671804132587, 50.570056178336436,  5.101565044986719
12.296470564475001,  4.828140714453579, 53.769411989100583,  4.963381307591346
17.298452993239525, 14.615128715376981, 90.287276025545367,  4.970371766954976
 9.401984357080268,  5.997676358371381, 111.533201233821927,  5.408958616350239
 6.007199262457106,  0.110418830304074, 21.303213837961628,  4.872680963983933
 1.648800647949069, 16.503326202678888,  3.670923795703859,  4.959891159635774
 1.230727408838883,  9.913285187250905, 92.122442774818154,  4.818792508143284
14.303128686840042,  0.587763484602000, 82.188385368153817,  4.889749972427115
10.073640026304640, 11.656824212922775,  4.321341621791182,  4.998793848716825
 8.486746605545077,  4.037213453845343, 105.963418764911765,  5.000378741203797
 0.730604757173386, 15.177247680957098, 47.589207351322266,  4.508061602327617
 0.063681404146305, 16.618210918004468, 116.110762841885858,  4.997767003235393
 2.109401964628980, 18.651833673015151, 44.087666058566889,  4.892606491663043
17.828566649747181, 11.331414581898253,  7.807344398309313,  4.812042673267875
16.286765361254350,  0.379497951667754, 112.929498911694836,  4.497693761147690
10.272002507091445, 10.292379541935864, 10.138317637103292,  4.718183506700206
 7.889278287915606, 18.626379172974787, 34.983143943233756,  5.027291042322879
 4.407347079748040,  8.471833219358404, 103.498696740217582,  4.911861762161447
 8.222711357291409,  3.620650877325623, 93.655884177702717,  5.219107585991273
 9.854533040196712,  7.121060443647902, 66.649531334171783,  4.926847858623337
13.328258686666015,  4.554580259754210, 23.194509093456190,  5.268114177449761
12.929391886768769,  3.347317238732085, 113.900881104655667,  4.604035292371588
 2.748724637252235,  1.372302643180712,  6.860495409144971,  4.915896511503082
15.524308773620344,  4.380775101541445, 38.711140714805467,  4.693007242593132
14.833608641965451, 18.724038293856083, 40.664531069222114,  5.017651387620221
 8.329989008550093, 13.632918143664979, 35.509277420026230,  5.036480520795469
 5.005306196486293,  3.993615608592445, 43.759814975470384,  4.693814137916955
 8.566570487296124,  3.919204377147913, 50.525437076748879,  5.063888843534088
11.001338745924377,  1.055758247095197, 109.613898260446547,  5.660035853969442
 5.938558292271075, 17.292489137768985, 62.286288340363690,  5.064811702440355
14.518164310903023, 18.431584463520785, 21.462255820996088,  5.308539710354022
 0.328298185278807, 11.048021995692274, 59.367402555490109,  5.232231772996292
12.704545998863004, 14.783523433311363, 110.166959700911050,  4.995228505519888
 5.192100293016992, 10.450478484255228, 83.967132654333511,  4.876743907276259
16.532055001076131, 12.709550609354462, 68.525993912844640,  5.200401302481705
15.807181173584965,  8.773160356778043, 19.468833935479267,  4.748811326887951
 6.664390363237882,  6.301099774043294, 29.612234576649023,  5.009065193428072
15.586826500200770,  2.947056419434470, 100.439289701130292,  5.059634197675118
 6.076722549828151, 17.721330310264619, 93.451551414387509,  5.003365179989536
17.805707557441565,  7.066621154396362, 23.575566324765511,  4.997474696430543
16.336298993284078, 13.460744046605337, 99.556336862980388,  4.349378244084895
10.240486891026595, 16.807736124779709, 39.234086388487547,  5.337455251925133
10.718586879212515, 15.382716136644241, 72.447628401592397,  4.559498092791914
 8.440363100715054, 16.714704064601385, 103.858057353403311,  5.018429904490104
 7.430611836648077, 11.981183573764968, 105.602055609952430,  5.256955085380578
14.002881917832074,  6.129110837501522, 75.970859454586758,  5.132922980103199
13.871537255275550,  4.842396173408011, 13.063777261364617,  5.023530444904491
18.535995436123002,  6.187559961578616, 103.242871155017099,  5.334741767611216
 7.079253429812131,  8.212256692912179, 48.312788385674850,  4.868802485841417
11.778785387858610,  8.146471283723855, 49.844150462994762,  5.013529765846146
15.387345151884162, 17.745482102969639, 47.483465292884915,  5.122367531612580
14.579957113656347,  8.993874474515295, 38.135924153270146,  4.794508010900193
 4.718988310007399,  9.928047066093182, 75.067013005954934,  5.097129218879180
 6.244488694167976,  7.824391021385314, 108.047049151722916,  4.668062517973756
14.958570916571334, 10.657008414004665, 11.892604131992471,  5.257425478166705
 5.441377342807373,  0.738660942432251, 84.940667730610954,  5.049152972739559
 7.518702417912261, 16.808076228896965, 67.443209876632963,  5.671206837863164
 2.861248778067730,  6.689774818021871, 56.734573203150930,  4.660956943463367
15.621723487125440, 10.914571723807969, 108.279842543131295,  5.397228548724263
 9.897835754786673,  3.815341753202409, 32.563544263980248,  5.045018067082085
 1.163506444154188,  7.387923573608467, 84.619854563956054,  5.233932879141539
11.005660895051717, 11.465853252295112, 116.523407918101469,  5.076624935491449
12.556330578625598, 11.058542598021862, 34.113938672503011,  5.102391031041384
 7.221797985198611, 15.701313149418450, 26.481309735334193,  4.944221169701201
11.212417306399130,  0.350527707983828, 96.154148048962355,  4.905898249350571
 0.045249629158118, 18.336860057434222, 30.950966252289909,  5.315088318218713
16.894334375144961,  1.517681746625221,  4.854639900725670,  5.122117330415700
12.273436067177094, 16.370930944775420, 33.995610504788417,  5.026132820018466
12.206650378009030, 13.796040764833990, 105.314572299930617,  4.945575184700827
 5.725029648327662,  9.040777963898803, 21.050117515485152,  5.448891737478900
 5.699713486305787,  8.439772863638808, 93.858222016578267,  5.141829111146166
 9.224288193021675,  5.692824251676796, 11.311861765148320,  4.990540019348569
 3.324694596669607, 15.612293388372628, 82.927133437531893,  4.645931646311387
18.096773740883158,  5.133407582131639, 50.762835852774813,  4.934310279980791
 9.973451432264016, 11.919531983676141, 83.309826160471246,  5.194430856708461
 6.542747522200713, 13.163893822068301, 95.302501048323379,  4.878516634737179
14.228769064567405,  1.360437456376285, 73.900948841955014,  5.244483645815566
11.600261116090437,  5.334088344071798, 71.458474393187288,  5.212839115762206
 9.606712762022248, 11.126666929166010, 111.315259111055013,  4.853057319448367
 2.372139738807300,  6.917623412032341, 46.892225904594724,  5.298562772798104
 2.869970180846347,  0.640020057722288, 35.220420280368899,  5.129670260977348
14.558137819452467,  2.964575485686543, 67.924894144377490,  5.038925546481512
 1.754708441588181,  3.140829086401322, 99.615864897331690,  4.911312325975744
 0.292766770520264, 11.883142567656645, 82.278201358120882,  5.051148251998497
 6.726476899110318,  9.306037435563665, 114.745123197719394,  4.779069128954860
14.918818062757484, 12.984679517325944, 21.992734716132080,  5.222290307936497
15.168097379499446, 15.679584336687300,  2.842804633107495,  5.384537763761664
 0.392172856926766,  6.902771342368891, 76.075583501843184,  5.246634827495154
18.442503767282179,  6.471741678272317,  4.897376245951477,  5.249665548504900
13.444114753237987, 15.877960750958188, 115.047455217133134,  5.107195182342062
 7.181314360805280,  8.095848450141901, 70.888433898169666,  5.270429275193061
10.924220495936099, 11.514652738255810, 69.399878376096041,  5.293387174072754
 1.779791857198210, 11.020801449732762, 106.751590527565043,  4.869097913119936
11.289619751607482,  8.635621006239271, 14.462860136538225,  4.562209757213973
12.701862697989151,  0.472827220535388, 63.930338894601284,  5.081767009946851
 1.111508713009984, 13.551053995930998, 30.100909306974284,  4.616494639944004
 3.093167229442995,  1.460697851927614, 66.827920454478459,  5.398931070303124
 7.987479784098331,  7.216599673447822, 80.415074457984545,  4.473290837456172
10.451948520650312, 11.189253716450770, 39.216420311234899,  4.801374457188968
10.407375753503059, 15.043188216528257, 63.665583700926817,  4.458953186687173
10.159593833346168,  1.204743909675744, 18.723578966372145,  5.131162938079454
 7.033613063729071, 15.945084544136108, 75.782837671262470,  5.441793481397533
12.013552481900254,  4.644337151904756, 80.425024881904349,  5.063989975543723
 8.118666022047581,  7.226835091034302, 41.481318259354119,  5.356104614097154
 3.236897267553080,  4.328547728373550, 21.775880136051146,  5.252550878315709
10.415409073642447,  2.301382643359493, 100.924755174083359,  5.397870215517534
14.483015867256615, 15.996738782956344, 29.589816006829459,  4.855212536715797
 1.753088395809818,  3.813750501337532, 28.456662458502986,  5.052853485902596
 4.143447030266328, 11.325506002586042, 16.485439850008827,  4.896242535480178
 2.016292506678398,  0.588542765558328, 18.841440419828800,  4.547356658763579
 3.638834523601854,  3.168391024602640, 61.607486039286457,  5.341305895870317
 5.476832080616003,  1.661003376373900, 30.997573019441180,  4.938221513364906
14.227767628669618, 14.329640553391346, 81.425201273566998,  5.225044197490521
15.770365170531445,  7.533630634935955, 93.650459628827491,  5.285109171804073
 3.515802340065570,  8.554210393842988, 79.754007240708702,  4.949635555698509
 8.091307243115084, 14.610225660686448, 55.166261167289797,  5.540381893302427
10.304787832317061, 17.760945982941070, 59.748359501647549,  4.952780178632649
 3.390844607977265,  8.770167527644485, 42.347114031143107,  4.709965096668755
 2.249273596613791, 10.355694056559761, 68.054491611479733,  4.933846859672523
10.118621662512522,  0.586633812817338, 24.033102760614412,  5.034534696138410
13.612165030059966,  5.109791311055920,  4.105964558866816,  4.722046233676373
 4.044158486028071,  7.193869875627358, 99.016526287694887,  4.426635451269272
 6.053028490970701,  5.649783912955670, 84.390450640060351,  4.907438315389166
 8.330184842943904,  3.689385137379174, 59.528283155199581,  4.969606085068583
 3.603747975188005,  4.420535143231729, 106.076940615468772,  4.793233808356891
 6.185465118622071, 17.555752332308842, 11.377844982224673,  5.222995766671001
 8.754696768602090, 12.376699679064613, 23.363613252753272,  4.664120716801152
16.899741692826694,  3.239776835187295, 78.939947216667534,  4.971845043816185
 9.383500740025951, 14.071914555621717, 91.662916202020270,  4.532001597805238
12.260902723336754, 12.807167944938165, 52.083369992214415,  5.197491626272442
14.401467695648160,  9.335590431618186, 60.240359869277114,  4.868323803893271
 2.636478345781960,  3.861478402432254, 81.196339928780588,  5.005283752252311
 8.971581304603975, 10.123584836445378, 88.078688582580526,  5.157170668668643
 3.350537218707458, 13.449826464131494, 78.568393214047390,  5.038148727024985
 2.161494608547836,  6.713395422232494, 37.859045436065472,  5.424358935955091
13.240602970853111, 16.756975594465786, 92.133552071612399,  4.912090566470757
13.276196293661251,  6.724499573974136, 42.318978001541645,  5.003857165856087
 5.377685769772308,  0.160072613363223, 106.813440679246384,  4.551632105647778
13.199962464923862,  4.726790267727951, 58.727649952140652,  5.116230434587657
 8.436511569058938, 14.294870675367097,  8.186468502943978,  4.913188605287012
15.495004450560648, 15.249891511703609, 72.833800459806810,  5.013870618473022
 5.509133904112256,  1.861262441070629, 15.663716409359600,  5.174474306070316
18.116490832434106,  2.078090767149127, 24.345314500240868,  5.050984501571168
12.797616123976413, 13.534922729722354, 88.320932135210356,  5.079175462179631
 8.101538666655811,  9.639192941723916, 32.835419759064948,  4.579240346787254
16.105335864214986,  9.988344896394562, 89.257295471767435,  4.791551843842347
17.632215210799060,  3.948243802957863,  9.530072120189400,  5.407772541463021
 9.237675902311439,  0.074750216211307, 114.645067348512939,  5.163916226404286
17.653178256521837, 15.557537834677156, 18.527233171767516,  4.995916263921161
16.302466761301940,  9.748104745278034, 51.362038203353329,  5.040460073558999
 4.024923639992746, 14.393680896691675, 58.441386792325986,  4.909130337026477
10.246926065700572,  1.238245821555187, 13.453981480959916,  5.103670408828222
11.665215459565598, 14.794238269411951, 12.474394728768903,  5.306710648053140
 2.416195025811950, 10.938647930035579, 96.738410169843704,  4.921898697895337
 2.925107846076506, 17.959332069184040, 26.822453202666932,  4.775344508764322
 9.711868555634080,  7.052014812140156,  6.436216632725990,  5.158384056406127
 0.162258031731265, 11.114130722975574, 44.983314015900888,  4.849045372394185
 8.116548696811108,  3.143112356549085,  3.010615282523107,  5.032021139300264
18.363423377655366,  6.096060803157613, 60.315745024370564,  4.934968626138553
 2.535034470013826, 17.223493072788724, 88.505232049678398,  5.193970602034697
 5.991504869333334, 12.996345628109577,  1.947751269018595,  4.808396505851196
14.522651927002588,  8.003796077422431, 68.189554325061508,  5.048540227381281
 8.056238604214521,  2.750620088431043, 64.596408910221314,  5.350247130089208
12.599973178639404,  5.519147527444507, 17.834410620469921,  4.937007632697878
17.329435646999446, 16.062417905667242,  7.398349966266824,  4.728816277948543
14.720402327348651, 10.084272946120979, 84.440026252828417,  5.232155434905488
18.686601998204239,  6.715827423565364, 108.375795939458698,  4.988345036265483
 2.765541515908509, 14.321269909987828, 34.724212055239143,  4.888282338434704
16.415445806451761, 17.724561423842601, 108.286819097221013,  5.184395011120694
14.678061415068246, 12.592388649806143, 47.372303276492644,  5.281983610136645
 5.895240324215671,  1.255243328322552, 97.821545482662714,  4.853028431325272
 3.837044506335257, 18.536814637800976, 78.783543544792806,  4.744043877960837
16.786427505846884,  6.652593263811777, 55.471568226726347,  5.289429623402170
17.176454850957185,  3.918964058175169, 19.528914708627120,  5.331223146197019
 2.283038636923947,  7.532314305964147, 116.341823945151702,  5.066454110715816
 0.139159325225538, 18.572176912089272, 81.542010179624413,  4.479003789901921
12.601475091317264,  3.556278596662774,  8.494274974427071,  4.776754568641938
 6.843915311351059, 11.057224125665764, 66.287965986152827,  5.010320258215732
10.682675429347549,  7.110144310239209, 84.481695359108699,  4.793881748947433
14.566425732666842,  9.751661453468317, 103.145163440694105,  5.336474661192272
16.668534142088667, 15.098767111092831, 13.693000488066829,  4.903151503977368
15.416585153547814, 14.094938464417812, 61.556843622893162,  5.198988837382193
 1.622011262339108, 11.894367470172780, 87.249537929164831,  5.234663279786605
 2.866327483231180, 16.032286937129104, 15.441776187101038,  5.074828836979706
16.606643982446947, 12.135704268383643, 116.432674847299168,  5.011340941912091
11.251981130698310,  8.831531117714412, 21.271413345657798,  4.952534495990252
18.253119540270401, 15.825579615056006, 56.393745221864776,  5.403000882417599
14.657405814105353,  7.784044276790825,  7.843138515708395,  4.690167386890271
 5.497317049565405,  5.270235398496010, 34.271058961056553,  4.786826673692748
 3.455630331532697, 13.927736482748321, 103.351419447504995,  4.654743733236023
18.179288101547268,  7.237014771621203, 98.159993890773549,  4.942218460770030
 5.027252266120469,  5.537856692624818,  5.996291896041381,  4.725159137477748
 3.929784919860126,  2.863317352746379, 90.854331191434582,  5.138438090408338
10.910255220577209,  6.314741541691559,  0.092130288951529,  5.213035744748709
16.939158483172154,  3.209006887025340, 95.789629421692354,  4.628185042231134
 0.653964724170846,  2.307517068305349, 85.613147688006521,  5.105402155451702
11.013341541652789,  8.604371756279855, 107.234096940948518,  5.115057237396628
 2.346085231570673, 11.712182719297333, 54.408688466301733,  5.341602891235695
 2.197077424191199, 15.358813764026896, 68.609954277118050,  5.083953621487050
 8.882370687838932,  5.083304184785559, 88.749615029870640,  5.006908541034499
 3.588220003184702,  9.638343102911344, 33.942045574093427,  4.711210560408656
 5.243694887261126,  0.329195653848963, 57.665222296635484,  4.885583388326505
 7.123149276428340, 12.527245403218272, 61.643132686797919,  4.749225070721566
11.233093242248609,  0.040504958811651, 78.084128721755391,  5.378477496193667
14.009059680054271,  9.786223070523036, 98.094120401219470,  4.826564176498082
14.457472207257087,  0.966358062269725, 87.501103550776293,  5.742768087322053
 5.190531370852292, 16.340633900248164, 38.481914482217661,  4.915580367779244
 9.245941083092683, 18.609891182888529, 89.338423233740954,  5.513913879157772
 6.303789451349730, 11.669298462788962, 100.263257088375468,  4.877409359303794
 3.617432981327794,  7.691741683476364, 25.720890574058320,  5.142551479861424
 1.295089047647937, 11.285398750498704,  3.148884403932077,  5.467815292970391
 8.359500267356511,  1.986414238837267, 74.229696897390767,  4.966082447602658
