BANDS
8 8
NANOPARTICLES
cell(1), 18.748
cell(2), 18.748
cell(3), 117.174
14.418074768351154,  4.728810610892491, 71.484584311900832,  4.871728243554478
11.424483830666608, 16.712497227894545, 57.237984090439888,  4.541608706864921
 7.255348188141030,  4.764768949082898, 49.629788331875680,  5.215991043162440
 1.030786163912183,  1.816805225816502, 19.236237597275053,  4.752316735902840
 5.298447242710582,  7.938932406493231, 114.682422729383816,  4.705058038529959
15.083837695293765, 11.834263071061329, 40.935839113916629,  5.106571134092596
10.515657547689425,  7.387119469651188, 72.732635719817807,  4.885275799480932
17.667071521169522,  5.956569231468452, 19.845645715093305,  4.613555612912227
 8.395351034116468,  7.853491585740929, 36.280524640396067,  4.708452424131042
12.602021713035018, 14.198006617181969,  9.509771379963647,  5.024022920108810
 1.547189398885610, 18.016659348223978, 101.751948295429528,  4.640964455478005
18.392575006397841,  4.924280178138452, 46.184756804685847,  5.070058276004890
 4.043723731041929, 17.453454135341456, 42.604862627443033,  4.581676101191658
14.386792245315112,  4.288396532111699, 34.097737613800078,  4.775983135558112
 0.523727688053121,  2.192066432002939, 79.780565570466720,  5.149454882957730
13.441385520733311,  1.624037099056961, 61.057607155919577,  5.073396266470696
 7.433765826822748, 18.590912646909956, 66.110354657330078,  5.406021309787392
 8.852845481993773, 12.177207887637541, 72.685177088245837,  5.251529683206207
12.074814618228395, 14.293055395688965, 21.252155599200712,  5.450022486033046
 3.938457633654757,  7.297699607128311, 46.840175827827309,  4.822212202810418
18.699457325183641,  1.365483797994911, 72.858927143886717,  4.825074933225282
10.038976981400786, 18.442876936671485,  8.159875308058318,  5.249661353230326
17.190922521052784,  4.589613513664610, 62.975421482044176,  5.168910755952586
13.946365145820556,  4.338788223154648, 98.428994066458998,  5.014000642486184
 2.025033402266339,  4.104656099834420, 10.582666378541958,  5.356893852470865
 1.124430094553362,  8.892390629057454,  8.806504505653752,  4.913856859327816
17.634940060845153, 13.261019378965777, 102.018814533243258,  4.819443182792604
 4.892687589458190, 15.120025281483068, 74.704360101335979,  5.410192248472575
 7.562107737246725,  5.101295194929554, 104.515487537731715,  5.360855496996938
 9.704777768434910,  2.354543704917512, 57.815548196295886,  4.927374590877835
 3.717347174415634, 11.637060798409156, 64.176067880925658,  5.256554721779324
15.301082969364266,  1.391659261642499, 107.924819118827088,  5.047662093971174
 5.139519284631760, 12.472185485677944, 112.794636362273778,  5.076362111091807
 4.409495694604720,  3.902036431705451, 92.989316771089051,  5.341659817011190
 0.963784879164722, 15.462028626685067, 71.027289797235710,  5.373569895835820
14.753089615802361,  9.892113841673760, 20.118684942439486,  5.094299107965954
12.117374868323839, 16.606605813002435, 65.754234016623954,  4.779776869322923
 5.949883760591263,  0.304245195564644, 104.059729997798101,  4.793810254996670
 8.843181010073932,  7.684074973432675, 81.578240308970180,  4.971199178508769
13.505288069179874,  1.557753382805102, 112.558631608059798,  4.888278537648366
 1.769051673739364, 15.453876197993187, 38.533411751342186,  5.017479079672874
 4.542225825259151,  2.290188427767779, 45.860526138504113,  5.056789585002314
 5.894601188114991, 11.636839959512713, 107.928745609095785,  4.903639961813234
13.679503571711344, 12.943570470580708, 114.605758425797234,  5.184551489035110
 8.614723202372936,  6.224257444846234,  0.618495255098630,  5.004690761515020
 5.268733700703806,  1.348021363596575, 25.296755185632414,  4.820646533479280
13.269706430342668,  6.921679441405394, 83.760060025565295,  4.946896630485407
12.243470242939692, 12.029489688535591, 57.720122922461265,  5.006664790862956
10.231319908220524,  1.984256243561377, 90.901488290026336,  5.223853642338526
 1.033684753558131, 12.509102477639917, 15.643666060877502,  4.874692043657643
 1.751728101645510,  9.239669290108546, 32.454789930512604,  5.332124264325437
 3.039431979130641,  6.936685410153753, 27.771530980159255,  5.329874458641070
 2.394298365790154, 14.772785274818526,  3.155767809475760,  5.053273790211926
13.831286284072204, 13.406735367673186, 16.437016372556762,  4.913016210587862
12.509882351576774, 12.303465249818643,  4.940418191938136,  4.821628280270437
 2.723589996006419, 14.501257348996351, 33.540651906866707,  5.268667941359276
 3.739848101578902, 11.808604097947596, 28.615576033227132,  4.650491859222035
14.774372427122714, 16.280167148919421, 27.466499172261653,  4.992301421298872
 9.784759543624961, 13.918990326916578, 111.463804219708862,  5.005766979263268
12.664876596613581,  4.071851712291006, 54.389779608291164,  4.730398066130440
 1.173676296622816,  2.769305180842470, 33.448535366377236,  4.534855849356555
 4.527441676696154,  7.935141249610556, 22.703771086954781,  5.419795694279216
11.922741352880347,  6.844497385322700, 41.807232081917299,  4.901757933727850
 9.495275880845272,  3.434745700857717, 84.516709273603809,  5.437080573985177
18.086400189192993,  7.029293120552206, 103.651417700216811,  4.656504948231579
14.719933971019191,  9.451105388193431, 101.402557418974013,  4.775643060734156
10.352018068132676,  7.853196946694136, 99.393798840980850,  5.220498849668643
 6.515684710371204,  6.837957709635271, 58.679790132602086,  5.182718773791976
12.359960219450073,  7.423404992168943, 13.322123531154459,  4.900436303414000
 7.158203445114200,  0.119323036945432, 17.434863302067452,  5.003862674326935
10.373864756281790, 17.005361435971803, 71.248905861109620,  5.271350850983738
 2.359549586345111, 16.954863004482444, 81.931734230160558,  4.614886086164520
17.809849109960961,  3.148381700904010, 115.100278514989952,  5.089889954033329
 3.884217882781303,  0.913328329720621, 69.855969627180329,  5.106439995205688
 3.141315943693011,  4.200176598906422, 112.186773529890161,  5.101183507639631
 2.502927573003868, 14.577331906914070, 92.989568661274916,  5.173505418909904
 1.595081800422988, 14.153812615333761, 109.609826808623879,  5.024577460869908
 5.621710326829710,  5.706686239970826, 99.833998174641991,  4.844993796016525
 4.480278075047633, 18.380165013257667, 31.015865792218801,  4.581425847434475
17.545378529590824,  7.576031609735700, 98.230119832116756,  4.499195455601998
16.371775255026346, 12.805720362240065, 84.071847135515881,  5.269754203834290
 9.624024988139739,  9.241511990717482, 86.184566618948821,  4.832838926316234
 0.162312984554253, 15.684732642573440, 51.308678942341032,  4.754519654945718
16.406797762593850,  9.309872036611834, 58.639153153843083,  5.085182987949374
 2.284918887975406, 13.160471836326268, 10.958894312341148,  4.894656106268352
10.084643265055718,  1.228237929191072, 47.706144172731300,  4.621404625527865
12.234368380520070, 10.189490483126791, 24.481724417288476,  4.992991800303923
16.350305971975185, 16.942285840088687, 80.997697607864694,  5.037398972583605
 4.584468515471053,  0.330178520813767, 35.758926630876658,  5.005357545908191
 4.634738535168381,  7.866469193301715,  2.659789745428832,  4.523366988977734
 9.855098992626562,  4.079222211901636, 25.267659746887265,  5.049139312479487
15.686822709674072,  5.257980216846907, 10.255112117583700,  5.085496391606691
 7.431410385844040,  1.440230565764776,  0.340539279963479,  4.854859317141695
17.515150096559363, 10.951845913444386, 28.466223467952709,  5.193144515306171
11.641969593006898, 12.169296480550150, 68.188620863147179,  5.322038469427782
 4.557865939762587, 11.531633169227661,  6.443303340198197,  4.921642896202417
 0.412869301990143,  4.718208440003374, 107.836633272894034,  5.127937422646212
 5.636109877510596,  6.263528934565985, 71.834514468060306,  5.284327207756412
18.365801755677836, 17.606526980830417, 24.135309978339237,  5.157273507153571
17.155293063590118, 17.832078167793256, 47.414174742261459,  4.709098203246023
11.790590639169332,  6.966127812245083, 58.358795172002303,  5.234146998329085
 5.047074963590036, 18.576187787968635, 78.442167765011007,  4.768564126949887
14.039432470095969, 13.732193920054602, 77.641462131705140,  5.332837790946995
17.478562178489717, 13.568101993414048, 89.314839821480476,  5.547343600221097
17.361455535977370, 13.475630027586208,  7.211531577438456,  5.616270160157808
 1.481074806192531,  1.996595250331323, 49.825601248130802,  4.966555734268382
 7.756243323891159, 13.630706088602919, 84.560664096790745,  4.891613910718418
 9.724432855175934, 16.490892225784524, 76.406912758500795,  5.159962008864775
 2.419302498024928,  9.282759250755635, 91.378921437787653,  5.289346600358380
15.544202322583867,  3.170481741161230, 38.824512487183590,  5.204633529471824
17.543580286853388,  4.705249284115806, 15.053842076959544,  5.115655744142154
 5.938653387381409,  3.609500417186764, 54.586105324106079,  5.292757804820579
 6.065997500754304, 17.938322249627610, 91.725192178899150,  4.941305172557588
11.803450560683984, 11.436679372098627, 82.512529062681494,  4.762744724007791
 7.443790491300161, 14.182825308421862,  9.594216623690102,  5.129930744837505
 8.170321488273563, 10.978379591419586,  3.151158027196808,  4.912769202413938
 2.013741399737207,  8.212299110242522, 13.601356011058565,  4.835043132950275
 9.533385536086508,  7.307161210456088, 21.436089623248598,  4.982125299287168
13.362147904285608,  4.293919935164493, 45.840964150798470,  5.066111513217962
 9.073606960038882, 17.936056711519516, 87.089323230834680,  4.505989928840762
15.564384555870376, 10.068979779938045, 10.972981741307585,  4.645683283402072
11.795809531282533,  9.045457665051224, 111.445147632141683,  5.527243768848445
 2.039941613358921,  9.027114266056840, 110.365990293825973,  5.373931872634141
 3.351770917269909,  3.608376784776399, 75.723537449513429,  5.130998793208182
16.217448600224674,  9.368963726983260, 15.512999608731556,  4.606138636040047
16.678584149578167, 18.355943463382790, 15.904797130188696,  5.361616127387004
 2.842745614823629,  3.785121529127871, 103.750316196279911,  4.552798605839214
12.876727365538535, 18.721494427032969, 35.960919072028986,  4.897644641890081
 1.841987874573881, 17.877352518033387, 116.463645817272180,  4.797344537293137
 6.819097449392967, 10.799549496983015, 103.195827199298549,  4.851841209867718
14.880494860289074,  7.843260418769824, 107.129610642100332,  4.937764717631203
17.538771037050047,  4.498304157920119, 53.208243591151330,  4.997781030521111
15.415992049315816,  3.443382326148334, 90.714975155398250,  4.909453121937787
15.160925853656771,  1.628719664210755, 20.504681257137548,  4.690735042629222
 7.980381787493825,  5.199117900404719, 17.363093199589862,  4.697621420974583
12.279167997618748,  5.560669983479511, 93.607338863184523,  4.596371081212532
 7.226522003082374, 14.363276544835410, 30.926009367483598,  5.140554166243684
 8.400218680566411, 18.541503929696809, 28.532067148229043,  4.702718485180885
 0.186480496326511, 13.524903396328231, 114.526786766659228,  5.279202413186892
 3.249326059339429,  6.495937810713936, 17.959026023855948,  4.808333098514792
10.572682565462314,  4.818846990175513,  9.313151613055368,  5.306771521295899
 4.146201955043024,  9.517883032538764, 81.095695287675937,  5.157943956429049
 9.982704896617044,  9.161287418279226, 106.542718296798341,  4.924081313531745
 2.608189466784015, 12.944087629638508, 84.293774064702575,  4.705327506042325
 7.522219614481531,  0.123270887521071, 39.734797425207276,  4.871503845503203
11.250736312207545, 15.197886834098833,  1.238345220939260,  4.907763645110085
14.002186711696714,  8.941283692043680, 54.175852002607868,  5.005984412351338
 6.919129142452478,  7.084344407991414, 90.018575610892867,  4.707389991658764
 8.841938046978786, 15.040408903394310, 105.379825337197303,  5.437643492342092
 0.282081820763708,  6.486807695775973, 82.565276885254349,  5.093512001212221
 7.356540030940536, 12.368447942502833, 59.455943343744664,  5.383631411455870
10.656902778103371, 11.207395799113815, 38.765865376791695,  4.781536092228244
12.979270831712547,  2.637696833853191, 67.052404381501319,  5.238874955785343
 3.780993983788971,  0.835737078874172,  3.604174247823322,  4.993427982499355
13.309131764320194,  9.678274318254006,  1.080128559333078,  4.632780798568693
 8.442478486915558, 13.658543875485758, 64.387000430350142,  5.029124129206200
10.033593301497215, 11.767087521429097, 13.189881025951500,  4.956233810341054
 0.525032998594206,  8.445797676778167, 115.281765573010347,  4.966037034520899
15.109973083076447,  9.393800697564419, 32.702052798676910,  4.965063686038093
 4.584778613565007, 10.739265790821605, 36.415648388115628,  4.840137716894174
 7.867829401477375, 17.278060281216057, 22.145263353451487,  5.019165429721394
 2.592945856101523, 12.782825709777830, 23.891642687732535,  5.253244423084216
12.477519758646363, 12.044262786042777, 29.237038255316477,  5.224578800772344
13.708071579732184, 13.417013579555078, 72.614455239565032,  4.758442247358718
 6.471398411821292, 15.442394785550936, 95.880939876893763,  4.784359466447449
10.971565703260367, 12.681391999888300, 101.158085116008721,  5.129890460496766
 2.741601210214601, 16.892634284675605, 16.659625976379630,  4.746014480081049
 3.055536016999913,  7.680506278459740, 96.181657284420396,  4.914503812695876
 0.105160435311378, 13.729378952769114, 61.463228077492545,  4.684132793968795
 8.904277349950855,  1.936660074528914, 33.586284995553292,  5.145770122034559
 8.891925479130521,  3.543476469556115, 113.165593388192249,  5.226855286880867
18.050436625979973, 14.944278106752497, 19.702748239815275,  5.198737473693749
 1.171671287796200,  3.578669137592074, 99.266232501104710,  5.026781493238934
14.152615526666978,  3.535789491394311,  5.609892386178556,  5.283195973317467
 9.102064078997667, 10.964020905292674, 115.502112594743465,  4.909149839527694
 6.438162231022760,  2.343553036006169, 108.806003330936989,  5.044566928931717
 5.008577613403991,  5.503161868327835, 33.799087543907170,  4.907968958448619
17.415680375465396,  1.039161147422917,  2.470721581501093,  4.957594520238222
15.173050433635668, 17.448894033644486, 69.478429343853904,  4.997279180360108
11.825199327505063, 11.240951798631347, 49.338192652104333,  5.245802745889500
14.370592570706441,  9.778525830945789, 87.590343639670095,  4.836398897882285
 0.049289813838522, 14.615152917384810, 43.340720289058055,  5.310957464476786
15.678925777846617,  2.524721578055197, 26.529103548481093,  5.115133573123815
11.981860850436938,  6.297184047069187, 50.143921967649831,  4.772229611333340
 6.963142466171779,  9.843449462201217, 50.236133916313179,  5.029501354396954
 5.685003804844765,  9.703069110208684, 10.824506370234724,  4.800699741496698
11.250242303100306, 16.253722387520487, 81.361043426258306,  5.196796437760954
 1.984884309485412,  8.096561674241178, 67.590250291528051,  5.170391413333263
 3.472529079544075, 16.652951647280229,  7.677262550226023,  4.969305994255030
13.981404415413346, 16.645712624954264, 102.462007890176977,  5.158635217864266
 6.482899283814240, 13.830186566280886, 40.117233920813014,  5.441020714097792
14.581875091057883, 13.847517504472135, 52.908593300298520,  5.169011032863336
 7.389872165129654, 15.683508227962953,  4.687179885309435,  5.075474100109594
13.677040839067327, 12.708846577416770, 105.956652933174027,  5.354349166526827
10.840577909635083,  6.895085498383581, 31.946498607627756,  5.021190311540579
 0.928194324005886,  6.378153312573298, 37.146940908966080,  5.776991081956015
10.161666401224847, 12.238927887941552, 96.158835765502275,  4.880378478677380
14.568096458942049, 16.003924614849410, 110.569038701008381,  4.818679754253727
 4.053330971620341,  2.274860895428091, 59.335483636487368,  5.268489066822650
18.702097603786029, 18.603137618183261, 111.345243251732640,  5.055228830317291
16.707629682377398,  8.311982852678941, 49.796599205065640,  5.363556482243383
10.070507195822662, 17.637657641793876, 114.498932866911261,  4.602536486902422
15.378161673172412,  7.654501788413109, 66.783333523971621,  5.055898696418058
 6.571483964796066, 18.698416315107671, 12.233331359891483,  5.456119620925510
12.604355166855772,  5.494926433685507, 103.360204654739846,  5.010840906797778
 1.485950205439657,  1.973370729038380, 28.372761228532070,  4.677159854385424
10.482185308288569,  3.804214927217897, 38.096933700332386,  5.095009789536307
 0.991198509533479, 15.835856952590305, 28.761964683444553,  5.105555221819332
10.587898628480293, 18.399612836299827, 52.847866967237707,  5.010448796357529
 3.150424445919816, 16.257573910758012, 47.312187446406149,  5.287637844369631
14.214150430460833,  9.143903767089997, 45.435907310286233,  4.812950214199141
 2.415730890164607,  9.784972199862882, 100.822932435930952,  5.353992482794692
 1.683940629735364,  5.130638953311816,  5.405625198822782,  5.219601411749016
10.449287618187519, 16.075814606192626, 93.064221277696930,  4.946613354110398
13.363542688166076,  1.122676021717619, 94.734904766031818,  4.810390469890438
11.114970627821155,  7.515925840420615,  4.486063150076227,  4.543758951159008
 2.619099071768763,  2.354450178469937, 84.497641775479323,  5.148758692589165
17.016632626066880,  1.256175805898895, 43.195894764354783,  4.777953694385583
 0.421223124536509,  9.369670212108595, 86.674150700871650,  4.931738297922450
16.368400790987302, 14.290222490169292, 32.324939148573073,  5.165542118142994
16.597962277929888, 18.408346440320180, 64.604150922090028,  5.144272755379095
 0.365735676505739,  6.436990146374144, 72.498011128195444,  5.313746425831208
 6.849122698746252, 17.479380167807882, 56.065780709317586,  4.923305188467829
 9.452235896842110,  1.976305850161205, 79.394010648988086,  5.206797597004439
 4.592048020781607, 14.402120257508788, 52.486504757864687,  4.501050338870579
 5.588987857618227,  4.336678851631610, 38.473835652334486,  4.733085717630352
 5.343589218882168,  3.214250634884455, 20.821117040186270,  4.850889648918415
 2.848415873108474, 14.541213259699152, 56.997338356879574,  5.173091793483335
 5.392018531953589,  6.515456282545310, 85.178033569930520,  4.865841295849249
16.303570175102333, 11.476044298341577, 110.565581764996637,  4.850431787619614
18.414231066241534, 11.097725381138597, 95.252986669855346,  4.878966636595162
16.307381769870627,  4.346645703579134, 58.006421592008728,  4.909228795559116
17.414517459081527,  5.539896852950156, 30.336670223898814,  5.183504569366082
12.259477197536834, 18.687099715111032, 23.962508114187308,  4.866793374348849
13.074699146734229,  5.487646501784030, 17.970327793711821,  5.252691314162668
 0.056070686159592, 10.763655514353296, 54.135345525005683,  5.247228731698155
 9.330513004444732,  7.986450626509496, 46.049068408186073,  5.266556188319294
 7.681323135957829,  6.036752430263432, 76.508756103459547,  4.914677946121236
 0.932967347638604, 10.226065658520897, 19.897929666228872,  4.783652979558883
13.082689136678086,  5.684385528440384, 115.410071918304538,  5.178860080930115
 5.029153492156417, 10.169305534507963, 76.178070255585311,  4.916010778675108
16.579415658428037, 14.475623592688542, 12.515950169235390,  4.895535221436782
 7.971314110198962,  8.613248488515330, 63.389573751964434,  5.291173313283750
 1.673576089051307,  5.048300448730484, 88.649526485667479,  4.883755040039829
 9.887106147564836, 10.521630245208879, 77.512234992514422,  5.153303187545097
 6.703476683379905,  9.466956361984144, 31.512984875045152,  4.756163007819839
 9.086269169409452,  2.994230730171718, 70.180025134821264,  4.763728938683920
 3.030737291927975,  6.941035070568230, 51.764816927635081,  5.197713352200545
10.593328574569593, 10.002082107150263, 17.606014955202809,  4.620150860107951
 6.970519156406239,  7.238852077009822, 110.089670744154645,  5.127624737228708
17.842630362111240, 18.160424256858018, 35.654668760416463,  4.501305674087837
 0.889345059567341,  7.719386271139888, 77.514088033612481,  5.068033508453844
 1.922566001874192,  0.191815870359926, 95.592203299963785,  4.990815368399616
12.033558858066526,  5.710623035054603, 88.226020383734635,  4.631130827230039
 2.177432824732517, 11.516235506969128, 49.390487977037566,  5.242921703984004
16.921364701457424,  7.106014673587818, 41.830339192974996,  5.067243167028357
 8.701661458281148, 17.016577822080617, 44.155188264952592,  5.001533013803356
 9.607847982870631,  3.014551837101004, 100.381974311631652,  4.763076840841004
18.505613859006147, 11.029478027341757, 106.235564716650202,  4.877968387676893
 0.644164395824604, 10.118346913077074,  3.738898455700169,  4.837190338906468
 4.886364990289866, 13.150560447203439, 19.118290222528948,  5.173118284826322
 8.554661023913422,  2.424332536908048, 95.678239388100010,  4.937675229022427
 5.839006651451896, 11.191404563867668, 97.575159658194764,  4.451935479532747
 5.968361047369684,  2.705631094911898, 88.243796795159923,  4.922683127491124
13.799883927167741,  9.146759903925284, 96.102552100056997,  4.652705837392633
18.103480681964619, 17.381074167953283, 85.698722353343115,  5.034334802209572
 4.310651096697743, 16.762932235828604, 87.047176004896102,  5.303363520970465
 9.361795308937754, 17.525498237013437, 61.413789347202119,  4.897341556371672
13.336038675259314,  0.014963141178693, 85.236015849371000,  4.930884920174914
17.970893058272512, 11.543775879313198, 36.453830167892846,  5.188519726859733
 7.182521316316747,  4.385289680356247, 29.500371828089964,  4.980942754996841
 2.797540776905117,  1.674506826536924, 64.318272107694938,  5.025366621417385
 7.921939417549351,  7.362270428602223, 94.834122155520689,  5.144998679892554
 7.906873997902466, 11.752724311380160, 22.830224047605054,  4.778176972411253
10.054843072689845,  9.929573352835492,  8.520965347433544,  5.072808949886529
16.331893833886447, 13.298827813595368, 65.771106795697236,  5.313195071050687
10.138856583486470, 12.312298645877833, 43.466856550507785,  4.926776668452163
12.615426033461642, 16.188529203194534, 48.961923378266135,  4.799872152681578
10.664886005763298, 17.176256729674318, 98.315184471329999,  5.512055739140609
 5.663499606098258,  2.140784497938327,  7.807255575065167,  4.561916862896381
16.164712741464559,  0.596905017426824, 31.275085582263451,  5.166823613572074
 9.242634197725012,  7.470711673546725, 53.981900441759322,  4.939795959298475
 3.457345066859865,  4.193880226088538, 117.169834861554818,  4.839226784674677
 9.338254250754249, 13.366157127375974, 53.586161870793291,  5.444818741283977
16.731553906640126, 13.977156883070288, 57.316365360737471,  4.634617842526139
 6.413684199256882, 15.329717987486850, 116.847951773893456,  5.155504931024945
 0.323632870767508, 16.892927605144056, 76.628339711400514,  5.117421349254347
13.691520757433210, 14.016655157572844, 36.455250639023831,  4.692465893300165
14.056674672881130, 17.500660257262698, 89.971171179310346,  4.959114467943185
 6.842926968080937,  0.875534946330472, 73.707303052835684,  4.603565385107480
 7.918014943533946, 14.593843109861247, 48.626423955912287,  5.141524068114358
 1.162566441883395,  3.780712757374253, 23.801707882566191,  5.174211446051419
 0.216908762040074,  9.758414002330062, 45.275373655635065,  4.527667177369401
11.934822401983155,  2.673069827098590, 29.749359924982830,  4.734187237607479
 3.664952388352894, 11.395396543701615,  0.042936178471188,  4.467735945506783
11.790986761024840, 16.626257500066835, 31.539852662680730,  5.120698753949399
13.764150146836041, 15.725461608745206, 44.157417074363067,  5.118894291786975
 3.395098307037421,  2.605937812426528, 15.200600081859918,  4.728280049207132
18.210985903666128,  0.890543779791642,  7.403125006701584,  5.032719808476173
 1.904648572469167, 15.920665001509251, 66.064640069054576,  4.767070059263526
 5.642808325089809, 14.138811964053202, 14.169294712006554,  4.570407437027306
10.399323649457449,  7.087863937916679, 67.740557877892641,  5.119148515636279
14.315942577101765,  1.926010437978928, 50.261901470522560,  5.137870747239088
16.263295095499146, 13.032695360676836, 24.029147328720601,  4.908929940980514
10.864511593258047,  2.597201757911007, 14.133165329026427,  5.320615092895016
16.724906024409261, 16.487289479224469, 93.954327784780133,  4.833620559838311
14.484531999762087, 17.953445023717446, 74.515961704574124,  5.199176553315988
10.985132965985548,  9.419245259859252, 91.115296096110015,  4.922999886596237
18.044117389176151,  8.456357191220803, 24.105541774204742,  4.907628959185519
 8.049940206331270,  3.512161566123778, 62.403737414196129,  5.096881280412415
14.074554754733372, 15.240273930601733, 61.310470393194500,  5.278829738690237
12.320407388232717,  5.930346373711769, 63.275185370604767,  4.868650613533659
 5.949368257713622, 18.708428911432446, 50.911538673884181,  5.059709203325010
15.674222162511406,  9.475417097611832, 80.164440310765670,  5.088858710573144
 5.195403811844143, 10.333671741999133, 55.068247896129733,  5.206308304610706
10.912697588190790, 16.450032923873326, 13.394927686543779,  4.569122713087777
 0.814036180495463,  0.274615168109573, 90.475165443789123,  5.474042141613148
 5.273464227156119, 10.746008675262379, 87.517411140022489,  4.743555163781494
 5.201509546690249, 11.893810767415573, 45.020048212419070,  5.378081777141944
13.983840588244366, 17.082609430477063,  5.035950202201913,  5.174708472590968
18.136151391848152,  9.414405937682979, 63.190298720880023,  4.646455271526914
16.373566063887861,  4.115940336704466, 76.137200222315002,  4.906143135721146
 4.419709006384344, 16.259646373545454, 61.702931175018868,  5.322216024869826
12.579101300498062, 10.812459115725197, 63.341417247840404,  4.909327885070037
 5.073892176153143,  4.494428096030560, 80.530509825000038,  5.110939020417332
16.722542411780505,  6.228287958102324,  1.909788253790349,  5.205521256961132
 6.652084037320528,  5.240175257727367, 12.670648113236142,  5.044874298402122
 5.884437354799268,  4.821016650917259, 66.840724838860254,  5.114769678777565
 2.881956650990686,  5.529227650240566, 42.430578652186007,  4.911645103740835
14.027838454895857,  5.761300180304548, 23.006381726110128,  5.005007667206906
16.120151602671235,  8.219499862231723, 91.932194584199763,  5.027679686610465
 9.940952308667658, 14.853812042321946, 25.910957037373926,  4.850851938163090
11.995887829645245, 18.086863189938406, 17.825076162791245,  4.770998298471486
12.423338392370480,  1.392882154647856,  1.128043556043430,  5.227309417360407
17.280636723205284, 10.839164669616958, 70.303627369973015,  5.169871486801444
18.097951808700838, 18.373104466195549, 59.478175095824227,  5.525511116288525
14.958325858768188,  8.856474340780981, 74.768919846760269,  5.317871428694646
 6.210870829214212,  9.650726124942951, 15.681999394090210,  4.965384944707235
12.341590887656515,  6.099516750869760, 78.322742883155229,  5.087296294115848
13.344854399981566,  6.742685098327082, 27.762742976729136,  4.732477959251932
 9.053946153939785,  3.238963528597032,  4.625276669963963,  4.949476423164764
 6.486609062520083, 11.685498173950105, 93.004683543934490,  4.669340947872664
 6.527415126177667, 13.929750565202541, 79.644733089296679,  5.249000289004992
16.285799779639003, 13.626804510202488,  1.896103792015847,  5.231876998010763
 1.998095304336699, 10.433632492582593, 40.750845115107126,  5.262497499513732
15.269641622782935, 18.614424314264280, 54.909373915235250,  5.205247264825559
 8.643059615501691, 15.920723128180150, 35.679656657264538,  5.255690198031384
 2.572900567567668, 10.080432419031203, 59.432783012353212,  4.982772592251870
 8.320720876568725,  3.965500991326663, 43.240866631332636,  4.729770254551870
 5.384021220669225,  0.797631710745964, 99.189297202660654,  5.061311742443625
 5.323952125378400, 15.664493876346835, 26.707622036565894,  4.473421787159793
18.269707657694529,  4.564927408354132, 94.618692507184534,  5.003968930464583
 5.420114991747192, 18.744032658708480, 113.427929520549029,  4.696942893661688
16.482374756780271, 18.673971238840497, 98.432207984124801,  5.141482984167537
 6.002673306205845, 16.255843363328829, 109.435662595985107,  4.743632792793450
14.303886628172615,  8.044708617787551, 37.529419125185150,  5.174312283287440
 1.752085430552309,  0.366990354487729, 54.685034943374610,  5.294997595374894
11.163421587995424,  4.518420551193069, 108.465008098178600,  5.380850705779386
 1.393332146646777, 17.914083834036347, 12.056038826308878,  5.022928046802811
16.631018156005148,  2.337907946989648, 103.027400095104539,  5.240740106702310
 9.191133215517434, 14.377562745852901, 17.119466611363833,  4.619606714141812
13.962860975762652, 12.726337189739594, 92.953894805793524,  4.702532754014189
15.824331178818440, 17.355782757162846, 115.679950277079868,  4.852812537426157
 3.294057324617777,  6.438545542734532, 62.789289988245848,  5.021686367993173
16.335728628578163, 13.028175465697760, 47.622076083151718,  5.046003196784831
14.536814973763146,  2.805489275591276, 81.366583739614001,  4.898745279187189
 6.845301024796734, 18.104448412811639, 82.870452576887544,  4.818521951687662
 6.882860763424768, 10.545494123672707, 67.888856332477502,  4.738578508185924
10.472612628448982, 11.502067456062814, 33.887942175327325,  4.954951605017721
15.874002002490624, 16.800609832887513, 39.721930399246581,  4.935268569053395
 2.377518973769198,  0.291927784088294, 107.152799533915740,  4.630850718039234
15.454861292183891,  8.539772886404497,  6.342049709251293,  5.107925559743821
11.157404298908176, 15.775648966725244, 40.000421657117933,  4.686044245219835
10.494723058499266, 18.268224502001743, 109.287889069052198,  4.813209446300942
16.420525315288657,  6.562374501676473, 111.665176578753915,  4.977585263217852
 8.066624190421315, 14.070825311051117, 89.326308878939486,  4.646093434710718
 3.550887846922946,  8.066779823969515, 105.578380780696250,  4.836921131012597
 6.434324166666892,  6.792666041069418,  6.941676372778974,  5.009707285854033
 6.553051004336031, 14.960842526360095, 100.677051131937162,  4.857160408712533
14.509174687168271,  0.200279501865368, 11.012510668731903,  5.398932771586388
 3.295081453386746, 17.140027413691577, 21.179392177835485,  4.324268622500187
17.528417651150590, 16.112443337052831, 106.006030748459892,  4.923214513669294
18.243206219665510,  3.372732539041822, 68.091176968414871,  5.555133625213828
 7.924660336332968,  8.637004768615139, 26.737769043452396,  5.216172638417587
 0.161866639232569, 12.147039858758822, 74.925659310927330,  4.970303895902991
10.732695473260414,  1.054457814100310, 104.663093733273470,  4.906353363188773
 2.077169096648987, 14.488456727550288, 98.243415650064122,  5.365930716912445
 3.593392597767743, 10.988020380509152, 71.476340694288851,  5.032907016932047
12.146728800861517,  1.248503558523260, 42.072690280480010,  4.920682938188072
 5.916505555328854, 15.006860511037702, 69.574379144045153,  4.988971642029910
10.060608243493027,  2.579333629372518, 20.645710322232205,  4.650448516677079
11.044073673902373,  2.914269053378749, 74.676555162191079,  4.922984641067947
 1.976019555961893,  6.043896263591080, 56.646116216323875,  4.851947238079231
12.182984826564560, 14.140599892634649, 86.769083643581226,  5.044314570849253
 3.260958060924288, 14.238642434483115, 104.450942093184565,  5.252522545499849
14.848601959837778, 13.733957195731625, 97.798168011837831,  5.339063160387252
 0.590157750134772, 12.966546683992371, 79.851227805686776,  5.051730402349069
 7.007322875309240,  8.473999158919160, 41.173623664825143,  5.526999476743438
16.555068797453831,  3.698766742224938, 85.922538894943045,  4.936140464681877
 1.621061552748383,  1.615466643745960, 39.624205671104747,  5.042116012450376
