BANDS
8 8
NANOPARTICLES
cell(1), 18.770
cell(2), 18.770
cell(3), 117.312
12.757996814246079, 10.901884171461665, 96.713973670152114,  4.922665716863312
12.466648041403783, 11.895842627976538, 76.000369545048670,  4.843177135249633
10.131352980665920,  4.013038753687147, 116.530096976696242,  4.813944038235651
12.261367470781106, 10.014626437545582, 26.376124727898798,  4.562294457997931
 6.407225668029352, 17.835216176575294, 90.920867056977798,  4.809954514739030
14.532295484433817,  7.658837306419318, 45.332898751723924,  5.233490322959897
 0.671567113255736, 13.867236013188414, 103.101556623182887,  5.207089464360323
 2.633524998560368,  6.793083840991257, 69.402149829607922,  4.943542067723172
13.770142365292475,  7.620292929973334, 30.178229568880965,  4.909474653706659
 1.315035259712489, 18.457324317052588, 11.119687617347495,  5.071998768840981
16.672865767600936,  5.209287879752813, 106.884765179818856,  5.571512111575847
12.959953405744564,  6.750257544217102, 73.224859048910645,  4.558117609865707
 5.368706522481697,  0.887607346745942,  3.120674694363724,  5.015376804141168
10.221361750330651,  5.894720661529859, 55.303412022284768,  5.058595893280718
15.212081064145758, 12.501113106762503, 68.248007067567215,  5.059504843602634
 7.029599655554405,  5.609906194694911, 81.609485880540433,  4.829283850476457
17.031171977801357, 11.414625692791425, 88.833311227117591,  4.877960941354949
 4.325305813589115,  4.293328115930010, 18.339796825426237,  5.053044633339240
 0.928941912670636, 11.988799821265346, 33.490244079719183,  5.024243495815428
10.172686783198829,  6.498013306102854,  5.846697324502524,  5.301044597830473
17.622084453715622, 18.506620730840037, 51.445474248181831,  5.178045424013841
17.485153710007140, 16.287799088958600, 82.789035112987321,  4.845747951420291
17.327530804997867, 14.991156223674917,  3.568235379447261,  4.997872828826463
12.016611977220375,  2.071469001309287, 72.777374015251780,  5.026257313666504
 8.845386231668174,  6.575503086949041, 26.685439788218993,  5.118875590724834
14.630156285773332, 12.548842399525473, 12.256130376915424,  4.957593088979170
 1.359207592222107,  3.660929928998748, 31.128030930141726,  5.165688465197952
 8.424560614359883, 10.988474894433187, 18.021508549581117,  4.852940213037825
 0.625921297595578, 11.008277435211278, 13.123346137998590,  5.184837585523212
11.931626826824857,  2.410993793918146, 106.843634243895750,  5.089080073045661
18.263123828445988,  1.254871507968032, 17.358431506000329,  5.300231288647563
13.544918741907448,  1.566568115537267, 38.394841188983072,  5.234937335582244
12.878875113410839,  8.596938193612758, 82.827727512518649,  4.976812114543693
13.021026962273115,  5.419753212633905, 10.305882031845947,  5.497578159981298
 0.875066800259574,  3.271305416810911, 102.869417901129793,  5.140473507445645
 1.943388510752709, 18.011944709028132, 56.685829889157496,  4.735115153389612
18.047595477986452,  5.304830459226214, 26.686618052400998,  5.175810846821077
 6.067271339649395,  4.644193484381725, 64.288736743991933,  5.392516731022283
 9.044607610230917, 18.277398986155749, 114.605704519269608,  5.210664663201516
 2.802611770683324,  5.999153723292283, 39.881449930557977,  5.080875465894803
 1.272051944955949,  7.092812631150800, 35.057673254035635,  5.268154532240969
 9.116127951043444,  1.610782843598403, 35.981207780043029,  4.758408800189339
 2.429724734069621, 11.649177511124210, 28.102711920405575,  5.081910185022600
13.320326485054048,  4.633975284714627, 59.116781700163926,  5.064543815478123
16.981228443195647, 16.021710499401408, 20.671786250997368,  4.674554721008203
12.858770314576134,  4.250385250047308, 15.414871227440322,  4.983554583669523
18.469197902061737,  2.662404983434855, 37.775742986090272,  4.929961823958899
12.906207674130671,  7.535479803091889,  1.200980331178363,  4.982349568669333
15.283530186295193,  7.876964838943504, 91.773699905036011,  4.958632597337734
13.794252619160725,  8.821924314162985, 104.112572591161126,  4.811629629030166
15.437794538311534, 17.168200363484484, 77.410266680569833,  5.278986917786770
 0.770468318666845,  0.035849972279496,  0.855126642870595,  5.355710572655576
 5.384441094387117, 15.504717065606709, 59.336404733903571,  5.199961003389647
 9.842962768019740,  0.360421943739306, 94.182582864425129,  4.998540698664889
14.420418146227563, 15.114189436938142, 16.550254157631901,  5.054290996435030
17.863051024459988,  9.281739470644569,  2.204170769011768,  4.967706596858998
 5.066017462075053,  6.117491211819217, 101.622364834454174,  5.270506414570545
16.861657313777851,  2.233090914182468, 80.988643907199418,  5.310366812566945
 4.189680041761432, 13.098791267984582, 73.141320381260869,  4.750801621637372
 3.975518546669223,  2.687214562887349, 25.067502046547414,  4.887977619352879
16.620120073321804, 10.487865535191016, 107.876009478603777,  5.168163761784869
10.211673813028634,  8.993367794392475, 22.162770751370303,  5.009925722790562
 0.893367615315779,  5.037250875929191,  8.367041468483825,  4.908068461963499
 1.289165562437387,  0.957211263408327, 76.939399158499882,  5.318139319524991
 3.744509464934499, 18.338948846728812, 38.833556283513090,  5.471561697647733
17.671144213595216, 10.085656256805208, 95.701333623051752,  5.237531499388824
 8.359580190548300,  4.636374238287456, 90.737676785561206,  5.011467774469597
 2.918811024779697, 17.863217064811188, 72.262999122699725,  5.259667245652474
 6.046136424191788,  6.326378493691553, 22.542317163210502,  4.888092376678556
 8.209641572821381,  1.223606534393140, 18.434353522855925,  4.849932971699448
 1.052809431939214,  6.329557984941339, 21.933731901372038,  5.167223692996951
 4.177148275856207, 10.865326270507175, 37.362201504898152,  5.298169614862482
 8.416147690300917,  5.266925271803421, 96.971861101301116,  4.992145338577563
 4.900229751678601,  9.256364579719534, 32.155124646300692,  4.975813738673168
17.809045122976784,  2.863161057529223, 60.857867530576264,  5.193919253596293
10.218430053085056,  8.398721782323053, 51.019727755868928,  4.829746557893463
18.044028314624612, 11.760473823962817, 18.152576953174194,  5.327038621581305
18.725904599187153, 12.580678559559226, 111.862177366634157,  4.772349650489303
17.421854555589341, 10.753360612792516, 64.091511434663360,  4.982657433547175
 7.345607171260688, 18.729236597550983, 108.884922166110201,  5.114400450706721
 7.817669278336089,  6.242210911901622, 10.444194144266637,  5.038285435862372
 7.464589941571661, 18.412126745896000, 23.103593115086966,  5.121242290896820
 7.204038948521531, 16.715229029373660, 11.710863428021034,  4.931880112396777
16.034122464924078, 11.163929978225784, 100.430117036573151,  4.997151565460292
 3.912759708977664, 16.335627178081804, 106.129025750525344,  4.897481049152291
12.091616729170807,  7.657523497096980, 67.595383906472179,  4.710454653333310
15.298985215762082,  1.467195845258033,  3.133478517284773,  4.684526392150090
10.508760480933168,  3.853179359493443, 22.556647840765248,  5.313082287948397
16.196355001116014,  1.087865996730599, 95.361864288519413,  5.128122930665289
 3.543379226724721, 15.058995012372931,  3.841390793875952,  4.982902234751935
 3.381252465834147, 13.996530368225864, 10.067545279205419,  4.980076756998707
 4.708226469114675, 11.712046749440656, 113.208578457035173,  5.257011184753241
11.072010636624407, 16.472846254022588, 106.850845801380956,  4.478008709065675
 2.221249514073946, 14.337615361893510, 45.355334767872129,  4.946625435589489
16.958241190148158, 15.232386514881705,  8.639513224245430,  5.180539234128319
 4.412088811826206,  8.959599051364801, 56.664402654691571,  5.172682479707960
15.466253840726468, 18.042220884069000, 12.742484439483947,  4.740471587675415
 4.286389220642524, 18.747799326490046, 15.423406748496793,  5.348655305581944
 3.126001221520756,  3.992481117153316, 73.346789965656953,  4.776244937875628
 7.940140842897157,  3.426956251250961, 14.308379434153801,  4.519151760763317
14.021842023695589,  2.219821748897708, 85.747897845811977,  5.582720001670047
 9.643663683793672,  5.087965351629903, 76.384624575959734,  5.171570858085472
14.168352559872575,  9.722735063760638, 34.853834367226810,  5.344905807488118
 8.652378151940795,  5.860444835886328, 71.378948736407494,  4.972466296240167
15.610295261167730,  1.115471467010480, 109.832113200481871,  4.732999078160613
11.230051023615919,  5.664746825045455, 41.992632504268137,  4.955277138295260
 8.923552304768444, 13.585791199079990, 50.313734668383326,  4.657218564163269
13.511046697441650,  1.595476621460592, 114.155020294210985,  4.687423444961301
12.837670034146305, 11.629339551975090, 48.092193080450571,  5.010559840921199
 3.708873903738430, 13.758333704478545, 54.675315513094851,  5.299385841881721
 8.935483343559456,  0.184574150090060, 59.938102555738318,  4.771963104729902
 3.534952102488619,  8.355082007756428, 10.339234912273390,  4.438146582984655
 9.646416689388552,  8.058868524542611, 32.773292226920439,  4.863657948612961
16.217871558544754, 10.177159863785780, 72.640052493976327,  4.958574352483643
10.516297270139557, 14.075743481429654, 67.246515270239655,  5.036677975640461
12.575233829543746, 15.816081733673574,  5.294894721189041,  5.247549885000483
 8.156166935264531, 18.291761847406836, 82.435116618390495,  5.300173801753376
16.558512340134396,  2.079068075856674, 55.892109815778340,  5.088728967936809
12.651423417095453, 11.346459834307913, 86.861196885081213,  4.728406322161766
 8.772673526653708,  9.996947853044714, 65.123458746248318,  4.769946540332951
 7.151706399163007, 14.167836251864223, 45.879486330196144,  4.956939543931647
17.512887694068191,  3.829140721421198, 12.808927063702617,  5.246107413830297
 2.615495923485974,  6.529668660527452, 60.787246799744160,  5.048330030862149
 3.457879688029242,  8.938163472593216, 82.355618154711166,  5.006277422306295
15.081593067895250, 18.117204675450854, 90.710535466747430,  5.042717648408432
 4.727502483367826, 16.442661064273437, 95.194524139857251,  4.776957701792949
12.180827465881432,  1.478770718976491, 98.533302658949452,  5.127990915930545
 5.418122306331740,  2.559324933362999, 94.130050404441960,  4.880733001148617
15.222128594084321,  5.893280733098845, 64.149007665188563,  5.052904403412839
16.828348858218956,  1.454911907445558, 65.555372817303336,  4.797187408047945
 5.130047709757755, 16.346656976214973, 76.625734087898920,  4.930517900535390
 8.838200450501240,  1.589152715591258, 27.569562503611429,  4.996502223104888
11.470211969068890,  8.775876456994611, 113.130535061717140,  5.231384745106381
16.223121746732218,  7.994343993383658, 50.230605589836053,  5.137123913610589
 5.371373176838403,  4.347650347879378,  6.623573456753295,  4.792863370519833
17.279712781863271,  3.790174109473439, 89.656738447010724,  5.066017612084396
 5.150738518153346, 13.879430937730993, 82.434309186711388,  5.372438746974920
 6.379849721213727,  4.655256798104899, 30.733369289927843,  5.090246783223844
11.253185424462503,  5.960158507239369, 36.984958663807149,  5.068769052858114
13.261039054377470,  0.706869349311270, 19.193912817731192,  5.407374706056880
 1.012156890473203, 15.071428550760274, 78.779364070467253,  4.705284698700765
 3.657086539384573,  9.481876166536560, 65.037798985088116,  5.508944187540185
 0.518988725710225, 13.128292245968536, 116.682519429610366,  4.983823566774177
14.475451787460100,  0.862905403977524,  8.155444328933209,  4.970075155286897
 3.756224702401135,  6.450646332478431, 106.683379213703631,  5.175806962876452
 5.100465489022733, 18.066383285039109, 43.784667806119401,  4.790226909464721
 5.932746005518723,  1.904916012693225, 78.620944603916755,  4.732679395147408
10.639586927672537,  8.581473710796613, 13.984512671789897,  5.153067570196876
12.942152529750814, 17.070525481344930,  0.344914500743040,  4.958895589201434
16.608474659766408,  4.500070844376673, 116.724050342113713,  5.233073751877952
 6.469414228600052, 10.236279781305861, 69.638537528031890,  5.376433884502276
 0.429486826461460, 16.753149513569007, 61.116896343113446,  4.962393083392159
 7.298183759134238,  5.815329768930349, 59.319469063023512,  4.865586471680592
 4.759099519320230,  2.263505094748731, 115.563091967622512,  5.157858237798823
12.800028832057851, 18.098254102257332, 34.041882442856433,  4.598831568134091
 1.608026436307683,  7.439409698021805, 47.386507726747311,  4.966191925814733
 7.777634567654525, 10.318958469832436, 97.657176770586702,  5.279143349835203
18.019095703613857, 10.674004040107407, 77.579719836569140,  5.064255088228114
 4.424131279912546, 10.019307487480614, 44.207623940275106,  4.903894383908587
 7.195286606045057,  1.353551950217394, 73.956251967366569,  4.986024065354496
16.790885936678059,  0.511238171163491, 72.914799926495874,  4.997061701052607
 9.133135810452856, 12.526778311831482, 115.889111490598097,  5.184979667162859
 1.097104193888197, 11.756527024790694, 23.012763184296031,  5.049894302503771
 5.510619959517159,  7.898847935055721, 14.801461270173258,  5.321478028701540
 1.867735071589016, 14.205930937625990, 64.895849931674690,  4.589731807436405
13.672683281326625, 15.310386647379278, 72.439892128648225,  5.102554946110549
 4.036246446300130,  0.673809543680983, 52.252328771299908,  5.479645922084256
 7.824812929631018, 16.636952351221094, 103.057403936434397,  5.048041830482999
 9.449906625255869, 10.829809019944753, 37.020353353564893,  5.269577451737905
15.495796813874588,  5.969388889812760,  5.454077783285890,  5.425049637681649
13.080308626004067, 17.797014616072971, 81.766437177014581,  4.684506564420130
 0.370605381180044,  0.480075270681684,  6.116596771641811,  5.229496639702128
 0.979945745303311,  7.588713348135641, 111.106938376434144,  5.264248035931560
 0.680850535926285,  7.127558483739384, 16.400927184358682,  4.958735182496133
16.679328037684652, 16.660731602538846, 46.807422150049632,  4.978581817249495
 8.120725967112392, 16.589168742532895, 54.210718285718450,  5.218535410009244
10.301518687036745, 13.821857625194950, 23.431689798372496,  4.975706917516361
13.931534795668192, 15.829379100040297, 85.990126451122478,  4.750033939878181
 4.745748400087635, 15.912021221384375, 116.292677427595109,  5.161177713241429
 4.831186504942975, 10.850245145988916,  1.108967084978865,  5.300346729629589
 4.803934385637510,  3.796476104853306, 110.807369366291169,  4.829558526336620
16.792048524850873, 13.783324864372460, 42.696731307494332,  5.051798069216997
14.748263227027589, 11.216455601222764,  5.534477768179464,  4.934447368455409
12.901277511005494, 16.660875138254848, 52.275700387467630,  5.094484108459102
 9.287711023326361, 15.066727161373990, 97.409612479150780,  4.599320551427764
13.163082734608455, 10.400612903372203, 40.896916530589394,  5.499113713066401
16.400443874838217,  7.040304361333873, 38.602245368212806,  4.892486829392675
 9.469148470075172,  1.610256322068707,  9.001825449494088,  5.205105235439464
 6.289671030932770,  6.238559196475434, 35.981597323290991,  5.067826057029953
17.390522886680479,  5.381030269592881, 72.461866041107541,  4.810989656442828
11.927734994227961, 12.094129943102146, 108.746034751952095,  4.900290942705935
 2.033493961581414,  8.845019988439079, 73.822973996435209,  4.868692122104212
17.243567903944061, 17.059526610781059, 113.669456615486354,  5.331638111232390
 2.460346724966362, 16.406040566477021, 34.424154116916242,  4.490949996816035
 9.866594619201026,  3.767581590294025, 111.452395845905841,  5.363524935558701
14.227279925351787, 12.314319838845597,  0.754427157925087,  4.927593619416389
 0.251515873142402, 15.792463924528613, 30.178196759810593,  5.145996971474260
 8.914681925955728, 13.934069663194480, 78.823605284523481,  5.047163894133300
14.616484732896119, 17.972419769300519, 59.487141100502647,  4.898473927164547
 0.762623410586868,  7.092837863570187, 86.352108096266988,  5.278410080210802
16.395577661758313,  3.579269526114648, 42.437499518624200,  5.435475234873404
12.871025966299401, 18.207432900147804, 24.429932431084097,  5.379524824854107
18.363629694547999, 14.424741226340414, 74.166321300098190,  5.032849187404415
 9.028612956278184,  2.335568449383612, 51.785860722100381,  5.076978381583661
 4.208936744547378,  1.696282212958429, 60.331710560375356,  5.148928272814683
 8.534007269159245, 11.417622024413090, 54.715150958598720,  5.186098972609514
11.771156158295687,  3.823905251167209, 81.028944916843926,  5.351054161219579
10.842448119648704, 14.252466281121954, 42.982567885886141,  4.413839782324026
15.527191044385498,  4.757489621979930, 34.296507138485701,  5.008889280025570
14.407661723479508, 13.805856695346579, 104.522095853280987,  5.247417233307763
17.395787981108651,  3.200786020527874, 47.622266625728621,  5.143474476153807
10.339217745875013, 13.863310826118461, 83.537566521306189,  4.793082842451594
 1.926120196706730,  2.126687984312625, 97.851168419848094,  5.359674521285337
13.412748340977901, 15.546739920510381, 94.811663198108732,  5.193673951116822
 9.573489249017012,  1.358517312786349, 43.951140144913950,  5.063803528934202
18.606755228609696,  5.799489785790809, 77.090838341931629,  4.796069400456298
14.019159209719746,  3.410666986745283, 51.477111069168473,  5.113325761977129
 4.351337055897085, 18.716627175030478, 29.228765265935248,  5.101008819875412
 4.663477451035570,  1.700445474288990, 34.275294103557755,  4.744561883382340
17.536780082029022, 11.314298652052919, 46.846115826771261,  4.699307435507532
 7.529889790318973,  9.150548606373416, 109.577341214569870,  5.263360046479061
18.590140146459468, 16.036594703079402, 87.656213341315052,  5.146489621764141
 5.111277535909599, 15.169124270237376, 68.396506154635048,  5.128809578805642
16.833240366100366, 14.937105691928753, 25.594648291054252,  5.144339088421273
 8.848927364751800, 14.525810884301093, 73.808342556306997,  5.037717849822364
 7.049744587420134, 15.341487110838946, 35.924256901874443,  5.179392024878511
13.978995005003277,  7.505348475977097, 77.949410714552386,  5.213073575684165
11.612282951289609,  1.110745943361276, 55.956320035234512,  4.990580466415573
 5.031452119896362, 11.261184071841068, 103.162374138348270,  4.832000835162596
11.342152998154312,  7.681772383861444, 100.107529190919536,  4.850885434688535
11.551948099404038, 10.276202688311072,  9.151233970366809,  4.896611004856898
 2.258357784527535, 18.621705825445250, 47.560615940157128,  4.678922073248185
 1.554303495965021,  4.815167553185627,  3.240703995198322,  5.438262549264248
10.133104346250187, 11.159823710079154,  3.467784961055256,  5.162005923937238
14.618834394044121,  7.120297025032148, 23.458218610005048,  4.909176266026400
10.827509078055659,  4.752334515829174, 47.612498295691395,  5.217236213626423
14.238580219745934,  5.761663477432677, 96.487973641663373,  5.182804673994879
 3.244206438754984, 16.448125546716046, 111.242421794798020,  5.387087499664100
18.505853483184431,  8.365198557155058, 30.506850056878228,  4.656445286306087
 5.295700212796768, 14.241664242942171, 31.303782256952992,  4.939490810225275
 7.658453105652303, 15.582981718646977, 27.213663222365572,  4.860798326994876
 3.165068032630783, 16.006238912028909, 25.000702414738363,  5.191112724764651
 5.110646286777969,  3.888964530216916, 85.833197162538127,  5.065615180296550
17.444385592528402,  0.262500944309630, 33.640557153578627,  4.846387537931739
 0.276436333728489, 15.035210308507505, 97.448540318819511,  5.527424017940434
 7.717412720275758, 13.261884928294766, 106.642912922153087,  4.796073178377648
15.908565725716011, 13.134227384836469, 59.893319835108628,  5.119634735085426
10.011004245906555, 12.335718729815056, 101.774042874788222,  4.900708283588676
16.756885175299871,  8.111019314687226, 59.984969969793568,  4.858880408519282
 8.552831323235308, 15.939702285418500,  2.237629555261846,  4.856623559113638
12.347552775702850,  1.700565876347090, 63.285840900634646,  5.256981810473929
 7.724999414635379, 14.275979720082258,  7.101708935710877,  5.548204198133115
 2.897673047991902, 18.472215551905251, 81.589547446637866,  4.832973169953618
 5.115069313758743, 14.190327633529497, 99.381039743329850,  4.723277177169749
 4.738693238533171,  6.487710418863643, 77.292120428407699,  5.100219284111100
15.491731828253394,  8.165915501946689, 13.924986604625769,  4.575907193607420
 9.448627716617853,  9.080903764590268, 79.344299041537724,  4.766341847127476
15.009933095963920,  5.456049757340814, 111.808017585973175,  4.827572930150650
 2.517145348191714,  4.406413374725910, 81.103403252520692,  4.550693688443955
 9.040479521115007,  6.084985824523837, 18.127803886266001,  5.030943986542361
 8.496398455383035, 17.289743074508745, 40.180588803291641,  4.617944729583033
10.025824710065741, 15.506278846146978, 18.817969865734650,  4.862128387086335
 6.146546526930719,  8.519663745249805, 92.742108518136007,  4.779963353568109
 7.053326750008743,  5.512029185568663, 44.465256767636788,  4.706679542792711
13.863134208991433, 17.829558151590518, 42.812697137010673,  4.928964847225411
10.187774515506467,  5.788857567945869, 86.063160345359179,  4.877984179559348
17.623822585035114, 14.286631907236705, 92.600206444711148,  4.618977856233902
 7.911182050601358, 13.179239475343207, 93.047875146286316,  5.188191421386491
 8.381228568734755, 11.044694093335327, 29.039997504363974,  5.025284193555247
10.201276478668518,  3.355884606806671, 67.457557720891259,  4.665258918869605
 7.671617699595421, 10.689690582629783, 60.314408460703973,  5.106555728115660
 0.012560910443483,  5.304516446626713, 94.223405749826554,  5.011456479899945
10.789347190134517,  7.809458592766290, 93.577699910180812,  4.724214099031498
10.185389668221546, 13.641450666540514, 14.244620648275541,  5.016773888823865
 3.340664168535674,  5.170503892853421, 90.420816146906290,  5.092664784147337
 2.869073670021373,  0.215101992146783, 65.094838502505979,  5.174518605264399
16.767721695956219,  7.839536027831321, 68.387677905830699,  4.772517637016146
17.530778490741053,  7.295344969333788, 81.625310011241353,  4.975993976266612
12.321599570627688, 14.471164465404661, 27.849241270720270,  4.808734915395368
11.852134548049333, 16.072403295240637, 10.279794672394722,  4.837158152819082
 5.832945173889200,  5.872167123977288, 53.031294261676301,  4.772367394576335
15.841088493690901,  5.310700070297100, 19.131320144898154,  4.778744116165066
10.422083103163503, 18.723738366042511, 77.663844313214497,  5.233249447364687
 7.006517739038545,  0.579177045660047, 98.678671826994304,  5.375976770865719
 0.196168196129796,  0.573364964700610, 26.932106810471502,  4.474712898864827
16.344108404056069,  0.257188697240408, 105.151249420226776,  4.893876235175627
 2.330306635733284, 11.905291721916029, 86.216722254227790,  4.835505671811002
 8.497898835612292, 14.489780816001387, 111.291468365410083,  4.890669922407366
18.397019727086537,  6.508771277653654, 99.243098940586350,  4.887750123200115
 4.265717747168372, 14.903546992439217, 49.766142817468982,  4.835370658819625
 3.833985125971802,  7.175305867786157, 96.790214420650045,  4.919926433793822
11.792592778601261, 14.530632854075098, 57.199047577319476,  5.101762424690751
 1.183403494151866,  4.869038101886414, 51.507791689307282,  4.731434494230638
15.595821053156286, 12.151262416688619, 30.576816699324894,  4.880321834858700
11.524504522243200, 16.576017304250193, 47.233010160910908,  5.360905544920691
 2.718119434236659,  9.385266106021042, 51.965589602311098,  4.825609557318869
 3.611297958350621, 11.774526179183576, 95.200698091901032,  4.819595198254819
11.066557476207144, 13.582598842369471, 32.732966222019648,  5.421021167974199
12.972937224460422,  3.573788236519807, 92.162783244841336,  4.834474995915505
 3.047301443803351, 11.564174877577022, 107.919545216704023,  5.437934684286622
 6.314262986872153, 13.762505215339489, 63.819346480586248,  4.579165441576388
 9.340765106211629,  9.144175177257656, 89.334025227696003,  4.629122107784081
 7.115961609337155,  8.228793209662925, 40.602471638262529,  4.733002714884226
 3.860491761234278,  9.692608789149650, 19.351115376021994,  4.999599621983032
 0.312872772474983, 15.613517850941268, 15.030513267064649,  4.800845467387620
17.204310869485028, 16.767877939719796, 38.640621806829074,  4.880368937420394
 7.199019671901263, 11.099202180761017, 11.209180070742789,  4.871033465954024
13.658297927886743, 11.522531964436538, 53.266266126331502,  5.464636123121376
 3.214520040146522, 17.857696263103211, 101.636099374115020,  4.683459800320541
 1.570280026487230,  9.509052084377403, 91.623574920992695,  4.575057266094422
 8.511568426992719, 17.957166989153205, 31.860726594453460,  4.859612448435066
10.716463724663587, 15.816273894472264, 89.695302082705098,  5.017556955976178
13.430744857574464, 13.539453767337351, 113.277215654764134,  5.069007353436922
15.498727590069336, 15.630995151814931, 64.290677942654270,  5.023271374605597
 6.582249013396829,  5.986642986065424,  2.096242466108584,  5.132231803093911
 0.274841229188059,  8.755468320074870, 103.690676235669997,  5.063641047514148
14.699545398675779, 18.577045687821979, 29.454357446042906,  5.194878644993097
 1.416446635371432, 18.761352179023195, 91.979957819839328,  5.550167710831865
 4.290025844309245, 11.544482032605854, 77.820884973087715,  5.107774485106080
 9.186277961961352, 17.789553607659549, 70.162558010205970,  4.771482052897383
15.126378840697731,  6.810519046144221, 54.991112856049810,  4.913022004161030
14.843221784908925,  3.023206410306322, 76.513546562671209,  4.170686924661863
 1.963308208334421,  7.297406399901994, 116.062582131639800,  4.821850664146513
 8.822577359967720,  8.280544790240787, 104.573000268242424,  5.216312592441655
16.632585296428612, 15.612930350910730, 55.527437181059199,  5.008490632890284
 0.407593511536988, 18.086761325304078, 42.848639486950638,  4.774374909495704
 2.313474596546734, 13.945391671643886, 40.657871688869420,  4.453195901672722
 9.063434727632654,  1.103147547502350, 87.256427622382219,  5.003649592406398
 6.275134280620972,  9.953086674378314, 48.696511063475526,  4.792490781791679
 6.956729876508803, 18.527739692735821, 48.154839333807161,  4.741618824976332
 2.997887157496429,  0.252460560734535, 20.918812613610456,  4.888788769512801
17.659593225426274, 11.835938513674435, 38.100885597687636,  5.059853931019629
 5.739035677640302,  9.353349544479862,  6.098207236400711,  5.254688158221827
 4.924688773937715, 13.422032858744940, 15.175370788607919,  5.372939769677999
16.663762170050163,  8.977838219602042,  9.437297397521823,  4.827831539293982
 6.679346273778883,  6.945907099051427, 114.291047590812042,  5.278131648701417
12.492512132388116, 11.796875990583619, 91.735289364066347,  4.665191857144307
13.175340014419382,  3.945113144524906, 26.944341864426384,  4.951927430102298
 0.976177448727888, 11.462025032089015,  6.379654158132345,  5.172443726826319
12.788020012590717, 10.469959620574395, 62.623368005110059,  4.736620433720152
11.312304579226247,  3.398194354735250, 31.689798836645576,  5.260260637201579
16.667583751945152, 18.755485911306661, 100.253099860752926,  4.931066076247943
 1.998360662648425, 10.664538797028676, 99.538403621197361,  4.688622287494248
 1.336887121773342, 11.701509397608547, 69.323305937748259,  5.087893748490491
18.298732799690878, 10.721958418868747, 55.897944136081378,  5.317223166839609
 1.435015744958677,  1.420553164208030, 108.069514272697177,  5.055346078617053
14.575649257973655,  3.732624201042862, 69.038421850506410,  4.623546478518771
 6.821812794123916, 12.964638858787358, 41.127021180277559,  4.809083789775726
12.049020426085846, 17.400935116305178, 111.039968801514519,  4.274500421760046
10.881757863657642, 15.010176018585696, 62.226478754943891,  5.141237097826179
 5.595363592315230,  2.398152905741652, 69.123522925633878,  5.304109298985058
16.877749932219647, 10.084795674992746, 26.465838504628877,  4.668040880763219
13.563361934477609, 17.896215619057298, 68.217071835053559,  4.800672550525598
 0.537952909857458,  1.804500388818965, 85.504090841100663,  4.986484729116298
10.394580482732495,  1.618457818210491,  3.860877968782985,  5.235855713157760
 4.587799819419746, 17.540012608329921, 86.242112371599617,  5.240797591457003
12.290022068379926,  9.578167820173396, 57.918176543894127,  4.870163587658577
 1.130078665024027,  5.045169223563422, 65.181743447608611,  4.674039640218638
 2.560800645875141,  3.529799260951382, 44.339165947877866,  5.115630903340513
11.421502669918651, 10.889154824908648, 71.229869659699958,  5.106787490676829
 7.845016848891730,  9.608051459080755, 74.678899603432001,  5.138579993839788
16.380134170272619,  9.269193759691271, 114.696456318935731,  5.117235233687267
13.369813781225744,  9.484561510990568, 18.230322590227960,  5.066097150685475
 7.115762523629638, 13.058535333863825, 87.300008889347836,  5.239896866243485
15.842334260791276, 14.674294151406704, 34.596892203449741,  4.621422545271942
18.449350360991485, 13.357557360520399, 51.291423772237017,  5.252954048185453
 7.118405348358086,  3.399243364172297, 40.055249005084363,  4.986125329201193
 5.306729359992368, 14.516297490955978, 20.404740429171916,  5.289281671741814
 9.606301523031565,  3.606659357990151, 102.438958480851710,  5.149536516492778
 5.336460568569609,  8.503542696190330, 87.272106952286805,  4.462695486335257
 5.392834286701175,  2.057523119459494, 104.751978644512008,  4.944451202536347
16.773447411148855, 11.595331079023140, 83.947477054199339,  4.911184529601471
14.636376250152209,  7.111974372062136, 87.083540432466137,  4.617752983205162
 3.785726437946187,  3.889818966911220, 12.148914016010071,  4.884784325176756
 0.639505088173799,  2.440417166833765, 69.370091931989393,  4.619762359587087
 5.063493610691276,  4.172822402883305, 48.596986963831988,  4.844123309402320
13.367773692708443, 15.213973986751501, 99.788744413950653,  4.782711842361601
 4.978479445802187, 18.544528133385072,  7.846081734965829,  4.702821329831933
 9.467934182409406,  9.814718559836665, 44.712363379571102,  5.172744027086046
17.236692146696114,  1.846348917650287, 22.563508752728609,  5.259980345391223
 6.047826840693292, 11.084095908915957, 24.405213650863342,  5.322985961476312
 8.252043297080693,  9.603228776512587, 83.908273027777824,  4.700642098787068
 3.345398667195444, 13.935595905556360, 90.737716395813663,  5.111996902691084
14.686433209108067,  4.405160807277844, 101.957362265988294,  5.174757234613892
 2.400280175407884,  4.240982674293705, 56.242754806924232,  5.121070144050067
18.336419135175966, 16.525090701901291, 68.517353569766229,  5.138704569402880
 8.036681980979674, 18.157625604990042, 65.273447560736244,  5.297992335412331
18.167854743369713, 15.321912784165223, 107.852268859769524,  4.973255566514913
10.572733684551716,  6.313336381298371, 62.773987377639820,  4.679613565659251
12.248602266269700, 18.383734694877084, 102.974672882046789,  4.462481003655244
18.600809778720457,  9.085784847089315, 42.557108994057799,  5.018169607865572
12.440371269193021, 15.026491796920945, 38.200261941799489,  5.296474906990198
14.763614706536590, 11.807142462330660, 22.330193308838471,  4.712945774984724
10.946639901244913, 18.552500803622387, 14.442753036282998,  4.926538872122621
 3.938650804221336,  7.053160226697327, 27.158015604053055,  4.774815536854338
12.061192453450007,  7.214083777231101, 108.351598713963753,  4.891165373537632
 2.055827676222362, 11.658384067663771, 60.414039581632032,  5.198853162996131
 0.485147357531178,  2.841555296997561, 112.737287967916913,  4.783636854222762
 6.883377043582841,  2.224880081291523, 56.181658633340369,  4.706846384125401
13.958754741158524, 13.341151576330445, 80.362810517278049,  4.813342210521179
