BANDS
8 8
NANOPARTICLES
cell(1), 18.750
cell(2), 18.750
cell(3), 117.185
13.543739946271257,  8.816721128264660, 22.903408997174893,  5.164228974784186
 2.926133597040245, 12.426020442930000, 113.056006243415737,  5.103081933242773
15.928889829179433, 12.176045408768328, 103.974075605586549,  4.673428798251749
 4.080756569236521, 17.932272518433297, 108.159110167492898,  4.556026252005609
 9.334792415911961, 10.888763703025568, 76.087672474611153,  5.199255986601441
17.777492424948534,  4.321242468128331,  2.475441643441854,  4.856527903357375
 2.293076600337896,  5.702218066589956, 72.185979382315622,  4.721654172596201
 1.022051774876483, 18.226966639215739, 82.496124217665198,  5.124398823336424
15.404160931594937, 15.782626415564682, 100.102998849009097,  5.135217068272585
 4.779955844997883,  1.338959813248961, 72.642394126535677,  4.926767670491414
 9.792600634484948, 17.968987008222516, 24.313949561046599,  5.495407618539065
12.704300699253567, 10.619176267942072, 41.075718380922041,  4.964880040146221
15.355899939075798,  7.258525821808094, 33.547508546708499,  5.093806931885516
 7.986559285163596,  9.905382719114339, 71.287615710252311,  4.914533622887614
 4.820080863911079,  8.624342571514344, 101.541979625745952,  4.551454498205483
 7.686108507071754,  4.497133123325383, 33.139790343335790,  4.529585019594865
16.978297643259257, 17.269176090217229, 86.713942920363522,  5.168235670488994
13.093308224996360, 12.883567662244809, 112.314441829139355,  4.503814422867534
 4.638735129660811,  1.257389555350971, 45.115609576165120,  4.885497975630617
 6.402913385460720,  6.485314213388718, 56.859693994479798,  5.058212871787320
15.275635201671179, 10.102875245045919, 61.955866092830696,  5.265766483255905
 4.105436118235129,  1.507752474724452, 49.988168576837623,  4.924039480905364
 7.341484414715353,  7.275523044159743, 97.535592183413598,  5.274908403517840
 8.358614857926883, 15.241039201397230, 11.333732137383183,  4.907884994196408
12.209642300477993,  3.353897771406812, 45.257945323394274,  4.750189419470209
 0.039947753181963,  7.528131005042810, 50.536485304291688,  5.075609958727356
18.422824038432289,  0.112484145838811, 109.762276279710278,  4.994395541081392
 7.549137669548031, 16.233338768232098, 55.502699574240708,  4.542271677617584
10.919156054557595,  5.883465785885419, 40.773149572846307,  5.165892349315650
11.751444471359813, 18.477210872115251, 55.670192228916946,  4.987322221333148
 5.089106122266797,  1.698416244083689, 15.592063379103672,  5.155634314138900
14.542888188467535, 12.463403417661619, 86.563885925419456,  5.401639400798835
 1.106068916279913,  4.014586759992033, 42.823268695385416,  4.848117763852113
11.569683273157866, 10.745587354537326, 65.212784539612755,  4.631372198523745
 4.618567180038689,  1.071748095302265, 34.899221139778881,  5.314311535023145
13.855250607451609,  4.064654942279220, 54.014525561207897,  5.192457417074511
14.699185694689724, 17.336271515840508, 82.043009164384813,  5.162247775226064
11.710077184442751,  5.830556170114731, 49.738425913103974,  4.956051311430152
 5.007813715657396, 12.807390962051162, 24.964850210801501,  5.037034521101106
12.752105324637890,  6.012166750578900, 63.902719664754422,  5.104537680123862
 4.636757019339943,  5.548458162060384, 105.336181049619213,  5.217783235488859
 7.498341738896035, 15.815237446753551, 16.337024881271056,  5.236202718189657
18.743078879631955,  9.861743385970279, 74.686544709472841,  4.924587553169895
14.273219257365497, 15.872544878986609, 95.101788979866313,  5.095561253267912
 3.984161003482432, 16.018312872116130, 65.368049625777005,  4.865920612625617
 2.244678230584736,  7.015662800555477, 114.011553799960623,  5.372737189925755
15.330038749761700, 12.332955612228348,  6.374350842489759,  5.073638086843838
 1.725717606214584,  8.556063486956020, 68.140503418290919,  5.243249657672747
14.430864063247764, 14.499038567056397, 64.362366875041502,  4.873435684017481
16.585741114111780,  2.726982809533312, 93.496735633722380,  4.865142291786132
12.202436491013453, 17.164601502471406, 67.827973289458100,  4.936666570267790
 1.678116741132943,  8.490317973215543, 83.960158985389441,  4.965966286787311
13.354721241514534, 12.447305444217497, 11.050413171337079,  5.066900824231776
 7.592774743495336, 12.045454059570114, 96.605121568287942,  4.440550894446059
 0.657346312880711,  0.130530518369978, 18.700454107085374,  4.886189372788754
12.585957600243258,  3.481206833261326, 59.190774476151446,  5.430703349062867
 6.994585303994588, 15.750622895271245, 60.174723785801191,  4.915862199077917
 3.019196300025592,  5.981958515715403,  4.358460481580266,  4.565481029026133
18.541400990560753,  5.988692795209968, 30.048256113436441,  4.704821532339684
 3.273566255123072, 15.843352487192647, 38.024455230410531,  5.151043623961020
 6.382809438106552,  5.336701744657638, 43.257903099242093,  4.724527699020061
12.076300803493638, 18.109107255794544, 18.863019691305528,  5.015863745745627
14.359563756544684,  2.818305895538360,  5.561845798221489,  4.720121156563265
 9.953499182831901, 12.738016756477485, 25.937989793173699,  5.034493916632277
13.192709693294900,  3.110303841792710, 102.514796337305256,  5.336344793043866
 4.721698670102171, 13.687636051949804, 33.698964229741158,  4.939346662286538
 9.683181392382707, 12.980671713471370, 88.493639116995112,  5.084984862492643
13.241766369575670, 15.202834938455267, 49.667952414784665,  4.932237424591273
10.863083991599593, 18.441905057178584, 62.316801445160728,  4.938134916125947
15.269742843913733, 17.295324307571061, 45.808479709869651,  4.674148127203171
 1.296217904197200,  8.461573179244775, 62.993369701617475,  5.027946966119662
10.461460306087560,  1.174522119130167,  7.626139049951636,  4.683374659690238
11.696417727297181,  7.064843658563501, 69.013674205483284,  5.463079600151124
 8.257510773337140,  5.461321691517337, 61.506699552731320,  5.137279580171798
 4.705132906155288,  9.975944857900629, 54.078306173394104,  4.472738366738488
 9.559926633713136,  5.356213541166018,  9.229629282072812,  4.421887076913435
12.541306552239895, 18.651535152189933, 38.753302306448170,  4.918219599382512
16.027478666631094,  2.031010014175931, 113.750574166151267,  5.067416523213824
16.854228253693861,  5.296070252901879, 75.891573549289888,  5.234521032007329
12.318354817853525, 12.030823763960424, 97.794401826128748,  5.067124185606973
 0.100425597885198, 13.464291921052583, 108.828991072098106,  5.224135518356910
 8.507371911873738,  9.403943026573918, 22.525458943141778,  4.909484631870245
15.676006566649670, 15.381604240782922, 41.338542941943317,  5.063057482672686
12.405596745688653, 18.030377548518857, 105.811956680647484,  4.892165859239922
 5.772940094040737, 11.496797485620874, 18.637502845013582,  5.085935303165309
 8.776146206763750, 10.268624778543211, 61.633233789859347,  4.498791669311643
13.774950237064841,  2.986799748058963, 79.710921588866341,  4.902001292844449
17.936052150860395,  0.140198218832990, 38.067430039676168,  5.040010953610524
17.395202661886181,  1.286310889472231, 10.002050904315844,  5.094944099900426
 4.056249855831421,  4.996397363285551, 65.315968074447184,  4.961814745231661
17.556407624142068,  5.138379575312333, 97.674445516931513,  4.972180927425878
14.634771492305941, 17.762196056244623, 25.938801823073366,  4.723978019124822
10.172049766891307,  2.725332966688192, 66.640073000276985,  4.873948166957089
17.133557661264113, 10.267131899704969, 112.450086034081295,  5.024756325384546
 4.841220514264241,  2.558019289773926, 30.248531612919404,  4.452593965673381
 5.734976241969822, 16.513193800055394, 82.840606544431367,  4.897438760918483
10.876854901803449, 14.024316274725585, 108.045336407288758,  4.602519129195684
 3.907446154613281, 17.652651082895648, 10.517306129950740,  5.188649539053467
15.587638692666969,  1.699046487110902, 42.188473736986239,  4.939352173943347
14.733813269499109,  7.289468867507895, 18.109518826385059,  5.154988658941396
 6.683347860746284,  5.159609001628248, 69.765340754289156,  5.363198816465038
16.008834410692000,  6.952461321890944, 57.488547016450717,  4.803854781204436
17.785250612052682, 15.025993698282715, 11.007225264794549,  5.128452483570348
17.656467958765774,  6.441314589045672, 87.504008664905143,  4.870965899513792
 8.013239772351151, 17.596236609132248, 89.292165420761506,  4.634030264042767
11.594358474114616, 16.056413649272024, 29.370136207525182,  5.059163824378980
18.527574607810912,  1.206581834224906, 73.185894867622565,  5.124525791105849
11.939246712683611,  8.092097909611240, 45.359834337046770,  4.732783216252991
 1.672136399421249,  1.360920774395440,  5.720345619402061,  5.392447825442047
 3.552145510655325,  3.295862253932617, 110.587503005457904,  5.047711677790997
10.404194134112490, 14.167050174147814, 83.333695251588921,  5.598230473267387
10.932389455125215,  4.762846217645277, 83.605290809392812,  5.217775211876880
 8.797555461543485, 10.682061076232069, 100.771579392957733,  4.534791123224032
 7.668892555038611,  1.626398857948635, 58.079691629315626,  5.215640827188680
13.874490213728295,  5.766897761494378, 29.237489771668638,  4.496421233464879
 0.462378607969355,  2.271485792019402, 89.439888220397776,  4.831127818402117
11.811662805560770,  1.329561730009187, 92.962436196900910,  5.131540214358880
 6.435225424196219,  6.788216037809676, 29.276353742379623,  4.793477559740396
14.070265640689843,  1.397402424889070, 49.600857159359315,  5.091903803392049
 3.853398998793816,  8.174407913282153, 23.014837199711536,  4.762155108484971
 0.137172545249148, 13.651448025022422, 60.338086020108584,  5.341920968214302
14.308236239390144, 12.459506344975448, 45.534830069866899,  5.201683341048342
16.091332307060402, 15.644102767956459, 15.976796678672159,  4.811283243113444
 3.228674145716161, 17.388912000469919, 78.022640056368203,  4.972048530734687
 0.844299148900803,  0.099575319236576, 14.049241273318211,  4.417640049883449
 5.542161414200820, 15.723892079027722, 42.651790927395190,  5.157375975744662
 1.599008608010149,  6.177488186217361, 55.200840030196126,  5.122851714991056
 9.049038987681270,  2.893866455024210, 37.272653481219685,  4.739162019699400
11.856644906021844, 13.419360169783710, 54.365086109853337,  5.459698359193554
 2.950565604796066,  4.461859934267443, 26.224676736707462,  5.214994754332852
17.100213430016190,  4.579741857177624, 61.668395191168642,  5.052501157444381
12.847260486084725,  2.856759953980009, 11.483008888904038,  4.970422516628139
15.445420512792852,  1.913109026588572, 15.827011131252169,  5.297274682825049
 2.714878702651697, 16.365264740198043, 70.099311113305987,  4.948089474718569
 9.834008597930254,  9.225831362448538, 17.793959974971553,  4.353366768547936
14.713103868413437,  9.105562018769110, 53.191481304453596,  5.149544664158603
 5.591538758265681, 15.374318319031799, 74.075916251644585,  5.042611921530190
 0.241876489852827,  3.068025767457569, 105.806733270451218,  4.918702411805643
 6.661076846252509, 11.673846377554217, 29.583767482711934,  5.004158257381463
16.230872676960690, 10.847642977790484, 14.839733900126276,  4.956866413363148
15.618304111968616, 17.753747520804822, 60.723592884320894,  5.174638934906841
 1.401183660000114, 10.166329085219367,  5.920901630979181,  4.912245183398156
 0.807749649931404, 16.729093782177316, 33.300385255554708,  4.999929357411149
 2.759674898438155,  3.328238707579312, 94.740413567381097,  5.358275997528262
 8.715372367932250,  2.603624219361671, 106.674058181519726,  5.186877061213627
13.276888131097083,  3.133644450499413,  0.778772941139371,  5.029551174760654
 7.964528918842394, 15.298522223625662, 69.645531487436131,  5.007029931539434
 5.150661869171367, 17.982837516622276, 96.936844015647765,  5.074514166918728
16.634127773933354,  9.283700174638115, 38.125121374973567,  5.218306027260450
10.788686305978908,  8.532193319370235, 31.705370173012557,  5.078756905091778
15.538051807122871, 11.622136250433130, 57.273931992408677,  4.582220412609639
 8.720225789149374, 13.884459492408773, 113.944922172174046,  4.983704873991231
13.195358728616160,  8.113242208057203, 89.539677293572012,  5.472630112903773
 5.507360824140016, 11.774641157981911, 67.221979835802045,  4.855519308503193
 2.459950425870699,  8.593519646521855, 13.412064749465307,  5.085278111294137
16.224745239936421, 17.194417443200660,  5.978497530491314,  4.817807671276167
 7.813711400296607, 11.980810019936953, 38.248346047237128,  5.685380063297792
14.948087996034024,  2.988293196399959, 20.885780402307567,  5.082122456583933
 4.388538612661457,  3.500577073467286, 99.852215948311454,  5.353734697947213
15.649336338179694,  6.720957499265380, 105.312310139371462,  5.032216122249267
 9.586553810609438,  2.226198072263554, 29.178087424328218,  5.295025663589529
 6.475600280552634,  8.196076853169862,  1.998919132510171,  4.900493955411297
 5.540528916052671, 15.817936916269534, 47.890971514700425,  5.306067560922700
13.691876546767782, 17.058632913332481, 110.373094902145198,  4.781357024931198
10.603290613468564, 15.307726339674668, 73.894035315530630,  4.987884909967019
 1.029351415355427, 11.477056538739683, 101.154150361600870,  4.964459488478352
 6.131297851176952, 12.201482838357432, 91.819174286571169,  4.760383354873879
 6.541875232085183, 16.771648938642404, 30.076338842339929,  5.239284574329442
13.351958299974125,  8.026453083011821,  8.187678337234736,  5.066378085475816
 9.691988107128362,  3.716483534571851, 89.156192211160075,  4.758176439966929
14.284223803853127, 10.598106725790526, 108.291110934261667,  5.050718747921792
 9.128322722016978,  4.667512268104677, 78.867622229788253,  4.852409806822080
 0.217275682088805, 12.753395177142178, 65.482079644089112,  5.101825636683953
17.937787771682846,  5.756949781267535,  7.434067286406352,  5.267074467808500
17.328914957488859, 17.121051036457498, 67.446630795959592,  4.978723992389276
10.008558231591142,  5.087313149597032,  4.356495139558139,  5.376640716492673
17.469409002748726, 14.103057498896865, 36.901115172527192,  4.840188183024095
15.855435461351595,  5.547325620056203, 47.199033033365943,  4.591980247087228
 0.019985664110635,  7.006170682735001, 92.302430595949843,  5.024173367999991
 3.210705142923564, 13.492026423880153, 97.310955829988004,  4.732958812659280
 8.971882481340067,  1.281672685086644, 42.051911899748504,  5.149747787746978
11.746931287868321,  0.184239388874681, 86.050770553868432,  5.290750870821955
 5.026586837944684,  6.050580863306023, 51.572365981366993,  4.863009042407014
 7.673512275635140, 10.985032006582530, 13.947089958119683,  5.086976339224989
16.534783465100922,  7.189970777678733, 71.137658471272871,  4.984963104521979
 9.669531515429325,  1.041559777164973, 71.358114761112461,  5.192263428531279
 3.508457907781172, 11.581134836576032, 71.805603740942232,  4.695912088622158
 3.151318319541136,  5.496060291192771, 33.225763117775209,  4.567261836688046
 7.013147302125427,  1.856488958092924, 92.649007875163008,  4.531932709107884
15.715572588717446, 12.121972484056652, 19.657873098829526,  5.061126367638511
 9.275995709682647, 12.786981589633571, 46.120562408090876,  4.938973776727789
10.649315404471892,  5.506850082820249, 20.445445058962157,  4.907934420739619
 7.653285959805102,  1.520108545088533, 20.029766670411373,  5.098278418434870
10.781176811204679, 14.243281131173200,  7.180652186416126,  4.896463269184757
13.037898228920367,  7.937251635950534, 78.457222031405024,  5.362255082340303
 3.948015695340165, 12.093427215339537,  0.669043657711407,  4.722914931411116
 1.421718025071841,  5.339824794024580, 37.889822178219568,  5.385240400913332
 2.514094522499267,  9.368907726656079, 27.721124658409561,  5.081156268102193
 0.344737042634149, 13.372571496250650, 84.050322586322821,  5.154661634355712
 6.547399232765393, 16.858251909620247,  5.990325022824321,  5.329126006846086
 4.855970402620340,  4.445220432305092, 89.217431491671491,  4.976065499794808
12.979158439259196, 15.016528638485571,  2.832773490302901,  4.965653215036433
 0.705081691151637,  6.314006777863325, 102.105805817502429,  4.949024675643500
 8.882772959892376, 15.867535363086411, 93.883775640612541,  5.288964834515839
 4.197659410893576,  7.310124047621912, 79.499949050987880,  4.910825724453085
13.357500340118394,  7.319269613438900, 111.752220330883134,  4.646976567868098
 8.272870901109656,  1.249888433297738, 11.886431982013006,  4.654729385371836
 1.894858096347901,  2.271406700407992, 68.804243238994800,  4.834634943627876
16.801040235291275,  6.096498552448347, 25.590876720044211,  4.867009199506752
15.016611611412831,  8.267828036145676,  3.437507266551195,  4.962324869649380
 8.003337577521110, 17.154313383704338, 38.199881369317140,  4.658451100586448
 0.896519813811110, 10.265664133321714, 32.685885464641039,  5.506825977937638
18.581085174570674, 18.165423276561576, 96.693991249435769,  5.166045927004288
 0.508553091009544,  0.762114414226717, 29.010876297387554,  5.242555914019303
 6.684819131995924,  4.669422588794744, 115.585514834058074,  5.152465167995135
 8.600151666843921,  9.224248486338569, 80.895960331049181,  5.077234866655996
12.065420784088639,  9.572432538399612, 103.781572042674469,  4.623415836256680
 3.524588890887939, 13.799758287669901, 104.917681204994494,  5.187665920356697
 8.630779175017199, 18.131492497288459, 110.907572736102082,  5.452508447450898
14.793256051184077, 12.288636858697304, 33.158740508187236,  5.047351422302790
 8.219674321041076,  3.002761904059181, 47.872400154759617,  4.772216130492711
 3.148726299785342,  5.639036698095693, 47.014871249761420,  5.015645596380508
 3.332085228698193, 17.741330831857024, 87.064212908328187,  5.090967633421040
 8.147798366616495,  0.457731109726197, 76.306595594330517,  5.175264260118883
 6.159866137320201, 13.735382897928931, 109.336088466203805,  5.094560454359424
15.904170450440802,  2.967958049088729, 84.404687604243279,  5.076869869596337
 6.006609227628245,  2.706577086806422,  8.005412528231645,  4.768863308205891
16.458872037115544, 15.411391058309816, 29.746439472834236,  4.780179557856875
12.649010287077207, 13.926334035716801, 37.441815605666058,  4.862441939162986
 4.308372034764950, 11.269405509169630, 76.588971165599872,  4.917624471260054
14.556270488489865,  1.514214249666732, 64.907971999327543,  4.791751752610788
10.602176645277794, 15.149026416369452, 41.866072669262778,  5.145539132604132
17.331073801293531, 15.395865676725064, 113.581430303212187,  5.472155259195291
18.707684809937639,  9.526083385015315, 45.700564990251941,  5.373508108085575
 7.330782286992107, 18.301496263554832, 116.101641635497117,  5.214553850497182
12.002331806820601,  7.779938412508161, 13.416402278358774,  5.736287607226358
 9.443092896005073, 18.284610011755550, 33.859302640646966,  4.761062476857610
14.449238318012640, 13.364415475544243, 24.380451754642255,  4.562735480935713
 8.345134306736542,  9.539153846220183, 42.747839868076014,  4.606205338239234
11.861813942192478, 13.892734070285849, 59.881497443993574,  5.472209192606408
 0.845742988597467,  9.649671739570719, 105.669293597471707,  4.777468045712094
13.081348303784027,  0.687834958754169, 75.293719721680759,  4.846910171346096
 8.761029545267922, 10.054705608147588,  9.053977234168421,  5.108110926569508
15.035915440319924,  7.925662161159575, 83.501506472072592,  5.145173197764398
15.059993643336778, 16.439983795766889, 71.874797677390447,  5.055533352194345
 4.153489738248195,  0.489933879512497, 103.788798821791517,  4.567961878751480
 7.184543697267985, 14.586897138257335, 78.649213376458803,  4.768036327674894
11.581625317996563, 17.518508473680225, 14.069668098055118,  4.687780673314417
 1.795374919882611, 15.024890778080058,  6.629590026247704,  4.937593786819267
 7.738428822878117, 16.534625775765679, 105.486224912040001,  4.922153859244281
14.795559402548523, 12.318130137733581, 80.801821691630749,  5.177262492439536
10.729394606915033, 16.689547953385595, 98.540265497495113,  4.862799404573451
17.941841545806813,  1.696307083125061, 101.202724910633876,  4.915178788846625
13.325066482125104, 16.124969957371928, 90.112046379131726,  5.067495811554631
10.475178557568045, 10.338852603021509,  4.085190797731533,  5.087241249640975
 3.370826446106197, 17.501407368131279, 112.909623303249973,  5.075288151463560
 0.630781431271694, 14.686609660830259, 46.475305712754519,  5.146083359349510
 1.630693161267872, 11.537816513255226, 93.257037291223384,  4.781164981452688
18.681222733895535, 15.247855842107034, 25.341435846446814,  4.872073298584683
 9.773513328634277, 13.333263276650314, 33.339860732308154,  5.213387281872343
16.271299296281235, 16.153448170693309, 55.611631888068160,  5.176434162067523
 1.099299929585615,  9.872739535074434, 18.035667505485641,  4.880343056801361
 2.186803896694164,  2.331783475094298, 116.328008018426360,  5.074982085056532
 6.302420898965745,  6.893381564827903, 74.900908810785140,  5.035330365162948
18.280666071026936,  6.247343940642795, 109.606591458624976,  5.084202023752605
 5.777123239648341,  6.215136764577133, 18.414352240290636,  5.485424182266507
15.499024752778933,  8.928330971230194, 100.324343950936296,  5.135080407018325
 3.290708317713918, 16.870369959300554,  1.862300495087738,  5.186390248690675
14.607131289665164,  8.345351793895489, 95.007518428069460,  5.240286607153754
17.675505897974769, 10.053940819154398, 10.175328185286896,  4.933929564972890
16.824914863025164, 11.977090324212840, 49.773035055420316,  4.690936251667791
18.323850566841742, 10.531839233612375, 23.724290702590348,  5.107578423344784
 4.566659632387493, 12.156052197822358, 62.461327456117871,  4.870422581885547
 6.632606998921704,  9.510493016099037, 114.510595817546402,  4.765164163415914
11.353910639299171,  8.444186371110369, 58.057936322883926,  5.029717695160428
 1.105179869967458,  1.093888004358125, 64.070043966018517,  5.048266293134540
 7.572827051602522,  8.243794931284658, 47.784971889428107,  5.260765532923406
14.417736331412643,  1.264520319085300, 30.106155898857885,  4.727473878985370
10.208151025464909,  6.126297671171690, 93.409259326505619,  5.022965797871116
 4.964326984232143,  7.654806261200020, 93.034278327130636,  4.933751886463268
18.610702494592150,  6.317316864012406, 21.099511034068613,  4.823639119731125
 7.494424527261071, 10.425284758936010, 105.513311246794188,  5.293090538774292
 2.909657595644803,  8.960467215563371, 88.759175443963969,  4.898626959098368
 2.641519606963067, 18.206961025730610, 59.467277960510700,  5.174777445504449
12.036343509933387,  5.943224334852897, 98.530722294962032,  4.680386233601912
 4.381338013631398, 11.783792429548607, 81.444385060888109,  4.848274407864794
17.584874553916134, 12.253875070315987, 70.396535034172402,  5.154083373562802
 5.814670234865059,  2.439107057217842,  2.832543277897732,  4.919114285465773
10.946291285472496, 13.560642773592011, 20.948931843886317,  5.231098991884963
 2.855128313444447,  3.672460862410607, 76.504117190581027,  4.878393954980943
 8.704335541461695, 14.611705978234617, 64.720305458623031,  5.037450085230343
14.621859472619828, 11.554849753658765, 116.702844185377586,  5.155257251560675
17.183487872434796, 18.700946710520906, 77.869873700010004,  4.918465016316840
12.312153524202328, 12.405914257557974, 69.912036968310147,  5.438744744463784
 9.037837983169684,  2.436161790718929, 97.058052714392076,  4.999606393957853
 3.514321812783113, 16.192776807144611, 52.395711672834480,  4.577293663079240
17.736558601841171,  2.714871698048356, 33.653917239271323,  5.166497151723018
11.115699352916018,  6.872144040103452, 107.484920748564491,  4.734266656078487
 6.088747651166289,  1.064544570114518, 62.944618471686418,  5.075053172118350
16.976279962339639, 18.215835372885973,  1.029335660162155,  5.398640525428770
12.730781648609137,  3.389069343822044, 25.341976584341296,  4.891459768471242
 4.994179130441126, 12.900319464105916, 86.329266027327861,  5.243948972336436
17.622655154280121,  2.205587402509908, 57.126200979200917,  5.248610071065217
18.397027292673876,  1.323202735038539, 24.061591168312756,  4.865541877891539
 5.939593175354616, 11.860721142890615,  5.380906270993259,  4.807251715776387
 9.806714949544970,  0.311943995494129, 81.216879524862193,  5.129659666817052
 4.351815029879798,  1.625907518292429, 40.010564284636288,  4.975344237928968
14.687644006478946, 12.768570572036337, 75.619270759137834,  5.226905371918152
 7.816456183435999,  5.662332349803605, 110.631157963512408,  4.693444472693308
 7.991927897254641,  8.299899175828038, 89.160023634235117,  4.954096734002688
11.115053480235728,  3.313529840254955, 113.391653373790973,  5.091858937951594
 4.040620257952919, 16.725103859320271, 92.064551199988969,  5.189846126350528
12.820262193102755,  8.895099087445780, 73.455611030247113,  4.398002080929947
17.418379137599313,  4.963955404588717, 66.530092083939678,  4.717648697329409
 4.395480551845623,  7.336466963173280,  8.824006185704516,  5.164358773746194
10.342851145609631,  3.199471297858833, 15.942256498859706,  5.226306305472139
13.487010860549484, 17.141001428005943,  9.831392285170558,  4.635506667989171
12.492077007102223, 17.232243123627136, 115.336978984881412,  5.435209764920368
14.560171811087798,  2.530577197920846, 69.935477326642726,  5.417010986338934
 6.410424128004747, 15.647498019749372, 21.216361859206035,  4.764250824029840
10.792530116168857,  4.877293825234893, 74.337265444679929,  4.771774591448062
 7.830443098031026,  4.194123844574525, 24.432037507855235,  5.187519404661730
18.353981438644777, 13.387779371909495,  2.463609420235661,  5.026505683333517
 3.257997059318297,  3.040757205057619, 21.483083694665350,  4.646358130250856
17.817954891622353, 17.100209704058848, 91.881051436609383,  4.784104215638549
 5.037337505215760,  2.473084956957084, 80.961860765008424,  5.332927939868458
 0.071695163991900,  1.632341185836724, 47.044935585969512,  5.054673491970532
 6.857380249124209,  5.928393542297811, 13.172793977065149,  5.206154542598654
 2.404309926322651, 14.154161861010628, 15.179916175397217,  5.725423930452368
 9.392292461881164,  8.752451123963100, 53.276198039907463,  5.314704192052858
 2.971941083547181,  8.334171877292393, 41.783463799990784,  4.789221142645041
 0.307075143666087, 11.689097197840496, 54.043556175994681,  4.961421168767598
 2.971713911247645,  9.772262314531947, 58.464568339086121,  4.967427755069171
 7.314989733505131, 13.203363973480114, 51.894829809018937,  4.888481855891631
 7.695264384061262, 11.795609189132223, 57.271635285598748,  4.992125848347055
 0.654844997908535,  8.722371181170239,  1.344975251842386,  4.795732224922054
11.950316402858629, 10.605089270441017, 49.430373559129308,  4.622586175192835
10.962154543171096,  7.678927750232654, 116.604069925314164,  5.501232312224840
11.708076926428147,  8.846849492727197, 36.622989491182480,  4.756768536571881
 6.166312566291877,  0.595709311320576, 67.873645930914392,  4.528489243977866
16.018331344005439, 16.719465673498441, 21.478993335734401,  4.844690285947256
 1.035526410214816,  4.714971103689804, 16.538895042187811,  5.110143203439715
 4.678479206113702, 11.424581448918916, 45.084578637973436,  4.866125786665409
 4.337069901837552, 18.071405933037092, 25.303382443616147,  5.590633739166244
 2.723856406384671, 10.688345966575607, 37.548281897884060,  4.907598767003996
 4.191254275324154,  8.903687549903223, 109.391300998226157,  5.338459077277468
 2.362676409809477,  8.658143615808001, 97.193888710771461,  5.079427395267833
 1.007777663133891, 17.899471240572122, 42.635803172643797,  4.858884256426408
11.876128553200667, 13.034010318918673, 15.932308630568413,  5.026614199320961
10.445121122888237, 17.652145296885205, 46.318127338989598,  5.053092104845310
14.464573681490929,  3.133426260566352, 89.148431942932390,  4.834823351152456
15.796871189783905, 12.072858588119441, 91.725672654946635,  4.939098757130511
 7.901768756710081,  7.916539291512244, 65.745945848395195,  4.681159381491853
 3.259366907422415,  4.498176062967373, 60.373847064514301,  5.093558208888574
17.810832910254071, 16.576609124396956, 50.839332758579452,  4.866587859701692
17.258726888053179, 12.260888936361670, 96.940136522769365,  4.970264083160702
18.676302114932909,  3.865336153876572, 80.385480590450371,  4.851476696462832
10.448352286646816,  7.848197767638170, 26.765772519149621,  4.907732000074201
17.412108657668796, 16.926626586198406, 104.996186130813996,  5.486469702139282
15.601692573408503, 10.382224247890539, 28.291017637396894,  5.526720528978237
 1.332150813446531, 12.958099893870340, 41.740534490557600,  5.021278821269020
 7.031640640215897,  1.936472711800489, 85.597469319096433,  4.810085526612465
 2.328875354339622, 14.046110195851846, 29.418454153984484,  4.876403711695566
14.010740333407242,  1.567189382222495, 97.599040631737054,  5.093769962285252
11.286266148322083, 14.233436101185440, 102.798374956211688,  5.029324480380962
16.016028930051792,  6.645085445304730, 115.707706666412165,  4.953230797191717
 6.622409170267382, 14.998272513861787, 100.830805670200505,  5.130137603375461
18.398975332654221,  2.660878151980997, 52.013966627308179,  5.125386849093402
14.948504170983817,  4.328252268389659, 37.850379606729021,  5.253049179640404
 9.532201847171772, 10.210477677151895, 110.648664910277404,  4.994067726665143
 4.240229077257427, 12.373599924581447, 10.280727275374890,  5.324732504264703
12.205664460701374,  3.442801527400524, 33.728267870547086,  4.805432759520320
 8.493408435031910,  1.050335203302303, 101.836628012356414,  4.982305760913756
 2.575005251563643,  3.737072853779964, 11.760464609290288,  4.811052005448714
 9.252372008113525, 17.874395390824297, 51.273091546721794,  5.147375772064368
 6.312703035450797,  6.733047878028659, 84.704658697789640,  5.051872372509765
 1.608932189193146, 14.221389223369551, 20.647608486583344,  5.305332460553797
14.580166781372791, 17.357068586919926, 34.304974520731342,  5.204863584497636
 3.053036836985000, 11.591639512301104, 49.810137702957363,  5.131932513489264
15.682959520519447,  6.705654024791083, 42.489515074032539,  5.093360860264516
11.804012662774126, 15.491792290544270, 78.549289042354374,  4.633684249707397
10.739695455809240, 11.121564691578321, 93.076865752588802,  5.028140646667596
16.781875513678880,  5.677964862371882, 12.378107260818739,  4.873383796210337
 0.798773860675952, 13.646964272534568, 89.018240414716658,  4.827337355068313
18.170916666354252,  8.711725290321215, 79.500184138236605,  5.037473526611484
15.709711216003539,  9.349029165187405, 66.871170286347990,  4.714779807524612
 3.517390834707808, 14.231135389285491, 56.639489189749781,  4.729733606242985
 3.640405618669353,  1.557853325282421, 54.949399435095096,  4.981809117405747
10.084381437465245,  0.179716197293393,  3.024845375643302,  4.748050914781468
 6.388077634001143,  6.791402824627265, 38.588918360481962,  5.055866557752028
 0.550943086113001, 13.436393976460984, 79.136677394674351,  4.681715090750682
 8.886481122287689,  6.109800865578389, 102.410305106591096,  5.160877381509715
 8.211614863364543, 14.137622176688351,  1.701844719687065,  4.946244261243532
 8.820600116094594,  3.621357289482557, 53.534745828636218,  4.956002252372094
14.222129522337484,  3.079996976443758, 108.735849094235022,  5.345977320311287
10.702610874271162,  9.414184976063156, 85.301135184359396,  4.689379360293612
 0.500081215542220, 15.005366769988001, 74.454141443399124,  5.192477360751760
 6.336854060118141,  8.987521117109708, 34.049308607872405,  5.021504231768716
 2.155930822595499,  3.672068980367587, 85.059813834537621,  4.961652848890663
 1.804089962800977, 16.323118873641693, 100.921458934485827,  4.860218751277058
