BANDS
8 8
NANOPARTICLES
cell(1), 18.746
cell(2), 18.746
cell(3), 117.161
13.155653784760343, 17.739865294161376,  2.983079070823994,  4.768682537689024
 9.445355168734446,  2.723532009751830, 36.760223777309406,  5.119384403121112
 5.290939927630914,  6.281359599700855,  6.665032270754630,  5.123851315559483
 7.786908189873071, 18.503130523613677, 32.599205887434373,  5.497040027819915
10.269124329439773, 15.913812314308350, 108.403052299979578,  4.903764857530216
 4.131786707576165,  3.366573552529406,  3.066742276344470,  4.420652489010775
18.330937489138936,  0.831305616085427, 59.850772891170145,  5.352967442437096
15.152397598947124, 16.308164518801838, 37.217866883669309,  4.749858558962415
16.993749228896075, 16.258931476150611, 42.149407044232383,  5.353075526458976
15.420374908080207, 11.323311467518186, 90.458649907725317,  5.169660282830861
 6.830134479156704, 10.244264245205667, 42.169524389001019,  5.021518855916621
18.039175060082684, 12.097615962238139, 76.658205459181488,  4.703194173789966
11.086542655109504, 14.195761282571498, 59.396530463810514,  5.090595858136662
16.222193053439852, 10.184694095095947, 22.356284934761820,  5.115313989282487
 7.691509130327007, 13.488613456905629, 103.474277078895327,  4.577645102477942
12.601837246555530, 12.308813435393850, 36.616391111997395,  4.807464709588268
 2.627388458517624,  6.076882545513772, 48.642165746280995,  4.920849330430757
 5.703666499061249, 10.130845445225241,  3.388852351626590,  4.952991294061500
14.150796752642380,  9.274073206576196, 84.978169336769469,  5.138201401256949
 9.470970184900166,  1.563546693858424, 44.840177033649290,  4.900627881633513
17.769923615764025,  9.295461830711236, 101.444816930226580,  5.345692830023646
10.910857222699445, 17.680264896928623,  7.409731571100766,  5.130012060678313
 1.932495017728752,  9.769035522844856, 117.116621733649438,  5.221071539271617
 7.792209333728831, 13.916228473157085, 51.011523817154035,  4.917276055119335
14.100038640340406,  4.871382155311282, 37.952821838119760,  5.321274975065928
 1.335562815653694,  0.354343907885518, 21.939813570728525,  4.877685987602963
16.870560235973212, 15.202853641416402, 48.174746633798591,  5.195361858112900
 5.057905037661455, 11.960430067287456, 71.642936272270333,  4.730402668189502
18.379747777613836, 17.255577969000502, 10.556399824064906,  5.166447842121618
17.487121852731857,  5.011650198066422, 84.380512886970678,  4.759359683156598
17.904499793653777,  9.317289460090684, 31.613761350821008,  4.684027022309169
16.565729725774997,  1.042777910582509, 96.066426040893518,  5.335487235970079
17.682860395125598, 13.007416280467831, 67.557680243064681,  4.785145891178867
16.985197550651307, 12.177478554589648, 114.197265283690598,  5.348919825926045
 7.232430221155137,  9.301891546349077, 22.089412337709089,  4.876004100190345
 3.598589098269158,  7.314290850635122, 92.721022512377814,  5.340769988494261
14.630869459929269, 12.534849268681253, 44.582690084514219,  4.715860104892609
 5.008398138021239,  4.709850985405867, 76.884564644783964,  4.864575432708098
 5.735472695923083,  2.380018882789736, 91.368869388110397,  5.085823825946632
 5.239636664155865,  6.487924137991055, 67.256988145922975,  4.885469880890082
 4.167227717182229, 18.503419694654820, 62.390110679194009,  4.948084581747089
 7.372311792411951, 18.686582767863161, 78.743541805263860,  4.748968204817845
 5.124407029351472, 10.356610638499451, 31.758297817009385,  4.855342707061012
11.815706334749326,  9.412012671153532,  1.823346972181928,  5.115569512068709
 9.904186659496780, 16.417698683793081, 54.894195610436050,  5.215028121429791
16.279525548741265, 14.962731519581464, 94.069343878122353,  5.116087224785638
18.448920793763648,  4.841049314970681, 112.568157201867265,  4.909879506149985
 0.661538499490444,  4.270918905981271,  6.131336476846748,  5.000648507927984
 0.574571693020797,  3.638775910082316, 100.127323503828080,  4.822847327609622
16.678214956047974, 17.651507794826760, 66.328319179259651,  4.849893730486023
14.314911275637543, 12.713510072446859, 32.032455493107001,  5.004585776837933
18.329088536205852, 11.507898455501607,  9.556677962963146,  5.220159188436476
14.662782278917378,  2.143211079981523, 114.406772404677980,  5.061039445123082
 1.266542799786846,  6.949395101668709, 10.042985487559635,  4.540780356721608
 1.937723547948922, 16.169568081685412, 113.723884872559850,  5.572403162830814
13.375322887816960,  3.302839796252119, 85.958721060392591,  4.666687610779614
 8.812303370788133,  7.721725260836957, 30.151793559705844,  4.720668334140507
 1.604575652979151, 15.168006572079172, 57.717939390034552,  5.240222478057680
 6.905286325497702, 16.281668865127898, 46.299627308233397,  5.082189969488906
14.350529597058156,  2.628350883110450, 28.989570850256698,  4.958762778415019
11.355200388385102,  7.080580451200909, 25.823664166329838,  5.244435630665131
15.812320928952378, 13.852272847062162, 86.156538933545534,  4.836079197400859
 9.417801732375327,  7.166765467870936, 64.512627655775447,  5.108461560209689
 9.678409709506862, 12.227265663478718, 46.649740392044770,  4.762843312380458
 1.421794960250112,  7.556902623042996, 79.795544490982977,  5.210943215127332
12.713604085268374,  7.166603339112558, 15.160541435301095,  5.215044600890271
 2.316839394913162,  1.216791748072811, 84.964142832444921,  5.163616218640120
 9.749442692287607,  1.180140507434577, 59.044239277305749,  4.860378731266417
 7.291205752123472,  2.243234547301133, 18.317524521784502,  4.988957863131499
18.730846279320730, 15.230211170736380, 62.595954829890992,  4.945488260111247
 9.766301225412182,  9.182967338753802, 50.401109043838623,  4.895283233861761
12.226956867138821,  8.197027671739505, 76.969899948884319,  4.657611122750021
14.432013610149504, 12.716067916061599, 63.881966761834320,  5.041044935015261
17.468552839429101,  5.236556204073866, 21.557407341308576,  4.966241733709584
 4.531394478918401,  2.101041556573287, 57.864868156823057,  5.269258598281991
 8.650595659617066,  0.833136845332837,  2.945889872870518,  4.962814161822690
10.711430201442717, 11.935161249441638, 28.665611199457924,  4.977861571389091
 9.737778661874989,  6.545714031092534, 84.964526783983757,  5.211707836829469
 3.532547068402951,  6.762144744754941, 84.642732010637800,  5.449243263144419
 3.336737108256255,  1.951065801610236, 112.175232647967974,  4.395442351146611
 0.833579628179249,  8.820383481396350, 18.899220470513935,  4.897759289578073
 1.289697918985043,  9.695906828948690, 88.562008394519268,  5.296465718034005
15.085745784441688, 17.140553694308633, 107.400467138727649,  4.870763462879085
 0.685060031689187,  2.599123050451749, 78.375082698530932,  5.199757052021021
11.771784397919097, 12.896571016682344, 93.547357428976056,  4.761813444259340
 7.606865405784634, 10.820493885138079, 59.697996651486186,  4.622095879213629
12.137113889105782,  3.975494959521354, 48.275113095533101,  5.043513269239100
12.684990401091470, 14.677018260420063, 51.007971841148816,  4.952658263438879
13.824013097041863,  2.972153729966995, 24.056475013107999,  4.962133942411211
 4.848023696913624,  7.537695245104592, 38.764847837799898,  4.531540586178087
 9.623394617258047,  5.195995564175666, 69.156739166450052,  4.973931057653521
 5.344624384457664, 13.589100051565776, 108.005945088879713,  5.627237254292239
 8.920509617914185, 17.044136981522222, 63.010822272126013,  5.059488462095461
14.891804946608428, 10.807772466165536, 96.977989538008572,  5.390240751522304
15.409703293870768,  5.727094502803013, 97.991324288151546,  5.018427902802649
 4.509412313337799,  5.618519609614038, 116.282177994889011,  4.690815591778624
 0.741152467529746,  9.268609494466187, 70.560723730591533,  5.452078581282779
 1.444316613827678, 18.350293255589296, 45.712092526710471,  5.091441710376980
10.966464909882017,  4.331719874456882, 100.743270861221063,  4.970420068453187
 4.010215165371093, 12.630196635715814, 91.852541231364739,  5.064562901267246
12.089633172841584,  3.390841690477817, 62.694605594959128,  4.798470728782639
 5.126175420348733, 14.436810114337939, 34.595055537621178,  5.007805692933224
15.413451480908909,  6.083964392084606,  8.724094223686773,  5.180805342476178
 3.011476305383122, 14.854826596204836, 49.745337509496572,  5.090593082959861
16.633821722567056,  6.927064450609197, 60.977446204673576,  4.753800737992256
10.451396734421126, 14.099705458730634, 41.891938543804677,  5.570683006778335
11.977481460172859, 17.961995120285728, 74.348991154568225,  5.318431863841746
17.475418002889604,  8.327662632280685, 13.799642094144559,  4.932319420187195
10.282017153775325, 17.373556262916761, 16.929639835386077,  4.795619258211472
16.397851541371253,  8.409092322667091, 106.257547905863220,  4.778861214211612
10.262271418184008,  4.235066627132116, 89.707913706717733,  5.242164953343032
 5.997362637594776,  8.167028024757128, 107.052755129639024,  5.002428827344382
16.420341384916870,  8.094093101111875, 43.241804937817157,  4.644219895899731
12.036598650297337,  3.082182390003831, 17.876271298222711,  4.676858579327945
 5.463319419860787, 12.302568438230809, 55.386252970133413,  5.438470771463106
 2.377807438063286,  5.566960713916699, 15.644042703453520,  4.809745218371313
 9.458231698294359, 12.153931700150270, 63.910155769712041,  4.931197685049137
12.770531252998719,  4.957822345239467, 43.397038697789874,  4.983659251984422
16.338593322411111,  4.584228732696392, 17.021653742470662,  4.429056782901025
 1.230837197089971,  7.464057712095928, 97.231758302143945,  4.840331773788528
18.679242794551836,  1.993839234259983, 49.906194724812373,  5.016767422330740
15.585106778841933,  3.242735285504523, 107.645514140198685,  4.865944389052668
 8.816039035684186, 14.190026368536804, 79.839241984080004,  4.934180608655407
10.680057376518789, 13.115298049910146, 85.470989032662601,  4.581234075337527
 2.584337490135691,  7.899636600777188, 43.882305742463160,  5.260031317483721
 0.952881676564760,  7.706884571401326, 65.443440486070841,  4.735917357470926
 6.510565692207297,  5.756762364945923, 25.325077930625749,  4.812159250350377
 3.506735998708022, 17.141694944286339, 26.235519949744543,  4.644764278945789
 0.122833642268925, 14.945652042134387, 89.781502292227188,  4.886148762021178
12.133979916581907, 16.090500877105374, 66.597415072841628,  4.751304813450632
18.435236288669216, 14.728271480673083, 24.018411951439479,  5.337099741394822
16.782075047754720,  7.555666463775506, 75.539932836972142,  4.969151281589233
12.859907556048812,  2.184029635109625, 10.965834977300760,  5.163238260464263
17.601909738512546,  0.416139480776105, 110.926854160237440,  4.667821490180251
12.918044338972718, 13.438549624471481, 76.988883228068488,  5.157228270885033
13.249897469985408, 16.058550557242739, 89.927197351762501,  5.287159176214016
17.655761105019280,  4.758834143781033, 68.706437070566466,  4.950812091592280
 6.733487252692555,  7.543656544547253, 53.868642311554886,  4.868010295436396
13.626315562441940, 15.500220955884332, 10.939831924719259,  4.783227865101443
 5.123772359459612, 16.706791486436064, 71.276331584769409,  4.789764228527671
 2.405036654787374, 14.333894122163601,  6.276619876741973,  5.110959344147266
14.708108277597015,  2.112790167298816, 91.303597566594888,  5.107909307301226
 7.839487686430190,  3.800711186786281, 104.370913477847168,  4.605788222761531
17.285173791409147,  5.833649944631903, 52.380715540815622,  4.534119992361552
16.691539707440739,  0.580615497853298, 82.286541556507743,  5.166335178132034
 3.169781983746113, 17.745225364053667, 80.651395188139517,  4.658925936778041
 5.162494030117105, 15.878028938608537, 10.314603765849890,  5.143590751803353
 3.669538547524963,  5.005728579337643, 20.533272322377293,  5.129525711757700
 8.629940882807261, 15.967784565505980, 25.488501730896299,  5.275522659712078
 2.339536721659969,  8.889382742895588, 23.793352862360020,  5.342329053173732
 3.940481359430110, 11.084948149573169, 101.549198572162624,  5.114817550297341
 4.799941906630623, 13.524715568096273, 62.604329640531894,  5.096297122926112
 9.647030854127060, 13.502286666026825, 33.101776402434943,  4.668686620245982
 0.958477992383840, 17.433675846224823, 99.556959348422623,  5.155072244092815
 0.899567924263758, 10.556402908721060, 61.642385083716391,  4.762902214995377
 9.558209895052658,  9.200189858304158,  6.289144410530074,  4.853891490982777
17.338057988856292, 14.236736211036284, 53.401625837594629,  5.435442905606121
 5.733871132433941,  6.678890802487580, 12.049504446358279,  5.266699929566920
 0.183994410053778,  9.276049496596634, 110.363797840010747,  5.016156433143188
13.542437113950950,  8.276449676918357, 30.145530854479833,  4.732486991826692
 9.958576170412252, 11.198071749991884, 106.995447628879930,  4.956480663756392
12.866346580803178,  8.622110689954571, 46.683938864027908,  4.841815715223920
 6.422873814921154,  2.867473849073573, 108.814305071229882,  4.905286677755322
10.468098223560888, 10.709929597092751, 18.536197016989654,  5.115497162653810
 3.641775587262069, 13.240293245538803, 76.072856705491475,  4.355615692875725
 7.559655730642791,  3.298036737814833, 113.499650577408545,  4.771426579260432
16.946921594985451, 13.658276687718010, 13.851170164966913,  4.765909804292717
11.422684116496821, 11.863198852988265, 23.559021417629523,  5.333083766962368
14.295115832774121,  0.710855239493103, 52.230678839977969,  5.220107509409186
 9.512101830151085,  4.906290989694294, 21.716726016286991,  4.720180380115727
 5.076096644838072,  0.508562100278092, 116.628054483652406,  4.955963132836785
12.696998425649218, 17.418921941106902, 84.815201325995048,  4.955739507515104
14.209094377116271, 10.392529579430635,  6.795113500138347,  4.548336958599379
 4.937075214410158, 18.667505452036647,  6.116626341176332,  4.920080821567630
10.647509403110135,  6.780412039322743, 10.473238626557647,  5.054781578685813
 4.036131804885406, 12.327361399846737, 80.924870106287869,  5.548498769525673
17.542035929418720, 18.643403123833746, 33.569252186349530,  5.078318026918978
17.638301015390983,  5.509949185108758, 93.462827056876634,  4.847304306859823
 4.692199944530782, 13.529212639173359, 23.153273998885908,  5.095904166592264
 2.465723624110228,  2.540125950126543, 66.097089240663280,  4.920950412708998
 5.011310710390072,  8.634270605563056, 62.949614261016883,  4.679625585959669
 6.953690756763711,  4.424988831861623, 61.413276375841768,  4.498677735082058
 4.636713578965383,  0.731811029696147, 49.271794770361751,  4.730377473700621
 6.599496492214092,  6.319099397138976, 34.387993508098532,  5.205982185050398
 2.724689044141039, 14.480176447838023,  1.367179856712534,  4.732507090013471
16.675057473314840,  5.713566605673321, 47.371804376155090,  4.835154083106807
 7.767081601666104,  9.307674729156750, 115.789312933156282,  5.199891413481867
 9.660610315609169, 16.344775198779473, 37.095503914598069,  5.131664113253227
13.711421918652464, 16.106520782018059, 112.328461929281502,  5.536728471578302
 0.053739824305743, 10.441854117139069, 83.673256255953788,  4.795934595426716
 7.791763583979150,  2.614693890439480,  9.374702699171387,  5.274405042399715
15.602662265386668,  0.749266634810972, 20.043606347924879,  4.868944007286565
 2.533086649346875, 15.321875003282468, 103.867574394011669,  4.944588740008889
10.657655878254630, 10.744519868417683, 55.233543741429685,  5.370151842177646
12.236589436775169, 16.428405374235034, 46.332326072764594,  5.066800374360968
10.784281792523094,  9.870600999548993, 81.249213883815315,  4.968865004968003
11.846503953123159,  1.316831675657517, 105.138752935258864,  4.925014834429435
10.315403801012236,  8.309366663395522, 97.704187616134206,  5.121689559585667
 7.871177397683588, 10.750730443806612, 36.762062281732177,  5.151434801680891
 6.424719235523451,  7.709537968567110, 80.459442008826827,  4.885929922751465
 8.280211959149177,  7.069338346278577, 45.773981956267271,  5.009700465065290
 2.131932915923706, 11.109158431852880, 40.035900188925297,  4.791243418611550
 6.387210371737450,  7.203210865809980, 72.636353172164974,  5.338825879737587
 0.328313010598870,  0.218366628043909, 70.579002144850136,  5.245576283202282
13.536816642977472, 14.903618017443195, 19.808806842322220,  5.194270132575201
14.438554340787501,  3.369509980663265, 77.177933291511522,  5.166853372508911
 6.920485220515225,  7.206783673930008, 17.143633417283123,  5.231713713758391
12.295643367093193,  5.580945214265348, 53.261948161914027,  5.439067728804293
 1.784330604975292,  4.348060865442520, 88.905162766957218,  4.951535800546524
 7.658578694316122, 15.132021560209846, 94.552838552382312,  4.784396520213929
11.334568094594546, 13.477922381619116,  4.697522920144923,  4.866236139552194
 8.538236801803626, 10.103113774660239, 68.612881432132269,  5.121537872401627
10.942020384692901,  4.810691762992080, 73.879416820622055,  4.861362662744764
 9.518150268030551, 18.663218252941761, 50.147187217308613,  5.312295965953589
 5.012170280816220, 10.853282007755794,  9.012388720607959,  5.152451975159298
11.937756748447612, 16.854261512051160, 29.545252171205977,  5.312541314830824
14.988010766870058, 18.235447640563066, 15.060632251445144,  5.476722228776641
 8.993180408389183, 12.472949437799729, 111.643918786390643,  4.869701523772277
16.769383130184128, 13.129186323878539, 104.846473604906137,  5.095635903899936
 8.654344718240456, 14.785850243695549, 20.572163399213220,  4.688705034790941
 7.624364211170234, 14.849207746920529, 67.509536354705105,  4.761788797126078
 7.530184716334288, 10.624191468293420, 76.585396849774952,  5.052065375566995
 2.836988244284850, 17.730116039985393, 41.177920762406480,  4.473310927417576
18.180532666230992,  1.433246659033621, 38.549275084995649,  5.415427864199433
 7.496149621759358,  4.618183937725331, 50.018622840906659,  4.917342949347031
 0.327396312070150, 13.742537945405141, 33.273371229703606,  5.040809277874922
13.484530974221544,  5.520043899815682, 81.667442702039267,  4.957359512871231
15.342204133372714,  8.575586312718578, 56.118483758426777,  4.835489010772223
 4.502562779168590, 16.994649090884376, 88.757452913501922,  4.994702564032163
 5.836926180310677,  5.787856476663176, 98.485811912667032,  5.269520587918153
13.202059009938116, 11.701569035703068, 68.553028425996132,  4.738403469998186
 0.064590014858896,  0.409825859856343, 54.684772593029450,  5.048255105424326
11.346650473765017,  4.382052647469452,  6.092983732142542,  4.991531610491140
13.301586459998850,  7.052665869384549, 20.038882139371694,  4.610171516825519
11.267984528320088,  5.632954660736834, 115.614099868637098,  4.956215415288645
 6.630828613000563, 14.736065661338518, 15.024304382932232,  4.983252148086276
 3.930474356457092, 11.199374038360910, 66.949793771262662,  4.902164089838863
12.923129257462765,  7.504279406688336, 93.191276103240526,  5.399957399508613
 6.554667559976131,  7.373940370787913, 88.668610882500474,  4.688200775054582
 4.835784803376425,  3.326387602257980, 45.142431346103869,  5.013835955938921
 7.641401643685368, 15.408477447344609, 75.217709921438441,  4.890630057569301
 3.658228524718354,  3.425658219349620, 40.447718026296791,  4.665137955875680
 6.944868627649798, 17.887721608718287, 105.266772211088451,  5.031833142856584
15.583047433652537,  1.214553694351407, 46.257784142478130,  4.663611449809039
 0.362597037130925,  5.231093569161054, 56.922639015285533,  5.325505522475672
16.027938587069290, 11.650763926355049, 40.032672815859705,  4.957035758348694
15.456132966190895,  4.880063099398532, 102.955632174258326,  5.053346389055396
 0.093508140017157, 10.653242484610972, 93.903560674860699,  4.621083885919913
16.045526693564359,  9.079685959375265, 35.935092956587937,  4.682192699078486
15.077913328289124, 11.396973341922768, 72.959668616141599,  4.851938858310382
 6.519569738591382,  3.174117479166705, 86.605890153217800,  4.669404669330564
 5.689985738087308,  3.866661536129201, 29.888751624626217,  5.199631962888122
 1.417017326780968,  9.870163798368226, 51.871584607427941,  5.330495703719523
 0.116794987424057,  6.656989683586990, 39.167819949247168,  5.125021888867452
 9.419214901262780,  7.375650108682235, 111.097940505577995,  5.391877314326941
13.432990237316043,  2.367299086803685, 67.637567773091831,  4.987097182132342
 2.159846433781463, 15.878610231138630, 14.369374718366547,  4.338301039779034
 2.592470222961755,  8.971135664933602, 75.269034217783684,  4.551472565798306
 0.538752266086654,  5.455663508129463,  1.577041021258607,  4.405288371197513
 1.801859876551514, 12.592913122928710, 28.485370613467275,  5.229117969619443
 1.820356627146805, 14.853098297643330, 85.056053984380156,  5.094480190909247
 2.066011859056658,  9.463105996956935, 35.465546246384584,  4.915554845973695
11.930212158797454,  3.105907934298007, 95.671717496686213,  4.841122353411877
15.345642930296961, 10.792438409455938, 17.469224183541240,  4.862644961437254
 5.815400820586992, 15.421260806986339, 99.274245498136011,  5.365850578695460
14.124641039953676,  3.603919078594813, 57.943443116179886,  5.353849491531362
17.766930477693837,  3.355024027099029, 12.536270188182860,  5.293013873627230
15.624497716748927,  2.848451286026462,  1.928397579886205,  4.601515674201777
 8.063306620761571, 10.201707045148096, 92.737454927588729,  4.544023237797086
 5.082274688046740, 10.677397517489510, 96.519787457993615,  5.078333866808403
 2.232416060998158,  4.856555478190211, 61.716768921418492,  4.977043289525090
16.773997520392552,  3.248214887144504, 64.102435545735631,  4.897280959413941
 7.413607466011372,  1.069760795998433, 96.720531264329026,  5.284849949918517
 4.862945724066860, 17.429995497249930, 53.847346466685657,  5.278941079771796
 4.344658237749320,  0.309542075412001, 36.671043414785693,  5.222134573111572
 2.687224195049664,  2.920381489799111, 95.457814421326802,  5.167317222563214
 2.017118091741548,  3.967695408217907, 25.160869481053002,  4.866271118465147
12.393679147682921, 13.604867639399298, 15.077171950476151,  4.586784918922663
 0.192429511131872, 14.105019472242759, 109.239713319880565,  4.894370115831362
 9.526870391067048,  6.059261706072341, 57.711801295263392,  5.075392552483028
 2.939779319064211, 16.542943121507175, 94.913897058552493,  5.092301016004875
 0.737828018682107, 14.175387022822804, 72.467694410541370,  5.075234569242865
 0.951299758465209, 15.162006237321890, 37.882436381558286,  4.675083512257011
16.402715010318726, 11.746239088313814,  2.266600286980775,  5.207940418146511
 8.218932074456783,  5.715948804009710, 94.040217132624676,  4.784431137893827
 5.729913840434117, 14.368023413089395, 39.572382020148652,  4.959184660087096
 2.929256010926192,  2.158570982984208,  9.802951556195387,  4.523845226212655
 8.218389206781826,  8.306739337399346, 102.436898220691390,  5.229664862429306
 0.982571460429747,  0.968752704938902, 16.968754668527790,  5.156910919300885
 6.228633275892139, 10.446924375641187, 26.908427423429725,  5.093613307366300
15.682277933941920,  7.093610185090469,  3.864481065738536,  4.729095904660076
 1.104361058941174,  9.290485389535753,  5.158215045504087,  5.004420223933915
14.807938171592664,  9.971726792061659, 51.219777690856560,  5.378505818731357
18.296443639953438,  0.724786354795880, 104.156818128555273,  5.286685176004683
16.599151191994444,  6.608820667682802, 26.497315117441524,  5.339039371630846
 6.814216851502417, 14.865773157963948,  3.772299842850666,  4.769473704177966
17.529974512863358,  0.549782118420348, 26.009805014951883,  4.686971111057056
 7.432830603447083,  2.322597960294743, 65.679121621503242,  5.042415885117732
15.580129990579337,  9.706403973455400, 80.045581698862790,  4.925581286040368
 8.463351219231715, 14.025639843597910, 89.796203820629216,  5.114524940063126
12.391064675998392, 10.109620314751341, 114.142914684206218,  4.722401763011201
 5.275993682493097, 10.423540338644479, 48.270947539820732,  5.281102034039079
15.571270271494660, 11.711774596009418, 27.214354920527381,  5.151515472071612
 6.517338452137674, 16.195890742455248, 58.686864577591635,  4.962310675490819
 4.905316550620060,  1.489944697348041, 101.258684609269238,  5.106131680046738
 8.235191243418679,  4.960535708594470, 41.186931741184900,  5.084098324665669
14.268189281366960,  0.630203000873784, 100.632250077013623,  4.918011552141635
13.696737815636503, 10.638481172736256, 11.538916533256375,  5.004325438454832
11.534459307560713,  8.947244794504122, 40.309734246996896,  5.399485673276255
13.977761863508752, 17.532601566865242, 62.076685852552046,  5.225883132889451
 9.636339497941920,  4.331409238118755, 78.678969569093056,  5.072754786071223
12.557797314028909,  0.398084194770633, 40.698320446787498,  5.616721228822380
18.722383372009556, 14.548679404660554, 18.579439572151479,  5.476544933314679
13.670758744401645, 16.663325278666658, 24.673094307792269,  5.028601471370023
15.919047766885937,  6.451002115532521, 88.874626251209705,  5.110851873536083
 4.779465877212896,  7.301689176941441, 58.298655089611159,  4.807510416395433
12.302559001314838, 17.989567083588703, 79.688715846005792,  5.376908260829453
 2.866891807993469, 13.429812776659510, 44.533245328062016,  5.413528478991052
 8.987771725667553, 10.431764440347884, 13.626432588257437,  5.140361667978196
16.790414501246264, 18.644505230645521, 87.304837858255539,  4.929365362586156
16.970719400345388, 17.061279885374741, 76.155413920897274,  5.453073064570741
10.617253777644436,  9.849969453953991, 72.979948205906581,  4.556895763347210
 0.443259668569194,  1.736668762268781, 116.141107727560353,  4.666459325778818
 9.275188974819587, 18.456435527718526, 87.979042428682831,  4.589753771325873
 1.833377164222825,  4.441164070604782, 34.901079172346208,  5.071411582169262
18.467499405176813,  3.677836821406402, 43.254125548115056,  5.011867903992719
 1.044074397791621, 10.231660459727056, 56.890133954512969,  4.758241373819106
 9.517700653146898, 18.403802677547031, 101.092213871575623,  4.811517215885567
 9.457268315150968, 17.514624110496314, 12.178469846752252,  4.762200206705662
12.924623071627574, 10.295626987488696, 103.058206560373023,  5.058663894229084
12.112485136608775, 14.099367504793925, 116.981840059524671,  5.083760027346779
 6.640599791257131, 17.383742375353055, 111.525637782864337,  5.027251578166267
 6.513243309422041, 14.470034211646491, 29.750078047688749,  4.699968058744241
12.228355051403204,  9.304845565257111, 60.699591852060898,  5.269923677187825
 7.331285989532014,  0.098654781481745, 40.712277157479910,  4.818460234202875
 1.892229923088087, 10.405663684314492, 105.906913621486268,  4.569888716363852
 3.370399184399275, 17.904442346533148, 75.711105799237430,  5.011021431913659
 3.545172192030069,  6.250062667821189, 103.097560350638247,  5.063150476240565
 9.572617052952982, 13.154982631606355,  9.343327012717044,  5.059341074982311
 9.991057905308372,  0.032982091828310, 92.566518851034942,  4.708808491529543
13.870997644603396,  7.194869192074653, 70.755759593358107,  4.940185855994974
 6.756898947591910, 16.521945302875896, 84.037591647413180,  5.498003305500500
 7.026652095824728, 14.541834379500989, 115.887435953854748,  5.351137954928541
11.700290619056258,  6.358436246238341, 106.298939161876717,  5.424356192820071
 5.168603616670586,  0.845243423479561, 13.912279185189064,  5.178905007800235
15.326371522786170,  1.464999926981453,  6.612867797819717,  4.923091050326421
 8.168833917217107,  5.838259580431639,  2.433853692958475,  5.129090501091314
10.445945718070671, 13.006089139667329, 99.590625642514894,  4.993468013633851
 2.940842769946728, 11.175288764175455, 13.775732836356886,  5.234290673665353
 9.567310860151069,  1.953087758905335, 83.005546260494228,  4.778762074721897
 8.287075195431244,  2.485372251248019, 54.414588022549985,  4.925813717029556
16.431228501683382, 16.614331050174702, 116.759739313849323,  4.910792733762780
18.159485328723612, 14.772679154970103, 80.663324902322245,  4.919949128132691
15.023978849861608,  2.696416114989666, 72.266766819748497,  4.813496646570631
11.325289999524779,  1.905116062735331, 110.292698823415691,  5.493297220131757
15.889964614192165,  5.115360635115317, 33.073581863850762,  5.073172048650025
 1.686291961466667,  4.538868081524747, 107.556492232517542,  5.165462958017793
11.504241263738543,  7.869240223970627, 34.590486728034790,  5.076749833903301
12.174320918357559, 15.245182213152201, 103.832972036609874,  5.072192982008328
10.328103853589734, 14.221873093070819, 71.385720224841961,  4.761654631156116
 4.844105603521764, 11.657541702443629, 18.490591795797101,  4.952641396274551
 9.431657162378205,  0.117318943190835, 69.837131256345145,  5.181661093506289
 2.921775163704391, 17.417790971681359, 31.009172660842271,  4.923688525773657
15.941310368785061,  7.371675221045169, 116.033749907967049,  5.000724764533834
16.941118564970616, 15.984580066359808, 29.416477906685049,  4.844131345167187
 9.261598994290706,  3.704207525664486, 14.071485711069410,  4.802985515961664
15.970451296435122, 12.634767676253201, 59.000293322180539,  5.192781472210619
10.738158060920423,  3.843890711576941, 31.961838719841442,  4.659739873196831
15.581303159751434, 14.678705903405632, 100.266340086645826,  4.857327146941984
 4.201213757823646, 11.445946742183686, 112.774396281360097,  5.071814616748581
 9.680190701450240,  2.179513197424909, 26.950306987076537,  5.269660867603092
14.951378568534842, 15.815240697160981, 70.637616714991708,  5.114840661938944
14.572894584260846,  7.741093728829942, 65.601853258818764,  5.489776369914618
 2.804574887518631, 16.202009543384680, 66.795220810098868,  5.349485567381205
 4.610187022574614, 16.878333668267373, 19.025021761588217,  4.925562714869633
 1.541642591084803,  4.641174845602677, 73.174125197345788,  5.290103151176943
10.740514507808825,  0.224746354401191, 21.440586444905037,  4.809004713475467
 0.573245014580074,  3.007929669615533, 29.902759204449143,  5.172290765017745
12.143238588588391, 16.900016571146306, 96.687828466322102,  5.277320027392902
14.433507015964990, 11.848005791236998, 109.218204522060475,  5.106115071653834
 0.419530652840214, 18.431983113547794,  3.597087355790869,  5.430999042375278
 7.439687214590690,  1.484063672446360, 74.216590034574423,  4.816428404776566
 5.091225299751267,  2.643033134278972, 70.188594468046972,  4.788544726650524
 6.149406782188263,  1.236022820742943, 23.185700624985394,  5.206768429540717
 2.494319649535393,  7.553477514314364, 28.705997529241142,  4.837598686090100
 2.744856409486350, 18.283822965613631, 108.088552245473863,  5.105433568280867
12.667419433069826,  0.121108185722079, 34.091811079037761,  4.732030033964001
13.655718255257227, 13.688724202127334, 81.917612630175526,  4.678345155083361
15.928209964634499, 15.069960990925779,  6.394991195959936,  5.432589917747913
18.201429352200940, 10.389438796297368, 47.107067375771145,  5.013338983712288
 0.609076814905766,  0.585129379345333, 91.661208740687243,  4.646033996448669
 5.193134436923739,  3.168233302988516, 81.443533893507464,  4.727486694103764
14.523989758428849,  7.005961257611970, 110.572284039108325,  4.896226932563374
 5.778505737003407, 11.574236550631129, 86.030458431009777,  5.343037758435115
 4.270009385606237,  6.540153331261376, 111.495137373104029,  5.068566581383297
 3.544568643735862,  3.765176969196888, 53.024557246753943,  5.155504728898602
10.864910748179796,  9.643098610156743, 88.886202369559470,  5.033307028783642
 0.767989638437636, 12.683257922837283, 98.100320361372681,  4.784635307075610
10.333550041726616, 18.553859494869393, 115.415776923581205,  4.805285096777645
14.635638355969590, 17.199109455662999, 56.915515705755269,  5.191980866362466
