BANDS
8 8
NANOPARTICLES
cell(1), 18.750
cell(2), 18.750
cell(3), 117.188
 8.508443944938966,  4.110122969168300, 111.044590166400383,  5.195019415725328
13.763444798861046,  6.951442118431400, 40.563985864320692,  5.276384683450963
10.520569777703047,  3.350383621171085, 76.507953517762118,  4.811835322495701
16.604194970085583,  6.124425979033615,  6.871533143780618,  4.699928710028830
11.170701462867491, 14.214034630671470, 39.361411006587090,  4.714252796161174
16.295067047796202, 18.439807499343264, 114.420632254538404,  5.182286196868815
18.656478175553030, 14.296653569832591, 112.991964185081073,  4.665106122971106
16.398555920073381,  1.912266724053764, 19.088542149668967,  4.893164270450376
 0.503590754489114,  9.867120820504896, 115.126061758579596,  5.001877454502785
 6.800572643578945,  2.718512474797293, 60.837668883000219,  4.911565128975766
16.219965190333170, 17.193711032142332, 22.497111185845320,  4.833161201335462
11.882673076101527, 16.219722425742283, 43.933506548631520,  5.366504349374321
 7.522203341188640, 10.617302894158339,  0.168672139648360,  4.754221587875904
15.781045192174780,  7.281014835782797, 75.383792165225699,  4.680523445198104
14.783864765264898, 10.208488534036205, 30.186859143501330,  4.801843296512432
 8.883817641419162, 18.351916256686096, 40.320529840766284,  4.927563342466448
 0.280361188456152, 11.632253793278680, 71.729730339963680,  4.652292838782859
16.182415362387491, 10.665696013512221, 54.295619123327469,  4.858852969923256
15.381968815912970,  5.973114471232840, 11.775246606313594,  5.364424431554800
16.697875824038640,  6.368583577574597, 51.854183790095291,  5.070904901668318
 8.663558808389361,  7.331610033255466, 79.032593083196659,  5.108672835881832
 6.325484830878016,  8.858030768775896, 43.880160323602830,  4.536838859809156
 1.026198867787127,  4.197827706907073, 29.816320070359144,  4.613971023336845
 8.766214998445273, 10.938325970958864, 47.453074105780708,  5.062658595624596
 5.698954357330348, 13.518924491269443, 102.602458385952417,  4.675378370070257
13.199239000596117,  2.643972311031511, 51.825159673812564,  5.111103113192738
10.386350480218955,  7.603919173694201, 30.325146262805308,  5.422833724171928
 8.480175387206552,  9.785235065271365, 39.351012997906672,  5.649288694002425
13.570360758783142,  6.593464502620740, 80.165712702867097,  5.017260755623782
 4.340698978641590,  5.085560372295109, 21.055063755041662,  4.729448637845661
11.797333383819154,  2.185681114828980, 114.504802498164111,  5.098477998903489
12.406320543129453, 17.028634618818863, 101.825474039321918,  5.462152681214149
 0.022481274971421, 14.384143138824237, 39.025614753889442,  4.909262389460815
 4.318063385348958, 10.469092013314009, 34.670923831967947,  4.796600538441931
14.382672901423900, 12.306254782676545, 100.522023029035040,  5.050041788662122
 2.966917610942500, 14.130372428397697, 93.372087609931100,  4.783390823656609
14.671729076837703,  6.507307592123255, 107.334144437169044,  4.932191954952751
13.769631025823980, 17.724673368724041, 26.748818318350676,  5.033822516593430
15.402374232711056, 11.966457105095392, 94.464708879547302,  4.676250818528205
 9.618859552790413, 15.461799000047879, 58.155989404909114,  5.197546999458611
 0.472228745053817, 18.225546756879183, 110.270273279495257,  4.959607678734614
17.586218064321624,  3.192101857381645, 34.572069040894583,  4.636132883907654
17.307192615354442, 16.005522116655360, 92.032496234862890,  5.167482713766567
 2.999714799916682,  9.187512115271652, 22.585273285469025,  4.428190343499973
 7.261445601967087, 17.159411095390869, 113.896574763269783,  4.642345550210819
16.112481322441482,  7.136317626104459, 94.287689371321321,  4.801079270325489
15.025286676183821,  4.755914925610900, 88.909500157031815,  5.389211483515767
 8.819555861344828,  3.921118904141900, 22.118431449920308,  4.755402025570314
 5.786450136842314, 11.447719348165158, 18.608941456776435,  5.290033798316408
 8.230396634816815,  6.437335286281262, 57.768732976892068,  5.142049048740552
 4.037190058052006, 16.309301944514850, 18.299635522326177,  5.051488405921450
18.668889389193200, 18.533180546983392,  5.005829742737839,  4.672015012491345
17.169709740027574,  1.055101173799163,  9.326930836487019,  4.819528983308017
 4.153366685158637,  8.816493186961001, 55.703989224259878,  5.160610817401040
17.648164960073021, 14.891436022724250, 103.410430468568876,  5.072432408784165
 2.811628953463388, 13.870995546467308, 62.483815374090533,  5.257392339383061
17.560502623374926, 14.001562499750142, 108.327585815584087,  4.902839795010466
11.836876765474438, 14.219221354766953, 32.480461847385278,  4.900804008657652
10.253239518720044, 13.981781509248398, 98.027158907301015,  5.155502786687916
 9.193045737626244,  0.298404008566956, 14.421614903769964,  5.278616982058412
12.033315845098542, 15.944680402728547, 64.446260374422891,  4.938140528458054
 3.798578169268747, 18.681185178411592, 74.962462850308782,  4.625242305161386
18.504811805407375,  6.399746421582206, 56.586497813186618,  5.024353191348816
 4.682023411220383,  5.397908066140035, 81.416905026316570,  4.923694617151730
 8.234124493039696,  6.449981320554916, 17.853078828307577,  5.178665790714081
 6.984853885359003, 10.475735768417030, 106.677414694822957,  5.110849329503337
17.402694910512619,  0.625266445124933, 68.867615311547524,  4.812398632636899
18.178729656112179,  1.448918676570106, 26.107074470741516,  5.153583478244549
 2.381772843979694,  9.026845526569582, 84.498433278138208,  5.556016828748994
14.163897017726729, 15.034410241621980, 111.543389228394219,  4.675727546816936
 2.638624804626904,  5.711521198439556, 61.135782230232373,  4.912005397158942
10.524775281389898, 17.370851703860453, 53.347338032223213,  4.987885222285221
 0.799428166433604,  3.601513482436592, 116.092093431696611,  4.869003558620239
 4.246109776731828,  7.337607413419652, 69.730370703712182,  5.474740518720798
16.624183370369948,  6.822700094257392, 17.927458263287345,  5.206766018004185
11.296357279721539,  9.944259062335172, 34.863719016127263,  4.944785924129733
 3.298181145888137, 17.452206059686397, 83.788277257623591,  4.749961439524550
 9.909108059120509,  3.014459438754073,  6.988924203264786,  4.880184361361317
15.302024707291448,  7.221114156802966, 35.618399582507564,  4.841548227954294
18.567774952894279, 15.110414377413454, 26.310670928613028,  5.037897383012488
16.065312086595579, 12.702962034540917, 75.787270730892317,  5.552658023215773
16.220659782559476, 11.039144605147825, 85.230202176641654,  5.158753151600589
 8.233990552615690, 17.704497618523575, 76.617328148000638,  5.025819822635508
 4.213091522662660,  7.165945599892888, 97.608641181192411,  4.547312271275823
 4.397183925560278, 15.000361709976412, 47.972483958597522,  5.096653540217586
 0.142112488077530, 10.970828570778368, 58.961712233151495,  5.307183958715443
11.749347763038543,  1.429009609849022, 105.972438574513831,  4.877376442715533
 0.098640133752241, 15.543228459233774, 56.446074622423346,  5.118745115807539
 4.265885420519817, 10.151554870832214, 79.498791771519407,  5.360090926126140
 8.942345457457655,  6.765413406249688, 62.801870996491012,  5.034623391339008
14.331481236963294, 13.372461624338364, 58.052793038118111,  5.114095131574080
18.465364372794269,  7.496269199845851, 104.005592718918066,  5.312928404659519
 7.696854104663126,  8.612176900902735, 22.389734687222816,  4.904154413296672
 0.726672096973343, 18.185599056563010, 96.024597072118539,  4.899841899031236
 0.198217110420722,  0.427950097768067, 39.953384185363880,  4.855278519164427
 8.834884277019485,  1.478420617569060, 92.370667402402475,  5.850416583140365
12.207603950910064,  7.224714916767026, 84.814452414913845,  4.749536167865683
18.628460664235263,  5.001591141910389, 66.335951238518078,  5.589564141352954
15.436520386391262,  5.441240635806857, 31.269588998017021,  4.265694987504322
 6.282623933116989,  1.021350841068690, 80.482991313907647,  4.569136183223022
 1.611869177995123,  0.141129957368414, 64.581767424771442,  5.239021617807968
 2.496359186342654, 13.993055848814999, 75.530916116194376,  5.117803749068063
 6.276986642391046, 18.702565523790948,  5.494902852264902,  5.058990256869744
 0.925048716579332,  3.844453202708191, 93.115902057327787,  5.167660141177459
 7.100964382185893,  1.691051534602436, 34.842476738132497,  5.111516275157451
 0.771672222307406,  3.897826606194566, 98.206372961438262,  5.004744973274554
 4.731364934333353,  6.925985655576560, 103.403319584632627,  4.844255840570663
 3.998088390732534, 12.654535856093764,  9.967111062835214,  5.277411443141455
16.054303633760412, 10.734798997884090,  8.721267309671301,  5.287827688966566
 2.107138414768682,  1.958637245056217, 44.862435735427624,  4.923068165919049
14.453395772444615,  2.040875075979110,  5.406012739885021,  4.921845653326538
 8.953057265712388, 15.454703361581844, 18.464869414670261,  4.927901560138049
15.654432450335467,  1.216704912415263, 14.123451084407566,  5.241180107971579
 6.317861299395386,  1.872607621032378, 10.155500201920036,  4.952812610254719
12.538309529586886, 13.789706590413084, 11.005659752174532,  5.024698632900646
 6.433866760210391, 18.306076393882851, 44.629253406409852,  4.953424439856102
 4.225635394551140,  2.304735882106573, 25.154311951093089,  4.771686092234101
11.566102144914062, 10.082751183538493, 108.761947085127019,  4.959420987341935
11.610170332470627, 18.310388789327547, 69.694342937534643,  5.508781031461998
 0.074309825997516,  1.044185978316864, 88.866996957805057,  5.146064495132666
 5.413989504441057, 16.247731691885821,  1.232372688715004,  4.877856882927406
18.548956608992654,  1.639961697215614, 54.986007311803192,  5.018872831516102
 7.463369429438724, 13.600461190237954, 23.432793299300677,  4.760690617264464
 6.109551489371976, 18.086590294018379, 55.548935470020325,  4.955530091804586
 1.312746465884174,  2.541543935943865, 103.117338865079034,  5.235512527940517
12.813194535964179, 18.216894951618443, 60.451086404036282,  4.375540898025905
 1.899038884127021, 16.518375701943214, 71.145624699413375,  4.930873362533916
 2.258834438087065, 11.830465229341486, 105.542764859872435,  4.966204002385034
 4.543056251654000, 17.183039439137083, 13.406268879729408,  4.940685356270818
17.863712180953343, 16.286988872678485, 17.029103777868979,  5.106596904799692
 3.821191620419128, 18.697138306147352, 92.428487912523650,  4.632444995752477
18.243554279333601, 15.690282710881572, 47.230418594641414,  4.915616008401742
12.760800455565606, 18.716880563624610, 88.767660751815768,  5.196167988439170
15.017138823278602,  1.701036388047325, 93.165782403132667,  5.087573470892417
 2.627287951271383, 12.970627262093032, 67.619632006191964,  5.173744200391421
 7.211192559992279,  4.243758384870455, 43.262238793032985,  4.929739462084143
12.116615851644866,  9.035560162820461, 97.041182061534826,  5.520116744356982
14.906485983585638, 15.741245024967659, 97.146497891198067,  4.635089646137244
 5.160861296352581,  6.168929539307916, 108.069938736253519,  4.648674261905208
16.286374341129623,  0.209628181234600, 44.080195011531501,  4.968466282908827
 9.752411231733332,  6.000639023833047, 106.400064016214870,  5.127842218526226
15.567774158356729, 15.616863950992661,  7.252823911123085,  4.936512439496153
 0.270040452610522, 11.744941807501545, 89.559121891009056,  5.246659257131886
 9.494505268036290,  4.421587507712437, 38.623106609828532,  5.363750697815514
14.254911076474423, 13.982922748431388, 88.696287440727843,  4.728922515269266
12.779433800507521, 18.155196211911061, 74.791216971485724,  4.811246280530738
16.353128472240869, 17.180396284982628, 35.411522569900619,  5.273332368553860
10.452243206679594,  0.232514834535580, 97.356381429216896,  4.857457674359720
 5.342134776974886,  1.686947347536329, 88.273473201132219,  4.857384391731008
13.018415955143361, 15.817221644461981, 15.616707061965812,  5.014675568374752
 7.673120385005140,  8.478027960722272, 83.782525518957854,  4.860399675886559
15.174924064504594,  2.457421452154301, 77.821108245985272,  5.017060624144284
10.633698091863588,  6.850443521342431, 45.477832439176694,  4.747332781137366
 2.172908053549204,  3.898262314422573, 85.345658864971199,  4.829763701255171
16.665482209914035,  7.280968549772164, 61.903478966453406,  5.123252611657358
 3.041848550883818,  7.268785043382785, 16.593294112180171,  5.489834030338942
 4.523634000430643, 11.335936281775846, 26.314335501306548,  4.633340424927468
11.748496824236968,  5.663799795281935,  3.090559713669061,  5.235705043214955
11.836824578621840,  4.082887536624138, 33.964187801240080,  5.052308418208095
17.835557533098090, 10.591832695615823, 49.596751593700112,  4.757881965899178
11.081482547107369, 17.117686734265721,  5.642371150607515,  5.055978860138520
 8.910346934202385, 12.026616679790989, 80.478538442479632,  4.728724310333988
11.637519891769546, 11.406025989412219, 22.769807710021947,  4.761701270041326
11.421913139040253,  6.008350487836654, 72.419738731503770,  5.058703227862257
12.707527113323136,  3.597029541065223, 28.116903936089077,  4.834112338914636
18.452197089719135,  5.236056919661965, 38.877139710152534,  5.045315500389112
 2.444084239812317, 12.885770945408565, 14.905935230422305,  5.080270255817962
 4.196646849930528,  7.078798484166200, 38.068127154215212,  4.801502111600324
14.053553040621386,  3.949685897906025, 97.847140917925202,  5.476467119788987
14.889701161779007, 16.843202949441558, 40.071023722022090,  4.500402574647817
 3.090745233262168, 18.282349424794145, 59.612680380379103,  5.170586666071400
 6.440672726657431, 10.062959810409088, 65.747950856622623,  5.119743408805561
16.985686554319116,  8.193343466944894, 99.053242643939598,  5.111842740290127
 4.959107933616968,  7.466995145707465, 30.389239286267181,  4.938258157787968
 2.707998126398250, 13.862748418606449, 22.443416057943317,  4.932819876905355
 5.369742616593158, 10.680729431172825, 90.515827417330755,  5.331620647294097
15.090713078556583,  3.734559236256039, 102.978605512960442,  4.991400239387650
12.461594791844909,  8.963609218089950, 59.671985571741793,  4.952541724720632
15.472436298040574,  0.841287168034894, 31.015053622651251,  4.880229906356440
 5.464117025966668,  9.740680147029583, 60.821681199617323,  4.931699759279017
16.410350484593476,  9.708424900635327, 23.234141180894262,  5.398945189698795
 8.486452142512254,  9.240730679416041,  4.731473434735491,  4.957181326201558
16.834431995585597,  0.204142277691807, 100.041018136291996,  4.832912724260647
 1.897784916321906,  3.941754206506338, 11.390253199132276,  5.114195750260981
 4.758363339000765,  2.316741908178254, 39.335514207481062,  5.091704214084153
 1.648151999872772, 11.516829908024752, 45.342509920520904,  5.205497394876126
 1.968352201849876,  1.922852478553354, 16.261390439034120,  5.431665925190925
15.778488922091269, 15.228077059676608, 71.066621090455442,  5.119726858379117
 8.597362077113994,  4.954236608883710, 96.723413029737770,  5.275460131617281
 4.861791476227083,  1.206139290786516, 49.065329961900844,  5.016767765570450
 5.011863186308186, 11.919145879807976, 71.831728549904483,  4.720328388546974
12.323860939232691,  8.721880540353713, 66.097584115539462,  5.181818914683101
16.510275581294273,  0.182819706087061, 106.170552994855100,  4.972111353076283
10.148873700546508,  1.733391560819627, 57.286860586275985,  5.044636054956254
 2.596589618994159, 17.957340472851218, 114.753258603875736,  4.972987371680732
 2.704231839824992, 17.483381754681609,  8.806584767061047,  4.982393055623100
 2.566406576574500, 16.870955131475707, 100.501333085245719,  5.092379877512519
14.964396976111768, 11.515575736226522, 39.095091430101398,  4.608671968076222
 3.251060185347307,  4.656723103979688, 33.963341468317545,  4.744762414316616
11.634040865719902, 14.520125589763378, 77.431938977905617,  4.418522666155087
 4.765197174534107, 13.623294107959657, 57.612532125549890,  5.238787893627089
 2.545304025505709, 17.005634954538500, 52.318906385519114,  4.904042132522739
 3.948227117860990, 15.492643615555542, 88.551962421216743,  5.420428858824471
18.658631797777726,  7.092851304879087,  2.451020290669624,  5.233645282940264
14.916667423430521, 16.854496288410999,  2.091939928353207,  5.401739626491198
 0.182525923932387, 13.252786330700282, 97.383793202609027,  4.833684480735267
13.736938909159488, 16.602656406606261, 84.231384307624765,  4.989250604654094
 1.245116950612650, 13.932090215663463,  5.702224988754035,  4.890607888878042
16.270006756049714, 11.503605931037502,  3.606900318976232,  4.939148163068002
12.527682504656136,  4.740249472192612, 15.976050747618924,  4.723358720114629
12.137186371937814,  7.838581171178100, 54.800986001712197,  5.061717717383386
 1.510229145831211, 18.073478375304269, 30.378987875202615,  5.244198562344311
 8.771119001241701,  5.536557938882793, 68.426068592960306,  4.540243607240082
 8.262120493140969, 13.462530635556471, 110.734630123866566,  5.279244794855703
 6.037179117796690,  2.511730961521919, 115.989252344115016,  4.876010858574118
16.056151314544973, 15.548976691491831, 51.942217277373949,  5.473853226456969
16.987635365266982, 10.401233609897382, 67.364085305651344,  4.998542981692066
 8.089506747680350, 15.899095847246015,  9.617811649811578,  5.189124400234539
 4.421558074415939, 13.239651104427310, 114.541345696695586,  5.113216536814338
 1.785869011536062,  9.302706361613664, 64.231174698440114,  4.717718295409807
 6.256272310496983,  2.306633887559043, 105.049874406395318,  5.385584185146361
 5.127103569227046, 15.231717536718842, 79.644511962149792,  4.947563561373538
 5.157239528708702,  4.402923594935339, 65.333977431739825,  5.218080661314086
14.939468158103841, 13.336487096630368, 19.827892601333470,  4.882828083217177
 6.613227254406958, 13.824294982294543, 52.604786616506331,  5.436669891277647
 7.849257652827764,  8.641846006513617, 52.009935707388678,  5.283368706911252
11.151464149580992, 10.570395104895432, 113.988670812925420,  5.146797327693140
15.886764235622660, 11.345220222830868, 14.980295319073488,  5.683088558425620
 8.018688882892093, 14.638901978706150, 67.471241049110574,  5.147902456394979
 9.265423050771327, 10.057134430268214, 69.986231962310470,  5.066258907274434
14.883821518064002, 12.001216408401790, 62.997171968316742,  5.183822534800010
17.800063633371419, 15.461363290069515, 11.865360526717469,  5.311091018371743
 8.739475589266334, 11.038525749941728, 56.238807439237775,  4.599803919686055
18.036589718818242,  6.995366729364460, 71.141558487216457,  4.859188171526862
 5.828986401617303, 13.128739597231130, 84.200636612879720,  5.171290107980106
 6.054814228074939,  6.050663155696407, 47.816117941817794,  5.117126301781115
14.803757366298123,  7.464914765438647, 116.204832671870136,  4.955309589101189
18.286119012948092,  1.713432997725021, 49.614750611684656,  5.736239739040634
14.735869278250711,  2.251724126128658, 110.325849884990490,  4.958230598181110
 5.598972129129660,  5.893636509130447, 92.585049291969725,  5.093917948117596
 6.217461873949293, 13.649297762152930,  5.392361426680180,  5.042779914899952
14.230968942252781, 12.935770855279021, 26.378102764523668,  4.607636432468604
16.286519507407448, 13.594223388556150, 43.207651914286735,  4.935053606894700
 6.580213635815070,  1.784536813039447, 18.455497023721708,  4.780272036381588
16.762019727088173,  6.168707490021158, 26.852195600892571,  4.712885277792492
17.084828802700702, 15.281004724047495, 66.196536502580713,  4.964305668697859
 9.204338954878228,  6.291185303838119, 115.869904685705180,  4.979146182673152
 1.531226973349946, 14.284455585713406, 34.484968615439143,  4.642996176384827
11.607410906036465, 16.038965044291928, 115.428382708339186,  4.836336116850843
 2.425458777443033,  2.683190876698237, 71.110898335054472,  4.868449476507381
 4.746007969422446, 15.979172938039772, 38.825776191753128,  5.064300945143967
10.512619313544109,  0.147175206517998, 30.984193898471908,  5.126984769109551
 7.521247205083393,  6.811013528507478, 34.538437286204783,  4.887068807568148
15.192855078116512,  2.965145825203902,  0.752405291961325,  4.681214549155460
17.494981101075478,  5.949978644203449, 112.453891442562636,  4.691515914776353
17.130115031841274, 16.325557789547787, 61.235768755021716,  5.174065202465238
 3.575895419395676,  4.201811569339688, 112.120888163172125,  4.893647306119197
15.472907878604630, 16.459750041601037, 79.511666687875817,  5.071226483201221
12.497440288862908,  8.309032584003960, 49.781217076461701,  5.044092585358930
12.082416193144041, 12.296195350636854,  6.011198079245387,  4.820122269272127
 6.205450974981317,  8.752490198639011, 112.351305429341053,  5.490613430475493
 8.659053205727028, 10.978423305277699,  9.250745970572320,  4.723083809521047
 4.809326645079914, 16.305945458217966, 26.705125661784201,  5.241743237557800
 0.863457856877845,  3.662417839222044, 75.652385621580322,  4.922679265171089
 3.145320243428429,  1.426034823639603,  2.264995360673842,  4.403653888439688
14.579844427734260,  9.576320456050656, 90.462041823790827,  4.774347597315364
 7.982180969803186, 13.014613176379632, 14.022878000830898,  5.340147035719216
13.818755654532687, 18.157507977323437, 48.177444647941662,  4.719970371738738
17.649590172686317,  0.805452015839801, 83.493834770647069,  4.908693828895584
 3.539703732862316, 11.267201276934218, 40.622254804217768,  4.970982697381968
12.281487919436474,  7.959017377055689, 102.311647616274655,  5.241610276531648
17.584850809399885,  2.584750078274340, 59.927170607053050,  5.216730062391522
 0.011732272688984,  4.674793808226715, 80.320908821685634,  4.776540923045412
 9.732152948751486,  2.317593134653348, 47.655410295405922,  5.362523183960747
 5.667585141888122,  3.961230307541551, 76.782184275186935,  4.956668126412492
18.044227929698803,  9.084208453687818, 41.794245252352248,  4.599052961413816
 9.430303152515839, 15.883767927321797, 48.598180285758666,  5.175901979908328
 4.028284703299818,  3.716775984177000, 56.787543011529785,  5.048232689127269
12.344651617804399, 16.234197920941980, 93.151767185938809,  4.896803053886368
 9.698177154428858,  3.825104968935280, 87.563968882683028,  4.941583034886493
 5.605094698196504,  6.476587832748195, 87.671478968259123,  4.802104622585709
11.451683383820562,  1.037555640619163, 19.069466636056951,  5.148515364118629
 5.416096044110271,  0.201004666721539, 109.768642544034634,  5.082037246588436
15.685256067761625, 11.863007560525830, 34.535199617118884,  4.641971120554035
12.352845616363092,  0.106370536082607, 10.266579020704853,  5.146614874550780
 2.821813596974061, 17.114566565835307, 105.770509376061028,  5.104153180331346
 7.447573522383285,  5.754462960742413, 26.432481947769077,  5.008276453077398
11.552609052380429,  9.945977782148763, 75.793748108179742,  5.021975701845963
 7.355595695125532, 17.759597666530745, 101.316016567031724,  4.784417051620081
10.533032959190184, 18.144502490649462, 110.389859717058442,  5.148604993740743
15.251757967458872, 12.750619065331849, 116.076287709174366,  5.028533806279823
 4.174229629009778,  7.042150461203533, 116.776676461914320,  4.829923648976778
 7.715592900509785, 15.355002195372375, 94.075681953985779,  4.628712812651261
 7.391156143613768, 12.825422568615505, 75.949077056831399,  4.957163666120660
 9.625917975311184, 12.104328209716023, 62.322424778353920,  5.021976214821201
11.991381001042420,  2.634324517568584, 42.912400992494895,  5.158783635322338
 7.172865965932466,  9.792215857578999, 95.154411105360509,  4.757331006258920
 5.157281903632273, 13.459628794301446, 97.749685337451709,  5.089452543651049
 1.524702740981322,  9.049254854533727, 109.754658774817912,  5.220162602402516
 1.782840573466392, 12.310624226349418, 53.117956588243253,  4.736615027126021
 9.187562088028642, 14.963414050370712, 89.382584670334694,  5.233056202428533
18.085965790207435, 15.574681185448330, 86.289151243047968,  4.846185884298985
 0.959520355304710,  8.943683197676446, 11.998286233034797,  5.136446352581968
15.603553809264399,  8.747842307456732, 45.730952819211801,  4.646097031270665
 7.368197643182681, 13.553227153259529, 43.097055025713985,  5.201306134580083
 6.032474429991392,  3.997577797321724, 14.341389443659690,  4.453058568642137
12.012578399466049, 10.405577335651991,  1.652011632578678,  4.683835693379601
 8.973960868812917,  0.869746774148047, 26.076555167060800,  5.244180840455712
17.165033355833014,  4.900072708867733, 43.521904120828914,  4.617278153103654
 2.850214191385386, 13.248872694415839, 30.175617586903083,  4.605186809758571
10.007281221871711,  2.028446403419571, 64.976250836263048,  5.590958447522040
18.026721631996608,  9.256681555282666, 79.108678577834041,  4.785230344059803
 0.293612327736633,  8.443036446680731, 32.333372984091064,  5.352804661647287
 5.722660663106738,  2.410869377565712, 29.918725011138477,  5.215297629464525
 3.770573732443926, 10.019178073532299, 49.530253745798603,  4.646870194149194
17.743578937116364, 17.747938105436848, 75.102688413955775,  5.167577618610478
 2.026952310376082,  8.507148361095139, 75.053522867767143,  5.110574535443654
 6.165011819709866, 16.382525294479024, 31.766348127475485,  5.031540776995640
 1.787967606553915,  9.368950164829853, 94.083398544267013,  5.051536660888428
 3.321762874834540, 10.821446022911896,  2.514043193046023,  4.871191614546579
12.555553858190091, 13.095669441308932, 68.184950762193608,  4.520490724987351
 7.485250279844984,  2.639485292268057, 72.192418831117607,  5.254442976505100
 0.433089768351886,  4.148995652170107, 108.084487845431127,  5.330813412122336
13.364946346994710,  2.657711419136482, 84.612027462829928,  4.676247959311300
15.281071996906219,  1.235621438891384, 64.368088674879942,  5.144211176901284
 2.824094800660038,  6.126583661852024, 42.537620202624964,  4.725731284690320
 1.690690992871951,  0.568117618738170, 21.451053020672241,  4.845181584470369
 9.594080002652545, 14.295215148635922,  2.081349361760844,  4.502932594450632
12.970492902335788, 15.396903394596780, 106.815293435742092,  5.097764181191236
 5.579306584899693, 18.590062335528884, 96.876848500155759,  4.917101977216743
 8.011077419258999,  3.299411032633956, 52.720501660217906,  5.491638748344918
11.292136530681963,  0.301061236548834, 80.307930763892017,  4.880602963691582
11.094386367669255, 13.960227461213172, 72.719929215827008,  5.127656805480488
14.303090270874291,  2.424903725132363, 38.084687597828058,  5.098446629071545
 0.721191904589257, 14.675504047308635,  0.827241394282510,  5.004564228079524
13.812611925275187,  2.742940779795563, 23.319134624125518,  5.151555748475040
 6.278106511062208, 17.957307021588175, 22.320275583953652,  4.530013006407449
 8.807759004153729, 10.179191300376125, 26.548907723829114,  4.238086421181197
 9.210491221208109,  3.996706102472693, 82.694692584640990,  4.850749268826132
15.528250451849075,  3.024029260304749, 72.799223750764924,  5.100713659539129
 7.686009240145351,  9.583463282219677, 100.198203946241449,  5.364333302546148
 9.713894754168988, 14.692875317326509, 27.840335160403125,  5.320004240300721
 3.020440247961413,  5.313631826073019, 51.977324302225725,  5.286598341041391
11.012615981455985, 12.205776578044226, 85.146990352621700,  5.514090957948487
11.975886194061324, 11.024302142411706, 43.241133295692954,  5.093535313457233
11.757085569918653, 12.483232433140094, 52.669261941183976,  5.184037513670231
 9.884509892504600,  8.648205379515167, 88.904471845069168,  5.076811382825150
16.828328400398252,  6.193638680630491, 84.397080058149882,  4.744110519105665
 6.775898500312904, 16.373888181429365, 72.051323956780294,  4.853712403121319
 5.265526813119392,  3.399999207238956, 100.159699353522029,  4.785104470618346
10.354242725547051, 12.530637687143681, 103.536176853013131,  4.974720172988230
13.740715600655363, 12.955579155837889, 47.777676002686647,  5.371437265893724
 2.729299612679741,  6.594270214486799, 26.253565594730013,  4.570823126898443
10.133363125009803,  3.215230612505583, 101.480150454298510,  5.297819927655004
 7.270295054211883, 16.674642952140101, 62.684123941511587,  5.283270116968435
 7.354308752333312, 11.645827927429320, 31.139313223146203,  4.806911851949445
12.444776626819003,  7.705941358239671, 25.682076179702914,  4.727174785688303
 2.393190689214386,  0.122127921526068, 35.508775132148159,  4.874202027005378
11.017402869852681, 10.857071880628739, 17.816115529171096,  5.228632379351160
11.436039926670773, 16.226810305096620, 22.630321146484526,  4.888807884281055
10.246276553395173,  4.462004393608630, 11.669782940735836,  4.903055724124703
 3.400153757536846, 14.350499677868468, 109.820708378000916,  4.767405231246314
 9.675694447459872,  1.013570664064448,  1.671645712030087,  4.864310191524048
14.224465123680641, 10.121123636424883, 71.538344084470097,  5.028965998617142
13.885434532967547, 11.687418553823715, 80.618356188440302,  5.223636984130358
12.437726558259524,  6.978283216104257, 20.859393963323516,  5.012342805682071
 6.145134942898831,  6.531553250889168,  8.049794488070667,  4.763873450324691
 0.107147479298719, 10.368871152367413, 27.654268091866925,  4.770192963110736
 0.923852551527008,  6.534582995977155, 47.369634586457352,  5.118464857791057
16.422601735646435, 14.755357544466184, 30.794617921766406,  4.927857097674270
15.000753920931118, 11.048337812883073, 105.322560743005070,  4.951017328819312
11.246037399887490, 17.724346648812848, 35.964475531055434,  5.047143531301442
 0.977221117841338,  6.776249387743523, 89.055640176997628,  4.840985191612927
11.973644003604196,  7.502316644339166,  7.984331821183735,  5.193395792958485
12.815518506451635,  6.392943335113690, 111.913345308266528,  4.689912276249649
 7.990305423448265, 13.667061268295436, 35.649992033388351,  5.121262120767684
 5.312883546368523,  0.108362253560542, 68.082696006688266,  4.946094939104158
 0.454912483919707, 11.027359471359418, 19.102325698058237,  4.918732776389426
 2.238905441320392,  3.951399743213572,  6.229919381472591,  5.159802180633977
14.367861425963358,  4.441716159479498, 47.319733087180801,  4.857300905552743
 1.658055071593757,  0.114490966198963, 79.352965960198276,  5.109705043157020
 6.232149503313217,  8.381972498602385, 12.556201786229078,  4.975321141941168
 2.459695237547913, 10.425933107680667, 100.755898967279492,  5.012676547221907
 1.881092962602867,  9.018273170935108,  6.929490076674825,  5.090638923852292
11.378266342001485,  9.176291433080509, 12.936077927262355,  5.113450339772013
 0.280214761974074,  9.858605928642486, 37.229395810145476,  4.830816786062807
 6.577191972312484,  4.674357111083942,  3.377858162291564,  5.302634526840714
12.802375672992547,  4.137660216976682, 60.941144541942649,  5.015303479464611
 7.886279190749289, 16.131939222849212, 106.212727881375955,  5.246285708637222
14.452808012802794, 17.925329690245263, 56.169857926709554,  4.731891619471996
 7.082344939000103,  8.077091060318903, 74.184657130528890,  5.179486620169612
13.661493205599584,  4.225735418805435, 68.204980040718837,  5.103115242219276
 0.594739446147928, 13.545124440872758, 81.671704990821368,  5.535531284470105
14.405728893162150,  3.857275104302948, 56.387508412917477,  4.630165806827081
 8.521701964483643, 17.887341226326974, 84.756855368501277,  5.790140218848657
11.632171825227976,  6.051093102781014, 92.788666946795274,  4.888980012744942
15.678388774345507, 10.403701970237172, 111.622982654991077,  5.065899663059089
18.415151614056285,  4.968094947165918, 22.435696398356345,  5.016203740991522
 2.297407789079049, 16.084678744374525, 43.217334340601298,  4.835030525997270
10.877071538190723, 11.621393589311495, 92.734319859623554,  4.817608958918340
