BANDS
8 8
NANOPARTICLES
cell(1), 18.760
cell(2), 18.760
cell(3), 117.252
11.077773640069099, 13.448777299139730, 25.844151277553060,  5.489690027533335
14.320052190555598,  4.379987911048385,  5.115286579417778,  5.101715925537767
10.380930673247098,  2.631406028383770, 54.417008706216421,  4.565523694120052
10.611757262488142,  6.083978551766171,  1.765092111345516,  5.192211774856891
 8.808813926387623, 17.072477052047166,  8.628058914788653,  5.150868342435992
17.225690377796429, 17.675569787903093, 59.700793280750439,  5.113747618548421
12.943519834292283,  9.422553676455291, 114.923009543533027,  4.962585518553517
 3.518410663356778,  9.128787248332587, 92.564955162267893,  5.090577856387391
 5.070739091392774, 11.814493801313059,  1.231350417340026,  5.158915102592662
 5.815489568749180,  8.315343506382916, 97.110073638143760,  5.188445684523032
14.672667310312683, 11.932781427891776, 44.583142586749041,  4.617504227988542
 3.771261314203808,  9.961105706192846,  6.177409838056416,  5.012800851145149
 0.826472066801630,  8.228935384769173, 18.902891484216052,  5.069576957468755
 3.817406515146835, 17.573323709108926, 49.456561995950665,  4.678743211393367
13.705581542916622,  6.207979346132521, 81.477566738486814,  4.640000377391441
18.335346802505562, 15.273572287441294, 50.471825919886491,  5.171949550037939
 7.777555683143273,  9.056988047741504, 58.398557360449331,  4.872810131671053
10.350741993495099, 10.739953715011207, 34.861338063719231,  5.427112512076999
10.384726160648002, 10.757311527933043, 97.053510738274682,  4.953982092714314
11.317028299501636, 12.403610723075904, 68.221422766816346,  5.223892490897208
 2.090143294546389, 12.884648072652345, 30.939424129641250,  5.321421284094322
 4.586167797124281, 17.277143892501773, 89.149659950288680,  4.891581054928683
13.940210448505013, 11.213585134971666, 58.029884024141282,  4.987101797302894
10.067746984151478, 12.687413635278565, 45.311066483132343,  4.818010142229826
12.436646881245474, 15.572738832544132, 103.318230133144496,  5.158644099356503
 3.815108800488626, 14.830223254522227, 80.159949127756661,  5.011702764942614
13.982964146742471,  9.497778988488925, 49.144196641661892,  5.470085983342755
 7.039512651699777, 18.571763936241357, 13.044003433275005,  4.817304188768120
 8.209289408235348,  5.124397747587960, 12.933234190404427,  4.819242416083947
10.280215595687844,  7.819513454215139, 93.165429599464829,  4.719781610105121
14.608581370202950, 12.893709450812011, 53.241040088122908,  5.244437309887219
16.739443012707763,  0.634737761902656, 13.601247130782101,  4.731216416685537
14.766736826213466, 10.891781042850926, 110.169737319375926,  5.567582528154179
14.519084258526524,  9.420774969555586,  2.494205034075435,  5.182550764455588
 1.995808443621337,  2.572646317135180,  1.787134748105721,  5.051456433739586
18.747473211995530, 11.151350411783806, 47.287361947858528,  5.270522313289626
14.677100705384555,  2.968788751081548, 57.486971447446535,  4.757663822705426
 9.193265053224424, 16.877409364114389,  2.961944517490887,  4.942074844045550
17.829610661163500,  0.285793892089084, 88.409072667059021,  4.732361440772588
 3.812915430454932, 12.278170961887211, 71.771305070501569,  4.461386215341478
 9.882346781228694, 15.149889474878345, 41.209469882039514,  4.752799402957439
15.392763084210797, 17.985549283472160, 97.967215265515406,  4.802649484687133
 3.645010957830372,  8.302715366784863, 112.891146449621374,  4.689890608730967
 3.914152481024463,  4.273984620412597, 16.636360491639277,  5.143076812051940
17.687509982009605, 17.023472568129122, 80.450177892737230,  4.696299406148198
 2.433640480365813, 13.914940968765022, 37.635708244111072,  5.046628949496013
10.794704153767164,  3.420882411407836, 29.690502828095489,  5.128689967003219
 4.885220301565287, 16.300195003151860, 33.814084673153154,  5.207702420906432
 0.210019231660008,  6.017783168246737,  4.795211615084456,  4.761929678667179
17.136859528762553,  5.485697700060912, 34.081248764303147,  4.532249007890846
13.999431906900460, 17.694396702311639, 32.769902928097679,  4.685822672502154
18.127950852335783, 10.213059998054716, 60.661705597665389,  5.103177153540255
 1.919997305037973, 16.987699139501064, 84.331445891436715,  5.106059167459965
13.766534896954576,  3.268902224560098, 25.614541485639446,  4.950240445018468
 9.726266320436430,  6.137158748078948, 37.071266356593135,  4.850379248931099
12.319135446034013, 13.522918627195700, 30.948299244005600,  4.933123927423860
18.130484655728530,  0.213365395181444, 65.131084172128297,  5.089623982527494
12.506604348639335,  0.025272409966251, 76.735212350363071,  5.006037038694878
 3.597854740938122,  7.073765302849676,  0.303964293986342,  4.929890160412046
 6.464352111113033, 15.037617895229941, 85.371233010983048,  4.628813001542582
 7.697049474568169, 16.771145970543863, 105.695065697444107,  5.623222644315355
 7.907686673909454,  8.707610159792047, 115.406175428184241,  5.239307267724365
 5.793983355804940, 13.580010350700519, 55.887689515434580,  4.520685330957782
 0.472469905413870, 10.345730856906583, 14.292876890005923,  5.089101163992038
 9.100453120972174, 15.333561800295607, 90.071226865535678,  5.090304787194040
 3.487575047528761, 13.446165791399018, 60.187586992693390,  5.239765628506642
17.882945633468999, 14.087718873253282,  0.419763610513002,  4.781892769988315
15.025399016653289,  4.421887188929474, 52.696721179221541,  5.267099652163695
 1.388994477760935,  9.589144669275161, 68.817874810007552,  4.875309893781919
 1.809731908624331, 13.551562415454008, 18.121908025425608,  5.247917155464681
14.769038493244778, 15.472565699641368, 41.269956472464116,  5.031630357661335
 2.495895097285659,  5.977606850032203, 100.324011398611773,  5.146049521201873
15.192257150422721,  0.270047259809154, 84.366161824937251,  4.858242185687278
15.593479373109496,  5.238882826512500, 18.643866618977395,  4.916457588514772
15.426077646769574, 15.218052221259473, 67.117354865726426,  4.971284349566652
12.623505857782453, 12.219737344276261, 92.583670222656806,  5.286236026327172
 1.861572588407233,  9.939302681364191, 26.707863919208144,  4.501513541991007
 5.701543156849017, 13.584017237051087, 14.683385012133613,  5.118561722122959
 5.856531059594359,  8.934326114377264, 17.903417866287771,  5.264374019066051
14.051469872664933, 12.875953838273293,  9.613861346772806,  5.177005463283363
 4.635066158795800,  9.959563825989120, 80.577789678160286,  4.847270327772674
13.388014887491069,  0.861498490643622, 62.383937451578113,  5.027798429020221
13.442639417535498,  7.670288011627799, 22.435494827735354,  5.051535444161524
18.435403714697514,  6.044518116185897, 38.692826864385196,  5.109784418246672
17.361872654393583, 10.797754984524154, 23.048580352537037,  5.014738360044103
15.538747925295272,  1.702339565444602, 41.850416685595249,  5.120572191828926
15.806787411745926,  0.627847440577043, 103.204385427287860,  5.017959050400455
10.291610344478404,  8.185532161909221, 110.909582328493002,  4.970553601745522
 9.900097034926624, 18.752951420675014, 115.612419203001366,  5.086396410688923
12.522150296720167, 17.497214596048828, 107.899916388921284,  4.766864901542310
14.489993159699910,  9.429319414712253, 16.034779491348818,  5.173059622625920
 3.341206776479969, 14.218250018555015, 92.952607172519365,  5.123297833213393
 7.561664678149350,  7.609387861065035,  8.648877026970082,  5.169422092968480
 2.570528296196492,  1.679758246299650, 12.548080396870592,  4.899461388856920
11.255468002497542, 16.814883210011235, 53.229880880711214,  5.050726556309431
14.056920608670268,  7.072300678821152, 96.351206243496165,  4.886302917697074
 3.950395456015700,  8.556735549131099, 49.489666111630683,  5.173833683170513
 5.759658028052902, 13.479894724639736, 97.433941557182123,  5.159605833663329
 8.385370024642299,  1.494015412662185, 89.834156321931758,  4.854749374226992
12.938148333063205, 15.813794590853508, 80.823477857916600,  5.125153171777949
 7.749912401005531,  6.934287974818805, 41.573457501143963,  5.111604263224730
 8.937342123791787, 10.201174829525190, 22.044450547792799,  5.306207171098116
 4.805058560946369,  5.645178537091967, 37.609972124366287,  5.094878671138279
 5.111836330290823,  5.288083658740178,  4.750931781109178,  5.119788995693009
 5.043041902959784,  1.530102302763084, 108.912649649915068,  5.213953204799635
 0.137820414141525,  1.444985296941249, 51.306609678143559,  4.879017636524107
11.182910647430022, 13.068924514150506, 85.521588876660516,  4.749052097538216
 6.909960500117821,  5.182082818659067, 21.034075807658336,  4.731760401885618
 3.540676068492989,  3.561184547969231, 48.342816326749940,  5.088993725213418
17.167048116454254, 10.027132945900584,  6.695789184410410,  4.813861153434567
 3.503371188458302,  2.418179516684473, 96.870632988970726,  4.954009599365217
 3.748053662719181,  5.889906774167621, 66.777175473009592,  4.798031925686555
10.427844808299279,  6.178701934658014, 51.185811062474784,  5.027653754857805
11.388895358978832,  4.572728961857084, 114.253564767784042,  4.915417802257565
 0.515311949081895,  6.288657515157449, 95.589395274017718,  5.124227606766135
 5.272128416545358,  4.314514277443490, 57.308041629779687,  5.588253762878884
 1.400655177395949,  4.932139835095604, 90.823054587557522,  4.934667817941537
15.001254305617767, 13.913229369511622,  4.735832192128737,  4.901717675683740
14.152376480133006, 15.603750213882785, 88.771810642455478,  5.350070222733795
 1.457927766316585,  0.254145492142712, 92.758517571712716,  5.188496878885021
 8.742898542069620, 17.525079868076357, 29.973185008182053,  5.046944169278220
15.916478312370002,  8.423593650313244, 11.102328949815609,  4.879362609794601
 4.852743443101092,  3.752972640962521, 81.463832406271777,  4.875864068043903
 2.626827126044234,  0.572407652318067, 78.567855936183278,  4.799315772459695
16.663869570217031,  3.843551790398954, 99.253969513713344,  5.114447723547582
 3.380425240346138,  7.524072051533627, 44.367081160526936,  5.326021366327824
17.460643301030888, 18.080843881705341,  3.715459325261585,  4.975195554268301
 3.470200931192163, 18.534477468068683, 59.449291681721469,  5.041502881003333
 4.519441710114933,  6.726662052694006, 24.802257296996849,  4.652505299129792
17.709400096011294, 16.768964684845482, 29.908721083074663,  4.836108672569479
 7.480628177558497,  9.596127815588899, 70.243116250158579,  5.095390142545200
 4.075463651616163, 15.276151933789233, 109.347823177023542,  5.026225725538850
 9.070378632629822,  5.675952873057238, 81.440862271039435,  4.267157630029369
14.225533184638348,  7.973817503387210, 36.806431119605911,  4.854989068747272
 1.292412225652318,  1.924902877153712,  6.913774213061277,  4.675131144628763
 7.343827096160666, 12.733698119428210, 30.997012485133670,  5.125362360772854
 2.098924603544654,  8.636627075969644, 105.690939417591864,  4.765691778832675
12.963903895269691,  5.593697693887619, 40.635359885910752,  4.505276899067193
 5.224995629082337, 16.313389619887300, 40.924400966825552,  4.820396251739868
 4.434260128913138,  2.378228718132769, 73.895382088852500,  5.113190939656188
 6.086372439267151,  2.679210003492972,  9.073591226715664,  5.157569754546109
 2.552629271442114, 12.029427351334844, 84.470315267697671,  4.891180220863959
15.215713779340247, 10.865000762254320, 64.736629500529162,  4.947322993585065
17.488069598222005, 14.762027222796688, 101.631598673967559,  5.314730261903430
13.530563120354504, 13.948817566511893, 36.926923508450606,  4.500696097460323
 2.605539968292624, 10.927296757887442, 101.416225568062075,  4.977561351735399
 4.003388245851863, 13.144928512426400, 51.553729458283364,  4.881922359547471
18.519272289697469,  7.356306378786125, 64.670790997256844,  4.685591769474156
 8.149208740558912, 14.109513333547026, 72.317604803095023,  4.908875649396061
13.618085985678070, 14.597023384433308, 61.774240396451347,  5.094603561922840
 3.927820251818418,  7.593390887063699, 61.642531359102570,  5.593192361082457
 9.138863470187379,  4.024602043579693, 104.211766629434010,  5.012250771716280
12.793168960217107, 17.305870236728357, 93.524970555334306,  5.049873452299396
 2.996430875401037,  9.536290762857611, 56.575662313670804,  5.398886049152972
10.312716918280653,  5.756077022377339, 88.978495691435768,  4.606215620797949
 0.534593831048222,  2.421189354445699, 56.524239136286980,  4.734882460199438
18.315243302964610, 13.587139848135646, 56.807701110593335,  5.134052588817004
 6.553417182203108, 11.769582519873738, 42.085736891644117,  4.876916958083150
 3.903761932631432, 17.209032279108605, 28.952647094324877,  4.863541501504443
 1.839628912154456, 13.206175841905553, 42.913093108414060,  5.078645064660759
 8.318361761078544,  6.583642659159044, 74.205257894725207,  4.998952607712844
10.358841484090778, 13.221792167308569, 108.529659255719736,  4.893322399503900
 6.136081922184672, 16.798025166903269, 76.078577688275516,  5.159673892334678
11.743730116562849, 13.975153940551889, 113.239745687403726,  5.024009462297011
16.366356958199599, 14.171468923413739, 84.254142706694637,  5.109862319015999
10.140859175471357, 14.171131754762689, 12.484537811486810,  4.857574576804013
15.910279864860140,  6.072053267612342, 112.418057613478297,  5.279521721057386
16.233591561966147, 12.385296560871263, 27.834036449879772,  5.301828326318545
11.039871099671931,  9.220800324185161, 12.154770657465829,  5.218359004153574
 1.581833921655254,  4.606936286477119, 28.426343704948358,  4.771392202115280
 5.040221004918315,  8.839490504032259, 12.860577691327334,  4.947054698104594
15.430155829602853,  8.876552122057539, 69.104019851224066,  4.651797944886193
 6.605481233471028,  4.424723388766356, 112.856177928498255,  5.053381966960042
 7.589918403510906, 17.971203931766507, 56.482512622167690,  4.999882488088752
14.889645758778881,  9.014424997147616, 77.715978849629366,  4.641467059460391
18.509952074091832, 11.872404485252648, 80.084251514809111,  5.040764064579395
 6.380029956737769, 12.500828215524161,  9.684718073357342,  5.089325009940600
 3.624594458223873,  0.753997936491358, 37.562310290638585,  4.967177801081744
 9.408397265235381,  0.868507393449519, 25.435338456845066,  5.006740838915603
 5.105634637350339, 12.727299054184714, 46.736663285418174,  5.023596953085093
10.469001115819264, 18.004316511875942, 85.825491027076069,  5.233337911201800
12.635923799041299, 17.560719815356915, 45.313691591100529,  5.017550326635038
12.966416597023128, 18.301843431954264,  5.938272316232784,  5.053028944837731
10.075051226467187,  3.000767230352886, 59.214760416907168,  5.071718298069660
14.868143598218548, 14.596028305986465, 14.628769381187048,  5.549475338000131
 1.629359996446448, 13.388610204976224, 105.532111353415033,  4.783518240884974
16.612386829495943, 14.800763352684086, 113.079616021615195,  4.851184036783683
 0.292167821552132,  2.575723710796684, 82.609849074354230,  4.793503195961708
 8.833604359971238,  6.501020498811022, 62.260962011856030,  4.532103365193416
10.419991193627940, 12.226456775779203,  1.048347394149426,  5.162140370446895
 4.265184812543867, 16.842545596446772, 71.505152384101279,  4.718611644436209
11.800116136293170, 10.497072648491384, 73.217629797598306,  5.505626940745064
12.375021140538669, 17.555052441344145, 57.991347435876925,  4.822257118887799
18.679454969518474,  1.588639870053707, 17.839154196541976,  4.765662078160046
 0.604893784232480,  9.303292523857909, 75.787026047012475,  5.117138014470954
 9.600701863702721,  1.293719993121234, 48.833468420869451,  5.324162781023296
11.435324755548109, 10.586462303678756, 40.047670905181555,  5.152461473591115
12.204000310183799,  1.037309416711787, 68.929483916442450,  4.786167745849860
 6.751436032344325, 11.670281488749398, 111.452343881375540,  4.890554124733685
16.810284355785477, 10.801334013658645, 40.207329843793389,  5.379325801808791
11.124445987816612, 16.934794058294123, 21.664371501802087,  4.827790907194665
14.451973926695608,  6.456715299151154, 91.205193619077662,  4.816671825198271
 9.759098299913177,  2.861358105033573, 65.157150044999611,  4.913469328309273
 0.164752281019092,  4.317356316321118, 75.595942770368296,  4.862942632539863
15.619417690794156,  7.086032337143476, 73.465843643830681,  4.742787683354706
10.836655221014755,  3.094153639701396, 93.714435333662976,  4.853767651613902
 6.709632959623559,  3.207103525390139,  0.404172496401203,  4.851134375879492
 7.651310714015194,  2.275857773555557, 39.876231896112976,  4.805592704011486
16.305242389206754, 10.597960197164923, 105.029128234222824,  5.150667255358867
 6.366768309551120, 13.818975963064194, 67.669969855634918,  5.040230511886882
 4.447874245175937,  1.911843725256049, 25.445238120497834,  5.053844495351886
 0.908739619236254,  9.149998252809905, 88.249642595555557,  4.994331592634852
 3.618065270427779, 16.843886515786092,  9.069822209347331,  5.274561827212438
 4.159291167644602,  3.712468851680831, 104.462516612228583,  4.811135510414397
17.666119758677468, 18.724480900640707, 115.966678036457637,  5.099371948068122
 1.179135554958368, 15.693672915225664, 13.478250748061743,  5.056537436697072
 2.676488183581641, 17.116317035005629, 54.474017981918969,  5.322441882468342
10.501966143848547, 16.039678904762397, 98.242091965349147,  5.738998953553776
 1.241571475381051, 11.124506696305362, 109.798598496089198,  4.899181615607418
11.984106188240315,  0.023342217018253, 38.322889583040009,  5.435488943550212
 5.964170072335592, 11.321792054341858, 75.946106554197513,  5.118834164868573
16.589569589008008, 16.318889791065914, 19.109122996676000,  4.646479799687011
16.078495596344318,  1.804622572482634, 107.867054730772878,  4.610744620199381
14.707096449161488, 10.428841589727682, 88.197499838091090,  5.059001925758226
13.786786941451879,  6.212536788847795, 102.613542016052264,  4.910778781271151
 8.106218507158561, 12.846279466263178, 101.995189097398097,  5.171525217536946
18.574903196079237,  9.907082062617668, 35.349549684401524,  5.094511960914698
12.476132846902400,  5.112844866548427, 76.485949930284022,  4.825815672953602
 5.053474964034568,  2.653166427042920, 63.288534027533089,  5.060739524888381
17.261319546098836, 15.784046993937292, 45.586283034122367,  4.875748088838668
17.469176531238432, 14.733112405224322, 34.375678751279530,  4.985770414633270
13.587301627213906,  0.892365901544301, 17.314298149117011,  5.016772115777140
14.454314018940115, 18.702441483273606, 49.844076946119834,  4.945837758125544
 6.972025262337942,  9.891163588505982, 84.865187355880707,  4.901672915062475
 8.070962628428630,  6.698617424479957, 32.450019370520025,  5.024211680429613
 2.126343739039082,  5.563746715480392, 53.172195757647899,  4.989107822394126
16.777207459206210, 15.269160574624877, 108.146584009496323,  4.850962996276131
11.764751912681017,  5.868901887808256, 70.518426906427962,  5.191650217526660
15.416963713166991, 13.665419663766652, 76.592383986250013,  4.943805918598396
 9.592122855540079, 10.367194033346351, 89.069588532523767,  4.703021311427906
17.157555519707319,  0.941880744217034, 36.459735619512927,  5.713621376211120
 3.091327874489315, 11.589342419797577, 64.797010707825009,  4.724136449100342
 6.070747599221581,  4.654135884942219, 93.063648166351086,  5.258379328179443
 8.624650902284714, 10.414566929937967, 49.347142177200283,  4.885219619155087
11.723293949535281,  8.067047467746715, 44.577221459993105,  5.099822531948009
 3.058566270844438,  2.591159068110926, 86.708972080438627,  5.071381370802750
 6.545848409671882, 11.049068408169687, 26.407195058165378,  4.762032059797309
15.476973202991578, 15.783294622185165, 23.880395792540142,  5.206608505077654
 2.933646058030996,  9.587370317039165, 39.819507771557468,  4.685261484400544
13.379730008192304, 12.571620183861757, 20.163576160941332,  5.438460003348724
 8.061986689157200,  9.416095131144514,  4.193295080056312,  4.497464118153096
10.231809326097139,  9.462631288362759, 28.829165086797993,  4.608072854609274
18.223440302914199,  4.831458864654741, 104.119118684755549,  4.835629562250289
 7.680639012423532,  6.142939441619997, 46.964456164439085,  5.044524768340455
 0.531616089213858, 14.261999410624917, 88.576071834109356,  5.277964456321206
 6.568054681603996,  0.098598188207917, 21.199626863030872,  5.105620738172655
 4.709334993859005,  8.906054168696947, 30.003200464029302,  4.373517298977873
17.663424905210032, 18.361341113816458, 70.422095314397211,  5.167035062885441
 5.787526895643819,  2.858069162767899, 30.189012309596574,  4.982204129470033
18.651452606839513,  6.753167350625883, 80.091755663028167,  4.977623960821704
 1.641291222515668,  3.920079442197534, 114.091683031151987,  5.223726440390131
 0.185098952001455,  3.657100797951446, 61.355712945125397,  5.259083676493463
 6.470373026831493, 15.681744073540820, 25.107704212863016,  4.851713724262456
 6.889006205609167, 18.013129546555284, 94.325419141605281,  5.611420818378339
 2.824714553128741, 17.834634820142487, 44.814871346708742,  4.809008923470280
17.063770103348826,  8.837090570762697, 99.972425185559572,  5.005092901695560
18.231238024921616,  0.916843758906031, 25.884845223141141,  5.134265165340125
12.587377367394257, 14.356378321824593, 48.962714963580254,  4.644673834404915
 7.641895643914047, 11.774109415901979, 93.160380942241204,  4.776395873768055
13.646104134816774,  4.458509479399458, 47.748359824427830,  4.997579816971007
 9.891670744012838, 15.894720868990365, 34.552680389820971,  4.941387439189567
 1.835249042160676, 14.182673456861750, 75.609283541239407,  4.949714539539906
 3.779255882753202, 15.596141254541850, 101.902243110921859,  4.698984170565732
 8.517177616737881, 13.136208514875870, 81.297368250726080,  5.211016114408645
14.486039246803440,  2.471972803006011, 72.969939324405985,  4.797743382145722
17.392882845045911, 12.356405228667352, 72.062600225491963,  5.271191872984194
 6.472784799333716,  7.557296532437140, 53.563080974575229,  4.604394567042806
12.753159090158894, 10.891746485840327, 101.411423248497613,  4.968233527205332
 1.710611222254024,  1.151893195938605, 32.345103551348451,  4.846782064133600
 9.736915294583186, 11.196076011403008, 54.239419074225559,  5.264770746665798
 8.093177932648928,  3.902536961599229, 97.604915719639749,  4.785527913336730
10.561330296873367,  8.866537256394656, 105.711362765128527,  5.485478048966791
 8.091378097930095, 17.620119139421050, 61.565310650137206,  5.234925359896049
11.981815564272233,  0.074260222845368, 12.348618104967432,  5.170775988075548
 8.121959562503944,  2.681230156287121, 77.641269403613890,  5.404505608896242
13.207402689486322, 10.918016117252209, 81.728388865576477,  4.845295393889038
17.961458140824092,  9.925413672100429, 115.099626491214167,  4.963712966439582
 6.667697635477854, 14.091791493609072, 19.595463473615983,  4.936472027425875
11.367553988840328,  4.122633998289824,  9.256872424434819,  5.078893389583659
13.466634150851434,  7.733088435459994, 31.938416711750556,  5.006699703147421
11.195102769638060, 10.395934486546910, 61.883006770904068,  4.606668410334133
 1.558076901571974, 14.586288181933710, 25.359084572265068,  5.194927185538627
18.115144373247027,  6.269284446208231, 49.027851591914995,  4.973587410839556
 3.838220046835634, 16.587457687181850, 64.302980114003475,  5.034994910500716
 5.008887360119548, 10.107185049790353, 34.896626943235162,  5.331254518977892
 4.785008881674402, 18.509507573069889, 114.107683356763829,  5.221756386258521
15.018281036746345, 12.976029417207034, 97.268810670212801,  5.326893419437676
15.832762201136534,  2.628576761402062, 94.291433784892888,  5.237536013996514
10.639941877095589,  3.178989922580860, 43.987257530419740,  4.964969885846527
16.446385940252345,  3.643632747609407,  9.727943547885742,  5.077310861575691
 9.832372449149760,  7.305224899147512, 100.276316772397564,  4.532442975351285
 7.618581201770261, 18.537320723740862, 68.244054599030889,  4.789623021995416
 1.616144100959369,  1.084976594347607, 101.239260797223992,  4.928695014606256
 0.628344643408790, 10.127444212153625,  2.502278560242762,  4.656219653376722
11.029911291717180, 16.595630162721172, 65.496895899208326,  4.791170444265971
 7.824602703074179,  3.626724499452853, 85.417309231218383,  5.015785607252287
17.206177202969105,  4.934213948389821, 86.655375116066480,  5.273717847062149
16.079906018922738, 17.711318661993371, 54.638625245613035,  5.155071416336669
 1.008412079430802,  4.947939920480723, 108.958637606844846,  5.321519420309167
 9.255680144819705,  2.626604737583164,  5.075642264040991,  4.750675252536669
 5.136007251561817, 12.077362074350987, 88.822350614834477,  4.820057784644765
18.214770180887449,  8.466622631383359, 30.525797659918688,  4.988261380786566
 7.653586998572744, 16.972533385916684, 45.162517984555876,  5.017554738736190
10.337137436225486, 13.105305340121445,  5.986572538302219,  4.853932767188708
 6.153543427205181,  6.673677177518254, 108.140278550239884,  5.421685893799665
 7.498113221199813, 12.929322045733992, 63.040629877435414,  4.648829067464039
10.469369050784932, 14.209158282065829, 76.700435882472547,  5.002451802331245
 6.143377420277497,  7.955587994698390, 103.145196812379922,  4.888490457289778
18.322140296992206, 14.412505790493025, 63.259717804822145,  4.777232973435185
 8.004674823415886, 15.305463366514591, 49.801325401271448,  4.863045590929349
 0.502130713714960, 17.352435815609546, 40.636926385782388,  4.751304013274805
10.053115958010418, 16.274118550177025, 16.835528577596445,  4.806379260001930
 8.682508194077004,  2.320158523435110, 17.056673892486732,  5.196793660182864
12.831916324427176,  3.379801610881248, 34.376354920082299,  5.050716581689493
13.688785278728050,  2.260362711795771,  0.650878010065522,  4.861288130318779
13.520680992253578, 16.153362945925380,  0.617755239544833,  4.873453117348788
 9.570921209021199, 13.621359450510946, 58.747919965700589,  4.953056300798131
 6.656335877608806,  0.775588166511438, 101.189320354638824,  5.149537223120026
11.463813303585580,  8.450947170999020, 85.287333228497332,  4.468748039451501
 2.043020201532877,  6.347213644230459,  9.609197602884928,  5.054241733453495
17.835962893216511,  1.927935049224428, 46.432524520467140,  5.137773134836666
 1.297710159949725, 18.295468538113337, 105.978650351595959,  5.060315518794048
14.364306811156633,  6.502791564607647, 61.207371962776520,  5.522737032958783
 3.677778008152154,  7.150177343473656, 72.427916329963836,  4.947065536389327
 9.437469794799481,  6.034510934140313, 25.320595372959055,  5.325973146705576
 5.961650147247391,  1.959773565161429, 52.541111809950642,  5.119104548240180
 3.244976692578177, 16.518686074434360,  1.264281477141451,  4.930676519890032
 5.362540985844161,  6.816345013149576, 88.435068470033514,  5.052113504797748
 1.443324648443198, 16.469524272030373, 97.368627751772408,  5.341748678411657
 1.442637287669991, 14.495982662900483, 68.327747517932181,  4.986839541174318
 6.111511670424592, 11.637238230931354, 106.528526071253197,  5.015064952174435
 4.074049665393519, 17.973650950514656, 16.899547370874426,  4.982366010189915
17.046041918411728, 17.210279920578714,  9.032569647606406,  5.415155812770141
 1.120882304204073, 14.040470528608468,  5.201144766191621,  4.899374906239808
16.988969396655509,  7.272798658610689, 56.605136931909534,  5.156493126313086
 3.075780046290774,  1.322932714757522, 68.215898068020095,  4.801177726286793
14.465969855783488,  7.764011390012075, 27.187529768808641,  4.669243652754613
 7.451025407539889, 14.586458862646266, 115.269188833360886,  4.543221127805014
13.165866417577584, 15.866460854410143, 72.283586697534574,  5.719739235867332
18.216708096949201,  5.303151325761912, 14.277920868641361,  5.141304265625148
11.251718052983989,  3.043844076811365, 21.361815258659632,  4.931100503826455
 4.387414511455701,  6.299578816154638, 77.268420994129798,  4.983050503582383
11.667336045414595,  1.888335452089733, 81.304613877255932,  4.913263640661430
 6.994765775979807,  4.278305159406394, 70.012942252147610,  4.915149620819191
 2.458572880695224,  3.643462910573462, 21.321793294807186,  4.689762906893129
17.182492949379359, 15.025741655578335, 93.134032532661223,  4.836348560799394
15.962437884706027,  2.741973891320161, 30.195997336979243,  5.263056155977212
 1.738981937574423, 17.689217296849293, 21.418150316345720,  4.829980710958921
13.066875481733067,  4.830971041912455, 14.120485750489117,  5.167975897547215
14.896037384610779,  4.156435533807740, 66.044975992365593,  5.269808177337446
14.824435746557132,  6.396013887807094, 107.430666590062870,  4.946845462513243
 0.519618354137006, 18.571743834358184, 111.058393586126073,  5.229794493715689
 9.165016320982412,  0.718809509633535, 72.862015943070332,  5.122197666113567
11.823969440276780,  6.882575351011853, 56.341326374272228,  5.192996002293506
17.483002587488873, 18.210360893189755, 75.619808478600973,  5.227311438819177
 9.994995002007910,  9.115214465111913, 78.307578907793399,  5.206256854689398
 2.722841454750057, 13.596114793760650, 114.104483851656894,  5.386685622320338
 1.171231960251958, 11.289364879155752, 96.572677929772055,  5.150028004077532
 2.948796103430018,  5.820542385530366, 32.976397941815804,  4.890458257399719
11.473115054423399,  7.904074674977997, 65.914807776289564,  4.881734223080652
16.793124512355288,  6.533833883793283, 43.844051946535494,  5.592363379676608
 5.176199327342016,  0.266149962991041,  4.878756129701149,  4.672713132415944
17.920659317523338,  5.876863021392510, 24.244102685617857,  5.157908241118714
 5.899881096310144,  2.588713804483238, 44.227073988133682,  4.595465798221135
 6.927622966047294,  9.072603386825357, 65.480479158841248,  4.543694340353492
 1.606464631492368,  3.032158232301696, 42.221262628276321,  4.922076623326506
15.803660407959811,  1.435821870936097, 21.622082810971790,  4.722281261293697
13.319199047013567, 17.724353290548702, 28.027821212173958,  4.894308488033188
12.376866320157868,  8.669390734431120,  7.135546657533478,  5.144931837173240
 9.968780153345522, 11.483648298041251, 16.496759788506687,  4.799175117336972
 7.313991494619408, 18.157724013309068, 81.715141891387518,  5.131760030521750
17.160891052038664,  5.703079587796715,  0.314890991958925,  4.917315090829881
13.886731626779977,  0.566896827019693, 112.329224043956586,  5.181536249276037
 3.690582106155516, 10.925450762259976, 22.278683245500417,  5.278442872209888
13.324444200785441,  1.927429035580962, 89.573668139594730,  5.071818879660064
18.754645083190049, 10.016716877732183, 52.353656617387330,  5.001982120227581
 2.729386097210743,  7.189207685637580, 84.137690398521016,  4.811184047955488
 1.368995998666386, 12.339927130129569,  9.802656188748850,  4.899299203762561
17.285834526185376, 10.198120799323421, 92.447304408317265,  4.878270303723021
11.867214218231714,  2.133326060399980, 100.335876755604758,  5.180183139392595
 7.264583729858194, 13.495260621174960, 37.724382049780246,  4.571427691567417
18.516756115808594,  4.826101987444160, 69.937512414248403,  5.437918365644371
12.563031186783530,  4.093628746080012, 85.367840531826218,  4.504757947986122
 7.870835425128774,  1.870346103075516, 34.815961260422320,  5.351506587674637
17.130836109355702,  9.255434685135086, 84.036692963815952,  4.832886483258503
 8.642563002127581, 17.228989468874033, 110.937059378323397,  5.062533833786927
 5.837578943620053, 14.433272493683205,  5.288353519142063,  4.568085816339969
10.617326217305134,  6.920765762728394, 18.265007212895156,  5.069816781955485
15.863905677039464,  2.787749681294532, 79.017827635933230,  4.811071309708574
10.298869644491399,  3.211983515175197, 109.277512223097517,  5.487745549822287
