BANDS
8 8
NANOPARTICLES
cell(1), 18.743
cell(2), 18.743
cell(3), 117.144
11.961791257447908, 18.580669685564164, 104.877727768675626,  4.928207156449709
 2.290982822171534,  4.854030653954636, 13.262601841463162,  5.001209338869990
10.795697869595669,  6.623431686097256, 28.925592461210499,  4.948629914644303
 5.107550671765486, 18.542730787741416, 34.351795438962434,  4.888651681573342
12.235527417101032,  6.058642959981630, 94.419710043460370,  5.200938105546059
 3.234027110240411,  8.913725575210933, 47.516761174597477,  5.088005146082533
17.776729663216845, 13.771666387155669, 100.478705167356878,  4.954237399421968
16.070798771795470, 14.816301614100363, 95.583512588706910,  5.371223032812104
18.350469221857868,  8.591805518458459, 39.202916859291001,  4.975474166980057
13.147829019547544,  8.252717453768327, 42.376743845134698,  4.666471037234288
 0.509243696978075,  5.028639633784178, 114.439426895097583,  5.108766474385829
 7.059124519465543, 12.839913936549495, 95.018193482088705,  4.945844109248844
 7.000132262646879,  2.868236967153063, 13.854482804206311,  5.229055812681711
 9.932790745368049, 13.669385877011123, 106.481225711154408,  4.999898153787589
17.022369164413600,  9.759974479237814, 114.620446108090761,  4.854916934254148
 0.726416139322500,  1.044184667923693, 111.273552245430082,  4.668680061204681
12.383021490179525, 15.911752069059244, 81.918073090479368,  5.450273299659327
 8.303973747656066,  3.991940258729062, 91.434005330051832,  5.245354091322588
 4.570486546071103, 18.100259245897693, 47.875994425289193,  5.529911364938711
11.538970328368697, 13.488493867560438, 36.846134507390275,  5.035664387477329
 9.624956896888669,  2.957783117040075, 71.511186125770351,  4.945288990837020
16.998958150962288,  2.797524760337529, 87.927208107795636,  4.711080218479487
 2.799871083200276,  6.447649717565951, 78.450495792830537,  5.031957397573093
16.464951909217941, 13.041568240958375, 64.159357730020233,  4.968400059492994
10.550811257545847, 13.646757195542113, 22.779332312002374,  4.632279493337660
 1.569142617299541,  9.520419692290986, 56.276756349787306,  4.737389219660962
12.752676251236270,  4.524361481259381, 45.549137367392348,  5.154200956935512
11.980761285217742,  9.911664917932335, 114.878385109458435,  5.229344856093853
13.468923157491082,  6.849714217311745, 51.686542289575264,  4.781852913643532
13.194440518044157,  2.252433910505669, 91.034156134695806,  5.165170476469923
10.658311100784404, 12.300002544516246, 71.826176911326826,  4.646243153628275
18.251078202115625,  6.561664864363025, 34.597833984429208,  4.920604667106849
 4.321860491282284,  6.512646299017944, 102.518908799795724,  4.778717558663455
 6.354648862970796,  9.585132660477674, 51.444148524984861,  5.030341686064705
16.988930194991063, 16.543278832625607, 69.167158053704526,  4.873761320003285
 1.310597197244304, 13.528618464570016, 13.984062413381475,  4.739347510965375
 1.482770664432929, 11.467150388150600, 20.942949735565819,  4.679669513686394
 2.380237171101860,  5.957757906722465, 43.691962372865568,  4.652420728424920
14.692582366401403, 14.887342899879838, 106.645818537026642,  4.765674768876062
 7.159861597392911,  0.224703466776973,  9.367914431891665,  5.121659838132611
 9.500393609802936, 16.733271656171606, 32.891714004412300,  5.048112255264005
 9.536375542797604,  7.315000638167883, 12.010134836024177,  4.844168735232296
 8.513831748042831, 13.445277381864058, 99.713786195882250,  4.956286640034848
 4.203001832557001,  7.422242905864255, 60.017071122959706,  5.281391184968133
16.634768650482023,  4.998413292445322, 42.429936079945939,  4.841616975481377
 1.664446134288882, 11.636863379830601, 96.496295567999127,  5.437052741319362
12.994853213805728, 12.684912274417094, 102.317683117453257,  5.519941250798896
16.619375713708187, 16.515727047838240, 37.284128064616120,  5.715663295652662
 2.091846047443395,  7.370702265115505, 28.824049713336752,  4.975043960965547
 3.847832635612664, 10.365144002002193, 114.133181302437421,  4.922006389878037
14.337719741966225,  5.170371571565373, 106.846193595544051,  4.896116438928223
 3.529158749559047,  1.339483816799090, 43.049677023051508,  4.868277086911375
11.800430990606554, 17.177243024651307, 71.918500595017463,  5.113622251148293
 8.593321038408295,  0.401795664729811, 83.090611035383020,  4.749917879305932
 5.686827309505772,  5.441908384515705,  8.900360560820396,  5.735215340386657
15.730559257729993, 12.800867365901794, 12.520322792448912,  4.475232942319529
 5.504483255039905, 10.612308278524139, 69.861794570617548,  4.784593886671676
 8.609931091279591, 11.104190648371294, 28.255381274091519,  4.972766149518437
14.377062108411488,  5.501196905898835, 115.680166286954574,  4.926996255254896
 9.765262474414197, 14.757355688475776,  9.751436625607601,  4.766400443294177
13.488168184915716, 17.015743166050552, 11.176036581487228,  4.389682295534950
 5.762868059285735,  4.520665555003133, 82.744587459131026,  5.264921398878831
 1.052180623000936, 16.082288768673926, 77.923279953956495,  5.070900011201406
12.776670840517511,  7.387308403531623, 76.878517083568923,  4.986077276252432
16.406907682594905,  8.609775989688361, 30.564352069220657,  4.836576838947289
11.258255320671269,  2.883225991771268, 11.130873522960092,  4.825000833003997
12.942765735661231,  2.429362400108750,  2.284322719029956,  5.172689181332955
12.392335653453484, 11.061988095232774, 59.071352923585977,  5.058684092923132
 3.768790819759076, 13.565041111057306, 57.136186349284905,  4.587127511480232
13.671915498405905,  8.679196874912972, 37.393804048347072,  4.995922212649852
14.223260930197984,  2.356001678430105, 74.673858989838521,  5.457436237919304
10.295499710656619, 15.986429195362859, 41.236322284413419,  5.354050865102499
 9.801401029428249, 10.257922606271293, 67.524352282258988,  5.014435923023716
12.773101151804545, 12.433112757231275, 110.454145894592884,  5.062809214870572
10.594198652878276, 10.586618994354458, 54.241616061622011,  5.237197518083523
 3.791309701810383,  2.978549699242437, 30.540326372185163,  5.047868959286984
 2.343234538625786, 14.511976581795928, 35.095459435742512,  4.996448362904610
 1.702593858304274, 18.644056784075630, 86.019813315131103,  5.054559237932177
 3.656737818238146,  6.429023443945073, 91.564176611600587,  5.248308000227101
16.721679667996007,  9.257968279108386, 93.543846592756168,  5.137156053221414
10.405454427810195, 12.395975503871391, 85.191390230688938,  4.932934173440853
 1.066528404531867,  8.072745894449730, 71.987286289916710,  4.902800316333135
 9.063198817898972, 15.067261433727554, 112.777934186248686,  5.153131372450193
10.016663349695667,  8.544803146540847, 62.821320349511467,  4.993540151411460
 3.723478246075375,  7.846168457846451, 110.213193287680838,  4.365760605206779
 7.960402288654044, 11.341041126548207, 14.644242683370015,  4.849452918551359
 7.814101105262021,  6.642468863106159, 77.663948027387946,  5.095445943048492
12.098793815138791,  8.053106717878705, 86.092350859901231,  4.558122937159880
 1.284279345716016, 13.330174682497816, 40.094802407493894,  5.138608729845285
15.062492113476583,  1.718320546802860, 25.362746894362488,  4.392815826306408
 4.975616413148634,  2.222991303364928, 94.873942957181427,  4.949240518698220
17.356761911530739, 11.772929242675209, 59.404166931650501,  4.971018135230176
13.666982396345066, 11.653222851769105, 89.040388873111553,  5.251157073488171
 7.644445252088850, 11.968307788759352, 60.142876678041873,  4.840850975602479
 4.409404094612128, 15.577174632457098, 88.885192325869639,  4.894213055338092
 4.084370223335393, 18.149425267436897, 81.420237407286919,  5.062842401845710
 3.651697119572273,  9.212490235532632, 17.200498529784156,  5.075899030511654
15.935212253244478,  0.302163707491612, 54.601192006154342,  5.425407486877916
 8.192666716437794, 16.330004972405337, 51.241262583336386,  4.933197869208515
10.708796186578569, 11.527993206960568,  4.648165031818766,  5.152288630870649
 4.251940990025146, 17.548186919359281, 54.588940462964700,  4.890896384377157
 7.488849906837340, 15.175389746389904, 26.092962505720230,  4.507786074639339
 4.080363429938875, 11.452175720349107, 102.791408010007871,  5.116940019466401
14.024559102152866, 18.709211733541213, 46.182575973237206,  4.390591149526301
 5.505746037172347, 15.360700677825374, 116.661168765748954,  5.353517457958938
 5.652657360963437,  4.474759740137633, 46.992407888471512,  5.072043154643776
10.028483163751458, 16.986906711120170, 87.349699804120220,  5.193827482030131
17.362774052547046,  4.604206389254580, 22.461020003914552,  4.974104968609568
 7.141958512645496, 12.209496873848295, 33.239515475537367,  5.169103267341299
 0.606499462631064, 13.841743028588271, 25.320997961497053,  5.431417580479089
 0.806072508370459, 15.667682348878218, 18.749791198723003,  4.866719000212570
 0.562870285415309,  3.294652681857707, 82.024976036683483,  5.496810600245675
 5.651320623715574, 13.320816458951573,  5.088762137018928,  4.570215925610295
14.567317163595588,  6.508723931352987, 11.073960872766994,  4.509184822910670
18.170874108285865, 16.296255802290414, 10.174192023217772,  5.254698999886589
17.207256016094043, 18.130571619711407, 91.865657273512227,  4.830337472551567
15.077775063151377,  6.219814240827129, 26.532620800893302,  4.893689481398891
 8.697269556309278,  7.004477381242312, 16.894182382325486,  5.023586766064516
 4.243987186951248,  6.699417134058863,  1.446856952331496,  4.924617158291509
 1.503987198638643, 17.585069180952662, 31.437754842992430,  4.568011290490746
 0.608508572102802,  2.140777107269976, 77.048867110579650,  4.688086184729795
14.903899491790503,  6.733434112017629, 89.629535059953952,  4.822699349965317
14.308116049602958,  2.326145940716342, 69.123587206303014,  5.642010218701842
13.532002035669455,  9.285797374841568, 47.104533186027922,  4.978219870286060
15.551579900008035,  3.644143929585595, 37.707153331240292,  5.168693933224346
 5.006855858286128,  9.312532796285872, 74.315850419828465,  4.535459539261833
12.788850351112004,  0.859944609802661,  7.027562790331572,  4.814255796129240
 9.268270124413982,  5.675681788161425,  0.263977321092026,  4.915455059784614
 8.033498422175159,  1.303074301436318, 112.542743978396956,  5.002572895455968
10.580263820225293,  8.829112185281652, 98.240266401728391,  4.799750860670513
15.560430046843539,  4.083092986150322, 64.191421967147093,  5.120800535057811
 2.623643171022075,  6.368704659895577, 96.723498360710565,  5.275708533974958
12.934233648099880,  6.885703363993970, 19.919415818390988,  5.355346145401037
 9.200453365929118,  0.499164116784376, 100.748836047997543,  4.891304288674141
 9.583319564467894,  6.891745685024723, 48.832768536724842,  4.857481026033744
 5.335338949746895, 15.327779423903056, 42.255535348076933,  4.845951609544583
14.281234845910728, 15.617130861551997, 60.177247654455492,  4.995268362736822
 3.728312622004605,  1.131528097506344, 114.990610190508093,  4.886419449739472
15.336814065527488,  2.613776056989481, 49.902051355655274,  5.108637125505319
11.434103800503474,  9.103009949003681, 24.498743508753130,  5.242719715569773
15.996459357771558,  1.609668718050107, 59.721298609287309,  5.118368917351937
 7.191140881966315,  9.442874385657904, 82.838221008209487,  4.977314182696986
14.430072151971745, 14.166355626285423, 114.626333765543777,  4.557235122007361
16.616956289859178, 15.990476808745763, 110.893476768958379,  4.811063042517425
18.483211247583160,  1.435185242204729, 46.155645549663497,  4.928343126174011
17.844778244572161,  7.381357228924707, 18.346652615875048,  4.995983685319443
 5.665160365762009,  5.627094581576360, 113.910982204652541,  5.088372434277758
13.310657395479440, 16.329171553034175, 50.405374950620356,  5.407603962434179
 2.693014672897704, 18.596895174148596, 13.415536336965463,  5.016418282336349
 2.741843346510817, 17.952576315525295, 107.255365450555161,  5.002749833937374
17.364852411346071,  6.448581986177747, 68.157915141128939,  4.730727004945716
 6.506502500414013,  7.652312738537370, 31.151281208550941,  4.931695774930684
 0.362463127134135, 18.316254007334585, 97.825676788415308,  4.886551109209785
 8.103986693894946, 10.022587021986089, 111.128839778902687,  5.513948719637382
 3.799257938084074, 13.917889781386965, 51.232129263164516,  5.038549537782457
 6.757900866157480, 15.038854009259273, 37.506369205514488,  5.082264099835560
17.561831992349887, 16.450244291176798, 82.515562692030755,  5.024604642575387
 3.134326145619741,  9.443961042850081,  6.425660191928617,  4.931376088320865
 4.615490948902436, 10.226920241687134, 42.746216522825243,  5.166772861062115
 4.593555230387389,  3.326910935889771, 109.581198893217916,  4.921158037677590
 7.347209579629052,  4.901088693248277, 98.745569324118918,  5.400167291943709
 7.180493720602642,  6.205655161158774, 68.713948655778111,  4.920023556940647
15.015454493679686, 11.627732766510773, 27.045462290018488,  4.800114910130856
15.967253985407019, 10.257511890614307, 106.126237942205179,  4.854229642361926
 0.696175353525134,  1.813807083177308, 35.048937584939459,  4.908485499504780
12.357172895980476, 18.448083462896385, 114.552142862821725,  4.860988591149741
12.772327293671680, 15.972347633566150, 91.707090729636448,  4.971752411285201
 3.704270656212026, 11.532752033756262, 91.614376346916117,  4.959560396951928
16.088378671634015,  9.675777220759739,  6.248612635738897,  5.183346271485639
 0.312847861605421, 11.456688947524485,  9.716751261972895,  4.615334427418019
11.493050077500909, 10.841153554707670, 80.470092294203823,  5.229138243354449
14.448015365731839, 11.507369015048484, 51.282436625047033,  4.653005593573563
 2.910934257324595, 16.231375440913556, 93.814104060625453,  5.491328545531132
 5.775356145038030,  9.529387035082470, 64.928771508664127,  4.675951129558240
 4.941586301961303,  2.117337814392846, 22.569600598618116,  5.323667359710602
15.472328458948203, 18.146755335114989, 78.537487601030776,  4.576491068926027
15.481360595745645,  9.270460807309032, 55.477423642462036,  5.067879979755243
14.588983086543282,  1.597085021084458, 83.564668128009572,  4.970158566032902
 5.124618994231870,  1.531227183025313, 69.366340756993523,  5.362353109403752
13.513550500130462,  1.726544975550089, 20.836808275209073,  5.167128975928552
 6.873259333999727,  4.525525794503116, 63.487365250602338,  5.217259109978771
16.391180946508928, 16.288393525135721, 74.130222357739115,  5.125705939705684
17.272819013904321, 18.647472312715148,  5.951324379497261,  4.573667552245290
 2.969997053635365, 12.425425338761313, 62.007337762318144,  5.259303613330368
14.143672161282696,  8.880309646662203, 65.530806966114881,  4.897517974173960
14.292485168306230,  6.908179076298479, 71.983535808555061,  5.118391416193985
 7.549136207996611, 10.523563974546192,  0.550281648265009,  5.339163908686016
 6.271957761242303,  1.767216476103408, 87.214607068918738,  5.099835310534287
16.343519589324227,  5.998961257348388, 97.327632112722540,  4.860022692733785
16.613352287133544,  0.693522911372734, 107.274810732082443,  5.180889566545845
 5.794090828576483,  9.670681403575445, 98.601749353132803,  4.610266824016805
 4.878443592935458, 14.015393681224257, 75.307036741370652,  5.074260276377618
 5.580891850529088, 15.847494483977087, 30.194245005092558,  4.627042739745959
 4.064864691120565,  9.497913010358548, 12.124890287823968,  5.123043109940332
15.399048509044244, 11.420531528996019, 21.990231952948704,  5.181448077387143
12.193569465632539, 17.601003490420403, 109.752318343037658,  4.875510302035304
18.189375514219275, 13.400807288310682, 53.930621816159075,  5.255228638591986
 9.764855431714752, 18.424776486755860, 67.121177641005573,  5.590299710918870
16.623200140051818, 12.054217187460987, 17.102819269055537,  4.974428725020927
11.684065221536054,  0.188986287814632, 37.029054234533731,  5.277063008988242
 0.402982783907939, 18.072710607337761, 102.797019624591911,  5.067658123235865
 7.275781664706738, 11.326418063445049, 20.013314631604942,  5.020977930801567
 9.645091124335828,  2.163607426366462, 48.494091494195196,  4.608104792450495
 5.226326847492645, 18.626962435601310, 64.529279105148277,  4.850953328776757
15.337965069476553, 11.578123818674580, 84.002177324386793,  5.295330036681375
14.114397662516076,  7.470546240538551, 102.386067153209453,  5.147042459558568
 3.546699886645623, 15.105106635864168, 99.607240115605762,  4.611594811261474
 2.384302913174897,  5.189877970867661, 86.660345896193675,  5.152203168065607
15.475333305808563,  2.675113926334874, 102.814138706712299,  4.837534278614575
 7.030512193360649,  1.788027092022944, 38.430413889726090,  4.941266477194568
 8.508506854508706, 12.646428435515087, 90.000729065192886,  5.410559195619062
12.905392070876797,  7.366390760727223,  3.013857766625575,  4.804463548506245
13.489921921626305,  1.284481859262469, 41.713311228303937,  4.987149462334656
 6.263531524649615,  5.321550359766642, 26.609718261069926,  5.286217577456767
 5.850456541496656,  2.383863082790468, 104.805905113230864,  5.127536746379143
11.400160322624716,  6.231281395087934,  7.537835511494884,  4.994656395287889
 0.158248430616808,  8.729008356826300, 100.750682771845220,  5.268171210743617
12.833953627074406, 14.192333390562917, 67.981343481380776,  4.961572250515038
14.736482386289417, 11.413237391117438, 74.451775973926928,  5.190713366867674
 1.173458061256947, 13.217125124175459, 71.727149974310436,  5.350241819610611
 9.950360196720743,  1.745626884673203, 95.648996105509852,  4.847835840643603
17.814034284685892,  6.050615643412123, 58.420376132050841,  4.824749930580549
 7.649073680024360, 14.858776623534284, 79.604321018734552,  5.269942857343656
14.802160054238138, 13.996789935722211, 45.564529103421229,  5.239443143982457
 7.733850939779827,  6.671796546966414, 21.848292533064861,  5.025771728891184
 8.563405561115045,  2.752950750552384,  5.078512794264566,  5.223670816567454
 2.829021320113530, 17.929951314553477, 38.674509023529211,  4.943370303481871
 0.088849577054646,  8.221611300022811, 51.746799661099317,  5.140380832497689
 9.328862786359714,  9.959168943400110, 39.791119209792342,  5.163715656171646
17.875587363370574,  7.287235294210435,  1.883793229385341,  5.388452390910156
14.239114565871322,  7.249208460137097, 60.999343099666518,  4.246905619179117
16.340259984856612, 16.897215130736690, 15.049643516940382,  5.226755464125645
 5.199125592749864, 10.599091647449091, 78.672075242409235,  4.537672876917523
10.815832838848515,  5.004184497511525, 39.481788513493740,  5.201347713652494
11.613589848500924, 15.117398418580784, 28.513833189878593,  5.049287911033283
 7.280958271317966,  6.806200964805830, 87.175787377928287,  5.157375479199822
 8.801753045569496,  9.379695508159504, 102.879744783416271,  5.196963869613858
10.177348271371491,  4.586234785786690, 103.591947191175777,  4.876786771877449
11.916981726234200, 14.108498206590088, 14.786602776309920,  4.754834491140111
 5.993147862500376, 13.120241914413226, 46.739628137702404,  5.071916918432755
18.389748806222492,  2.365514102408894,  2.266601069079876,  4.535752986023384
 9.243862578959643, 16.453348050853002,  5.224084469076204,  4.956801353102532
 4.473293838162688,  5.336743151549502, 35.298123801809943,  5.397965785149927
 9.147690382954130, 15.841904530552908, 18.720623008238007,  4.988362308852468
18.029880201552096,  8.827631133302457, 13.596189235851567,  4.941800998503708
14.625225242228279,  2.893590812925901, 111.435694228332693,  5.026877700523280
 4.640163555457906,  4.514776072917072, 17.839029696588856,  4.599366176428383
18.473491953847667, 12.336589915118406, 48.743551819672625,  5.004811665403881
12.375237731920597,  3.925346510201797, 99.273808206942533,  4.897549687218753
10.928592238928223,  1.260662342200649, 78.753690454500074,  5.249344534861399
17.955772886345152, 13.418310215911958, 91.043293464868086,  4.849401155812815
10.559013670467467,  8.177731319650485, 90.415790620832695,  4.457702648313602
 5.485967614973636,  2.645574165952290, 78.371313263304899,  4.263059796518056
15.294277985172663, 16.842601120011015, 87.291940455124632,  5.341424856031364
14.960331858046905, 11.684485784823792,  1.622324540016435,  5.151686421533308
 3.574815306826180, 17.400816111774777,  6.215456852583779,  4.850923424845623
 0.806829724657749, 10.769524033987631, 76.441881538713801,  5.296031550649756
17.605462447030483,  6.291559646072621, 47.147750260881743,  5.130886077906429
 4.363080496945485,  0.993309453094439, 100.237281502795128,  4.874137528232448
11.102242522218615,  5.081696518910163, 66.087002313038326,  4.766225143044913
11.255339949254491, 15.858709810943886, 96.302720103851257,  4.583150124670616
14.911386879319437,  1.380151685143859, 95.795002769185231,  5.104843993664892
 9.146902177848725,  6.869569045840501, 58.308193490011917,  4.779817416696845
 2.619946676889083,  1.562466652284841, 90.611703172271078,  4.875963643086427
11.057753169677818,  1.456701995873356, 53.003726468625715,  4.946884396861535
 1.563938107900834,  3.315172321439149, 26.146312714089635,  4.800569283980261
14.612993311216432, 17.760915551210505, 64.807516794021694,  5.224753967597864
 4.339904764688471, 14.249939777629161, 10.063431209607787,  5.200763992623092
18.322680661096985, 13.224076666825660, 30.478098132083769,  5.156284660205106
14.541942354040112,  7.825612918923995, 110.920056972200825,  4.837181009948393
11.852831021486699, 11.546189360447205, 18.670675099727479,  4.527318633068547
 1.921197737937103,  3.311370346652813, 62.254772482277886,  5.091549035395330
11.601829706787894,  0.027073789407698, 57.605772217920340,  4.740231401179159
 6.397369348543623, 15.075080548574791, 84.496694734061307,  4.787564454427431
 4.998245544988666, 12.826901716026395, 107.739687176843873,  5.197954031698644
 1.987131691329146,  4.942524286497002,  5.281065674334038,  4.633500495913209
11.577178120650791,  0.332136375446129, 15.501809871637052,  5.284882214513056
 0.222064594258615, 18.536542181155887, 22.858087612826093,  5.197238318674122
 1.021391938773505,  3.837809010372398, 104.873297139739108,  4.935090334893612
16.017168164476853, 10.849057666431365, 69.538514347447688,  4.755451865437764
18.580020116629239,  8.218005841282206, 62.989889867577460,  5.397103526978575
 6.195420895560176,  9.807409541905338, 56.218865743009488,  4.532529904139994
12.000519169540844, 15.353239568884542, 76.679153609723315,  5.073012715883279
 2.826783895964097, 15.986561846548243, 67.767696072613731,  4.755707660162995
 0.114404583229907,  6.751720985733728,  9.237219384209684,  4.833916797267303
14.160782646779310, 14.900448685867474, 32.822264983613394,  4.967712785562975
 6.965645672508209,  6.860312401154117, 106.948505585901586,  5.037454034758960
 1.892154538728100,  2.191378931803793, 57.300810236457437,  4.986302015835975
 1.298817543560892, 16.746051449000223,  2.006372418288954,  4.781397084167411
 6.381347249551607, 16.068304367356387, 103.585226126626168,  5.317921769880831
 8.626757012272611,  1.949687520870852, 43.457600673652820,  5.429142218901610
 8.697533475206813,  7.135818564953481, 43.967395611540809,  4.985049943613697
17.063024326483472, 11.544749445856558, 35.101043102761551,  4.990071172051298
 8.528467602534780,  0.751269745804703,  0.359246342045788,  5.026013938603772
 0.588936745661381, 13.771477219850503, 86.347623397691450,  4.952727243688119
11.152016633988545, 13.377935389999452, 63.362370721018024,  4.991372494896513
 4.283773926363204,  1.798725632529531,  2.613949835922246,  4.801048757366463
 3.665772214713909, 17.782413134836091, 26.376513006394205,  4.737717062951581
18.740457774741227, 16.372804325955794, 58.077526017796579,  4.974388663181794
 7.859626243643898, 17.529547857647970, 92.101876021688241,  5.287435606629655
 6.413106345542992,  2.106740354336220, 51.861839117793238,  4.700759600609935
 9.350293849970850, 18.259247971658130, 23.041762880319112,  4.909379678857038
 9.818163480934947, 16.486660771318626, 46.439319269506861,  5.134724092309290
14.936043948063480, 12.484642035497549, 40.565499303535155,  5.207241142829705
 7.719640841940280,  7.616659298546922,  4.628920806830767,  4.671288955919178
 9.137616155054731,  7.580952387014635, 35.334973567360969,  4.940828811668443
11.022043502197135,  3.397807881867482, 86.567766156990942,  5.025415712866785
14.116388366396496, 15.638166844859873, 19.453803727232607,  4.955130938406517
18.511741530009576,  3.397159535553663, 72.046905042950726,  4.781270130006726
 3.906221873672369, 11.795263614968029, 28.744447176440833,  4.580225700113304
18.549433252381405,  5.407694972244342, 109.421760935363963,  4.985035607406144
 1.545405719123165,  2.072025604948909,  9.096803859727629,  4.950489635326194
13.896924429718082, 17.491019876032976, 100.115997898080508,  5.198100172451286
10.098372760432918, 12.138671970520248, 49.397743396185426,  4.901560445405302
16.067091320716706, 17.587264055297751, 29.003626542991029,  5.099361046529613
14.564412590756179, 15.841253255683338, 24.453121858584620,  5.074115698995738
 1.048161943765490, 15.383276423920456, 44.868054629977465,  5.182208745384179
 4.048584840290969,  5.744311439052103, 54.475677763012236,  4.986141274260477
13.277595682242982,  4.635081767103692, 56.399413312069200,  5.357524323191265
 8.437163709005427, 15.117545699901576, 56.217164186126659,  5.315334882046730
 7.543260829291021, 10.529042023591339,  8.540715064744642,  5.075872662854333
 2.977719037296489,  5.949962808295541, 66.296155060570655,  4.787300021021457
11.943150158510750, 11.427481871426254, 94.068046167246848,  5.387548048600400
15.024098136959374,  3.950021857631712, 79.399819975002316,  4.632315655893493
 1.760744787197873,  8.530113211714704, 106.091600477554707,  4.840319387365621
15.066153559376254,  0.834196640874910, 33.408149588661693,  4.630349107215544
11.864793095192699, 10.430233722764681, 32.094413064662632,  5.180380167446305
 1.780762393733356,  3.432832089331492, 50.431233048751785,  5.350056917894997
12.472754142802925, 10.643556133727651,  9.764175590724108,  5.082740281872490
 4.648397408588012, 15.266969651613165, 22.082427005877975,  5.310125239586466
 7.326335775499694, 16.329468133510201, 13.878287259732838,  5.323299690112992
 9.360671835053257,  7.752463836722163, 72.947447797774629,  5.071976623478410
17.373097495223167,  6.242198866437050, 75.787870541174669,  4.722167414805806
 7.548153887653956, 17.578769628554994, 108.305302724784070,  4.851015588253469
13.183072747185745,  9.380680385189459, 14.622926530299674,  5.024777425869302
 7.451817751568390, 18.559367073150543, 74.989627770088532,  5.385304689715708
 0.462917934235246,  1.703497959618968, 66.923477911586602,  5.157956436202165
 6.840792577388860, 14.159010729772424, 65.700157458439790,  4.932777237637444
10.261469915000882, 11.882813149976085, 44.391032298551835,  4.981045306347968
17.457520434694228,  3.718877122362738, 30.230165824645621,  5.182530277579566
 7.537006167609741,  7.958768093205480, 94.515149981108024,  4.903891303041231
 4.549727590962473, 17.487687513151233, 59.762370326626232,  4.972318016975181
 0.062299882292181,  2.122406452021192, 17.918233257449604,  5.726811276814761
14.988789227108876, 10.534686396562071, 97.982700045915649,  4.668049952046789
 4.470547904001937,  4.353686964154343, 73.935957437615244,  5.457192577055423
 2.444595405799561, 11.494474266254104,  1.783676653202233,  5.311061371953120
 6.881648633006035, 17.161195679975339, 97.111729240161182,  4.661362781732986
15.851521427959547, 13.169622944140716, 79.116217186800995,  5.016183946727177
18.572958240477650, 17.232658215427946, 50.314886356562617,  5.265410988323604
 1.591117160555523,  3.973146780601292, 39.388688357007446,  4.948597565396097
 4.739526839705677, 11.139388237070582, 86.802381926600177,  4.910278421321270
 4.879659727140888, 18.423021308041442, 17.965195244636590,  5.074183195691292
10.679783120111747, 14.810205578296085,  0.597801121259569,  5.272862383481363
 7.107836245157304,  2.363850377401096, 57.020327366335614,  5.437292572970571
 0.532547877605435, 13.828481513768303, 105.444929650307770,  4.937830156495976
 7.576968789092678,  0.829704126310009, 28.238304788901711,  4.616761821115484
15.902633548127731,  4.548783347756718,  5.916208654417495,  5.086993705666682
18.021512832366188, 18.617787270252474, 41.727087740501183,  4.504148347656090
 0.199167762062046,  9.232017343938754, 88.773286054931333,  4.777666632691668
13.461612629730904, 14.593973411911303, 55.401802255149015,  4.879168138466954
12.131372261148213,  1.899498709264570, 29.046546787645500,  4.864768493835708
 9.025728794840914, 11.461687573816361, 76.167154760917512,  4.767669455888011
10.509891415327241,  5.612487976769724, 112.600267878780883,  4.931619077769128
10.941236518770550,  3.962978638392752, 24.676696692286136,  5.080042920511367
 4.664996846441123, 10.338065703642155, 37.569539252796439,  5.187297475977882
15.193469537478029, 16.667853610890251,  2.182568735924474,  4.887793654527043
16.557002604868114,  6.660992805933880, 84.994901176468773,  5.010586110326068
16.011525685650724,  2.095500412975398, 11.435892618606502,  4.782705091346256
 8.907044573851136,  5.849267731290084, 53.562373812137487,  4.893915943753401
16.944183178676216,  8.346252086777644, 80.238866485678116,  5.104862732367453
 8.797364241351794,  2.567047457809998, 19.196172218312228,  4.960144560828434
11.419204101759474,  3.461290653334386, 61.189670468733389,  5.182057762359858
13.391992349910879,  5.534548762739898, 33.288591013234054,  5.349534595851669
 4.673533496014405, 13.819733920949046, 17.039772490926342,  4.319179831364027
14.602650789502240,  4.578884082472054, 15.499860991235465,  5.141259348855672
 8.614413851907154,  3.144324935859998, 32.591388642806905,  5.422289975602500
10.937356363180621,  5.682573398770095, 81.823368080145826,  5.475344638638484
 2.589825521085609, 10.036712729380278, 32.966304635487369,  4.924818698096350
 2.423354638743988, 18.126955221903348, 73.366811671080683,  5.194474584708333
18.271855013337539, 10.390286409129583, 44.010809154954728,  5.222050937093011
 2.876345723181795,  6.505487679127919, 21.590899464766210,  4.435522585025005
 6.914659860414694, 15.404866915448098, 70.686688293895841,  5.338426179294274
10.065132582030754,  3.099688510657278, 108.319169435799893,  5.034831984328157
 0.484344297616530,  3.639982987644579, 100.180831109958021,  4.514223445119346
 9.159802055762192, 17.655705970848526, 61.685525708791076,  5.022282245831356
 2.628385312909037, 13.218609407844816, 81.803590277532720,  5.063222239868603
 4.833799000543686, 10.069754563131735, 24.293206985690230,  5.144691716096309
11.386914173095326,  9.024092413353678, 107.151772842463487,  4.814551347064885
14.251817746640327, 14.708627222590165,  6.916211976235035,  5.394905043460932
 0.355659193981688, 13.852344951467151,  5.697773295211350,  4.730380599313007
 0.324589289590345, 11.475006172561498, 110.139545422906053,  5.572963461375567
 5.852987234175126,  6.190999919991020, 40.116730895302673,  4.753718904698003
 1.607745327052515, 11.275547510468598, 66.880624637306326,  5.114174265904782
 0.711561049149490, 17.009051106036008, 63.065707177752927,  5.174788636028340
 0.017691867462679,  8.788819768975742, 24.611734757868277,  4.834298469498969
 2.415616676369330,  8.425762857696697, 82.913516872529868,  4.741997723511608
17.167357782461554,  0.140383266953435, 115.394785769445150,  4.943085769823656
 4.247854792101607, 16.237061872505588, 111.699677152671072,  4.975302420961181
 0.623172580092751, 14.286707314579292, 114.791077351539997,  5.313014797724820
17.843169331474485,  4.317698371080190, 92.822455208293562,  5.095570912691000
