BANDS
8 8
NANOPARTICLES
cell(1), 18.772
cell(2), 18.772
cell(3), 117.328
17.260095915634864, 14.798684548765880, 73.793703897575128,  5.211891680557143
13.906484427229827, 15.084002375607717, 45.609988572083189,  4.845920434891243
14.733075300050370,  6.879878175552093, 98.018218602131086,  5.024083178015995
 1.028392755710257,  6.810215636376012, 85.368777093892732,  4.869001934384075
 9.383147846118808, 15.673741957663088, 112.037368574356691,  5.529229752530918
 8.704002817287972, 17.412165889715208, 64.426150849440290,  5.144204578874029
 8.347935400405690, 13.201612338046370, 116.698683284112334,  5.210981119017090
 0.023312472773766, 17.731852595662978, 30.737192382495053,  5.196275683627905
16.771657141818896, 13.771042371043395, 105.898635102570111,  4.745722166867093
16.676010920293169,  3.511069957952099, 56.401253281090909,  5.256959945715894
17.095136015144174, 16.410692768897935, 63.031087997727077,  4.899329217818434
 4.111578055592208, 16.898180112636283, 18.506055456915306,  4.764926581204706
 6.992853578000391,  2.505374374788627, 83.377856038059051,  5.126708815567040
 5.523784487864418,  5.605955040249182, 87.175583268651209,  5.104461629074357
 9.374516069936950, 12.267979513061348, 64.589102518269314,  5.225346323408985
 1.300450355738556, 11.140612436418014, 103.169147387086440,  5.296929267370526
 7.137646557666335,  9.478119897938482,  3.656918988824621,  5.087107371515732
15.073805875380978,  1.399360517439940, 38.187597390325905,  4.940063112223855
15.483236378023628,  1.631873121522789,  0.747458531444791,  4.838471490594840
 7.464487185482499,  2.321195469178007, 94.802995705250368,  5.372630531231202
 8.843999084609457, 18.269810605235488, 74.926836462150305,  4.683851498268297
 8.530196715605074,  0.959058618150859, 12.519086506707527,  4.625113106084799
17.641598924043652, 12.249894406725259, 47.083854700685890,  4.931740658476810
 2.494626645574999, 14.741320933867055, 70.890462221529802,  4.666614378564446
 1.386641799696899, 18.227046332004335, 100.658075688388209,  5.028534451827586
13.947663275480371, 10.703467621289146,  7.095426296740202,  5.309032941697278
 8.821231110564796, 16.749295147156417, 54.020245580824927,  5.039505916563853
 1.891182564953947, 14.064824622389509, 27.683224789401418,  5.033596690730334
14.752591338735460, 16.158727741528253, 80.542040080112827,  5.335675350815468
 6.884713979557270, 14.479812804050493, 60.732495039437815,  4.963502802664212
12.040181077253587,  3.245123986755214, 82.028311197761425,  4.674580342432469
 3.961800117804165, 16.074144364416547, 117.161312366776201,  5.306252841867277
 3.830134756637043,  0.113132988858177, 27.199742213744923,  5.318151802283332
15.866654069502784, 17.613581670847751, 58.375551025971362,  4.998902880450183
 4.283406574077389, 16.452209678225735, 75.085909715991392,  5.069685206773938
10.041741483743225,  7.709537393978570, 43.421581063615207,  4.717152329720024
 5.293803571906152,  7.447024886908294, 75.615271677767439,  5.108702200224652
 4.896930631480491,  6.930092467444356, 82.422991933656775,  4.839544235089448
12.298086636931778,  1.134713634827302, 55.566381284611715,  4.841963875589043
10.591272159656636,  3.083243246025310, 19.807128322449152,  5.054589422907759
10.462416271207948,  8.376699891668988, 117.111237974529217,  5.345976732798244
 5.929469336971799,  3.525423083590459, 47.465285542211319,  5.307223692710715
12.321623287807199, 12.382828378164069,  2.458336136778821,  4.978474324230846
 6.722488288272024,  1.898586585494955, 16.857644855828362,  4.958579938906523
 8.498129189940792, 11.551967640854125, 32.545830898725747,  4.915827579626322
12.458790094001152,  0.820271902393638, 94.618820502794321,  4.948103945860956
 7.298420105501323,  3.160594325391772,  5.088016102891966,  4.851657310498910
18.245351913677794,  6.135458876064041, 17.772615903810959,  4.660337242095249
 2.038750454753227,  7.212619787975100, 34.724857569217022,  4.758540543884951
 9.647134692331354,  6.678912343051296, 84.456428422723391,  4.997284741299680
11.153871908924678, 18.344062606972084, 16.575360702985424,  4.495316441003205
17.897066482503625, 17.235996824770755, 47.655496485739704,  5.095301116221061
 9.477908205337755,  4.079022344627253,  9.083622435609493,  4.434013090181478
13.040939728508022, 12.277565327111107, 114.812491550346394,  5.069789436037476
12.188123386954773, 15.464608448565821, 72.806892049453950,  4.966265209443258
13.259103200645988, 11.934261419638272, 97.902594135497921,  4.970951881420600
14.393168341049773,  9.179249034784597, 44.981684412949633,  4.941389401001096
13.137943996542285,  7.389135844118177, 89.915827087376897,  5.054816054795668
13.632549773225589, 15.724414338709508,  8.332586438066322,  5.004580213990699
 8.569375836149289,  3.808537133748802, 40.424495192747564,  5.215095062835186
 9.231208967888405, 16.322799126977610, 20.423780240713313,  4.973733953014538
 5.568442467136779, 11.253880193043969, 14.384428633440573,  4.988540118271829
 3.672640100721738, 11.772284832466731, 48.656577256649804,  4.628153174960993
14.748225743995960,  6.145163989962012, 85.121629689704278,  5.333357711856969
15.945192089014114,  4.021529105914690, 93.999125766688579,  4.587976697428705
12.691521465502941,  9.517019211848249, 57.249008803734249,  4.747414641023767
10.327957185734517, 14.053147182975716, 28.480006079705525,  5.300159755817281
 1.688457790404518, 14.509180118283620, 96.850524509541515,  4.775318531447483
12.144074802706927, 13.668824472850179, 16.955515328449803,  5.088409377362304
11.054568630215286, 17.868642240244682, 42.801994844011901,  4.879501201455829
 8.682218777865984, 12.110467956902969, 23.982435617010985,  5.028812379975399
 6.048999974489932,  1.284836403669366, 21.834599644041297,  5.159535626521171
 2.406176164426284, 15.874393019985167, 105.025690456071572,  5.095528536339083
 3.574908820079164, 13.749674500481728, 39.731697343876405,  4.566689249517681
 8.766700805577182, 18.001440501849547,  8.154638232380474,  4.775099557568407
 2.455708131747203,  7.806806272900507,  2.563164183454569,  5.082584225007379
10.687223013823568,  0.269794925825378, 86.185131726689264,  5.092870956366370
 7.724817930663344,  6.582314528921231, 97.456079168209172,  4.645371198711636
 1.383052918384553,  1.647923682376438, 116.881248241298323,  4.802149673055804
13.553226324364351,  5.923424237376556, 71.587540347649465,  4.912430781063489
 9.842018839039175,  0.520992528506868, 59.798881600379218,  5.018216110982278
 3.810665197013019, 14.812326952378953, 23.015351415687466,  5.170351235660380
12.165372358327115,  1.419045344651660, 112.201341052651614,  5.048154030943532
18.507951936514711, 14.701445081210359, 16.775199702633333,  4.759487708122835
 1.919540315073115,  7.086208609607644, 47.574249009514581,  5.403781213640999
10.047578828046360,  7.342541549667236, 23.456859706450601,  4.944692132432624
 4.723428363053234, 11.188708169717046, 35.795084220968086,  5.069812567548499
14.740539942136582,  3.181090651773251, 107.247121403562005,  5.380396439659585
 2.194289290181946,  7.890035468245526, 67.755812306958333,  5.209386414581721
 2.533290560156908,  3.482341033487990, 30.808377662422714,  4.887354579356724
 2.941565351948456,  4.154709760361031, 14.204836950927753,  5.300178789163879
15.574056367760900, 14.040102443595414, 28.374194358087312,  5.190127855656712
 0.553996829871915,  1.921391660573556, 61.415578591870734,  5.181776374533501
15.130302116353462, 12.925077061361046, 12.935549290898527,  4.991579080366392
18.756793001333744,  5.263526489713632, 109.776709246163591,  4.923257891162363
 3.778052971941030,  7.921594391349450, 17.396408475824892,  4.676754530130406
17.390066867598556,  5.827398246583264, 37.956095331651952,  5.049549114985574
16.118005800241868,  1.901061813993312, 98.492056449945736,  5.352690004005845
14.456309699442912,  5.859804762331364,  6.939089856870972,  4.425055988189563
 1.826909392096822,  0.658944208672329, 71.859672883370990,  4.978928714257292
10.357838429664337, 18.716518177877226, 37.590237299168884,  5.002704149037522
 8.282558163454631, 17.330196938226475,  3.153485036587934,  5.282038554354219
13.762669277579670,  3.606916708440945, 67.125315400836939,  5.147740281022092
 2.336891380638432, 16.201415389543541, 43.832673736273250,  5.031897394168110
 4.787405673810141, 13.121161347638067, 112.934228730455388,  5.134459256878336
 1.330320854415113,  2.698976026143104, 23.389775652489455,  5.156109787398409
 0.019124573062133,  2.872889500792881, 87.839205023802592,  4.641627243834615
 1.347294141811436, 15.086915113112322, 59.436753678195252,  4.859215844403170
 0.923748039649839, 11.292549181474094, 116.255919884929014,  5.158535435233989
15.339969427470647,  9.899256737065947, 101.860125945051436,  4.820305043599562
 2.841786717736028,  8.386437875834813, 11.344898773267690,  4.913596673132790
12.655164590772859, 16.896754744666513, 107.719828635893165,  5.577506984662350
16.961030376324146,  5.486003203634339,  3.139499536405311,  4.698706202367792
 1.894734574990326, 13.767066527664840, 12.375542457244427,  4.775205747088222
18.130047518798854,  7.106754410250371, 30.811846274919802,  4.716866659892318
18.469623770329889, 10.977263423563279, 70.738569883317751,  4.715014302707984
 0.022261462332268, 13.155575337740641, 111.365893335967570,  4.860678133455214
14.206926912384402,  2.613553254810669, 88.632991858428355,  4.670699887811613
14.120383677537939, 14.987452601355066, 85.812661877630603,  5.523874607169842
 5.772805519118144, 15.476283775214657, 30.767945189930352,  5.275459748427170
15.456298354484789,  9.108368111616965,  0.423740042730737,  4.820729252948468
15.754603200938657, 18.284477496073400, 103.454748899644912,  5.318131908883458
10.311322404264669,  3.273628686876656, 45.045528832908651,  4.714354921558442
 3.963232217994612, 10.938146661098585, 58.740438863676246,  5.043041651298968
 4.089009689693377, 17.859567868196347, 13.753650240515327,  4.911633822279200
 1.497310923042098,  0.566773880348624, 95.436392805569071,  5.293580709583425
17.504672598443946, 13.944015573143801, 90.879544878019118,  4.757000824388934
10.829881788050894,  6.421101720314310,  4.354840941825972,  4.550657139499270
 6.968861073330381,  4.387087072135115, 59.774492001424449,  4.599081744419482
 3.430864555557356, 16.895590606134402, 63.819734726673033,  5.480801540731070
 5.427763490771200,  4.233719743574800,  0.696269006022863,  4.925471510417484
 1.607956278619522,  0.233789717604794, 54.869462292067169,  5.077284013528955
 5.994288762528995,  1.095808926963534, 33.180527877898250,  4.745447523180983
13.963008557805507, 12.004690024357497, 109.600138813624170,  5.184805353879754
13.741158873864475,  4.971461706502167, 42.214923185631868,  4.783065442537468
 4.157885385950244,  2.694532192874054, 108.543327142537876,  5.167749192046845
 2.499739109279871,  8.529373626303647, 39.290849552936379,  4.775405032429817
 7.940626169862667,  7.536460344880970, 36.992766552626435,  4.949187558055643
15.872139016928202, 11.493331645431409, 19.713495428921942,  5.150387894932996
 5.852971864021776, 11.126610654039926, 96.360203471196201,  5.401365351362448
15.931181965954648,  1.052434701552552, 84.220745178661161,  5.275266721254670
14.118220024469530, 10.856296825327203, 72.915571046668106,  5.016403386733337
 0.278152956297450,  1.929230547706078, 35.059817896734806,  5.213849430565319
10.894497820099675, 10.352088967749671, 69.096121496098917,  5.027681309423694
 1.327378379658946, 14.890820189087808, 51.729867215987547,  5.286305626707435
 9.104027219623498,  4.929459178829659, 73.458030726081333,  4.940298900908382
 0.355820511155034, 13.684834877669061, 66.660681199061301,  5.043158483491694
 6.356004903796546,  0.375185764371559, 43.445792812496059,  4.938853681625799
 8.921752655936892,  8.651534802379460,  8.269745608444317,  4.897394249138613
13.465838944191367, 17.317183158289243, 66.349614500922740,  5.095260302885989
16.432758689648601,  4.924818249161335, 13.399250035635186,  5.090527284885226
14.177753744628570,  1.734627654533745, 62.285446831493424,  5.263092693139922
18.297701654627673, 12.129991261073195, 37.470515549599050,  5.235077641095763
16.201429004183542,  2.905639352213444, 79.517528073396477,  4.844394021584624
13.248200564532786, 12.913698389766521, 32.756037036777251,  4.966992260545590
 6.959518323444503,  9.700594043779454, 104.288492879583956,  5.293895882811870
17.934708181580909, 13.388933288680517, 23.717185895190802,  4.615185389688245
 1.273875779917632,  5.785761691875756, 95.639107408866550,  4.921378766454278
12.620638045125233, 15.949689960031833, 24.228008013412609,  5.060022123111997
 8.669597683827861,  5.260869022445483, 113.266590427364363,  5.174533445067754
14.493025730875125, 12.577293800832891, 64.817847240909941,  5.029481565145607
18.071495847646684,  9.929112979643669, 26.955564283517763,  4.834264314851276
14.030564650651622,  5.236703810273000, 114.963279434642132,  5.072365164266945
13.232452202459468, 12.216366493860827, 90.009281601167430,  4.587801816807042
 5.632828971515532, 10.895505320901178, 52.986343529810888,  4.943590502729664
 4.780205573397608,  1.789912719178460, 51.781707673241932,  4.262051588831283
12.567588361504729,  6.943754883030052, 11.025122612528300,  4.833007347799319
 7.433253673897631,  6.388074684949152, 51.576806091914122,  5.154040641057347
 6.552874221414214,  7.368276948739301, 92.868025872544621,  4.950886372997952
15.513243859380189, 12.715425388374728, 51.478398012831974,  4.876064795074673
11.937064961397740, 15.801017784255905, 50.288443655890930,  4.865100849188178
 2.566571426131396,  9.474738918378772, 79.141328956606145,  4.681979425829804
10.334714616586599, 10.542869377635736, 93.443532071201503,  4.990893973159191
 0.551506310998029,  9.616530984475345,  6.796452597909332,  4.867340974280117
 8.426145276557872,  4.386016375556491, 78.615875545668231,  5.506371960185099
13.701614211758629, 10.844961724856534, 24.474396415423556,  5.368113334278998
 7.685409456773272, 17.572809521550329, 90.647172379493099,  5.042707609512872
13.651886526111660,  8.758459664070454, 15.731965874428932,  5.466749761476709
18.098503187090088,  6.758679945169847, 90.656832899398907,  5.048687219441370
15.786090304666130,  8.671396852106549, 49.348295844637981,  4.280470347679732
10.810843762116260, 11.840987325437098, 37.208867739649911,  5.406678167240064
14.578096379693765,  9.496220123693643, 39.956304742308049,  5.016850329560411
 9.448743077932066, 13.350714239364070,  6.529991914702948,  5.171532139962078
10.707483783808446, 11.768081130096991, 47.392080431957076,  5.026186920393933
10.339396215129806,  1.000526573073447, 70.392574257234969,  5.292125143735320
 2.661867302478931, 10.965293337890598, 43.787888781798081,  5.440881058273781
 7.735299704026348,  9.740338573711341, 79.585681715083638,  4.939134255986145
 7.593655418630201, 13.423698159089968, 72.694214600846536,  5.078134257586158
18.352709305614837, 13.223178038277863, 78.433214395602150,  4.824578855047398
18.731087069370520, 10.119531201914928, 15.037805866898191,  5.049332960333904
13.813809165229394, 11.939875106110220, 77.679295792729590,  4.727932406180544
11.411394143150869,  5.718830491683965, 94.393235477877667,  5.074223720940638
 2.055809648445536, 11.318209059534809, 83.601657602734733,  5.021076902893357
10.675423325985571, 15.110682490799691, 95.062604112629671,  4.722418817489872
13.581396302072301,  5.140287922286772, 102.579349461549697,  4.999065706217791
 6.162793488075375,  7.332723271726813, 109.378775564557927,  4.865077619125992
14.062716931347627,  3.586352628312979, 51.403809058603841,  4.788189773594022
11.252841939759822,  4.609425862206025, 29.482588562549484,  5.173676529870963
 6.320276605848421,  7.415003488909435, 56.285745741878102,  4.724343172092935
16.415728423457079,  9.120183990035203, 112.934584979275172,  4.904106003866647
16.169538929709859, 16.388961879189580, 34.987598332262621,  5.150068309854428
 8.447276546423410,  0.576638837964492, 29.156243669051623,  4.666696484000256
 1.357544509983118,  2.705610092691209, 40.638841805862540,  4.835978029196234
17.283263097917530,  8.385595017949170, 76.279539280070992,  5.459265669904203
11.436316317324085,  4.044398303588596, 14.882479318316488,  5.071694944669978
 3.002193180982684,  5.549970442457450, 53.529478008173307,  4.658640552081118
 3.349893050670078,  3.595385753187900, 91.487674763837489,  5.321491296101271
 2.865569788495459,  6.643257328411809, 61.441553994321865,  5.330017274394431
 0.311210961714596,  7.781303296548019, 22.438478946185825,  5.365955413838592
 0.001595406523150,  6.141846186601677, 115.943892034449036,  4.780249402041837
 4.258234660579037, 14.313217225744648, 87.013453845915109,  5.067856753916532
14.588394549476011, 16.580696532757418,  3.592510408167814,  4.813049477813769
 4.117151699336061,  3.279702316590903, 65.455349205116704,  5.416631744198212
 5.009257208872345,  1.321395700758842, 103.680222221023527,  5.080178786692306
 9.759119998816153, 15.093123133522006, 68.647605010408029,  4.684539839889325
13.891444027177933,  0.073302470840483, 76.135410073746826,  5.111698823209673
 8.780984010879076, 12.401307792771657, 56.585082873602758,  5.053394208254835
 9.848658949934952,  9.527178122077782, 75.119863430764795,  4.947687806905068
 2.665953572729124, 15.956590197032845, 35.088042687165178,  5.409440866589354
17.146171549648315,  1.796260004730713, 112.967518715205301,  5.030336572448861
17.912025787039219, 17.887739984680550, 108.496613441306579,  5.225540888689592
 2.845888324483024, 17.975050393239382, 112.291271647985994,  5.383491383778355
 1.577284049560006, 11.032472322216277, 93.481656828897542,  4.896498228033171
 4.260494170276014, 14.344985973114325, 100.791141163398990,  4.634078845870844
 8.631111540557205,  9.209026051481075, 88.773643578982757,  4.926365332479076
 9.522974024521346,  1.793053841845865, 50.774422855145303,  5.047682390562485
 5.684738724990733, 16.152052813828284, 108.609771985009942,  4.600460935952503
 4.166726655161110, 17.519585466624765, 48.324540266937518,  5.019861416803591
 1.955487061614353,  2.498434577845550, 83.212788474625540,  4.944208612773418
 7.665935800911797, 15.340894939206397, 35.370108835072934,  4.679223951278967
 8.038083191407981, 15.192409349308683, 40.110279652352922,  4.815310900969170
 4.536683809197624, 18.184746200342548, 39.148899640858431,  4.574843782469396
11.175148234183654, 17.498053442212580, 32.746330374341909,  5.076985187873365
14.121181213887715,  5.988647149303555, 25.667195036989174,  4.664702753505417
15.998756396522351, 11.383127923315433, 60.082134926646837,  4.717664472811785
18.696519143911903, 12.367390042069545, 32.229011163001516,  5.275596378987852
 0.787734282594747,  9.685318619597092, 52.041513226026417,  5.175357688254530
11.463764699508994,  6.780525357342952, 48.318444251427067,  5.143483652031557
 4.917798150525986, 11.633604279740638,  8.175425435633731,  5.057447494122907
 0.023662315593062,  9.991986777193420, 98.189016120694291,  5.216886945497537
16.964754407565568,  0.511049336467431,  6.997648174688575,  5.095337474245932
 0.069297501705926,  4.987780732732540,  8.768866779397088,  5.235592238995946
12.514076341927586, 16.817540033558032, 99.444030190369091,  5.373228954949202
 6.872815362749867, 12.026230395295462, 19.258169284965565,  5.087371907154494
 2.909394968373681,  3.491717036139878, 18.980118198167730,  4.331126180860676
12.635422028701093, 16.940639862500223, 90.443396617591944,  4.940624766978833
12.017596764569555,  9.018768711243572, 105.504566876988946,  5.197544267020637
 7.868644901702643, 16.792619361833459, 25.078509252919268,  4.715405815823145
15.893029235820210,  4.750597009607041, 46.846396742102471,  5.013974958555947
 6.990188308498965, 13.765060969124502, 44.637390142137093,  4.900639840671513
 0.201074398653798,  2.725301113293269, 50.488373157622171,  5.346886102766105
 6.845889155191982, 14.930503514011464, 11.176268636959474,  4.642773615046032
 5.654286701594391, 12.865055679501708, 67.978820201618049,  4.699046084356124
 8.978608341813965, 17.462279368605820, 47.022333164254462,  4.539194977557846
10.209804982046911, 11.051470741390885, 12.454466700690427,  5.060442993746739
 2.139837582030324,  4.523109024204188, 78.524244755139435,  5.274801151920813
 6.358252341383664,  4.534083625562674, 27.528043821252989,  4.850124406703410
 9.367885821041384, 13.925796421595511, 77.417371163745599,  5.018735052651452
11.184018356074985,  7.638939650125005, 33.400288279705570,  4.727795210501016
 7.807074724727674,  5.167756526721710, 102.119567220422311,  4.889993551779492
 5.941975525662046, 16.163455321561440, 95.135775381439146,  4.965214913220276
15.947704650464908,  0.504769723913053, 43.215449391571333,  5.337516850602343
 8.448471534163449,  9.052993974253344, 60.523917909413228,  5.303499177800252
 2.446169588321720,  3.903761657897679, 57.584167230765438,  4.163509060115963
13.096721928807327,  5.016608053363968, 76.398721539640107,  4.910045141944563
17.140710957171791,  3.135982429779082, 28.175461220795398,  4.989473663504550
 2.436429955137666,  8.797288780876451, 112.117130440245731,  4.834266212190241
18.661920905277700,  5.706289949997617, 101.389859085819836,  5.476122361061852
16.811490061408467,  8.998480749315783, 10.758132530103950,  4.594404094384044
15.984783404549900, 11.485155880335643, 82.371713470083577,  4.972515232491193
18.388068330704552,  9.706300422510255, 63.847012707361060,  4.808468334591152
16.442500883731210,  6.374705037470600, 60.670456502427399,  5.029972604031711
16.951503284985144, 10.508498241754886, 87.295574303406710,  5.231117856943464
 7.118498100553171,  0.695041848433380, 114.903877106742058,  5.001827564370195
 6.570365381945791,  6.128665441008900, 32.305148157524293,  5.213498767773194
 0.604470529932007, 16.736418495021848,  3.527203716679115,  4.763629819492247
 4.131029155367560, 10.133626079273442, 25.231381790519212,  5.199793706388678
 8.729584100008362,  7.433734902695326, 17.716940386825964,  5.288174866403872
17.134151920281049, 12.461766765669031,  3.502727679431453,  4.868561946246301
 5.465441536104822,  9.060193865570554, 115.988594600815489,  4.948974717493853
15.319473370481758, 17.568852474793388, 14.582561367657233,  4.867837641555963
17.021503979639988, 13.162588608266208, 42.310768567606679,  4.845970349198405
 0.552222221155823,  0.522135012187520, 16.600657687992054,  4.575513532364362
15.151253535771270,  2.457791229511512, 17.847933049188903,  4.949850480403116
18.561960696171464, 14.469943978113118,  7.899782097792365,  5.202717038861360
17.865050163741589,  4.516182131086842, 69.807128232165056,  4.796993590006840
 4.218504475458664, 10.231895134855387, 30.344130142641749,  5.024272246694550
 4.737772839184632, 13.831514933026739, 79.405011969808740,  5.060003772463844
 9.482103165293895,  3.649074149058435, 89.997581028569442,  5.375722649274603
18.310817724656072,  6.792469940806253, 42.877164940588919,  5.138398312657617
12.102568777158407, 14.615868462546096, 60.595231969049649,  5.459215194646896
 5.356868942831778,  6.399480107018215, 21.832295102806938,  5.159890119137943
12.613399524484942,  6.987195000416948, 110.307872926449775,  5.270546902003114
 7.371886621074081, 17.966607636271565, 99.652383301489863,  5.172822346981296
 4.776587903154273,  0.031843940298220, 58.966328061362312,  5.285682252805344
 6.958316847604749, 10.468926385656687, 40.882497135111628,  4.979034669020448
15.521619467447861,  0.248428030543133, 71.182183855825713,  5.298394585738345
 4.439631110831622, 16.374241801964690,  6.602854051204170,  4.953735270494243
12.167826410933456,  1.822771916745993,  5.509471433672983,  5.281060792064431
14.226731109694557,  6.642238110526991, 20.619768252939270,  5.238701132273968
 3.044221018085134,  9.733533492017623, 88.878363674712276,  5.109257907523159
13.817218659921526,  9.105629776551972, 29.461730657198977,  5.165096323243569
10.928747140895986,  3.185695565841526, 98.769107159505282,  5.054473696805390
 1.610084643009421,  7.203761911096706, 72.588788773278722,  4.428619973537750
 3.258200382546900, 12.647072004953129,  3.573732999103726,  4.931967540485534
14.723431443532482,  4.187132433672394, 33.283297894919116,  5.152684158452924
17.880489635605194, 12.660147457547774, 55.796494071865574,  4.969550840312037
 4.640561041361760,  3.764898948946882, 37.072667281540788,  5.072034329285312
 8.613736223076064,  0.857611731690019, 109.030104577009794,  4.520341406031978
 5.176924735908934,  2.533534209300345, 75.039993293127068,  4.787199031162888
11.177607321136946, 12.630452441520054, 81.891846497615404,  4.953996752383304
 6.864438372223314,  8.579254813363262, 46.987465543465071,  4.991681703826810
13.359065118493714,  0.653231391276300, 47.512890611843737,  4.696679541077419
 5.192692432262809,  3.968923589002523, 70.439751152420158,  4.849248148772817
14.045145153699639, 17.050997376767548, 19.788150006280333,  4.516973488901062
 4.674061608745386,  0.124246320141861, 79.506942572810118,  5.060410119649919
 3.996792918587462, 11.750189729866952, 63.632422341768830,  4.867760455162135
 0.561389238646468,  2.478827315307906, 105.205543182988649,  4.599802570144586
11.087167280230817, 10.175025815858133, 52.396489904669018,  5.493290125987986
 0.085276171837958, 18.043587321344987, 77.449921403185371,  5.060582210511875
 9.586431305211079,  3.795408127794058, 63.957603511136554,  5.337399265716184
13.249331504268003, 14.434314650460436, 55.495614328412891,  4.959855001217488
18.762383962758051, 16.875558593088417, 87.251739144350111,  4.893496602439342
12.266673636700498, 10.335813547407655, 85.971923634143124,  4.494378615692963
15.360477631089315,  7.594748455202526, 53.758632580551065,  4.815110360565535
10.817092984152229,  8.566202521420500, 100.446036453725696,  4.780013837813636
14.961778323590853,  1.923624326317803, 22.930339127589878,  5.273978916049015
17.004780370727659, 14.302950687717020, 100.353178742793830,  5.056874572900597
 3.688889712687279,  4.210271951085766, 113.375249050485905,  5.001491640512297
18.733345048905623,  0.806348958578030, 11.686077177559328,  4.941187422100414
13.787562545029866, 15.512036712278416, 39.411959847273586,  5.021004852803174
17.487880869662796, 15.758009825907928, 116.462503778718116,  4.731397697039897
18.565520358188767,  0.457882281998211, 66.929651741465406,  5.157085623935150
11.176107104930933,  5.608212201728931, 54.592909142070816,  4.579650715424009
11.966620373868786, 17.037519626307212, 116.610202463469633,  5.317667176719623
10.531477855128610,  1.003801535476731, 103.528917214450047,  5.430763906689205
 7.013161150547060, 10.946190173654838, 84.384441074038577,  5.032516361364847
13.223590894363848,  0.049998494192442, 28.343993629785960,  4.976671759763719
15.760978880867444, 15.677590195273671, 95.310999983915707,  5.369831609181821
 9.434496464803861,  4.877621742496273, 106.737629245968066,  4.865473828591488
10.113847352484450,  2.454441666135774, 24.890094817615182,  5.222349471423607
15.469024499865382,  8.486639645400508, 67.697994327906898,  5.158889171797608
 4.285825247723193,  3.343005551772697, 98.949280966929720,  5.255889362931413
12.739642494987940,  7.946932157291339, 80.548968372906756,  5.273518309617173
 6.310707543706353,  8.843421108574793, 70.772821090992565,  5.173578041487633
 4.593612894186420,  2.062612610744342,  9.434514922020217,  5.617286345777546
 5.623659706616406, 17.966379388383807, 68.665485294937881,  5.360929331198856
11.709349314514313,  5.200609772467569, 59.362829291247188,  5.053400938492149
12.417172335319128,  5.530476672709387, 37.569183103555893,  4.929188067430287
 6.706678116327761,  7.914862768268785, 65.294068295789728,  5.061442605603840
 2.015133182764016, 11.676105107810548, 19.658138337317528,  4.685570786271612
 9.331593434579954, 13.954256405681440, 87.635364694750663,  4.902283232442641
15.159841986562313, 13.946819515788835, 69.381321118755366,  4.580637903670412
13.409721305960190,  1.561753100984878, 10.719386478321130,  5.371304705206473
 1.942166800037154,  6.040991339110720, 26.870007750592375,  4.570034358036398
 2.808029834564010,  6.794001474612868, 105.694789656579701,  5.150139743029803
15.429518554770574,  9.895501750564158, 93.767677578852613,  5.212930547410543
 6.282695187746922, 12.767728361764407, 91.402443775599153,  5.076534590334504
10.049982713676098,  3.200756265224002, 34.091130223745928,  4.532682907798368
 9.070114140813983, 10.323109153284387, 112.219530842011224,  5.178747710458740
 4.315966133045641,  0.619710063379256, 87.314405397435564,  5.108053012908881
 7.412784246748340, 15.660926930280624, 104.176259600597135,  4.964947366840709
18.659238059229359, 17.274682037797753, 20.922733146465891,  4.992794614648608
10.416745307147352,  3.137765587508702,  0.696449564934995,  5.287087056032783
 7.701240849962553, 15.392536548247676, 15.778380120259955,  4.727772871231095
17.108713052899756,  0.035746982404822, 91.453224197898209,  4.921962860955569
 2.809452288122872, 16.583150590319537, 91.296150312053001,  4.978378068633764
18.660731190076778, 16.885195888256369, 39.452087737356763,  5.093542784525345
 7.524975505152145,  2.648657040867702, 55.373184723008585,  4.925938178704310
12.587093797064210,  8.037495368266461, 63.490041005050671,  5.080232749987776
15.868327220040152, 17.829774202378939, 52.699419242783620,  5.191034620426317
 4.656786759359321,  6.044207274535866, 43.036605001773495,  5.195289534976715
15.672894856106996,  8.971413671176933, 34.505785941954933,  4.892909200375557
 1.094460718997637, 16.262409262311444, 82.265394396297935,  5.383752740295695
 2.520881586617830, 11.670650787510244, 74.719722991758147,  5.141649836433640
18.007866425872482,  4.981367389320836, 65.059973786758050,  4.677621971945863
 7.509761887190440, 16.029734637873393, 83.273148302982818,  5.421473328078934
17.542759914791098,  3.359682861543523, 74.782950562540023,  5.036350527631473
 4.526295999630172, 14.868696121797814, 55.718136851301480,  4.931983089655123
 2.219337566063014,  2.727550175488257,  4.466894336106139,  5.390690424736625
 7.396953004252050, 14.276667934290966, 50.003609364553235,  4.729771242672872
 1.351101709697111,  2.399902750586548, 45.502251808540180,  4.905045297823508
12.534321722627498, 13.678406108911608, 103.541587076898338,  4.949135117275360
 8.716205884281868,  8.989412533900243, 28.130281405669198,  5.302629606845047
11.240688401368553, 15.878192774583924, 12.613099107810315,  4.796691681260170
15.026898047606457, 16.121816495801177, 112.331670723582832,  4.898051476580927
11.283854578968933, 10.520177014547649, 20.321809411134158,  4.260018392636173
 9.511232608859585,  5.660961726763049, 68.667036454942107,  4.782535411638639
 4.253279921387675,  8.218397837602232, 100.262999467978361,  4.842778629870626
 4.560899082284101,  6.754110045825802,  6.998355107358193,  4.947402440383430
 3.601973367797202, 11.629915261291639, 107.998094385031038,  5.430979980372525
17.013517891737905,  8.868558522806863, 106.761586192234162,  5.084363339868157
 7.455355560326390,  6.672769430774641, 12.677494056267726,  5.179489137595731
 0.418750030224396,  7.971590229468983, 56.806372008978236,  4.973694176085521
10.222392003455006, 18.351670141270183, 79.523911774967829,  4.915260592290681
 8.909018528023227, 13.099941701471341, 100.128066148544249,  5.071639155443409
11.298442943830892, 12.364163024783419, 42.445936534085362,  4.992580323717782
 9.311002563783902, 12.725525360505088, 107.700661924564329,  4.957911892832717
17.614630422891736,  7.127510416363827, 81.159322128217852,  4.635451292702831
17.869644095307788, 17.672659056975100, 25.770830181451650,  4.857974872928533
