BANDS
8 8
NANOPARTICLES
cell(1), 18.762
cell(2), 18.762
cell(3), 117.262
 0.160402498930341,  1.371335024603873,  3.765240660881582,  4.780390499345756
14.009065768487041,  9.335674237801294, 79.772791068037606,  4.989549592297927
 5.430641703954363, 13.028486354503910, 103.512106356439290,  5.171404988172901
 4.249016671549776, 17.729773308310843, 30.519389139059246,  4.747762483579746
11.604014441300746,  6.798624957069636,  3.017214546877163,  5.363549487331578
14.075388614006581,  3.990752695181680, 15.928648766302953,  4.890200107563184
10.944118597511579,  2.055962355296211, 12.550429972478913,  5.087968880334629
 5.959655988693719, 13.594665492071282, 38.936942179237988,  5.233409141223898
 6.817484971956360,  8.979582588976895,  2.579447711407612,  5.087488571787190
10.428781416214900, 10.718300343746908, 56.031500361922781,  4.973375939190712
17.368720527900429, 15.891371205575556, 29.922155858786091,  5.023102249963855
 0.793266660067580, 15.132887361258858, 51.338435203956401,  4.882270230385153
 1.994451072021832,  8.265842095024961, 10.868322596057942,  5.035368394417407
 7.036707937021410,  3.526092519782616, 56.481343681555082,  4.741985500196614
 6.090235980201343,  9.357849582739252, 32.336251145079380,  4.428787041394743
13.954679885716752,  6.247844361817772, 115.684914606788638,  4.980229234598384
 2.902583412608597, 10.568328227349019, 83.753876825433636,  4.994708569046756
 5.694135918152570,  6.623689354614983, 48.944532519297951,  4.852395240442860
14.894579751860705,  1.998660090811521,  0.965460666012320,  5.081791400630062
11.713727133688346,  9.654502077205326, 51.252280493881784,  5.106986027577608
16.925180155430386,  4.902110309374391, 44.752564142011323,  5.043713016407426
14.527881276747761,  4.441502736528144, 78.760041231276830,  5.044940572927055
13.238546730806252,  0.914158583782673, 39.207245205412420,  4.656012194718699
16.159833861386677, 11.351380285133674, 12.020030775950030,  4.765333010066133
14.879153287960801,  9.570171653131622, 58.221987893244822,  5.010450911471303
 6.157261391373156,  9.008418129071140, 100.599571672777543,  4.790861028393781
 2.613849066083121, 15.333901155271629, 95.005348973958277,  4.879975893677730
12.929799775245568,  3.645767580973237, 64.977909564226266,  4.960534349144676
 9.854854140269747, 17.573212992689438, 48.690557309210156,  5.624416861930957
 2.203762553566681,  3.989089027358269,  7.925912193279038,  4.924984962955167
14.720510651146162, 15.158477233462365, 38.389168828145813,  4.991338436431930
12.568080484773761,  2.560772155659961, 104.635281845828544,  5.225810228723858
18.275996838183708, 11.953032148001023, 111.225929300778603,  4.908419226313875
 7.968596961446381,  8.173947883880277, 24.037108363714559,  4.541942973599596
18.681777340467701, 18.441610245673470, 114.755914812956277,  5.027666936187683
 0.054126510323680, 15.245954745617944,  3.291435855069180,  5.034693867506102
 6.653326112583438,  2.838982013912415, 14.896752924680044,  4.773280441201257
12.721378618920738,  1.338517925421484, 21.492624574898265,  5.179659522522854
 3.510612713990933, 10.398878284415762, 36.009605931054395,  4.720141422815883
14.994338383798116,  3.867134689935572, 50.161010223515390,  5.243560839152973
 6.445463079915065,  5.502909089001554, 10.556113330010167,  5.420982985115175
 6.718337735908739,  0.094274461057454, 10.127629662151337,  5.402105260270598
17.662787851924694, 18.620749436764509, 20.648168139843516,  5.249987427250508
10.915712682480269,  6.833208778192119, 38.674835759869787,  5.056954259650673
16.332554771403295,  6.936264969771991, 65.565352244515822,  4.577595509185197
17.331208909898979,  7.218139272257252, 27.149453185598940,  4.976005311216039
 8.767735766379181, 16.576955598302806, 14.411882767406498,  5.120071179963210
11.405266034218274, 11.132162045962993, 22.084426098444872,  4.818381135726340
10.274408031984148,  6.907948284959645, 13.796281109152256,  4.989518095665822
 3.184072089328375,  0.689108092513588, 81.309516710659295,  5.153788547839736
 1.185040937127713,  6.267186098731790, 23.089537421521136,  4.866052983604899
 3.570800114964720,  7.208596559322513, 53.311148350377550,  4.922849044973231
 7.207857416601147, 12.912527703977245, 83.924464489440126,  4.806631848135876
 1.718012497976122,  5.746101821296819, 89.018704148859626,  4.555384912100903
11.689707338425904, 17.595998594072491, 65.618807454535030,  5.054137200260651
 1.901408470588061, 16.486697354513709, 110.431652745372531,  5.256574781197476
14.941569169017905,  6.839414312578998, 102.020286218666016,  5.193987601370735
 5.241823262927007,  2.468451936755384, 69.344350425400222,  5.072948526870473
13.953267864955260,  9.896970083765622, 62.908872400766953,  4.542873898445227
 0.976928337732047,  6.323228836699525, 57.717040749980420,  5.450325559953495
 5.248341873015420, 11.695122400680200, 63.663481333409955,  4.994906582463823
15.706610541467379, 11.528309831632546, 67.252095955116928,  5.281959948360705
 4.266835271206945,  1.495565199580361, 95.693079853094105,  5.527898679548451
 5.604163950164289,  6.777053300291426, 92.522658859639520,  4.975248934897853
 0.779972147994782, 14.111405482537856, 64.802628225069526,  5.092761945147905
 2.442943428752800, 13.338646931758451, 42.660967043195001,  5.013880953321029
 4.954586871488632,  0.719041860148508, 36.451114831524087,  5.316521456182167
15.397561085041664,  7.602946734670549, 89.575814720097611,  5.254329881937977
15.652179242768840,  5.137503114360444, 107.614473226951773,  4.778296697193842
17.700322009554228,  0.695411409221903, 15.627468293078033,  4.866221983096664
10.646595146054613, 10.868502629015463, 76.243104139175657,  5.220184524100448
12.412043607370428,  3.369696693448461, 87.995425460318344,  5.070803406088200
16.317519775571075,  4.659875537466243, 39.724177520573591,  5.087542281122935
18.341967142375303, 15.662280015311351, 12.577489874840758,  4.919856205036746
 8.980959939823544, 17.184562245755366, 23.184338581817727,  4.858690402364243
 0.798033709820642,  4.694177392107409, 68.240550451770403,  4.921761454295925
11.973730029618027,  5.809199313343626, 56.319112548377568,  5.196654669195711
 6.289624626318256,  6.327865005188427, 36.064236881870521,  5.102189429733587
10.455478400438468, 11.211748581715433, 31.573889524299926,  5.150484874269073
17.502922281522014, 17.901201740983691, 103.127990190243338,  4.988269791060707
15.646913835611844,  7.892911772774465, 75.255578373772707,  5.036814592549082
 4.945586294701168,  3.111216543274316, 104.760173462278175,  5.287111098070682
 2.527961855076220,  8.186553952355727, 29.740662153586001,  4.625533704581665
 7.780928020223833,  0.134185085169296, 18.761751645855465,  4.923724379335082
13.436875973009309, 10.946721119051997, 113.747809444984298,  5.229950372255329
10.960022106813666, 15.522384873708258, 85.931858910580161,  4.756848772936081
15.185172567836778, 13.395485632007883, 16.628411160130064,  4.870715652339837
12.329253242282446, 16.562978959041299, 96.531106796960998,  4.840248386470837
 5.964353012857567, 11.642926128839449, 68.712837761050025,  5.195264492895186
13.201425266090117,  1.921819012178617, 74.150896932439238,  5.128365401845233
14.754668965636084, 13.230336273334769, 33.640183072287250,  5.195885490781728
 7.918422854893818, 12.370078061052237, 48.812825197511522,  5.414547713802161
17.148814979462028,  7.168497792345113, 111.804286746491769,  4.989152370258150
 8.823625202792247, 10.523306730659709, 36.255036364714904,  4.707323343000756
10.449097520595942,  1.903043074278433, 53.162837530904497,  5.296457923338278
 4.657576688379732,  2.689391478182450, 115.076795603195805,  5.158242309703939
12.100226480369866,  3.547363848451897, 26.560850299420974,  5.085423557144420
 7.240207495917184,  2.459844113076924, 91.895421929006631,  4.300149080374068
16.463168507242703, 16.376085007497746, 98.737159501365468,  4.532148066479953
11.631541901211762,  8.266136689967249, 66.864896301038002,  5.186262727084636
14.719040799167619, 13.006431293915595, 54.384594728815841,  5.276817498284305
18.015581285824521,  8.669641504957136, 70.888575512411990,  5.017443617618301
16.022863140592754,  9.265271937108878, 22.583126863897931,  5.055870185010204
16.754699515741830,  6.782649558217897,  2.693517647871559,  4.944489024000217
18.309699595069450,  5.081059322938509, 31.184663183531192,  4.294232874055905
13.986564273240624, 12.284764889128152, 108.930258509159373,  4.829323618502657
13.091013197591254, 17.929912837193967, 16.837227081628431,  5.110898575528990
13.530198603317976, 12.009165877128069, 98.071543298226359,  5.041836094283314
 3.308060465347822,  1.791320031247066, 23.432356660955648,  5.050906853323456
 6.194265091678278, 13.788060865791543, 33.862825452355722,  4.925334943128115
 0.016492368339660,  6.301593801637655, 80.439269747215107,  4.779784132110456
 3.180315922219529,  5.148041282735464, 44.153017972148170,  5.064359784954499
 5.496271188198226,  5.701532727096285, 20.715873181168217,  5.038952535667683
 3.142926018871788, 12.988138985134942, 30.002682498744075,  5.042469305708442
 9.157487264165793,  8.150898346851497, 115.208125045999921,  5.345778913894087
 5.080776629675807,  3.660235312735511, 77.674767628409896,  4.966221970107723
 4.059998314791644,  7.057213333500468, 71.258470307735820,  5.141161291424101
 0.181924343464960,  2.356419062545203, 77.533707002292630,  5.022069175448032
10.934709059083703,  1.389413311210609, 109.301004348177599,  4.912453240584913
 1.812624221555303, 17.885136737685052,  8.758466398882559,  4.961892067174388
 3.589282043653497,  4.736051192052138, 99.942270372563115,  5.234871725580985
 7.637923712413306, 13.169445225586349, 59.196207187507440,  4.730512991837132
12.279485993428040, 17.441793111689332, 115.127204775331606,  5.362667548306550
18.331117944811815,  7.270077581369448, 98.424063687855735,  4.723446846708853
 0.563050430292989, 18.736047110639131, 69.797144393285294,  5.011181888212758
 3.827643020706381, 17.595227930790347, 14.283808257081311,  4.903415537666539
16.935018354203621,  2.703535703729934, 90.200681296319260,  5.077396286940250
14.646857649049839,  8.733702383819422,  6.708395963689074,  4.921029480890461
18.426169447906201,  0.005959293824767, 60.154347426139040,  5.052283099714307
 2.017896594512317, 16.580332663216183, 39.188904472383278,  4.508578114300263
 6.456304190343118, 17.483878453323246, 77.806680458908914,  5.179834410224732
12.480007793161073,  8.598681607808139, 106.104184383823181,  4.933147437349704
14.291491033764192,  0.597808403736768, 46.129716997146140,  5.225345257773619
 3.066284634500551,  1.911679981129645, 18.244563589702487,  5.202626294806780
 9.037908060384026,  0.426972039943574, 43.958346247975406,  4.489202829543817
10.734960286610891,  5.764294551541594, 92.640296701014350,  5.428274675474954
10.915799185756560, 13.808086550792378, 26.097790440812350,  4.836984874051868
15.659893594973944,  0.848782329015604, 11.095725351130934,  5.067287108183691
14.888238903583296,  2.316792530710158, 69.376568800321792,  5.027633302923399
16.925063408613294, 17.126024997315493, 74.070727186980321,  5.133832164918893
11.412302431819020,  2.832887740438613, 31.534967622247457,  5.048371206853125
14.148275542030786, 18.377580519886070, 78.440667497487325,  4.655688893056650
10.763206238585507, 12.743944244143318, 40.068933046473099,  4.777850381638868
 0.828065346312817, 15.428721828464017, 17.362651031146772,  4.619646765929380
 4.127251961415910, 13.904931000047256, 10.989002387271462,  5.003983254798621
15.770546039209782, 11.479517370771900,  2.938600671568684,  4.665753637344077
17.484685639596876, 11.059471430960514, 30.020354443206333,  4.591784128930342
 3.099398014431128, 17.115515237335526, 105.465361445229590,  5.015980978506536
 0.337439124940168, 15.205021658479497, 84.005512334283296,  4.952505700508727
12.066695525467434, 10.575715119567432, 91.773519657320705,  4.693526149011118
18.560772385143547, 11.847633937436767, 74.758310154441347,  4.807347559313494
 4.355869368828099,  7.160933774843331, 61.640326437888127,  5.039397769223681
 6.010698344825961, 11.726068005173316, 53.720965527645113,  5.193013781744447
 9.775406103342068,  2.561286972552170, 36.268434615533884,  4.981989899306464
16.338438619594218, 11.280358426182765, 49.707636108770224,  5.163458765820581
 4.004088213868738,  7.714031143102709, 115.809472827744159,  5.060186531089069
 7.978492617962965,  2.855390014492883, 73.628458060692196,  5.111226861830214
16.216932167878689, 17.566777187943956,  6.691996088711602,  4.695039568263787
 5.942919215867995,  6.120122800533363, 111.242622886544780,  5.361941069846254
18.661419672781651, 13.585707132330601, 21.687278156631454,  4.955772968202337
 1.302419638166690,  3.020458281442341, 111.210386244914901,  5.099805076438414
 0.004205969028409, 16.176638360351163, 89.976323734159934,  5.292398352793019
14.259687090816751,  7.695858333292557, 31.016761335041593,  4.930904854057323
17.509334121611893,  7.410796438383231, 14.689908104088321,  5.111293270790711
 0.402972872065061,  0.835555789868948, 32.548063399770697,  4.708916871851273
 2.699495610328824, 15.588216858809970, 75.195525406746398,  4.689522357151057
 3.870139457196079, 15.881955256621332, 61.172054717952371,  5.067322992999626
10.842517291407740, 16.520538223264843, 75.571860969246544,  4.841813934308513
 0.563994354068799,  1.354051364854051, 51.454643590927539,  5.095409332698975
 1.482917010233936,  4.594878781493524, 35.563192787257442,  5.164928144897616
 9.017545364973920, 15.773368889598535,  4.715978265775654,  5.354806893481773
15.876439964562502, 13.135285164424836, 25.911144220367490,  5.149557005492914
 8.349564320304269, 18.033910882905708, 32.962334870858484,  4.763388322061278
13.729770243612940,  7.923860115372745, 47.023253520544053,  4.854276000822011
10.526352994879193, 11.837946380160622, 14.718391993753448,  4.937606974293945
 7.410943621336713,  3.448178213084098, 82.113554613141162,  5.065446877156377
18.533117803538001, 12.007861510841762, 38.712004702891328,  4.882455781594649
 8.659635203805543, 17.365526824814765, 61.609512920628646,  4.976848594000309
12.636271084117576,  3.035638013227668, 99.615689257328782,  4.858786934615010
14.785638750696389,  4.069836112381541, 95.357639903143976,  4.898203706858848
13.760038981301316, 13.611365897802768,  7.833919403796493,  4.884973988850557
 6.468705327319936, 10.737787914113765, 27.451602091233447,  4.469186384310845
 0.053853433736728, 17.149686953704638, 25.358951490352979,  4.851381041958318
 1.054137696083868, 11.159608002409659, 92.925692355519033,  4.952139557807607
 5.965867527175416, 13.820711540904581,  0.713219901192357,  5.417585185505000
 5.823042406254237,  1.995349342920656, 47.140074234390660,  5.082735178858644
15.698273631735178, 16.142953323796181, 111.495887892694682,  4.918839928621955
11.736758271914271, 18.212398388956064,  8.349171315553836,  4.909673971135314
 9.391710056953910, 18.558319979060840, 89.091327479835471,  4.535677127789472
 4.888220986362358, 11.060003462567952, 112.236361836756160,  4.883893087685812
 8.360481610781427, 12.522359265518434, 88.635980003079993,  4.846190191735006
14.607854594077958, 12.795450805122181, 103.040194228308565,  5.246787374062736
16.568344705309482,  5.666925177661894, 10.064041854226774,  4.948094076117744
16.907755179658661,  1.354992808071189, 82.098209157108371,  5.114039861771529
 9.891725174704993,  3.617617335523417, 60.726481895605637,  5.489819177412773
 3.597275574109711,  8.946523485001704, 96.472359015005850,  4.830581511867472
 0.746892173886626, 13.564163000240299, 102.303138540556048,  4.556410103456693
 5.671289260240523, 16.572790058738047, 51.917317699244684,  5.128726978566533
 7.810165910958550,  8.122244334986371, 83.677463876493363,  4.794986483183382
18.503110808694288,  9.076876171457938, 61.934476518626774,  4.894942449731527
12.200537203201341, 16.274097408498186, 30.278694256405156,  5.197628919728915
 3.237476575786351,  5.263618406552849,  3.015027437742376,  5.245012060962462
 7.840003873725760,  1.912612859966105, 65.150823160166951,  4.840215880895564
 6.522815233085228, 14.606897074230767, 109.205998676148809,  4.998206540922838
 1.355699469818653,  0.896880453200559, 86.084147928891795,  5.079538847963502
 9.747174844935753,  4.656185126371143, 18.223682302056936,  4.996253871946863
15.093020044687167,  3.433938442894423,  5.918483141762929,  4.914994092540166
 1.127818379428131, 13.514218756421922, 70.060174982967808,  5.502573583038945
 1.587021721629131,  8.708719270905661, 102.805816892675097,  5.342286819699181
17.078217101019675,  4.809306837131744, 85.696501790425856,  4.851377004881209
 8.913521460291703, 17.668786576515313, 39.510436785435857,  4.895383134321486
10.420639764319498, 14.927673705666018, 35.871673164324974,  4.692184841810584
17.547179995752515, 18.639125173051674, 94.500340617842298,  5.285653258394487
11.922213679454496,  4.413960734027065, 43.234663165444971,  5.456909136132956
 2.346094413801298, 17.244985948392461, 99.625932324315116,  5.078776793144291
10.422662982943018,  8.054507991905375, 87.896314870837529,  5.103357365546920
17.616528909893002,  0.561376508393248, 37.070384175038228,  4.862440002384601
10.514816038872667, 15.136348679792251, 92.198018364766668,  4.974458844484236
 4.450151439427436, 11.496745782080559, 73.499911276537915,  4.835157555245480
10.306738996236552, 17.965402379612964, 70.883439680431167,  4.944710258624080
 3.218181009180589,  1.352126454509506, 73.749639257675923,  4.868563033348107
14.003050321678106, 15.215935057261911, 21.588057265402167,  4.911347353443555
12.916937543414560, 17.409664867867995, 101.557573200194682,  4.752563178056020
 7.052802499838551, 10.251078538168079, 11.913531049020449,  4.515396486006265
10.172152717631109, 12.890882958378972, 63.427963478130629,  5.144716631195242
17.812444724772998, 16.827679766413610, 55.438890329749761,  4.644214862164950
18.102870544767015,  9.670451162287019, 116.077926424494166,  5.066173771767676
 9.295706232232247, 14.320511825066824, 100.453015345030423,  5.019804494733950
15.968967081612616,  7.770276502586284, 53.539415570737674,  5.252698803342604
16.244841058614423,  2.821743919990735, 55.455554778680252,  5.369335290420944
 7.283200566300939,  3.927995424163524, 87.300977706026117,  5.329248200413849
14.640768661478598, 13.841491325923624, 77.074512898260664,  4.865657893737583
 6.765020499343880,  8.864576718533669, 40.433349137102248,  4.811834464652821
12.617675763408547,  5.891328592825202, 83.400574312570640,  5.392499749405198
 9.104309327781227, 14.118032580570977,  9.768394598906092,  5.230583956143795
16.697951762595626,  9.499794693235337, 84.055864268105751,  5.115334481866666
 7.436325681332995,  6.133045549247015, 96.985065880784319,  4.730750389302148
18.728630016999297,  4.623190515600657, 115.869824285441567,  5.104360122180825
 9.810251286917557, 14.291424182108617, 79.982642889389084,  5.025934569757653
 9.649744290450480,  6.944037908158017, 79.328755962349732,  4.885750988301004
 3.538785503442309, 10.303097073957417, 20.507917910937440,  4.970037089941484
15.663261330922126,  8.934747780685415, 94.663176142889668,  5.079699918876415
10.813151872908948, 13.468512545612448, 68.513924816849240,  5.159880699736819
11.206030861088637,  6.231239541113368, 74.862888711195779,  4.469573801273241
 1.627563223178443,  2.222304463167517, 28.109945908067491,  4.897385046187309
 3.831142982888767, 13.957869798674704, 87.334654391390259,  5.006198473996866
11.024428275161565, 15.556851097603360, 110.655835543131403,  4.647029388073769
 5.750703465691440, 16.342440858169503, 91.299329019573648,  5.010902595879750
 7.876931546951721, 14.418688217706123, 43.854379604224818,  5.311471491734544
 7.424071494077629, 16.015216771528724, 96.059248897029775,  5.057989963845848
17.219480385962033, 18.323999590185458, 41.966999240621099,  5.161806996697564
 6.161141213225958, 12.083363818422377, 77.822791116574805,  4.532574698616353
17.723615359822130,  9.019626779806543, 34.498053220633068,  5.238766446920681
10.121225182610742,  2.184902258988795, 78.112996537695309,  4.915964909399498
 3.140852628090145, 11.336915469578265, 59.162048083392818,  4.971127053428499
18.721504864112855,  9.682525207028791, 45.367401400712446,  5.241246911763350
 7.036747097783510,  3.672497478662339, 40.651288040583339,  5.589419959836559
 4.620326583890862, 13.031647311149454, 98.668349050758906,  4.643606819657326
13.869483573087408, 17.735148809199924, 25.765103500645868,  4.845720572767418
 7.725437779518602,  4.578841427333932,  0.987920731039501,  4.439429243242847
12.792492779747811,  0.783503880490642, 92.265656848099468,  4.941973403055978
18.739614646507157, 11.199557084331044, 79.677395246648956,  5.115672527981197
18.616258313303845, 12.151980518148237, 97.732278948835983,  5.139098578721843
10.834821534815545,  9.753217278364021, 101.584279573610431,  4.873910389270044
 3.177515377394384,  0.062386902042878, 65.311336358052870,  5.182916149773769
18.671410213702345,  3.934644259418090, 103.947873279638429,  5.003224749816722
 7.990916704574678,  3.043593402680434, 23.944074292256047,  4.693211665760850
 8.910879329584080,  5.194528174756781, 102.098958735029598,  5.074980129972845
 9.666667647718926,  3.084638397440472, 113.880311384234886,  5.171909927780715
10.107310780751710, 14.531788486469596, 52.947624336812652,  4.848864411827273
14.875450668021967, 12.831609698937614, 88.056361334245409,  5.650098586339095
16.770736861576758,  2.848316900614408, 24.736234053123560,  5.028358238819608
 3.488633794380811, 15.296509555145590, 56.243112470037346,  4.881173632588637
 7.671256046068176,  5.891274746230581, 44.955178381136399,  4.171472305785000
 4.461507244481070, 18.227831602598076, 42.959559761923394,  5.061246061935695
10.098965321338673,  4.336955718423685, 48.583724156193185,  5.082828090110068
17.201345808293034, 15.425525568947688, 47.174681204079683,  4.689068581281569
 8.579903524191693, 10.013215655302020, 109.005325869670898,  5.049330362337092
17.157692059772295,  0.505161630565549, 107.940085596251080,  4.981108517112684
12.551803929887770, 13.757103052945499, 59.161674564949855,  4.729006516187567
 1.968563538989389, 10.732710045047819, 25.460411324967399,  5.365016656506755
 2.063188349959547, 13.972866498375463, 114.782187515229410,  4.665971964726150
 2.278342727367970, 10.925773827796379,  2.717280531564499,  4.735564412825059
 2.962622937626082, 11.431141554698682, 107.675979092212160,  5.017291887370061
 8.928453129285423,  5.316660828083926, 107.102463257275900,  4.934343468479007
 7.631473403076491, 14.684211928474184, 29.393972419408854,  4.619294891911521
17.293822462401874,  9.546577242853086, 106.751242647406769,  4.774130672005604
 4.910009325880154, 16.465171851116857, 25.862922717668841,  4.982025614064239
 5.214787224223872, 10.121655240232716,  7.340066000086683,  5.208254913070846
 0.774516362957856,  4.079170103280543, 63.303813669323617,  4.968237025050167
17.818899180908296, 14.415039988959160, 106.693208234400615,  5.003059221470084
13.514826387762934, 18.348621134462586, 34.655730847286392,  4.839085454093814
 6.495664038776348,  6.770198952467563, 66.467501705162846,  5.537919332494980
 0.769941551201985,  6.013086569543112, 48.939336204483986,  5.059316432925536
 5.518702216345205, 13.517743755798044, 16.839745813583949,  5.038431078726754
 0.808076191402002,  5.337934085052519, 93.904912533634729,  5.408673384885289
 1.854494455781903,  7.153815494322449, 75.924066928931651,  5.078874880017892
 5.856128113101256, 16.732439162908420, 113.669416440530711,  4.972107624087804
 1.411318631742737,  6.394808557991898, 18.480657294338577,  4.365187993099227
15.112077719155243, 16.093375955056199, 69.490899352268059,  4.924354763602161
 8.350663812637404,  6.466964524992606, 52.943509874839997,  4.744052054612179
10.085505193109787, 12.831537053528365, 105.264247541093923,  4.780645785211815
12.029792446457261,  7.354345098688753, 97.578444665882841,  4.748564922025015
 9.453115175957732,  9.050818579889931, 71.440530486768949,  5.066628314004995
14.799255268249279, 17.356524966421169, 51.227709970199200,  5.472668771261762
 9.982094671493428, 14.487095660650422, 18.845854050373351,  4.930925068326450
 2.010682277271371,  2.596879450803417, 40.083130828734753,  4.751254685950046
11.420316160513863,  5.426097914347876,  8.725190524151134,  5.149804270367278
 8.828121221785587,  6.738114433316487, 29.182776740395820,  5.429786809553419
 8.069734627262358, 17.412260634278429, 56.541696007098842,  5.221051605859535
 4.788292185704454,  2.140920391492633, 60.854097182495863,  5.130025290271957
 0.878893141668072,  0.874169654063627, 46.344607253929546,  5.180081058724255
 5.803619292121722,  1.095966513254125, 109.674797949275202,  5.160364140764250
14.482857551168300, 14.944033430956402, 81.956527307331939,  5.149088638365062
13.469124471855809, 18.566515303013887, 61.014042430461586,  4.971431324310791
 4.767416440955786,  7.472581528916144, 15.216200595943315,  5.235207146250240
 3.229421029727953, 17.997986553944738,  0.947667657828489,  4.579565233961439
 5.290181095891417, 16.509525204197384, 71.113237226106961,  4.962372832730601
10.562550128509674,  6.931019478698422, 33.882449990337037,  4.543835219181746
12.000691130070381,  6.287115897827700, 22.353022673856575,  4.957982152844759
 6.906048466162311, 12.738711039666264, 23.209499142477046,  4.941087976344484
 1.778166176383317,  9.337474430969042, 66.523941391153173,  5.153461421746345
15.125232663972913,  4.348273483668432, 34.728171174553673,  5.197722766903688
17.481217143350669, 13.792569866473068, 59.253372837333579,  5.111526616971075
18.086761316280484, 10.266618350147517, 18.445353028607538,  4.392381205787926
16.212903785282265,  4.829241823950781, 20.240326468040056,  4.843216398883365
 9.549049481039804,  1.851127023931123, 95.919904043102733,  5.053417163345123
10.159097541955729,  9.726432663374320, 44.009798719890014,  5.126069045628083
 0.061028426790965, 12.827924437571870,  7.943743130082650,  5.363037843207924
15.231875785053747, 18.063183157987634, 86.545384385048706,  5.239984377003724
 6.391618026206515,  8.201953617360196, 57.261518032240240,  4.825842992279417
 6.507019194377576, 17.843184184677536, 85.096358918255120,  5.421344073364765
 2.074201797017516,  3.602570169030542, 12.978661853901643,  5.192652251074223
 7.557596618674102,  5.097597804834877,  5.584522709121897,  4.797506466692688
13.132821469511532, 17.521193878122311, 56.181556647050598,  4.930608994255774
 1.529736361655982, 11.590028588185362, 14.552651401079947,  4.932090881414300
10.100275482109799,  3.913394198613089, 69.116678242065802,  5.074256562268606
 4.985216127423020,  3.859614559555133, 31.636791072588569,  5.348195051435865
 0.680489900289058, 10.264580374266741, 88.130557567410591,  4.827995297625669
 5.342209545824304,  8.691450420026754, 87.894752176251387,  5.012152359749382
 8.191296673657241,  9.514105994685822, 18.594161203270740,  5.207061686352970
 2.946599428716302,  1.568038539611149, 90.707787754759153,  4.786160188649279
 5.326154911713911,  2.807879444977901, 52.034949811295625,  4.889795923172060
14.077000305553247, 11.915929373671823, 72.345598250196673,  5.364394982959967
11.754000616004827,  0.615375920639813, 82.737996117828445,  5.376169350315866
 5.902164716650094,  8.496330197108891, 105.260108297479334,  4.582981483040875
11.880294307972676, 10.035593960038920, 10.443917217198891,  4.724858199490705
 1.065670353537407, 14.881126753237798, 34.522650233376140,  5.597850431195697
14.755890158751779,  8.667606637561400, 42.283983317816045,  4.919767964688170
13.427583048651087,  8.717732115462683, 17.958217774034424,  5.455799410097709
17.728749706381549,  2.364705441696513, 99.147749706420839,  5.258443450340316
17.952407337256464,  4.087309699428464, 72.930611791089405,  5.002780831787294
 0.844560936025084,  8.215337539780762,  6.212924283862532,  4.552822747937239
12.690628185621854, 13.414215787104839, 46.644616426535769,  5.229625475209733
 4.765088321249740,  8.070728707073446, 79.892627941854357,  4.917412021138295
13.724668490091927, 16.300131728646551,  2.822878596061008,  4.846589374190701
16.188072042562982, 13.396208007073552, 42.868459016787064,  5.024325121102033
 8.256307942541996, 17.772635983100180, 105.558630964729076,  5.255568705636619
15.242206419070303,  4.806142490414416, 60.412272716066902,  5.464503305735630
 8.566606845934666, 13.548461327219510, 72.777458627568734,  4.471898518198961
 0.898352702952409, 11.303695087563201, 54.602530303851978,  5.182570481889269
10.109711718922910, 10.819548113678294,  5.958540908989092,  5.037914143543085
11.189796725460177, 12.228421031162958,  1.088315324936104,  5.323776281663003
15.708236144495357,  1.725024033150979, 29.407586178507831,  4.791814933052056
12.440656274951296, 16.465166800113092, 42.527419976913237,  4.684173032577737
18.535889592340197, 16.291200923095658, 79.090068309208107,  5.137760196532755
 3.770529946375302, 15.355024480945763, 47.217959123048374,  5.291025090368530
 2.534138877634811,  1.467138593702632, 56.192890357843638,  5.158259557077805
 8.921653002505497, 13.005443176388100, 113.953553751621754,  4.689164978830130
13.312450680429924, 15.344531471483362, 12.467141742403431,  5.042339657133609
16.253720515906998, 14.346001031768216, 116.334969668018132,  4.996842868731532
 7.206973769194261,  0.445346135530278, 100.458843645065031,  5.535309577059346
 4.211570985259399, 14.724628232363782,  5.788306009242071,  4.707881204346148
 5.044377326452332,  0.817611006553282,  5.177081835691671,  5.147302892339333
 3.157877454480472,  5.453051371039595, 84.303607686537887,  5.304946043104317
 8.234072281764341,  0.681443229603375, 28.216208732774241,  5.074440560251847
 7.102641786197227, 15.785798276532709, 66.092240705365327,  4.835206829364366
 8.691607621828517, 10.924123504494812, 96.671337497269320,  5.193129500073722
 5.869212608889588, 11.636152838114242, 92.636992580912903,  4.740326884608502
 2.790265407372213, 10.741501169184476, 49.691538290907317,  5.309674024322669
 6.797746885790287,  7.701698161066133, 75.427813247641296,  4.879922314235822
11.813444903623077, 11.054881738755739, 83.993950226055091,  5.124411800758143
 5.144866920180183,  9.806361972232853, 45.115604102480624,  5.144305603851789
12.063262107991047,  6.686537531275959, 110.918514373089991,  5.311264728566845
10.822673884375707,  1.783811207300876,  4.118775812104599,  4.910084045306953
14.837268859367365, 14.525749889434424, 63.341785424121348,  4.722928379474479
 7.973037028728559, 18.638922403027898,  0.517539388023588,  5.023555526238307
13.217188906639009, 16.501397383303221, 106.397998463958970,  5.115442062873210
 3.982793565772436, 14.639927142491439, 80.945330253360055,  4.620689377369997
 9.951687746722991,  8.797172084583226, 60.544601938844529,  4.876236477990818
16.687991791157305,  0.121055923687752, 65.045689157638904,  5.328248956400230
14.974014052832358,  2.421791609944031, 112.337293531084427,  5.386371672509189
14.126982089845603, 10.384160698446152, 37.684283076647716,  4.718474068466646
 4.712414622148659,  5.588646904367044, 26.346851498163257,  4.820557287911045
 2.240389510242867,  6.455156872531136, 107.609781340361820,  5.027192560162228
 4.107218355322793, 16.222200933827331, 20.887892852373614,  5.094709662159972
15.359248782522991, 13.956615318704399, 93.402455419898473,  5.279165782502379
 1.949432893676740,  7.581339170220791, 39.795137916951546,  5.213940348411531
13.637433370811264,  6.669504948629560, 71.031976209500669,  4.585829072772621
12.676842789086164,  9.142513370863462, 26.463568547946771,  5.130883915389891
