BANDS
8 8
NANOPARTICLES
cell(1), 18.739
cell(2), 18.739
cell(3), 117.120
 6.702760288566172, 14.715789216144891, 71.915476190343654,  5.340799641974833
15.757173233919971,  4.483024549379941, 26.271347375016553,  5.104431933244852
 8.587383223504929, 18.547849307532672, 114.367318744416821,  4.915644578126551
 6.796304978749446, 12.409236418554006, 43.750038753256014,  5.140505076248524
12.008693188633123, 14.069434212698733, 58.552487749471375,  5.263698803838983
15.473735606321140,  9.235488060786967,  9.081809077540509,  4.878999458721637
 1.269624139272205, 14.482663335315117, 68.501564653934992,  5.123271704457547
 4.855707864330228,  2.383287587975739, 52.442151001610085,  5.086980655921524
14.051383372723027,  9.539369009882762, 107.712624121647622,  4.938493880808324
 5.056813290584122, 14.829742743457601, 113.055347746022278,  5.663629213969956
12.517236871406444, 11.181880892781512, 23.011348357318429,  4.976048815376032
11.081514830191884, 18.257499899219464, 74.632581989971143,  5.015963314728708
 9.794336694238826,  8.620733561999957, 95.723762860096585,  4.984438553671581
 1.212670914543355, 10.326699733377430, 47.626994360092041,  5.305764807018056
17.101448833544911, 13.142149989504770,  0.688253077494898,  5.418375185734914
14.733488985692295, 11.964422418412545, 49.081379545917613,  5.272890858372472
 8.544579911847061, 13.471759671964232, 76.583756939071833,  4.989111940566743
17.339187615369539, 16.238644325827195, 30.095568323718947,  4.756015821669145
15.800536600240116, 17.754644911517673, 36.491933696971635,  4.986073857505484
 9.112134045764780,  2.899423750108533, 29.193430835729991,  5.262241965196241
 0.787067479733558,  7.506934809845013, 27.234714007950121,  4.747883092992019
 2.584165467478828,  8.707318066289721, 64.635789298083196,  4.785783415716193
10.959300093977877, 13.708816146991834, 95.428448154756822,  4.878185346861092
18.011277539928145,  3.471247560898584, 78.816721877855542,  5.058854131133098
14.652695479388580, 17.642102173691026, 50.543249384676770,  5.156184372508921
17.552888485726136,  0.206864715972867, 69.392710332233619,  5.195640825626798
 0.365588034595882, 12.587220463137399,  5.640921351883309,  5.256574678264032
 7.679779405208650,  2.595534186583356,  7.490865957014865,  5.212807860858582
 0.248658326054566, 11.132177390293394, 94.861651118594494,  5.291384045027868
18.166635552082511, 18.191889809964952,  9.468813846721440,  5.370544013500198
17.736627277344134,  7.150368494438766, 91.670419165641221,  5.059865066299712
13.349913230729490,  9.477637089928024, 55.942609236472784,  5.241292121909716
 6.945930653777878, 14.522771936006382, 58.481718740311386,  4.883258697598445
11.916546213384391,  8.003924706930368, 50.926167192619047,  5.123536099639320
15.624971674848219,  3.947093111042459, 10.393415023069887,  5.099865182394491
 7.062751556598739,  6.609349160455060, 102.784298875061168,  4.902697483286416
18.501363380849277,  4.132354296207284,  5.689721550397290,  5.191640218461838
 8.666282306355916,  2.957269129137988, 66.151526863713229,  5.185205493500543
 5.026466558561593,  2.037796747393283, 101.550980718282645,  5.305442347155816
 3.919567377846712,  1.731984310505917, 114.585567800558024,  5.141811803359241
 4.915627380639556, 12.498236125725509, 50.198936553410427,  4.700204087460983
 0.014987282298764, 10.426625248349756, 106.686927656864725,  4.815637023844906
17.841556860140773,  2.635963072112113, 83.467292418153278,  4.395517249572053
10.035707606071416,  5.079709538158877, 47.144182416171866,  5.124112057206349
17.199770290603563,  0.545165073866599, 17.355908176102197,  4.682910965603762
13.217783341372453, 15.737246872853001, 88.587948808719105,  5.537973736591764
 6.487569985611453, 18.149923724768044, 77.318680296039346,  5.300047155832235
18.622578601512558, 10.429633434360660, 54.000624671580418,  5.092559295558582
 6.222973868684186,  7.365429854513925, 113.067308410413645,  4.974853189716935
 4.624309479579570,  2.421016509446768, 20.437424556819188,  4.999099457948544
14.984858472942518,  9.340796512512775, 65.981074297750325,  5.176171140037726
 6.141482669345549, 16.209364562413949, 88.086461347077190,  5.272370109014562
15.125091538828501,  9.412793927021525, 26.803537227818289,  4.882161392977063
12.552792877059460,  9.230244928292889, 83.660508565615302,  5.293939223075578
 9.058300531682434, 16.831393884406275, 64.740861245402826,  4.957359442884266
 5.198740463136300, 14.684268455689416,  4.820029561735441,  5.403723913498518
 2.876013060538797,  5.299470407596919, 84.257168255155733,  4.973105166449613
10.331330134793358, 15.238473522494292, 18.845791147338655,  4.899280622179582
 9.758169836386511, 12.071438183027622,  4.481259640741497,  5.076341461384316
18.434249891335305,  5.984705701940406, 67.267315267047735,  4.730725565664724
 4.776891345250999,  9.502388524767603,  5.216734581227970,  5.024482510235544
16.795361011299942,  7.599625301862172, 50.425163834288711,  4.712127877891984
18.317930382695813, 12.548604771164380, 63.573423916738697,  5.197330801295934
11.270025890200362, 10.436422307055212, 18.279077015595124,  4.899794365758432
13.402973849732973, 14.183959882346080, 63.608586344845619,  5.161665006644418
16.838994145622721,  8.187159386281415, 116.158035879609415,  4.827198327842559
 4.801360103183240,  4.601590613325231,  3.524460437386658,  5.344735980489174
 0.331234009694125, 14.564557853242739, 50.751519669773643,  5.369729273266206
 0.592925407844534,  8.235113950430518,  3.106379046833564,  4.633973755446279
11.218362201158241, 11.657201295886583,  9.235378636847310,  4.886085479148403
10.547742443788616, 18.117687263263559, 69.513969908638629,  5.279428263189868
 2.796672755902396, 12.870139525265511, 99.117049186184687,  5.205832366741096
 2.864927549129934,  0.655471151888123, 80.694527266776817,  4.800844886252701
 5.693705190922914, 11.220933621698647, 88.348062187300570,  4.676652922523079
 6.439129565609824, 11.349263319974741, 17.739324763891556,  4.919839911142559
17.673495217897077, 11.866646278440133, 79.515082937584722,  5.040822442699707
 4.265099909178658, 13.695190079179916, 79.512686845036455,  4.724713095677421
 1.736832769205946,  8.584475716041277, 87.768519484034357,  4.895267467720216
16.709144775381890,  0.173932805879000, 41.417981959769307,  5.291051988028713
 4.152307835926855, 10.866732312680659, 103.793380935290443,  5.301317064799570
 8.472771524905927,  3.647884362788248, 17.526425597696988,  4.954107798192206
 8.682103706282755, 12.159389580300761, 62.730688116044142,  5.205691477597614
14.980814521975997,  4.094016184983998, 100.303026524366828,  4.898309899029183
 0.884870733807109, 14.815409813712991, 41.629391443722788,  4.721445780249935
10.383522550958780,  5.126655732244644, 38.909234869341951,  4.779742099916854
 5.231801465576335,  6.723865969035299, 73.819071445471053,  5.246187456665330
 6.534324475385020,  6.991585670319044, 35.406315526860254,  5.077019550824565
11.341490158394596, 15.933113021534819, 23.832478070734421,  4.931742651569246
12.721402492360269, 13.912674141992769, 53.427802319644186,  5.029532447362521
10.734015219645748,  5.596752247335749, 86.711732683675592,  4.859569696222268
 1.935470547338261, 16.945306114981364, 26.351187459295343,  5.145280375611101
 3.881453544176536,  9.530190159875854, 30.293546445866554,  4.842784507926683
 7.689575913017896, 17.374099499066748, 92.674863387254234,  4.628785542200920
 6.871464660851749,  3.837477008035397, 24.673411518896462,  4.998014051079686
17.086841192805188, 10.972919181727345, 70.018195516468339,  4.486167277051639
 4.804582684171736, 13.030289974568605, 84.140391657330568,  4.654436801850682
 0.431327381013341, 16.356615194492623, 14.147546356356582,  4.854064008145736
10.943820986638137,  4.627912312082894, 33.884269162218253,  5.376638760842264
10.505908546380651, 18.668687402258232, 96.530203787072523,  5.200275430876173
11.382896373556433,  0.852966248685365, 37.170014330274007,  4.659554877736112
13.447965527855969, 18.573684432100713, 55.662543277086904,  5.386370333927129
 1.806669213492001,  0.524826660887021, 59.996315076851111,  4.812350660368930
17.502182905355500,  7.924344972932518, 62.034903943041847,  4.588594930503322
 1.090422420048963, 18.475883435521279, 33.657942515906633,  4.967434701490065
 2.430161386484926, 17.413652884028171, 72.731839518463914,  4.888418642021406
10.401842621559723,  2.195348971220119, 101.190833174920215,  5.162536471443158
11.353674762369414, 17.895926726965151, 41.748956361021804,  5.090973879262843
16.014112957232022, 14.251853529550997, 108.614425468858684,  5.340633833260871
 4.570670458109884, 15.332575480951325, 62.858682372212492,  5.179539663711566
 5.335889815129302,  0.868130535449333, 96.307470562199029,  5.111920798217837
 1.854674725322214,  3.211609802567811, 24.761175906105564,  5.108656851500156
14.789106378712443, 11.293445682526885, 112.799218573431247,  5.163427814069680
12.839682618053471,  8.833832821666924, 70.637725820138655,  5.103660247732048
16.791902933785273, 15.905530783124654, 45.944650280876928,  5.561540772594260
 4.416751991984507,  8.156764286591210, 55.947492418373876,  5.041571928447620
 9.449451988963318,  7.215937582653228, 79.950466583423108,  5.180803936482400
16.383706194388207,  6.938096171524303, 104.131201199829249,  5.043793698793334
18.677952591317236,  0.732216924574131, 53.474345113215726,  5.447677047532483
 4.450639721060535, 18.441371435349151, 10.975673792741091,  5.073381720006964
 9.246139298788957,  3.810410177155808, 111.734209088688843,  4.683505404200859
11.866099985626384, 13.630418801059426, 44.833240821837485,  5.480176677622127
11.702358790692564,  6.065671297990876, 20.775429126449907,  5.150743545209274
15.689915327507187,  2.856106872478339, 21.423153347417440,  5.114703261986180
15.286117580291554,  2.497557327173221,  2.208679329145835,  4.524350864197057
18.000056939892524,  6.576524266753214, 72.165959202374040,  5.167308278504041
11.056844747253400,  9.495868326859233, 36.182927976581936,  5.377903193144239
 9.560184898567677, 13.024670531976543, 85.849320602686916,  5.074110423415328
15.137667949658356, 12.798751532330090, 35.504099398526343,  5.205330486645833
12.813760645973671,  5.849860846213608, 91.221964444053143,  5.040654095749921
16.426964968703256,  6.989863403664676, 96.541397593031519,  5.001304966148566
 2.902641658335068,  0.519890380271353, 43.634620347749660,  5.303551559145688
 8.958013521575412,  3.894058474046493, 76.044376356055380,  5.112959847443745
14.008024848534975, 14.046762292041162, 27.496221474890874,  4.742405620746666
 2.918237643462149,  2.586865381699329, 75.581102633947467,  4.836880576356328
 2.963153818178933,  3.244199455064225, 70.506599341496468,  5.327358898064743
 2.246851868193974, 16.411649962130465,  0.064640976856741,  4.782987045453732
17.542829338637191,  9.857437902702205, 100.345597843671996,  4.779994335345506
 0.761582059772704,  6.196927739088570, 31.820771459335678,  4.781179174610084
13.467309232531301,  5.091747754428005, 74.021743580147231,  5.052380775791038
 4.059239839784155,  8.385560537599225, 97.035693058476724,  4.996584776255260
 6.939480121568720,  5.081033631302266, 58.667066922361911,  4.570280659523553
 2.231645656218257,  0.257804021303258, 38.500653654691966,  5.037502803478663
13.564378693406486,  9.433460112086330, 13.810990147202817,  5.317969826559783
 9.787469446162808,  1.043541102315986, 88.978513519933884,  5.089044998262445
16.527702477204844,  0.917028171673867, 74.514419538241157,  5.344948195468294
 7.022385618996778, 14.576929894192888, 107.967813968251505,  5.252437761033839
 0.982022611747025,  2.375054327885587,  1.263510939450035,  4.540891497296053
 3.064529229137069, 13.836980533261290, 91.477366044220616,  5.028165403460100
14.904672283658597,  4.752687340678174, 54.413049133230103,  5.147463904078851
14.028963930999584, 10.248351822189822, 93.491769833841957,  5.126461153228534
18.190000267552989,  2.430797259427304, 93.126518979931532,  4.798678052566797
 5.715182505455972,  2.510658940752607, 47.440911329197618,  4.941395689675281
 2.758019261479789,  5.579274416064824, 60.889456512396471,  4.944633603718994
 2.667300542449190,  0.427972552116079, 85.558764754083342,  4.944122734757374
 1.778025461882843, 14.650701718933608, 58.860762053469728,  4.660471141972746
 0.956701964561366,  0.023110212247334, 110.396938162400119,  5.127325447416559
 8.666529638188948, 10.457082090393124, 47.988188560637212,  4.911733530724641
 6.940619920491176,  4.816203745660326, 107.492408395854895,  5.157924925567171
 9.065698114711731, 10.443261509400138, 105.091309168522244,  4.896655036456794
 1.023107133843308,  3.314099086284888, 97.840713215419356,  5.258717395816475
 5.432095866235993, 16.519121145185125, 35.273615823565777,  5.085755183391194
10.160739525268799,  8.879804640558461, 75.082273867978699,  5.187272631662756
 8.476903586530844, 11.047190152961599, 53.333744536320332,  5.213457789778545
 1.152628019439601, 14.355965647586068, 18.464485351912987,  4.770126580209297
14.215178953296762,  6.878615898059116, 30.772837282189599,  4.706429672519113
 6.729898484757652,  9.714039405987963,  9.660654752356033,  4.673481133361524
 9.671847556775274, 12.800497331638658, 13.775804386232236,  4.953897872348644
10.670046053865551,  6.732328269131792, 10.130267799339862,  5.173463798220889
11.660985177150986,  0.464345212292967, 60.944378036192148,  5.398313396207891
 7.742136633058329, 10.662903166573191, 99.891047947066525,  5.148360425042292
 7.039405799719733,  8.268967217395415, 84.482531648092035,  5.261668052351750
 7.491680920988506,  4.989738516838959, 98.172284256041650,  4.909851778824652
12.742468580732810,  6.479344086037381,  1.402802966996098,  5.061463836250828
16.037652126385449,  7.574467026947875, 22.529023294371047,  4.597674560610812
13.958626416943179, 14.297313652832230, 83.303091501002598,  5.232933513208958
15.880756734951177,  6.873557061872960, 86.944475356989486,  5.039901187499295
 8.704261368124170,  9.568393962622707, 58.272695840692776,  5.101434000258547
16.752423756826875,  2.357781005407642, 45.960209826976637,  4.780317054196916
17.072793646961443, 13.359077309287287, 23.845333319696476,  4.777682001705523
18.079647551163301,  7.291788757786906, 13.070148361219955,  4.773985855957048
16.375096550736963, 10.980306396454818, 43.879897147816152,  5.124536991840033
 5.532403479008431, 16.254149111912302, 19.510436203993944,  4.998268222772274
13.031199040681281,  3.876968636507822, 42.964499515480355,  5.215744638589791
 4.341902224911615,  4.662012570741520, 28.877807676323506,  4.927785015450738
16.565261509473810,  2.571516235033608, 58.457533880755157,  4.616522598136041
 4.062093711328141, 12.972955503155712, 54.881315546461906,  4.821117789560249
 9.216696255879416, 18.715735536801962, 33.165945604342880,  4.586738433897087
17.208318495389037, 11.974913723897231, 89.732938346111382,  5.303391360753347
 3.603096226339115,  0.705634381357732, 91.144089269723978,  4.953988032271243
17.121294018250914, 14.963392708517242, 55.489876219500879,  4.904606292362436
14.448270775193427,  2.204801614966875, 87.693141575341826,  4.794240946159383
14.421648188859788,  7.088202498254991, 78.599587278850152,  5.116171223588810
13.581964932000760,  1.481961053643606, 106.234792475077995,  5.000354573357288
17.890802541474656, 18.022763383694532, 105.884426823635650,  4.697382736684784
13.514842051390740,  0.980154912007383, 92.438942067722223,  5.079798792436805
 1.148403963913549,  5.741143944857972, 20.654545540528076,  4.616878184842427
 2.163397341181145,  9.804483042656106, 35.073113987451862,  5.328137843174853
14.278762668488659, 14.493505124764935,  6.390148285365289,  5.198770228861020
 7.889874268079561,  4.152770684297748, 116.517125475352458,  4.872553664183958
 8.577068347821658,  7.891405590601059, 30.482582777771192,  5.094806408586917
 6.937453883640494,  7.306833447331511, 62.878838582935217,  4.924223160236841
15.918337684055290, 13.862201040473037, 11.143629094538825,  4.917699897486978
 6.983243625188063, 11.825865859429815, 33.586314288853337,  5.271742977840105
15.041858928042393, 18.127028796256564, 101.908279737359223,  5.045576339862673
 9.958172902234930, 14.940659852025806, 49.460580033304332,  4.842872133792263
 2.871357467624486,  9.468141282947423, 81.508123282399595,  5.003937109724662
 8.550534065391467,  8.409268371318936, 90.923745355452311,  4.837835106552641
 5.087538868870928, 18.331432456688923, 30.356895548913986,  5.404103900152498
11.918449272722045, 13.681515976897131, 72.370594657744377,  5.321552768956792
 0.919688878366821, 12.171302456357086, 27.544420957058275,  4.552805849043886
15.958112320748478,  3.024793835429354, 33.359727217305164,  5.187812657640290
 5.703135889931178, 17.092913442370961, 49.831024613837094,  4.647306971252759
11.337190747345611, 12.940218738741542, 109.713473832017257,  4.614721072012070
16.516155106401161, 17.986827991307781, 116.112978416272185,  4.909523727034019
15.977905501398485, 18.138983137073541, 80.752525668996299,  4.832050358434162
 2.224371662796864, 13.954824863278159, 108.870072443199703,  4.582184859081828
18.114171953187959, 11.711265860927513, 14.899869430463276,  4.788915213601074
 7.827924334376656,  2.905354794171740, 42.703890758632049,  5.354642474191957
12.332296852854379,  0.363510624574456, 46.423310883984556,  4.735988451554403
 2.196431030754133, 10.320933602931280, 113.363064863448585,  5.032246233468340
11.377086162988826,  1.827149905819164, 10.443454427852140,  4.373828862134682
 7.957370085161251,  9.915180165602971, 70.667386822609942,  4.890444538824661
17.850644514562099, 17.396887477979419,  3.880917517461303,  5.283995721241174
 9.245564936636535,  2.347152435380400, 80.668959467678292,  4.652920955717373
 8.721623856643575,  8.040246402753224, 14.809552501170691,  4.953622624160105
 8.413168577203241,  3.821877464799018, 93.220411794625321,  5.417295831256554
16.891045181395697, 17.520537260586565, 85.578560971270207,  4.595420600853503
 0.839588510498008, 15.395543022249530, 82.377552498166523,  4.763856555102168
17.644673936644431, 13.867999883158898, 103.281668711979947,  5.117961845176553
 2.928739675481072,  9.837224973785281, 70.463727441175266,  4.994495212635193
 6.891479010402414, 17.075363706895953, 82.396237676936863,  5.092886127992051
 4.989875093054589, 12.566411784666853, 38.487489498931971,  5.116364885176992
 9.556740822303906, 17.997012670725223, 14.268625908896928,  5.476955938509761
17.519405908728466,  7.017685450670935, 82.379191873012445,  4.654629169700315
 6.902795680092194,  8.257020667853309, 40.243976340666208,  4.945274619326142
17.695207938898061,  3.412049900145233, 62.843764713095787,  4.583756541348272
17.690086720317343,  6.231672394015416, 42.938075080254784,  4.827725441306689
 2.922710627781479, 12.452600054053571, 74.872829207105042,  5.242459992877166
 3.195338325056774,  1.780030955709921, 106.276330024734747,  4.773251291094147
 5.187407545765740,  5.129102279847253, 89.121780192744652,  5.216556594114409
 9.777631539817923, 16.897520251819302,  5.997470508877253,  5.036189900864411
 4.845394821740777,  0.711025268455275, 15.825415231398933,  4.840834832317517
17.242260631272288, 14.774528350022592, 72.482534690402119,  4.575291338271161
 3.760078589579058,  9.106685108065909, 92.035753276745510,  4.567888594769609
 0.892524948942427, 14.644453707488930, 36.658560785821884,  4.772530835671328
 5.834707007718072,  9.676996587455420, 77.711046437849063,  4.598672174428833
 5.652865859151287,  6.673386184624268, 67.796159021768787,  4.913839338474849
10.197440976966957, 12.339972473918488, 40.220186284886864,  4.639413355408813
 3.485791307495274,  4.832258036889404, 93.795706238795077,  4.684380985509022
 0.832396857135409,  2.567294588221933, 13.481881019171995,  5.166666082730421
 8.955350638609071,  0.473930009635010, 21.055292751035402,  4.557958040833576
 3.252281823712903,  0.514393186619830,  6.201453383850590,  4.904062913289168
 3.767905787889844,  9.945365287204716, 13.614897011689759,  4.996661274975850
 2.910158780860897,  4.659155782903460, 110.530594666665252,  4.935673399188612
 7.879656366010895, 17.144792828320188, 45.450709577971992,  5.135430227252998
 2.389656150642162, 10.474609897308357, 42.759953862364647,  4.683721070063712
15.863531845081262,  7.746582019703308, 35.292711364546555,  4.981633349189789
 1.117136540432078,  7.927020437942851, 76.904675945789151,  5.315112608667085
12.534622744615776,  0.981999503357932, 18.083925900193336,  4.795176184836054
14.400256837980988,  7.233297603054756, 46.382180074941203,  4.714049751129530
 6.915798828000589,  0.939419065447257, 72.574264683967996,  4.679328579192189
 5.175523745356242, 17.858718425726156, 67.918038706208634,  5.265590561381383
12.956623249716218,  9.588655939412172, 61.199555368522908,  5.216803749419911
 9.243469789252019, 13.233033347874704, 90.869855827170014,  4.906205014538967
13.365804684094391,  4.156321578697847, 82.685946528971456,  5.159455103398490
14.076046686306332,  3.757344309410461, 49.643409368211550,  4.735393167365139
 5.107447004518307, 14.744029058679555, 14.357830396345406,  5.026291009679627
 8.330202158282848, 11.909650381399636, 81.210122898861741,  4.780303542095598
 7.090463966769674,  2.691369220709493, 85.010968070265079,  5.052562172403280
13.191781769741292,  2.299764690165752, 78.075507260113724,  4.780806698441077
14.965072439675557, 16.177886216640847, 20.435590212856070,  5.000918150669249
13.947403885610306,  8.212926811508428, 40.348348233810697,  5.075381011111460
 6.287892056246870, 18.713851197249948,  1.669094940745735,  5.055444507650152
 9.813428292698093, 16.442315250839062, 28.774212167865105,  5.250864988282230
 8.525468508147938,  0.965244447688046, 56.835524172535123,  4.981485173673923
17.745334600797701,  3.725216228689942, 107.648427888441972,  4.860460598861456
 8.064655620435493, 15.990939216312123, 53.736415968305614,  4.735251681998642
 3.173529064764950,  3.118083357632607, 65.265763477472063,  5.122644493007560
 1.681675823547353,  9.055871712661730,  9.147246214845305,  5.019893967258145
 3.346563919683949, 15.916098206005646, 104.622269020526787,  5.013077665510059
 9.241700898454374,  6.985339734544503,  5.138663870757484,  5.222745985052210
11.797277098645770, 14.722039313182433, 100.175479512317679,  4.970995499559267
10.786909450877513, 17.672768031202789, 109.462440923870673,  4.925886160577313
 1.510512658989990,  5.168550790450402, 47.972054719337102,  5.049693742282999
 6.471082778261509, 17.032261311281999, 40.511241132534735,  5.118311908392696
 0.161189560232170,  2.035932123222722, 29.351698280599866,  4.949985220734178
11.558857878261810,  2.079748120821915, 24.745460439100800,  5.014251052237422
14.919128027464144, 14.772161199160541, 68.377307427588832,  4.856537019850498
12.234871301332980, 11.334913136106993,  0.108635007907010,  5.026701565420296
 3.268946368129228,  4.318070524498610,  9.377831527894877,  4.977548850196248
 5.535065463049655, 13.610110626280777, 27.887563663349638,  5.129863368148436
10.186348455980298, 15.005012902369977, 36.179238180719423,  5.006958574058105
14.078578443195893, 14.340273666260561, 15.739893874014987,  4.988739765049251
14.001831206849234,  0.102791106291426, 65.663337842181917,  5.080112283907364
14.642172243252659, 14.274208391580105, 40.392587449663353,  5.054115480358592
 4.749026283597765,  9.836921306567936, 108.873080971020528,  5.073110109458361
10.116702355758775,  8.206356332919141, 66.502902804613512,  4.871591684085748
 5.596131330086059,  8.622316230410238, 25.708945774776147,  5.113160365777567
16.502008728362494, 14.289942319985716, 98.254395654863757,  5.219864973008425
 0.015725699041370,  2.828859592438504, 102.953016310242077,  4.661532863741890
17.647410035568793,  7.680877462454696, 110.619529092001940,  5.027069550976585
12.681048085866427, 11.828193037827099, 78.955536613343142,  5.005579333531728
17.298884952240027, 10.594319983286068, 31.408119110400662,  5.026120906366919
11.750524112665927,  7.390010992538886, 113.724869310096906,  4.897827608815769
17.998640513165284, 17.488332637981184, 90.071250001786154,  4.658679145373256
12.234932652493420, 15.403669123242853, 105.153329646465863,  5.067757517842650
 7.800877816306788, 14.633203625739791, 102.995535537966205,  4.806768246542688
12.798028374502698,  2.598166843738052, 115.098328011868091,  5.288901180813668
 0.448409967807893,  3.595506566230459, 88.557210645494933,  4.792768806656781
13.519157808813665, 10.932046275671759, 102.947705813443349,  5.030978230208344
17.837012614988581,  3.612803684808022, 113.806234683691940,  5.305980401887845
14.018882205300462,  0.916372271912884,  6.596504645208832,  5.133222398347231
12.535815996703354, 10.165160327208598, 88.689698855048164,  4.928472079553796
10.723917447360956,  7.032863292562477, 25.851650001570338,  5.253633751623722
 3.376508745189969, 11.721031261227248,  0.929972416844949,  5.013827641989907
 6.710050624701983,  2.273627428640129, 37.282217807631085,  5.073731509684239
14.973688853565923,  9.978176943732658,  4.192673580892036,  4.934537995429023
 1.964245707321934,  9.691531718987198, 18.325382284197790,  4.694166849812870
12.403553874476387,  4.333138951695009, 14.388007784077008,  5.186145323862545
15.783974799055198, 18.005820162339933, 25.107028430433839,  5.163162224244670
 7.198490427792773,  3.742818214998483, 12.569489351090326,  5.204885651229624
 2.844352459386767, 14.147391905751137, 22.661707812824751,  4.283466197447678
16.011823405199237,  6.411151212821247, 17.603858197730869,  5.336081669815909
 2.296977192897971, 13.922998480342439, 10.265522126588943,  5.033721285709745
15.645515886202501, 10.589266909435722, 74.792890818669605,  5.504526114148393
 7.478661841257813, 12.569262163384682, 22.694545981539950,  5.489622144948835
10.345591120898252,  8.738662845582477, 43.732667642993754,  4.859410590051780
18.009720379136493, 10.829855004852224, 39.152356088250706,  4.880355113061770
 9.306672591915683,  5.010265033742444, 70.946322580936467,  5.288292486515285
 2.521510083277950, 13.973824415775146, 31.993605775947703,  5.046681218586039
11.229452495606900,  7.148664763703069, 100.373760605987215,  4.772690867037306
 5.546014766456589,  7.277520014876375, 45.226322639284227,  5.565954646527087
 8.110956937146049,  0.246712062794760, 105.396860455933748,  5.141567509208473
12.993294299677311,  4.912780358260973, 63.765311497881072,  5.441446461426126
13.251845141455778, 10.689023944169222, 98.207285881989918,  4.459888893922091
 3.298699167520466,  4.948566174223008, 41.069879164000596,  4.958314387480530
 1.514924121590751,  0.264654189596251, 48.544488313458281,  4.822025029052509
 7.110013800945835, 15.362632113227480, 98.254028186636319,  4.878375999166654
 6.723172547534775, 17.517525896335037, 24.872872861757934,  4.905598462609647
18.509318928556205, 14.676660032854969, 113.080044704128738,  4.898517202654540
 6.580511809066575,  7.201275902437656, 20.759719610090961,  5.337292802817687
 7.238069158848182, 14.515706993220796,  9.591526230533434,  4.938638285064002
14.998644943247808,  3.797481022140231, 38.260227315476605,  4.911847937932595
 4.161415398278940, 10.654874553782648, 60.365153213782044,  5.117068234929623
16.245263767171775, 16.713637803802435, 60.124375656429990,  5.156488697951210
14.922548818131276,  0.657484332239042, 111.071314854664010,  4.591265315648831
 3.940576339663355,  5.623780680116568, 16.314605659531935,  5.196359899692652
 0.580407511393374, 16.316098120675008, 77.479399294433918,  5.186897421005130
 1.095293845164949, 16.861099031687022, 95.138390511370616,  5.250904485866297
10.492207199785412,  2.322813036367395,  3.205330436448250,  5.047658623395223
16.079595469271201, 11.333196936536059, 19.416780037855151,  5.144373212590970
10.444700003667320, 12.992135191157208, 67.519491734416420,  4.909996169854084
 8.967285491127079,  5.324579664003914, 54.229033743214998,  5.198455640567240
 7.700621410121641,  9.029488923536688,  0.610844569067328,  5.178725951515838
 6.408151617281048, 12.073760591401152, 94.702067654494954,  4.898544069903114
 9.494162768991149,  8.578230030913085, 109.575223824990857,  4.842518450111011
13.798697543933208,  1.080732959187977, 29.301066296419698,  4.793674164582766
12.561064269005627, 16.246839249752185,  1.751717453036258,  5.194667160732291
 6.049754138035096,  0.479627293214391, 110.094967580462168,  5.108482634205156
 9.814197512550601,  1.186644888888491, 50.915021710516129,  5.538364666124027
 5.405659595093784,  7.424859802335356, 50.786568088424886,  5.557507925079142
15.357180937478565, 15.124736310546735, 93.355195837735565,  4.979688528534915
18.237926934106863,  6.885442159701849, 57.468419692331487,  4.840656319493496
17.035386495839159, 11.390342644912982, 58.836181525111350,  4.874981422806684
14.631300962033034, 15.358156854068641, 76.264082934023236,  4.678684961778599
 2.352362242777520,  6.712048118907976, 101.388136893259428,  4.918848238210845
11.435904113585924,  5.992379563514476, 105.214492699632359,  5.178936563272921
 3.207389783891995,  3.479660923331978, 56.745395122507844,  4.385798086504767
11.844086431619496,  5.213701221574703, 58.568715387363603,  5.212624426569836
 5.529701225795566, 12.191553455287099, 66.822452734177773,  5.113150662452747
 4.108066938563985,  3.375734081784302, 33.406833314577497,  4.498137481098893
 6.481086117680516,  1.280814565693352, 61.711683782324059,  5.200590657574616
 3.217842536882605, 14.892678733355517, 46.337330959319864,  4.982266651243419
 0.185496854634906, 17.669054118490244, 64.499700197377237,  5.277454349396551
13.497657647817951,  5.037391191083686, 109.759272334583784,  4.959738992621484
12.716159143912204, 15.862154838352236, 113.692954529529345,  5.025941181099684
13.907749099144034,  5.780453241940214,  6.217344281698831,  4.625099510877138
 8.124755088819104, 14.263839903586375,  0.262860177890712,  4.953214284766178
 1.113073882534285, 17.562091122123093, 100.402052693960229,  5.074002428974129
 0.720823281203043, 18.171002553857150, 21.542263678687366,  5.071168425386820
 4.725724634932830,  5.139026076710642, 79.528995130019084,  5.172882683647042
 0.920201849417344,  4.773608647770608, 36.669550587780890,  5.041981537581517
12.269171973700855,  4.535996736484764, 96.395181855187019,  4.646748814677705
 2.627291094762137,  6.338338636871447, 116.325941838871501,  4.926965320326849
17.937489384547572, 11.323053995809209, 84.523102843406818,  4.995363171836781
11.183734970671500, 16.681566057181840, 79.559857054043917,  5.220497550083574
 1.491518077792884,  9.803244941424047, 23.077621094871294,  4.852214091222059
11.916845564045930, 16.169437418538124, 10.275643129161574,  4.475970099147934
11.309296047943896, 18.553853924546637, 84.331261196083275,  4.994790808532716
 8.991714638558040, 11.390913401967891, 113.505904032460933,  4.823655187690314
 1.273907032807976,  5.620341813463789, 53.227034047074461,  4.694612146737211
 9.952789589977996, 11.758316533328895, 27.022517098572376,  4.599272429139100
14.093753164842902,  4.106694098789760, 68.936812288940359,  5.245443019040128
 4.089596066202787, 17.702503435024084, 56.000853366111599,  4.892323136979257
13.189268585541448, 16.294010571716850, 32.498364371906888,  4.803028007439936
 2.565800592175817,  6.466460594584379, 106.139931133156580,  4.572078441219160
15.585679940896334,  0.431041191313972, 97.011517295212400,  5.016491085282190
 1.547153587903934, 14.732796178797097, 86.980487341507299,  4.626724099454553
12.230723227751206, 11.440658041534421, 31.379603373360755,  5.245447975648811
14.670216363283725, 18.653266643524304, 13.281419437204800,  4.987620964667155
