BANDS
8 8
NANOPARTICLES
cell(1), 18.745
cell(2), 18.745
cell(3), 117.155
 4.753717988185231,  4.545776521310378, 25.539080247021843,  5.181211832669117
 4.738485796149809,  0.330039425039644, 56.531840994475942,  4.983597807177170
 3.761643829736003,  6.860164462478627, 17.034097445965347,  4.700429757769021
10.841401219003746,  7.411963239523410, 41.232110971059299,  4.899727105292458
 0.799885877951324, 12.209761326509106, 86.341627705635759,  5.305729728614589
 8.029938913100990, 15.734228699319869, 72.490983694513488,  5.096713614909285
16.665186689649587,  9.013801314065187, 31.846183459410316,  5.070855583968772
 7.717840783318358, 13.549997936893412, 102.785167137723974,  5.093423916155713
16.451765464968815,  9.027709227742301, 109.200235852275952,  4.984461087579894
13.210370899815844,  2.047863792471221, 104.400725657889424,  5.158043226198207
 3.825610721644018, 18.275055095377105, 96.292762372581521,  5.135891186209744
15.788263789030504, 13.399103520688490,  4.228092774712024,  5.242301985192556
16.944197464816060,  7.856157304980340, 78.887811001241090,  4.600088373337507
 3.950284976001474, 18.647897830054578,  9.879244880286844,  5.220596421887616
 5.776820425227015,  6.891726315322237, 11.110364792710108,  5.283089553833943
15.720208599077340, 17.259769408068202, 51.032275853183585,  4.951569855839973
 5.237710138698092,  8.998121901423112, 84.273832156285053,  5.205730132737786
 6.830159720174055,  8.822866148173812, 60.151577243220373,  5.453506064558840
14.063488415521128,  6.047734508923194, 64.058377934250998,  4.897041717955820
17.266997822543306, 13.246450858522545, 62.054222045846288,  5.161382329331538
12.556418137273576, 10.831291533964794, 62.700190829592017,  5.492009852306820
 0.515358331052889,  5.807247422707242, 38.469039375302238,  4.886392544498032
10.678385858963150, 11.587689809198130, 15.678905705436822,  5.206478883762004
 9.563245776902946, 10.004288014925411, 81.194309268056060,  5.203693241700473
 0.173475826670070, 15.280882971755371, 40.252419763013599,  4.527721215746912
 5.951323950956296, 10.199902247723877, 65.167825797102921,  4.923044002536501
18.677411186975963,  5.220314681290379, 47.895541917882412,  5.015007665770622
11.512617302553400,  6.517068419976476, 59.835273468549943,  4.983130945772927
 0.870619267499694, 10.420019179590190, 40.152763070419176,  4.947951791233603
12.992476041095681,  4.254721108687549, 12.487023890135511,  4.599594406985882
 9.248358463183484,  8.821828761752407, 101.805187324782139,  5.016969686981454
18.538205271091272, 17.762034816917055, 16.636672686196526,  4.907074504273797
12.402162299412421,  5.435443211910269, 81.749762472117723,  5.116287631680193
 3.800932476431331,  0.940401832215514, 116.374462864989425,  5.404905288254374
12.112275891942518,  1.355744539733651, 33.409206364255127,  5.386739036152280
 3.498798631269385, 16.607550376817144, 19.659442221255571,  4.829225086389383
 7.734014259781368, 10.324525577797575,  2.250123042193837,  5.028358233999536
10.728098250674305,  1.400038405162523, 19.972945892072353,  5.201012893936501
 4.033268182401128,  7.690767209548937, 47.201634895129224,  4.653242801122994
 1.672573460665504,  4.581651609659946,  8.410654788008607,  5.572085265921613
17.173560439932086, 14.222195505965949, 69.436745150104329,  4.557921201660529
14.137646740024136,  7.348428415139158, 105.180716165341906,  4.758210453731483
 1.567978090085146,  8.595600674259567, 51.325401440622656,  5.122695774340287
16.258479572885051,  6.215888505303895, 68.391718501304581,  4.817996823295894
 1.527633152684853,  7.656382046255805, 100.497005409023515,  5.033646804629587
 4.274955363789415,  8.716256493300834, 55.696188884404478,  4.817600994845283
 3.391979276654838,  3.254306387151400, 13.807133378077980,  4.946498554176627
16.729888828751712,  6.662475675971359, 11.244486228412905,  4.609775574705925
11.723161145842438, 12.678556034422304, 99.820658973320803,  4.967302254364022
 3.450164929937261, 17.810244164900922, 37.641159838569322,  4.779371411959366
14.416582771596627, 11.936643305707621, 79.988160322092909,  5.112823546037340
 5.456502252580061, 13.083301614489285, 57.527589481655177,  4.922387376670099
11.946421153561891,  6.459806324817208, 32.053229385657147,  5.097765710596664
 8.041334437595868, 11.463486654144935, 107.223826830612126,  4.731442607861133
11.844371586216278,  2.325139352584199,  8.191404784938058,  5.083095329038271
 6.928442478543174,  6.093155398178689, 20.574442895690808,  4.921903085034277
 6.030312783659435, 17.974207913017899, 61.383800916594829,  4.779055018924789
14.225429616189036,  1.106946550818488, 63.807502146224287,  4.990572761808092
 5.113324323987316, 18.113309211380177, 101.507448239420611,  5.602810914749648
15.266900714017464,  3.514437878724320,  4.728376774153900,  4.915273506766305
 6.962381566983373,  6.616663344735889, 93.052450090576926,  5.258012499944059
18.448236178195199, 11.710579893375391, 91.316081559951428,  4.929391917772110
 9.465807918157420,  6.436541149070194, 106.182426710099989,  4.959569334613854
15.490961446253241, 16.974474464919428,  0.595331404065303,  4.962808447440393
17.528311259508722, 18.391339757578724, 105.775997360150214,  5.089087879755712
 5.923390232446618,  8.315270013359429, 97.943354388695099,  5.212310649338912
 8.243372844859381,  1.485731476930270, 105.200721122543641,  4.964975723065074
 8.175049882979202,  9.428648084879459, 45.075415999423356,  5.283369105221540
15.855883832270168,  8.550562825979787, 59.570099863171791,  4.619241407682096
13.567111585257395,  4.370677684248729, 113.130090902513871,  4.858329011678735
10.589741290436139, 17.605987283581598, 101.094154357079177,  5.385839956122759
16.508436149307013,  1.345632297091018, 27.540981137610785,  5.334273049959875
15.815249503759118, 18.463121176585656, 42.062780702260952,  5.056811559330192
 2.562375725903716, 16.456564076320422, 68.928306908532420,  4.860789174198409
11.573602068783929, 14.361579589454099, 95.152763373637114,  4.237232448120951
12.322307488852690,  3.042433091872829, 43.168710992852382,  4.812396434560378
17.864127333209314,  2.433184505877744, 88.068694281724049,  5.076991722904925
 9.198799001973617,  2.488432645763829, 113.957533466043515,  4.785702250608476
14.880269014278067,  6.501762546286843, 28.116243857932798,  4.584811519031875
15.965562567191890, 13.696720990678269, 107.213486745797695,  5.207149813530394
11.624362399489534,  8.439459748978980, 68.031414612963133,  4.764879325969461
 5.215706819059256, 17.648499805039762,  5.015497749326761,  5.003288164118246
 4.064471152491703, 16.230471693707862, 76.932658506683296,  5.188790127964804
 9.493158369129272,  3.923152439227708, 24.108549325859389,  4.780360694540932
 8.512618907598856,  8.315345004400417,  6.884810850418678,  5.141320434755067
12.597399885039257,  8.892753278390495, 11.933639430770329,  4.774346459141773
16.552846157821737, 15.797923752664738, 24.766411810949002,  4.881087418576832
 9.794058388128921, 12.300322253167064, 39.913113799165892,  5.429927224950307
 7.583691985939672,  3.169322839288157, 30.853812724852695,  4.375697913882981
15.632388033878430, 10.655451403483591, 66.795633841836903,  4.682320929492360
 2.442798042484763,  9.858654233497511,  8.468461407279833,  5.089438414333631
 3.580147627297016,  1.018214439929002, 29.251637170836446,  5.261078617383638
17.412100014024336, 10.881982473020955, 117.132746760048278,  5.149096132958665
11.247156222869943, 16.343844749978164, 106.084337306914264,  4.990371979522553
11.801518717303106,  1.510616538836897, 59.414864681820099,  5.072765194405160
 1.963991452819487, 11.728355754937626, 30.434400546289911,  4.810120636150240
 1.880911232701522, 18.306695188430719, 51.798045500557897,  5.161841847958963
 5.470007261722426,  1.054667127253547, 70.978646633630419,  4.860863199035572
13.477100943109983, 16.988888546447914, 46.571460065018826,  5.000605380740966
14.827897937643074,  3.496888009287826, 91.999423243880301,  5.065537811530855
 5.080295726680918, 15.021066978229250, 65.072356673544135,  4.769367654754734
 9.847674773439824, 12.987083318231923, 66.899808929190598,  5.254712169149263
12.152799489028483, 11.548181228363635, 109.633052518942989,  4.791493791487840
10.861602070714120,  2.760687210488773, 109.276805023177388,  5.041451044280573
 0.550100634324489, 16.391643392694139, 110.226060043682082,  5.251214526006560
 1.229683221704125,  1.376213443780186, 74.957935042223511,  5.210388355871219
17.990993854791590, 15.141755936330359, 11.771621857941920,  5.078414983727383
 4.842914382297552, 11.918334184221232, 35.402364318271374,  4.770438769559316
 3.095823567440093, 12.395314572773554, 99.325220912367527,  5.091403337389812
 8.320697051453523, 15.755739026973012, 18.082317518363915,  5.454452259259312
 9.041037634271435, 16.482585770113065, 57.575972741339726,  4.956345742929329
 7.354003592618249, 18.237556858528592, 40.791273610879436,  4.886792290662929
15.331852410533926,  2.042827687073518, 100.083121462419115,  4.461394932684299
 7.481929193331692, 14.755811466806142, 97.686550214764637,  5.387636404541243
 7.280875704606852, 18.131651681609902, 82.524188603526795,  5.254994982671781
 1.086321180960758,  2.556800578011894, 42.013527777963581,  4.770236846184842
14.502327978049827, 16.647840390757736,  8.287366665735936,  5.231082317310629
 3.773253589892860, 14.274554633826837, 90.024805122290758,  5.019111241782688
12.234548329268348, 13.819696635568233, 23.047970635751025,  5.212842815693675
10.108880856971480, 11.746494032396974, 57.539679902135717,  4.746227557344433
 6.463890124216594,  7.084986469821369, 51.398310852337204,  5.118399471140036
12.653425993648638,  9.385307905959563,  3.150324769628611,  5.132438625560791
 4.685284368459635,  9.686013707010869, 104.044475971340248,  5.014362167951811
 0.446724096479524, 11.594385606156637, 57.433355048947341,  5.366293028907264
17.933671083426415,  9.866228695973366, 71.122247133253637,  4.861263472186672
 8.710971351370045, 15.718332158716510, 13.022810874462207,  4.693879248409639
 4.271856155207289, 10.494952716841532, 115.761698694117200,  5.023366603649764
10.266849566013478,  9.838635572806254, 95.510102626032477,  5.198775770622752
18.329492985943677,  8.621536643389554, 63.516956495029916,  4.690519735259667
 2.348852666653771,  7.764634740644770, 34.179988533780431,  5.215162925338560
 5.739659340885793,  4.892340245109955, 102.091861152517197,  5.526536311009781
 5.677246491656726, 18.728882952642024, 111.603226651412541,  4.998346016374446
12.179807520558295, 17.459384492793031, 114.168106415526594,  4.839155685349356
 0.490026246052875, 14.227348715984840, 48.862957667155619,  5.259283240235391
 6.600371435169811,  5.505655832017267, 68.279502145059368,  5.348653117965678
 4.051359699235499, 13.733897246620113, 11.259771096223592,  4.986425390887623
17.258799916299182, 10.656946776425043, 103.256837275386971,  5.099105114086844
 1.720149240047480,  7.073562764975670, 59.496608662607862,  4.893549671018545
 1.288940840648997,  9.151027259981570, 95.515176130290385,  5.374449119707406
 6.117755504452162,  9.503494379069211, 24.420833035824728,  5.277362945952044
 3.967838658067649, 11.549289902582977, 19.884079224492439,  5.333787962060813
18.275470425214543,  0.204261574718442, 46.635098995499909,  5.356340123154336
 1.571573282625597, 14.127489056477673, 95.003304954293341,  4.644814945738645
14.028730296685151,  9.307472403629866, 113.568491801241208,  5.011368708604375
12.427084410735082,  8.085238451060055, 77.532669545289835,  4.838364345601271
 1.620779419538445,  2.618238949647118, 110.523718357133077,  4.906990487131225
 4.978554423958085, 14.901165098792447, 28.135663728800989,  4.940240166634843
14.440490603073732,  4.309139771572351, 24.132697797656242,  4.544175585452520
 6.274903303008873,  5.734808989979761,  1.960298555126127,  4.565364400490413
11.386999337056922, 12.651087015550111,  6.973790747088789,  5.235294867132703
 8.911521446681425,  9.420129865658344, 71.897226706949951,  4.878869847031897
 4.276999333400424,  5.741889902892832, 63.596783472426608,  5.104852850473958
 6.088302622884449, 11.813165406100808, 75.244110012971660,  5.084535664932908
 4.625804323206637, 13.856677183065203, 112.044760000311868,  5.002771326464028
 5.257306097961776,  5.628146495962056, 114.230486835801841,  5.304307489104292
18.031134496502304,  2.308352147611858,  0.998593325548742,  4.677031539429705
15.110782366545083,  9.605056842619495, 94.231192910292876,  4.830790027530639
12.125901316178009,  0.834336689984726, 38.679024452283713,  5.190869480778980
 2.072792410821613, 11.990250035020114, 107.891084415626423,  5.165848165118820
18.222116749300085,  6.312846433940297, 113.157922181054516,  5.126184308635530
 6.179262544860942, 12.928382295927467,  6.697051584672866,  5.201200737504334
11.949386449724617, 12.979103034531763, 116.565274530877687,  5.332880073862258
11.408464181669180,  4.980856780818333, 51.916806250413288,  4.448466482979382
 6.072802999683020,  1.297521786611609, 21.931251205590353,  4.875676447172395
14.517834691052126, 13.557025228829382, 57.898479441161818,  4.812906500030858
12.007364396263419, 14.161027718559863, 53.292917413772166,  5.722237434348811
 9.232777049407041,  5.033414342011928, 47.632672470594677,  5.084415356627708
 7.583000290965886,  6.880342370481721, 88.105446672862087,  4.725392918352495
 1.003693488082345,  6.859831784806891, 86.349952321131980,  5.136569850821810
 8.992479136941737, 15.075273027989113,  3.055888843284458,  4.918172062541943
 7.183117865825952,  3.618366104799188, 59.449729186561939,  5.071428938845716
10.156263120980629,  0.126691232984945, 96.104420869946381,  4.911346247566605
16.049518767519899, 13.919076422708159, 31.818684097354307,  4.778823143079208
15.875307693521282, 11.450986221697280, 14.369960458176134,  4.863224753943180
 9.970279037015954,  7.387641745278986, 111.063746934039244,  5.030856863885422
 7.655996843450106,  4.024638433760114, 42.546728149635975,  4.729992014754271
14.001154542874140,  3.157773849122975, 47.875921177706765,  5.174826596934290
14.740369443553401, 10.587381625626861, 41.503058990351853,  5.170909063467933
15.784445807579557, 16.113687655434383, 73.533196196036073,  4.861676204546481
 7.585812610519821, 16.129713988863784, 115.483988730295721,  5.078103730331282
15.329066828998446,  6.249214890347346,  0.189266463923855,  5.013630490278020
 1.281704873766821, 14.679957674848060,  7.057514119397525,  5.218870555094332
16.498733370218321,  5.278247169854094, 96.587798752085604,  5.329035805117606
12.237735352982481,  0.466807216491249, 82.314869507667723,  4.887328082041630
10.770703646521762, 14.740283420934626, 81.639543692222205,  4.611607495772643
 7.313254100668550,  1.797543048930389, 35.350156763487838,  4.983577862542660
 9.646514563675783, 14.561949222026492, 48.582813768427677,  4.836392615199586
13.102426475350899,  7.799802825124772, 45.731403333036688,  5.143323960031926
 6.783910858584997,  3.437389118137689, 97.216319570341454,  4.795996440627547
 7.797172434807633,  7.125959549988280, 76.156153675872474,  4.994263113157174
 3.209462814129425, 15.998010937633193, 32.945741230889830,  5.288195950084829
15.951824711214398,  4.798257853092387, 34.800890879328790,  5.152500439974045
12.039973300552052,  3.340715051193804, 67.959960631382586,  5.402936579176093
 5.342100786708645,  9.168453839492907, 110.523369703501331,  4.944913919738605
14.355769089028625, 17.877609835463470, 109.732598137613650,  5.072320016966048
 4.155044884525016,  2.993898660867161, 84.811736853752024,  5.301904343427974
 7.394508153201375,  6.642362268083248, 33.641902044255154,  4.508414698541181
 6.417104495079389, 13.702851308370573, 80.484955486353655,  4.607492398297595
 5.132344396769605, 16.674088324599019, 48.128468858830828,  5.169379410791426
12.557073759089942, 18.691544762627487, 24.500047365863907,  4.973863114254362
 7.208203925188235,  5.279774788692118, 81.081383829742080,  5.355507937221769
12.103847718033315, 11.687237978582022, 104.671135722030854,  4.868447746633254
17.839618857658607,  1.181790563691997, 37.759904504134120,  4.888672450291946
16.946310040876039,  0.236966054965325, 68.117386399941267,  5.329183251933957
16.873507765742573, 11.983156793161172, 52.819675051592895,  4.979185281632796
14.312119070747872, 15.181090034048561, 65.694819413802080,  4.968956696685266
 0.857381761576976, 17.258464635006582, 64.063704894487159,  4.954608756968877
10.699656668820097,  5.312475241638787, 36.781719120376486,  4.938331763357080
 0.994848191636812, 17.142217860805836,  2.800732963366928,  4.580319011378511
17.981945258931944, 13.937324435926216, 20.254385428079399,  5.289788709674522
16.546936393730117, 17.045421639520967, 83.832158812959420,  5.215101187189688
 3.632845704808047,  1.778839295151820, 79.861295568284959,  4.940139516183092
 9.646300677091814, 13.800589371439207, 27.335380611634477,  4.780257832090372
 9.363254561610287,  3.970066781638816, 72.487921898868123,  5.177686637818163
 1.568778479558245, 13.290656775771224, 15.749120822063503,  4.839848987619126
 3.592540542546963,  6.816547754904660, 42.400587658984357,  5.134468037692207
13.759825306068477, 18.511635259931371, 55.373642454846134,  4.536359146245028
14.601544581824124,  2.182249318347300, 16.609975916557822,  5.172550879369143
 1.554034008928689, 14.724742375916255, 103.592195201633587,  5.073391813276553
13.351890536332000,  0.285268401837484, 87.309269280461351,  5.025922558131811
12.849672579031980, 17.607355827954276, 92.113274543858083,  5.014628846375216
 4.007942677957143,  7.804167924888762, 72.466206147163660,  5.484430493814630
11.895475058802885,  6.718023687623432, 20.827899806281060,  5.084053701798743
15.055183586803450,  7.523826651458702, 50.328399347684950,  4.837755868041721
 6.399273493444571,  2.074525455721599, 50.757218662472091,  4.801497896073452
16.886139474142748, 14.150563640025418, 44.360228742671687,  4.895656245842204
 7.969806611980673, 16.002073970457495, 92.468039274659589,  5.283266447045627
 1.436250013319491,  2.803999632342565, 99.318780458200337,  4.941399990587174
17.428251925164897,  1.669144727844181, 12.086866063404814,  5.541871474255368
 0.588031533431313, 11.098662385563040, 112.553952143080934,  4.770975508489959
12.636440826547874, 13.576627015488416, 11.643335388432870,  4.602565336565278
 6.099011486914736,  4.400048836757328, 109.262781185897552,  5.026648527069199
 2.261011670244573,  7.084434271027276, 21.530631060945161,  4.767790528430633
17.826692238958330,  4.339686058794292, 103.592098000071459,  5.273572220531082
14.651440763807265,  5.044004011096550, 39.539388786229068,  4.686412281936551
 7.916402727569844, 18.692975959214248, 26.606258784598353,  5.119651261151304
 4.449070270748999, 14.614957628531652,  1.513230654000207,  4.357535916639841
 5.300399094274892, 12.275932098890292, 69.766315060023757,  5.250108754550100
18.080877747623159, 14.447946149624624, 77.568357972185566,  4.992406502887499
11.636639603634993,  2.902002103633756, 28.443584424018265,  5.052383794829257
11.259650639235328,  9.390162506647858, 85.995452682928970,  5.044396086298208
 7.724284121869069, 15.717623912615943, 36.509888357840737,  4.969802555296269
10.585034133235316,  4.824000885225851,  3.872101729551559,  4.948892905225711
 6.650258676091537,  8.153463460615326, 38.312569937817976,  5.406897310098137
14.023443170254531, 10.935881460926732, 19.363243051514555,  4.803139328216457
11.068110633413360, 12.507567162814423, 75.780962099750965,  5.018992141136695
 7.013965534964933, 16.307899645253642, 52.930575410763808,  5.171073059121263
14.322088631410304, 12.827215561096260, 48.836848881142878,  4.620146307198143
 4.617897521831116,  3.434632504852791, 38.990263388430861,  4.638973060079979
 8.216471224425209, 11.589944445096236, 89.471813524039717,  5.126569805437949
11.915352074070890, 12.652381063108665, 44.908439348738156,  4.594090093057554
 0.337879661153879, 15.982672885136594, 28.827888281599975,  4.686915926116088
 8.341581811274823,  2.086121164685346, 12.264604313593559,  5.668780977312093
16.089301410774560, 18.685756643308679, 20.871085923952055,  4.793306737041343
13.701882563861911, 16.656211861761268, 78.375841448514791,  4.946672818173477
 5.560007959042408, 14.060086958237228, 85.269216876731946,  5.128484998707679
16.410488642390451, 11.631712407358700, 27.492297163235257,  5.000731631537093
 2.022369100093794, 16.082528133985502, 59.398591995476188,  4.921305645339727
 9.281138443129359,  6.804834446750292, 64.177433046512022,  4.789082985559514
10.412735029864443, 15.036245987445007, 86.444389334898091,  5.039311321330353
15.923451472799028, 14.588630202136475, 94.012943221387928,  4.390763195666019
 0.226307791304014,  4.649680357861417, 30.690971548982404,  5.023895611681795
13.923942046629254,  7.178305403326629, 16.274167652028371,  4.923481679538844
17.833296675227512, 16.110147981422561, 55.377964784513772,  4.916536319913360
11.279902780125136,  4.857636607627717, 95.256160148423078,  4.942851528802698
 7.118046385691009, 10.867926408375729, 30.832996537824524,  5.651975987703797
10.236872300423359,  6.930066158418488, 116.284527673911441,  5.450940126312529
18.459529135042754,  3.814791612675434, 64.679099027842838,  5.033757984624122
 1.321955464948987,  3.743542621123351, 70.382841956553918,  5.091997595529606
12.593673695853811,  2.260628167731244,  0.145807577893110,  4.659369497880778
 3.362065038150475,  5.442233493398481, 76.850386324083189,  4.558260490214746
18.448927315181525,  9.353863524863192, 17.999984706851517,  4.966095141782408
 8.953686594864971,  0.336410835079847, 45.636079598891740,  5.134921963178734
 8.776622707602552,  6.930345877447807, 55.792711839738281,  4.814487365881837
 2.005677971641305,  6.248003587659802, 81.388808437858273,  5.049108326098828
14.375377969288351, 14.790570842381022, 38.362849832044432,  5.346378992489808
15.212036297036645, 15.355856180596010, 102.369775969148591,  5.142604119406426
 2.119690665074838,  2.717163083859187, 19.144369466128634,  5.160024192305012
 8.434329329124608, 11.310492299494172, 10.995550146965707,  5.024420283138176
14.810277559212846,  3.648630952016076, 77.520652758336738,  5.219990350329669
 9.255536844986134, 15.326326841709610, 110.790372174824327,  5.005833574215200
13.214459451773058,  9.022978408441036, 54.758324824863926,  5.200558777828730
16.818052288496617,  9.241121297103589, 23.070662591211438,  5.081354575879434
12.367600248368056, 11.142716019418401, 30.343408008190266,  4.904043440988477
15.860634305632235,  3.953457985761753, 108.511944642219760,  5.314864453418059
 1.943444642966514,  6.786991518811968, 107.322779418225196,  5.300064555706116
16.149768173826065, 17.787475373128686, 59.714343427224748,  4.942955849940615
14.354275202999270, 16.909816695116479, 97.692370149494238,  4.854350452408212
 8.242427490135388, 13.629670965835286, 61.627200822758290,  4.979633873857318
14.656385612261300, 12.835673898840449, 85.593042945481542,  4.659261301617181
 4.436516211587265, 17.220482285880951, 14.848342263896223,  5.049053810532221
12.273597343951581,  9.248750536315521, 25.227581757115036,  4.877765798980262
15.504830321681986,  2.391034165692715, 72.601637210170040,  5.027713314791646
12.818782485357419, 18.141412652157193, 12.849297251318323,  4.841360208029547
 7.594130316834557, 11.382016684357108, 53.534151681489213,  4.713909007448476
 4.265503541638165,  2.764346208831911, 46.120994948018676,  5.440197694449192
15.660064444030896, 10.939086716161976, 75.286394041800321,  4.678077109861005
10.969259283670572,  0.115381793516310, 50.685305555448892,  5.081560728752909
 3.744243041131923,  9.298160321817660, 89.807412212200987,  4.940378764269884
 5.548278618078978, 16.034990634603961, 107.017102922569137,  5.637413027505653
 5.715351840027673, 10.814461469372237, 15.123399400274987,  4.899230923060755
 4.173885778797146,  1.466857795387898, 66.234994576678673,  4.913645473856836
 8.279753952836419,  1.020370495658474,  1.764059609881096,  4.883485881464097
17.830967402955817,  0.188611318855826, 79.416408124726843,  4.710674161725452
 2.946708691025555, 11.951559763365966, 44.675045983510287,  5.463984398639275
16.232237888551662,  3.890974406862108, 60.287619469636503,  4.809928732100449
18.231452108103213,  6.152157787734137, 74.304369011947912,  4.815083294333562
 2.054939162259117,  7.886896146136223, 67.610436481805735,  4.983133395036742
 8.756381175625494,  6.563582567808671, 15.648850636622564,  5.549113478554883
 0.870350947162366, 11.239052350164281, 81.195481992764101,  5.164091755082260
11.494362429122951, 16.368955494250411, 42.278429943956759,  4.535114755516991
17.430622326356872,  8.108200394426586,  4.766918521741722,  5.237273716842009
17.358008923560213,  0.049247101532582, 32.723017753027960,  5.475427976090189
12.384551927809422, 18.392853532606487,  4.079182282374033,  4.782476390785862
 0.197613886399824, 16.823195369246879, 99.343606601863556,  4.757149556273943
 1.638356328291003,  6.636678772034896,  0.733526349940347,  5.179746992008351
 6.252841235669135,  1.809337286513896, 92.830865041986300,  4.469784531015558
16.914864727492233, 16.123404546102599, 89.476924412208604,  5.111458716722233
16.927226751851091,  3.342837520965426, 82.968174239186396,  4.949291715595890
17.810685782662340,  7.142590296415991, 55.400075348695687,  4.802106586703347
16.613910290181455,  5.262129632440398, 20.046772313666203,  4.892296098055311
14.032088176758242,  4.323381644959183, 56.087808775497706,  4.701718293119408
11.767431004766058,  7.615547794837368, 90.893509565161281,  5.418850284003080
16.678136001994982, 12.328770408378197, 98.296813153306999,  5.409086518859592
13.929640135360783,  5.190828059405907, 86.555909080014857,  4.957787379206792
 3.287178176691609,  2.010933932499487, 105.804577550384025,  5.072130472870486
12.482079807984791, 17.157108438474882, 69.826082536539616,  4.892432745671795
 2.185554738071546,  2.213175012146277, 60.549060320746371,  5.093399596575164
 1.821659995279840, 12.541334954675969, 24.624601299896714,  5.238319929671094
 5.689270080860600, 11.754204768135473, 49.121864550754069,  4.918909751804103
 0.953040399194470, 15.260178681911089, 115.370228351743265,  5.287384483325389
 2.414976173999156,  4.128231473514110, 94.545012563119798,  5.086044098412048
 2.901801552046217, 10.690016891740303,  3.507994035274264,  4.962996811188235
 0.320902238458210,  3.341315606495773, 23.702327715340076,  4.708519037038068
 8.938369559209416, 16.431062837822399, 77.693856835201345,  4.681595017491752
 1.166260609842511,  7.967153437757480, 26.963189497485505,  5.116973412440331
 1.214592635789316, 12.452640335847923, 66.141771829169599,  4.748748355617419
13.150906844965082, 12.743525889114506, 90.540120648696700,  5.220781042576109
 1.615345309036276, 13.822307422663338, 73.080181695737721,  5.131723402243665
10.766315263285327,  4.118406091806619, 100.296536138963106,  5.253019982407159
15.071902089558481,  9.451332758003891, 36.582699979153801,  4.942523344364620
12.237171011334850, 16.053570961869536, 61.585277621954631,  4.365336271672409
 2.571376333187389,  2.681792652850422, 34.667666151707792,  4.700117945052479
16.125156014546651, 11.096793609781013,  9.012577891706362,  5.384955880196465
 5.037303200278592,  9.435524941196455, 79.355050119278431,  4.632086344303289
10.157830768087749,  2.701255069864913, 90.318236888972223,  4.986986079684207
 3.041752470919585, 13.079506506285375, 53.181894469372267,  5.019349331011098
 3.796917242198577,  4.359306422644189, 89.735013405704620,  4.933344271737149
 8.457023798346240, 11.313890687637846, 113.437511296434394,  4.604357546478234
15.736081403185896,  9.245120499534448, 88.289802083903197,  4.567622682760614
18.510578294772866,  6.767330739580446, 91.222932098595678,  4.904151398010031
 7.521263272754379, 14.449068637720805, 44.137676572973014,  5.010200737657379
 8.928586308374889, 16.946775594003327,  8.329071732272000,  5.015836223150721
 6.173567700465995,  1.849165505648534, 75.698761282954308,  4.812178078510826
13.766847809279151, 15.682994873031211, 17.322064548262404,  5.540574890867543
 3.258364533513498, 12.049993258842356, 61.665618275729550,  4.638201072125179
16.824911555967155,  3.265977082149454, 52.147000444493614,  5.035885456904427
 8.088561935963057, 17.221026695629529, 31.526594221522458,  5.157675443283871
 9.443299948164917,  3.264934992138568, 85.356409166229156,  5.086839605849683
17.354308540167576,  6.598089539210686, 43.232049052133327,  4.974205096953175
 8.226140601472501, 17.767556293355906, 67.501898937805251,  4.881266114824053
 2.485676423915865, 17.705225019379728, 24.581103637264324,  5.173504393937447
18.276279688882688,  0.431536585925075,  6.577135065102203,  4.459613623247329
10.582563996885211,  9.805665077114025, 49.894878771168301,  5.198276258260736
 9.040141077126000, 10.838466679135522, 20.433914852736159,  4.962626460655022
 1.562048269267621,  9.009852238368868, 13.301769421944531,  4.861730206069616
 8.785538547180099,  6.896546250303302, 27.833640893711227,  4.828647686777136
15.451130148904401, 14.028539411075915, 112.781537636135496,  4.954757353272663
 2.869967347327060,  4.247864793909487, 53.827448921285786,  5.238995856188979
13.323608827977408,  7.039844633004800,  7.530300992793848,  4.885099094543765
 6.835337209906932, 18.393118602590388, 87.935223408113160,  5.210170100211214
11.773835416593105, 14.772925719531319, 33.876662103506476,  4.857289249381596
 9.321735174344356,  1.960851652696118, 63.732450984152244,  4.923726997039548
 4.634616453246919,  6.461826186433649, 30.031248482027259,  4.587446943392861
 1.469311848342667, 10.061005125868315, 76.330069503741498,  4.800218052938512
13.529875791568500,  7.239589901194639, 72.596036724683429,  5.411518690193605
14.010030500016988,  8.173856865760374, 100.168676571513075,  5.133567173609993
 2.018131905220102,  0.027936634086608, 91.517568011700547,  5.081862306742937
 5.669055986608672, 11.567060240566034, 93.919657672593246,  5.120309742955229
11.606203933268619, 18.639168597572553, 74.395710817632065,  4.873604413124829
 4.715000962510744, 13.657708906948741, 40.014179052734768,  5.073424322795758
10.295064544562596, 10.186211719489881, 35.119560205507703,  5.092759455294510
 6.739109025085100, 14.779543988302022, 23.224246626029711,  5.475368189202358
 2.408738101674018, 16.074859627687207, 81.783111947588949,  5.052274016189744
12.991266090303489, 12.278711694418293, 71.030526291065371,  5.190286657175151
15.910778936188706,  8.632270337558955, 83.527156602869141,  5.015289188621842
 6.655851632265897,  2.120288055210775, 17.227409712424230,  4.721811682365869
17.823089447534251,  0.565836011840916, 95.408408671703526,  4.726441970354133
10.128420381144187,  2.192156520378875, 78.350934748872646,  4.724793914730982
18.205829749235072,  5.283479691608893, 15.531555537234146,  4.549240196176924
17.056099177065938,  0.697950962536448, 113.694185287353918,  4.999580428957822
 3.019711936028107,  3.005080461653334,  3.739191541918264,  4.644144021694170
 6.840291103507919,  3.348322045692028,  7.103840901188377,  5.330598163207878
 2.052676232527356, 17.413375526782779, 86.575294529305893,  4.918649640968664
18.243009095227841,  1.938656903391706, 56.535998771076045,  4.553762098046693
12.915538841393122, 16.841604986640011, 29.408319933225854,  5.045757907579141
 0.006962832337850, 13.060991173707919, 35.918338509808066,  5.180662060704518
 3.271595221519183, 17.129508902047551, 43.398641520967054,  5.036304010854125
17.493123400688454,  9.909435884441319, 46.869191688721216,  4.852320809016343
 9.228055929073124,  2.061212246311740, 55.039872226016996,  5.069354673732474
