BANDS
8 8
NANOPARTICLES
cell(1), 18.947
cell(2), 18.947
cell(3), 118.421
10.543276916034893, 17.747162936457968, 39.799753514524383,  4.046784369738523
 3.594755257406662, 11.476020892254352, 32.822619855971872,  3.663617170777698
 5.150299999655727,  1.955170161884129, 19.925207337013855,  3.910042349723718
 7.498838423449642,  5.412633043440737, 99.866559052622065,  4.002219659191995
 7.595348740518066, 10.693938826278899, 105.996147302717432,  3.621770316939283
 4.939862780866711, 15.645387406841046, 76.014260395167099,  4.048452789220491
 7.804793724097090,  9.457753806591990, 39.083340252104549,  4.080137330297601
 8.468698306684333,  1.333252901736673, 84.663142340843393,  4.016359081794217
10.140032642491990,  0.132469992809259, 28.964708031524708,  3.645420814930249
11.212966920018031, 11.727553688661450, 90.437807784060809,  3.823968819978715
16.237177507647626, 11.995435100773351, 81.619059658826785,  4.220862109591822
17.988707653868584,  6.900117153791869, 55.535039197978392,  3.789287494573060
 2.696528660110924,  6.467932889809667, 86.664090756844629,  4.278152362397947
10.039523612623610,  8.208137351854624, 101.452636269158504,  4.172922343158537
18.317002494922903, 12.364504885183941, 25.530630140499710,  3.901402366192894
16.009561577285069, 17.572068138135890, 85.984617834865148,  4.101435715408766
 0.094397648539548, 12.173832382376695, 16.810245497567752,  3.917140890432469
11.119425276757086,  0.978601321079659, 109.740078087047152,  4.118913445318686
14.846117984270611,  4.278267607814072, 83.537628683045398,  3.876696262508666
11.430497842304774, 17.337495097188167, 56.747587469993825,  3.932380355373522
13.843308241074286, 10.730146741685742, 115.084713722295064,  3.582322901365134
 9.724075791136487, 13.902026159198495, 93.260334956713024,  3.711139629273451
14.193313426972209, 15.191402137155530, 80.109440371987162,  3.943536038045650
10.935862137137343,  3.595137253798122, 78.045024786998539,  3.964373878828137
13.240632127721542,  2.240705741252647, 50.083995569386204,  3.811390246311822
 6.613005178273936, 10.402566518793130, 70.803202716429382,  3.561985193561785
 8.671053235565283, 10.081299600827407, 80.233080841510855,  3.874038356951481
 5.825148915253116,  9.085073754849583, 21.746577110923358,  4.160527233259367
 2.297358021798320,  0.132774678623050, 60.708755263707125,  3.779602019734663
 9.838271689209908, 11.967433848917720, 99.629605462453597,  4.191266306117816
17.863786775594665,  8.531640360121452, 32.470555525250454,  3.860158734080039
 8.362371798318664,  2.508677120109832,  1.649254265015891,  4.239506473290684
16.910708307060577, 10.324730684825832,  3.061686958891489,  3.739500286804986
16.868733878540390, 12.540045678214531, 62.331480126364951,  3.822154416146197
 3.205078258467396, 11.008652462145168, 24.667801014236101,  4.334385057835160
13.841198300435462,  7.929350217798150, 33.608396814301692,  4.229521963423436
 2.331716262566387,  0.646645152839187, 14.245457000399995,  3.836210866752819
 4.268680358619220,  0.472875844711534, 103.926644000906265,  3.940723294118545
 7.677006367009359, 11.892357375125979, 24.410561053535755,  4.400292800993475
 5.887112473430499,  5.381776589112053, 32.480498764418037,  3.899369056599316
 7.524479808363420, 18.398348549389965, 88.415910694544067,  4.297428305555800
11.215549923433008, 16.844810339387646, 52.894885731367708,  3.792612169994745
 7.119341069252902,  1.840973129800216, 108.936090923482283,  4.171000644666075
11.918562296196706,  6.871897078377590, 110.015575127052244,  3.976756141715458
11.277534109528572, 16.086596515322999, 90.449393037506653,  4.041719282218884
15.714813332749957, 16.793571776343057, 31.657721885502330,  4.257713064963334
 8.379498970531532,  8.030024125438102, 51.832601377111274,  4.261450160681431
 5.727269966207124, 18.480931215362379, 94.775783233997402,  3.974087978482626
 8.922255923138851,  9.599267164958786, 109.444187508459649,  4.076848665542240
17.575061911398620, 13.409501981117494, 56.711633507935858,  4.185057758969426
 1.127300210518070, 16.852292870573660, 57.430932710742866,  4.408248842275410
15.993144782288185, 13.616917175806183, 85.933883331550334,  3.804668360691601
 4.173652409444609, 11.679972039457123, 104.280665079708413,  4.271358114312861
13.356204437228683,  3.042191319613865, 21.724638658589257,  4.307862410761886
 5.935220779034924,  1.473166596117010, 13.053536364263646,  3.917066474729949
 8.363561305192642, 17.631707663783388, 112.959240789098047,  4.150444053085015
 5.379377391989099,  3.908349385359874, 16.255935049640613,  4.202790548848012
18.046381395135043, 14.453446991332932, 111.506884716808202,  3.952009850773611
12.793642630951569,  2.388666102926330, 106.377086147465377,  3.830593458577896
10.381868213013872,  8.398748886201133, 117.002413435596551,  4.225772198176491
12.688527903110696, 14.405127459858926, 30.355234989713061,  3.848328902727074
 1.508813672788630, 12.966847950002240, 108.635716615682895,  4.094068238799522
 7.634354934229227, 17.280273567144821,  1.944652358804163,  3.987292029740381
15.911446250469176, 12.950730440300688, 44.647925125769575,  4.003090027058000
 6.859391361733373,  0.594437520767315, 23.213223287812262,  3.968904345657574
 6.127954974394105, 16.467185309595017, 67.267472806396611,  4.088327370141845
 4.791731746714211,  0.823366909060360,  0.576242877118148,  3.844754129946590
10.984969555384289,  1.032879308873964, 90.962753612159773,  3.780701151779186
15.101609633262978,  5.878168807904469, 19.445303313225285,  3.724299203675364
17.136705020509883, 16.438460107160321, 72.506753459295936,  4.070750611590019
 2.011887344863455,  3.142935636090116, 22.331357396499449,  4.309261463699984
12.377166653838279, 18.368145132641551, 47.234503751055207,  4.259421618079936
13.312470374226379, 15.357929808903290, 83.856631546879797,  3.743133894649461
 1.566617670622559, 18.004037800776363, 117.003754848554465,  4.134286151579287
 1.787197714598173,  2.358530631457532, 53.431703473981052,  3.986195861201845
15.080716572985095, 11.736433055430165, 32.218369137539455,  4.191714785476914
 2.015269086635592,  6.811932644106443, 79.145531985245157,  4.139823144952740
 6.233352788978875,  9.921820086187271, 101.012102380563988,  4.214842944140634
15.258434280058847,  8.165526901709814, 82.677958269120381,  3.955272649544293
 2.932544958253901, 17.244310446138702, 52.573237641888241,  4.139833301703107
 0.249615826284860, 15.377556518215734, 44.754678401960128,  3.758083478598505
17.422488937610918,  4.671220463701575, 40.923078119761009,  4.270853673157844
16.911402211641075, 18.461833392088757, 99.946270034408130,  3.865195765837497
 8.583673309773161, 10.434257883368621, 28.296595256394731,  4.074697537970462
 9.654887197289545,  2.020024596820958, 63.371266272662147,  3.753552778958182
 8.862023681447130,  7.631039266005777, 11.607763132865720,  3.994904835920716
10.684536056998446, 10.172245062529241, 48.963573707473387,  4.168589827410899
11.717978192635732,  7.828251383513898, 18.760639192069981,  4.193040730250610
11.905296992249044, 16.528315515912379, 95.959485319781862,  3.987548194962180
10.698527021725392, 11.726882341911960, 68.656388773920241,  3.988631754784070
16.453542015127937,  9.918332573287637, 105.119926961165163,  4.002991034857614
15.374950520875153, 12.303762601673244,  0.016966246637681,  4.145174442133542
 5.111654855633942,  4.760574389023043, 52.363706629004980,  4.219217222408104
11.734164179234300, 12.516649376902892, 109.735342682824495,  4.034330671853260
 1.681828731842452, 15.632828981259093, 13.875800514295335,  4.171807248187214
 4.116731113763789,  9.048958418584110, 58.864583719932803,  4.307177530460282
 7.228324888984537, 18.505839801975949, 41.922657443367228,  3.917454441399912
13.501474303403784, 13.618735564949503, 92.870238628127311,  3.815421086918202
 5.631844469650814,  3.074851412629044, 67.031914113121303,  3.985015796604444
 7.744567459253235, 18.287438661273185, 56.623913505287135,  3.569118831805636
 8.904443784059541,  6.623930269554203, 113.421823512173859,  4.249114937610641
10.365837360396341, 11.426260127114071, 35.682086924763837,  3.779992474068646
 8.455078550520046, 14.653465278746895, 70.082896915969684,  3.901137212490292
12.282579248828426,  5.999370042267437, 81.021218055593494,  4.081664144847911
 1.358377761809447,  2.206401608180821, 77.992297152904499,  3.985262127104555
 2.341277669075200, 14.162367236759117,  9.939120922339958,  4.331800695644540
 6.045131182903005, 14.599552760460258, 41.464324519675998,  4.278316184140834
 4.361980946276133, 10.954062175568088, 36.518067619746702,  3.950847874974835
10.214745484086961,  4.311498102701167, 116.577456032815576,  3.948025563409290
 1.862391774226823, 13.539035065293469,  0.822492850108365,  4.066309725305220
10.893618381876692,  3.431270439944467, 98.908185136416435,  4.051589345800229
10.986474222280446, 17.384340969827797, 63.838127647882636,  3.926594471809809
17.707967684949409,  0.317761336789502, 75.090109515277305,  3.636121581203368
 0.403015214482715,  8.756188896746114, 82.524072096535292,  4.267871025757066
13.314635931502453,  4.437265155929253, 31.678324616342024,  3.819108459199887
11.436572387922528,  6.118081577209736, 49.874501007057113,  3.903487328076317
 6.805206650524093,  6.170224212753868, 92.584043891409607,  3.930332137241320
 1.655138495164800, 18.762679970308145, 25.074044075179831,  4.312995729454283
 0.591704020575908, 10.596830766952909, 60.316124015699415,  3.813003054189460
17.892994724766538,  2.688948181399142,  8.478638648236149,  3.884944550872238
10.315687603759420,  1.890359507211822, 10.618336520156289,  4.283842742104710
 9.739269034469226,  8.584800999900292, 93.564243440619364,  3.911329583327235
16.470821607111194, 11.434863320676696, 12.104121370709585,  3.888744423876205
 8.474520978002271, 14.851872590302527, 61.109515813934706,  4.032837514797561
 9.526279230354053, 10.417037952417527, 55.442007980250381,  4.471750696172736
 7.905770104770282, 10.976195918055190,  0.197706262495023,  3.612928653139464
 1.462453217356829, 18.765331271586295, 81.076717089971254,  3.806921376278116
 0.413219690871664, 16.665356547995998, 102.491422559892555,  4.051904457503493
17.783555999444104, 14.389816514876905, 78.661929177281607,  3.918749634899438
 5.454156061093308, 13.845529063227485,  2.707364585655734,  4.051230248814386
 0.758121985970130, 18.766436001005271, 105.733539464176090,  3.693939291739687
 2.262925040655952, 13.849346777803991, 100.135685328334688,  4.117635838166632
14.414794884964286,  6.048027431076656, 106.006830580174295,  4.192093641944162
10.596988112538142,  6.254327038719840, 40.114575675720843,  4.022294495501056
 0.816782845097806,  3.223146247210005, 43.931474513783478,  3.865071096831492
17.222325949836279, 14.859137355673765, 10.361352067000738,  3.938006168850138
14.544221320682894,  1.381916656849670, 96.603458067079089,  4.251020133624103
11.338783870710404, 14.314159153071058, 22.858679422289466,  3.958612577425130
 6.672976998849768,  1.114340457613649, 53.065839275699766,  3.726306004942932
 1.344655239274201, 17.179726445480576, 77.201496238520008,  4.108753685362600
 3.651558031955545, 11.913610739493848, 90.364043027531963,  3.937568143975784
12.573172244710920,  7.433144259201774, 46.232955371643442,  4.144032214516785
12.853083838745293, 16.277212129668673, 60.400350613368886,  4.134743686613494
 7.063457336362567, 11.963048696873578, 34.002697617157494,  3.701383153549721
 8.211890167239519,  5.672827439280867, 109.528050780856276,  3.873091419663246
 2.257454305778738, 13.533241662155149, 53.932607563634896,  3.803401542197676
 3.373810376748970,  7.107249263992979, 103.726752192677040,  3.976580953323673
14.017126974405155,  1.164092689958901, 76.086965691536193,  4.112104026048375
 7.483716548135737,  3.421612302978344, 76.168505905558789,  3.854493757036214
 3.887198491355542, 10.920146547917810, 97.670115055428312,  4.190874841618410
 2.503701714099320,  1.265549161635527, 28.893243374785072,  4.005972900071911
14.085034615636593,  6.784572211250681, 38.544643989180436,  3.692690885742460
 8.084129468994844,  1.612235780723402, 101.388079353848795,  4.244781185791523
 9.485807123509010,  2.765256081400825, 41.790765798883569,  3.911429389864818
 9.568294019289445,  5.306178492540339, 95.809568022485450,  3.656673633021538
 6.952491041976037, 12.140971940211012, 67.570092221322682,  3.806922302501093
 6.252052446679482,  8.359147885502221, 116.265136778238386,  4.164365688394760
18.271383851314681,  4.578779100964567, 94.126021233789331,  4.399388527077845
 6.952409468964981, 13.409640610526091, 16.413589249079052,  3.639205714425275
17.591699823795256,  8.008127591176288,  6.418178953424319,  3.914436646107123
 0.274237591133119,  1.250493978786128, 34.621063658399152,  4.391202262825002
 6.420820355608375,  9.118997947810085, 31.435873810059757,  3.933740433271924
13.057195674506604, 16.594243595983784, 15.423828909703719,  3.956244278426518
12.317465092217093, 13.856936728453926, 87.279830445783176,  3.977590905535650
16.961029842753856, 16.392332196697222, 68.179220746489136,  3.908259462030974
12.828565767427136,  5.882320204074558, 25.539423721764106,  3.915840545698626
 1.609982445848121,  8.683497656443517, 66.679442530701053,  4.111508088091701
12.931577113575553,  3.549137576618054, 44.903603372749508,  3.990860547057932
 5.913025464896183,  3.292690400964567, 62.920280172664313,  4.181516541532234
 7.233576550707368, 10.036228632385296, 18.090543520198512,  3.902684014220454
 7.680793388502691,  7.623342575975056, 47.718049072910894,  4.086344808988947
 4.841807315497565, 15.909071331200735, 102.376531601212648,  3.807915462328659
 9.752644339021405,  8.294476359055272, 70.514012451810288,  4.017572218685993
13.168805135248910,  2.100157722931931, 85.986649488553795,  3.451055582663938
 0.295773087675041,  8.798579698530791, 94.664538567265481,  4.154987665194947
16.848783183208084,  2.507697684141920, 86.430709320867408,  3.830381100836290
 0.284056471810426, 10.510164379276873,  9.339708038718118,  4.131133435003571
 1.655624008747028,  3.101598408454080, 18.102309811876694,  4.166082900720275
 9.542831750513677,  8.303509194285136, 43.510749176456322,  4.183663585828691
 3.693705895646484,  4.803760115465288, 75.862673628424361,  4.177709452814584
 9.170814307334480,  3.493527148294227, 88.248477406869796,  4.380348599896696
 9.700150290837691, 11.416906451468163, 10.603874603932770,  3.996057476563956
 7.685285249945979,  0.741038515546656, 17.223637234353436,  3.865011336200997
 2.531188028194260,  8.350267480749118, 30.886536270917233,  3.983387216575696
10.676662209349553, 11.537988146083944,  6.393614265481880,  3.990929668774704
 4.253189215117486, 17.639695631584953, 10.951693679293941,  3.768342786385833
 6.885088336290512, 11.472761010133071, 49.667417152976562,  3.966259489451673
 3.352665482012170, 16.310154015458153, 63.849149509666987,  3.895105394093013
12.950895024004231,  4.600174813511802, 53.330298820088771,  4.223900039772877
 9.151744892828917, 10.041669285785048, 64.941249536918377,  4.210228396785828
 5.216098068612899,  2.994333087852758, 85.835697131224762,  3.611850475647120
 6.109620144314538,  3.405458900694171, 96.053060225459035,  4.209848275953265
 3.855357480789316,  5.697352745895432, 114.371413661886464,  3.879632091966452
 6.069732647449076, 12.308742244693899, 53.605605216281347,  4.216418661339306
14.345299665361178,  0.238558459711377, 62.812243704084530,  3.940024293994539
 2.095276391783976,  7.280794540020026,  7.919171338175866,  3.732084788544972
 6.229287518659389, 14.253570866223802, 106.716404780122716,  3.915850790201592
18.558442985613574, 18.168883537886959, 89.625802132480644,  4.262217296812036
11.145220285100073,  5.094170221230486, 84.873080060092747,  4.018141498501232
11.583585347474278, 15.353865313756033, 77.259523875551139,  3.747638039082116
15.979885751019738,  7.089631631177937, 52.142699594929937,  3.951990403764214
16.394216769735809,  2.857878450677148, 37.313156466160180,  4.049892371671294
 0.572210350480500,  0.078131901769959, 84.775858831479823,  3.797974567750597
15.823005320447232, 18.747411550984506, 107.147752456678106,  4.274360002341130
16.990391875771799,  1.641928890214756, 103.495192324403035,  4.223378456030143
 3.349448148183501,  5.921733447194348, 48.896875359967993,  3.814843253859055
14.274228701461741,  9.826966464285183, 111.308379136526057,  4.002068703576240
 2.433360020606936,  7.480991600766266, 16.646201393446631,  4.059215699491072
15.362813765769092,  5.763815815236355,  3.987233784146317,  4.062574036254850
 8.611332507895126, 13.374766996801103, 19.972837676469801,  4.189281138114456
13.387075520900217,  8.195047228159350, 86.446913813537492,  4.234891983634743
 8.116657037087675,  7.856771991015533, 58.540755650355571,  4.016424499840102
14.401362455862524, 13.044779889042395, 25.073521388419159,  4.014568069505765
15.459032673462703, 16.649511819875180, 103.395618602822154,  3.941942606408404
12.674424466268604,  8.125934736661256, 90.440696855090437,  3.877382777850462
17.823412912463812,  2.148245647690973, 30.734592462189109,  4.046005789195087
17.930168529717708,  0.823178209870321, 66.286288693823707,  4.058547206994713
11.626318838177083,  0.131089851403257, 18.151902954997972,  3.913685131393752
17.162408728132874,  9.655835300491292, 85.891919124280363,  3.932450331779155
 0.025700996380535,  5.291711366435872, 114.846795175270955,  3.875792417069406
 6.140716477444361, 13.625998251690319, 81.874280645830027,  4.344940552128152
 4.015701269342999, 16.307715763424376, 79.852291983332435,  3.599569034147819
 9.109079598931149,  3.921783026580900, 52.138020610733633,  3.932104213159108
17.296264215950952, 18.772123938524690, 27.547755568683900,  3.905410282639111
 0.641999933141383,  3.712436682839888, 26.256987104991769,  4.036656561626150
 1.995560815482668, 14.929942332643101, 41.463744768804787,  3.744846651585838
13.689211463347885,  2.695644943666232, 14.081173074858992,  4.208602261422413
 4.165416715430738,  9.803511533217593, 93.722374091973748,  4.028032399110612
 2.546792380253115,  1.904380023200890, 94.200002708639047,  3.976367199467879
17.171568716598369, 11.531660733208836, 66.503239863238164,  4.129587419713967
15.013163780908954, 12.055907672660712, 40.128127729083722,  3.754162958140838
 5.724197904168090,  9.319699775060194, 42.516372807074035,  3.894213504349849
 9.778892200294631,  9.889730193104873, 21.550182851076141,  3.749778494916301
 6.058917592035519,  2.410914534756215, 39.195973561860740,  4.311974367844617
 3.997041708279192,  6.964256163102040, 99.665273404726904,  3.660985552209182
 7.987212342709351, 15.495578882372952, 96.414966302588283,  4.149347331887704
14.788376802688855, 17.432347670958801, 50.884413868083989,  4.421837243420957
15.942091406557317, 16.539877288217408, 96.762706376127340,  3.816823886068728
 1.639924776563892,  2.499041976112011, 87.755201424814018,  4.063996498634147
 4.311433272142416,  6.218788661473486, 65.122391221634416,  3.791499909161700
 3.704229164239470, 12.394064237665319, 44.233269823622450,  4.197523966128098
 9.116404740269306,  5.214445983344985,  8.365180874202910,  3.983801411871622
10.899613311835362, 13.402400354003339, 58.204932819536886,  4.066225300955653
 9.571854287741710, 12.272020882716969, 42.067792279547326,  4.217877349490489
 7.523877452507730,  2.939039349001757, 71.687426856627752,  4.001495781058853
 4.669272480334232,  3.817165209325379, 80.246711805331799,  4.091964521223098
 1.892223555755211,  4.559700424222674, 32.348008319268970,  4.240557536796813
 4.591397456549560, 12.275483759155657, 61.265824424942423,  3.737225080249047
13.394948844470418, 12.828173185363850,  3.588407384719284,  4.088232841066374
11.859680815217519,  4.291033439509516,  5.941711245226160,  3.554352197666772
 6.442448684690134, 18.472906419978795, 47.855926655638008,  4.184896231502107
 7.491517525628953,  2.202351781220597, 92.266158651300316,  4.022965054059913
 8.157070032805448, 15.891796383945794, 28.733395588262180,  3.834255954715331
 4.858920933759799, 17.820184585184116, 107.442403599399782,  3.858175082004002
17.020193610553456,  2.236830188109899, 60.481914502189312,  4.181691089507312
 3.642118241912384,  6.727997147328902, 24.638856045017278,  4.271177243224741
 3.097575067157079, 18.301317791253751, 17.807180234466955,  3.869978018116802
17.502004549683782, 10.611355437658355, 29.050084094317896,  4.092543847210380
18.716450189486057, 13.106273898747304, 89.834432206815492,  4.244783738953521
 0.364743414643686, 18.333863302983737, 10.949359022624165,  4.110768362148504
 5.658187547167819,  7.515665192970147, 14.117041307744959,  4.099783065565233
 5.434805132608372,  6.187045323165204,  9.849241975732218,  4.182873563605308
15.121269669132223, 18.278066982295570, 117.689661447024591,  3.889761818780236
 4.162309151921486,  8.933559710346520, 51.551459863160758,  4.376312927121323
 6.657489781639844, 17.571158026685570,  7.816415033235715,  3.999842178592266
16.361374916223554, 18.058966091109916,  8.257184933765567,  3.883007683135794
11.742318419946136, 16.222599825439481, 111.226256933858281,  3.932989961417439
 4.354873703692243,  7.141361577514841, 82.741415449107777,  4.211314066844325
14.012558623388061, 18.942585109595335, 66.757083103303188,  3.941113950455599
10.685423518419846, 10.344986458159966, 113.001914463004965,  3.964148466808023
 3.726437483400537, 18.376738328356183, 36.329010285488231,  4.123763611161127
 2.034823125114452,  9.919296339066236, 101.193320389904756,  4.015010715743949
 8.787657256381431, 14.949460754078446, 55.304293517069901,  3.732251517157486
 5.117047788376263,  3.743860608151869, 105.934819183871653,  3.843000261984373
 7.006490410777829, 18.045608200052971, 63.472829049163565,  4.127871379135878
15.549446885475557,  3.575468656250634, 68.222044060630211,  4.153548221282442
11.356962001544305,  9.783176411827931, 25.168384808784978,  4.096338748950583
13.988745647222425,  6.833453316359928, 64.411757653363281,  3.955394940858111
14.309043025742023, 11.134116654089979, 36.313736829582808,  4.172248122493143
16.743051583332004, 14.636673270869977, 14.290989719374634,  3.859400212896417
 4.871754985583775, 13.500794911855410, 12.969396208289274,  3.669511000778253
18.258633108721135, 18.239417257682252, 62.750467696552931,  3.635262224440142
 2.694103883850045, 12.895767053056879, 57.835595583087304,  4.134028375078763
16.663671300499495, 12.080965175099578,  6.546400528468063,  4.064145606594228
10.577407405468891,  2.939146721174362, 47.728835058061229,  3.417980646322684
 7.188479496339705,  6.452088384185820, 85.822108783146632,  4.234585952884737
 6.231343137669844,  6.739098023705856, 71.702034020513310,  4.010124122948842
 3.341113555288425, 14.381609746120752, 17.389022667925012,  3.982983384936606
18.789761550414838,  5.558826826374986, 69.630682406642535,  3.884639381939579
 0.511165470605600,  4.762196028759865, 110.894431715015372,  3.974312551587880
11.994296764586423,  3.716760803566050, 66.085088058834984,  4.143605377257331
 5.188123708164484, 12.213415833715217, 73.818300936054641,  3.998139060141891
 4.620731379577372, 15.068362364633066, 110.217999408451803,  3.936908118894837
 6.303202371243803, 16.464162818152516, 18.899309510994311,  3.798248368218030
14.039724750155230, 17.630360146457171, 70.398677942552425,  3.767361667014818
 2.002549634006873,  9.830538226557982, 20.100763576341425,  4.293730902135255
 2.831641695432449,  5.548821812952268, 55.864026556312723,  4.278951742345249
18.215158679202727,  9.981783444250622, 111.695003058712587,  3.920744761018280
 1.250936337124414,  8.103531995350240,  3.298211860053869,  4.199327187073644
 9.716171953037611, 17.456129166866937, 25.268781988945719,  4.211850795701081
13.959500943696785,  1.083912098078258, 29.516015973114044,  4.195622629642318
12.361785627311869,  5.397791463958961, 57.972825149359629,  3.741575461893860
 9.388043172591322,  7.694163887910515, 15.508627343179121,  3.812115622201263
14.439646613212357,  4.424268438876005, 116.648292654074396,  4.396402075281988
 2.478583381567917, 11.876346911498068, 28.924444089365981,  4.077229015517706
 0.764235704084847,  5.069278238379201, 36.752471188667663,  3.994211588573120
 4.154331942435383, 11.852338675081556, 116.465780782434024,  3.849313165879851
 1.316873221473726, 11.229531583180220, 73.325828918126106,  3.959004579703259
 2.669109973684828,  3.242011199639473, 117.045595636011598,  3.679467362452765
12.226564675380024, 18.542415329161820, 79.353203236512115,  3.960603793269915
17.892285222466402,  5.696152473729527,  0.605672907658860,  4.351050374015384
 7.454681886837872, 11.203020709121542, 45.663976173855360,  4.138620948771294
17.666794205741830,  8.116421369684886, 63.191589644829179,  4.114999711594930
 4.034148971965918,  1.422011931083522, 50.416006001005847,  3.755327805425364
 1.936540797990028, 13.228034274406481, 80.889985701495092,  4.041853861633158
18.101084797091300, 18.391229757427901, 53.832081839441592,  3.879966679294652
 7.491143252967820, 10.619102152786942,  4.087435907439072,  4.060345244865391
10.761047725470862,  7.491883593923838, 61.818171745094105,  4.412809966068408
 8.120482663101050,  3.081808938836631, 26.099972564878069,  3.982159373488371
 4.267983948869194, 13.720998126615223, 86.446851408394465,  4.174245313086475
16.847701254151279,  4.809739510966012, 33.720395385518216,  4.172485008950486
 7.770212935694529, 10.674847003657842, 14.072713972262786,  3.475588432136252
 8.757452968136802, 15.786035852996374, 44.448521065639568,  4.102430935290966
 6.911016879663431, 17.051549210818379, 38.335375586411566,  3.844800925609421
17.426355760911498, 14.288230108537659,  2.856546427727732,  3.853398647820246
 9.973444298519340, 12.983138633988165, 51.973809975644798,  4.185190945470629
18.826138244740555,  3.701976771027881, 73.300569179012868,  4.337570208171988
16.901435880812919, 15.776562387854920, 60.001001533881009,  4.008909020179483
 4.970082931965371,  7.550765402894589,  5.200497331909327,  4.185859333187074
 6.630821102875288, 18.671208292949025, 73.905097495343753,  3.986332944164695
13.898566378572660,  8.196025296569591, 22.342251721916000,  4.047901653131912
 2.665532898397281, 17.080058086577157,  3.097059634647124,  4.484077425055723
 0.779947850372582,  5.357729165394095, 101.355959887671958,  3.837034889153387
18.281336077324571,  1.043349912845317, 110.178688752855010,  3.884441917749532
15.765173513464468,  3.685564640182145, 56.408348022283242,  4.101425917382846
18.733823235654452, 16.109076314471263, 17.397595179733990,  3.877904904788167
11.157160088932278, 10.989413449701519, 104.366200357343459,  4.156823277077454
 4.947478060428557, 10.165007265879103, 64.660056665372622,  4.174630354711883
 2.826835150187416, 12.196393923578357, 112.446906969432845,  4.114001258568014
 6.768104927629819,  8.021839273623611, 67.735442283507666,  4.151211075379819
 9.227182345836061, 17.654081951072488, 93.358856475506101,  3.733458369451503
15.946859501983672, 18.588067894098945, 39.812046613166544,  4.076059700151010
18.701775842007311, 12.284067471150165, 38.722264391838713,  4.037179053672324
 7.631754284798749,  6.985551471148279,  1.714552272069154,  4.496554405337432
 3.742639274447074,  3.784738375949603, 72.030602527559992,  3.701563484284016
13.135780114716688, 10.504227562460818, 43.142586953247864,  3.969664491799521
18.187256500787758,  6.100607611418214,  9.673085914029205,  3.364997946357630
10.767639479022860, 13.579771096700577, 26.821715211051423,  4.118373836088535
15.935354477653570,  2.163331619309695,  2.039587596284562,  4.198725387367224
12.650298158749738, 10.223131902528776, 80.380469153616446,  4.086942372006207
17.910585283289770,  2.122718431878439, 116.910755058513530,  3.909635812946264
15.193435430736027, 15.076927186070275, 21.497681268659434,  3.809174026804897
17.692321282568386, 15.239154721625365, 117.409572227090635,  3.601629069372025
 7.588465904431258,  9.131194808136623, 74.822452195559791,  4.002268364645373
15.262241150420270, 15.540096900255467, 89.533364511357419,  4.133048505189223
11.884033947446047,  4.659725114516127, 102.860413086356232,  4.301513613607038
14.703045913996734, 18.792228685230178, 111.116437897152181,  3.884838671800443
15.731677255295272, 18.238635462870427, 12.918382012710756,  4.063555019083250
 9.568994619855102, 13.708322436801119,  2.376393006322352,  4.124984086538042
 9.292540187758725, 13.950844529421472, 13.554074533976349,  3.802334758410630
 8.968245295393316, 16.502019011878787, 100.407775505385615,  4.282102903599339
10.782536021178316,  3.820111487370506, 28.864564308165967,  3.820497950018189
10.947620825568556, 10.890956595074639, 31.705953344434853,  4.243225539386300
 8.009651203759040, 11.445996715550111, 95.718085340142892,  4.034846892121054
16.077301741674496, 10.131795571281938, 74.528396537466747,  3.680315216427077
17.167535104219141, 10.710159433090533, 53.531390930043969,  4.158787895818768
 1.888981563634471,  4.384611865527496, 14.382152156981869,  3.686275035765048
 8.457917848915660, 10.875115183930999, 61.057872226006928,  3.852291870390527
 8.180596853444497, 17.302961908953982, 11.644211439798761,  4.220163304156650
 2.463218238146672,  4.653951980997634, 40.837636936623120,  3.678354806183113
 6.833147259066275, 12.725327333262232, 57.905146908458995,  4.147106834194286
 2.217887618777664, 12.811292302500281, 76.893257436945035,  3.996569318674899
 4.308244358580862,  8.021425090254894, 90.301162249416024,  3.654629713641718
14.171810269039083, 14.724239722478638, 47.810516583374273,  3.863089789612114
12.917332316791477, 17.992517606914806, 22.744279055626986,  3.980045178417869
14.316728778106400,  7.512257076569345, 55.628263706575147,  3.653661004069146
17.436581804646888,  0.697898443252235, 70.162925959729606,  3.745357722433516
 4.932553427871774, 15.497244659990249, 55.786975760227264,  3.758224646767957
 3.944584302051787,  5.940879460093340, 20.010911908101974,  3.918752233177102
16.019764461825158,  8.410423165705668, 97.010022487545541,  3.840831698785239
14.334826968937300,  9.687448607387864, 61.677288798683264,  3.848358940012613
17.598442687914702,  2.036988892974041, 82.206986625187525,  3.703923507084245
 6.412568375130066,  7.658877018611935, 96.520622365305670,  4.329372132897021
 1.598946756851569, 17.752824362593618, 71.078977113153172,  3.748413871387285
13.197187836481360, 14.671004451822816, 34.473202614016181,  4.103811863465044
10.611080940556951, 14.036474353343319, 114.137879600691065,  3.689633790352692
16.857668855108635,  3.876279443315850, 76.973792203733396,  3.936668660131114
18.289554209038013,  9.612220063156878, 70.090092839973295,  4.273096322734443
 6.554864387538051,  4.553354258672874, 22.649315582901263,  4.002042968061675
11.017158071744820,  1.891107245366941, 94.696162962566945,  3.822212340789100
 7.728664850855553, 11.810252505574512, 115.010413736153410,  3.701151007181227
16.306414920788288, 18.697896011521987, 57.330289751366308,  3.971649418371451
 5.105366021854625, 13.746100165762352, 94.036770130231659,  4.066295530650172
 4.750149328013198,  6.138314071516625, 45.069386223675281,  4.344930123440021
 3.776165688724278, 18.147391685905340, 86.676203897715070,  3.855422743115664
14.589119956708549, 12.713314381084954, 59.305294840169402,  3.749007558406479
15.802900423011758,  8.883047858044401,  9.538410259673055,  3.456003405394325
 5.714163536000075,  0.895956379189357,  4.511532537396509,  4.194115463424784
17.919070406040024, 15.983583757561272, 48.407772709035548,  4.069111129840649
14.555938228621415, 12.213021747090906, 102.344660147095581,  4.074860964736881
13.631183064749045, 16.956660242987351, 26.699351120181788,  4.145292012549776
12.057982241308940, 18.630511713103786, 99.128721711070241,  3.604109182458353
14.098763857126713, 13.704144736007745, 67.980644368377398,  3.947693112987150
 1.470193858685385,  1.645325145128874, 113.602230041319800,  4.272993721557765
11.018466684631251,  2.075113312412946, 73.289398808904735,  3.769498773935375
 3.604671917701939,  9.050889694884933, 75.929566925877026,  4.219425354176155
 9.499372054822956, 18.636456490731714, 60.062189796104526,  4.076376044437787
 2.000329730161898, 16.772793198312449, 112.686650482009298,  3.647219748705488
 7.920090550022088, 16.357460076645097, 78.934402328562385,  4.412225533825846
17.258240451097475,  2.610119353044524, 20.682131825927453,  3.724190266475349
 4.562354169107449, 13.094169757481673, 21.136714052655563,  4.251316147622164
 6.400533749606244,  7.382367124648317, 62.092004103107413,  3.926081444523642
 2.635676334645015, 18.854469021272035,  7.360643855771085,  4.424313612370988
 6.910874010421049,  3.637097760961422, 48.687611553005773,  4.249270992606640
11.715152118352677, 17.992382761122240, 32.432056668168563,  4.207258761302469
12.765322441947966,  3.882917268209966, 62.145258310809609,  3.866848798189968
10.533311060546659, 13.559836062067287, 80.437528976334193,  3.812244614448548
15.607693831900347, 16.929857629673222, 44.886524742636098,  3.985447098397920
11.653480891500923, 12.655423770964921, 96.195605328797427,  3.681416016981050
 7.858275861739791,  4.651188094143493, 35.439777553171581,  3.299751627609891
18.907692466068589,  6.099331073562454, 20.276449184877514,  3.976303847955364
 8.060580646491740, 17.605800009506044, 104.695709613840222,  4.357321794433751
13.311050911451044,  9.640890819646261, 107.480337124896010,  3.871593531651857
 8.228851727945473,  5.652554926256125, 81.804504971128239,  4.164453649931170
10.963496072931225, 10.051686123343909,  2.152039911700177,  3.698477071752583
17.363208947694925,  5.467471991574588, 80.601782957661015,  3.867447854342626
 9.637836405474978,  5.766052919406628, 73.740493615016518,  4.150591730310268
12.148636347394065, 17.333916962186603, 73.787998805555617,  4.004066265865470
17.007540610753342,  8.816542159580189, 41.079273855537309,  4.063332056339640
 4.357089444963348, 10.142445084911596,  1.574705762354618,  3.984642766991955
11.257233037841454, 12.840603862412674, 45.849886114282079,  4.106409355647382
 9.708673935213898,  0.169949622251877, 76.388945772978772,  3.901025325862094
17.749699505387344, 14.653652455959051, 52.333753759601720,  4.130931709722826
16.936297293784094,  9.281971541309789, 18.753291864467421,  4.092490321320136
 7.126093632816345,  8.326697620070377, 35.256470754050824,  3.991328533776155
17.102403416101318, 14.364251971352658, 99.924789041183288,  4.154294124613291
18.460176103430854, 17.712576537272064, 21.227984601181380,  4.401769482074871
 1.272180940075061, 12.530131270646491, 93.594060461622774,  3.807783944897870
 4.776198393818987,  0.562480530586757, 98.925243032114736,  4.245415385274249
 3.620391855448755,  5.865861561907129, 68.883892935976846,  3.813805566036935
 0.593986263095192,  0.028522280761402, 46.226949713926203,  4.011204504384451
 2.785129517911197,  1.247154489780441, 64.769270627182905,  4.149524110918955
13.843305253398068, 13.490388295986904, 106.092844013126395,  3.946706713508108
 2.632238371814558,  1.923480241648951, 108.283722650398801,  3.877233751459776
18.549511387142545, 13.775106819933990, 31.345267491491555,  3.984305013334390
 4.939852679346282, 14.440589255158464, 26.688191447306799,  4.320965466167159
18.620983128615013,  5.646095001247518, 29.352080739405892,  3.486987766352184
18.581879488084169,  6.658464594355920, 104.764275384689569,  3.801334534821324
13.660118053386739,  6.602033663179781, 15.489051184942644,  3.788241360484522
11.305855780654081,  7.487737378876884, 67.070906633412605,  3.698296924029184
 1.334468507065860, 12.055771621378454,  4.613420006936258,  4.128392052162154
 0.521543536158031, 13.700772182637021, 20.451345107860458,  4.005604519661423
13.142568817820941, 11.471785353824384, 19.982881073567221,  4.003752353586003
17.647540980017006,  3.074494673811387, 90.362930954693766,  3.781152142215862
 2.293470924265261,  3.860670043560236, 97.836586216878601,  4.253632117820993
 6.505242249358707, 13.604778959232595,  9.585826112717932,  3.830423004894032
 2.738091076159364,  0.759753468707987, 74.286711837588001,  4.094438792406650
 0.617005399664258,  4.727406062281795, 65.719776413772664,  4.260148044275093
 4.177156596489197,  0.350181194505193, 55.901720797366963,  3.963713344261863
13.485153953952301, 11.055278804266118, 28.464887676023658,  3.983633446465300
17.744375293567245,  0.314194627792980, 93.698770884883231,  4.193375760051804
15.161364217000356,  5.378418908282740, 48.634452767608032,  4.022786827369512
 2.127099374968707,  5.654045808097099, 107.463400650929188,  3.814469322366149
 7.411932870707460,  2.722540428609815, 112.948852342580281,  4.063036983784081
15.181782147545748,  7.795735431216683, 78.067632112392360,  4.202949639585316
 5.375848470652458, 14.984415062917726, 114.229400004403658,  4.216237534338762
 1.381454247755208, 16.926222436972537, 108.980988546763470,  3.858653218313751
 4.015316242092051,  0.782470113337860, 32.539300483530710,  3.930134989675974
12.209153610762964,  5.427137598600114, 11.472195509832266,  3.896164357125639
17.267284127767617, 17.594434652286004, 114.179176773606258,  4.437781099684885
13.183101739026393,  4.627972321162458, 88.709169416967981,  3.962475630268334
 9.351133938601627, 18.341398846048865, 71.043336756347969,  3.920498363224183
17.632556126125522,  3.613088839065524, 107.145612685543867,  4.140777900996392
14.508389383194944, 10.605777984221973, 15.844643683657685,  3.915973361040796
12.401608658958889, 18.615834359665502, 114.595363705506145,  4.348709648962057
15.765918597158773,  4.078676254567208, 27.485038542521732,  3.892778193818853
 0.557813838047193, 13.800383158942086, 70.148768014255069,  4.347313905337693
 7.485440873862782,  0.910307708265788, 35.466939022401789,  4.110018830295569
 6.314182594597731, 15.691412062762211, 34.692462909246480,  4.018362766286590
10.096929611304837, 17.171697073185218, 82.471564043745673,  4.013551253010077
 7.658776126092199,  6.181513553344056, 28.981904392542035,  3.940824244334874
 0.223433523947121, 12.436490544513957, 84.261001040041464,  3.652432012811020
 7.063771654297645,  6.020191728869063, 103.663796070018535,  3.658580003894647
 2.539714136253381,  3.061617898482934, 10.566434971687293,  4.453894467805347
10.847778828302415, 11.786507936307466, 77.229539261719864,  3.536771237230285
17.193735666444976, 15.156324296052990, 93.195733241037644,  4.143366756681240
 9.619306014895232, 13.533227052468140, 84.286292142738176,  4.084047303451220
12.903855661075614,  7.245130610357364, 114.014117162285004,  3.896464041075860
 6.175963083770172, 12.931874714416969, 30.366828267431163,  3.997697920774032
15.812338232986615,  7.418763912277953, 92.518935109932443,  3.768780184921371
16.154824581653482, 17.679950173843817, 35.575447057034474,  3.704174184940610
 5.612784924881425,  7.522671685008045, 107.068731001053010,  4.092827016278524
15.532773041231611,  6.139466045701155, 60.230593708956611,  4.175679750610126
 4.725481594553386, 16.028108068513021, 59.755382688485440,  4.244018682929486
 1.595454029748146,  9.448925134472407, 106.652756682855667,  3.976039932650294
15.241391697963245, 16.206832461939435, 76.133417430823442,  4.070930198801992
13.370714375132627,  5.899455157497847, 95.524249524491026,  3.992289163087612
16.794754918578708,  2.989685537507496, 52.130626181293358,  4.401415448795237
 1.657373381080920,  9.016624469639650, 114.794822406081664,  4.109082465504399
 9.967135560185980,  2.988153772359224, 37.887936476830440,  3.957428736950762
 7.474122015714610, 13.058365074913485, 37.560300108165251,  3.764437224446087
 3.422583335975774,  2.657905811026877, 46.878066087270327,  3.816487065983555
15.967223623311250,  6.782251771006774, 72.332390956263183,  4.287195746666193
17.196786856985462, 13.912583820996460, 35.180921281317119,  4.132123286782356
 1.881066630076113, 10.490133489673651, 87.091077007003946,  3.935263566710904
10.019381255689042, 16.709519832856707, 35.941003512899243,  3.997424506770024
 3.388080393264018, 11.522527209163847, 40.285955722141900,  3.875377884995742
14.289694111493615,  2.293878776063154, 100.568864476930855,  3.840509382983381
 1.172183111325622,  1.629690498638951, 38.798124756881670,  4.033163823250490
 9.145245358732524,  0.783027388923442, 45.131972205657902,  3.877057215818875
15.607642705458828,  8.723639492672946, 25.974308450953774,  4.018152143074855
 4.614151634857472,  2.351865859755344, 43.124281083623501,  4.038009400397561
14.417917828973914,  2.182751010348621, 10.144605598955280,  3.854610616188634
11.405964131388322, 16.435506867325039, 68.022676076821142,  3.715001110215096
17.628579315037427, 13.408723323289710, 75.002580207961230,  3.609589557338764
 8.492229854115122, 16.838635263741292, 108.876037597110567,  4.161930861587239
 0.089230249044659, 11.845928783511475, 42.604097416447154,  3.777515418587713
15.071353766991583, 11.827679703142342, 77.696881656920894,  3.748378416683384
 0.869328721055199, 15.562329605625186, 27.806827278644285,  4.246755175465805
 7.029116262771708,  5.761439928960665, 41.686123186537671,  3.836874206551786
 0.183576276056251,  4.439403483121433,  5.016220494919629,  4.170964539497887
18.489308585858893,  8.387819659783524, 49.060286095359118,  3.934692398118903
 1.746059759596100,  3.855701909895902, 61.784930964501775,  4.043685601530226
 5.912500721350412,  8.220784357109045, 55.243849852890342,  3.915988774196240
 5.187940720465535,  0.002577634163807, 70.238347329747441,  3.877304323831654
 4.925597405453713,  0.620710890923508, 82.812006409632275,  4.097780879921638
14.347052559334145, 13.590174532687364, 112.552121907261650,  3.918160136053139
 2.641448686029692, 15.283798617263232, 105.497175620507605,  3.915957592860273
16.992931407678419,  9.187303451202714, 100.918645447111217,  4.112717239121085
 1.256571548429671, 11.523421316253408, 63.949234134679195,  3.786135423249965
 4.272163265201429,  3.431351465776662, 35.534844703462561,  4.027226255411546
17.083861167741258, 16.009023391476056, 24.776709091227431,  3.931135473050715
 1.327832434302384,  8.581311811464362, 38.576841816803245,  3.997695717136730
16.785564181913340,  6.676326552489511, 88.682516984971073,  4.259532405687966
 2.080702924303306,  3.576514267735941, 83.494432482405244,  4.208802615821591
11.441066542745880, 12.317604438900009, 117.503563160272293,  3.921047405514311
18.143758382500252,  0.198123516512894,  4.912510344489653,  3.980639005785511
 8.382412165706414, 14.941499381175090, 117.130989674800858,  3.962440287150898
12.333701920311409,  9.239834197727461, 58.373681483682034,  3.922504368412279
14.447999411807386,  3.089215725881351, 92.743419250995075,  4.180980577143197
12.412261779306247,  9.217995637089636, 12.729850736542534,  4.088792569725025
 5.802976130595217,  1.227916121031351, 59.405852752056440,  3.950482715295219
 0.343323599312501,  0.280175427273259, 50.236724313499757,  3.866066828191783
11.590349119648980, 15.149104594065959, 103.320087511432888,  3.877866874041983
16.478933379539139, 11.870996260889648, 108.635717056971629,  4.031055101193538
13.140869527992363, 13.268120012130037, 13.213758111495784,  4.030989093081795
17.077296349254780, 15.097092787720319, 41.487302471450249,  3.920518258031193
11.155749052166069, 13.891341510384366, 38.610741760638035,  4.035687456582528
17.204379557012739, 12.120181176175754, 48.281865847120919,  3.761715516001522
 2.227468677728540, 14.996390166711858, 34.313040710853166,  4.288126074864247
11.963566532629379, 17.315122697043588, 106.768254623669549,  3.922558509077263
 0.102376588343210, 10.126028852496779, 118.312986065077212,  3.776619110386687
 4.237156541914221, 10.909280221527435, 15.732750078733595,  3.864090411365973
 7.080209395567092, 12.441664731854985, 77.405678045315156,  4.109454691752621
17.763377751643109,  0.824700730973417, 16.119391375984954,  4.113449563513377
 2.968574566825991, 15.764407653482532, 89.734687151186378,  3.981131146517927
 1.835244297153412,  8.221930906419246, 42.653882411552011,  4.175712204348873
13.167031467371141, 13.073687507098194, 74.573809446971950,  3.955269749176831
 8.794116347426138, 18.915725515305098, 116.827637459704022,  4.041175194562144
 7.772283080610433, 14.215879107111878,  5.944217201477538,  3.926123951851362
 8.724961232649823, 15.273566360834517, 74.562378499219719,  4.086680795336719
12.291814332068524,  1.838501360220066, 25.681221540434745,  4.211325768364447
16.619033536837918, 11.163525076624738, 92.736798993327696,  3.876132487024479
 6.132048464974413,  9.523872006822888, 112.367099283611481,  3.974196475390066
16.037473004247104,  3.541728341548762, 64.146464868835992,  3.816377519847483
16.960038875859095,  4.565519713774603, 98.356567926119226,  4.449401532370371
12.432587497801416,  9.012917836135371, 52.554473717196529,  4.142773841468681
11.800265416098531, 10.027553165478180, 39.429877644228917,  3.965027119329836
17.329443719835346,  4.992128699859470, 16.289946865045220,  4.192226483786572
 4.036562821310627, 13.945873527095916, 50.594440219349387,  3.736507635353111
 4.476754779525358, 16.529149794265301, 30.262646305772197,  3.958150470248092
 0.015714913155860, 11.304140093336478, 98.235786074512831,  3.657754677018398
14.760562586699994,  1.415735493135143, 33.433883173198318,  3.703251656770761
13.608331041214170, 10.412560043483852, 99.060020819804677,  3.643626013223912
18.640429849040885,  7.308167689971654, 75.627005471222134,  4.249920014940956
 3.725509893155007,  5.178016589811804, 28.590192544289454,  4.199307499039897
13.009358914425011, 14.860049096004671, 42.276803774911926,  4.360969970602437
11.805389357778401, 12.717821557640315, 62.163516281154955,  4.054877040207928
14.584018035615719, 17.218699728890527,  3.210787612375672,  4.338177218408579
16.544147509673408,  9.608434522308286, 57.974160341735853,  4.040870293556107
14.165016366188253, 15.187741458206041,  6.790983989900277,  3.911964812367285
 9.277490965573449,  2.409542200263183, 20.505090188163983,  4.146598126109357
 9.450292412529956, 15.539074535851269, 48.602707086746740,  4.328474383950780
 7.944008941948097, 13.146463173432306, 111.304615591806765,  4.031176219390693
 3.182982487228171, 10.701199607035099, 69.665357653662454,  3.677837026813631
 3.945607200541619, 14.688720532167983,  6.232885521700401,  3.800367600064451
15.696151195878208, 12.593290634665118, 71.480047529737845,  4.034842344522949
12.460097721455950, 18.918268827873064, 43.146934327236501,  3.987268519433692
13.909049977082924,  9.256008821332857,  5.496670359029832,  4.073577812487264
 8.653453630058701,  4.678712981877458, 45.118132427365339,  3.934660849143117
 8.844739861423211,  7.678562340915907, 89.490962197110079,  4.053991181986334
 5.250678225979759,  4.414731368123447, 89.384570572220099,  3.974955683211877
 0.044911402006565, 15.502357229339253,  6.565501367951985,  4.184942175435274
 4.531691869408248, 10.201553699510509, 79.853282058928912,  4.146506125976178
16.804204164804258,  7.499676748269220, 67.025907260879976,  3.719501766253240
 4.703148076485453,  5.054833009766019, 59.442462119100782,  3.839155328729929
10.683819258435291, 11.783414852076385, 16.659239796255431,  4.248323215277765
 0.892627798058115,  6.489682715805233, 46.068903243684737,  3.648018444865709
 1.734659619433510,  5.346220471031140, 90.863369153548945,  3.844056509620148
12.483136266474423, 18.463949119508225,  8.088568722681186,  3.891407214954295
 4.530798098486158,  4.597076632419208, 110.596902348768396,  4.086936071622236
 2.562639809862724,  8.032320565441337, 62.353104604863269,  3.586593706339599
17.689069250844913, 15.065593543474057, 106.438770959811336,  4.083169777434361
 9.394368374159878, 17.327880518935089, 21.062588547397976,  3.923975964830758
11.528024402350711, 16.708321087093619,  0.400345383648167,  3.998121026556699
 4.069138168784137, 15.890268878101171, 97.202058859506280,  3.848633442457239
14.674939289557845,  2.470847063838859, 17.943682003573262,  3.764946030038184
 9.701590311262937,  0.401387747381865, 50.310617102312300,  4.013693240042178
14.850267613984551,  2.040470712616514,  6.112671993055954,  3.926061037203902
16.162367398331874,  0.918164613310749, 23.941325648489126,  3.885242826680387
 2.844154857983774,  6.951197675114232, 118.098670840852805,  4.027404526204729
 6.646246337942159,  3.642720703637802, 56.171336268789275,  4.266452078432701
 4.254423635363183,  9.584703059838670, 47.433820182230619,  3.830040631541155
14.453771053165424,  3.688419029466236, 109.766305704792899,  4.095801254353263
12.150449199735165,  1.600248804138638,  0.105954014159108,  3.763220100356516
11.840159915614596,  3.545522520353736, 112.950248774106115,  4.059627191442373
14.789755051461775,  5.573450349789463,  8.035392150347690,  4.086388805542998
 1.993750092188879,  2.155037905764861, 68.834520509512672,  4.267178905319700
 0.537809668899422, 15.522228420951901, 86.552006167246489,  4.041895837050106
15.241231731716475,  7.311753579116328, 29.768315229846412,  4.032836708434078
13.705370644142642,  8.399160289272183, 102.882195549152215,  3.688049333556655
14.149636846285233, 12.759453487770314, 51.353408137681214,  4.218757203161410
 8.592308912858504,  5.672765016253654, 64.930718368731192,  3.996572791821816
 9.319972609218389,  1.459477556544647,  6.545672736306576,  4.132475766546492
 4.932845817673229,  8.963432996207304, 27.793210580602526,  3.860463051581829
 2.978517972111243, 16.128740945709520, 83.456968699850037,  3.907103169802521
13.635292213095518, 11.832858038280934, 55.495860731262994,  4.215443776492280
 2.877965993950069, 16.917971517025627, 48.609316055046641,  3.721904125310360
 7.690400400666882,  9.125625385580166,  7.917845517049452,  4.122186189554150
 4.333609181520790,  0.187604913538628, 111.168044098731457,  3.649847648055462
 1.326276594063066,  1.389467062703295, 101.023361866793223,  3.988936678576898
13.910197305717361,  6.644789286608838, 42.473828123142582,  3.964661794021074
 3.993909954303426, 10.860804884007157,  7.513156148299611,  4.081071227872778
11.677049284658315,  8.341352446287042,  8.791766247596994,  4.078191028985990
 1.847576140265573, 13.456076436992880, 47.590708774031533,  3.752384285695813
 6.545037257216625,  6.919283630793593, 78.161285156884333,  4.211667945009443
18.843487709782448, 12.690591588608354, 103.297318737380380,  4.107987219949578
10.741667227530735,  7.772629112201522, 77.425823309402347,  4.477860069660155
 4.418033009285456,  3.797579574334493, 101.793287149013764,  3.948535377271278
13.040359232355385,  4.290907711807210, 35.596104637606082,  4.004405255572564
 3.594291064078041, 10.974357876508774, 83.638163237857825,  3.797139238281966
 0.820403469304027, 17.586699546244787, 31.383759016346822,  3.969079116781074
12.463326676866497,  8.846904896091282, 73.586567072436281,  4.201766183719164
 9.741352030583986,  6.218366129912279, 55.277286636208927,  3.935486458022218
 6.201782673649939, 13.675625751284922, 99.503057378266263,  3.827420305958911
15.623579709073061, 13.767538934840292, 17.931492761395852,  3.835346730115103
14.980988792437406, 11.168968481185940, 89.009756361299949,  4.238701002982069
 0.573330122835549,  6.784942948707990, 59.192963038825077,  4.119779670774059
 6.198741756300940, 16.480530695411954, 91.601431660105092,  3.571396043041337
 1.064968445976841,  1.911060150639464,  1.837938239427169,  3.973941233400402
 3.243094154508432, 13.469544878806111, 66.823532145379701,  4.208127619451957
12.023922590141076,  1.796522262561509, 69.578989479890296,  3.829575001845731
 4.279268336697191,  4.334137798187618,  2.578702932883272,  4.182996838599101
 7.463427808114226,  4.523405100688513,  4.968128940743666,  3.668794322139916
13.258356229162278, 10.683546001683389, 65.411866288769161,  4.132290588695347
12.185037428507206, 17.079661872780253, 11.663048474110044,  3.789897490754323
10.706424107850442,  4.920038878548168, 92.033590462199172,  4.256908669747980
 6.324601303211029, 13.896737925727042, 64.252765793539837,  3.803973455129808
16.293870388815602,  6.580548489521947, 112.246233983811990,  3.809896667871043
17.619636620500863,  2.961238293753817, 12.508348735437576,  4.201733766142226
 1.105085279629756,  8.234393945230662, 27.310042968184639,  3.682514839173824
11.291698632092933, 17.748256033854812, 86.487782817827068,  4.187112380992610
16.523629390919591,  5.093347844647657, 44.944364558676170,  3.824163863391762
18.055301855453266,  5.815199514429488, 84.936808466597640,  3.761219213102944
14.941218292599512, 15.434946218662480, 109.239560138177922,  3.743920026906423
 3.760821533248797, 18.039933400697922, 40.272087122440851,  3.779542866450936
 1.292840869975729, 14.238987941003904, 61.281733437921602,  3.775291124360442
14.009502328954953,  0.781266040040596, 54.271094097554204,  3.892686259773805
 1.609973753536050,  3.261353365733149, 104.455051143009939,  3.827625069082720
 5.097408638054215,  0.107359482109058, 115.079870691415664,  4.113426717299166
17.404309594826064,  7.553290853737490, 108.533192230738308,  4.168766008613315
 1.998416727691393,  7.634044255175993, 11.975097904530118,  4.375361800159979
 9.004765469113233,  3.919928344589104, 59.806370764305221,  4.411051519971395
 1.685886287645786, 14.433559773594975, 115.428199237142522,  3.571536733568529
14.284930906143490,  8.238339339037488,  0.721617986490248,  4.377033308161004
11.824650099585170,  0.244620524683000, 103.062311417579622,  4.236096510734712
 8.759623374492406,  4.211341872409140, 13.713302416773692,  4.037278667948373
 8.262250884648145,  1.531163731831486, 80.438250313743964,  4.281740157348164
18.909467009557069,  8.500363215035909, 23.571436548878676,  4.149476340201166
18.550277633271893, 10.197188765409971, 78.652517082864250,  4.116462265372758
11.707067943442079,  5.077689085343241,  2.125321030742502,  4.224948872913793
10.534358458222805,  2.161254950732633, 55.688225834621498,  4.097864866239660
14.814925434555491, 15.231362518129965, 38.076311526523284,  3.782874766181533
16.473271301374027,  5.130526258999179, 23.660113184456321,  4.095610702361636
15.808860519599410,  6.557420924463036, 12.343014713375213,  3.827002236825150
16.060575347311360,  1.613336278886389, 43.292922705011890,  3.926118824683729
 7.435320907233063, 11.138779573486053, 91.499915711748955,  4.110016718170888
11.091207718516262,  4.015415870156534, 17.114779792584510,  4.161376507166477
17.461388994575263, 12.288797500477669, 114.886064098388360,  4.088079442881346
13.406378848981042,  6.542990740462529, 99.489092231391780,  3.986052444254775
 3.257330992528285,  5.955628898173839, 94.419433119279162,  3.944308375202502
 2.248759831646770,  7.418533500160589, 72.285063757050082,  4.142847734724850
 9.633268954412632,  2.575154015293901, 32.446398913195999,  3.986030596206090
 4.922682713422803,  6.522037786358437, 38.271433299036772,  4.297133457050022
 9.166523460227644,  4.859298455344646, 68.702787573186669,  3.804688533069553
12.116925610403067, 14.511507181862983, 71.155892932078331,  3.707506844667989
 1.726481855857591, 15.149931745216259, 73.811035940340133,  3.799741230059578
13.158063452313039, 11.566833714343030, 84.211878054289485,  3.856335218727261
16.362094615425974,  2.746431709644750, 113.257234104218853,  4.048571196180935
 5.609904662109777, 16.831036417061291, 14.967128957599275,  4.220008116845001
 8.170111014632740, 14.008597604823219, 88.347205258892345,  4.522263796173153
 6.149215818088733, 10.237377528077626, 87.685923301070545,  4.099776838417275
13.395256938796260,  9.715357918651376, 94.449783167291386,  3.936240978360818
 9.851876562015240,  6.751251195199128, 32.489906943836907,  4.375205886854419
15.889418069677550,  5.365046429173276, 102.310453728083118,  3.874260273766364
 0.330367656398988, 18.412020365662187, 42.200376196580379,  4.110207689184022
14.659524018020374,  9.332999397784556, 49.139431167112065,  3.954133452556767
 8.960982166605374,  2.836532071656646, 105.317187154181326,  4.149616060657537
13.437910785232967,  5.197015873454976, 75.304659918357942,  4.085947165631531
 6.542061599130387,  2.448803949077577, 29.896786963566260,  4.019360735360100
16.592165400961512, 11.494252881903359, 22.102151730890057,  3.959968998346345
14.701342633643026, 15.840937461355461, 54.957646096194203,  4.096462039167514
 1.857938209784441, 17.234502022283156, 67.317489522454323,  3.860972349113748
18.648466656321538, 15.022201205242077, 64.832829476422248,  4.062527597092666
 5.114727409125362,  0.507032169682561, 77.729782994587922,  4.270429135329503
14.044066748353318, 17.761972594108094, 92.834626093570051,  3.976724287649764
 3.717278997396115, 17.481795006926479, 21.681781834812135,  4.029650215099429
 0.967084023955164, 18.637534109593158, 97.227445442036853,  4.119818745663952
 2.173891392672531, 16.692531401078742, 93.684171751043408,  4.274455127501076
 5.428212179563193, 10.229254275232330, 11.151484504625842,  3.770663494646291
10.667355626936171, 16.846764094969842,  4.864580385052935,  4.177578054798061
18.036884686190305, 17.728821194133101,  1.469700284857425,  3.449288106431980
 7.947511680327827, 13.384493656255920, 103.126010630256786,  4.219883402513488
10.371006039614947,  0.355681545800433, 14.425253063682522,  3.901050365804936
14.376276491652948,  2.851114685741273, 79.775850893096788,  3.812353808029551
16.994815435463252,  8.008865887243569, 36.300115045192612,  4.051386690071562
 6.960360117880095, 16.249867885651515, 52.006261001360379,  4.204470245243085
 3.881494962944345,  3.915220476490203,  6.682166911024879,  3.923606966761232
 0.714797216218036, 10.755866587844000, 35.128446048329188,  3.851150394610346
 6.454656958324986,  2.316491544867356,  9.234720616062862,  3.909947611951817
 4.837508314397478, 16.099765679999738, 118.004768722824522,  3.676548718751408
13.409916899216647,  3.039438810406708, 40.346164115508628,  4.464213698425936
 0.601319536235684,  9.096696423985493, 90.588152335607148,  4.010364428345143
 6.746659760578154, 15.680390319706866, 23.302976149268037,  3.706713960116568
 3.969872389117239, 14.560293359258450, 37.967077473517584,  3.854858361820873
16.191426757233309,  8.969542070927167, 45.203765978532530,  3.964248213488570
 7.762984006809258,  7.643522289189272, 25.176202314051007,  4.212553371808874
10.087178703757351, 10.498972446725368, 86.876083631162530,  3.850696162804637
 3.087816304215665,  7.655339704953799, 34.758106927983782,  3.947243772255411
 0.619218445221166,  7.683206740291160, 98.401279507162400,  3.658825538914044
 9.266637913791905, 14.599156927583424, 32.238221390974189,  3.956685384800394
 1.919912030643464, 14.824466729841212, 23.954573553578729,  3.832526647586128
10.190624484853302,  7.134825848627958, 106.107474461981582,  4.502780966987872
10.376583545381379,  6.016415081431237, 22.308952931753421,  4.192768084072429
16.843051794419900, 18.763941445382855, 78.947186666346227,  4.175388950653895
 0.343603932199532, 14.629596191407968, 96.615423286489246,  3.769187471739158
13.005359547201815,  1.511496894224615, 58.923985229053109,  4.138783181777319
14.797728981185138, 18.467468563443081, 82.313187434700325,  3.721216671255028
 0.827324800786758, 10.236704872157119, 45.939762121078239,  3.758059159034625
 9.702448321754829, 11.801840635020522, 72.618951053733852,  4.107159530025107
10.665716404650892,  8.613329510950326, 97.418090640007307,  3.984110502982735
17.978381883109542,  8.838890777328199, 14.791155963420492,  4.148408790523456
 0.261504577841021, 16.456582399246301, 38.038115656156741,  4.472326432008127
 1.377820651067833, 11.632984183942506, 13.062205799642015,  3.922351433525941
 4.537860385857163, 15.048425831903950, 70.961583855970375,  4.151137273274646
 4.053657490902028,  0.672689267147264, 90.601204335930191,  4.205075332268076
12.933318471808272, 14.795177547288025, 99.515787529252407,  4.185685350821926
 5.101416748465875, 11.123616183071599, 108.851416051336045,  3.965567451064530
13.556950601291632, 12.025428848933707,  9.284954661906520,  4.218690464487484
10.872144611505396,  7.666323895432035, 36.407785577945759,  3.924190280567831
17.895562159268810, 15.871641355646352, 82.599547124839006,  4.343051496001995
 4.030113927979337, 17.224456285264992, 44.355757621178221,  4.454487885726386
14.511204385615409, 15.331330145920667, 64.204378268853958,  4.246429115528795
15.969647082736515,  1.612509516078565, 47.301783967523257,  4.083120297269622
 2.672682608891619,  8.261644083004706, 110.412892546036673,  4.122701828420734
 0.055920017769299,  3.884178944689811, 48.707184962685396,  3.929304855500028
 7.862285758956916,  6.072238091114713, 18.886637733106429,  4.226651691703775
16.724717070981360,  8.367018481912684, 115.760081421131702,  3.958029404198583
12.632260820299940,  5.567058042145598, 70.274653246378350,  3.914467648423175
12.002419523045972,  1.441719411067358,  3.747521972060611,  3.529193830618042
15.273540458422200, 17.651471697425993, 18.527400796334625,  3.949437920815713
10.209046919222898,  7.609075486149155,  5.067901419368217,  4.052480522131326
 7.355760736039141, 10.248826249604770, 83.882276971339650,  3.877712668562219
 1.946051220556403,  9.684510406862129, 55.216005303430492,  4.265019591947489
10.634084142895492, 14.959296493488056,  8.707792257838548,  4.114508480419881
 0.976625723434621,  6.130972276747068, 52.106258719499422,  4.163728742051330
 5.681001303538988, 14.522759257169380, 47.160259941687443,  3.951937227484597
10.069221298779071, 14.026596467810741, 106.591942617156334,  3.672727783222735
12.147487373117352, 15.258488623962451, 19.061069029364173,  3.994688676676557
14.035241467070811,  9.339021008667624, 69.377957590690897,  4.315798754880518
11.806420106098537,  1.909817725827837, 82.547706467237759,  3.949538044143120
 8.612796737473769,  0.454140600002570, 97.426308074188782,  3.995091926210584
11.412165746741685,  7.639649453570799, 28.742773485035347,  3.904060904787094
 9.332766881262764, 16.284799525555538, 16.575715299573769,  3.781310302070729
10.811097348737645,  8.690574617140035, 83.460103649154348,  3.714056401408264
 0.857775125711968,  2.163406547075586, 57.378460695512842,  4.120775688411258
 6.888553255596400, 16.539814430769098, 84.772284087044753,  3.969016200741352
 9.999127144376322, 13.955343980712444, 65.495713437445900,  3.870032514049647
14.598811167809707,  0.742479191519790, 89.269209120222257,  4.198790298344785
 8.989689948723367,  0.614231002846473, 67.116368815132105,  4.333183656741293
 5.761354127403084, 18.592547564018314, 27.010592499475507,  4.159866939801198
16.013569842904079, 14.260447186692236, 28.432465525751923,  3.800202419045746
13.775523248824561, 15.060600361502130, 116.069917007681894,  3.790781124896343
 6.311215552021755,  4.247818041519626, 117.038058841845100,  3.864478756190988
12.890183040075657,  0.472562932504461, 36.889889049912455,  4.008276298426501
 4.388430181703326,  2.937441148067367, 25.480327270803045,  3.576095462769590
14.804703471612218,  2.709100523975799, 72.323799074360011,  4.142534205456337
 7.649371323227769, 18.119831601278154, 31.882133699274227,  3.815583486890148
15.648492926595802, 12.541164591123017, 96.430216005620409,  4.228238700550423
 1.062689771695272, 11.562794903962612, 50.817029875899074,  3.877854959853065
