BANDS
8 8
NANOPARTICLES
cell(1), 18.953
cell(2), 18.953
cell(3), 118.459
17.792807671733872, 14.488838577459807, 46.712055789213032,  3.539415388655471
12.870803302191819, 12.307649351968443, 118.011291513388230,  3.899231444172471
 3.583586057920850, 15.299929819156187,  2.025772077820016,  3.798762758107901
14.682581982264825, 13.731474618602663, 87.655666188973967,  4.352076768660946
18.545410855457114, 11.951920227279798, 58.714542832748975,  3.939141111184961
11.286150263515728, 15.943244537208502,  0.017483223198963,  4.058274290008817
 1.187497459019020,  4.930803208304602, 39.718364750788979,  3.983660133625580
 2.831908516170690,  1.830109457600995, 46.441701527003310,  4.296206665723298
 5.759505946213067, 16.270650459421713, 42.327946044662305,  4.104099686421301
15.906579048659209,  2.677133972891357, 56.616076835682826,  3.884839925040418
12.622481738858459, 14.415852524209054, 20.956957222554358,  3.609432666479236
10.791757967885603,  6.702216215995056, 112.621878386893201,  4.227744590097763
14.557588659640112,  1.490246005508640, 90.513365950610321,  3.957925155972600
10.704433746360353,  7.678893251594334, 22.688328312203044,  3.649222633937847
 0.120594401190021, 16.157281012198130, 77.260884568438470,  4.124210982220963
14.874216679700913,  8.002525449880705, 97.900174852799125,  3.917248545027489
 9.798284919530245,  4.179108487167237, 31.068254605571752,  4.052229566511076
 5.723636308437334,  3.836783191429822, 99.950167778265964,  4.062211847801330
12.459874164955817,  0.065946759976628, 115.880978532480725,  4.159152937416877
 9.315433356612125, 18.507128710382947, 35.321316903885311,  4.104212803163172
 4.172042629200537,  8.343274703575901, 34.217779517354018,  4.411050384024886
16.558537374242228, 13.547505795903668, 26.860418130242785,  3.997373734023132
 1.287779162972068, 15.188125983943419, 71.106529870674464,  4.104659057992715
 9.728975902103461,  2.880031002689524,  5.929776626270462,  4.249765368737144
 1.131002541158813, 17.855210990144673, 117.335611260267768,  4.194090255527565
 0.119064672401371,  5.750163479988472, 96.360974377975538,  3.964435573237498
15.317321990136740,  5.182762636073738, 90.511294342793335,  3.564364686008084
 8.570917408856531,  6.388338362773727, 84.867856134467871,  4.027706976834412
17.534422522405023,  9.209223144336924, 112.420973267162040,  4.225743941165922
 8.355135684307168, 15.027361379739750,  6.664189827609961,  3.679871688271728
 8.571450171019986, 13.087847895550459, 51.490264631301770,  3.907865366604049
 1.364227005483747, 11.860421635364371,  6.928049364829814,  4.379787896566032
18.452111367930279, 12.459524548645149, 89.113453508195690,  4.113088403050601
 9.881249703792163, 12.109140799021077, 101.365201774357757,  3.944863496384713
 7.580724807607428, 15.388144563470769, 48.415884940611853,  3.976592294032743
14.788813503725152, 17.353039601009456, 111.705128670199471,  4.054249399545779
18.609264540142256, 15.566018558121291, 57.156195797206024,  3.870592088672819
15.481345847046521,  5.220543751380410, 53.620778395334021,  3.931942134195128
 7.139232821525866,  5.070509464745137, 78.472160950452647,  4.216911248302095
 8.624312684587618, 13.677320826774697, 116.409344291817348,  4.027992316129148
16.627951770441484, 10.241642589727473, 20.236565805640073,  4.337514494148738
18.936184071930285,  2.254472797918276, 81.057612955893930,  3.879791392019806
11.387025879767894,  6.326243759479557, 14.390176540292464,  4.068011423011775
11.598119638293630, 10.869033087701187, 95.626792987385826,  4.275717727523316
 0.281119110557883,  0.286195194946017, 55.781394582770076,  4.072811262082817
 8.273792194021967,  6.045241811629450,  9.677570976635813,  4.114611440717872
 8.636787635919161,  2.522068340843044, 86.132162334526839,  4.076116640936573
 8.555963180435311, 18.061282787417770, 12.559140781761121,  4.170167229893393
15.925755365638695,  9.643408664458482, 27.689626800558123,  4.077115512500725
17.425433867668236, 18.863813826835177, 69.234456286547569,  3.625729956603251
 4.358755624650357,  2.817078748223988, 61.640174703151452,  4.147187203585534
16.561402365935066,  9.785082963717198,  6.902107512517601,  3.997952698967199
 2.473749753743085, 16.057357659144728, 113.907232751930593,  3.974963107184617
 6.986619209223615,  9.296228129219845, 112.541446200932569,  3.944976547326222
13.761979161342705, 10.331070628493617, 110.848807327317672,  4.242859350705642
14.029160737438637,  6.452875389162593, 105.282058024005536,  4.056899652679948
12.891344973934341, 14.243077983604444, 109.869640542464708,  4.004207711304913
16.957096915009163,  5.510091075627260, 13.743158593380349,  3.904881614065122
10.274977371572025,  0.524383757521352, 80.542938340484326,  3.820604991741673
 8.719293834693287, 15.267047178767793, 15.638272996422058,  4.151699604855219
16.482902748719940,  3.907229524861631, 40.603952968913433,  3.804173079198192
14.907204053364621, 10.006759708566362, 34.422875096344569,  3.811511554326619
 8.636095380236446,  1.407462033306597, 101.913489426522901,  4.181327438328216
 9.146438347460382,  3.381676170734883, 110.051838916413757,  3.674773475363510
 0.209039126238760, 18.162203409695163, 73.652170649648880,  3.998261204134656
12.173080753134252,  0.500249643411875, 17.710708309997802,  3.786924811857168
15.031700803074470, 18.744376876855270, 15.234752289107570,  3.878402560511433
 3.001939512541617, 13.061575502567036, 42.927973950936817,  4.022405399780414
10.815182476106861, 18.365194851366198, 96.084496641911855,  4.328762906914332
 8.198794037804049,  5.621972186406033, 20.223415853894494,  4.125935608725377
12.608690451383938, 10.997066177235775, 49.538554175042776,  4.182680191006352
 3.672625142550656,  6.762905348254079, 97.974816913035298,  4.096414151710095
 1.691784886389787,  8.132225960896877, 27.388532336705126,  3.883706714851164
 0.130798395435119,  9.900558678916051, 80.246850893059545,  3.938896415048707
 5.819455193937443, 12.965214444518574, 76.291131133198093,  3.742913032167900
17.904721471009285, 13.305997405088311, 12.527911616500987,  4.061645248795632
11.281215027995680,  6.696529634534382, 87.911414324099070,  4.103784749507353
 5.893877245102679, 10.586398590828669, 42.220036365972675,  3.702470655816980
11.264358252184676,  4.415767078596945, 47.689521109766012,  4.098875241729004
12.417684814872947, 15.324912458545242, 68.758620743362897,  4.059842854586627
 8.495377402709899,  0.311028743520499, 16.456392247430351,  3.945978212862534
 7.953446929684524, 16.254293439033006, 32.084325491979385,  4.166958522826055
 6.034005365851012,  6.274504437435260, 105.857410042240019,  4.560896362799195
 9.455557084786703, 17.339750298030793, 70.663716697478151,  3.982133000926361
15.753802520463736,  1.101440663407778, 63.194201648090164,  4.255037084829008
 0.798141454021395,  8.722984076980028, 91.532911675613164,  3.976416452838337
 7.608438275234803,  4.595938068680714, 49.757220861342944,  3.957624972538519
15.340640400946450, 15.652052107999653, 40.212245258880586,  3.960202539399656
 4.398531841664569,  0.051255335305702, 115.438091106405281,  3.694506132535655
 1.394748679434084, 17.999632370821264, 11.626258523350181,  4.014951029038650
16.557697150151281, 17.792899985594108,  8.598266862885335,  4.006141934168123
 1.568620578985026,  1.326654990260267, 37.957013238269241,  4.052180011510872
 0.366810202753055, 14.183299095679144, 50.225696753827741,  4.058427414995641
12.576856608506203, 13.613807027343062, 26.408663154689098,  4.017638611506193
 7.166494850038908,  8.330890621533420,  3.412691789793533,  4.075151475236080
 3.313404087525539, 16.805263778273630, 57.053934395991497,  3.828898860691059
 1.687419917489315,  8.959374740116136, 20.162952621743724,  3.996095110495269
 4.654420470756078,  3.123721360957731, 39.652288367813838,  3.819763819190090
 4.339700505718297, 11.207386917022207, 96.439588407455759,  4.138782542710230
 6.979954667685450, 17.055919725012345, 76.996424484996425,  3.955361618591590
 6.255092236544991, 10.616043656348230, 61.994812919410094,  4.136111335319924
12.459682714044781, 18.009313355998060, 108.456575852360643,  4.038325811431244
 5.949826390879092, 12.544735738295230, 101.048516081636990,  3.972189929028864
 4.847833450126467,  6.813263181549796, 62.554673354448525,  4.040130313324205
13.756905744032558, 17.307715621779877, 80.349802826107293,  3.745475458560992
 2.078975913614694,  3.081684548887325, 110.595017582890762,  4.129363212570397
 7.455374003717283,  9.263982366670758, 94.721206048803396,  3.877615992558837
 1.398555436145144,  4.819756420751843, 92.625639521392429,  4.121438675857350
18.940905494586595,  5.895741212479297,  7.439022198524325,  4.086693989911633
 8.110863212085231,  7.011141011355462, 109.557532492458378,  3.877030905342074
 8.013451625385510, 18.747598397301356, 109.190469133510348,  3.954750260145563
13.001505854859207, 13.716152869756460, 79.105618582893626,  3.944182866577554
 1.644855997881193, 10.265639828383547, 49.879445486812443,  4.132707049579064
 3.787034869359941,  2.767152377250049, 82.126475840101108,  4.047316703260274
16.640261830540521, 12.462544371422725,  0.831924291272593,  4.016659974694022
18.523897818028040, 15.887148716620683,  2.263805046135971,  4.221078525298069
10.710703942183443, 18.017296766171242, 112.201979270663244,  4.225773708779982
 4.616214436630155, 10.020677715204211, 46.938779655056386,  4.229555466279439
 6.854457204412439, 18.844048527966834,  4.951006957898825,  4.212528689555110
 9.240569950219360,  9.306516177823838, 50.937162336268713,  3.835665677823631
10.056634845411871,  9.137558296302537, 68.354137957274560,  4.015216039163483
 4.426701991418165,  6.864478437796672, 40.408029431613301,  3.682104981814690
10.947738377701288, 17.259312126352491,  8.932165965916381,  4.086119674024689
13.077518580162494, 17.376659756693478, 34.264025342666685,  3.930040565125999
 5.758870653998708,  2.341223889973952, 70.651381571983976,  4.008660736697858
11.668678209620964,  0.025679816377795, 73.925061894970838,  4.455347960564898
10.201018457457838, 14.235704720700459, 36.013877071315342,  4.219092705784199
12.896206479557240, 18.226634072979550, 50.896231337243115,  3.985216210307834
 8.426646921898922,  5.455952180599847, 68.408461817285058,  3.987213629498611
 1.878174000024865, 15.950941021540634, 40.266665347856929,  4.075834778248344
 5.589853645295272, 13.115000135442978, 113.821097005803850,  3.954192018247043
 9.810076921321700, 10.776171650478867, 91.749849982095910,  4.211034782369090
14.939003566129655,  2.718311597170905, 81.239497940754958,  4.162041328117004
18.886305742125430,  1.940720968887778,  5.942298145419185,  3.999767359150590
 0.103816359820120,  9.619107216474559, 75.506333478891221,  3.965138527856655
13.427399182735392, 16.901674039941248, 61.383665378435936,  4.298609502136601
 3.007400858543545,  4.812331025792301, 36.317909531493548,  3.732685256337554
 2.102706902418145, 14.555802389196979, 95.121942496598180,  4.325364920670530
 5.785457761758215,  3.956956069132805, 91.661808667429924,  4.120963882254902
10.954236717048554,  0.283233713216291, 91.953923972074719,  4.112321771313984
11.075857288539465, 14.229383666022525,  4.124212746305932,  3.903968257784879
13.310934882813786,  2.698944899063692, 95.947457594826261,  3.915927985284875
 6.147862958814496,  1.040436506416915, 44.042583292791399,  4.036285064134565
15.828467034865122,  9.258754494774735, 73.477931640687459,  3.651517729425021
12.085428948392305, 14.970301024366446, 64.740462292574833,  3.883677830114751
17.611773463438567,  0.014740381430528, 40.504505025333160,  4.075685383613651
10.464405120273886, 15.689133296696030, 81.374148566136853,  3.858011669366196
16.708841678542587, 16.987034641581495, 12.341539744578750,  3.656534861834960
11.242456159693347, 17.436691771547579, 23.254812900190831,  4.200461211525992
10.161563367289244,  3.110365900813806, 98.456315561117776,  4.081707916754456
 2.865655933248059, 16.315844876498009, 36.548024040221385,  3.419041890012646
16.116226828276318,  0.670416499066907, 53.064196475578306,  4.221213679691083
14.466845371643142, 15.388218548982955,  2.469124330133056,  3.961854095831547
 0.852895562023468, 18.775709618773593, 51.694617807111811,  3.711536461792285
10.890596906875638, 12.424820861030543, 56.515153451765478,  4.267542971777069
 3.438323124432904, 14.923483913483443, 99.068112296250234,  3.999408026146855
16.989220852717626, 13.775983902268898,  8.644837537505840,  3.598568248655685
 5.028943357227511,  2.474180881631201, 103.833555757705284,  4.262404460724990
16.934796363466095, 13.114612491241312,  4.791670119730266,  3.917764886500197
 2.931603291973833, 14.419735576792920, 88.815556296388536,  3.713905190925263
17.896519263679789,  3.098015398670739, 31.152862652982840,  3.935029995272796
18.615026718931787,  1.480079506849682, 24.949001995048075,  3.702652996116526
15.688460133041016,  5.891161591475695, 71.038300873615256,  3.855464569098726
 6.027821211093486,  9.043863419656613, 91.094933297708423,  3.861700413819605
13.848828775074972,  3.702217198778878, 31.274069362591693,  4.110777720655284
 4.620959760442014, 16.934354377768450, 46.172090106016256,  4.016199619886136
 1.008011907027593,  4.812722291527867, 49.263096594887017,  3.687672624103086
 7.642881196285165,  4.179411400922904, 45.887521414277707,  3.783188773731878
12.265965771263765, 17.855105043206390, 27.189323148874575,  3.925860337641061
12.209057885134584, 14.974623834080662, 93.904273770658591,  4.064810825960415
11.372426821185163,  8.868727618482318, 17.388085418668791,  3.777905824030183
 7.272421952111779, 17.922660779497715, 105.227771303383932,  4.225496895333956
 8.717630547355959,  2.847392636168363, 105.819749249009860,  4.117991966705399
16.526788656607657, 11.975816849608680, 31.274164337537766,  4.278318977760416
12.635217319195268, 16.847751723712740, 46.426088308574819,  3.741367387163844
16.029734296098244,  4.184370273347253, 98.575486428903162,  4.144749752749739
 1.007901605439248,  6.020319558750957, 118.430018430523617,  3.655161048876868
 3.720578428114299,  5.110725123891418,  8.063276878838968,  3.624642392806843
 0.822770788852825,  2.445526984918489, 103.453062747261697,  4.102321668112936
18.678328046319322,  1.382088657593996, 107.350461753886520,  4.011919104456685
14.658264684146856,  6.324164290470222, 57.320195051732362,  3.899710950672221
15.045792229208592, 14.307375640769221, 50.400138185919815,  3.852148868306216
10.074613871713089,  7.539811145809437, 63.318255326994141,  4.292809281240031
17.410696180093787,  6.070947501025659, 26.803595375421217,  3.858285667044802
 3.573086413173209, 10.994768017452913, 53.443294074513354,  4.094245905804450
 5.239651050985890, 12.573170645088643,  9.069377924433356,  4.462566633608574
17.679189936248118,  6.146597573981917, 19.963186150625368,  4.070264225299580
13.540570807483499, 16.717635609623319, 54.789454506548651,  4.171491787702610
10.015240856033044,  2.777370069364502, 113.705119366730429,  3.893265676717186
13.115902435788472, 14.548319942927561, 101.428331441746124,  3.996246259767575
 7.963163018043028,  4.780372703102182, 61.092368768485763,  3.942537346978053
13.243301744025704,  0.370709914715229,  2.303540412713353,  3.759764215305382
13.467124563775135,  6.815083461142228, 76.228842576239387,  3.920065270149246
15.726160570296939,  2.612060136177397, 27.796928209037883,  4.074852583483355
 1.470040962028435, 12.541924679364413, 85.542130861056577,  3.947979505796653
 5.412445177682526, 12.232652016267485,  0.526457507149063,  3.886943146368990
 1.104566229497093, 13.099356802276148, 101.680556140225306,  3.889956712760895
11.343292417374521, 14.841247381494044, 49.389549824857099,  3.867670241318689
 5.307675820826955, 12.362843756701860, 85.884932169624136,  3.747411929090806
 9.767260758615295, 15.664575584687604, 54.316334744195395,  3.672599759370912
17.399858904416455,  4.658461825434292, 64.486994007616843,  3.887819774128673
17.893461960830788,  0.924789221662153, 44.664827603382413,  4.420290379967523
18.086189350805046, 17.696423297788709, 22.040232752642819,  4.272177519733760
12.946294882620061,  2.305648114200006, 34.910237929531853,  3.838922736172817
 0.494340650032424,  8.893515227248800, 102.783049347952485,  3.911695115879270
13.055535469450602, 15.094537100361201, 105.539553111779853,  4.133366474271910
 1.132328491224150,  2.882170144170629, 58.674049682818669,  3.868773824461341
17.939127277125340,  8.918100844994552,  2.992279530909309,  4.461492288920776
13.810806660505955, 16.571701427648833, 98.112614091270416,  3.742751590094326
16.558925411090332,  0.471385150389011, 34.992096227347858,  4.262319657026317
17.417165601075062, 14.677088249406388, 73.981421972601012,  3.768291838887631
12.665112639300203,  9.937744926954291, 37.717629415505947,  4.080554386852039
 5.481914555265993, 10.070372894740474, 57.992447512236353,  4.067945364831106
 5.126874908870692, 13.381617176647351, 39.403987535208834,  4.203666744156147
 0.888568409038887,  0.580598892054231, 113.534364275638723,  3.666499705404271
 4.068368158275063,  1.757511070029677, 67.093791867976520,  3.944214402825957
 4.605484979464630,  6.051484818040095, 111.798788385926088,  4.004254303065387
 6.114648663157584,  2.212498869365529, 112.543253116757199,  4.303801306855968
16.981049178325566,  9.330720819664952, 13.615045660487729,  3.719600812554415
 2.401367699825117,  4.237084006856622, 106.686716628030993,  3.910085469029927
18.627950593981165, 17.836176438935578, 87.825839465887753,  4.250368853937747
18.889887269948680, 11.630140505354792, 66.859090185165343,  3.854064871909606
16.986181071512121,  2.644884286050244, 87.603308750742400,  3.927969437920074
18.792229123707340, 11.528237842949927, 70.744119722241933,  3.792980706656735
 7.185619470420296,  3.293736531713834,  2.787119638635208,  3.875730614320673
 7.319422379236858,  8.745565731815459, 24.601435025037233,  4.401689473484587
12.057331979368273,  9.850908059212935, 78.473899529813750,  4.107141853842625
 8.819550128241740, 17.970579556421580, 84.122771414217738,  4.002298978416472
12.189859525876201, 13.269870309884388, 52.778402111714954,  3.770975677509326
 2.256324507701162, 12.165039749981306, 77.743501868228805,  4.033810557046031
 8.961258706122869,  6.615812945564018, 92.199528609473518,  4.026461724133183
13.473455747915329,  0.975104282403766,  7.259091351731292,  3.900644087389209
 3.852490589715361,  6.770520760562159, 102.122489938202037,  4.117567066241942
 0.919131254222192, 18.625634004231333, 15.510484971235641,  3.867070987057287
 0.721275983859958, 12.447363980643646, 113.852276375455546,  4.047219178059819
 2.995462121673615, 18.286420110451477, 63.872656169657745,  4.398378264672666
 3.376758977856196, 14.529049031576083, 22.631585744131772,  4.014431275472001
 5.055840204162327, 11.758253587452806, 20.160204783000456,  4.135169758446165
 6.620349891206223,  4.088005581388755, 64.997884627147286,  4.078288913925217
10.557158850364443, 15.169994827132479, 29.302809570475947,  3.689847514958082
 1.972237669917407, 14.382597644978603, 64.887662313699693,  3.844397031744249
16.823427488109221,  8.743630302943622, 68.555592705221869,  4.009463535903725
 1.187454152024211, 12.865925190728516, 19.492957301411991,  3.982010719382131
10.113231550519453, 12.556031569505310, 18.548412477796273,  4.271578118946487
 0.334397899802935,  2.746296041022874, 75.893672637366748,  4.248094614822843
12.455683617665757,  7.655491984498000, 84.166851067931304,  3.908517670322689
14.251220203082461,  7.331342994200075, 40.656925601337328,  4.359223928719643
16.234930468941787, 11.686987339043791, 39.199670118488683,  4.394856048477240
18.729705538964069,  9.226002310086502, 86.678473543904701,  3.809804537968344
13.703936573588587,  4.045705440626943, 11.999724557794734,  4.000262282294114
14.105186230287551,  1.545518016596198, 46.537181244562532,  4.093251040984205
15.915556640242388,  4.149192605625568, 77.623235722193314,  3.822781718098025
 2.167484228750385, 10.437959609585175, 30.824364429864520,  4.405557481709760
 0.614264957554532,  5.069891024177334, 100.386069586697189,  3.974061489598312
 1.226408744889178, 12.342855551687183,  2.918251425643270,  3.702222516910735
 3.584000955832302, 16.126370378619708, 74.885746421710081,  4.246667148891829
15.344350090194999,  7.922721215432050, 16.897163658527738,  4.133822028930736
14.344182014133628, 12.664420122830821, 42.853375437453650,  4.059785598801093
17.100623284912864,  7.262286825569650, 50.585765000576465,  4.033047038744249
 6.491837157245179, 13.694076881580214, 105.038562076687811,  4.353360646492161
 7.133428246594576,  0.238960192994065, 63.753856083925719,  4.073917765769464
11.266358315405929, 13.381610998520211,  8.360590847352054,  3.764980900210396
12.826895158050389,  6.606778715276935, 109.097172696650674,  3.912311259754018
 4.964110000625909,  4.864379157111181, 11.589033329272993,  3.809132270357257
14.537044081446917,  4.111083977857133, 73.994957733093074,  3.400539945829567
13.956468523536479,  2.013202805539517, 71.050276750090489,  3.891213651498747
 3.113342628742178,  9.896023629386494, 111.934596351896076,  3.928156201958276
 3.710304707598023,  1.893886578015043, 25.848192691582984,  4.452305851533072
16.303277946319316,  7.899406497434108, 93.909072874082554,  4.552651819383136
 4.749173831418529, 15.942870383594409, 11.462869819640442,  3.840062408847261
 2.331677842736916,  2.925725100084040, 89.215949654147153,  3.870566736298712
15.805521645737272, 15.181396604337827, 91.869797737132174,  4.100903632344092
18.553010100340913,  8.615305197544743, 99.004769094897057,  3.860136008227363
13.686413325614996,  6.056335133767266, 27.982940910842416,  3.937897636563823
17.342304727115735, 15.850044876519787, 114.686988468805083,  4.342227159034558
 6.351661475692621, 12.470231952084379, 66.159445902829532,  3.935528543427078
11.180795902804450,  5.535031182527848, 58.967735031425640,  3.910266462227653
10.772630289513071,  3.809435961332392, 65.292285436228724,  4.232294039455030
 3.390507665434106, 10.168163299152607, 23.638924186939541,  4.060407218199623
16.737007269690164, 14.195576210225649, 103.701128172913329,  4.184921262030353
 6.905490211684235, 10.823680742871009, 16.738212650884535,  3.852853358986111
 5.243591018303729,  7.996530649664609, 50.789377834185274,  4.552440868499240
15.372994318400892,  3.192866267930413,  4.683233593640503,  3.855357082218835
 8.929201075697662, 11.243965370522417, 27.793144194008317,  4.142759006397293
 3.832530703356762, 11.705934722469362, 107.494528548470186,  3.892729988805491
10.921546612039627,  7.717937605013613,  2.122661250677796,  3.854139394040221
 4.833709148459507, 12.885020792189623, 50.023516867616529,  4.113703913766930
16.597268977613229,  3.594089830130748, 93.835217894644103,  4.058407101072890
10.190869873279095, 13.580566546004745, 88.365141140166784,  3.918458511804988
12.568327191004002, 11.002468581587870, 63.803694082940424,  4.289181389931487
 4.377748409700452,  6.894368012092832, 15.148962739395730,  4.223019926277054
 8.156420570442148, 16.173310825545322, 39.046859880684757,  4.022152016590911
 4.907518526532111, 13.429702330301305, 32.139169858477096,  4.093249461985194
 3.243079086781514, 18.595604804870131, 22.210949369539861,  4.117493436266155
 0.584141531211574,  7.770242960908886, 46.876419223763364,  3.943853280965278
14.415689172416723, 18.392229743342892, 93.934388483104300,  4.022645111241840
13.772627717259347, 11.658757334170799, 103.855346444915227,  3.623811426182118
11.585343781849877,  4.000881419343877, 83.074877980960522,  3.897143041932138
13.405372757282947,  9.137123136105307, 70.398666582386525,  3.773091605943752
 5.419941796615733,  9.598595767567952, 37.979283862861827,  3.891785935602092
18.073984384889933, 16.154742015078938, 37.187416390857074,  4.177206415054326
 8.819699065413550, 15.781105908987053, 91.410629535963835,  4.075572071168946
16.222211539742304,  4.151309577655306, 60.326568713457078,  4.059956741081050
 2.123113477440109, 15.037158644340289, 14.311069823563511,  3.981456858463128
10.631260985203486,  2.047078437768683, 44.356325493953968,  4.161444529212195
 7.664016248971170, 15.494954832589595,  2.191079703140889,  4.336834922889504
 5.284592128531703,  2.889989832067175, 20.956798340534736,  3.934495767994587
14.261882855436486, 17.892056142807583, 20.567765084684240,  3.926860260609851
 7.824254507579612,  3.922815437054961, 24.202286522440975,  4.517737579634337
10.880770258982624,  4.123427495617277, 74.765822736003372,  4.015947766878861
 9.199348830166988,  3.181706086472377, 94.437063699075111,  4.175392514931206
11.479956640883540, 11.601204599733256, 84.992449718382971,  4.117053230572663
 4.986074384055868, 15.206195554972524, 82.765225282033924,  3.825288037102437
12.671165685924818, 10.053629481710749,  7.114410148975773,  3.781381897933710
 2.119280507294783,  0.343549947331440, 78.538722336285701,  3.730994884032419
18.051992652065415, 15.419338680442140, 29.849263504054111,  3.660363050235340
 6.344348344105370, 13.350379781930405, 45.197758284109845,  4.024381547800908
13.839107061881112,  5.663708845021455, 63.366635600755352,  3.839235574406733
 3.494039348057262,  3.637758798815046, 115.214587718618731,  3.701295204873864
 4.791033093284505, 15.928180502049614, 91.891339779090671,  4.037042806464879
 6.135228537165574, 12.767332294089030, 25.102076611848386,  4.038852895159873
14.449898738569518, 14.319911285456053, 58.139099034401994,  4.221997295000576
 7.826993473253892,  9.528899494832508, 103.344013871468320,  3.512260877443565
10.763081387911841, 10.815556567844977, 113.967808284931891,  4.413198900615330
 0.774490952279821,  5.028651893153013,  3.594905173517257,  3.860849422518858
 4.740917949589990,  2.041746609588254, 57.620478403720014,  3.751425957604561
14.617592977741259,  1.542520132895528, 38.330377880299416,  3.730393015921388
 0.590995182063440, 12.181056756244208, 97.991009334444158,  3.713524853855464
14.147978573319449,  0.704025115817973, 42.518864684135600,  4.040439757661361
 6.430664686257470, 12.824170306455949, 89.742591590557879,  4.194385741469714
14.929812520395039, 16.971337643887860, 71.722779800068480,  4.367287539355586
12.593920677336861,  0.908930158036291, 57.795325560085480,  3.962225770990453
12.163468084094784, 16.481598986053584, 13.711913021351466,  4.026534924528466
 0.763940460434785, 16.319230114293578, 91.547325213218173,  4.071011428633129
14.509160335867291, 13.536909314203761, 14.256865232343323,  3.571071302072021
15.919867000679458,  7.066422632707852, 10.081218052348094,  4.222897570057237
12.613195387296965, 10.028748087820370, 45.448906861593194,  4.051837536470410
18.707113922589006, 11.718524412747092, 62.948910994446095,  3.907520420403499
11.393636876387179, 12.830934599471744, 12.224347488697530,  3.985831565607700
10.501804651024829,  6.508282007667757, 37.710286877129327,  3.976235341308629
18.415397456371757, 17.786318780617513, 104.375589962750610,  3.835443638999281
10.375529170262711,  8.477355582921758, 98.735956144076354,  3.907617652837268
 9.093147994414604, 15.294697661029515, 25.860028285764457,  3.788804332194571
16.834542312431466, 15.587215485029789, 95.725687296671410,  3.916399903841139
 8.735140430624025,  1.048203955289343, 59.859286867171313,  3.975501121952734
 1.088139773404741,  2.112316042391648, 34.283319193635307,  3.516159905745556
 3.716231681200527,  1.243665117967088, 73.971439495246898,  4.089971656925148
16.288308913076936, 18.336565217335156, 58.751159565549983,  3.989581343280613
 8.629634564520071, 13.362641773788731, 41.878052806021429,  4.009814880046770
 2.386922815982631,  9.593184240652800, 60.711509294652338,  4.200376386826006
 1.294391897802929, 17.025841966285352, 67.619018630889173,  3.733993935287812
 6.389151208963026, 10.436313869198855, 69.590157647815715,  3.932746570320278
 7.391853938399990,  5.661095815284874, 114.763355472683386,  4.070190368898785
16.412721464111424, 15.582929493463654, 33.244764794131726,  3.887363419326695
 5.659338074685192,  2.914212130679092, 108.478992277538921,  3.982770842475806
 7.119203894724971,  0.519881210896462, 98.221258850412923,  3.909116134006128
10.458692951180614, 11.963614881928523, 81.295630188182287,  3.576981010311703
18.396347729431426,  3.253423082030280, 16.971570264339167,  4.333494539899950
 3.468300902804222,  2.255165143337865, 31.207497433782205,  4.266173067584357
 8.448913146577491, 17.907281631803833, 116.164581664628287,  4.182484795522536
 5.079723459572834, 15.539034206444279, 116.904387028675501,  3.939867240723369
 0.543266177624428,  2.210323676568483, 62.391814039768938,  3.703284502552271
15.703648419335803, 16.268364673529639, 44.127413176239351,  3.991974121408124
14.510394152659519,  7.735554895545656, 23.115089916801629,  3.771098269428564
11.738133488289574,  0.504318067687778, 68.177630953112001,  3.963996560519543
 0.386644123998059, 15.916055721812425,  6.345102233714169,  4.041423526509933
13.760044493017723,  9.731941942127438, 53.192094621358443,  3.868617814722329
11.489097610412520, 13.175264810040519, 60.565502970302283,  3.752383735375294
 8.697379834642543,  7.663925179875201, 47.371350068167665,  4.057492572248361
 1.136595885355980, 18.116646874224553, 60.068555011806701,  4.050306828724678
 3.126965906510181,  0.094666504952769,  7.942492726485735,  4.378607168633493
 1.592520265657898,  7.036703996138314, 114.407068765130774,  4.182644487793696
12.750315229099202,  7.738600845602815, 91.553070435912559,  3.970412032721477
12.154274143611424, 13.380059007784455, 39.477114505673860,  3.638609733219413
 5.329810187079308,  6.746351320527880, 82.011287941521985,  4.408046043907684
 5.151661237562887,  8.221835266528139, 85.912270619316786,  3.931651461794728
 6.658623982619525,  0.965821672785087, 48.138788603170269,  4.210871652414111
 7.619143403913353,  6.022491801956748, 97.053217146413559,  4.105569824572856
 4.791730013393520,  8.465433991778211, 108.984592220787007,  3.412170397926745
12.045957602718822,  6.427354670989725, 51.507749891313750,  4.280602215473819
 6.620656992358009, 12.338104699863692, 110.115851776474557,  3.847297227575937
 0.920963181638363,  9.444274329918009, 95.422692045481483,  3.771487248577844
 3.102970441107938,  4.198507983814059, 54.884073796641651,  3.854189891528911
 1.527555926793362,  4.360925437856603, 28.352875584302755,  3.817462038273608
 9.823010642709038,  2.680286393663732, 71.061298997864142,  4.170336628874412
10.496638610675543, 18.442744884165684, 87.906496949628675,  3.868757999631907
17.005048083704406, 13.194637415816610, 79.248291728838353,  4.100210888985179
 8.550188155312775,  9.925163946262899, 87.482610109694178,  4.255426350296721
18.668635999232759,  5.864035084751901, 89.052729219421678,  3.868425652469396
15.794197779569993,  3.229318628670919, 102.997737755642774,  3.836567618879282
18.907363846844966,  3.568886796377357, 52.766439229906972,  3.830363372335037
 2.984090173617251, 13.659377429284106, 110.789058130346802,  3.941603878816252
16.592107351934906, 13.380046720636804, 111.334742750572133,  4.117646870439615
15.903527242033272, 12.354188644679597, 107.354898320937025,  4.154972559468215
 3.177955996363096, 13.108752932422329, 68.304504892215675,  3.823329985697378
14.523897293907353,  8.572674930085670,  0.157391006637901,  4.310875204701895
15.916994401925381, 18.016133156153142, 118.098875922591262,  4.226938471845592
14.641232889254191, 17.536744087538775, 66.249745207043816,  3.956106925348135
11.084952088947500,  7.313052979918877, 116.702474461864725,  3.947163975458146
 7.245359902001491, 11.332570731789545, 34.842190061271175,  4.150417198527754
 3.114927761287420, 16.065779134224368, 103.653306880550602,  4.285517201438094
15.835954995059405, 11.880990415570436, 115.296346657961934,  4.166944889938104
10.663206243040273,  2.554165955451228, 51.292600024842997,  3.949596010927479
 6.591343555882543,  5.783104494252283, 37.405958039162023,  3.987224354405653
 4.296111882938095,  6.644834858526802, 30.194167705369935,  4.209425476630735
 2.404904206858725,  4.551161906756604, 64.816716640036958,  3.989086964415601
12.745984731326113,  2.850612458476280, 87.025302715005694,  4.311316249841910
 5.396505123438900, 16.845005200494718, 25.420529042037789,  4.273476819584841
12.864725004845402,  9.827072402507948, 106.956375098696697,  3.782555666891862
16.321457138726981, 10.115107645461229, 47.747051791796473,  4.162440275651255
 1.394788442663312,  1.942631469437098, 85.401749952544279,  4.222185548166259
16.691842732918268,  7.922310529797434, 37.272038303582107,  4.058994565640264
15.979009148313235,  9.196327204604609, 78.008335230095554,  3.832010483880945
 6.803674372878804, 14.101152248775117, 58.948102566682849,  4.610621057747888
 4.467969984535418,  5.595929475476347, 68.037388769852114,  3.895473470989316
 2.151710248461397,  9.201987837752666, 83.556961679523070,  3.931743535232155
11.057753736685834,  0.034910404960278, 31.005675223640580,  4.380075647176798
13.270061870211698, 15.627268221087499, 17.435077430523499,  3.879945900011438
15.275918607442497, 12.771072666833605, 54.676329567341732,  3.536853994596088
11.039449503393307, 10.203357375359751, 34.099219760932144,  3.870500804176496
 1.042348554917468,  2.102586297035938, 97.704587147074164,  4.009292608074839
16.285302786947227,  0.400521548160718, 97.290926052189135,  3.858902040131315
 3.463775426029681,  8.455097538506571, 78.673146354515083,  3.960923172097882
 3.049990101349670,  4.449927385908924, 78.546319636177017,  3.969933369732057
 4.226421866125789, 10.374950038779597, 103.862571914519080,  3.874507621258318
 0.047872553652605,  2.768341276459952, 116.709502508599215,  3.899048964034904
12.854558471472401, 13.582018785657000, 32.886210112740372,  4.075944637588310
 3.289720601813193,  0.731070893617547, 92.505989565608061,  4.136481337662498
 6.946949975843137, 17.767222851641804,  8.858774680602288,  3.882481624982494
15.257716408123946,  2.503309922675006, 67.196107472652699,  4.179644462431242
 2.876416171967385, 15.348462365356408, 29.297058516681631,  3.851867946450670
12.445435696177499,  4.988346300396757, 68.894474782622439,  4.047613498377412
18.371541444853001,  8.415924457695853, 40.993568304641897,  4.159898072110266
14.081445360103569,  8.335189111396421, 114.381965595998352,  3.894200287531909
 0.331802048264947, 11.165394054891266, 109.266250699849124,  3.915362303814615
 9.250102367901359, 12.510369191297286, 31.597037655442247,  3.802716424305367
11.808445204535859,  3.589083499270857, 40.475632162035531,  4.435499452643185
14.991856252459119, 12.617218748918717, 71.576748701367961,  4.207805318551809
16.453265683089512,  5.317118649081097,  1.664967217929590,  3.760896765050309
18.930699842677328,  7.827927186565730, 71.712916288899251,  3.792161800349898
 3.076251480681591,  1.373545456341855, 18.138804621354179,  3.710891106209660
17.031049072564056,  1.541362988361497, 110.869535861014256,  3.744174535144869
10.834331614460632, 16.290282682188050, 57.938938769094307,  3.959894108651738
17.636058803272793,  1.697198004407685, 12.988256318622167,  3.971897251794610
 2.832151707641336, 10.747590126612426, 16.288168883959077,  4.333130984901665
 2.480323027971968,  4.700034277750685, 71.462376235674114,  4.210752143104947
 7.161346584352935,  2.373073800200508, 52.785432962713273,  3.605869370628184
15.296671983384089,  6.226393488708188, 86.760484483816398,  4.162915516241782
 5.682707324675733,  8.906854130076340, 11.576680161373840,  4.364152584840771
17.364433082894664, 11.747077378580251, 83.183788982355964,  3.786240249050159
17.727055269120235,  3.872622995029983, 36.831994467673795,  3.742584928433933
10.011724408484362, 12.792654094186499, 67.070508018918559,  3.624434633046827
10.552032220444685,  0.396607281220250, 54.533230227007202,  3.802066297994905
 1.381159099816127, 11.759028512768976, 39.577731181418883,  3.754500173260413
12.457017151652874, 16.095543213868126, 90.110307444115605,  3.667317750829714
 5.093998589664706,  0.196234897519202, 84.987753022235324,  3.999553998163487
 8.936191215220083, 11.255428307590424, 38.513547619733785,  3.894089782784624
 8.114784765789166,  7.938288509448626, 40.557474785490051,  3.964648100378880
15.415477140600730, 18.826475746127073, 30.960349469031843,  4.178001396350632
 3.167060374663264,  0.261835115596176, 100.718201452422974,  4.229987435292498
 1.618001563947582, 12.237251679845029, 26.865207786714098,  4.353345389787597
10.374208457789448, 13.638322064504750, 45.697852572626196,  4.101396558686045
 7.913196273697338, 15.013239143427910, 73.627163143948707,  4.138095911737043
 5.257444143540818,  1.630066946464326, 35.762971025418828,  4.122193812523771
 5.502930941684093, 15.743257640118317, 108.532612370235668,  3.983981044408931
 9.001786061976135, 11.174600870890693,  5.882684545215964,  4.268258672611882
 1.688450444516528,  9.241896766697256, 56.627047521040097,  4.079480241164223
12.149644133938134,  2.974236279287842, 107.822591111781378,  3.818704849706093
 7.667332057144336, 15.623330450143676, 97.093726360676470,  4.180577026361028
16.490088226093242,  5.132834914446702, 47.194172120137168,  4.049634822333679
17.144258766519886,  8.374484783533635, 59.623794800473057,  3.944507356342799
12.593587184000981, 10.201688042989240, 20.708206488483118,  3.778499180319366
12.923466508329982,  5.857494917083410, 19.810348034372787,  4.466013417261102
 8.263573053193117,  3.867641278792644, 13.486789934140248,  4.040177358002284
 0.370910649959695,  7.683822866983622, 65.771948999125712,  3.714912359543985
 6.574502607225326, 16.648260478373658, 101.165745106623973,  4.287878740784953
17.458089330645226,  0.403628230627943, 100.971337449163784,  3.820796350212127
 7.971316331989017,  6.066564929749272,  0.214095379890955,  3.807799233807280
 2.888017251840758,  3.030759293754710, 14.481731740983109,  4.155881762829991
 7.685756975727204,  6.714873327669287, 57.591729146783301,  3.956556444893315
13.104258795273594,  1.318577972380256, 77.774041374754447,  4.154754105396050
 1.675283982321705,  8.443556690578232, 37.648150451248760,  3.908761102595365
 4.871276634861108,  7.612243991000331, 54.990822674669261,  3.759711864021232
 7.286227033114929,  0.472760763114188, 90.139665581267266,  4.027841541100993
14.381685941575443,  8.056067420303428, 31.196460136084340,  3.715308595816814
 1.107709672341914,  6.987071564744643, 110.065917021207085,  3.973915499339312
 4.672575051405232, 13.233273359546050, 72.013173184920930,  3.914049402488240
 7.522533099064942,  0.026665584307042, 22.530325805192248,  3.980369390457888
 0.172011717248696,  1.511126641795292, 66.189693112865797,  4.038324905357801
12.221785545669002,  6.349964892622824, 34.017710228985912,  4.162134456657383
 5.729762497923566, 15.085310302464386, 63.115407504040725,  4.130573025439165
11.968565453659421, 10.168951249062717, 74.213475290394740,  4.400124033705181
 1.360464358457705, 14.629581214766567,  9.839248132295525,  3.613087410854532
 2.608743509983503, 11.690868895291034, 12.233523385710244,  3.937900989255861
 4.561163016461030,  6.560951282309598, 22.299828003756389,  3.970093391383628
18.742843444465475, 16.967292134328027, 110.863500261661343,  4.052214365179678
 4.013077483456658,  0.371361521913880, 53.997182115019854,  4.183482524703266
 0.705720359655750,  0.485664774392238, 28.592999929117614,  4.116001979126277
13.978297639017947, 11.733087708885176, 17.472664525478702,  3.879191411510448
 6.985618509302022, 18.576328406993529, 94.164091402832852,  4.206722693091843
 9.341634113326728, 11.485315603110477,  1.535847469472059,  4.360576494007304
16.749312279400520, 14.410194525561547, 99.549545941218454,  4.078399778314521
13.433031836196044,  4.419202104620263, 114.825438846896077,  4.001810108723618
 3.019173940516579, 12.313017245065220, 35.791847014088518,  4.415420853672290
16.154302301287746, 18.278569895487184,  4.645591115640792,  3.993750743511452
 1.992973364508392, 18.044546765736975, 82.209279883471282,  3.944895591119724
 5.577111438381069, 18.205946130014425, 29.310767805397546,  3.974835078421529
 7.324124647267093, 15.049167961617503, 21.977819622838766,  3.903276973004647
13.965500491916822, 11.526437721534876, 92.217995595209246,  4.084315391412401
10.195832646532347,  7.072653265028589, 106.219690604966004,  3.930756455687878
 3.718361253699719, 18.222456948697705, 88.722647106668347,  4.012102980723659
 7.431872256828431, 14.164157468587710, 69.471734972992493,  3.788799106065631
 3.304565824873872,  9.574569718635829, 73.011134187765734,  4.148116480808086
14.996461596136234, 16.322825068015039, 76.759478713095973,  4.093673534489335
 1.224019969342357, 15.145326066214171, 107.442635261396461,  4.079347787512970
11.145337563689305, 14.040614156396710, 98.053779521260111,  3.605578347727461
 9.583547443201541, 14.111874551114525, 111.860409278961939,  3.700738533306025
17.153194561225767,  9.109553718361179, 54.905456978207368,  3.671317987852501
14.503702772402589,  3.272634422071978, 50.237866943679975,  4.108451186086095
 3.121396715987756, 10.463467088922448, 88.645707562998723,  4.211219279650364
17.334860082535350, 15.548327886362989, 15.877019883201378,  4.079321762590424
 6.583073820554399,  3.508051609641178, 28.697484361158224,  4.041087445635474
 5.151750087390637, 16.351066633411616, 67.031299804544190,  4.167359440633009
12.136201835029240, 14.580834279790979, 74.126826721845532,  4.389623155720289
16.112349876887126,  9.069322085028041, 89.691552930605141,  4.158474790476266
15.134934984928210, 12.254812481585443, 75.833915981555521,  3.844346214530590
18.574498133048035, 10.121229123500029, 10.258462141991243,  3.852018558722300
 7.110103502405312, 16.282326786648891, 87.465521548813300,  4.190149509087862
10.859394935726160, 18.023042518768328,  5.012052665262715,  3.898477533149980
17.790486887912721, 12.500578467270511, 35.408932234559330,  3.957728761007213
 5.255186529382534, 18.005425607977106, 60.279680079600716,  4.056810427355708
 4.696476902853191,  5.940061617324535, 26.184335883195423,  3.896871244250348
 8.654818115193018, 18.003491727036398, 51.325210157215530,  4.123153465988319
 8.529820642313823,  0.438811430014536, 26.739275358930559,  4.194956874946879
 4.303634600478754, 17.116323121615647, 50.352933364094753,  4.343184083255151
18.129492193646804,  7.498903771086034, 30.417251143585766,  4.017607007421503
17.425017207739533, 16.717920825382855, 80.931783232574233,  3.752520145306665
11.434780119778489,  1.482364667256858, 14.073677734264496,  3.884011269340612
 3.696364878902290,  6.106676226547552, 58.585672472592421,  4.333285227561375
11.815650492441289, 16.079800737632173, 42.473426056643937,  4.445981390963483
18.788465703457106,  6.641750617732256, 78.208547526819970,  3.764426628133706
10.308752436945305, 12.147734888569410, 105.274432805683304,  3.893631074865584
 2.726726970822744,  8.525287149052762, 43.510353212853893,  4.122557183762055
 0.288147244904135, 17.189124610636416, 98.345929499253103,  3.763817596549351
 2.920119566800647,  9.270849046508413,  1.305407305511366,  3.991370464720270
13.561208090045275,  7.430116931076809, 48.045068267029649,  3.497066216365454
14.925341495865009, 15.612035306247197, 23.785917149253549,  4.064685015062170
13.765948219264200,  0.153021043286106, 11.130311589051702,  3.960237293397606
 6.652514808009800,  8.641425642969477, 99.937351196981041,  3.906805008711093
18.425489739577610,  1.160520355096507, 91.243519659787921,  3.926723687392020
 6.383188713066759, 12.760691079550824, 13.264547040421801,  4.159998982833465
 1.340961503461803,  5.950981638845358, 85.529927884318425,  3.785990716851356
 8.291989624286691,  3.007408921685140, 56.342181458181919,  3.943500740247917
11.579644383965109,  8.589070232977127, 102.653806941108840,  4.279848698165684
17.319349891601053,  4.159644100667705, 84.051235391057531,  3.742744091858211
 9.581522911753147,  9.772553097122671, 59.569909026453701,  4.226015475453058
 8.251491390457369,  1.780883391502093, 38.587368928435168,  4.064320365137020
11.323335425940783, 10.236155583070838, 41.580523456366159,  4.092891985094454
 5.796827481268257, 17.533108590217292, 19.041586049386350,  4.288980148557115
 8.348827057896626,  9.561441957739573, 20.541393318042697,  3.719816026362452
11.091927539761192, 18.759614539021054, 64.321113928519964,  3.965495985186116
18.359892628687039,  4.024236738837160, 113.232201054562807,  3.601186248875686
 5.407059938933664,  1.646523777395700, 77.449050194363380,  3.664191771477611
15.448032606963878,  5.781421593786966, 111.785626030291965,  3.771848136414212
10.224733711642550,  3.773845397465502, 17.270239183164136,  3.851815193880032
 1.451383818447587,  5.493053696356877, 32.893900870160252,  3.812624130434344
17.049226474758804, 11.157403181946231, 51.610030166112388,  3.956220598301145
 6.271591914954691, 15.201216009702282, 35.705759910411729,  3.890738178455918
 2.501753615304339, 13.637119445316067, 46.832243776047029,  3.919992105853470
16.433055860054935,  4.334595280931830, 23.395325529622063,  4.023928989158331
 0.492064843016850,  2.607668211911490, 21.226570453614684,  4.058840324633941
 2.670190936415344,  8.158528864292148,  5.242416994642073,  4.148418633039269
 1.138730471259985, 14.409359399662860, 32.827867979720857,  3.712217683442959
 5.134761050453376, 17.637449664246923, 14.943828930205861,  3.920500630097378
 4.000942762684617,  7.554047844075042, 94.063979070419734,  3.910136369241515
14.274653882026826,  4.598024042969717, 43.845634838385728,  4.027652986174556
17.397968408595197, 15.118987675867228, 61.032211436990934,  4.186933382495863
10.595697512947263,  0.551591969853382, 48.038560113304712,  3.681231560698639
 3.463119769375394, 11.641430455248084, 92.521013360158278,  3.900960176498626
14.186662869195356,  7.154164534686275,  4.597971760149075,  4.413347913729666
 4.978198837739940,  0.929846060936913, 11.640065818405029,  4.055146674999887
 7.292670793685131, 14.026094257619185, 79.921181713830464,  3.776481829386120
 5.058580317127730, 10.064328445798807, 27.844712758959471,  3.924766318936222
 9.242247051719948,  9.744417104091079, 13.705694474349333,  4.083439215926350
12.092653430283852, 17.344083884760511, 38.276518935512058,  4.323965537717507
18.084149387686132, 17.012096317127938, 64.497528158730930,  3.812791081207498
17.911149450759318,  1.737031578292102, 48.723685638085506,  3.733519174230967
 5.098426013275341, 17.151751818331721, 71.089548655724997,  4.103143721375596
13.270927163628995,  8.369895428713903, 60.662329739390600,  3.871162347584912
12.681778360135375, 14.884528143121690, 114.556220760007037,  4.527180468623071
14.823968347457409, 17.619755743806564, 103.077180757212631,  3.757397697317099
16.886432894210742,  6.099757139412290, 116.096631705864823,  4.054141597877210
 9.482325621106197, 15.198024635044597, 107.796585938470329,  4.165375602198986
 7.369100117140234,  9.938685999137929, 78.731028725639263,  4.135930702110779
 3.153482182477297, 10.368645654559332, 64.770830465394894,  4.201287509422087
10.513015573658389, 17.227308750104338, 100.062824264711153,  3.952444714319749
 4.873131397452469,  4.191962111084072, 85.981783308546852,  4.140028739059799
 3.500149801575127, 18.847706010212175, 106.805610888083393,  4.153656253681696
 2.155863601540573,  8.186586405949177, 106.395126100704985,  3.985768896795514
14.707613086428999, 11.215155571255529, 10.577852955650787,  4.014343756086684
12.153936906029164,  2.544158948715720, 61.503250386005170,  4.169286455942419
 6.954467310235901, 13.125595784473232, 93.879958133090696,  4.076861025816582
16.367984498225059,  8.622470531048513, 63.549096293840265,  3.906241765818499
10.608857715820294,  6.673535040810606, 43.748872278484363,  4.369521201962912
 4.318911307814747,  5.816201745535603,  2.446422832926586,  3.740759029941403
 9.697003098817451,  7.406258021926821, 76.489860835758350,  3.726687275495355
 4.197398274397354,  5.771319178885679, 47.146486990560334,  4.141151631820328
15.706210846287838,  0.749031434183848, 74.762869454788273,  3.867657708709813
 4.471341610166362, 15.498143003080299,  5.928801359150831,  4.205005057609634
13.508760276325662,  7.993596086349119, 66.473902540336823,  3.950028530454536
 5.000420212660423, 14.172075773075807, 16.897951409102163,  3.838013434466982
 1.278368672145159, 14.105326718957985, 81.805723021971886,  4.091436660103851
13.110366559555402, 11.150569756270691, 99.397250239639007,  3.851269193565847
18.466648784030728, 13.227255694639275, 23.229518980283110,  4.224653821313100
11.127410053639249,  8.204483905842254, 55.906476475442886,  4.212009383788413
 9.901179065173336, 16.659923352168061, 19.328421979628303,  4.072570568813099
 4.487427902972421,  6.736140045244271, 117.216894659863669,  3.830148299019756
17.231146815088980, 15.688869183866865, 53.339550163521046,  3.971465984215888
 7.312911673130976,  1.297453633878273, 32.305231629113500,  3.932272419599750
14.444176474559146, 10.271900634386737, 57.363313204091291,  3.983901357248967
16.320913343744952, 16.535603727553987, 107.614377107776548,  4.058548356152656
 3.464428391809063,  6.579376101071394, 89.638674580603521,  3.819613807673085
14.965604851796146,  1.026111510269661, 106.055321038487989,  3.828834030950546
18.068212438156952,  5.862488695533744, 105.039869307257007,  4.120937335089020
 9.644873503085321, 12.845603441308318, 77.089256683064420,  3.923793738748660
 7.248553502908303, 17.926095839684955, 56.539842738859988,  4.396904832720208
 3.869907965804771,  2.907367141217760,  4.943542594689508,  3.973908437612146
 8.898540596169598, 18.730013294125154, 41.757892302179101,  3.539079002186333
14.175896713846321,  3.732334226095311, 16.179455771411202,  4.296720565907548
 7.757901555702130, 10.828363343339714, 73.423242298680066,  4.237733801539900
 1.611442123037759, 12.831774933229774, 74.095650637198204,  3.491772918137150
 2.294344398594646, 18.415879086764640,  3.874273722239484,  3.876714283704798
14.298584141611324, 15.207742444947577, 29.585111358209733,  3.810507755018880
 6.630038484240917, 14.439342511404487, 28.679281213405790,  3.888557488002557
15.759740615928919, 11.657153270400794, 96.424576702047261,  4.154576833918426
13.264906655645442,  2.200406561860951, 111.493996908877577,  3.977796284491233
 1.695679211011900, 16.787516540858359, 18.907785658104761,  4.011538788760689
10.395981491253732,  8.127983582756618, 30.806217161350219,  3.934343793128517
11.854297837089510,  3.653806314497034, 103.289667521929502,  4.060147665979603
 8.962490155167368, 17.403627342637041, 45.273896992184206,  3.972537498024234
 7.803077035960553,  4.132859014784874, 41.877257454436943,  4.070446756193671
16.931991243200152, 14.863600082621589, 68.467345743618679,  4.357372065948052
13.998261645622000, 15.164220568603337, 10.424082467093926,  3.877404542788218
14.556329942330610,  0.781165560314853, 24.113731641977942,  4.009079842767304
 2.700101203990627,  5.211927907984777, 18.893751957926554,  4.146002427989018
 4.631537629006211,  3.235217015130735, 95.739916119185992,  4.461300400569462
15.947828808210009, 17.440890606714273, 48.311421743608214,  3.854484653992340
 7.893854592368502,  1.080895716041654, 67.567725546920698,  3.881988076682096
12.144124524232883,  9.291171581408072, 25.973154929379632,  4.211432799409320
 5.831694137031847,  4.716281268582097, 33.332417351491905,  3.744527690646935
18.931849543374639,  8.933032871821235, 34.080056112917354,  3.968082372474920
 6.564367320870361,  2.652746991287601,  8.453762108323827,  3.851259189868506
 3.668408544840076, 18.122287932574210, 96.632974493689929,  4.029845863273798
16.366892790900529,  5.841636826514999, 33.820851281241175,  3.946113895279987
 4.832763939192048, 18.294744064360813, 39.019175417281517,  3.854001016451568
11.706150731424644,  2.688333725672587, 27.913502933886939,  3.860676734071971
14.210285853703880, 13.403449477785241, 46.746893875582899,  3.836071254691443
16.857112099220103,  0.197124136834198, 83.966761495379075,  4.094812835781125
 1.327368987434046, 13.633796203387590, 117.696616486863832,  4.075328790058694
 1.372421359116397,  7.071851043290223, 12.346286834132780,  3.943192082183535
 9.200766943408617,  3.685600627918002, 35.089309308341250,  4.123428811135724
 4.041936739099950,  4.392928746643978, 43.312674935419096,  3.983218352931635
 9.160803773370356, 16.438403175000587, 66.802673348393839,  3.851115824717838
 7.756239300994700, 10.332647838657604, 54.551391998631452,  4.193674227568105
10.948402511458761, 16.782887136132100, 77.530656363316282,  4.057456883868865
11.365589741098150, 18.779353849525783, 104.613263351800327,  4.096169258286820
 2.218702197121958, 15.521435214910387, 53.554741602968512,  3.926951774649558
15.383081300808227, 11.607766235458492, 60.948210440716963,  3.796844674300474
 5.373289529507052,  8.074193474292503, 18.807515362627957,  3.678673180024202
 7.654828483874993, 10.165835017145296, 83.347631761598677,  4.216660511397137
14.488069945561406,  2.782351096689633, 118.172235426970815,  3.728736732585935
 7.794192935357297,  3.219379784572602, 82.258913173599751,  3.970589027010157
16.898389044644158,  7.864080580637862, 82.903629047161715,  4.027499531769273
13.643025005776135, 11.221385024361973,  3.352288151283116,  4.137093190894273
 9.820762205201570,  7.330698104482227, 81.014417969608331,  4.286499815210669
 8.292990463437938,  7.495030759862653, 34.126928954273843,  3.817867288537859
 9.068741935970191, 12.990330762164028, 63.448746071873742,  3.779721526507393
 0.704319485628196,  5.945935019631605, 61.481741841742995,  3.963578583344426
 2.247573631822121,  6.324168087853547, 75.179244404102832,  3.880376823928165
13.472881134359586,  1.225864874664403, 100.249805169243473,  4.332921468548633
17.081969939435691,  0.424138656355181, 78.282860937488010,  3.714327005991366
10.314137892051418,  2.303775943621937, 10.164116332331339,  4.369462929578479
 6.654098091349272,  2.576236456868476, 117.362865853187202,  4.093522258448038
 4.002341597897542,  2.839837341557514, 50.671250682392525,  3.993937234663193
10.647317809401196,  3.343166825187002, 117.560929835330995,  3.987754832089443
 8.164355089617402, 11.628135827971201, 97.803727861515540,  3.993791844868711
 2.587254625530468,  9.112333386504442, 68.898342411758108,  4.216588262744511
 0.086787889786784, 11.157964851068249, 44.964728807073570,  3.881212449176735
17.268144173882860, 18.596959193545231, 18.261689708940931,  3.646659430176179
 7.212704334457523,  6.208443046015005, 88.621532725503855,  3.961581932874066
 1.500195476738968,  7.396819333085308, 52.917384612838724,  4.137594877029023
 6.498228709135952,  7.353044902896963, 44.092656561246940,  3.855126880278268
 7.516779235339888,  0.079212295238800, 73.640020978169275,  3.861000099567661
17.720318839060113, 15.294620519421086, 84.709237437648270,  3.940613398838023
16.564413796223256,  2.974067261777473,  9.218412410519150,  4.229084259115503
13.913151210305912,  6.629612978208611, 80.307096065505419,  4.112700388629515
12.461263649237747, 10.431881565833635, 88.696430383901244,  3.869650571987226
 1.201201930213833,  5.887768674571508, 81.687459997325035,  3.859123815268944
 2.463550169523030,  0.731295228859781, 42.092260725482866,  4.276098228208119
16.026706690406520,  6.943230097524192, 101.658941280059636,  4.059875652363900
12.726765050399637,  0.177001304873213, 83.722145131258287,  4.175344464160331
 8.205370313927906, 11.511073927471763, 48.083525637276253,  3.612901554375252
18.691905964677382,  9.586575773421318, 117.285695827586281,  4.071644726575334
 9.768404432397276, 15.418115778695924, 103.377043695012787,  3.741293016725480
 1.588494676800728,  3.058076846931170, 10.533978353900007,  4.054972041914295
 0.289312851605093, 18.053317458271330, 32.291525940945412,  3.815016555555820
 6.134126332122236,  6.815233699442315, 71.540741075464084,  4.229952443893394
11.812636855734402,  8.197450662293019, 10.651247382706320,  4.328233502660158
13.236204505708642,  9.910801838943209, 14.121255392237668,  3.873584147757039
 9.641487624726448,  6.197247986540991, 27.384606775006365,  4.052941976211662
15.566849869804731,  2.594013234999528, 19.925694880093715,  3.924979026680877
11.070878997776767,  4.525928361047793, 78.539892757510586,  3.580048693227711
 6.025717637602863, 14.247530605113131, 54.534953455165564,  4.330917904293291
 4.846842835554937, 11.601507807849204,  4.456976728569664,  4.132024373474443
 6.778585673466464, 16.737424407741425, 112.561236392755958,  4.062997834920888
 9.421982089941594,  0.285458737277827,  1.514435197294139,  4.016695919936978
16.198701649240622,  1.013387831926428, 114.545402526997762,  3.858722920726533
 8.153058967766540,  7.075592164233895, 16.503899416790777,  3.799224020686840
 2.577397931971153, 16.235961924138287, 85.562358144307552,  3.757955724820104
10.140600810586738,  7.106261058521431,  6.057437359341495,  4.188341351235628
 0.876214017491831, 17.451986155169209, 47.995546070793054,  3.919564094496951
 9.143933114880509,  1.354845051190139, 76.970453063455963,  3.843025556963659
 9.272100991343262, 16.442813234033181, 61.624411312062669,  4.018806407656518
 3.530576734820719, 18.286126416766464, 110.819755973507824,  3.874832794206233
12.076561539143398,  4.031652571340916,  2.749201794359929,  3.966790833327006
18.119445312938254, 13.768690183006914, 42.240608887585026,  3.883036255908408
16.434937890226760, 10.865377866627304, 101.323285011854836,  3.841855941074160
18.491497621515204,  4.864985726833085, 68.465320580302972,  3.960821223705113
18.584712424162543,  5.691706777879791, 56.231543714079216,  4.153985800044692
14.347058491043851, 14.263137223915868, 82.833710917366247,  4.049307197033173
17.837854671969477,  2.656275864126369, 71.934025530676564,  4.115017246835307
15.106226447072837, 10.102503484302725, 85.783284092004266,  3.838914513679906
 1.112581289258556, 16.397226359712345, 25.651913416756056,  4.350420304955938
 1.323080598186561,  5.173490775668682, 24.262276109988342,  3.995707363004421
 4.148585263039827, 17.534220163978404, 33.180414067367352,  4.146352922491356
17.774983337751816, 11.640064617654293, 16.536939900726395,  3.895331166640091
11.907841030596423,  4.108582003514312, 55.001653698845530,  4.043951459434518
 8.304802101103849,  6.065308503049399, 53.557941054515929,  4.276182904577841
14.468280021988077, 17.956895926081746, 87.311819954757951,  4.134751727575857
 8.358290417935606, 14.051159777591479, 84.311501519384578,  3.899423082469345
10.634090442604105, 12.350053001394723, 70.853591781994893,  4.040592895773672
 6.746915120219924,  8.361775282283487, 65.940632881551593,  4.317834618603947
 2.041031255526369,  0.763206429075276, 70.320336829946939,  3.910999236119749
 7.579597559741805,  9.497949516237300, 116.598175287457238,  4.247292007649365
14.439542010818988, 14.381829038269034, 36.525911518484520,  4.003030760614806
12.655907319505481,  5.686541618469272, 100.044692322176289,  3.757776698208825
 3.537382502494883, 10.358923867087801, 115.916769497521102,  4.079071706555705
 5.250800543686922, 18.480977009604224,  0.863697101292909,  3.674876725974725
 3.117281833219261, 13.030236189843906, 57.069051677785538,  3.716409560725831
 6.821370818323788,  9.602563851638401, 31.258855695493349,  3.803976262039859
 6.804693228021621,  3.920849414003822, 74.470368798005453,  4.096310289928890
 8.461694114872143, 14.674805784149640, 10.489925164870122,  3.731278320041133
 0.205613962799751, 18.554914872794960, 94.789056336500153,  3.847570024989086
 8.474079225260189,  5.831804085849242, 102.221482132333975,  4.057214649993291
 5.936356956518678,  7.763221745614498, 75.575104372319373,  4.033925331975041
 2.658087693023560,  8.376812133254640,  9.082442541141292,  3.510060782249874
 8.771817451497583, 10.303710257423731, 44.566337324373443,  3.617453661861028
 6.032921341511893,  8.775475203371240,  7.435188212914399,  3.941895732461302
16.045401738737581,  8.127842343203532, 44.270190852820768,  3.862858326713332
 4.382765541770175, 11.516806350141312, 81.140425015808958,  4.081952495199134
 6.635909431355515,  5.373665708476699,  5.870496429467603,  3.639369188290055
16.391699786543690,  9.443768936486359, 104.884909480417221,  3.528246768656386
 3.791935761892254, 15.699410809727741, 79.017755667299795,  4.064421433689484
10.774665858407163,  2.239921227985374, 21.110674194317621,  4.327354582206627
11.702909577978964, 15.652716969550104, 85.445086039958866,  3.851500323539504
16.552655636624117,  8.401197410718110, 108.500689670674689,  3.941827033218778
 3.016856822700731, 10.105909511630124, 100.070036268247236,  3.880703685488696
11.893534019180482,  6.566490030367791, 95.442542113177097,  4.290298299120826
18.304746104580115,  8.999713640079010, 24.056949832765582,  4.368612121429121
10.238880480931812, 11.433596941869927, 109.265802890729432,  3.788540781157644
 2.444220342411451, 13.902022079867917, 60.860033929680000,  4.174090429590881
 7.393758482920548, 10.150969657337916, 106.990486357698813,  3.934165048554657
16.367599665459210, 14.493387169372109, 19.790052182092015,  4.215873031644877
14.732326238058233, 11.570749417665654, 23.709490491047031,  3.991099032504421
 6.197367779683211,  3.613011081059918, 17.064797657161137,  4.186143147771328
15.835662944241333, 13.844213928357112, 64.585632104162229,  3.949241810914913
 9.996551562120557, 12.100474005847166, 23.361114956811736,  4.513922964222771
 0.063757591854587, 12.449020747956943, 54.802998959125134,  3.973760530904518
12.419363737465922,  4.499731351222653, 24.361300953813529,  4.231076400504012
12.699942126523718, 11.173342784303038, 29.618320223666039,  4.036966592121246
 8.865072992024245, 10.901891204346693, 10.006255530488437,  3.690531438137635
12.507510695891185,  3.997394283732971, 92.489151926085185,  3.621097751683699
 2.891617135330651,  2.604608707902985,  0.897689121308687,  3.862057513488462
 6.303409873329621, 18.554228226881460, 80.827463565679281,  4.342837196128604
17.405354690997047,  6.134721970940574, 74.739875651303436,  3.767115113715755
18.880798971495526,  5.131672208973170, 43.712812703696045,  4.396197038849712
14.087231202673648, 15.333545267610983,  6.458116399448794,  4.020801280290670
18.066026179258341,  1.723773569959919,  1.989419134786119,  4.070149417975486
 9.809077980921854,  3.506070356443796, 89.823482020105942,  3.886580500052281
15.952636680354642,  4.278265442766292, 108.180009073919678,  4.082074946491107
 0.384066288784349,  7.367868298519423, 16.319230406041282,  4.010068648618449
 0.524637539075225, 11.765245777174345, 105.418588388096779,  3.879943637845883
14.045943841183062,  5.069857310948158, 37.260861434619585,  3.703275457754899
 1.211934043568863, 16.419167313391309, 44.222670918528109,  3.888877942816929
14.017702437299215, 10.417483804710034, 81.899819944855437,  3.858292557824702
16.277554152235059, 17.575498704323994, 27.105008414351328,  4.091405016573985
13.016632519215593,  4.878080767633975,  8.053382368508000,  4.095279619838808
14.156833185119620, 11.792191547718074, 67.598621359301092,  4.075837068896437
18.203081722624741, 12.153770893634910, 93.161570684810954,  4.018374126723631
10.342039950753874,  6.967144973110288, 71.841486391772804,  4.202905438132874
