BANDS
8 8
NANOPARTICLES
cell(1), 18.954
cell(2), 18.954
cell(3), 118.462
 4.756139738980007,  4.377212064877416, 24.359150150765529,  4.490036727513748
 8.427916592962109,  2.236852900942678, 101.006042976757399,  4.152245386540433
11.137775218036834, 18.244402152707067, 67.744229604850617,  4.227051116214564
 1.580466730309203, 10.280719555334274, 89.127044441481516,  4.141192348980012
 4.220235135750610,  0.474335535407554, 50.776038991280465,  4.273779845465426
 9.270863825362191,  9.952488346987103, 102.303868381511180,  3.838402953200944
11.280692885578192, 10.688701606833474, 69.360799731488783,  4.113363705840031
10.824679366250399, 17.774485545369298, 95.759540378398654,  4.091092570339744
 7.078645220172435,  1.456739884054546, 37.753648531069537,  3.978642285544844
18.535888091504262, 16.214406932111956, 98.325131373094663,  4.084408840962542
14.342274847694695, 11.231928959285906,  1.710271769849972,  4.023873737774146
18.141236129101294,  7.511590091461311, 63.513073833689582,  4.411896920408452
11.324490083814519, 14.796057204516940, 109.991256841490227,  4.265856682014995
14.229176831235449, 16.970365997519917, 71.644219937725566,  3.819068464525927
 8.148188091117062,  5.131246687870477, 97.147890134632476,  4.666422873452651
 3.035951669567560, 12.753408199849114, 52.663097239997491,  3.921247617913706
14.588253395247136,  4.624932482528493, 37.008508905016100,  4.116862579044900
 9.074229945630544,  0.715598901079507, 75.964120398756478,  4.091101768453079
16.440119163777993, 17.674159843373715, 101.451073860532404,  3.970015185443830
18.148226219239685,  8.250818518174791, 45.379997081710641,  3.979478998664575
 8.057182540039003, 17.763591645810770, 50.793911425669961,  4.025134422890633
17.728832905894219,  2.784489170290935, 12.562745851299569,  3.818637645833233
 0.254910660164584, 10.901703890827688, 107.520834068745302,  4.174159920655413
15.767923032949579, 12.021877890676391, 79.837151949614878,  3.752264001153882
12.967439352868976, 12.353862797152077, 49.873660996761949,  4.089431292364140
18.877527154351295, 12.167929338643916, 97.755769640041976,  4.112514830056935
10.552356074709023, 15.577855098888948, 85.185963515699612,  3.822517384973953
 0.840764532093655, 12.524709033528175, 58.391951506482989,  4.043581313091189
 5.388048356779760,  0.164304170476279, 24.756423142477001,  3.897482506538845
15.027267670166035, 12.682833492146065, 114.447557720906090,  3.767947874796227
 8.094875889532801, 18.186124319187062, 92.784787540770125,  4.007030920314285
 9.036764038904414,  8.872052315569725, 31.575978436488878,  3.830375972337820
 1.325418525388193,  4.788996850718526, 60.369591369791621,  4.155036665555792
10.879364820602840, 11.673751918661543, 79.839050785059669,  4.044713520893715
 2.335714126274746, 18.838827961505658, 81.331777197144007,  4.116608926434534
12.376747459125085,  8.407402376895881, 49.609914427225583,  3.677348967116494
15.233840306905542,  6.853843284570564, 94.389833422908580,  3.663387510166514
 8.019063831082301, 14.534310291904706, 15.169521958357809,  4.231627133282008
 0.198121716206160,  1.832297217907985, 88.828188933237783,  4.126658795733589
14.750884334708974, 18.073145723497444, 97.787391779868798,  4.018662964012864
 2.388413351830200, 14.331878150878444, 100.651193079147660,  4.069768821327608
 8.528275658200288,  1.343880066641860, 34.144040232119409,  3.669701529842129
 7.672819886863606,  7.886750786573594,  1.643575303498187,  3.840340929130863
14.760035488241263,  0.411934980077721, 26.549411657173248,  4.077854822437089
 2.648013011256128,  8.383690140965676, 78.424703589247727,  4.019461406184192
 7.949440102856326, 17.532799466348571, 70.216402755609479,  3.844838606489456
11.496333987432692, 13.138563222542688, 13.811566952930775,  3.731078591907948
13.162548222031978,  2.817475093585998, 68.568069196007983,  4.066967179845245
 4.132425881530470, 14.297377422289781, 113.982028063061193,  3.832726990548988
 6.225016282031991,  1.058150858786841, 64.253887727035519,  4.198320404867267
 6.808353428196240,  8.538208968879298, 34.892216615786978,  4.177707739443619
16.511244488215674,  3.207282805650654, 29.041836143416905,  3.780766214573239
 4.508111781870030,  2.999960994046553, 98.250026329506568,  4.050533487282993
 4.512928264199243, 14.393692042035873, 40.513344889047886,  4.180809838650693
12.992496672193013, 18.320264920854729, 83.529935918023511,  4.226983810945751
15.132508238315804,  5.229048359273929, 65.726863109578730,  4.343191519239190
 9.894213640289973, 12.321815802698701, 99.385023849978424,  3.773418105064605
 7.786760040355331,  0.709615864398923, 20.345041808147570,  4.057840539189477
16.816372016660324, 18.528947113503353, 109.014505573359159,  4.292779756480778
16.323146960258210, 13.308705795997914, 110.823104151956457,  4.028615885900228
 8.882816757858951,  7.248717725326594, 67.533389009640075,  4.192304182151909
 1.819002555899463,  7.152960176131296, 11.015403289227205,  4.011677680606414
14.316121358849243, 11.154033748323572, 12.015022159781340,  3.902017254560964
 3.443698543564077, 10.608130916468511, 35.193918367570987,  3.631837594078736
 7.755590143964831,  0.795408855060098, 79.624928897543214,  3.652450385677561
 3.418010786350381,  4.899063609669348, 51.491339642122341,  4.279064489512090
 0.838697119471984,  2.591143688737656, 110.394141222036566,  3.900034090186137
18.132111467618518,  5.001755023405386, 83.409171402205516,  3.985023412225822
 9.492629026146822, 12.812456696818165, 55.778565580580725,  3.933123755619876
17.207083024943138,  3.641593845505280, 91.976492600554693,  4.103240456301812
15.609971211010915,  3.851209300003490, 107.852405945599173,  3.867161907303492
 8.488234737465946,  6.418067959138955, 87.525970044414649,  4.361499538502240
11.718653034138828, 11.312979321108999,  9.102175229969964,  3.880630384936624
16.888106219007238, 12.947201945039367, 51.031282714969279,  4.169538639706911
 2.502608580016365, 18.011683430328368, 37.679820205071856,  3.935758325992866
 0.250950356723070, 13.479603801492061, 86.456174177720243,  4.130756765993079
13.387661765934107, 11.448486468234746, 63.043210707718913,  3.609617510112565
14.379673053687858,  0.705244787540421, 31.178835902567666,  4.047981766848051
13.622410867465140,  7.130329418184022, 24.795827574756583,  4.115710771852821
14.248914842480547,  2.281479995981132, 111.445253713640597,  4.400744896160735
15.225976876476672, 17.802146437249924,  0.609537862278376,  3.973706700708855
13.391085264510586, 10.274824742958897, 82.701036914168100,  3.969267885432961
13.881779721009645,  2.867203608853675, 40.857165524839196,  4.041148054292061
16.537928554867182, 18.458190368617412, 34.767124162797266,  4.022464031550608
 2.274577938321755,  6.094064736549021,  6.610602589129392,  4.067419133486884
 5.312354824416828, 16.701815661275685, 20.875710087368585,  3.731181692018415
 1.242034346710809, 18.425333650673995,  7.181640078206070,  4.197660641063023
 8.351301832696777,  9.323210297631270, 57.029430446367698,  3.756515074857820
15.088919962779411,  6.815524385664916, 28.628886482362908,  3.933520808981535
13.210826365154560,  5.130435108657979, 31.851716572359631,  4.196791698433236
10.638800179007808,  9.496673031572897, 12.555444800498892,  4.161600866580894
10.929893547811279,  1.485744113645927, 117.535235606720946,  3.753241014640020
12.106621145524331, 18.219028852671407, 40.955209670110506,  3.953660770007776
17.084423088855321, 12.532206350697228, 117.512734514619268,  3.600455046137990
 4.636519696865464,  7.763739584408425, 88.359351046293128,  3.916448514940622
 1.144431447425517,  7.204724189198141, 41.881892107654153,  3.833124897105965
 4.406591741903890,  9.657803841494765, 29.720226203501742,  3.843767334778422
 0.047435683988953,  1.744791523294100, 26.667138273925776,  3.624237830108134
 6.929060468933595, 13.142638689813728, 62.846169015489991,  3.819274596438178
15.668718435821674, 12.444775444572000, 57.458353816136061,  4.417695983948400
13.310091539934275, 14.265410307115326, 82.574477769715827,  3.971423509936475
16.715534063931667,  9.861938613912381, 31.676939371886068,  3.892873335088620
14.744667055801051,  1.738456243120610, 51.085204862792317,  4.183960574583466
18.496052136579348,  9.822704142440115, 111.517171298537690,  4.217866040861380
 6.638029326279361,  5.802560286673125, 74.498796531244381,  4.057767666178416
18.211957397553011, 16.687216283111557, 15.053072587262443,  4.065761445441396
13.860602738869627,  1.993865099847264, 88.723044634238775,  4.141917030665236
 6.916490367259225, 17.574090340525473, 31.955675767265401,  3.767964271926932
 0.460116781240344, 13.909750317901391, 40.475209944207734,  3.880465654784855
18.940239504806691, 16.280544352681723, 65.665775700934887,  4.014586150213543
11.202661500375699,  3.403543388501965,  9.818986308170809,  4.225577794314111
11.126988949431249, 14.559063907541612, 41.776059204915867,  3.790826137185873
12.291287050633555,  4.542735612209012, 61.227973275846651,  4.300334557693034
 1.569700960789827,  2.644100531565673, 41.282078033713056,  3.971110860088841
11.749105638162481,  0.289873194672188, 21.421233591078266,  4.177362505543829
 7.542823936235611,  0.489088234402148, 97.457973164455538,  3.945450094687607
11.014861752637220,  8.226307982817767, 59.797136676593823,  3.847117554409378
14.172898120399584, 12.470689896073745, 19.792519403860616,  4.143482000673771
 5.497908936042448,  8.513928083890415, 102.352721400529830,  4.120345790259797
 3.161503411500034, 14.242316380166812, 96.440655309394941,  3.989601129783526
 0.144286007667133, 14.818618858109835, 61.842232669109876,  4.110363835573941
 1.054263868426501,  3.021378366657593, 77.316110660299586,  3.924913796188863
 1.589570035593385,  4.618860958028636, 70.791003554822311,  4.188075334020578
14.829044506442280,  0.293428869973540, 79.815614389608854,  4.260385986856599
12.361083343341846,  6.649363355929861, 115.546233255563450,  3.893612850730223
10.949584309987474,  7.024425188217823, 104.203167432396384,  3.858802090548280
 7.455415348982023,  7.783193102285939, 50.822302133535317,  4.196697995283907
18.546204743722807, 11.311771278308491, 54.489737608603839,  4.142628170068183
 5.929183537097607, 17.219708028753477, 106.207378478474823,  3.996907977501924
 9.813132381982056,  6.592051837782628, 107.864966388158194,  3.855588564098385
 2.678245801859374, 18.007209086225391, 18.089159391763012,  4.257629744898190
14.607336487167695, 13.387595430301658, 70.347564826857578,  3.811039823958574
10.676157946676700, 10.145809126185604, 42.077177145720476,  4.107562234260720
 9.221801418910557, 13.904411866187111, 103.066606164069285,  4.197865115214599
15.324038423045341,  1.578430830768014, 104.395506188839491,  4.386524213269239
 8.470362502959421,  6.467331338785821, 41.804980454174007,  4.133376482227813
 0.450831930501382,  2.987990190435502,  4.672429769227587,  4.108523352905778
12.286750278337397,  7.810153488377155, 35.857465622111967,  4.072409181416015
 8.132045370239480,  2.771697003021250, 45.211577831510333,  4.144107556592625
 7.513041754135337, 12.022468695672250, 114.707624941191426,  4.125721041045958
18.508577272835243, 14.777788835586586, 94.306851170105617,  4.445194231597353
 6.575951419267372, 12.563187097417435, 36.099103674883125,  3.961694875458622
17.930262764083729, 16.229560947752574, 70.404285811003845,  4.097115349673409
12.388090496009299,  2.503193891336030, 77.346952458784557,  3.930251586036815
 5.369219205231079,  4.817417665823315, 61.487978227819845,  3.984551130915063
10.494899172797737, 10.341588815389585, 52.578582690274978,  4.243462421179752
15.400026046666639,  5.028348395049973, 16.576754598707542,  4.122291528600216
 3.211119285147600,  9.429880372099463, 46.029736331194584,  4.448000966303053
 6.075459600166770, 10.011670081214483, 68.958684945258256,  4.180236549191685
14.210854538710564, 12.183798186707376, 42.343126881229857,  4.057190643670194
15.379987687089587,  7.985898296282226, 98.284791301203612,  3.845602106447470
 4.155000416892691, 12.571643418352730, 92.916425545256033,  4.053753654895079
 0.488323258915451, 18.567789021386542, 53.861634727488031,  4.074280725321509
 8.979472378298816, 13.490259018037815, 10.841540198139247,  3.902952299316370
 3.667326256076553,  7.510288462336638, 58.450338229840419,  3.972611456829544
17.804733935961295, 13.261450280752276, 12.744029648124545,  4.223654227172443
 6.094250461409668,  6.619787081509035, 54.824169415408868,  4.513916891061682
18.856724291400177,  2.155125460709030, 106.622697394120578,  3.818635983996738
11.891035811990529, 12.815308196112973, 27.729737325907664,  4.056743060664510
10.932622508855809, 14.972558933822908, 92.932922150717573,  3.765688457680029
 2.885591536220773,  6.096829275476933, 28.706210638100806,  4.140643622975327
17.264504445322597, 11.088502363584171,  5.279761254882211,  4.071086950738035
 6.476596447378949, 17.257172066837892,  1.491354087884906,  3.798531441297108
12.396976135427405,  0.488370673155423,  7.447391556556179,  3.637090757352195
 9.876265350182729, 11.494135418596782, 20.398986405562248,  4.322751859869141
16.162325688673750,  1.424866188598297, 55.354796455570906,  3.967669026844436
 9.175676675355119, 16.082143747359886, 73.802244276762423,  4.270493197498303
 0.274172488170751, 11.658904056283838, 64.791810210932979,  4.534496216208537
 1.785528677219715,  6.367277155293552, 116.847863799629707,  4.014471800445563
13.756424783360114,  0.545631452025134, 37.513398402711111,  4.058035218651148
17.453084445267731,  7.606034432527736, 89.782773857955675,  4.110160870658871
 1.285760597412684, 11.524432421027472, 103.524374169543520,  4.145891473765158
12.842436628983773, 17.927835854835486, 75.317484496854533,  4.246524343430663
 9.435057743768354,  1.984461521255235, 48.936902432309431,  3.824981605986201
18.066892581889508,  9.889951250318543,  1.563338034177761,  3.894037497883692
 3.095315516430627, 15.558875201161118, 13.704504389927488,  4.318898132650115
 4.683049194909463,  4.704838634744752,  9.573373991968444,  4.046841063836630
 2.704021958112946, 17.762012343438865, 47.248875386672289,  4.093844212687092
18.403598718902092,  0.391385424120892, 117.255555705979361,  3.910969930136855
15.542914516835376, 17.342028380069664,  7.866131813948048,  3.913361760609192
 5.685366958474637,  4.426503545186100, 14.678575388074353,  3.819478920675459
 6.677219396509327, 16.526724430322869, 11.811107032572703,  3.883311565996579
11.256742795739848,  2.303268751323920, 81.170280464980920,  4.003621592962281
 5.435382001211420, 17.003887714173977, 44.661074306617209,  3.563987802393464
 4.530998425638071, 14.871517698455412, 33.387008378762140,  3.872232624668726
 4.695418882562540,  8.549874054343263, 21.467605883009245,  3.833530489543807
 2.464555880781376,  9.026909701696622, 51.161147489705748,  4.194958944314672
 4.857633177002215,  0.570797056764374, 60.335211134080403,  4.152399922586846
10.967279505893162, 14.882071087749079, 70.197897188353608,  4.033148635075608
13.230930176514827, 16.851688169096651, 15.376982620080101,  3.992941411644189
 3.144404033674374,  8.038592823787850, 62.335933821625623,  3.903498602976487
 2.063098356053017, 10.711925307901673, 68.528926324218361,  3.852044456102701
 5.866432135805232, 16.728370183462346, 81.175296301023110,  4.110490105946006
 9.496396706921045,  5.291965652303844, 34.005046788143723,  4.299621394468140
14.647765723599873, 16.598654653083155, 22.446128943263684,  3.814224388101200
 6.240694986845500,  8.920762580735108, 64.766286061959292,  4.155755628134829
14.717348774560598, 15.073864324591877, 107.529143492568451,  3.937089016438282
13.315038714411372,  4.231679999037463, 92.395143860621047,  3.809138656744789
18.257602200976351, 17.553016404925536, 105.040524927932680,  4.036757510752971
15.814905007674044, 14.178681765346855, 64.264776385937168,  3.971735740373789
13.410800452266535, 12.539747718735551, 103.341779114952615,  4.170436069295208
13.796211975886115,  4.017037801484622, 118.060349404029964,  3.927532956454709
15.943832973051682,  1.869989205321144, 76.467739229740133,  3.465687593101374
18.715352819069683,  8.600116555575427, 59.352056091798232,  4.261103921978371
16.668218634525019,  5.633699818365337, 41.195658294990622,  3.792685388783287
12.665379196976382,  0.366236582045725, 101.226035864601542,  4.202167893780793
 8.367988102268427, 12.585884070576906, 59.423199631221166,  3.670742577394587
12.217898631811334,  2.022806999059041, 34.193360645923079,  3.822515577816372
 0.589591296328262,  4.547052136405147, 44.736832198001458,  4.037839394685398
 6.564427887659610, 17.698144186372080, 17.199551051651365,  3.735764257292549
 5.913244011141123, 16.370799031627715, 36.660457693807885,  3.830769136215820
 5.263593529618012, 17.524628463454835,  6.304689033531957,  4.209192431145566
 1.000734067394090, 12.277459546922685,  9.352473209177363,  4.010196934340674
14.937199206403491,  8.988654946112119,  8.638795046951014,  4.055647704218287
11.510294121194750,  3.121099422790855, 108.411162867341076,  3.940678764051598
 8.127714953456206,  5.731244888315399, 58.695702244733567,  4.042034745746528
 4.891811137510659,  2.296197760776939, 17.632870957378525,  3.630729880281776
 5.015219767332723,  6.874273136942771, 80.842786558742887,  3.350339479050109
17.392972265028771,  2.062457890680760, 38.727606364783796,  4.122723878043488
 1.315567033584174,  6.184419207762977, 108.664523424996219,  4.069866923969353
16.128315163401933, 10.468194459973089, 95.435596311768563,  3.840277585478063
 6.397406406728440, 10.663187222780941, 24.518002866756451,  4.252471030667200
 7.870002460490178,  7.023930726659831, 23.191074343305942,  4.006043007046914
17.896097048728919,  4.415435774685897, 96.075180958308991,  4.302806373994643
 6.849198070492680,  0.560522665110742, 54.028680397188239,  3.692916818503121
 2.036981636571595, 15.223383274666771, 55.622119389933061,  4.030001230623657
10.500850125671906,  8.887478229553572, 112.944339474812750,  3.904370360125675
14.181074095869949, 13.088462976501713, 31.916992621704164,  4.285827073106787
16.413816411791249, 16.247937953073265, 115.485931264931992,  4.155550934062775
 4.213918563450435,  1.649825124271955, 44.781863287754049,  3.998416335455989
 2.702805651385208, 15.421241123620696, 104.589593254980258,  4.003535957133862
18.318325985117543, 18.110982598014331,  3.417692123674141,  4.216869191500066
12.874541228679824,  9.201176401307613, 32.154867095021459,  3.920961512285913
11.169059096982483,  3.464771770003428,  5.341816191319301,  3.919754983640925
 3.263547407058556, 18.534841553048452, 118.083410761428638,  4.057895000575757
 7.707332333464246, 16.339170832053856, 77.627066983819432,  3.836743596614481
 5.203270247917422, 17.798724397305811, 114.823613635739633,  3.669647460923076
18.108834992747383, 15.989637116449494, 37.447815437623426,  3.887767719444656
 1.399943997881796, 18.142236026845740, 101.308103028278097,  3.894293237706578
 6.415385114548072,  8.581328262151414, 112.633401164980100,  4.075664234783165
18.610123329568363, 14.869552414163866, 107.991056370477651,  3.877005704479266
 6.489685040154756, 10.855515713909822, 53.825380644056267,  4.190055855860084
 1.272637367203023, 16.987187876819341, 34.032358173052643,  4.000861892380732
 9.384358712523785, 17.771035781466214,  5.547700995463619,  4.155226965206309
16.402660077206395,  1.082723458051659, 70.380073635737816,  4.105699139737699
14.988728361450345, 10.414292893358583, 26.923354400901001,  3.850092471639748
 7.059491295083411,  6.856370517566075,  7.158642748459923,  3.917094156656905
 5.496161864704532, 10.048874328763981, 38.738594647496761,  3.600279088742904
 1.461249981864620, 16.979448478155291, 114.905794568463449,  3.864118840471731
14.059417250443868,  8.663555195191572,  4.743286510974454,  3.932399981943886
15.742164738440620, 16.800782921480501, 50.336572500815350,  3.988461125728266
 7.068005668465517, 18.670326360812219, 28.273719326205494,  3.901166230009163
18.466726453514195,  7.631988216847797, 72.184942484489241,  3.568136681555689
10.969854543102624, 16.920275588815674,  0.856924517516031,  4.006281801396514
10.150857565338569,  5.669506097671660, 26.049503180052330,  3.788876385256040
 5.674307019534626, 14.186702719135999, 74.554421720828856,  3.729637777088928
 5.929316752884619, 10.788335840463164,  5.552311697799493,  3.645602353418910
12.170491588211222, 15.970747997821753, 25.334604465516524,  3.783080416172238
 2.385749507474900,  2.306812964285500, 114.914851914116340,  4.455140478738144
 0.416561630450041,  5.463959603217276, 38.581159498345166,  3.717091219813284
 6.603325421396664,  9.298902935650789, 60.625388623235828,  4.163336167783545
11.577155288484136, 14.014475137948484, 96.505495160657972,  3.695700248352181
16.841684193996880,  8.542985932559132, 82.444104796033500,  3.762156761219045
16.609154772998156,  0.502384682139482, 66.376092745598328,  3.964793666806564
 8.523055051489481,  2.435795122315819, 23.901880647475860,  3.957612419584534
10.759776467230692, 15.628852944538455, 58.442934981339867,  4.201187216279575
16.625224030117067, 13.717127516663423, 100.912271517461008,  4.000456286040156
14.083817826219507, 14.382931472510055, 118.136124664521631,  3.468931688132604
 3.761995394805713, 12.062693234911674, 77.211253590878357,  4.039426857243064
 0.923930106201539,  3.140886383321977,  9.084213623199775,  4.091386825364077
16.959059868466383, 16.033423559618598, 31.714437781168183,  3.819564122914039
10.050319733552746,  4.543699165336890, 70.388650130642816,  3.917714356108653
15.559078953414826,  3.736931528139378, 44.381640296016059,  3.918667487753659
 7.454337156024470,  9.192142978760922, 98.747032832867191,  4.154232885391506
17.166799440210802, 13.566002110154372, 67.682065578032024,  3.477124996546735
 6.284700753482517,  4.940110943771931, 65.406342170636393,  3.898392133514047
 9.269674999239976, 18.615829257447491,  9.553825001538844,  3.960356619326253
10.256221572383128, 16.520697942556250, 30.588315668303544,  3.681507778266591
 1.339595134119726, 14.238609538525838, 90.396076086720569,  4.182365776746833
 1.966936161586648,  7.874132753806253, 82.751491042686879,  4.114144863654198
 1.216809689285947, 13.023379028774569,  2.860670934774342,  4.049517622311494
10.705667925521933,  1.391758269932184, 52.871195368868555,  4.348586704529056
 4.542332531991541, 17.174352818654025, 98.777263954149717,  3.943562790742128
 8.695197508059385,  9.891275802582372, 109.631462470270606,  3.892003966785021
 6.895277695749219, 15.763432776042592, 95.805282230157175,  4.097973065183880
10.506011342262212,  7.122967726554372,  4.159139268193275,  3.872472707820557
 4.630847251472236,  3.791310161537103, 87.828145557750048,  4.057507432742565
 7.047196498359722, 16.236201611167591, 86.688965280589201,  3.835888929005706
18.131327670262355,  7.489922893012334, 52.933740225166595,  3.856086812684330
 8.887490318249201,  5.232860949436329, 111.756116575704468,  4.419847466566856
13.852908029020147, 16.198192895494888, 29.042946533723391,  4.147523832843891
16.985778716479032, 17.409340509778673, 74.533430048865000,  4.098913370031635
 5.096503557330954,  0.679740864693019,  9.876589622410405,  4.037097156050797
11.235131010447779, 15.266753421108879, 21.170512620289582,  3.841333507629302
 2.443932542176831,  5.295927097863644, 20.659038162011651,  4.239427219606711
 6.258045442942453, 14.307887835601004, 68.727528681103180,  3.990292774204385
 9.644700479225875,  5.400436195995495, 29.875128284856139,  3.942052257021354
 0.853602724868031, 15.636602439193476, 51.294688438410908,  3.750374910136868
 8.054897334874802,  7.621660495057643, 15.285615692164750,  4.224562350865345
 0.341828578361763, 10.946362865862435, 80.842024487139938,  3.810478685018377
 4.195607931431308, 10.845405051059190, 81.023171815315862,  3.772654938332584
 5.796595069498141,  2.532455827086299, 94.200784242246115,  4.488731204337279
 0.980968554324046,  0.212587972703530, 61.127377537070053,  3.781115904932960
18.901333455933038, 12.197967233861519, 45.017552346430527,  3.951564967156782
12.422835617824228, 17.268051696817569, 33.533641033895577,  3.720867583766533
 1.026288654986001,  1.001411330835548, 97.478186914254564,  4.107418283186254
14.227391433319747, 17.536881241960369, 57.562567068130598,  3.906079002119619
 0.075668008609811,  7.571528378601812, 93.564244650403552,  4.053176356147579
16.754888867559792,  2.488045799483294,  1.673129620845237,  3.919364917847418
10.455681725503432,  6.821039291309168, 54.844924917459458,  4.090611996986729
 4.968082450334526,  7.698814432853142, 12.935326108685894,  3.410098913460777
16.503240218850372,  0.643937855882745, 85.665888838203514,  4.334808176782066
 6.550625566559396,  7.196502364714870, 27.132251007946799,  4.089603766777859
 2.376217649370970,  6.413332955540433, 74.668663992778733,  4.145945288930410
 0.355649306979922, 15.650695564251420, 118.417808546291553,  3.959466408695659
17.509655425752626, 10.080913360474323, 15.379866013300092,  4.052347597016443
 2.499094225329365,  3.661794301213765, 12.686077337711922,  3.836104261323920
11.468950973673705,  6.524269806851899, 94.866475180108239,  3.856038500114879
11.196953088824767,  5.182364409609656, 51.232101945802611,  3.910003825106255
14.750290618169554,  3.038465147676761, 82.836175556972250,  3.865159925002971
 3.532176681008552,  7.227527647664243, 37.057601335844609,  4.031740662381753
10.405271705740526, 11.435188180107442, 35.261819006359069,  4.131228774872802
16.708774361468429, 12.223549425009329, 83.538885942659178,  3.895491136409152
 4.918285228904876, 12.815142079845508, 88.700455484864378,  4.208034776687636
10.654001234891247,  4.934098966162249, 13.817982403729046,  3.737281617612799
 1.442178992558711, 18.885464228193538, 11.659199789139823,  4.139037889579821
13.465118202216514, 11.343142673963351, 76.835859709165263,  3.881784643262300
16.860319067740615,  7.953760660527797, 108.318774849172101,  3.502075636933732
18.493037395465883,  0.714821721325214, 31.413955524419237,  4.074577621327061
10.786910220300182, 18.892405411423496, 110.737617849159463,  4.047283252439077
 8.697397645161329, 11.999154585941167, 66.315271376296778,  4.254968494320677
 4.018199570872328,  9.926384461799813, 96.138433366108046,  4.287472953409108
15.781742704616505,  1.893612093898233, 59.528691268529002,  4.391237783591595
 3.902752726911551, 16.062246014913963, 63.667247837208450,  4.314985771825771
 9.618890966687696,  9.190193511594140, 116.787744381202003,  3.975612096916291
13.940181980490888,  7.787418614804323, 62.862945393138560,  3.673318531057693
 2.251106479216053, 14.696635077929987, 68.542504601971316,  3.958569334632400
16.247729231106337,  4.010543973179634, 25.208731532755497,  4.026513336905737
12.803284664846819,  1.460285471415173,  2.404959595201141,  3.875834307623562
 3.030625307975054, 10.539818562823488, 113.571014874177834,  3.966518424121059
15.375158591030486, 11.416652187121336, 107.654132964996521,  3.471133857388605
 4.857692554982841,  0.531732437418517, 14.066783713265439,  4.237121918109050
 8.037774976839319, 14.847614591965245, 19.147276828349231,  3.685497453107377
 3.208416756232540,  9.465447114567839, 109.822658757260783,  3.838284861415022
 9.481601961987751,  5.923046472131299, 47.625872781866313,  4.211610160263465
 9.472900850045235, 10.878737573471394, 48.690610571369504,  3.832570668082024
 6.718103870144694,  8.465608802100908, 77.873161149338628,  4.196678482953489
18.438299055332145,  6.561036486566558, 79.677367107725118,  3.697855031832328
12.202110557674590, 10.317532541245653, 95.636373820709721,  3.996558725400705
16.185971559151689,  5.126805129003760, 69.840525087512674,  3.917344954337886
 8.697827468873598,  8.188371763456065, 71.651438232395009,  4.173449237986461
12.871040771558494, 18.879925655423374, 11.059270672871500,  3.646399865390587
10.019866984150115, 12.116844004409709, 83.738743571005770,  3.651777634013821
12.091426482283712, 11.944608960854097, 59.544609079591986,  3.889271386229363
13.900624318967072,  8.346941307729470, 14.772428987702151,  4.000419035490936
15.548871817362992, 18.807399469307988, 46.773339570722136,  4.183787622317672
10.922361559357507,  4.153120345820512, 65.389460883899318,  4.126860571976677
 2.407795801715362,  8.379018743151059, 15.278250857718966,  3.652395007923869
18.545594979830518, 15.897229944387437,  9.809744355513597,  3.800785719490857
18.220457569557542,  2.275972753175743, 80.646751536951683,  3.768360140285292
11.204554541679631, 13.210792373005015, 45.647963558740358,  4.390074884359922
11.552823124126727,  6.312908933878580, 17.418430023088820,  4.157007417147327
18.006469156321689,  5.766094508969831, 105.313435284781676,  4.041607763176978
 1.559571069110234, 11.139694532623819, 31.939593068825459,  3.960147171533810
 6.391864346152434,  2.503397001239274, 31.092716856328124,  4.121611942053327
 5.964513672512441,  6.959178975738969, 108.565097504000221,  3.983661103755163
 3.483630998708036, 15.526591568900024, 59.455958579954121,  4.177776091282825
13.742713622044551,  8.672205232772566, 101.945621747319194,  4.040740482616717
 9.172774106819203, 12.657007614107906, 87.818533649425675,  4.476843292773458
16.241416998415396, 14.617133850906281, 90.653596382317147,  3.970337858490351
17.365339592969242,  5.762472501836754, 75.848035567861089,  4.203179164386055
 7.390795129312663, 12.189562623520212,  0.177868255876891,  3.725871807011520
 4.069971693562619,  2.698308192359749, 74.518380007191666,  3.976348692534292
18.466546805662340,  2.448362091035921, 73.637438174402348,  4.058798832786608
14.825339708578026, 15.421468486122885, 39.773964249356844,  4.197560789408436
14.190083498554538, 15.162649710363713, 11.852158645583719,  4.047398472608366
11.293581347089969, 12.670391789511113, 113.515906740039142,  3.891048213237300
13.438739672368206, 12.590290174471166,  5.409650606159317,  4.048130790734302
12.824982479378901,  4.625086027120270, 101.118909387049655,  4.162162135562278
18.945723489235032,  0.177236957763118, 49.906787040836818,  3.964259248042858
 3.588695089115316,  3.326992811287184, 37.885801741172230,  3.929512366829329
 2.462770666882047,  3.499292672364310, 31.896319576054804,  4.044921955178260
 5.333529542330521,  5.987242953344163, 44.494929758807757,  4.155077892442445
14.347740033916878, 15.030818694339153, 47.291955063412544,  3.575970042178033
 5.774671193113375, 12.262961812745408, 110.979025073777805,  4.094704842741105
17.003113311736765, 15.307909773956322, 54.539073721134066,  4.174653793858289
17.072630362129399, 15.020646813239212, 18.535944957413541,  3.939836551558645
10.425391107024110, 16.562189125627569, 12.660768871834916,  3.786954947702120
 9.725223235883686, 16.474268332812031, 89.570072742990718,  3.968091639526144
 0.616053170906445, 14.811801513748598, 25.154287889095546,  3.633435935053185
18.232613787306768, 16.874273340172895, 58.274661221593419,  4.278324377125221
 7.967224754628710, 15.352827979349756, 47.477925782389136,  4.139503925493350
 0.970758978173323,  9.106745819433570, 21.575722185290726,  3.679345330537233
 7.746563107305505, 14.088411667121644,  7.107629786704509,  3.998199396108923
10.413589841139107,  8.406181662571649, 84.470933982214987,  3.876475507053844
 9.146035363431979,  8.935522592892404, 38.280119167003548,  4.083797072702381
12.741460086938650,  6.827356333851618, 68.681808459517569,  3.894572186064243
15.072377863156634, 11.204367309924997, 46.368606146511617,  4.403722592404206
10.425455907626764,  4.138172511800117, 20.819423423719435,  4.018898525114151
16.477667309994647, 18.263499164400223, 11.931313723032691,  3.647133342689590
 0.265504377065567,  2.459554809366703, 22.813003154489447,  4.048422415885732
 5.607738054006471,  9.753181585060059, 74.057301894463393,  4.121868331644921
12.626969619590030,  2.337334116221412, 17.959153003571807,  4.035182729262902
10.531481465009277,  7.669025934646041, 79.301685115034644,  4.036095352106832
17.074704095963124,  4.833827595093674, 56.980290545899415,  3.795496093801412
 8.452702530415676,  4.326192995045292, 77.977921890195205,  4.256529644179381
 7.653371541418976,  3.415029720581620, 108.285330804815388,  3.791813141425469
 7.911669255137077,  2.478353401578470, 12.097269949144723,  3.957389456216892
 4.468603564680471, 13.529965739150217, 46.011995186238543,  4.124221832414074
16.456621192157723, 17.923680827303073, 62.601932471345052,  4.164469770478483
17.920276092060480, 11.237968002287683, 19.145347057105010,  3.850579388451429
 3.980278895531774, 12.480443941104031, 71.469406158697964,  3.995724989202032
 5.512578205203715, 14.825106110928557, 24.369749408900432,  4.142246369725999
16.729798536010993,  5.947520173096685, 101.447023910492661,  4.104789351978662
16.020698654553772,  9.636521493049120, 22.321092071008820,  4.178672991116218
13.142249653764168, 16.960526933268046, 64.540661353261001,  3.749039387751108
 4.883793960708288,  7.549679619002291,  4.137595756343708,  3.652784559653501
15.255348500298325,  4.465225316678103, 79.225143836006410,  3.961090169398481
10.412068957988991, 10.645476583204898,  1.959991639008198,  3.937929937278031
14.409812576334287, 14.984823413360111, 60.601803971704108,  4.017384562610887
 5.302809390492890, 12.544114077861263, 103.171293396644870,  4.084744650253954
 4.411937999607455, 15.656156054431943, 109.459937838716698,  3.816120556360690
10.134369110221089, 18.249783514496876, 36.840638749391573,  3.715110036338425
15.389667296732000,  9.014629074705208, 74.038265774245644,  4.123366915941877
 4.845611615308335,  7.050949107037655, 17.926716691908148,  3.738817050024256
 4.742482856740426,  7.064891724124879, 40.740980867031425,  3.703200943605385
 6.773095710165567,  9.825727477718546, 85.596244782951828,  4.166141424335953
18.405266446670439,  3.406320647971510, 52.424078551564776,  4.293853371160615
 1.519783813644105, 12.456407597125880, 48.831489283255081,  4.291183081065755
 2.244057184883936, 14.511213837991756, 81.692129459240363,  4.444482366752655
 9.591382363826234, 16.618286676445994, 54.510890173261785,  4.059734279061733
10.048853344729396, 12.724910270576764, 31.357335605130235,  4.073266931696124
 7.223706770765237,  9.931823588649525, 90.431669149344827,  3.898418150553510
10.913311539294810, 10.300338866343152, 16.554139403665602,  3.972785816056413
 9.819322470369581, 10.455626586331054, 62.696417805636564,  3.828606082271188
 9.100327849430387, 15.332240559347188, 34.392476605297702,  4.142258142815780
13.093209973485131, 18.663448068871006, 107.349318955318338,  3.868651693031362
 3.450262794265547, 16.036277434449861,  9.636944158846521,  3.886166770609618
13.807815126897973,  1.771221340167601, 63.880025567746593,  3.920121157447379
 4.031237904528830,  4.625293038283495, 111.007665003762895,  3.722466679506081
17.260548146225357,  4.101153622758615, 115.701269600590138,  4.384103139238233
 0.042599127716422,  2.535195280123696, 102.795017770278818,  3.841975250747479
17.233111420078728,  3.534352556640343, 48.137666475127020,  4.302954128187415
 1.303870286636196,  6.378801136363573, 48.249398522496989,  4.003976470920968
 1.856475700476185, 12.993232586984144, 110.564149335835040,  3.848792407079668
13.307537551263243, 10.250216310118930, 116.625938002672754,  3.612018086553550
 4.266429757030841,  9.212500888091148,  8.631349616066585,  3.955617934229136
 8.643248776478751,  3.341992414340405, 17.171032126755190,  4.165099433968497
 4.722588571503645, 16.360824234180878, 91.465787454239603,  4.075422652594752
11.880475231471427,  9.223684958961993, 65.700327090762542,  3.858536178980876
 0.845555824567650,  1.873273991223225, 35.334170726871136,  4.091565144259774
 9.316722665222287,  0.212013314008632, 107.032198155641012,  3.746763733753652
13.675075815319422, 16.502894459287589, 103.998338503830794,  3.878381716536365
13.188449064768907,  6.632493357573884, 11.297750662863471,  3.855875132896086
18.774798913074793,  8.783453357981333,  8.052013035807617,  3.716154510433940
13.779870336460595, 17.682350825677574, 53.666249806398739,  3.934809204714268
 3.756707037573459, 14.895232617677253, 85.433785388191012,  3.659593991932604
 8.765091427337437, 16.147735104238823, 99.487799124368465,  4.157494514307536
 5.815114177892292,  3.249307587322990, 41.336221700537507,  4.239062045617196
10.607855635493072,  0.332229188859678, 86.863652655826812,  4.033362528847523
 5.233226261218167,  4.551196908997916, 101.740239833108689,  3.722163667868352
 7.328928465662384,  1.805441423803556, 72.464640493709837,  3.897344934427743
 7.654876425643922, 13.698404917908157, 91.537856885240572,  3.773176316488781
10.397644981262282,  4.176858153561723, 74.322973428953887,  4.006764802679260
14.650801752652855,  8.638428601937441, 18.648581315525107,  3.900356798847942
16.450873514419190, 14.547028161757575,  2.565269891354344,  4.003488213332000
17.314877880837923,  0.538794148449040, 94.534012075154834,  3.877271021689546
15.535377083443791,  1.598420942685400,  5.406693599847210,  4.103521943482353
 8.085038793276542, 15.732490480597820, 116.591792690871713,  4.242204372323754
11.492917483597859, 15.840771663829274, 51.092125256055631,  3.860951512683596
13.167025590642886, 13.446650972138858, 53.972223108672758,  4.335043150849233
14.495005073122149,  8.391675937050604, 79.344750297282488,  4.003894171898486
 6.964635642911316, 11.057922029771534, 17.402703917181441,  4.068898068681326
11.803416961866294, 15.440258301140771,  8.312222346167946,  4.505311352415725
16.205089901641347, 18.718889369314805, 90.957860691788952,  3.712890811800408
 1.088686049320397,  4.539341803380817, 99.621861115535367,  3.925892025003038
 6.889167019464958, 15.315926047526821, 57.345955640607890,  3.792284314949719
 2.943609739479176, 10.550269149167104, 18.503477298916025,  4.126433905072106
10.589580479683647, 11.201851054174393, 92.112830110126737,  3.947746941370434
10.161350682359050, 14.205775106895951,  3.687291201608148,  3.979379562243536
 2.370511550043076, 12.169445660033745, 23.179039134476781,  3.774818260466016
11.813644859852662,  4.217773215432491, 85.656594120405629,  4.440114950263609
18.430715807552769, 17.137758780501169, 28.163576909023671,  4.164897328027079
14.800792929898952, 10.717459723926156, 35.050894165805545,  3.615523593123105
 5.159929752577358,  5.071207487419541,  0.362174647065037,  4.126770507980546
 1.953654155738912,  5.140819160081249, 90.720256643213517,  4.264301376305102
 2.863592550471259,  0.480920294496456, 104.715134605825313,  3.869349565395688
 9.823210370502995,  7.873283092860318, 75.451029774227436,  3.755911189873944
12.470978537970417,  3.240449020539766, 24.126014335347687,  3.952508142965290
 6.378354450241632, 11.659379420709445, 32.324253478007201,  3.801936436176646
16.015781818699285,  5.813729186515239, 60.502522618976819,  3.696270013466122
 1.677956394605920,  2.439747578242972, 93.827034332552643,  3.777983137935027
 0.042856485846986, 17.922858170516982, 40.787640702643799,  3.943850368384949
 2.751194494310278, 10.376312722927274, 99.997815853223486,  3.819989086583969
 6.444255787212482,  5.461358322270717, 91.112475608867655,  4.110898287875227
 4.549145566515703, 14.331084228643974, 17.446210995868075,  4.067421615070789
11.957537044044386,  2.109580628614572, 57.386293222010842,  4.373803308205442
 4.585582853548225, 15.134439902669497, 49.766008541030587,  4.007105960859477
 8.047850097481843, 17.031882282655140, 40.258010293471038,  4.588998187709794
15.852943745447254,  1.016624547551497, 15.686193979725140,  4.113222476811291
 2.637447000140248,  8.654823103074923, 25.232162197765017,  4.364438898103504
 8.195571182641608,  0.098633224280778, 57.646594204881374,  4.079692004604199
11.245582399093086, 14.675249545738831, 37.846058639826325,  4.034931383795611
11.396958771137772,  7.723627621586831, 98.708175925832236,  4.175925550569569
13.400442152790399,  8.382001150258196, 106.912504080466562,  3.913067103434626
 2.022319712844574,  0.719577454020450, 64.851457582544057,  4.012753103271565
17.811559773699361,  2.932424216210790, 63.245173630743174,  4.283598618166086
 3.256249471316484, 12.000571818817036, 61.657348236125657,  4.136576072131604
 3.391041294628953,  5.902488351602353, 95.181802309452252,  4.014712540997510
 6.095971444107509,  6.465477380643210, 31.072298806659802,  3.819602701308917
12.652227949574609, 14.250907398967998, 73.624380035652550,  3.595270012877933
 7.067709502914927, 12.848793636032811, 79.345928610530720,  3.976971136077747
 0.081624239976795,  0.492205941210248, 44.551210316731058,  4.139673159611116
11.640735993667546, 10.597297805309966, 73.393556981492054,  3.973332146071467
 8.555989852961124,  3.439697709296640, 55.605813703551483,  3.672521563543516
 5.352148951271091,  8.905183968938283, 116.774122977117074,  4.496314178333031
14.642161851597553,  8.248360971239743, 43.349911095869032,  4.077498447702282
16.319439165177929, 13.105500259334908, 74.491633013127810,  4.235332974925752
 2.602893819485411, 14.028957163684488, 36.827701490958404,  4.132941407632827
18.741363205558997,  9.406134106439758, 35.060058705419955,  4.003994546712708
12.465198126590955,  1.255775015911275, 44.395800555378756,  4.006122101414152
16.305337949144768,  8.206880545893554, 38.170691027096893,  4.072595027812864
 5.885059206332965, 14.549495982648569, 29.642401579565981,  4.022582426216934
 6.387110778939488, 13.217324184793172, 83.271967825503154,  3.924402946701139
17.687294253357589,  9.434719525469113, 11.549474410906210,  3.719572417864625
 3.328546230183650,  8.589270971528309, 105.887834687001515,  4.139432232622126
15.753490691572422,  7.137169952519782, 34.178417416811484,  3.701499334386081
 6.806832094060945,  1.578364667070954, 117.223321693141344,  4.232009199582847
 4.297682189689008, 14.551135786007340, 117.990185936334498,  4.106211936747213
14.311361378974906,  0.895354922569968, 115.562160024541086,  4.118992343168848
18.259283928128934, 16.948226427540867, 88.273278931833417,  3.814083157165034
 3.491743404497153,  7.156238587070264, 67.353072252987531,  4.153933137236153
 9.386520581380134, 13.342310531835537, 24.014010365818997,  3.822821173644613
 1.816892262573095, 18.508181298002917, 75.053369328876443,  3.827556155273793
 7.057774120043009,  0.621438559305842, 89.006615485322854,  4.264393522393623
12.752469787475421,  3.593298015221190, 28.079667026997903,  3.999042837562144
17.030777027338068, 15.913020843897266, 81.714062058951484,  4.345417968176305
14.726874470786836,  9.670891239727842, 52.537407940857172,  4.236219497235422
 8.239835454394701, 12.660303856086056, 39.800438415081359,  4.154521460802775
11.078536930571028, 11.808106141765016, 106.849975960240442,  4.359840268809995
 2.664660399272412, 11.457329482579127, 12.963135256833651,  4.052235755440464
14.821410192192841, 16.361910171407960, 67.839497623453326,  3.732521028789911
14.983597708008260, 15.437140692051960, 77.994970668021381,  4.163703740216346
 4.367748210994669, 10.684730129890061,  2.026378148743416,  3.968442443666047
12.934096631662397,  6.473309793426371, 110.562169379185619,  4.372063338246055
 5.169690120648140, 18.584439237419279, 84.494694746011248,  3.601404170207154
 1.472554057552267,  6.776265605501544,  2.460770393317817,  4.083669426501998
 7.716324536056422,  2.823628468964757,  7.531023784312136,  4.160193358641511
12.796773461597372, 13.231803246382311, 89.713935605807876,  3.622466809921528
 8.880870532226741,  6.506428548287710, 62.700934922664814,  4.086345827187085
 4.464329350420307, 18.166604142334503, 56.603083276045105,  3.822477860194954
16.748786480212480, 15.121829552258179, 43.404816364682397,  3.988490564057523
 4.806486089083125,  1.602456696282675,  2.799530418201453,  4.041480001406957
 0.303867399369656,  9.250959081942105, 28.678844491635708,  3.978459037517129
17.651738251674484,  9.869667167576299, 100.837812330695286,  3.954502779592457
 7.236055791654016,  8.115582166344252, 94.115274119606170,  4.003306513943840
16.623534573669243,  4.578701774142315, 87.133975266539849,  4.063293957876116
 8.172847886846483, 13.644772125060234, 51.246767730861436,  4.090256095027482
 6.529623001629580, 10.078005471208927, 42.631589816950324,  4.228569174818772
14.950929885273876,  8.835618051574860, 113.441367698573217,  4.083675067840043
 8.790354514660278, 17.272984491899752, 23.642545377899850,  4.154617437029255
 4.341110537680757,  1.092674548202438, 78.071375041270542,  3.817247896739756
 2.777467429663059,  7.449318117070180, 33.045999635127977,  4.104298953816884
 0.767483387040871, 17.147897857802491, 84.651139096721977,  3.966762073227870
 3.716073439918195,  2.965140895701250, 67.545968790457437,  3.758428146147085
11.039768418571356, 17.908360918407993, 79.010675890522862,  3.936159837487338
10.658287125138017,  3.423411497748708, 37.621267402551190,  4.166100399856366
10.458714635315280,  9.689129911096925, 24.595146390621704,  3.873808408869306
10.037133766295083,  2.631179768712503, 94.162951547427497,  3.958713367851792
10.883100985354021,  7.506547248930288,  8.175896157209296,  4.098068509082889
 3.055794055091208, 16.534968114816845,  3.054804560171010,  3.841095339259927
14.499838872833834, 16.584334281269712, 93.901644739807736,  4.297326937668529
 0.833803100370347,  1.822478965816736, 57.391522703102119,  4.272444740653157
 4.104563451203058, 12.472306109516916, 107.106024922331997,  4.123877032687227
18.261496054225510,  6.124774474758949, 31.157611589257929,  4.225056304482465
11.098295740724680, 14.515133131624538, 77.047376202112517,  3.898417785665263
 1.791565449822982, 18.037723473497895, 108.096858405937738,  3.753362944794388
12.406568231735843,  6.778919046269857, 40.018688602992185,  4.466820453082997
 5.503313412924457,  2.681515057832860, 82.158754927263359,  4.088709811661227
18.489422388357077,  7.305316108189369, 18.305025728504592,  4.247062822108428
 5.246766858523223,  6.110404297229067, 84.513041145729005,  4.107800763064085
14.808620316217761,  8.092169859386431, 85.919639078764348,  4.198729597374263
 8.882391560465315,  1.225927039423057,  2.323756052816024,  3.944999682478775
 5.624501733000617, 15.801417155019173, 53.637466621261616,  4.103515532429680
 6.199833191998027, 13.901847464286810,  3.400318172696222,  3.928143814613310
 3.219113226812103, 17.998804033330600, 87.877892777735028,  4.292936641113781
13.643858655419482, 11.269697262850469, 99.085738070917401,  3.674706718165982
 3.420291066922665, 16.992114659995046, 27.336103860942963,  3.831623833285689
12.778696661942863,  7.643805591233484,  0.859142149399178,  3.953640856053482
11.026826822218554,  2.111967572135810, 97.974084747745408,  3.802523710204453
 3.702409171565531,  1.597234241288994, 90.854286992186047,  3.606634826294958
17.740592257058807,  8.938109235203493, 116.276605054777690,  3.867664346715884
 2.694464341609025, 11.338750278947646, 42.389014439554764,  3.831933938822448
 7.291815528693454,  9.980233683944940, 105.824020218228938,  4.212286941373404
17.255605498326592, 13.610771430873093, 22.300447121286314,  4.084826603480844
 7.666374700239347, 14.131163504982860, 43.566272772489079,  4.005046340138896
 3.872865145855537,  1.345838046608332, 70.912877208310150,  3.715954103669402
13.215783522788607, 16.473374971978267, 44.181559280773328,  3.621458771839534
13.911952336058583,  4.553614764589573, 97.154329154707057,  3.908610863054786
14.648593726705645,  9.125017740782503, 59.526018076282718,  3.650258092818898
16.204382069916619,  8.491375921833530, 56.141697624715817,  3.883702366849159
12.988842461652071, 10.722222736398097, 110.448913081391282,  3.986976047981425
 9.585368285923938, 15.128636458080116, 81.431905140238754,  3.978918018446552
 7.753526917223158, 14.121416148016165, 107.924398105408443,  3.939005604217988
14.852276628270426, 13.141257172635855, 15.794772166767263,  4.050900736247901
12.161211061788279, 16.226513388980106, 115.325819943368813,  4.274910925053921
11.402434646139794,  3.171354531962685, 114.222984338738542,  3.733098132405656
 8.126543143790865,  6.449195946670335, 11.118813067912171,  4.232474866428971
 1.623613857996426,  3.086248045663981,  0.783871054284962,  4.014291757162555
12.388537856749871,  6.939220561268931, 72.462970759870018,  3.693681593916253
18.214104920444537,  3.213419553989485, 18.882171910842981,  3.992930190102638
 0.078206599317090, 16.161260640261826, 111.499020748310429,  3.640582150703729
13.282523764403752,  6.264684610387413, 76.164723320174815,  4.005298143174198
15.622382242688456, 15.437921958062983, 85.694850633753262,  4.113239081705152
12.959123433637309,  3.545222088471861, 47.757927701026794,  4.162626744515078
10.862662909467716,  1.077372960693563, 14.501275708402670,  4.106704886823755
 3.471823272529923,  2.096215599459322, 54.355425633088245,  3.726413145509003
 8.849152952271313, 18.694186408558231, 83.193234795324997,  4.093307389608916
 6.657798052894411, 18.824827859183031, 109.815681329036750,  3.962920964910099
 6.463373615740014,  4.500273377714608, 20.406559328142610,  3.970792904547968
16.437909555004079,  3.365883586142492, 33.630035296868435,  3.963950034430215
 9.896294421342990,  2.528448156749099, 41.538842459048780,  4.013183695462098
13.963180324289958,  9.076608959594068, 91.428648171531748,  4.133205620293736
16.745003719523101,  6.333286567557716,  0.675298106577433,  3.869288541580319
 4.929095243723713,  5.492544721801536, 114.519385705988199,  3.715774586170980
 5.872556088848696,  5.136900786144546, 70.344031488243957,  4.484648273861160
18.802681461387827,  3.759702474413004, 67.181840827322219,  3.991264873072657
 3.734447221807401,  8.611317418546466, 92.197282973394252,  4.029556291161757
10.394612816471126,  1.511594178661380, 30.688616026117870,  4.139926804309385
 6.479478399364154,  0.077676194998072, 47.489036900368355,  3.597682892825913
12.626566343460174,  9.964736798335286, 56.102216176644276,  3.849182959583873
10.968461660143662,  2.694095668876946, 104.368414999839544,  4.245704416604784
 4.371353261980906, 12.429348847959927, 65.731601877799562,  4.008723485743171
17.822475366996500,  9.695141816529151, 77.340416326386119,  4.184339436703460
17.756323406733149, 18.004089377197271, 24.274792946690738,  3.915862846849771
11.345395655492332, 14.112744885797152, 17.478649537721967,  3.859809478349134
 9.707423152351184, 10.587990815594765,  5.833526437710115,  3.929232990960868
16.625240710345423,  9.497453609968163, 104.669907535332996,  4.011853474911971
10.789400595257460, 14.395363639329190, 62.540625539799215,  4.272500178058546
 1.220630955368803, 14.730062054945158, 73.710617554245545,  4.273655652177298
17.046509489120997,  5.849097284750839, 10.179670556603829,  4.040596450283030
15.126467961791985,  5.881302936860357, 50.827589066964364,  3.979823210956681
 9.246713195823752,  0.003906528156877, 114.392674257874901,  3.871294895322587
17.014702463857081, 13.457664749474121, 104.804096508047408,  3.788690447026428
 5.939662473558439, 16.393111077303676, 102.345072443664549,  3.872595002459910
10.242425500176738,  0.478657991759636, 64.088422692506512,  3.652633585773718
 2.954053424679296,  4.535806058984969, 104.960907847489239,  4.167566395793915
 3.241609639976737,  8.240877346044124, 71.222304865186928,  3.818592337605266
 4.013483168532137,  2.190831757997179, 108.077477244491618,  3.882228968762786
10.055333644431949,  7.294393268357990, 91.296277590187458,  3.963741367715973
 2.149960510973907,  9.936886545249752,  5.229261099985930,  3.920977078052387
 1.456802140309777, 10.480445532311057, 74.092022883314954,  4.269449796593920
 5.768623132554940,  4.273963665513495, 48.155488751425416,  3.967444678594826
17.754888540733429,  0.518647255427279, 113.197320779033390,  4.174975741731881
11.536232762239194,  8.716300912106410, 28.385443125608006,  4.120694152699618
 2.408231594732464, 17.363892544651424, 23.136993205584623,  3.735309956037292
18.423655499842670, 11.307568616676299, 25.431093700389258,  3.760565575604204
14.132414484347292,  5.177200157723155,  7.383772553419157,  4.042097274780668
11.882684324546123,  0.040676802883915, 91.770637829262711,  3.993084939967374
10.843003465994972, 12.911541028533845, 117.329754015979887,  3.774230322602209
15.428216850776874,  1.419281176989220, 22.370552784423371,  3.738281885991321
14.367195477155974, 16.803181843527490, 111.892298586212277,  3.940095093329683
 8.048442717543169, 16.250231762950346, 65.408300015487967,  4.447766836407516
10.124131710944196,  3.365950785364109, 90.094921529359482,  4.242125182949246
17.864164495379125, 11.243221765776397, 92.022547982526262,  3.958764357126276
 4.132033392497277,  6.901624908850618, 98.934026840964066,  3.889013120038829
 1.743173031290937,  5.538087437493497, 55.388161336430464,  4.239757335653420
 6.214020976284288,  2.147978649453803, 113.076312080873336,  4.006897365021038
18.274178095995794, 13.445910013339981, 34.375706959093698,  4.052338325480331
17.742635924244684, 10.316407695653126, 41.705151210750486,  3.977169576786784
16.812234048293430, 12.259935575217611, 37.970926428489733,  4.059248732797153
14.693595049688216, 14.895920046599667, 35.647644382953743,  4.068175884054391
 2.283009666264020,  4.460007853943266, 80.875378597236590,  3.683414283445297
14.357253221327827,  3.517414968104221, 73.182402375539709,  4.317097959103546
 1.527053577744949, 10.443718365101290, 38.657336364194371,  4.189467670664778
12.561976401872775, 13.502625365066500, 66.495617730079729,  4.032015921663705
 2.011813083314517,  2.222825514302788, 84.868989428141020,  4.379569398810101
13.623501162947347,  4.166150974172022, 54.102305186705522,  3.868405849431937
11.785416671665105,  5.314370253930496, 44.100030445731527,  4.237481716135922
18.393357335086840,  7.799778339413153, 67.797394643946618,  4.099281485860163
14.827544978700331,  7.000195009231460, 47.096542740033669,  3.800043742590154
14.569160850905151, 17.978605237920906, 18.875334788498137,  3.829323573767841
 7.887386347677890,  9.603204917798349, 81.659075588350547,  4.021075080830403
 7.452521018327133,  3.428162598282241, 27.447441207783960,  3.682187132258886
16.184405057640870, 11.305153780873232, 88.295807031448604,  4.121391353138866
 5.557615819493317, 12.514732188087539, 20.928440289148604,  3.992178646399152
 5.520936510796671, 11.144322790686511, 49.239784258780269,  4.158620353334300
13.428725318193452,  5.930263069626423, 89.022253189646321,  3.742640608638015
 2.489217297465341,  4.660839079452085, 64.274353461935249,  3.993820122621770
13.602508078887997, 16.918113897686780, 88.821137044265228,  3.894539106620925
14.225292784832881,  4.968075673790351,  3.389274618946493,  3.930045308940481
13.415455559018595,  6.076518136779349, 57.538062317508754,  3.987302515232551
17.417137533001284, 12.972931658704265, 29.014980473491551,  4.347535925439720
13.891560561895963,  3.133891103489127, 12.859373601768304,  3.908085161272653
 2.996986174480243,  9.368090322740626, 55.112290926363180,  3.777198926182301
 8.041877647852685, 10.057750692808854,  9.307863347383094,  3.830764921737570
 4.285613142494531, 16.465321052647496, 71.449007572856388,  3.966917992779117
 5.373776776010139,  4.626866055411686, 34.519813748729810,  4.068555757120991
15.916908514271398, 13.036265399742613,  8.724414947862808,  4.255114386533605
 5.634001972508266, 18.006968927578669, 74.826561815914204,  3.881607607940378
 4.660257048553986, 17.973815690016586, 67.626725628523275,  4.230769282393041
18.318036815035857,  6.346541531212083, 14.073176418454471,  3.980749905460368
 9.178059740574600, 17.813854019320473, 44.386812621566669,  4.085485473020038
 3.217295791484368, 12.544030233749371, 27.106462529251971,  4.293107829237549
18.288679468014205, 12.206234231477829, 70.986286507437740,  3.993641656478820
 7.598391812787366, 16.559783308770118, 60.984686447321089,  4.001788670374171
 1.518525685918406,  7.435674750021311, 102.390818341732029,  4.063299838182593
13.998489481573502, 12.665952814970211, 93.152487739826952,  3.725663831308227
15.656130569083361, 18.768589091812526, 42.572601883006520,  3.804729144462392
 7.264970913454347,  8.933410227579074, 46.350563056299059,  3.669922045475584
18.186284458641374, 18.388475363336443, 20.348559387933516,  4.011448567439408
 5.935472658621319, 13.019516204795726, 99.120852382223603,  4.069646377140204
 0.859913564146524,  1.263085659252533, 15.305608729046620,  3.702879170131447
14.475784549919529,  4.876771228330656, 20.645201625764681,  4.193744496404831
17.859827798432789,  6.089418098949046, 22.334652530966572,  3.743038515825593
 0.103985831110154,  5.626860331712413, 35.003216095041203,  3.456145843402116
 3.421593559245296, 13.680673851671159,  6.360699649963760,  4.179340101121831
 0.951931965494249,  5.067596167674188, 25.521140604884877,  3.565784640389247
 8.719247048457600,  5.387411272499405, 82.268476353991986,  4.279949320713146
 3.888572531094201,  2.382165130136503,  6.531043494857076,  3.770214082020239
 8.556090305755969,  5.285791012959175, 116.062072601925735,  4.156729281446438
11.627654265432980, 17.891766201216903, 47.693395100776698,  4.067814300839706
 3.315331853681402, 18.462712193287913, 30.958070586795813,  3.892578752973540
12.833738538412002, 15.227443655556812, 100.127933758637411,  4.269893319460459
10.713270655707250, 15.794049072135754, 106.210780256188428,  3.644825559312717
18.557653959631011, 18.015534523851603, 78.331809124594614,  4.129693561612066
 1.878873179398850, 15.803636417939893, 43.716607074035586,  4.143881039497280
 7.413903737174357,  3.786412786706927, 51.832773279933846,  4.043635249633561
 1.800079939360894, 11.313102656723364, 117.406189769574326,  4.111175593059922
17.157592559612556,  5.629929987052848, 111.544739305409763,  4.460658573811542
 1.823151849154062,  6.892882048957859, 113.000952952062406,  3.740430056721360
17.425853260929827,  6.509712217975498,  5.212145544497163,  4.037747832710997
 5.340988924158836, 12.718655052619798,  9.892286988184633,  3.757033448890891
 6.610912579139409,  1.993519767234865, 104.725767550516423,  4.139794646629016
13.621456824182355,  1.458822793648618, 94.923022658530655,  3.706444507693283
 3.903907888731119,  1.481294607542692, 21.291799138194143,  4.021266678151394
 4.440899718901592,  4.921109784011632, 77.799022398376820,  3.858758605028199
 3.140781718926015, 18.606958928328257, 111.699798546490115,  3.987974449384134
 0.457465010122925,  8.057558099742533, 97.638615095212870,  4.173920363864635
17.400358008405480,  7.710853221695429, 25.669764380055152,  3.721571726509964
18.682524950829890,  9.588510196964638, 85.634786333507193,  3.884465877957799
 2.252755918274964,  2.635246322442878, 47.957740866500203,  3.708602537727085
15.615903103341985,  2.039696008464829,  9.394663257838783,  3.920737034658159
 8.893717253232010, 15.414348526891240, 27.214267198873472,  3.847420068884344
13.321805944585011, 12.441881190473218, 23.874197432788684,  4.162902982265082
13.384216713789014, 16.803490038340893,  4.350752358213537,  4.404886317517416
 7.878831761617143,  2.027053116674760, 68.016822063267853,  4.244195687535288
10.325372332857267, 17.837639213011723, 17.891482596161207,  3.887113705308650
10.277529432831555,  4.675258479948190,  1.155864350754658,  3.829552203774754
15.836360457120694, 14.957408869315145, 25.772984132763792,  3.873916367333603
 4.048256534005863, 18.413456188931981, 41.377880305645824,  4.093003713370449
 7.935124592206416, 10.926141243732557, 28.378526489606809,  4.068538784437236
 8.326858273447582, 11.822105449621077, 95.578403922776559,  4.256126905054547
 4.750258884654277,  0.915269368736376, 101.486870919807899,  3.630559607401678
14.268750390734233,  5.426428829122168, 104.660850131245894,  3.564946821131765
 8.590630268883377,  6.249509334846342, 101.247732019194103,  3.855090589287582
15.381380369262043,  9.545600141717978, 69.949514033460389,  4.064045634388449
 8.326497945946270,  7.811077010833489, 19.339934919909204,  3.908125670831664
11.264606723568974,  0.820101951672357, 71.749411459052325,  4.339411029991901
 1.642664767144860, 14.696701606006176, 20.297077672538585,  3.955262311251110
 3.571680874534767, 16.129346556899815, 77.747568099090813,  4.170911480137098
 0.937237771299473,  0.269153000075006, 68.661763682103924,  3.833318110863033
16.789148654458401, 11.629271832742342, 61.365845939714696,  3.804368740659065
 4.768435191037898,  3.693936165965423, 57.669139613629973,  4.051292703813745
13.037163285835717, 12.388079330319604, 86.029563473264218,  3.909545611116651
12.905102483630833, 10.889101792978449, 38.602882150758461,  4.269492438429046
 7.389889996551715,  4.622938664113163,  3.849477086590464,  4.053697149511715
 7.743594710760215, 15.703503993938885, 112.355717753244960,  4.257453296050689
 9.476253949389049, 17.984185424052743, 103.404421915021715,  3.872026709680536
12.246228751042512, 18.664858550970330, 60.842287379706001,  4.054701597070651
11.786183670974935,  7.901976216699814, 21.262728937288326,  3.993941938238644
18.927825639079867, 13.797091181330542, 77.927074517848737,  4.353294955684846
17.430113564026072,  9.147540877716086, 49.330501675010225,  4.197069031606858
 1.944804663492065, 14.799931459197108, 30.425491264635269,  3.987661857106271
 8.102208838691386, 12.381211187469461, 71.906875608848111,  4.292807957555214
15.396575323445159, 10.720330162423741, 66.178502656964397,  3.825765415141780
11.514407977137862,  9.036105239778582, 45.883636093212360,  3.969544723219888
15.364662935699060, 14.064987038834490, 97.068498964062684,  3.961492358536611
 3.542289874212483, 17.960557441744790, 94.989843473807284,  4.013570287912327
 0.955764920702035, 18.040257550688036, 91.903401847802215,  4.028314932396676
 4.918965420484506, 11.829023663699502, 57.673289096915802,  4.192466921292696
 8.725376453804712, 11.579322987202907, 75.930984736138598,  3.971774582858874
 7.810891501858939,  2.909873990185853, 85.430596264704306,  3.909116956933795
 0.842225082110792, 13.227794696115353, 16.320106984100249,  3.940979605925814
 7.264634165269455,  5.958292263633900, 104.892857913534868,  3.889947334808514
 2.147733382880269,  4.689160177426603, 16.490865099799258,  3.984382194963233
 7.101195835216378,  5.444781977708048, 38.081530841173098,  4.009222376150718
 8.627636146492337,  2.369784218919941, 61.071867080492716,  4.145491873377289
 1.439279386177488,  6.076593443682906, 86.599091665060300,  4.117316826235180
16.634656665582245,  2.295395171605702, 99.527204168179750,  4.127738734736377
 0.035236598742246, 13.242115105651536, 114.172715397959038,  4.182993541788647
12.869623884380562,  6.343059401662869, 82.266995445539607,  3.823167234382782
18.151820388450457, 15.595653333100586, 47.248389085962870,  4.101783287090125
 6.759888449143312, 11.038416879449384, 13.204194306722957,  4.163885983829484
 4.686564098281567,  0.585282795105917, 34.585852955280814,  4.124525930851934
 3.109000099996255, 11.226994676734627, 84.683547409461212,  3.852196968195828
 3.757353003393215,  2.112600227483844, 27.910667653109620,  4.166097237294772
10.682110606769767,  0.406086708535211, 26.638699935861691,  4.061862424575128
11.557694947579879,  9.190284680394955, 88.134760523979281,  3.953729792493361
18.462564525239411, 14.884886216345512,  6.020173604650533,  4.020571117111367
