BANDS
8 8
NANOPARTICLES
cell(1), 18.952
cell(2), 18.952
cell(3), 118.448
11.419456568170357,  2.134543062431504,  3.460220761383144,  4.170889159035075
 1.403765558047349, 15.267238332057069,  8.584246589940465,  3.954683497019011
 7.899741427277697, 15.867397992540738, 111.898704234301761,  4.007081516415130
12.794542970871714,  3.358702613198380, 61.900578744667172,  4.118648776062726
17.436886317241420,  9.573655612748780,  4.926854666260795,  4.417060885120877
11.114594140507746, 18.577379633945192,  0.206434164992751,  4.056505519703385
 7.696114931294584,  7.638414618872133,  4.859280923011876,  4.310333081610485
 3.431444259118064, 13.059050260256074,  5.425077870717571,  4.030496382518272
 1.748426182506376, 14.903594622903945, 84.048943573402866,  3.607330029233652
14.970036129132831,  3.753012895137617, 47.462517691650554,  3.892106543152553
13.247015922650975, 11.118095405853284, 118.168870082397731,  4.232064397201436
 6.546826623104596,  2.858374516125405,  9.518396865911949,  4.190263506046887
 5.653872957339440, 17.390877112381055, 104.808637629752695,  4.151164191308030
 1.830617616833449, 18.782575746725911, 68.720071025602962,  3.990648184791276
 3.919776377569554, 15.217741947871319, 50.795345230877679,  3.746139566422574
 0.528570041325614, 12.563884800934193, 34.900294547530549,  3.863390700021327
14.627930592125347,  4.926439355806788, 26.336545812959070,  4.099610397328566
 8.689887056983416,  8.535523348726958, 110.614586005862122,  3.754598021351805
10.794132374679672,  8.326293288738542, 32.938517554360487,  4.180909890184843
 3.593201921554909,  9.237222527634575, 66.692609447946168,  3.867330030031873
13.906780503506319, 11.204162033565023, 91.412365174995344,  4.120525415399132
 0.329481924501899, 18.713461332106345, 40.524161509351252,  4.071394907621500
 4.431770928324713,  3.371615790655783, 115.424517714790070,  4.092583917241083
 1.132686816159375,  2.709234979517417, 91.619563679943468,  4.353259438541690
 4.799081303685005, 15.294936222871984, 35.002641610835354,  4.275111590552712
 3.091041189445878,  3.098294116258303, 49.161160062207948,  4.135419801159722
 4.479659363296699, 17.714012011700643, 59.038531843020102,  3.851891428363627
 4.335660947716345,  8.526718702039734, 59.274231409548257,  3.839768844130124
14.916977895153996, 14.074103631997067, 114.351161493367812,  4.147478377058905
12.109807629359683,  5.633170511815170, 19.554537730831569,  4.111431074471231
10.843868554408711,  7.114244705983419, 26.182292796408255,  3.933641740395822
10.391356277263528, 10.492329840940874, 70.579690644004629,  4.177234049318240
10.926245653205994,  2.135862484230258, 38.164431876888102,  4.042292079052658
 1.312349565084832,  0.523571063800878, 109.033757359250288,  4.119318633467600
17.026378180470388,  9.471675143686074, 23.939753135090822,  3.889044541594503
 2.162831843930095, 11.910146689799470, 106.090975714288945,  4.002520260820575
 2.527774381777910, 16.099922702853341, 29.196404448957828,  3.852868451697364
 1.787869103024509,  5.394843406634243, 80.893224834373157,  3.981598716141684
 8.975676347475714,  5.417502744405444, 62.398270830523003,  3.761894024958868
 6.363572618572847,  1.136595404168531, 20.818601414379955,  4.314286644296247
 5.031090052424831, 10.403177791314791, 15.453449390911540,  4.188350508805427
17.328782139517791,  1.051369964022373, 36.786654548712150,  4.190345569594597
14.202438754687623, 10.174886290992365, 48.910282074518094,  3.727400934073756
15.222889196264854, 15.638415686893849, 32.191851558011514,  3.593201571987425
 5.013090835940517, 11.718085481595820, 100.535529501835981,  4.021264576423909
 8.119502544705686,  9.442736759784157, 80.812772856137130,  4.003680802998737
 6.702843442487247,  5.991517104501231, 79.502938630918180,  3.898078061399386
 5.434403184512714,  0.593684409910848, 62.272264310970989,  3.802201047231626
15.758111398438766,  0.312278364792916, 103.900850715487195,  3.744485415334301
15.593378749654546, 16.180640349692528, 64.833919375454514,  3.962869042909198
 1.717357590704437,  7.834101558055063,  0.944743770526005,  4.175369564312506
 5.341105141367080, 18.261930251339638, 27.148763051835690,  4.271832177042864
15.335863154001004,  7.652072180065209, 107.303084713803131,  4.149906103237069
 0.827283303208930,  8.523080544894954, 111.517850528945601,  3.893960052440589
 1.434590740008398, 11.719500483234393, 97.939834914214998,  4.119473100814145
 2.416834277305141, 13.150849022587288, 17.105458109967365,  4.079464045572982
 9.453841783208983,  5.848668889898637, 49.391109768920536,  3.420004095624784
18.680297089679481,  5.112557296981161, 13.641021512651637,  3.840434641734784
 5.269589048764403, 17.332674298388827, 100.781831974576804,  3.914133810550761
 7.225578903440297, 13.985716823229788, 115.315297794930189,  3.819191554868892
 8.221511853203111,  6.074651949960979, 30.422432212141842,  4.278306284938695
 2.242106586007530, 11.120681565792415, 69.732828181950026,  3.769396081604299
 4.625740133552688, 13.046012865091265, 27.804367211702601,  4.031592604009437
 7.189166023420478,  9.835497265195770, 53.350707619809953,  4.067409539930205
17.115470423533285,  1.552453591752069, 13.348128322369623,  3.936156068846307
 3.231416950215438, 18.328913580911060, 90.486352070507323,  3.792427282140192
 2.571475509962972, 10.631716219024369, 76.992154344755292,  4.001402771966025
11.490922659849437,  3.951682850143460, 55.250961081666084,  3.852603339888346
12.663010072870701, 16.430145285092159, 62.080120930443236,  3.969504167162942
18.466177536469338,  6.961003661948553, 39.632028789508638,  4.015526876624250
15.829464376092046,  6.766558266603327, 49.913530124804296,  3.942729125673008
 3.463112115587222, 18.396646395833812, 77.366890859648947,  4.032783444430682
13.623202233361884,  9.965385278386837, 57.010503805901848,  4.141672977840527
17.882547067757873, 11.447710462118538, 17.502813976594275,  3.698571435801346
15.493726325506888, 10.834370685547837, 80.216447863712546,  4.310846869463762
11.756902480754080,  9.148206591891203, 39.907186413115937,  4.081055274736290
 0.572825570208141, 16.839680819455772, 12.232881451429009,  4.043367710610301
18.479882482916835, 13.223410006104192, 65.894055853153674,  4.191122558298730
 8.170488818545655,  0.864869346025787, 99.703688972693143,  3.899188212662648
 7.437608710061550, 13.626055167975288, 65.094780286368774,  4.222575157272249
15.946967711275819,  9.763519060332044, 100.777391054531478,  4.354843783580205
 4.895062698147939,  6.036631333812334, 86.247042423885830,  4.230140617659716
10.674761176281294,  6.479902823099962, 36.805273643584712,  4.343469623633778
18.247457369749096,  1.149471547950666, 59.088778203123390,  4.059421943734329
 4.034377695910385,  2.076539108341724, 104.087040172334582,  3.848160801919944
11.703120385157753, 16.495907956831985, 31.136767926566566,  3.934084914678948
 2.663241230363565, 18.916131091916839, 52.123996711333461,  4.445453074194316
18.019250524126587, 10.311686316009908, 32.015992677834710,  4.011729711252626
 5.539174845917475,  3.303659092501454, 52.659539056432720,  4.397551435137754
 9.425008955124470, 18.084987104733585, 106.177802256432798,  3.954944613536432
 8.181656008809426,  8.546040741159079, 60.194323884392176,  4.040672034830704
 6.825473939880973,  0.341808204120753, 79.332058223428575,  3.948400509764204
14.531010735648758, 17.517947980745440, 28.872903593757368,  3.555197493692924
 2.083378735464029,  1.282531129695946, 13.670218851220454,  3.901940115428499
11.599853016400848,  2.665564353379036, 92.494684135787637,  4.168922866297955
12.742950204916161,  1.132977364905084, 107.506013217621742,  4.066231950587146
 8.005210821151366, 16.113735816451129, 98.367817859688003,  3.773403049699378
 4.100388001705063, 12.221646556172534, 60.387559867361347,  3.872165628393051
11.842571542658067,  3.660758666792977,  8.087507870453678,  3.702616454332148
11.040809348353370, 11.999956575673446, 47.745856476612772,  3.926654999767777
15.664584479631408, 17.895594752989386, 112.307013946242463,  3.773902515551389
 9.755410812560408,  3.670176146731393, 106.755641375200582,  3.863619821130706
 5.013990157817239,  9.377143276390868, 11.444428288876688,  4.080491378825145
11.119542103638077,  0.245670131529155, 33.979791950445176,  3.978167016746390
 1.427742305730539, 12.001010155325138, 53.082902082181789,  4.052891480581641
15.605183070381694,  1.634484429780884, 67.763815837126046,  4.103548298507565
 3.213586222054898,  9.141730839109783,  4.598886938854082,  3.982628999479850
 9.677727396767379, 11.002351316137661, 102.257575463317451,  4.021945870993786
 1.844538337847473, 14.807261084481919, 58.383400878154546,  4.074917020790785
 3.373642094077523,  8.451304540954689, 104.353817092014026,  4.076317242721340
 2.671971249352918, 14.059716256437531, 21.120578589386575,  4.117206897810591
15.167586632376029,  0.424442153083049, 33.265218959284105,  4.162654420408662
13.926756172497671, 11.440045159529149,  6.650987607661747,  4.246848777281843
 3.152980884182687,  2.413753023778487, 59.669268339599775,  4.009406461670375
 0.150629366654392,  7.639335750349072, 43.552506993568848,  4.041571319474435
17.265799739517345,  1.863281431326459, 115.307714597986120,  4.244683787792949
 3.488369747676593,  4.788463796758054, 14.962380887687095,  4.061045922051577
18.206672038877812, 14.102614099312362, 39.595925351293040,  4.051057865237761
12.433812658758354, 11.586595035328193, 99.313734555821924,  4.041986585568233
 5.000413822239057, 16.058029286397069,  3.310634343606946,  3.932415894267689
11.373045970936092, 16.765610634153827,  3.761067730440261,  3.933222596687235
10.942314680839715, 16.728431434869421, 52.039315243929437,  4.033135199748322
 6.826057795401477,  8.456973323016809, 37.688846086545077,  4.486285217371567
11.597685858681782, 13.825515934438108, 58.988653877483920,  4.389610343215546
18.748002569490900,  2.051487789440368, 79.259994934189578,  4.428798674060030
 3.536498041150564, 15.516818455784174, 45.513090031526495,  3.910684011440821
16.528635566615463, 14.792048678531916, 86.164258716250615,  3.667362617724907
 3.459120614647777,  5.681032823429845, 25.391706878297867,  3.966209585777103
 7.716730229763791,  4.286184186413832,  2.166544176382824,  4.033937384741646
13.000192508585814, 13.385639375708951, 50.950048226579391,  4.058643026244646
14.772655113249790, 13.609307205644585, 13.203251158377734,  3.937941106378259
 2.018405692643842,  9.373319268098442, 23.054093466654546,  3.682807396902232
 4.065564727233566,  0.157635270366147, 85.158473201754717,  4.109663990392765
 7.763487733152133,  5.178723392714070, 20.355006452881636,  3.909563570300016
11.897922364241433, 14.427634381065912, 23.463257836400849,  3.478597963888014
11.701831911920021, 15.058019653392900, 15.463181522100946,  4.163849517122238
 8.412490956305168, 13.193646956740125, 82.205687285259174,  4.009389015545258
 2.444021622462734, 16.371579440124854, 113.933444607201622,  3.666812472643919
 6.153158773840827, 18.183490172619116, 32.724660523145310,  3.555016121388720
 3.475932969622571, 12.709898174398502, 64.942904173017183,  3.900109572346263
 5.414571733747294, 18.299246551209123, 15.779492248591618,  3.777826884822053
 9.250946512917082, 16.430855230314855, 21.797987486085482,  3.898608772664499
11.588097429692285, 16.306465539461527, 26.735443239887775,  4.022410537550996
 9.796366133585421,  6.128200031088023, 103.648618051952027,  4.042012517876413
17.029484534510836,  5.126231908490229, 70.078778049369333,  4.125161309182969
 6.013932575588709, 15.491535846240520, 90.542806099068216,  4.142552832915032
 7.677855182284977, 10.370436500025781, 67.589820385353988,  3.898185158072148
 8.481044203542019, 10.464560310950587, 19.449330573529888,  3.513033792091568
 3.721110049093737,  5.987342083942408, 39.260395733925847,  4.011942618783483
15.751687767415866,  7.089836241646596, 74.046260384918142,  4.237193984675359
 3.071076843052353,  8.409481311920313, 100.034510137783272,  3.716505622888162
 1.922291398045843, 18.873972402595019, 56.309413883656056,  3.969883781456790
12.326757737223785, 17.028537001748145, 41.122452987713388,  3.818046085935537
 8.269989012359625, 11.347618745490998, 57.137818800754644,  4.245065239586894
 5.113153108052053, 15.973942451890020,  7.504236824021999,  3.880778866400905
18.824914273750075, 14.975499181141471, 88.995181930609732,  3.608958389797863
 7.795408197310342,  4.217238473622580, 92.563665871181811,  4.034025133790384
 5.425034142574209, 12.283133126008666, 79.532693798454432,  4.203398536829300
17.611557481006777,  8.824554949124103, 115.079518720668972,  4.458712447282332
17.942487854031008,  0.068251215026301, 24.328012376422016,  4.069136334783438
 5.354933701386583, 16.598961242029887, 23.094849425702488,  4.243915976521413
 0.589961657996177,  3.118084140775337, 62.742282931893875,  4.114341341982739
12.601443046097289, 15.619085866519368, 44.973885798149773,  4.166097912676949
 9.318148587203039,  3.272173000774779, 77.942297011218471,  4.211978651995858
16.764841997739452,  5.841542431756350, 80.892392021538740,  3.995468283962282
 3.091978616451608,  1.518604742068703, 24.003297213703711,  4.627435644952723
10.551229965928480,  8.601522415163872, 77.247263497649769,  3.924196709070987
14.178253023326954,  2.160427291105502, 19.009566646041634,  3.944849357926926
 5.389623485131602, 17.281419358536724, 117.970210125242332,  4.041277634324051
 0.025210531577003, 15.946309414308612, 110.863916127927794,  4.171821123044545
14.747230482757269, 10.428238547007316, 64.826697404898212,  4.257441414319316
15.697155971491801,  3.170686980136401, 76.609667476710001,  3.925477263750329
16.596786592659519,  8.744284868893299,  0.801901183676567,  4.116628679965183
 9.959884330021275,  9.441423319277558, 114.375805779519652,  4.380274626738664
 9.255602777405809,  2.516794560902450, 89.256789821623101,  3.830979568289281
17.379388591095886, 16.245854251201074, 60.008481425076248,  4.008954667494182
17.684005044699465,  5.043483179526537, 36.286388030174564,  3.821742091323405
 8.545170524562305, 15.498489655487974, 68.621437214093064,  4.062007068434276
10.639953512621114,  6.296715045052435, 80.516902561652245,  4.073194166561767
 4.535956216748611,  2.128076620946787, 100.120341452396332,  3.833527929020083
13.257130261466752, 10.354083644944312, 14.567028153726422,  3.739512300793657
14.438601700312478, 17.241609326570611, 57.339056234602864,  4.139562503968432
18.155021508281944,  3.934792584583112, 49.328695292118141,  3.440112997988680
 7.029268894245764, 18.530456531235910, 88.247646053476274,  3.711368034074231
11.646291632613552, 10.962567905211532, 81.557791612969339,  3.792909151373760
 6.469000656503837,  7.404603895660598, 56.366815768470381,  3.710438889944929
 8.781322288669029, 10.384389438830635, 74.253096688034333,  3.780064391709653
 7.562865328474522,  6.360661208294652, 116.878421725348318,  3.958643899064686
 5.751429409400293,  7.465473863321440, 69.563671790441134,  4.085676433736197
 1.399666932491708,  8.361923342478439, 15.270970026054528,  4.139468174989013
 2.728186339123572, 15.456793791592229, 80.115739450751363,  4.149345372242857
 4.930412353526072,  4.853700440487914, 45.982330622715416,  3.983491722308468
10.895694022530057,  9.655500874226140, 88.723490582438373,  4.283714513090781
13.021714143168827,  7.335713387387944, 116.424659125426885,  4.084997545429708
17.404225942082153, 16.046673013566153, 35.398959735514673,  4.177626904639915
12.011576687303561,  0.235893102850095, 22.312068334607137,  3.758303066376848
 3.510884633937586,  5.084933268876139, 21.167989975438939,  4.514258232928621
 0.156815611529041, 10.930393416647703, 94.247983044863375,  3.809398785018091
 9.061122927359502, 18.382988418342435, 28.933913466817714,  3.851986468066275
 2.791973427885063,  1.622026658022010, 45.493926478877327,  3.793495632864445
15.618881408284867,  0.313699742101384, 62.163943596328394,  4.187053972296646
 5.230456947823611, 12.349079488748197, 23.813782245129925,  4.060005257096553
13.084471599819290,  3.224932035433709, 79.575171085964456,  3.960551505319164
18.089661479035762,  8.306054555973235, 104.506796714573284,  3.802420882964584
 3.044026578018141,  8.395176686493663, 96.191696090709129,  3.956732729777034
10.142675989967397,  1.872304324245567, 11.287356169230714,  4.052959953689601
 4.645449796955327,  4.376556967085773, 63.131095026098002,  4.010129259749242
14.257962935386942,  4.406267984338871, 113.739828236885742,  4.223634520127468
 9.062643810840054,  1.041835752381732, 15.071378475230862,  3.704803086690943
 6.343307990772523, 17.715621683654987, 65.801371698854936,  4.340520345529912
 5.797752036345217,  8.317383749323191, 22.904124450025567,  4.119633000363946
 5.768012738867970,  8.903375997883423,  1.248471378612198,  4.223285748824536
 1.799672923456092, 14.749319298654735, 68.795980316617189,  3.768789892962839
 7.234242418805854, 12.775369853508582, 12.929746693275911,  3.970136049560616
17.087699112301024,  2.287954813836854, 111.023908617166384,  3.899468906939731
10.081397624000076,  9.412954857717523, 29.189715219309424,  3.751474116068322
18.174439649555911, 10.465413614269055, 46.142044929890645,  3.724737320086376
15.602892283454381, 10.974266873993400, 38.924140033481166,  4.156955510442030
17.688512204716815, 15.134966609013793, 55.620423930202023,  4.253653275170008
11.629421808679567,  5.016143734909434, 84.472939145704117,  3.944336106274498
 3.199555957523896,  7.678609754650932, 108.321052928920807,  3.871349297989807
 5.947989589556403,  9.977810367773598, 115.649678441222505,  4.101620809251711
13.874032577728734,  5.812347773790624,  1.527670790465748,  3.825131509472045
 2.768801888213553,  4.170658628333837, 11.111322252916134,  3.860690659487105
 2.274680070548774, 16.414365515337998, 65.343638049133773,  3.918312976443615
12.385328200730870,  7.230311609072227, 63.361853840159490,  4.185755836409587
 2.040112686958133,  9.154106116751187, 37.164607586142353,  4.288061608486351
10.696825070996901, 14.304113158948040, 11.573465992544024,  4.006252975117949
 7.340177462811442, 15.091891079760851, 49.095467209694512,  3.803984230695184
 5.208515905686451,  1.774291470370895, 110.877829475313789,  4.105384573543255
 5.716164512227620,  6.625527531997899, 49.881586333163426,  4.248854259103692
10.151659872744506,  4.133120877965790, 110.593397748365078,  3.895074173711652
 9.536242155709933,  9.533873112179265, 96.608368139294342,  3.908567766108314
11.069819153650629,  3.243806302362947, 47.336389546188897,  3.958893757032521
17.449782145811607, 10.699096283036411, 55.620696519100392,  4.078854978865285
11.392223576418191,  8.948909769070609, 44.211702349663902,  4.513714570480417
14.977176536703229,  1.865440079086988,  9.838813020048907,  4.286599117056639
15.575083210490803,  5.699786033909432, 96.106602566689972,  3.864594005116199
15.289622631198478, 12.998273404313657, 24.873120385645340,  4.176719700740559
15.560711948008555, 14.290996866428557, 93.864994703854705,  4.310078713931386
 2.050658100658313, 11.014674772840175, 116.674061413216336,  4.214678002804514
14.529744855610200,  6.771170515482642, 33.840634737615389,  4.063643850779527
 0.561065872230696,  3.727621856544929, 29.800624564830830,  4.235637338922030
 5.748138541482010,  0.394452363851887, 55.651925597887754,  3.839836257633710
17.675499620900453,  0.859632276746118, 71.217717692179420,  4.025346440052154
16.300602705525254,  2.846870620952301, 106.876338887731748,  3.666213309541873
 8.976799771878484,  6.107291382749761, 87.386064856652496,  4.194035736283710
 3.613503042878396,  4.612101481428176, 56.255682578239174,  4.132544817929482
 9.059262093545401, 17.438542231827206, 115.385652062151053,  3.951486083306022
 8.537911184199661, 16.517926531414918, 58.816245252501886,  3.755123404453446
12.716531256709143,  1.318285463224085, 111.529084505308816,  3.936567752749587
 6.740555411882813,  1.212904510237220, 44.908377234790983,  4.227433877716500
 6.091269570253155,  5.721718861580189, 12.204173716709155,  3.688117395082720
 9.291040059119297, 10.010142339200931, 63.896943929793196,  4.185513118834626
18.739075841817517, 15.265360279387933, 96.512109010880678,  4.180732962130728
 7.974016852527939,  8.566129332027220, 106.733835215551849,  4.135498982673623
13.514017408032792,  9.234487719920816,  3.282096098276542,  3.838252406654407
 9.108191315764760,  0.322889900393015, 110.035936042841115,  4.074546121275070
 3.030176942380765,  5.182670755768965, 111.434542423296975,  4.057939157881527
 7.158831597383699,  2.753681082891176, 65.715688464769258,  3.790727291814755
15.888390567369022,  1.617797373641332, 90.895807951387454,  3.526220940441287
13.949846873727148,  0.272251772493768,  6.146484353778575,  3.995401195815794
16.953995010300268,  7.252701273656199, 63.426867940238772,  3.887885139695785
 7.118815874062411, 14.925076442027065, 86.663068946056981,  3.785206811065721
18.665185869846702, 14.001861153763079, 44.605930806351338,  4.004464313333142
12.124946902954530,  8.738275492737003, 73.713572319957194,  3.749535668545151
18.320784162172920, 17.145541471355340, 81.956794998430880,  4.152868572036192
11.199981326822808, 15.608417242042490, 108.852410487687123,  4.148288489154092
 1.948340029600556, 17.806615719744318, 36.845132488885206,  4.161114370065500
 8.382437187166671,  2.129188375080544, 31.733732358394722,  4.017070166702086
12.294051579806755,  5.245653956886372, 75.658865441848732,  4.237693182876018
11.571857868462782,  7.711976361793511, 12.225686364983840,  4.011876354389682
10.284915053586060, 16.357458711779771, 83.943692645135968,  4.020303506454010
 3.843971343905513,  0.133367923482698, 72.194662610554857,  3.897705636756984
 6.848339279366564, 12.510709827370095, 32.186197427142083,  3.897770622632887
17.417186499415518, 11.251066377629968, 28.005638534609059,  4.095808127253218
17.977898817273044, 13.400595641507685, 11.061205729065307,  3.747674946357030
 1.398662113676839,  4.002246901598195, 52.749015691105207,  4.001617982332154
 7.965769520448168, 17.551896168724397,  9.984456119904062,  4.222017112749962
13.108925454017049,  1.760783370909973, 42.083656919537958,  3.942739512870650
 5.287763938364069,  7.039913249040578, 17.809490846751185,  4.029914363479133
 9.984724054103388,  8.108159364303205, 22.267963861871799,  4.319812919652031
16.403323081863693, 16.873402911139696, 46.203527371195570,  3.971716714408577
 1.153597031762030,  7.346055875706487, 73.540243327696629,  4.113294620242177
15.998226027802589,  7.392548098134961, 46.087639713781137,  3.782414521272284
 5.870758258618201, 10.431401138709880,  7.527736079146888,  4.165564638929153
 1.796583572681334,  4.089557158249888, 42.632520560125066,  3.997029866504208
 7.588662434560731,  1.015675946091180, 35.890810721866757,  4.195837077778627
16.960511286923108,  2.422356996361040, 94.417714356814642,  4.000243296090622
14.617245513198114, 11.637547604448329, 72.611187620543063,  4.182058612044306
 9.937469428163110,  2.882551455678021, 72.772339904944701,  4.558363513031432
11.579628686123266, 10.200795628601055, 105.721566307289720,  4.027507047557758
17.852467630112411, 16.735600899628452, 115.305671572494845,  3.960978835030644
 4.529501196457852,  1.694042528359352,  1.369007726932033,  3.811276782882957
 6.196883364554764, 13.756255023291599, 53.580979849040844,  4.012732290719863
12.005924755229401, 12.782104341728507, 63.082843565411345,  3.707508791176926
18.298303159472574,  4.352231403647746, 56.375661636705892,  4.330961055737904
 8.820201614043794, 15.651091516345314, 33.836170282524215,  4.117900304506373
13.610911043291090,  1.480980794250190, 50.408365034436684,  3.951587995403347
 4.873931425278168, 15.599677980573141, 62.402270157964793,  4.081319232135931
10.812624613146419, 18.495389235411043, 79.602000737231918,  4.129613607065338
 8.568801212975551,  4.651614717343956, 68.885130736486673,  3.987784662694733
 3.948410857944108, 12.835430381633039, 113.459804355849229,  4.045571703279321
17.553543030918878, 13.220892609016676, 82.859650236591378,  3.898139218532881
11.396837851436420,  0.275622253653704, 59.385303288421007,  4.197827973136343
 3.073999829162593,  3.037823559920780,  7.375442796174186,  3.959825886817654
18.563113756173856, 17.024328724952593, 77.869675474070164,  3.978473701010800
 2.659430772560085, 15.394102574577406, 41.548820097452364,  4.201089634323140
10.984253890614411,  8.966034542988078, 50.741492896148792,  3.986341773074762
17.383793940898034,  4.485713875366701, 89.093918122223130,  3.846648383482677
17.607656888521198, 12.845956273766419,  7.367827875942162,  3.737181866859784
11.518994177213791,  1.672800028700269, 115.260283791674098,  3.898476694470334
 4.893085418175887, 18.292967029557992, 48.314199729314403,  4.364608002847874
 3.148156355496082,  9.412574284303597, 88.170544264590603,  3.985538566928897
13.081935257100756, 15.865047350735686, 76.658982304129751,  4.206756126334109
 9.606592175182220, 14.921686010162741, 55.385092214660560,  4.016080972033158
13.132199189151398,  0.564554820535930, 54.241293964525291,  3.916418946145419
15.115485571011570, 16.519493067422481, 52.488445482430222,  4.075400492808155
12.134807302415723, 17.951674170812009, 72.179946043685376,  4.406738896758029
 4.809297026627450,  4.465404975778513, 31.994476925393045,  3.856814995912873
 9.224512262704716,  1.362690100586562, 95.776722638313274,  4.289038319366544
15.965958732571343,  3.655133585471966, 39.868533199149709,  4.166234445424956
 4.366862921708522, 13.161579922135692, 10.186677933038846,  3.982794820064367
12.305604596186791,  7.184208299674704, 94.502382486711639,  3.960075542158884
 0.198270232554735,  1.076967816529376, 105.303038792168323,  3.728925002762123
12.874488844854650, 11.052086934594907, 22.257940323037065,  3.925928733755787
14.811982858808237, 12.239107089594846, 45.733550268844617,  3.898314862511034
14.635807718960834,  5.774646059982657, 99.953298177493124,  3.996858976812541
 7.548994965797264, 11.919250869742267, 112.038473326564571,  3.896541458993811
 3.575142087361309, 12.885154784711242, 94.103093084668600,  4.005937561797723
11.398305654178538, 14.684344664308286,  7.177879746888881,  3.940331895079114
17.995449291652310,  5.778522864992947,  3.234833434184740,  3.942048122322201
 1.766421924607943, 10.562411960402565,  8.218255648837653,  4.161483088497719
16.248094647859361,  3.752392605944761, 52.647804049117553,  4.217316468600846
 7.793669384335828,  3.536299732195575, 55.994582370367212,  3.628819247651426
18.046248339007914,  7.807425979265763, 91.475076540524142,  4.068343616067938
13.449002119238537,  0.505147253418183, 45.903280277759031,  3.819447474122822
16.898371740738707, 11.210841140560943, 110.964494125532028,  4.055689214398672
17.465560194123888,  9.140289525105610, 83.671835303882872,  4.240818775154706
13.232615320936986, 17.326052533314595, 68.173753302950090,  3.993398544095009
17.671905788761556, 17.898451301039337, 30.569964936396573,  3.597635425684260
 0.565605747865647,  1.748990618881394, 83.500113255872009,  3.947223888085648
 6.923140310485707,  3.828028370752622, 24.131045348901910,  4.283776044613123
11.731051631195228, 18.413525374462058, 98.567802360864675,  3.907092474590876
 7.771435569866590,  5.781563415983188, 83.295137365866381,  3.972489800218591
13.362604103054387,  2.391644266644799, 96.287010067512213,  4.088820037861582
 0.119382280406469,  1.458109658669909, 33.146779573316927,  3.879952106106024
 5.491200708311633, 18.571706865117072, 114.244040196938016,  3.826408198091453
16.377213801528338, 11.914178214261611, 97.202884195280276,  4.020182706109829
 5.609732411186442,  1.353650972799384, 68.957951003258430,  3.852166286852889
 1.578938528287702, 16.770683607220452, 32.921425133987114,  3.915970630676209
11.568503565586433, 14.586928389706591, 80.224587629136082,  3.921765697474142
11.784299673221410, 10.042621674398388, 60.554261558958601,  3.759768720927910
 5.585455628175692,  3.797916033517082, 95.916889418872671,  4.011832026112192
15.392849602091673, 16.468801547220597, 90.053161266270820,  4.052593145302315
 2.586448418998807,  4.984486507086764, 98.285677387276692,  3.974014321937968
 0.365568349406065, 14.231947557161003, 92.520242475732587,  3.630079938314269
12.159313866579623,  9.622119884650267, 18.585819678664738,  4.068902968234962
 1.728603724852460, 17.816111558664847,  2.026895019757846,  3.915135553410785
18.409136663993475,  8.154189775817668, 87.534430338115882,  3.864545399598672
 4.511753169952842,  5.237236158603121,  0.349020410903594,  3.541393093903296
 2.092964394932207, 16.061770995131248, 106.657295468628817,  4.300433377580275
 8.838092457731772,  7.024507112016473, 72.212268889932048,  4.072553799592165
 5.149859365889032, 13.118231848582258, 68.347226342691215,  3.714470850508945
 5.436936624893855,  1.002229548777349, 93.103052120294592,  3.749294713967935
17.276016849543073, 16.679518179278411, 68.520134410214197,  4.187427879787516
12.439989994025936,  5.856996080265535, 29.760389682263479,  4.232908030234486
15.531658720377438, 14.998930636736436, 79.862776544549206,  4.026706400289088
10.959398207272510, 14.981058005284652, 100.274977554406576,  3.602245507963713
 7.824485166956626, 14.379097716758180, 72.512319548915656,  3.748327126002630
10.173261186468443,  2.018874404513495, 19.302183449133960,  4.073620221517445
13.820326528489941, 15.086858480796540, 97.649104230505046,  4.158411823188755
13.610614931025385, 13.724733152888033, 55.194199938071769,  4.202141522514355
 5.522655231318273, 11.478939061755636, 108.490156624246524,  4.243260601573424
18.692541370479805,  3.946695494431872, 25.638269097706047,  4.242277287926786
18.364740444209819, 11.845177425916598, 21.247348558066008,  3.764815341356909
11.216689823144224,  3.530671026153818, 99.649112748579427,  4.192667175648055
17.657465990062956, 15.684337169245536, 104.030999722853224,  4.257283093975984
18.791939008183789,  6.423380695550643, 22.524263786254313,  3.701768422182753
18.158643415184066,  3.873629600370154, 73.691625355239353,  3.825271528496247
14.354015264903035,  2.931042148370393, 72.646986235687166,  4.278529597598782
14.415784938107606, 15.112445152193891, 38.241268841001187,  4.247578099624642
18.580092235947252, 18.562195014991179, 89.615289998678492,  3.613726704170191
 0.444964380653402,  7.939948919278645, 26.675798784238047,  3.970845120973885
11.164709285064811,  4.046286101126510, 23.414011955473061,  4.327751071928406
10.887891485510242, 12.892634040968240, 38.417933712069704,  4.074892598460790
 9.232202774139582,  5.515887333709800, 96.558427001509173,  4.144484546920282
 8.919616472197514, 15.214019004110142,  0.925747574576801,  4.098067041410815
 2.032061274659585,  5.789651897206994, 89.106274521156166,  3.795045057922793
14.923961090146923,  5.166608360894328, 92.162870455032206,  4.123341401927368
 2.092668924842191, 10.422949007131702, 29.415428449187484,  3.852567677649760
 6.968130946683616, 10.395413677793558, 87.781859194363406,  3.904919899374304
17.187535640642679, 16.093503425258309,  0.845768794101724,  4.205752341663195
 4.000820392394261,  9.504708922594077, 26.234168331350574,  3.788924338809049
 1.780447956144729, 15.161666460996983, 117.508855660961302,  3.919716146970501
 7.501051499641591,  4.310165346255780, 38.503231032361306,  4.056422133038212
17.917178740419150,  2.901084897301825,  6.775959990877930,  3.880553827090242
13.923441316247919, 13.174170612103433, 106.749711644037745,  3.711887136383093
 8.536921337968829, 15.521231130503525, 41.237389172888776,  4.310643163406281
 0.280078499724153,  8.993329962422381, 79.876120087926850,  4.047645243551404
15.632718529318758,  4.154136497569650, 15.903616491583083,  3.927377983689624
 6.015421127517344,  7.243221627936829, 90.099120282611963,  4.142961334088746
10.260395642950106, 12.663227821413136, 85.803310397617452,  4.141110398070505
10.325779439881634, 18.688642240656634, 43.884280660622366,  3.753652307056390
12.967264120004982, 11.131266822716539, 10.688213708618187,  3.988568309587134
 6.625114154285671,  7.888149611471222, 94.219535431903239,  4.276988999879877
14.532559134345142, 16.926866419929276, 24.142821107485716,  3.906544136845613
 1.535933968206712,  6.856690350429322, 49.871519281094180,  4.101083083269696
13.220803040742439, 15.150281592561358,  0.679277245486793,  3.943087534963554
15.509674177753769,  2.330237353935737, 82.778889916040697,  4.261693782434723
 5.947982971696767,  2.198214261098326, 13.386319664878634,  3.741852450101996
 9.003778436227730, 11.270857168901957, 118.126411004996896,  4.158058822428996
14.128379188046985,  4.489636872682830, 109.589968026848496,  3.999806207886202
 5.200619404066718,  9.461121776657277, 63.049672715654928,  4.105688589844422
 2.883797411925971, 16.926922713232067, 94.215707407870553,  4.108918332396026
15.594045984962843, 17.205035616329535, 11.941831992364339,  3.852640216695817
18.188544490870100,  8.339996916014901, 97.375440072714980,  3.984084250042112
 0.954042831471112,  4.990630226383178, 46.332863876606311,  3.791445350854257
14.095114824618948, 16.841570944723983, 101.358962880576996,  3.989934922702569
12.778284397149985, 10.122470127074196, 36.071619913077249,  4.004330325552198
17.970814703300064, 17.682981099904307, 93.312131675989122,  3.944124801246748
10.286049879044100,  5.225002652581540, 114.303753844368316,  3.839477580242315
 4.784994379498473,  6.486534895015653,  8.544034397388566,  4.085323435415173
 1.012525119059395,  6.734483363045377, 60.667768233826521,  4.190634742168917
16.431013144278502, 17.749362036921472, 107.765548440198103,  4.591724451762943
 3.038089478586382, 13.104570091132551, 32.036605324840636,  3.811373468893089
18.252306807816492,  9.128550295502889, 66.850116615782810,  4.215712479471113
 2.079507322023138, 11.768104819179124, 13.121283317614560,  3.783025215239444
 4.388703207278912,  1.727340038168310, 38.428604759849655,  3.994485391814552
13.746598684432053,  7.857124785770033, 82.510104989063151,  3.927939582846859
 1.357109333486397,  8.026541672325644, 56.727902269921671,  4.054729166371485
10.261000006893919, 16.487033394900390, 88.227172362032917,  3.835808062031911
 5.455939611429347, 12.508185386339800, 46.992961538716528,  3.815137590745747
 8.942169481808676,  0.089176381365937, 24.926237723915317,  4.261318397908094
 4.289139384420930,  5.232839379094361,  4.188272126695471,  4.132469604868252
10.899007597940932, 13.525268973432221, 19.441557910602274,  4.249186368915424
14.567989847565636,  9.390412719263141, 52.834320974518953,  4.303116800545094
 9.586659492801711, 18.864930826771118, 55.772023832401906,  3.896612986574581
13.445391923042855, 13.542500919017431, 88.132407185256497,  3.920501330123875
12.809575722909635,  6.814458201469074, 15.822037268036961,  3.800310321591624
17.901417596015584,  3.335107467282987, 98.196387041817218,  3.906976703494411
18.413429808280441, 14.129536296749814, 30.724612880827479,  4.050000961648261
13.138209301035511,  4.022203469826797, 12.811686717172726,  3.924688593311678
13.641309647543078, 18.696309498980067, 36.796986832149194,  3.631704667688000
 7.766454235676315,  0.703635512988554, 40.520561459893948,  4.162359099578201
 5.377684983787998, 16.813974646701649, 38.820519050323945,  3.983509713291276
 4.396001704131522, 10.420869115568397, 40.474261342000517,  3.883323153981128
 6.742824508086007,  3.430782562074815, 16.934473904146266,  3.921624412233931
13.315079857055347,  6.617911456394609, 59.372006429100587,  4.066686491632179
 0.105741520541412, 15.547900232520124, 51.586719457641081,  4.034668102009598
10.975702974402013, 10.852367260607284, 54.174512916774418,  3.814975848389301
12.405223006277517,  1.582793261714733, 30.282670904012701,  4.280918649998621
 7.993917406998082, 13.707028556387257,  8.725294691093870,  3.780688587818036
 9.581235942931349,  3.479341598370839, 42.919436306956463,  4.022796625021693
 0.929427813714473, 11.143231724815568, 102.125068029636395,  4.387580510678014
 5.896293020681955,  4.067466596874552, 71.783172173411032,  3.974672199590314
 8.082861140263654,  8.477114034829345, 13.773074955336050,  3.766479720113469
16.454531583734823, 12.894969860133928, 52.598118858330224,  3.646462624788598
 1.731969971566611, 18.224869681507325, 61.835342622498437,  3.992259259680150
14.325241631230231, 12.718473740067065, 17.402812129686215,  3.847033980651470
 7.203468713689583,  2.883241146016985, 48.706960185090438,  4.123127029255066
 7.120002509108636,  6.823497530271497, 65.656615543842179,  4.245648895919696
18.231743624328995, 15.047081693833844, 18.944780912461692,  4.059786371207032
 3.243398064647394,  6.721850229075595, 29.177731409771685,  3.861193361063026
11.955484471830188, 14.231509945502021, 70.299289959552624,  3.936077590763532
 4.185690702996638, 10.964276746560785, 56.012476001189370,  4.222005181491829
13.487891454223114, 17.031336339483964, 86.170765900888199,  3.884471159035463
 7.692435053019050,  4.808168564590970, 34.547067271620804,  3.850352953807126
14.036281898588649,  9.940898543488027, 69.033006745593198,  3.786220694686967
11.178009675222688, 13.400021005769240, 74.055800470908835,  3.854044018011716
 2.443944660683142,  9.143750235634878, 84.399070252322119,  3.703631792497789
12.791649591358478,  4.362373020616070, 88.289801895924228,  3.986706683575638
 3.106865004896225,  1.275429833652795, 65.262356149021883,  3.877484620724639
 6.413133621713569, 14.156613404224796, 16.696148331633424,  4.179285362864014
13.986467661477866,  7.111524521660005, 22.963492718273230,  4.039498296051898
 1.318268501027638,  2.507607143676930,  3.558794334679649,  4.027990714069864
11.897884092547706, 14.905597181777164, 91.706181237005381,  4.275530689714384
 9.993207545325227,  0.090994334470900,  6.722702497329625,  4.008251592292226
 7.833313701415520, 18.215491982519392, 71.636284760748140,  4.093062052766032
 1.093581467303504, 11.779765929524411,  2.260001489112000,  4.213605848817296
15.611098736248220,  3.892839534716213, 31.443445695371071,  3.717426634202737
12.186796171152242,  2.050542369330341, 103.489016864079346,  4.237595640636415
 4.138002156085633,  3.123994760458743, 78.681910505234015,  3.881537786262996
10.529806196016688, 16.324982061407287, 95.368642934069996,  4.026359154015412
 6.215166697510150,  7.518628253064418, 98.195088522621845,  3.737349236133097
14.424019734959376, 18.540956999125008,  2.289841691205821,  3.710755545473782
 9.553605843903361, 11.955995780918412, 108.727199651049474,  3.839406588561187
 6.039403354903666,  0.622426707344522,  6.086090072969871,  4.062550839565454
17.753407301600955,  1.151339278828599,  0.834079229729213,  3.864209586591538
10.212617710712289,  8.767830014318781, 84.486710977262788,  4.036234442441361
 9.189126617372493, 12.430918340360549, 51.152420007021114,  3.806264107435413
12.979716070634629,  5.022072738590833, 44.328259939301788,  3.944997899525174
18.451915176049994,  6.064728980564104, 77.121601791119346,  4.091572931175661
15.778000095263842, 15.695116307362127, 42.405856719718599,  3.997222184407287
15.832104685343577, 18.232008203379948, 74.539543208136337,  4.186151459571891
12.694344166945415,  7.894177551042936,  8.381237985823709,  3.949362398006084
 6.681261344849149,  5.491709928046472, 109.154786424749304,  4.082531018748079
 0.510954819254137,  5.624200714084253, 94.658631950284359,  4.104073886561526
10.815329516365091,  4.330756458994451, 118.070341177096864,  3.956494162771038
 1.278186101256283,  7.818227585849378, 11.209000257353246,  4.008275599072087
 6.232289542421604,  5.043033674784593, 59.460486088301977,  4.077678649494446
 8.773005327844421,  6.047685349038428, 53.189656911864816,  4.130676387313415
 9.031445202181365, 18.201720410140329, 91.921974400379654,  4.370629298722047
15.306196723544968, 15.435676368717399, 71.726787226891815,  3.716056849609206
15.568468419126738,  9.813557301871382, 60.874237905561529,  3.792922268082876
 6.923336112546376, 13.276718428920844, 37.936727213016148,  3.931796807124955
 1.866924569010409,  1.800648027870471, 95.772360725409357,  4.264138759609935
11.443808053779007,  6.948431652753143, 107.940832791021464,  3.826765414889386
 3.395037099129059,  0.296916562301705, 81.227442199885942,  3.863842493393145
 3.326260714365310,  3.782855422974467, 107.613524843390167,  4.051509243596369
 9.627815440847391, 13.312047202957158, 29.402229651198688,  4.038677727303130
 7.289926329446154,  2.638458566698441, 85.807001702528382,  4.113727947968862
 5.094759827898724,  3.001048584626026, 89.493095221967081,  4.486881139713002
 2.952108032716629,  8.986647505635800, 92.209562626179903,  4.059801788522485
 2.739893730060050,  7.161877195912946, 115.091173254378177,  4.184328397525277
 1.774774238447121, 12.162296822674326, 110.101763115795308,  3.990060213401435
 0.938619387612349, 17.090829300695535, 47.987297090857275,  3.857757183239803
12.609063165849149, 15.726978836824932, 34.756868362146164,  3.672792924866414
 9.229489239705723,  7.215280815470049, 17.232002429676438,  3.913527214795116
 5.899421044372882, 11.053328895043615, 96.728661979028146,  3.905520422938641
 9.005401581690988, 10.247079604420957, 10.333540940732078,  4.085286628027800
 5.659311353142642, 14.426923391374189, 57.433889911560222,  3.820200781054942
 4.682958139257829, 16.814216262120773, 19.159585326523029,  3.745101548942688
13.403286963024398,  4.655621248661660, 105.985283635804166,  3.344890615702919
 2.308812637136432, 11.045981929509765, 43.786563786561707,  4.030190043128390
 1.627027211255262,  6.480915199397471, 64.711235074904565,  3.923685016840303
15.690696159518454, 16.517945299057164, 15.932850757849492,  4.227154072829872
 9.244038357064380, 16.929129363644542, 75.311842953612384,  4.187328929352416
 7.199381894480143, 15.278909077666935, 107.960913423533086,  4.040409281052798
15.936105929161009,  3.616951153704423, 64.356046432165996,  3.764266463238723
 0.954558786116276,  5.536549039541660, 84.888957323634017,  4.155793542719291
 0.864618359291992,  8.555015417985684, 19.384269173822581,  4.142724213583466
10.784270733055452,  6.323372260930855, 91.056431490969743,  3.739962676559479
 6.251965087914816, 11.461836874208540, 104.399740413413639,  4.060149875753695
 7.499152564505499, 16.103384674927959, 45.279221230387137,  4.054879421436060
12.290304791281887,  1.022502598582417, 75.980126714647668,  4.197942088002838
 9.725659255022693,  1.892222067527991, 52.065136655390326,  4.502773513758425
17.452585735891269,  9.106587368564691, 70.889088101998922,  3.978320425207298
11.879815554887566, 12.494942627303161, 32.697833227459590,  4.106461013957095
 8.017550595056962,  2.048696165133376, 103.529843207146968,  4.092346263549472
15.476593268056899,  7.173965849096970, 12.880571316559195,  3.925370924649234
 4.257897514243789, 14.817908598130465, 97.714529028343321,  4.239279219742579
 9.538694409637086, 12.816108986035667, 44.199250777468791,  3.936547169020344
 0.734627793831711,  0.289666966314417, 27.803539954009405,  3.719527216561848
15.557253596967772,  6.018831478704791,  6.361915040053107,  3.912104166841642
 0.854811889420604,  2.366443245606165, 101.577752212456545,  4.064334981959778
 4.609859317445450, 10.676451268834203, 19.657303895613673,  4.208056101632205
17.701783816220580,  0.986688507457769, 17.351774675335648,  4.163789525989928
15.569837680680298, 12.477873769678480, 34.401633149709042,  4.022004697140888
13.418438440082346, 16.788761970554571, 48.838290946790217,  3.983475441526833
 0.387256512394176, 11.081875720120419, 59.181572334776526,  4.017869277220851
16.645241226953825,  6.807687739149134, 29.237792440527709,  3.868245556416114
 0.749162495684146,  0.459097936642891, 74.642548085801224,  3.884927331421030
 6.717308390792479, 15.872804555292975, 94.454327109632700,  3.841688432716109
17.196551021805465,  9.131762588377342, 35.667123298022922,  3.796377302343864
11.997617215444231, 16.566488696685049, 112.837468474222163,  4.013895334253714
 9.915954341379850, 13.894307818946658, 105.325104557319492,  4.011725819467602
12.548920832377352,  6.932443334967728, 47.734083264951316,  3.911504474303609
11.039895190062525, 15.442251936857978, 65.557137221912754,  3.799733083260330
 8.688107752826356, 12.489140222573734, 98.847386059028452,  3.655386452507514
 3.815888058892018, 13.940736182159883, 72.040379831021895,  4.020053086056807
16.671509128150298,  9.411311882380561,  9.471980190155284,  4.523259811349528
14.543177386254390,  2.566272179637398, 57.622477640426006,  4.341931884873016
 6.418694813826220, 11.026745859954753, 71.288961919826519,  3.907361804538382
 2.065540554234372, 17.749260421700395, 102.928609823054444,  3.824684038748273
14.070074623670838, 17.656262392758151, 116.087644213704309,  3.978982630193536
 3.543157138351674,  5.272992567072165, 102.041614414368581,  3.776616961539766
 7.706666093784301,  1.781575114176639, 117.366311599713782,  4.153990401053504
 0.692276344129851, 11.523910663992160, 73.413224054969405,  4.256535893706703
 6.843553752300529, 17.572541062311117, 52.203013278980457,  4.202708432147146
 4.126349795620110,  7.430054112900390, 43.021693080609261,  3.986142496301271
14.703224748230548,  7.067961755301707, 37.909429528093916,  4.078088542384040
13.309915642387557,  6.518316860202654, 70.787537060155472,  3.915644007605938
 8.169567728207005, 15.462250729235882,  5.326111281084042,  3.655595830089494
12.003825780513402,  3.322359198391120, 16.265367624394802,  3.421841919449779
18.225946787715657,  7.414175189163824, 53.299979189561626,  4.057491624995314
 3.307175009387605, 15.826015030065234, 87.464436478218857,  4.049093758057392
 9.046541684370297,  6.212082835746370,  9.316815125002888,  4.178949330319728
14.320235115679123,  8.946846729766836, 26.754300530977172,  3.985938392651605
 8.223168866506745,  7.026142546091418, 41.507977060609186,  4.071357478355369
 4.955833468874912, 16.640932467737162, 69.516253941200731,  3.671714576970588
13.928702158314659, 18.259686928008797, 93.531673923491667,  4.221542968225555
 1.749713123533762,  7.326710212835039, 69.528961813931545,  3.882319727425789
 2.968389761235312, 12.852971092107230, 90.125328457948285,  3.935903783529608
13.168795773548297, 10.454604322907453, 109.471210381702207,  4.116651849597997
 2.890313981169079, 13.179764327431613, 38.045728588939326,  4.054269183984672
13.837323892841315, 10.244353358924386, 85.788510237141637,  4.097091905105364
 1.346013525197822, 12.595228220535645, 25.281530323912012,  4.254467093777261
 0.932490278121702,  6.555650757445697,  6.887441263780136,  4.279349620345327
 5.397525669325772, 15.606272029787643, 83.242921684919978,  3.987135744503396
13.123579463485767, 13.261193606602133, 102.942575988664061,  4.066520186178384
 5.177952822692578, 13.109967413375914,  0.348429830892487,  4.421526334042433
10.795630262425362,  4.171630868409232, 65.601359557906363,  3.988312063976689
 4.910490467790658,  8.454971289696738, 73.673399876443440,  3.718078506794427
 2.136389203689651, 14.584734979429829, 75.873106402557170,  4.072226670762253
11.118578543078423, 14.025417963002056, 115.919906367852434,  4.043608421033465
 5.709272578964921,  3.920445013991769, 42.042501504577722,  3.914483182555109
 6.948274919699195,  7.064903080098201, 26.651952060372441,  3.900368310923484
 7.105273803094390,  9.625565123214075, 44.677168363424066,  4.114000419766833
 6.543292979590023,  1.544313710655975, 107.164296265294965,  3.779354141008781
 8.590909409653092, 17.433363702894557, 17.974763883162957,  4.092287001007420
 9.926687533517239,  9.657828159630867, 92.671487408259622,  3.808906410768909
 8.775318580641539, 16.590216973023036, 62.662389624829807,  3.897055060030352
15.480062414046408, 18.555519180587556, 39.899272102186536,  3.582767358981851
12.486892466378281,  5.212515038411540, 51.555470594529361,  4.127903129459306
16.240735043170258,  1.819652606924506, 28.296711631559891,  3.863935402632305
 1.351572132042111, 17.917406043998454, 20.916243856637809,  4.043582977559849
14.694790375954367, 14.441002241270439,  9.339724492329641,  3.948768918424084
10.143937572288790,  4.173065041122859, 58.922686575987726,  3.977746392575702
15.116078281248262, 18.824286268984579, 78.725316897558130,  3.974230980524645
 4.154275494043948,  8.648124135827381, 80.976145827454189,  4.008067059119933
13.064322075882147, 16.660512773359951, 105.254102231013931,  4.057734285007010
 0.931612548185098, 10.168586635541665, 63.136492428956863,  4.134706673014103
16.906348277800877,  4.235530565826306, 43.893820081340820,  4.085341713852883
 6.524072486825354, 15.692685762319824, 30.023590402701043,  3.787014587384869
14.628548587668247,  6.271920756151362, 55.555153448687328,  3.971837342252577
16.893741725767125,  7.470215380027948, 58.360098492692423,  3.562323767939031
 2.648987962055608,  5.335938149480842, 35.381167922352937,  4.119308438161815
13.974930541751595, 10.237222842307512, 113.537488225755439,  3.919118559918870
 2.087354559181013, 18.342597859247366, 98.948048604561123,  3.681134013265134
 6.008857023345975,  9.543564981267508, 29.645958505489130,  4.080085756458361
12.660286447122022, 17.326540556209494, 18.843383998024542,  4.197897223723122
12.656619209970087,  0.436583445262522, 89.243435682727466,  3.956998521330279
 9.680645719170611,  3.402912938460275, 27.459187316191478,  4.199067071208858
 6.064684537960829,  5.325127529385398, 105.054741661638033,  4.048816780708303
18.514085013245133, 14.096642978155591, 14.696452188116558,  3.594408755790012
14.745437310682341, 14.372852452311035, 20.985801909405346,  4.053848742205172
18.737786917294095,  9.551324334472907, 107.996846300551766,  3.672955571894381
 6.838545365951656,  5.538796199747185, 75.452534553038262,  4.099653476472120
 9.799398814668221,  2.656840874949032, 81.929728387701303,  3.894925418164229
17.757111368331309, 18.048151121111381, 100.745026321843852,  3.802688332645296
18.145673150439315, 15.270863345034504, 23.002898624750021,  3.874783980122850
 0.489815479409874, 10.583827171018156, 40.474867419753558,  3.561604099715494
13.443549610353612, 11.330371929590175, 76.578658775276381,  4.086034860044399
 5.542871229856893,  3.488274689945357, 28.170700156203267,  4.151877846280026
 9.647130762328262, 11.425566484126444, 15.894407216893333,  4.130134721294374
13.656602413879046,  7.466458118659689, 103.519959281363029,  4.127158502386777
 8.571410746090420,  3.765645725120458,  6.051057414654365,  3.978619600647604
18.307284010779458,  0.089810284936575, 65.224261274609660,  3.923228448429218
16.237145237230784, 18.141241396720289, 20.752606166894768,  4.032638120862744
14.879602057112645,  1.739897766609426, 100.312602748467526,  4.059346826497238
15.669739413878379,  9.183266766320603, 94.429154282704388,  3.863843214020084
15.150162547603442,  7.811591773612588, 42.079844124501875,  4.400149878351739
12.846684675128554,  0.184915086439301, 14.199850218048445,  4.237255043986321
 3.664419987655853,  8.730430744801851, 46.869323097070080,  4.141955637500059
15.714435828749302,  9.350551449382738, 20.237145575177042,  3.772851442488209
 7.919783176054019, 15.489587279579107, 78.959729614287653,  3.997818265053231
 6.637588788546465,  8.331374927746817, 102.007178748752779,  3.827404470625628
 6.228255543817856,  9.220114626646177, 84.200714859523288,  3.742883690242492
16.474088716857434,  7.961659613401829, 16.640512495618921,  4.004364833982955
11.786575908911020,  6.000925861031946,  4.916318751077047,  4.124629755234101
 3.976131527630213,  0.260860563546561, 42.077559766433552,  3.907507560371530
 0.276975795226300, 16.093625608792834, 72.296642463037543,  4.276409999118928
 9.406821512148746,  4.798476585753034, 14.009253031107658,  4.059110380338463
16.151879099861699, 18.462120643136107, 97.135697904323493,  4.094621072694585
 1.114037697100034,  3.987672274149796, 117.773857896762593,  3.981523144439304
14.957655406595693, 15.364625829451599,  5.348912920775096,  4.139061267276360
 0.339511167306044,  5.076537832220887, 17.457501843496210,  3.870055983412643
 4.028203147199495,  4.571804824112335, 67.274936257789776,  4.038004189441571
 0.805797889132393,  4.820757972946928, 104.715459869941057,  3.890565434253565
15.640528203807884, 12.519813331075829,  2.633619669203711,  3.794406476091334
17.307265272901120, 10.037389830873837, 76.479017747611380,  4.000004822993188
10.765494235703557,  7.840984800036037, 67.354691878874917,  4.047577371093625
11.228721200775308, 11.863439690453655, 66.898438874530655,  3.849960436409120
 1.121803608967719, 14.939463401512530, 100.397862771073633,  3.953294126951337
 9.021078221999446, 13.123376992103534, 89.535294064832655,  3.765466040700791
 2.117671392873631, 11.902964724650136, 81.843481455657837,  3.832969438234230
 2.154915226741398, 18.293975666334944,  6.020713529669971,  4.117604096146545
17.495872881672039, 18.807733176653525,  4.466554031507331,  3.807700063225259
13.044315728716173, 12.545163219792604, 42.027188945331666,  4.327145532826659
14.227461860695664,  2.306816086904746, 118.038846111168823,  3.958295621391303
 0.361127868188602, 11.966181475557999, 86.417141698708534,  4.271671979537049
 1.596210557772219, 17.094322434774408, 16.199151910456784,  4.148696316153117
 2.762454543541353,  8.716652961469126, 33.001672902092288,  4.137158375976797
 1.689828949272818,  1.662195726138490, 112.926014227160508,  4.024174266218774
11.082109548387448,  1.142657332279215, 85.407110561378474,  4.031950534111645
16.153703456849314,  5.514881320465710, 19.801805630677187,  3.989408994504680
16.819169313079399, 14.153061652389521, 75.328473249708523,  4.343430738001295
12.945743356742719,  1.158904483907805, 26.103959946187221,  4.152809944106019
16.757378626381300, 11.410158836173075, 42.626594611961487,  3.500091580289931
15.809115949565065, 12.956316662338670, 58.535178979221691,  3.836274118644481
15.684377646320815,  5.668783663724512, 85.526057527855187,  4.380138696030438
18.828345921368953,  2.751150092680624, 21.055410099051166,  4.076402850910889
12.183755423346495,  5.217917952857548, 40.478019864944692,  3.899285201270173
18.897846021077211, 13.173564052139115, 113.859642858134436,  3.978013062625873
 9.102377505836589, 12.082941172625521, 22.940719655964756,  3.888774670994283
 4.510849847163669,  3.540097882817443, 83.087471596508379,  3.857537164499348
18.067658285853007,  1.480821948260881, 46.606963534396662,  3.883810031930936
17.459872678327873, 15.768232848688228, 27.110300634822377,  4.111436838579331
12.119143575202511,  2.949130876419019, 69.171988531177576,  3.853884729590275
15.943066193800847,  4.147920554818342, 103.349863110964620,  3.883844226868595
 7.642721266275598, 14.436303514771030, 102.064387833198253,  3.965911283077633
 4.147194507374409, 15.407497651894968, 13.489150817082976,  4.007482009842533
10.982419374241564,  7.748575383763125, 99.993563475933840,  4.273777599164631
16.447017881785928, 13.223736304860589, 62.401139552845684,  3.874176120796310
 6.657242309844625,  5.600080021703274, 113.098511320880107,  3.728754456839648
 9.692480950374417, 12.380278644676055, 77.438143172988390,  3.780150796062492
 6.759967369316571,  8.431474314759958, 33.449223461337567,  3.922766140833299
 5.734510148842680, 12.653255880879103, 75.394541036971020,  4.125533004157249
 3.094218070732000,  3.772155586262704, 74.807191152513610,  4.235737372357163
 7.471926789631763,  1.253207413039284, 59.029550746026388,  3.922616288680493
13.982507217131172,  7.406935138371067, 78.630016431401842,  3.824271733226734
 9.611764024769204, 18.339991887768740, 48.167097848374702,  4.296698459024451
 7.803028700123116, 10.794722515283855, 26.386327834617909,  3.766384076737595
 0.689641455939796, 17.710627169456622, 44.259592742788470,  3.663212225603662
 6.341347413141737, 11.207056254578550, 91.670767891486562,  4.085715836559228
 7.958770347317413, 12.954798959422426, 61.016702630493526,  4.069228658993552
16.500958309415577,  0.411778374914191, 43.299081333129564,  3.674282740303762
13.718080328050618, 17.609560355875466, 82.290949147903262,  3.967423251048380
17.565764149017721,  0.314871800008408, 50.506344808000328,  4.261277670419026
 1.203689628702441, 14.175554214094669, 62.191453471938715,  3.740153141286658
15.936573131537212,  1.264977038345692, 86.901308282246617,  4.269447530304448
17.736039046614227, 13.545136061737027, 107.691015774806175,  4.156508132923909
 2.013267231476350, 16.592786146939414, 25.408779649088206,  3.851345268346326
18.645677412016834,  5.462804302802286, 108.891625878534896,  4.347450293028007
 0.031878666950049, 15.135375507679131,  4.481644501747279,  4.088955397595539
18.636477117587500,  6.362647801670672, 100.992414904888491,  4.297840627927033
 4.849036101328624,  8.874003164943028, 111.809266280047467,  4.181380309715862
 0.134293157925207,  3.577340991394107, 66.908947864681437,  3.929803536100685
16.537392455798170, 13.891252796462553, 48.895268126272093,  4.019283712498812
 3.669696604957071, 14.251649372350993, 103.298922650523096,  3.854802173179912
11.403979790232031,  4.194244360340585, 33.384575201268419,  4.004429291351286
 0.318582496907955,  1.319510190884648, 10.090016329836939,  3.888691970142591
 8.984370258261420, 12.806058968560256, 94.647617007188401,  3.791428468829062
14.788779953515695, 13.483925269645162, 67.632769856616534,  3.973863919762512
17.330176385636513, 10.616057804838654, 13.717528293253499,  4.001609493090404
17.644721648580585, 12.940160488105889, 70.197305346821167,  3.774535470785975
 3.673957777283771,  7.743811088288195, 53.378141962150643,  4.101651455131535
17.780432275028424, 11.608749529853760, 90.259645720655897,  3.875555810169060
 7.451278285032288, 18.834079450044968, 83.063736186282227,  3.666117901261712
10.397106880768323,  7.474856085453480, 56.698721941945067,  3.994480987842910
18.025812991961264, 10.220135763575895, 50.155506731531844,  4.248888302296718
15.169997874274225,  2.736769863576063, 22.895480837335771,  4.109346340788046
12.651225441682822, 11.602899498230734, 95.269180395505373,  4.022983689833016
 3.418347404611227,  6.798676388975473, 77.517390654500375,  3.911257779457645
 4.384172843949040, 12.408750586571415, 85.461181236556882,  4.015609827373540
12.414002131078895,  0.514235109713931, 64.840479187702613,  4.093016584633665
 8.197879445948470,  2.168783532767056, 113.407857063768347,  3.763339638995280
12.248187488824083, 17.633206717057501,  9.782442874221911,  4.075521111158288
16.490031997966060, 11.760107262312692, 104.350396304357560,  3.816864655566763
14.714074097558575,  7.895725901809781, 89.062509731837537,  4.147057764524544
13.895894511415145, 13.520236858515167, 29.000116634100582,  4.511175546177400
10.150665875320550, 17.043791717490318, 37.574150202462221,  4.247227205821758
12.211809012468027,  7.273227403895507, 111.690548740312622,  3.836584389250181
 9.998800853963711, 10.542512998455743,  6.527068042567713,  3.798524063795113
 9.183772356678935,  1.544820363144440, 62.639633123038955,  3.924248165209359
 1.611844776606725, 13.062964880387847, 48.197348070369685,  4.317492411709162
16.434727960135728, 13.759036530228158, 100.642914086064650,  3.682975514087458
17.036871301455530, 17.540053646198452,  8.201802238282898,  4.110021976067091
 3.821941177309145,  1.586921892952242, 34.465866217416078,  3.931197520485958
13.622384628079068, 13.785797941289173, 83.660862376733348,  4.137362452347637
11.538236738060959, 11.697808962737588, 25.985312474592700,  3.943485165452471
 1.971450814784566,  0.137816092752392, 116.679974513739850,  4.095943059091822
10.030734487998274, 17.827783779645845, 102.391611671534491,  3.725938270976628
14.117193063610362,  3.458768145805252, 36.178365293710840,  3.919617770556806
10.274140394183991,  7.836854593221934,  1.527846812366976,  4.041738373841006
 2.970581693502373,  1.829425007326840, 18.057713074611076,  4.542038034394223
18.405668191713882,  6.400463119666593, 32.707213184283667,  3.953277687954794
 0.872815173914341,  3.322531743757707, 38.922807424765097,  3.783525786976777
 7.428312800929312,  4.764218872407509, 100.603086360198105,  3.965151106546041
16.442326771710785,  4.561512235290794, 60.650979889949156,  3.834472441023579
 5.372796986513147, 16.480644697537336, 74.557652242321794,  3.740857360653564
 6.544600714574485,  9.140261136870812, 77.187736169788437,  3.901798090047568
14.867359748154817, 14.677388001960209, 110.340984876811390,  3.927763801031354
 8.232052476360645, 16.464142575832149, 13.904801597436967,  3.911128606180462
11.440877912976173, 12.696098154574193,  3.453228882626097,  4.226402723770352
 7.814425661510978, 18.794223590276214,  2.536257772685298,  4.023838019159614
17.418321235734403,  5.247047060282767,  9.938136581450451,  3.978056067873113
 3.922156401082758, 18.503915985780129, 10.424358206287076,  4.126384157176035
 8.666855200827392,  6.059127237426916, 45.812203169999052,  3.870929184206839
 7.806901168403406,  9.909411311504526, 48.607730729305047,  3.871751626711950
 7.314336495356804, 11.900142653349443,  3.888823502627904,  4.189716875754490
 5.703553634276806, 13.146941594339836, 43.138364332887875,  3.999595093582323
 4.366109799243733, 10.800213075402919, 50.500834804656087,  4.102158629152719
17.142482576191401, 12.387978215756496, 117.421416855981647,  4.088777231653256
 2.797258548411029, 15.446937920150216, 54.582033278623733,  3.837662109214080
 6.745938462910383, 13.869068099290722, 20.592183776153568,  3.659316373760768
16.458216069491932,  5.392606911749158, 117.096039561231763,  3.827232108183684
 9.002277229743148, 11.198554762215283, 35.254242903206027,  4.008989611803089
13.959553524526470,  8.615498152767112, 97.615866415402550,  3.451398410717857
11.337405098740019, 12.751062209379590, 112.171748457453575,  3.836965415041298
18.794416142765559, 12.908808190254419, 78.818461879924257,  3.953902092032916
 1.927078408661738,  3.449196022200350, 70.740071338669736,  4.245351164843542
 4.154415681507998, 16.720897536556173, 110.374309586676020,  4.225351664126914
14.756148786752574,  6.590134444422232, 66.834563662228163,  4.315525295350430
 1.347475051868911,  2.293954167907956, 87.398406404385142,  4.074071666507759
 8.299102857756074, 11.015308080636325, 40.891785203353749,  3.992399784401220
 3.443827194327945,  0.827514370611467, 30.547956006242590,  4.064363860328192
 6.590071525124989,  1.324302385916762, 75.278687862674104,  4.342799636490827
18.580334122435659,  5.156314768407283, 113.402527823373958,  3.782300742248978
 4.939371723500460, 11.263073189333634, 35.324072674039499,  3.743241937916093
14.177136676819817,  9.554173769908230, 30.825129308208250,  4.146660174599962
 7.870262915053655, 14.747309596328789, 25.924078760766797,  4.181965239418601
17.106301727282251,  0.321118422237154, 54.878217142917947,  4.130000434134301
 5.437846664979356, 18.780227145217577, 96.914828822583729,  4.178559146559883
 4.006864042215787,  5.315004187217081, 92.792217531219237,  3.575950840481648
 9.426800319634957,  0.351090618517715, 68.005937954585860,  3.597265801437695
15.355614520407270,  2.969372923427954,  3.676755555613536,  3.814275156073723
 0.074190231533769, 17.675287944954913, 85.975726253395521,  3.927290254092973
16.061384192865784,  7.356796479444935, 111.496029658267076,  3.870401696098132
