BANDS
8 8
NANOPARTICLES
cell(1), 18.944
cell(2), 18.944
cell(3), 118.401
 4.890384155135430, 18.493235424652742, 29.765455242456071,  3.929153943786421
 5.145232591972310,  4.416644288634273, 31.309870161468446,  4.061438643251265
 6.128817174592887, 17.211020060229160, 109.327358563220400,  4.010594602149035
11.313049699213053,  2.832440725910784,  8.130312874275955,  3.846856858452705
 2.503728104834789,  5.511369367993308, 107.293116586764839,  3.923424296516482
10.183798909727836, 17.844376706037469, 81.289234825844858,  4.404353588009821
 5.565351684117837,  4.058288981652942, 98.375123657878433,  3.983703949063275
 8.362324822423014,  4.870895060092041, 101.346217885639959,  4.310384810114469
13.039220173888690,  9.259991338042546, 11.132667848837471,  4.211603777342474
 0.935944494847643,  9.075450505948908, 14.687467758997458,  3.670365884925908
15.119914465662591,  8.268476521395337, 54.315098382452319,  4.152780509861791
 6.147860027262531, 12.233424756685643, 24.402045283372789,  3.968423260746215
 2.005774858708106,  7.831660753605175, 103.976316887692690,  4.225592135617426
15.286776957804447, 12.992151099048437, 40.106016685768267,  3.667053847400207
10.064922265600217,  7.980300913713732, 80.062089600292765,  3.944457892209025
16.106558699291757, 18.385348467679808, 34.770478759805819,  4.136033296451396
 2.039515402506007, 15.148930948016156, 97.201564675282469,  4.232868211109120
 8.876254935032058, 12.257256299328231, 52.592214534312916,  3.631330144400236
 8.130135453813450,  6.909472352692415, 43.756874612475734,  3.737390934339116
 6.374681125680291, 11.643871077029242, 17.839327637353065,  3.653913732180714
 8.456721010945216,  3.352582193766978, 110.302858976332189,  3.832480166106040
 1.971264485569369, 11.270531503632409, 81.070842943204482,  3.649598191414096
13.309489838354342,  1.417779541967288, 116.144848342309174,  3.885089660040411
16.500553738106824,  8.029159653415665, 21.165221535892133,  4.417982709349913
 5.532894659929255,  6.478007685162936, 21.884939672399288,  4.157496252130210
 7.171170039829309, 14.853016900482414, 104.794890513852195,  4.202436290901458
13.186219837648787,  9.793568738610444, 39.463319296429006,  4.053576998411482
13.626481290194356,  2.121987047414836,  5.023093501533153,  3.966472860684162
 2.360063427712181, 10.446674033027703, 55.724339335965432,  3.718503978493168
 2.929538093955389,  8.571682930281762, 113.610717376219995,  4.005350003123256
 9.555746687374231, 11.116250357738551, 34.092255899444964,  3.750913705145970
 7.919937286760651, 14.631192026672529, 66.003044217535475,  3.819730566987042
 7.669039334440268,  9.000937015256621, 70.561721795529891,  4.021781297124438
16.568458593184772, 13.977465797595054,  4.048845364648056,  3.968980278398697
 8.354942767606468,  1.278311652591006, 103.407555495677926,  3.950932276187645
13.178110103312063,  1.745553915615994, 82.265297124875161,  4.083774840864550
18.365790500311764, 16.514623192997714, 60.186604556292615,  3.981507759850425
16.040196783735460, 12.053231622708573, 66.554381213063749,  4.070836597531899
 9.019791767715898,  0.807388296294228, 23.777347860754322,  4.064428638089851
 6.261246658890911, 17.729283828498925, 21.503955558395191,  4.118932153153251
13.152371272667830, 18.471778091857324, 49.849791877206513,  4.056730352039547
 0.150746686442809, 16.216807818575131, 70.996948473473623,  4.100381296352813
10.595612933756184,  3.249223382972731, 66.568899231214274,  4.077976787552005
 2.325203266126832,  1.766153697288547, 14.787621432675756,  3.992692861680825
 0.294053494126912,  9.451632530114997, 68.741826837316864,  3.682036374817427
15.941022191509685,  3.228340166512518, 72.542088810753697,  4.238138398306715
12.963450642832878,  4.634493234200042, 34.140906168130144,  4.079568156414811
 4.579281742342751,  3.525649472650387, 65.190352932838252,  3.832991960149680
 8.224828558755627, 12.511945910955324, 14.631724471752854,  3.905306172774475
 5.504028993664515,  8.027111289480345, 18.176834951531976,  3.721082860608940
 7.682270556061688, 13.922261229435906, 46.785395080716853,  4.196163054163923
 3.985619944920936,  7.702868963456833, 33.364158634006301,  3.816371146968870
 8.337699336468640,  6.509212778680892,  1.792187698761431,  3.834791100680310
11.569620561991352,  2.694156334885153, 112.666456266306724,  4.078590998310735
16.237299851153743,  8.011205655817189, 13.669267940030064,  4.172209200343973
 8.904779601339428,  9.163921551682980, 101.759944381582727,  4.316707009203757
 0.327724614521066, 12.507601097314508, 113.152886272041158,  3.719093344831686
16.321812431179652, 13.079377183095852, 106.645291583445371,  3.723816409969229
 3.646699280802571, 14.394224410496497, 70.872109100521286,  3.691657187718061
16.746338382759713,  2.238343149355362, 106.323148093979583,  4.223651218802974
 6.242278843055058,  4.772538719079983, 80.551346025504785,  4.042183111673104
 0.638974272812539,  3.895913261865944, 103.795785132154947,  4.064249392995809
14.925608630581841,  8.791224798808132, 81.078187225421075,  4.076742055937249
 9.636387797384545,  0.547177377505351, 12.018410512933423,  4.045840542429779
 0.823098542810413, 12.619640841873913, 100.156747003999030,  3.864491158562980
18.586578460255751, 10.673841804420803,  4.766438457819838,  3.894900119677652
 7.566405909304364, 15.787435080514701, 78.379434210746851,  4.274045824921425
 8.039374615988864, 15.879172369589753, 55.164033015233962,  4.132476272426885
 7.204445529032919, 10.226425054582267, 74.382053715981797,  4.043762871131824
 4.775335646266685, 10.026524415307058, 101.742550551032835,  4.112858082060626
15.128394966679259,  9.386411434164687, 105.912355226308463,  4.093937386595139
16.726802523709669,  3.836159746718606, 116.720877905242119,  3.746241536626296
 1.440734817542732,  2.630459688666988, 116.777269870239195,  3.726016961638670
 5.876959977991360, 13.087405181669357, 11.452044883002431,  4.082880554867240
 6.220739216715820,  2.604672154351211, 12.050209878733904,  3.913719256576675
14.139931734229984, 12.394417241806906, 19.012745217979809,  4.353021106839242
 9.390835908940950, 15.864023367275163,  4.413971238411437,  4.060973882175123
10.873125855575335, 12.593288004639168, 94.734281907167173,  4.116774372616038
10.337725562398454,  3.966344130476458, 21.619296558975005,  4.012554305760943
 3.446458583161631, 14.629826569831176, 34.235505068926450,  3.673150206290644
16.212995723263393, 17.040091215457473, 24.902816114227232,  4.172821774033287
17.825345860381724, 16.173027435106839,  0.855065462191550,  4.152226980626610
13.601679831354682,  1.478786753897303, 78.317205339043397,  3.812334187248497
 6.209492646474287,  6.982094082333685, 104.413717409328996,  4.280457238259512
14.780368520831022, 16.475325555771718, 105.586308481095529,  4.004945046297889
13.373243573359360, 14.751482188396478, 88.018458000265682,  3.945399140685768
10.110014362273057,  7.412063357291471, 40.533533140230304,  3.845553601181087
 5.224929605041160, 13.327977833981297, 80.810879503588652,  4.052445347287740
10.788031799937748, 17.557895461323959,  0.797096845254082,  4.348533399869387
 9.935946380449703, 12.211662116760094, 25.441474622905123,  3.865490842131424
 4.630541863403934,  3.714487203724421, 69.077655605203731,  3.898480634344320
 1.089055180815798, 13.512006303063806, 107.786675417618213,  4.003000624345124
 6.520091929595784, 11.041961460764577, 64.817167809548849,  3.834861753137418
 6.874794463846236, 13.809123176727656, 20.874836991984544,  3.856800067740684
15.366126412779137,  8.057951466460947, 62.509764049472260,  4.068631678686933
11.152634537315633,  1.191176920275332, 85.696644541206680,  3.958970522890373
 7.166363130190159,  1.108134116454178, 67.336838790273887,  4.119857306253565
 7.366811476528676,  0.780994076551794,  6.790833347735854,  3.703163509841220
 6.540089277537149, 12.246181876050034, 31.946935821636529,  3.920204220170599
17.941273295346509, 18.473114170333922, 15.064449621727613,  4.010377551874940
 0.268186144027956,  6.431970095620518, 62.096766059507800,  4.185948902631615
 7.084982731757056,  3.573208006090533, 113.782020973792541,  3.640688239346046
 4.939538354908446, 10.007097033760630, 94.586350154642304,  3.902645754934046
 7.225098637457394, 13.732273929360540, 28.151609892120351,  4.341755615443535
 5.219332116022176,  6.745017516013473, 73.122040431589411,  4.316815674042385
10.856862822703606, 14.237511600545611, 112.205324537723058,  3.983398354355480
 4.717123702938570, 17.564655433518499, 83.340188821942945,  4.047458334011236
 5.223818913321121, 13.256338035636936, 108.241407401006214,  4.296030553095872
 0.242487831212041,  7.484659601020670,  7.362875833727110,  3.802470707418808
 6.633001284751465,  6.068738545144515, 54.549288363665660,  3.380925752833698
17.821711614820874,  6.344411807306654, 106.328766249221331,  3.753188687613516
17.076203558778808, 15.371141414880190, 86.784515894154850,  3.947906171656709
 0.830148496280915,  9.754772739677609, 59.482758146910399,  4.298091697966329
13.628500087570032, 10.152004561422538, 48.027373362861638,  3.902090878957231
 9.949254947345290,  5.253581355016119, 11.713390340884610,  3.994786032368347
 9.265963368306140, 15.344523004351819, 50.319860646599224,  4.037780436830136
 8.692447050070788, 15.806967115819043, 115.873288100012545,  4.231364669024664
 3.929961432616447,  6.085219137630615,  8.019174776371967,  4.186012906946711
 6.391801439840853,  7.231481621503073, 88.332829784453494,  4.145546951948718
 8.050251899456397,  7.176286780157054, 97.937625965630161,  3.909825034032858
 4.133102732744184,  2.130979808471290, 52.156917936850128,  4.005538563721485
11.911096405973339,  6.483544462072850, 52.841960859309680,  3.749800827384474
 4.026867606238882, 11.056491528885887, 77.213076199722821,  4.090092079068861
15.002372079441066, 10.094438941096833, 115.933387380724668,  4.178767861892138
 1.922198815358104,  2.751906915164785, 22.736036205461410,  4.092437514629918
 3.471935645013001, 12.453542407100390, 27.211513848282326,  3.791759782953294
 8.984416856739532,  8.048445295677878,  9.102288920472072,  3.862316468172186
16.922864891905050,  9.754764807122255, 17.325810194634862,  4.023402273480106
 5.590503714026020, 18.094625339468386, 14.374582235793142,  4.412511359111131
10.695898342166366, 18.450973905161128, 60.273805459423720,  4.122290286966861
 7.459180978241013, 18.240900119410547, 95.750929495411881,  4.342936174619092
 2.813153308910392, 10.089986811009474, 65.877788291668381,  3.961989325017044
12.942892271460870, 16.363102721455771, 36.644384208449338,  4.194570417204678
 2.743569689688758, 14.490131905800178, 49.099374817214823,  4.052626042569646
 7.043296225934555,  7.863765898777703,  5.520418416302301,  4.201489818942121
 3.593567510573769, 16.137305397438304, 77.299531054888448,  3.950322348695744
17.730202265348023, 17.816840922855643,  4.669600587589232,  4.128791228925407
 5.759779069813980, 13.843496546980827, 95.300262437672430,  3.986652950779771
12.749584851328731,  9.781062619883130, 65.759161597068584,  4.040788288394476
 9.126673723648368, 16.254951288831009, 69.348251067003275,  3.998963137428672
 6.670008495944090,  3.641267571010079, 90.444391818780062,  3.961470540025916
10.557177826722825, 17.980156557205152, 65.798058981136919,  4.350970337057954
12.547670658230556,  3.560413759389203, 48.806929348013419,  3.937751919995002
 4.483917511464713, 11.480137475465614, 58.686353822013501,  3.856390265379035
16.738806937585139, 16.066899036590037, 82.891262821167132,  3.970053016703085
16.288257017036756, 17.204086724683712, 11.450542702900186,  4.309947780515220
15.981382757156224,  4.095806040155188, 63.035065989362003,  4.000199034816927
 5.479082247310965, 12.980837419653009, 117.656355990651278,  4.230873029846142
17.059769284237014, 10.016664438622682, 10.145019926428626,  4.083852580790406
 5.537020455203891,  0.156877053748574, 105.902623751331475,  3.897356596313670
15.596135054212647, 17.930661384439436, 72.465893947287483,  4.212330989053523
16.237010712689731,  7.852032109894613, 109.463562462506587,  3.857196255513577
17.654338097527962, 11.524352519267984, 56.185694093636528,  3.925090005750368
 1.329261823744778, 15.562592408812101, 90.075890181891111,  4.613990476599789
11.863045852718193,  1.234417809798837, 45.377729390160646,  4.395200160733059
12.565850333415147, 12.665283111042706, 106.094891730366996,  3.830481467051035
 9.625000657226987, 15.146819072530123, 43.272935440724702,  4.098729499191835
 6.733863395297691,  0.996419427182546, 87.557516155641238,  3.819573688393657
18.779956164619868,  9.592369247424958, 52.774351301605641,  4.217006151035626
18.328887359370910,  5.286022224577903, 113.654516357449396,  3.745756077351344
 0.636619292754225,  3.951057248287958, 70.024943893714408,  4.317253116620449
11.015801690867496,  8.938935841299394, 115.709751714335894,  4.090300438918426
 2.936755263240564,  6.977204230637996, 76.783116524457967,  4.312376783320406
18.486225625985430, 10.526890671462491, 63.525266713560654,  4.139549627240180
 5.236459666322931,  5.217165252878940, 117.261173302058339,  3.922783406626903
 5.833037173422681, 16.859374880870302, 48.716782275058939,  3.730476923908468
 2.257239938993667,  8.302266549023731, 11.121925085534837,  4.089725016971657
 3.254165184677340,  0.484107120494843, 58.972812050889630,  4.338234849158261
17.298715463474959, 13.119255089678756, 96.757310678073310,  4.225179801384123
 7.736419561424470, 10.949777389655797, 97.103832246683055,  3.814122338205680
11.459503143746252,  5.084811861177854, 43.988495354387794,  3.820506254831528
 4.469642492563421, 18.107190049374822, 55.021404814108649,  4.270448798600624
 4.079912577421282,  9.521178570550513, 62.103996399377330,  4.033089690031853
18.812493021882204, 14.488415727673708, 64.048322667497459,  3.867055345213720
16.834908219250313, 16.717993221378578, 18.511968264249518,  4.017887708129099
 1.754071637718859,  2.634335231276604, 62.275842838916780,  3.907370041435116
 4.679656292274420,  8.889136571000742, 52.856402392944638,  4.251658881135835
13.173127394949088, 16.928482290570841, 84.481466920669988,  3.979896325222673
 1.127004823014797,  5.473781510856532, 25.670369573296131,  3.999760283723832
 6.986984103599410, 14.260256904389495, 111.761495811828908,  3.794640580193432
 2.324014882456815, 13.471898064556109, 43.091444605143288,  3.999330971187453
17.201911203140000,  1.680365399992780, 80.984672058798211,  4.242305398440652
14.937079978068191, 17.452076616525105, 111.995525792039871,  3.829477451954898
10.694778148262790,  7.691821530998425, 35.479210109114554,  3.977378943090498
15.371786997357402,  5.283648364479194, 16.452826913434972,  3.782020401087441
15.573617344076149, 13.091195039793895, 46.365941032607914,  3.864697814272136
10.716481323519965, 13.125023571123135, 85.475976766135815,  4.094290577910032
 9.514742004137732, 17.573321818537995, 15.856161142780547,  3.919331482501310
 3.488471812751204,  6.799566559584258, 28.613387979230904,  3.813827609506165
 5.391043575030494, 10.602660330471515,  2.536980796956470,  3.872491939416615
18.409507156384233, 13.810565797773751, 10.381140292583222,  3.964086064027938
12.373187419899207,  6.549259999140212,  8.051277488495893,  3.831915225127402
 7.426670440084036, 12.836122880569880, 100.494786977199240,  3.968819039255906
13.174059184439423, 14.099362605896671, 49.510629970538830,  4.286394889996922
 0.307383113682975,  7.800893674869722, 80.094991842468971,  4.281945377240706
 1.632721744306877,  7.655196485734552, 22.322309227101201,  4.027691689662840
 0.568948044227758, 13.452233078142696, 78.104978410356026,  4.181954838906728
 6.083765474642279, 12.078396625466965, 36.011988233554533,  4.265762407782684
11.148120835080086,  7.271678275840447, 49.112010472337857,  3.995661381913166
18.862364386040557,  4.996336298917958, 14.696878311675052,  4.041503423157769
16.280792051914631, 10.476595319051313, 28.168685131909331,  3.961908360603224
15.123839753838817,  0.784502264528126, 99.556806374012538,  4.010638155644715
 5.034818123730749,  2.130493872405068, 93.746327067467277,  3.994212235555876
15.652744131532879, 12.261809649878188, 52.806921809207012,  3.953273275717918
13.374260839788741,  5.385145397646387, 115.241961245351249,  4.154191303758571
 3.031447142980388, 15.380103822572796,  9.818143109060673,  3.906158808137100
 3.279749602110728,  4.488887153370452, 113.765893543088694,  4.182570261020666
 0.506621109370718, 18.180188139250621, 63.501427156088184,  3.700680791273489
 4.282523207172790, 18.450093874032593, 64.748047000841140,  4.265005962493730
 9.930034195177061, 10.885034977286139, 108.512150895029293,  3.645648172522242
 2.770986400246743,  6.550511258986321, 83.291583702378375,  4.055064505806557
 4.080442639902568,  5.505216212894981, 15.399424446538660,  4.287426886444347
 5.865645657157056, 16.111617878549776, 36.756302643511788,  3.896232005458643
13.186278248147888,  0.989502648005176, 32.447731038941178,  3.942180225382110
 6.140473953150726,  1.981688352994768, 39.699261852255560,  3.974261357995696
 4.774710579674662,  3.185205413392413, 103.399472716907269,  4.086060542501730
17.946949146881035,  3.709151584984765, 100.024371098466133,  4.098658820396869
15.728743506983257,  1.607280796595555, 17.822811620682483,  4.070272207683626
 3.690820351499513, 18.822589938059934, 97.163012318872362,  3.788878589265568
16.639999729336246,  3.213321446704315, 32.951470699925430,  4.142368669742083
 6.970128565526658, 17.883707861577903, 42.044987801226867,  3.880154462733522
 7.448512345433365,  2.616687969414455,  1.115093936858151,  4.256401979020020
 2.809620270580844,  0.258404234591043, 69.770987610468865,  4.035042214817372
11.878729761102912, 15.722542926479186, 91.357660677451690,  3.620264528811222
 1.161403165142948,  8.561515572865135,  1.685989224831542,  3.967163598647524
15.200556065215794,  2.605515892229939, 51.772985546522825,  4.242051724825061
 4.258716828350646,  9.199634090528843, 107.505208645063988,  4.160443419299285
17.199952111353376, 12.125357123935894, 81.965812395030326,  4.174353035304820
 6.609522724528301, 18.728425117613426, 71.363617648815818,  4.115144130669146
 7.639571069864779,  0.876871827004700, 99.561019180320088,  3.891252259845356
16.069849169137214, 16.375807126779183, 90.502072153650303,  3.987267272281369
 4.274158838190901, 12.124049302602845, 98.447175124554164,  3.680344709992915
 3.139898423372752,  8.936330842509905,  5.248498214448022,  3.895503721133967
17.882978025872902, 16.300494417221500, 41.474349448384302,  4.130214998781505
 5.130826285101316,  9.940130868495915, 14.187976235530064,  4.172823452248122
14.558083056363403, 13.096494938582671, 11.274354467591289,  4.026585227355000
12.112190692285250, 13.002108549242692, 59.497081507364996,  3.804658733601601
 2.879426700056887, 10.934209107746772, 17.193074810440272,  3.555824700787289
 4.200421688501479,  9.045913262771659, 117.566980758476561,  3.845842332847990
14.694806744218798, 16.576809665534302, 115.852604567239609,  4.082294487611967
 8.688006004157534,  8.494595978599405, 52.032327839488730,  3.970413182234226
14.488558617945069,  9.755479546333042,  4.104647967748019,  3.760375656766659
17.573508643567767,  0.989327021893432, 91.959723004762211,  4.139408598906077
17.492474037234196, 11.846246345677290, 13.647596963353729,  3.846148908359655
 9.230417868944684, 16.662978408506230, 101.595554474618524,  4.210322485519356
13.066313474716861,  8.882174244166290, 92.577692505869805,  3.868716761069217
12.668284203230826, 14.256164415605074,  7.946881539364354,  3.940849152452140
13.646222266443546, 11.028534109283783, 14.986259481849606,  4.195279191066118
16.019030269926688,  8.097362908528449, 98.511479004574156,  4.163412943868943
14.691015003937817,  3.037242629344879, 29.264897058416970,  4.185430371260759
11.597676144460255,  2.376616265151859, 101.534149464263436,  3.849428408403375
 2.289973078554585, 18.325797264196222, 47.484293583773585,  4.318408251517853
 1.584096611119460, 11.125118321055725,  8.251841368111979,  4.069087872183233
 2.139679874269502,  7.809978345367858, 87.328967864858711,  4.493149525842651
 6.081143776015824,  6.670748955669938, 11.595796564704662,  4.231553497667505
 4.848766946715550, 16.683099164495111,  6.353868126986710,  4.212620932762464
15.441005585929455, 14.748749005400759, 15.307531866666961,  3.958588145045770
 9.912023158776678, 13.490126523467687, 18.248882824447527,  4.145563975543418
14.088832017356252,  7.024909872274002, 89.076102303177166,  4.317951676613704
14.848820818067317, 17.211746336783438, 76.463708585398621,  4.010500487190640
16.446422128249768, 15.759878314689054, 67.907555600154012,  3.861332249889179
11.906898991762379,  4.289913521173244, 72.044201186368767,  4.105417410356800
 4.948627324506479,  0.826200337497334, 24.996490731176149,  4.369298633190950
12.293191636308279,  9.200856146887705, 21.878454918440884,  4.176645134726307
 2.187538973081326, 12.025931858926263, 12.525703310992020,  3.766973903729473
14.031575690662718, 10.310617352949151, 69.555351184509604,  3.913973562218102
16.648774278058287, 12.998186734082889, 59.616038881798055,  3.807284972115518
 7.631307891662806,  2.038518191321223, 83.664488465553319,  4.329061239718991
12.585222723574523,  1.451824251220194, 105.194656365993723,  3.926670295628892
15.118594610993938, 16.090217715030729, 64.128587434015301,  4.168731705726159
13.877074924478981, 14.582648375167496,  1.006765980366030,  4.217095083362489
 6.239812479126434,  0.665217811564372, 79.818495049191114,  4.292028785806065
12.289688602601538, 13.963855718038017, 66.353712139341525,  4.173848067212003
11.236084463357971, 14.891055991284249, 28.036430825921709,  3.952606959265144
 5.068420924692538,  6.226242594168929, 110.391448412816018,  4.202249806250226
 5.814233030753710,  9.883194152005830, 28.875714534252836,  3.908252306422440
13.492474610796588,  5.944863938729660,  4.451221981972198,  3.762855954145455
 7.824835171133595, 18.885084576389286, 112.608421758351795,  4.093947309965063
14.915001752100784, 11.696086307256566, 99.498440670564221,  3.573549152702973
13.807015831655939,  8.317973314625789, 112.487327488955188,  3.928174954706038
11.788199604251956, 16.121590630062702, 56.794721635869216,  4.025857957780116
 9.879219368623053,  4.783084702462580, 105.471913124247365,  4.451888803164328
18.643036728951440,  7.290332989660191, 56.265357519933545,  4.115430482268621
18.025904363259308,  4.464256656787417, 19.447992923962392,  3.937540856701119
16.103444538433020,  6.728765282784137, 70.101839855325252,  4.299746376779475
13.588769846836092,  4.340276063035119, 85.891947619440614,  4.000460455449296
 4.570226618556227,  6.814051751327595,  2.311747915143972,  3.788785256882695
13.077114082983764,  4.524536623693955, 55.936486172213655,  3.912525904751611
18.071451992599869,  6.984798093691332, 90.182896946217951,  3.947762884467064
 5.825141734704924, 13.490856100384368, 61.822013959090214,  4.020902444513750
 8.055806653545204,  4.585975490987447, 63.733952305668048,  3.973896108138574
11.898216824703429,  5.631590193155016, 27.810815311199672,  3.959467623710422
12.351578790495630, 12.883133353148539,  4.321809714362632,  3.819786571191239
16.890537813232999,  9.669599832092860, 40.840916631305504,  3.837770073439703
 3.090099197558454, 16.276198548995200, 61.546028660462468,  3.805185362879670
 8.476421493781899,  4.864275466922239, 37.686079774764494,  4.442289382091027
15.024591664672265, 16.438469317244149, 52.664812319706471,  3.816911502513317
 1.907182890668507,  3.204638858908120, 97.414704242027199,  3.770596416388751
11.448911495657871,  7.540918468209889, 69.889306859980323,  3.673850202706201
13.541458614857730, 16.851096155761521,  4.758928158730966,  4.451000943125403
 1.302450691066673,  7.587695688084452, 18.231715452352269,  4.045814996956981
 1.295513490662316, 15.636513865022359, 13.310447057823513,  3.832563590835501
16.121289909422984,  3.870156730397015, 44.485064303956037,  4.033491980364413
 6.101931563707592,  3.856938427368456, 107.204835838557457,  3.996353302515233
18.240434567770624,  0.128652721412239, 110.575829601242845,  4.015553758677602
 8.457762510019428,  4.906180235141343, 69.755022240892913,  4.225031872475647
 4.058278523858234,  2.073152930710681,  8.743095028486991,  3.955779216058338
10.033963938552537, 14.311656274693432, 31.832639630103078,  4.086926467270315
 1.611805514059602,  3.785348227203923, 79.269481614342595,  4.160267980353299
 1.872845871491656, 14.201681813142732, 116.291444066593556,  3.813743929801909
 0.272619579582326, 14.174235495726727, 25.960306130365890,  3.864502662901820
 3.591579965156907, 12.662877465518308, 87.775571888592552,  3.990653860175705
16.951769014613060,  9.480390246888714, 87.565336459443230,  3.581704351834127
13.035475917190901, 17.800064199495210, 102.325696935774630,  3.851494338489764
 8.353029382962280,  8.346329172625854, 62.860042265627463,  3.767034975283757
11.339506689226539, 18.644825251638991, 98.650869511809049,  4.033913831107893
 0.126551631808922,  9.855830632246573, 106.887355170157733,  3.748003229442807
11.841153295063156, 13.553510970763003, 70.338508127942504,  3.874946014387043
13.030387689360175, 14.944542505188519, 99.687312614909814,  3.907429429348317
18.155890740310340,  5.599110521754428, 52.108457524405587,  3.972726361750755
 5.349506029989027, 16.511264651197646, 68.223826786043603,  3.889813299583742
 6.714957672804717, 10.202261026765141, 111.022314865069589,  4.469411477192144
 8.587359726109906, 10.584308149463583, 21.913967348217426,  3.729563406322563
10.519515535559227,  9.209304863855992, 76.249155721133818,  3.830884802066130
 0.623928451730466,  4.433639111894950, 92.906127662920881,  4.020214273683838
10.885505081486457,  1.785685583193197, 27.264304346634091,  4.047004135294220
 6.969145046077269,  6.161042749341379, 84.075559755322118,  3.660699811682949
14.185659327872646, 10.603495713510444, 95.906683025051308,  3.940406617303718
14.881485108035701,  3.983612125999461, 92.617012449802615,  3.952838080465854
 5.734216829247751,  3.870900859160537,  4.852702007923630,  4.274784695959180
 8.348555216033461, 15.438341756986333, 24.051079835288466,  3.837391634499632
 2.700515048027373, 12.408733903062814, 52.503382848292595,  3.831765655610599
 7.610725358763410,  4.210471111514246,  8.602712220843992,  4.058702957434774
 4.637345892472776,  1.855906362086487, 110.729224741009801,  4.217257603033990
 0.088122984592034,  4.763680490716376,  1.239249088896581,  3.862978587474769
 2.116185140784536, 12.733644784346627, 61.677174877003225,  3.531526269475765
16.675544826822893,  9.894374419706336, 72.698020743372979,  3.967729739296927
 5.128625539393352,  1.324281651616432, 116.214852287728874,  4.048147694753067
 0.679222479535433, 18.224258227982222,  8.304023020219503,  4.071993042457748
15.726481885965965,  0.778764566141201, 65.716398182075295,  3.849275004064993
 8.717471857582153,  1.132967763658197, 19.422085025330439,  3.850082067452679
 2.121424139544254, 11.640267137589030, 23.862826594860916,  3.599704720594206
 8.217155291674494, 11.847218202876039, 114.709111406720766,  4.074991848519236
17.637775810769874,  9.046930285619521, 113.017252652405759,  3.935832051736710
13.968513726561955, 14.942087742533637, 43.211516701248392,  4.110503446803404
 7.954120553326604,  9.760573540719493, 118.103229451223513,  3.841085769872350
 9.453469795560343, 10.418829685950550, 38.051966952437965,  3.913692990369202
15.735630964577956, 12.173077897057226, 89.879028053157285,  3.922466555211757
 8.588448028685187,  4.971757116773760, 33.469946193395344,  3.989890135514401
10.463804485277107,  3.622843407133179, 97.937471252167853,  4.065580347188013
10.520705118389838, 17.996927996478604, 30.357711820624690,  3.857390194313566
17.152383923467447, 18.603613304027757, 102.961959224065367,  4.223500577222648
 6.277219648521268,  1.692450445383629, 61.620662765169570,  4.010928560655930
16.203060459760021,  0.319979342007996, 61.938351442963338,  3.819243896244591
16.855965420155286, 10.363755585578421, 77.935315999780173,  3.939576025411386
15.715489924000293, 13.560656473384325, 71.087539382960429,  3.981711518934057
 4.604654778859048,  5.466654173148286, 61.664829445542615,  4.181518717516507
12.032769127351612,  2.956407854244621, 14.238095535502477,  3.997455393470057
18.325228435589786, 16.327658666948174, 94.012652411848819,  4.292930963228640
 4.562188638811699,  8.483205713217364, 80.272114959909814,  3.932279288000519
 0.266484396712828,  1.005088920103377, 44.283549920599441,  3.918078438316832
18.046869704755398, 10.698535613240496, 103.220007479443083,  4.039226792284434
 7.704828827690206,  6.942755965694468, 59.274429453127738,  3.990837122526153
 6.541717646813646, 16.147565512769273, 17.863625189030415,  3.795271115233485
 9.358709827651778,  5.216096137106421, 116.533821210608792,  4.189999983929140
10.103444079276327,  8.438223682001972, 89.821744434060932,  4.118112135619338
 3.380285670824660, 14.172038355186624, 19.222611566690695,  3.904803608029813
16.965155315489685,  4.292163022198785, 66.873141061464111,  3.896418738718224
 2.421955882949443, 13.552915885128618, 74.433394920954086,  4.006165055609967
14.232177300566496, 18.942976155623452, 108.566863506567799,  3.769417932013194
12.789943511806698,  1.176923803700095, 74.519202440912565,  3.975813259585163
13.382735449544327, 10.109018091484591, 33.653462120901700,  4.120747302253656
 4.591321011973590, 10.432001479581654, 21.137360577359544,  4.103835614884344
 0.154333988677211, 11.488793782127489, 46.468689470261801,  3.881669137874424
 7.169403174935179,  1.239238244350714, 35.934902985041411,  3.961351007568788
13.773149885005980, 11.758149715885706, 56.223083279358505,  3.850586234042409
10.240500122379165, 11.192365243915964, 42.038511433320686,  4.241609688944664
18.335747318428453,  1.970428877470909, 26.224979949896159,  3.891832770656169
 2.714520442310263,  4.328084617106272, 11.697725369598587,  3.909489660471849
10.853439788489343, 16.433423186317633, 46.849799409677743,  3.883225488788395
 2.646088328148640,  5.370791803307810, 100.705070088329720,  3.854014067970312
12.892009276629642, 16.296073953528914, 17.993597833883488,  3.974223371419286
 7.561713336910242,  9.946774261476879, 45.916343524200279,  3.800661710428192
16.147073726946459,  1.079805637927729, 84.902993620423644,  3.918739785703010
 9.562164201023602,  7.222124966189504, 66.449716741703298,  4.134366109684811
 9.896660145553502,  6.449569039142053, 112.488262677337289,  4.145472941432751
 3.883146844363488, 14.006029354147200, 65.400221158226742,  4.173988985405138
 2.268027694615419,  0.944943494377638, 76.379325708759652,  3.976274496765988
 1.585497823179541, 15.074198251706585, 81.793577807173222,  4.118461881426807
 0.591387558984051, 11.038088316376950, 89.847889509675767,  3.980335605713198
15.111750634663458,  3.063207763587778, 102.787562912893947,  3.711566260244316
14.728934381160284,  0.150309208681047, 55.638131621114631,  4.094339238867937
18.713012670932304, 16.939679478177780, 75.304683078312351,  4.015282134885810
 0.782254567167566, 17.188616540524411, 56.540448317492420,  3.898904256862660
18.671498223768719, 14.953255695687936, 53.344134222110050,  4.165799671021190
11.893872094410028,  5.915923685941336, 63.230999635343643,  4.206983708199732
 9.244721445919629, 17.734107271929073, 38.579516603832957,  4.355075472920923
 5.416040859588145,  9.856101068571038,  8.951703335813772,  4.124517283054607
16.238655181516588,  7.236329066113433,  0.127125735914779,  3.921592365722500
 0.307546209938122,  8.447146917093669, 30.111776189057313,  3.929610262260137
15.845050838116899, 15.165658578536913, 56.372223514716431,  4.128971491931087
13.821535009833658,  2.151320666339119, 59.216437446472369,  4.226581280132990
 3.932659870777768,  7.767266211883904, 69.122439803284578,  4.325196802914944
 5.778651633660545,  3.677890624025188, 58.258855464397321,  3.822518607801546
 6.428996287237436, 12.490993304115211, 43.100653592092598,  4.070583947092222
 0.512350755031911, 10.299739305828707, 116.441550022394182,  4.202228798033518
11.941788180037387,  1.002378968732169, 17.510977530398343,  3.619703829434419
 2.133576948001366,  0.189570451296003, 103.955800397585165,  3.924222032002639
10.185315625409000, 18.493875127573986, 89.257841224040490,  4.114269517084343
 7.128385343871870,  7.332464414484350, 77.313497356921701,  4.161514125756669
 0.484432387021221,  2.144796918380694, 50.204624391664140,  4.105327806818168
 2.374552346844328,  1.309909843417617,  5.101709182653246,  4.167667342707819
 9.875683208968349, 10.481743179627394, 29.112312410038605,  4.240240367886913
 7.429968270952475,  9.212397855971895, 56.111175558631452,  3.736324587597380
 1.062450875414611, 17.651279535475684, 34.101558557762132,  3.885777740991347
 8.937268221641604,  4.698151481261502, 25.310181358525231,  3.960089110684939
13.175029019769434,  5.701903130561640, 38.313886920963206,  4.445326673258656
 0.972506894138402,  3.752846092579727, 88.780205373273375,  3.954655615243944
 7.539281427672262,  9.922687825153266, 82.740626704660841,  4.312295516688049
18.715046120013056, 15.604603771360283, 45.440537720890958,  4.072674181109401
16.101909789475695,  1.935515219800872, 113.424876491691606,  3.940290949853777
 3.991853203670948, 14.240171972197725, 101.988808707497057,  3.999504617885511
11.760458313345660, 14.305490939574705, 39.916563294396632,  3.858345308861529
 9.858147996930613,  8.655216977180224, 94.779040487218836,  3.909969012556854
 0.772045235564793, 12.912813079323341, 67.549441230249229,  3.695597900748887
11.932328804814091, 13.035385817463208, 115.969879820116773,  4.123024179468606
16.506129120850840, 18.818172666636595, 30.871152763857459,  3.727009034466891
 2.268393532116663, 17.615460795346412, 51.569493610112410,  3.927044464959284
18.678064256997132, 17.338715737561937, 106.800624938364479,  4.338579454017222
 1.799504072880351, 15.782093065540019, 37.385853537993185,  3.775138090291930
 1.300016909102236, 13.685348441194495, 58.172598769633339,  3.899111776812356
17.426303413069316, 13.243356903957874, 74.632783567404545,  3.904420510740953
 7.954590649994847, 11.187042681503604, 78.538611221760235,  4.068245456140475
16.406778994821796, 10.828733948364233, 36.983645190372471,  4.248186206331895
13.590887106309475,  7.587728624474001, 73.665392430248517,  3.973830911580492
16.166548685196137,  2.976801611893113, 37.014242392750390,  4.051500888976892
18.390161907884298,  4.199003165493415, 109.732088332881958,  4.299888443915729
 3.397695748545871, 15.885957908939895, 105.693635071612320,  3.820196938074036
17.967314938554360,  0.025137358908971, 53.274817119608961,  3.881987372333144
18.236262085057742,  4.642004090143011, 29.015873990181806,  3.535644469946253
15.336122751013368, 13.927670337484336, 78.806765315959296,  3.992570894774516
13.602166537376432,  8.036739620008200, 18.263474904311305,  3.637498738237247
 2.005660656591245, 13.157558474819043, 93.559259239091176,  3.906031375813271
10.455294272334724, 12.599518900983847, 11.127401008263197,  4.227641396091609
12.299143719901792,  6.580178647118792,  0.729268785996364,  4.090638121940078
 3.984652172413930,  5.794207400973161, 94.911188362448556,  3.892644656363494
 9.634650189260185, 17.066034292183616, 73.654806726705829,  4.143656217059916
 0.574244939062256,  9.354954616954013, 26.341612714935216,  3.797519857677740
 0.751135356695250, 18.753229594561049, 83.630978117058220,  3.881705824454391
14.347425773018644, 12.132785721751034, 62.775523320301545,  4.198786060026477
15.047209093417070,  3.934563212186993,  1.679537105457023,  3.748519451214602
14.330643461933121,  8.218557510130411, 85.051987529620249,  4.038067199043690
14.217902448350106, 17.330860910479455, 80.386300973339317,  3.570840782097902
 3.990353355736322,  2.629672022806894, 73.020643662841422,  4.273499138462715
11.588910379065338, 14.460668679516669, 14.739978656502695,  3.821161405684317
 5.228280891684533, 13.954908210282881, 91.270220349579844,  4.133438904792627
 7.316188483717113, 11.085708228155630, 86.887693599238759,  4.281773068262638
12.309055075576133, 10.253718593181551, 52.108667912391510,  3.961715459554199
11.704939108899097,  7.742260155819439, 99.188476331492893,  3.795596559927629
 6.282921148573068, 14.796433990015684, 74.506143491785139,  4.103736196436703
 0.166701219998226, 12.107135444172188, 85.752344480259637,  4.002376903970466
14.108675889544152, 10.944190260793444, 43.114266322023965,  3.766599448425423
16.346489333084268,  6.882801032413189, 26.332335098642094,  4.072031155996881
 8.535347636341127, 15.758728323425268, 12.621236020401192,  3.741183347070583
11.894439323264077, 18.099483756694799, 41.756039079302646,  3.938940585476774
11.244147169982265, 11.554964590597056, 98.664769209308488,  3.953985133398425
 4.765666427418905, 16.122706247493333, 44.877919373789325,  4.037477881392403
 9.297227082145527, 13.637358107321427, 81.613928537990205,  4.197809723589359
 4.353270998821209,  1.232938431552494, 44.234602056804199,  4.213651759164488
 2.316238263012449, 17.091722513502905, 16.795358088786383,  3.968914011771665
 5.721025927659873, 15.957413673830242, 98.774431872230991,  3.928056424309115
18.425750570427638, 12.577894575967989, 50.127777186870283,  3.765405314884839
 0.231648976341316, 14.620365472456703, 103.581552526274777,  4.144094753331239
 5.806727760277733,  5.821235314166038, 40.826482830482590,  4.017031470656613
10.927574237637081, 12.946392927538502, 102.462944008300568,  4.060077557377533
14.018766984512791,  4.662147472795896, 20.087076575746313,  4.061533167397972
17.312806303663169,  8.991503388284476, 48.977835561440827,  4.008356818170408
 2.870710893153716,  4.815106973879993, 43.203898617129092,  3.796033118811823
13.074611365051219,  6.027291163214086, 59.430869871316673,  3.645182286186455
14.046622098247541, 18.645485626052942, 87.952686200169040,  3.945271495508821
 8.993009162723906,  7.309836530598261, 19.997315283261027,  3.888686309480948
17.231968721436839, 11.335998170944039, 23.823803710370463,  4.065609881759681
13.829321220915086, 18.046625721653204, 28.127184751414941,  4.089375414724397
 0.404597704953206, 12.600711132328298, 29.638681536827015,  4.029512016770799
 5.637152068523275,  1.955507997012050, 48.297906891536577,  4.219033744308095
11.727658608883118, 15.464843069616984, 78.191048802544856,  3.927366893424801
 5.550067315880031, 13.964575755154398, 84.674374557881464,  3.789849355422140
13.426961756420495,  1.196068165977207, 10.969859060175059,  3.918136400322765
 2.837418457460168,  2.757576570612833, 28.264279303653129,  4.223521107791681
 9.359440384116088, 14.572901424386679, 35.787680803745808,  3.944343992019953
10.955457536527263, 10.352285553586412, 72.480026521479800,  4.019411057361890
13.084092032572768,  0.668831421716805, 21.431324008219235,  4.567496921344224
 2.910343950378106,  5.426194271824434, 54.447071801517389,  4.134626616651119
13.627507044327793,  3.004597348259011, 41.475362009834612,  3.898697832245859
 0.521179368887758, 11.108197456558582, 20.313173183196550,  4.256250643564052
 7.796629297431156, 13.824482642152821, 39.454647193986069,  4.161358467789182
 9.796641819937060,  4.790316104037026,  5.044834084849715,  4.041554166606023
16.167145238987420,  1.380273168615509, 47.774147231390600,  4.142032398833436
 0.076488142475787, 13.607994584584592, 16.918130101634791,  4.178340518949024
 6.395974730954518, 18.793270973105297, 75.661331197183003,  4.142427404711550
10.245106930440620,  1.134146720032511, 70.041030319252386,  4.073108737159118
13.076078015550623, 15.025957063690937, 73.718240977136603,  3.814922752231317
18.651825845087913,  0.023533035639475, 37.864973232025243,  3.777057599328118
 2.150378317234342,  8.121285766951624, 39.828427852842545,  4.112927564550924
 2.427239242076946,  3.916040223226456, 39.126565318597926,  4.425320885388299
11.408569583153293,  8.331359873009831, 56.522784809532276,  4.425141481886048
14.041770417270262,  5.199997467090672, 11.462713037370623,  4.176859165659264
15.878366767210998,  2.590209036725928, 13.845075740706131,  3.763703002308830
 7.014410318388827,  2.360446449381454, 54.844339100566152,  3.879120808168790
12.573805326023585, 10.471188801751433, 87.626878225591497,  3.629458290114269
 4.256608553676549, 12.347474585060452, 113.782160589348180,  3.980762184533031
14.278569662968563, 16.313437641150845, 60.043830199969065,  4.168723839971894
11.704511228817276, 12.711183081987350, 45.734077862327958,  3.972628954353173
10.100580117943922, 11.734214621177861, 63.530377418244456,  3.898915753144231
 2.720844400135457,  0.681478832458437, 90.689239993932219,  4.033303995603508
 6.548123288757163, 18.305994636330777, 91.192065550230225,  4.124286173699316
16.370373564273162,  7.187951327631489, 34.609076388822871,  4.445535120875315
14.757199753985756,  6.347327061498709, 50.358334248532394,  3.795080972946164
10.381241428231732,  4.857822402189452, 76.659797499439790,  4.100402257602684
 8.082639655435726,  6.495046853998516, 28.824692971192821,  4.113580951186478
16.599872343845369,  7.376272305463067, 93.892977258329680,  4.061095909816421
 8.945866485743757,  4.316792509971323, 86.937165117151537,  4.067431252341949
14.967567841566256, 13.193923202448467, 112.828972925669888,  4.588099050127380
17.467590404853063,  0.608266241991778, 21.669117122778911,  4.184638753491202
 0.550197131343681,  6.814578353583258, 96.714558881824516,  4.066227682826561
15.167027877057736, 13.756526687215775, 34.442658623576847,  3.867326103914458
13.456929754558654, 15.047744491996653, 109.173542703147731,  4.141121797280732
13.356676638884922, 13.653845627113315, 82.264370719202162,  3.858037663935885
 5.502821508253993,  8.054954460465916, 37.235127731820526,  4.193704979946984
12.310224316182786,  6.169035169220529, 102.529086420176199,  3.664509057547225
 5.886685565067827, 11.978787959616829, 50.053367543179917,  4.212075514589372
 4.380987637618039,  9.985704408121633, 90.655347856055798,  4.030147906074975
 9.987742336598091,  3.630604658474214, 60.240749910205786,  4.225141158405652
16.129234838810206, 14.675102960841507, 28.440188246074861,  3.897870123421277
 8.334885816006061,  8.624088762186911, 25.305988643913558,  3.964200208930233
 8.066811531790846, 12.933496225580466, 71.356386096967867,  4.036463265131105
 7.321473181544749, 18.559627163423567, 51.957514359376248,  4.107528677089729
17.483385766872111,  0.487151317758204, 69.179288998649298,  3.938292832964843
14.587134221655148,  4.754736129836155, 111.125069171447862,  3.848907274388895
18.227466292449538,  8.592057523947229, 84.048711630953761,  4.007161126142538
10.368863222297591,  2.759473905808094, 52.490871521359189,  4.302829134626511
17.318151365728081,  6.448367699652213, 38.662085277007364,  3.954963545342143
 1.401010499019307,  6.491257788342558, 116.526164266966873,  3.571816780170467
11.915392226281419, 17.019093003242233, 24.674266473715658,  4.054727743840976
 0.883971307300166,  1.453941793112220, 31.476263567749420,  3.687092479829879
 4.092512226722981, 11.851118329928473, 46.344676503506470,  4.025706628694509
 3.436570285465498,  2.896227216802166,  1.585287505013565,  3.830703008156965
14.767760541314429,  0.025013322533792,  1.212977008781391,  4.094060113703886
12.009360926029279,  7.164344842318633, 108.980438511194336,  4.162144482867222
 2.619820854388883, 11.359636682499415, 110.493366738461987,  3.545071024901897
18.544621604764060, 15.012149203026867, 21.945683171847850,  4.367714190483394
16.699307254379885,  8.119733012597070, 66.255604382450926,  3.872406843106890
17.683772680691991, 15.349710037743415, 31.946075143533523,  3.880225926990398
17.356429380380554, 15.246694220818155, 110.038195872197804,  3.789326039133107
 0.493843264278156, 12.258404022673282, 71.258372259811409,  3.851952218469855
12.808012363098907,  9.342226600558835, 26.157773720815744,  4.363440312717220
12.039886118321249, 11.539518236674752, 79.117834088615155,  4.133603626824712
 3.867709359185612, 10.556451282819454, 72.209467250504574,  3.940225406931249
14.064352676115396,  5.366839831618955, 105.921670229353722,  4.034927293323096
 9.919245675059543,  2.290183995361067, 40.577788683662263,  3.806436429292244
 9.131842215171099, 14.607075156253490, 108.535203117821609,  3.938512942110780
12.426152150052783, 12.401127475163127, 36.685501708986813,  3.710465988880519
 6.960447133943984,  2.665464682298852, 28.199039509531222,  3.935905085287423
 8.309908817194104,  2.320268867223692, 15.344092166798603,  3.810974409006492
 1.001194150725055,  7.571938246024771, 72.147717547470890,  4.107388248953443
13.763969406353597, 18.305456534131491, 14.579523352512197,  3.992569956192604
 0.736800696620063,  8.701593040526500, 100.208045720294763,  3.873165961234521
 0.158121619239500,  0.945621735263934,  1.515020637498329,  3.765791211349057
14.468998494730277,  6.892181804861537, 42.205528323758756,  4.005670097774342
 4.335749341459405,  8.796267662203272, 25.348780853566378,  4.024240968555583
17.648261857544352,  2.601994985714645, 40.890905200306200,  4.175169080764275
15.580862829071837,  8.133116362153952,  7.179357243194022,  3.526262151397522
 8.982900710472038,  1.169294246861574, 107.233666541692756,  3.750386048331863
 8.056251570929732, 14.559208616905767,  8.193552004261464,  4.277487494006916
 7.563595573810576,  8.520403187888355, 32.192393300374412,  3.797094623754922
 9.964905653465012, 13.110355828071850, 75.396891351614812,  4.181522681603226
 6.882542598048191,  7.188858098039048, 92.442391761147746,  4.124799510153075
 2.991637504915917,  1.409991752460304, 100.467577416863094,  3.622347998461720
 6.807725691598598,  4.394734658831092, 18.331411138472273,  3.997095392163453
14.441913762768635, 15.616281726814021, 21.552730414549483,  3.872365657787980
 1.487459649409564,  7.418960585178205, 46.143829266335302,  4.111798174180980
15.436357071113822,  0.021943570501374, 43.412605604547210,  4.065247539353600
 4.626986126458529, 12.638692208502885,  6.191241143462341,  3.866227951694980
 8.260094705468592, 10.905506510929373, 59.859343567398781,  4.094202728674862
10.799215649184003,  1.184236924002131, 56.458915575846802,  4.160599087777685
 8.661433191240503, 14.982342043190656, 59.260259588395833,  4.163772297353405
 0.650331925990896,  3.646444340739676,  7.826127563113392,  3.756150237214262
 5.032616925788746,  4.916503323962068, 25.564474068765495,  3.863235781883609
 2.935498627669776,  5.624966119996667, 50.182847136538484,  4.323400316363776
 3.158940335449293,  0.276012257001694, 86.546340178189595,  3.659514308481776
 4.345720748964979, 11.844719142315983, 39.600575966544966,  3.675931743133850
10.753705114401850, 16.811520100290650, 105.599134021618312,  4.069309212383226
11.958556480604617,  3.333674110763488, 89.608219956400163,  4.191722564581653
10.137947594764176, 18.147409992591825, 34.256755129785716,  3.980950558689733
 6.686679801786361, 18.414855130763474,  3.359602495332104,  3.610370498164026
 5.946638991944354, 14.419424895691016,  3.014055900362718,  3.855059275099359
 5.714747755634566, 12.507995620797042, 54.989579366372659,  3.975612368080150
 1.287498808557795,  5.204926469643211, 32.129327624412525,  3.925534304046664
 0.714832669375813, 10.091185325392924, 75.230079887691531,  3.866265632467990
 1.128745856662119,  7.960505469081281, 110.095596971587455,  3.918994652601602
 8.915746954261589, 14.457676945933569, 89.046017026439458,  4.294086016004419
 9.516655839048845, 15.089431800849537, 97.730607069812777,  4.132567032366627
 2.959248403314364,  4.099244473164774, 19.132223316009398,  3.873825928492391
 9.406444746883382, 13.400172580070182,  0.983688462426680,  4.382621902100743
13.967472507743603,  2.488529678672085, 68.899623169434932,  4.169651412775653
 2.297890074753486, 16.151042733413149, 110.706521092422719,  4.220811228429587
17.040654966930752, 15.533232421815224, 100.142646633592548,  4.105545129122662
 5.991532551027474,  8.124449525956772, 48.883293805623666,  3.836677262398580
11.389591731345135, 13.174966517429993, 21.976556476088021,  3.875625339687188
14.658869367735138, 13.926228617315298, 93.514578309685760,  4.261043768505137
15.042020514396489, 18.646625695700909, 39.353868562237224,  4.022244527164702
 8.480608441526913, 11.817256129654766,  4.925446297255090,  4.293738361969540
 1.554084747946131,  6.051782938759209, 66.048486495617851,  4.150159216482262
15.071854852411512, 16.779343170387076, 96.704587742229009,  4.194980658323214
 3.628355241810425,  2.473340174903323, 82.563290372302390,  3.996090726958378
 3.639915997466984, 15.040134611831927, 23.066694720596573,  3.989036886799429
12.149585380207020,  1.630801071388716, 36.990039227301530,  4.347434903031250
 1.861570122779914, 12.631317777754111,  1.788143897857934,  4.278258108673069
 5.417820144965629,  5.417995056209620, 46.103376243153853,  3.974404087149662
 2.264822585304527, 18.121319266709481, 20.680234526803272,  4.064710078519989
17.831133797528565, 16.975247956405784, 79.208873165374129,  3.922419818852372
 0.363639143305559,  4.407580399658007, 74.683806365093758,  4.077944569696145
 2.178643946060323,  0.001997850673756, 40.954556159760422,  4.004080248377912
17.447680426433998, 12.654851885489062, 43.094292169014253,  3.714665466936049
 8.052698777942906,  3.030627099424828, 43.941338659955761,  4.025243305601662
 1.481709637718012, 10.637976283978668, 96.449077839494834,  3.780468521479200
 3.741832877656724, 10.485192763692188, 84.399600078491716,  4.047355089729438
 2.799365937665181, 18.684366041459686, 11.582673667747960,  3.474574869800237
16.253074293578731,  6.937609628433648, 102.612998882408917,  4.360784254782800
 7.755540426964679,  4.495796379154676, 95.201236031326189,  3.770806615684868
17.231850192373159,  6.975208320418028,  3.964709625217390,  4.016555271409569
18.648298969487033,  1.805084835683647, 11.273003371030143,  3.948898882397512
 2.291728983000503, 18.644125880272856, 80.087975527503374,  3.845828782870753
11.643062617819446, 10.201780479621585, 82.893930818535765,  3.904432595857043
13.670778418078037, 10.883980525143945, 109.424131780380293,  4.025352808147729
 5.649243208149058,  2.614749589931513, 21.497007678849414,  3.606562627363708
 2.071739391583624,  1.683358077201418, 107.643275579318612,  3.812710969481648
13.847581576185938, 11.381043549943328, 75.316720560681233,  4.270317417724316
14.016371951107084,  6.419493770816345, 46.626071191222827,  3.776791005615769
10.076494039655451, 16.678252000955332, 20.754007422637024,  3.927254534328474
 4.252369577690787, 16.151331769934842, 26.756665580534470,  3.794034161001509
18.394860684908558,  6.410882188023985, 42.443549886354404,  3.896862996796578
 2.368043158751168,  9.770689850256362, 49.432600355706235,  4.160715511473624
16.943211411312021,  3.628197069991598, 55.420531729761038,  4.091002245494493
 2.703552909837211, 11.280571914451489, 32.605084554665396,  3.913372894522884
13.452866877130603,  6.045005874338181, 67.001006853805521,  3.955863902108694
15.392671155628321,  7.044775674508192, 30.376774979680967,  4.242057870767623
 4.157736045448757,  0.989795307781965, 33.351535316586627,  3.904052947918301
14.307768172032416,  4.531974748552488, 76.026137429078958,  3.877392259438480
 0.562265164735180,  1.272597529027294, 18.043267494096934,  3.440853774845668
 1.159132346411419,  1.842887160184923, 66.357760331457342,  4.128281342025828
16.144179215369228,  5.281446969441668, 82.830513194484055,  4.117901132169045
17.081158462220092,  4.345013162162554, 23.278992112421552,  3.950275708958770
 4.586360618553278,  8.559781471902719, 43.685252281336986,  4.081832009392582
 0.291776055364331,  0.908426022310548, 72.719349960183777,  3.816833976037608
 2.141829649405946, 17.897156933540671, 117.274889998042795,  3.824505032434928
 0.755812381305867, 17.270317806157880, 28.742369758910634,  4.493978911615998
 0.954684378911582,  9.865441564590128, 43.129261060120761,  3.702764955485636
 4.325201214484775,  4.093947844579677, 86.368662833616170,  4.331568180004323
 4.793745669978688, 15.471665380288826, 58.148849391459358,  3.923734365567869
10.821733328189451,  3.454016800199429, 30.755286767156818,  3.661013684080499
11.656117606638603, 12.049112463487946, 90.860788100322594,  3.780479161714141
 6.665978422234613, 16.515292758160797, 32.802387909704635,  4.137306518356150
14.481558426196628,  2.010826344621788, 25.277032601655119,  4.038728700573776
12.131430546003456, 13.927571149600066, 53.475781065216509,  3.880047297316876
11.859332995367401,  9.349486881433677, 60.898575130791258,  4.013201582817314
18.942441521445673, 13.407765531260699, 35.031190949774732,  3.806095463183244
13.514703961057378,  0.241265236610161, 91.902570946564865,  4.098297536426851
 9.843139105174746, 11.124970113746661, 48.996795853069109,  4.140775989409119
 0.439519163978944,  3.591745456670878, 84.792157431823540,  4.048818192309198
 4.701435105167914, 16.504821585263766, 114.336755321175701,  4.404276001496597
10.702518553855914, 17.963784615357490, 109.937599578207568,  3.966342861756082
13.903132725905909, 13.415124795604664, 25.224308614836037,  4.245167339823356
 3.563346128374954, 16.885214204451955, 93.685814109943266,  4.156376729034885
17.575747831845401,  0.185170746534989, 116.563108298334342,  3.729946135561338
 9.796207991814658,  9.627303304455754, 16.884353277947291,  4.031786578697270
17.683249399893381, 16.659401490372858, 49.483884045269640,  4.484320675419232
10.755048792651024,  4.630422433939008, 17.666514655864070,  4.019484240375639
 1.631606724515941, 16.996486773242196, 100.731851402328644,  3.624305382528474
18.672413190444306, 18.709233659395853, 97.736310999802768,  4.221664159652286
 9.835701603665283, 12.296661848839086, 56.334050387566016,  4.091771810961919
12.589697105397880,  1.766366878381755, 63.221403659273420,  4.177003668409379
17.071265280662693, 13.494750460312597, 116.437031218672743,  3.767066316433630
 1.485702917352443,  1.074343569770919, 94.496861774762593,  3.501061970784368
10.126940563733514,  0.136874974155654, 77.256754608160492,  3.928458219554358
 3.559836247029722,  5.893456707230620, 90.740611916256128,  3.736264201819989
 1.792049128278663,  4.526616783903319, 58.632160942950378,  4.271899915328403
13.413470289021101, 12.371969636457653, 30.257556479319756,  4.029011995840206
15.984180659955307,  3.108393752289669, 88.864914948808448,  4.003482304615781
12.000394019246896,  3.134874383067536, 108.712146197137642,  3.909727935659093
 6.272623086807457, 17.886180037570558, 10.126064382643271,  4.192373389255067
 1.948910764893594, 15.685733263982463, 85.779041996133870,  3.955172906867807
 5.222290641465153, 15.244445524212740, 52.252654892198770,  3.752555975348781
15.761185484513632,  0.375568445977859,  7.892446263235632,  3.970411924090720
 8.173374234326744,  6.352762132181041, 15.129793186081264,  3.987617922687320
 1.123443257932606, 14.687454278063527,  6.156591785947104,  4.223039972226328
10.671002974697599, 17.848894355345802,  7.824263173135732,  4.133976150109897
16.836813441058233, 15.498076919174382, 37.620775162401877,  4.012242801775778
 7.709286826052413, 16.990378982808565, 62.785556532474040,  4.152745034353118
13.296002904742803,  9.756619891907166, 102.197419365912879,  3.780740900705964
 3.803808773843283, 14.712643822261050, 30.403012698214432,  4.020379182983904
 4.992286727662685,  0.820747033368410, 18.201001218870893,  4.000130695988675
 2.049167521584851,  3.471268685298550, 46.738560171835303,  3.895617986125758
 1.533256019166377,  8.409127864550198, 93.083105363956733,  4.088552369505846
17.069172939415772,  6.007012596252579, 86.657939338320332,  3.585722930398252
15.185128548931125, 12.245317097165749, 85.448075205399093,  3.822262252442580
 5.402059550024439, 17.934703982947397, 102.157138093290513,  3.911121699378235
 8.092052453188021,  7.605141054976697, 108.021316915072717,  3.931361898117653
 9.704778420951307,  2.851755937004141, 80.066512058768922,  3.911468301705946
 8.936617240485123,  9.251704907846888, 12.702235450026102,  3.723877332527360
11.676048632241557, 10.404188677762692,  7.348210264523736,  4.102710448319928
15.651108584932832,  4.375977739639916,  7.781652119575421,  4.011225377660501
15.511398279876381, 11.833322201610457,  7.065212009221493,  3.700020860770433
11.533838637056466, 17.812658635838613, 113.780029375835284,  3.866749182258015
12.182746070895512,  7.109937553455705, 14.690807765604919,  4.173478358989840
13.047799252797128, 17.239377639048907, 69.282025288976968,  4.045201483809479
 9.388204268055899, 11.265768668414385, 67.618173074506714,  4.130675388761689
18.050368604563729,  1.259742554027508, 58.572450709602535,  4.079787137084911
13.194232993024952,  5.687259654556341, 23.970533494565700,  4.138122937037727
 9.551624790431122,  0.963211775762585, 48.882070165335207,  3.917643047007146
 9.271282840006064,  6.886604039567075, 73.453735805251426,  3.801571531623835
11.522190353112391,  2.667437874593879,  0.979972776102959,  3.872338976961502
 7.040966322517742,  4.885569084007274, 50.976434626551111,  4.151856710571417
 8.944465381674316,  4.522641611982448, 47.452565729355690,  3.783887614278172
 8.491358125491443, 16.843321660972215, 85.314556999991467,  4.517478617434950
 3.298086210391291, 17.362942147676549, 73.362056665950576,  4.082608462214281
 0.333863315500975, 12.689180584007337, 39.537906361384792,  4.280235113890070
 6.922938994289493,  9.488234527440493, 40.715419636855920,  3.652277373804079
14.963228777253310, 13.373237847723063, 102.968000891837193,  4.114414361410613
13.015790216369229,  6.096138258407695, 95.673018052191466,  4.340309882611690
 4.688616813881643,  4.391795693369342, 35.430685934275402,  4.096386311474478
 1.919103774753293,  5.273201158437871,  4.614243338101978,  3.857832949909526
18.508679606077450,  0.032839997273770, 88.019154844022779,  4.095675865412563
 8.236215921877918,  2.979158866879026, 73.551615593434093,  4.251934381624822
15.524998731843237,  8.902726772749467, 58.457089034956077,  4.140917163773515
17.258150944561628, 10.832204908151317, 32.614149941988067,  4.014585462557100
13.360995100816139,  1.832424188990373, 95.685521807802473,  4.089875734340777
 7.997297580169906, 17.811794292116261, 27.252667028450915,  4.148056851981455
 5.204272532039098, 16.305742209920950, 87.941968463596027,  3.958545448374936
16.819098978190024,  4.948991059148913, 78.809312838574030,  3.631760520676543
11.436545432786046, 17.282333071023547, 94.838626701479456,  4.037900130034518
 1.967271877472928,  0.621177791849146, 113.549547216327738,  3.905465347225835
10.643023978429889, 10.371100888755516, 112.051612751646275,  3.646553763107184
 4.217077858948473,  7.656730959568953, 57.564441016031864,  3.906328142607617
 5.393067720021435,  3.625247915962749, 76.788825475370174,  3.972378654810407
14.680503228359296, 16.818900014151968, 46.626299837639799,  3.803865802821997
17.582109734771642,  2.977426659246166,  4.509651565599191,  4.080376298396672
 7.453783991201289, 10.808107444367177, 105.512706253658479,  4.016639019814272
 5.593983401164703,  7.283394187969594, 65.347343457845128,  3.930655047644262
13.028439881790003,  5.175168487971296, 79.941608721623595,  4.196557645155089
 2.627519435914505, 16.765867686288427,  2.735731130807560,  4.276792949332980
16.802622929688951, 11.093161922179217,  1.178960955568243,  4.145630940629208
 7.766338783620951,  1.395791790487410, 31.860074988381051,  3.939449592390514
12.170945323819415, 16.369426115391544, 11.333646824655156,  4.050372629620639
 9.665681211797432,  1.746923979896491, 92.867269610977118,  4.380831259142739
16.734066574611248,  5.141822335050991, 59.182704622976345,  3.884937017710205
 0.996780749180493,  2.707113292402280, 35.297183148334298,  4.016684368410251
12.586133174324717, 10.632699119938552,  0.812037420273604,  4.035167880507592
 1.233084334520342, 16.717333107105603, 67.011469001522272,  4.032630860218981
 1.260027246754660, 17.870252060344125, 24.577097861710104,  3.970660771245600
11.209327564170371,  8.798854288587794, 45.233874233850585,  3.966110842152238
 6.786416287154118,  7.965831190809620, 114.735941408893666,  4.094820146467663
17.514425786673840, 11.443602071104896, 109.971942380652152,  3.813478562433055
10.601802357891566,  5.659726754011289, 92.504803915776847,  3.670101217968251
 1.367475769558522,  6.620975138080212, 36.056079759019340,  3.973008998521089
10.600109283101729,  4.970206681704745, 83.295996518027252,  4.012914309808330
16.676584939139698,  8.768642022483414, 45.066340866564353,  3.917701866095767
 4.409632862683019, 13.938174913021562, 15.247292670661642,  4.209726869258147
 7.276928357780886, 18.687196350187971, 58.027390308887078,  4.011655704401480
 4.184177340131600,  8.198388449210572, 98.090695050681816,  4.084775738598811
13.798626497392663, 16.116021584713643, 31.639891403996174,  3.918595794953311
11.067884666249565, 17.690028499503331, 53.194125490429712,  3.949956167032930
 9.324663138283123,  4.836775842349489, 56.517327206822820,  3.667002852369577
 3.533582788495704,  0.297257342103802, 37.215717863613953,  3.959867915051535
18.050896895007952,  5.757569468703007, 10.729107902555203,  4.047186267249918
17.607457910599638, 11.148560627815122, 93.250548012391732,  3.842124683128194
 9.367305191295866,  1.127658902037400, 116.170089686225481,  4.008445475040937
 4.273336931590953, 15.628134589741096, 40.340537344213999,  3.926894646924856
13.853327403229503,  8.063956399879764, 77.443950872217954,  3.609444733804744
 8.057972496138420, 11.114838085915212, 92.152600828427481,  4.072058258707433
17.229879687726264,  1.524001838655443, 76.755802073557049,  4.064609834641168
18.384273956138941, 16.320748540460549, 113.844810684245772,  4.229374398849471
17.668180611514138,  5.135436814309055, 48.043440248589278,  3.951952345483983
16.918724165481176,  7.325422460106445, 75.563184741109950,  3.658318034360418
 7.758142474935013, 18.487557175630400, 45.757318890422837,  3.775530636568676
11.112680251463567,  8.846854318227622, 105.367384452725787,  4.002470390897662
 8.550297060919743, 15.336257437960560, 92.993386849674977,  3.826379821838546
 2.249586812695661, 10.528566589501505, 36.523792728715215,  4.060240312724811
 2.791704953447592, 11.725700125261431, 104.736953040282870,  3.826022060877332
16.372441515345603, 15.530423859078139,  7.564292157713390,  3.716409723209037
14.056146223247213,  4.649088530168950, 99.441637085677925,  3.986909690726426
 5.739173297861317, 16.967137646279994, 118.396662308354792,  3.860119485195086
 1.528649758428191,  1.879805196535393, 55.535450714241207,  3.782151800529045
11.281252556904814,  7.290044558225564, 31.465384263415050,  4.158411145562429
 9.987939070233846,  8.060463911630439, 85.777754841550433,  4.004438930332798
10.022964666552889,  0.954883201280286,  4.097240199019001,  3.824559951265496
17.052831486098082,  3.602866409748049, 96.013022240630548,  4.101819085941203
 5.365231718207185, 11.687238825648286, 68.565461511643321,  4.093302195708036
10.829772813820293,  8.649027846187824,  3.835603645747458,  3.884024634040073
11.376589500251663, 15.314319944109537, 62.671266660414609,  3.877728288817979
