BANDS
8 8
NANOPARTICLES
cell(1), 18.949
cell(2), 18.949
cell(3), 118.433
17.129151229526059,  5.296068319833935, 19.790874260750513,  3.960347089974566
 4.600415878657343,  0.641876600980211, 98.299858396485760,  4.098926012729295
11.673586318905997,  1.950502203964282, 117.231593793585787,  4.209467433886158
 3.407920948701835,  6.024558034059797, 72.453694929255491,  4.303370100932944
 4.954699835830501, 13.421203002230639, 104.133712299903820,  4.194199783500093
 8.580909478070097,  1.746754912263965, 89.376436724743968,  4.176282363932922
 5.704945860587626,  5.176367985174889, 114.214359228195065,  3.914387425059147
 4.048240768092278, 17.668608575289806, 93.099581195700395,  3.971957329541708
14.495885775006631, 12.499821150150227,  1.993891337473580,  3.608900317561060
 5.426976988392383, 15.495783768471412, 85.977010460375809,  4.066035373432176
13.696975095845662,  6.288890098970476, 89.917923835886683,  4.384747698526871
14.902965646405825,  0.487036132842015, 35.124789779576084,  4.057355436981286
 7.599256525567422, 18.921765415569244, 84.728121394155622,  4.025513208968302
 1.844211130286286,  5.586298713463996,  7.254640646691796,  4.489285816174758
15.708628437455587, 15.982270386913420, 20.735459474753061,  3.829108009502094
15.555636414922066, 14.310732015295926, 114.210100948465083,  3.921960151429111
17.829488996969282, 11.058447376042510, 60.529087917124642,  3.875630109182123
 6.987803282509333,  2.656058315648591, 20.171048428172593,  3.966288489084993
17.260420180240889,  9.751434058018910,  9.721208046502744,  3.944805536149429
17.585374270944605, 18.431190997941389, 106.850839093930716,  4.335626061814825
 9.617921467825578, 10.685743242071636, 54.656283827701692,  3.755794481346650
 8.140333135520738,  9.681142446146129, 42.201142723057210,  4.133349284278903
 8.923929801651715,  0.002336618365987, 23.647368442249348,  3.872480479171481
15.855614697487690, 15.378596608872131, 104.560791227960394,  4.015610720445942
 2.247667159154189,  2.754469690657341, 83.672442622665059,  4.139872058027445
 7.663055138711873,  3.190264449009332, 97.511712713585354,  3.843288864762148
17.421348955905842, 17.602974610970310, 117.305818051926238,  4.076773182027665
14.937262802846597,  0.927141204819477, 50.025651869369568,  4.114821149248672
10.462638484413613, 16.289949537870655, 78.537177915060809,  4.111999931847392
 8.208658221204178,  9.686967947914118, 17.924174016494387,  3.603958926943916
17.972288114408578, 15.814388362129986, 43.484161722355942,  4.033430073362219
 9.823336337514412,  1.307925386679229, 104.846911737493500,  4.165811872598182
18.125101170328648,  1.002781177798200, 21.278275800992326,  3.855446523789852
 4.458523784337105, 13.509555405084173, 82.771261526938702,  3.719024125542538
17.291204687486537,  9.995142943132223, 89.335417347732843,  3.804712803884536
 9.501481332733789,  2.808122855572337, 82.281708146673921,  4.366442793658907
12.994796796075791,  9.544079979398093, 43.478837361952415,  3.742067202516403
13.765055818801038, 15.827484680779749, 68.324839664737297,  3.969644114355418
 5.623084541687892,  2.698040814826780,  2.161160999137264,  3.917454241075388
 7.624871281243372,  3.637551161867473, 117.322501391733653,  3.976145159872870
 3.594602625608363,  0.644493217281805, 117.626611182627187,  4.265421086179445
 6.657952845156438,  7.884022739985238, 83.201587249739291,  3.742103185906008
14.129167230370172, 11.205825642823987, 12.089490651249308,  4.240104830467111
13.734610263302761, 10.491950129166515, 60.482590959106666,  4.132998171095307
 2.641817701280177,  5.653908111117644, 43.317319713795229,  3.907906046118554
 2.694331786783740,  6.828693131298660, 24.227054793681901,  4.106220105465903
13.962918524607320, 17.623145389670931, 30.825417201477215,  3.734497253227334
 7.103161401954337, 15.933771224235327, 99.117868502030092,  3.951557577980515
 8.164075379512267, 10.896023915083502, 66.254597804087467,  3.870428686643443
13.026937676774516,  4.191820851101628, 110.811036246939693,  4.277962008237600
 7.965315209190462,  6.523085816093553,  2.405003389780727,  3.847859125308000
 0.375148567004100,  0.063940165794567, 86.241867652248814,  4.100877678028612
18.319202914219595,  7.479358398229347, 70.302551519385958,  4.410850763304438
 1.386789241168451, 10.816154730903078, 57.580885369369035,  3.877816009281637
15.785035634471100, 16.019718400588626, 40.110360638495045,  3.966117922244316
 6.702957608292775,  8.540759524093090, 53.676862933646461,  3.741738601127072
 9.995236617978112,  4.000663598105154, 62.591141301206413,  3.925261170887544
18.836845917056365,  5.692899469050328, 51.567861511799570,  4.024141489905130
 5.661864023435260,  0.282278300382670, 17.162118078110392,  4.039215241343725
15.640037735271179, 12.486691798178903, 37.689295874564799,  3.880310636775295
10.398132864593139,  4.708868919722309,  6.167213015960963,  3.980080535186954
 8.295277939510006, 14.856961323375948, 46.389510893079617,  4.114602868364145
18.593827121741828,  2.993310091343208, 10.917347643523449,  4.032806683176348
 8.843969183117119,  3.330027593811513, 37.335979408319453,  3.966190627867871
 3.085435957727879, 17.051341203821309, 112.250527094705419,  4.162919864284006
18.249479699423858, 10.160637202715025, 47.813198990883016,  3.857463888475223
13.129984543994356, 10.070330072361784, 113.579696528602909,  3.859401692206673
 8.257215887729380, 14.733185063889776, 11.689757910446126,  3.905439989488545
 6.569771056602334, 12.953920136926861, 53.617937836435836,  4.092378853769080
 7.587495716777456,  3.659311274119472,  9.671419333537701,  3.881743002572497
16.722589637253247, 12.344037701821797, 50.582277527982612,  3.771309558572854
11.413938779234154,  3.758093000747527, 40.439552792792320,  4.092240163645538
10.828932913275880,  0.509732442274123, 42.799023408961858,  4.020544544731717
 7.392073016411433, 13.585099771521030, 42.706057346104060,  3.860549623895593
18.850810318631840, 10.229472534969517, 38.456851631278447,  4.094451248923997
12.938583725187677,  0.829926346971493, 113.547161027146728,  3.896126500435727
17.947489478956509, 15.108887651217474, 23.864417124391949,  4.034698789044611
10.365802024935507, 12.907857620473955, 80.751792562676215,  3.973462706543633
11.755340524292292, 18.169112315918316,  1.827162985824130,  3.870016560375151
10.949805405466563,  1.804388228489622, 49.563213513536091,  4.018232320122661
11.716460734878563,  9.151499215092322, 19.430672045733640,  4.016548192306121
 8.871259555098600,  6.537323557481271, 79.992712325613084,  4.457764607987134
11.667475788724516, 17.383343936517772, 60.657885650948536,  4.200369319451776
10.968805508002431, 14.349481178965274, 53.802238792918054,  4.120362718582390
12.953239897293003,  2.101258392622575, 29.011676221107702,  4.205447835831402
16.638855175422282, 13.602136974952556, 57.463777536944313,  4.431990628427973
13.551722653915332,  6.143204176058050, 70.389506502079584,  4.004339774512758
17.853508358738367,  6.997762350712254, 43.824309601760277,  4.084228491922549
11.831082006384538, 10.652572712126737, 104.496081653457210,  4.106214070731370
 8.901214246998340, 12.470126012344471, 49.925070404101540,  4.448495103897879
10.535277785805016, 13.693362417777028, 20.932483106998820,  3.758230279939539
 0.566674056936561, 14.979308620900195, 114.877395849134757,  4.202641427838666
14.255333465209498,  4.668707696596072,  0.129590865995838,  3.730925594352879
 6.374774237168656,  9.119609151998585, 12.733506649308488,  3.928227086943804
 7.388116470339564, 14.398327567831606, 27.861754255206858,  3.901130282535413
 2.813396692506799, 15.744717491712642,  8.096871557706487,  3.910401179780050
 0.131788569723989,  1.394345721482076, 65.928381205840594,  3.849509675374735
16.370694874458941,  2.630600050028253, 96.359186615392943,  3.873546144701260
 8.666860677662363, 13.899820110755433, 57.154361203585530,  4.050630950887215
 6.743521909046927, 13.101186195959164, 96.355509417223473,  3.943462890280893
 1.884860587600224,  9.543631181793979, 19.548123403692440,  4.076815073782354
14.626656055639419,  8.777686151811555, 28.837267045986948,  4.028180885887641
16.662069719856337, 14.160693058355760, 47.035244099664077,  4.194124014723065
 9.691150118671569, 10.706935355406552, 111.854893220870665,  3.820610453652562
 8.192369068449459,  4.122734966458106, 107.336980808864993,  3.965014422891197
 8.238357086999816,  7.065407423519910, 29.199183000865325,  4.141283988465368
 6.644474058211686,  2.825044872553509, 110.874858071996812,  4.135172659827587
18.221570523035375,  3.204248014182523, 108.579066311256582,  3.755947126393050
11.726703548113695,  4.571948743805147, 10.087915634219526,  4.078336976542587
 8.776558056395398,  9.527620480349954, 89.269956202930942,  3.818906747860114
12.470116798688807, 14.794646581705006, 57.644050427601421,  3.752909603728988
 4.867028267350454,  7.815645254636780, 79.779065491777970,  3.956901028712236
 5.744807264460482, 11.765192757999291, 19.961718264490276,  3.928518028582166
18.341801429100961, 14.335142760364818, 80.087540393537822,  4.133040267839349
 8.303297423371744,  6.327653837176688, 99.804800758808241,  4.024440404554203
10.209529878051480, 16.419860428183565, 107.877455401164667,  4.018155897472996
 6.410793611896334, 10.546757260558396, 56.979652145548087,  4.007405381966565
 6.482095528492746, 18.874100741247275, 36.832329270648749,  4.108625907242114
14.031523458747570,  7.672650744047351, 79.605290103530137,  3.962831733067313
 1.259810208516845, 15.850088696916185, 108.786526423217978,  3.968799281801709
 4.135533956183272,  2.257608152259528,  6.747749876870972,  3.575952748036088
 4.783834386236841,  4.383447612158693, 100.010062265316378,  4.006039150267780
 9.248481672197633,  7.414131459988089, 85.881646538420242,  3.771123502185317
 0.701403295478997, 12.886765920949738, 90.162450289514354,  3.819456832222792
 9.706331498238493,  4.897301731432915, 69.512181276780211,  4.128164010841727
 9.176481089873102, 14.493219150403130, 64.435190210781741,  4.427347692957680
 2.712705612113396,  9.782728321017377, 110.889560331116598,  3.863863974028344
18.063750564348126,  0.772998692294355, 56.487067590875313,  4.173391287568920
 5.766361437351976, 15.532232213437958, 14.997515274930500,  4.528044413420358
16.292084818071135, 11.323844739385477, 103.814563786364161,  4.231967562208893
 5.932996886718619, 17.397540365286524, 89.540344702923150,  4.073011732854712
 3.610820093796124, 18.415140597364051,  3.096232085637447,  3.833993564182363
 0.926264873281775, 15.185331211341463,  4.300503837207284,  4.231262523151844
13.594339889974353, 18.456532303297475, 15.334327841587490,  3.938206867964647
 2.537838379405400, 12.799188493524607, 94.347377600777961,  3.748110403741875
 2.618304929832402,  9.411353943997725, 75.876441233561181,  4.069811139436991
 3.121431605123246, 12.354061975581669, 107.789936636944915,  4.190716044188083
 4.740183487129872,  6.417655293669480, 110.548772513385003,  3.996173313545422
18.392619402498710,  5.371145354204065, 105.225733523312925,  4.226317713276139
 6.833551255646749,  7.493786077755215, 92.945860474090324,  3.785926051099946
 7.656620698914256,  3.617334916336346, 93.236714423550396,  4.129903175912299
 6.249586874562193, 10.592131671689161, 38.447986459749686,  4.131347215549813
 1.931414541417350,  0.386549790718429, 69.331259017049177,  4.043448017012898
10.493815347041371, 13.289604497525858, 98.281075891228795,  3.961972374772325
 8.324617194795669,  6.903952630752927, 57.206508194642517,  4.229267637254839
16.897491168280801, 17.327490243682345, 74.380020779751959,  4.086241237322189
18.193174536893533,  8.023669688626697, 78.804836606551703,  4.296554187955389
16.131940884912371, 13.183575665016118, 83.303892819497420,  3.980938400856644
13.164700075490348, 18.138851273438732, 105.771725473384052,  3.948447259387042
10.059158184357129,  1.143093272792298, 78.693504024486941,  3.528324653012882
 9.811402092756468, 10.609569083470149, 115.936851697052518,  4.317291515991935
10.917772149633661,  9.828073997816350, 78.259570801664296,  4.014128121255690
 0.792579479310688,  2.610250301162628, 92.192424985868158,  4.320675136961799
12.928958241067802, 12.378552519414836, 34.634060112039428,  3.925560775661376
 1.191040009217949,  6.529082635755209, 108.723737320182451,  3.889145257625386
10.641458159273331, 15.282165190331781, 74.323824043067177,  4.309699001249968
17.290020999335958,  7.872962220179852,  6.121833656016628,  4.163519685410933
 4.807508135872485,  8.378840968653318, 99.722687150053616,  4.003621202051551
 4.907105402517772, 10.610164762713890, 50.455591572235811,  4.368985830675450
 7.738079983588935, 15.511248900559901, 93.016076990089033,  4.507742264436283
10.109566989396191,  4.356047757897707, 26.668005969764859,  4.027099383338488
 5.335922526738733,  6.013076908134717, 89.337108986646285,  4.476092501020433
 4.165818910530496,  3.894772476493674, 31.372773399295863,  4.338022401614458
 8.242081136921659, 12.015150584579981, 14.860773254651548,  4.072646838009804
12.524763970683836,  6.724785742103005, 75.992946674724593,  4.043442440258267
15.870164370700474,  4.654479643488988, 77.455555613584139,  4.307082560158972
17.843668051164521, 15.974351108218974,  7.790146198484321,  3.959638455585123
15.573089697496535,  5.840290488896581, 38.520735722751745,  4.341892294411572
 5.576567141535915,  1.959168934306823, 104.735444330664080,  4.036763909288135
15.549882325870072, 11.376193388976130, 79.734520157602475,  4.025898491541736
 1.658860781124422,  6.569088365340860, 81.995673247070997,  4.218531306601924
 9.694184919596701, 10.536483873956458, 36.126423698483713,  4.081949341246648
11.084801769869541, 13.890792587945684,  0.411753727704370,  4.362727981875297
14.399507115789095, 17.361686584731956, 43.633158729607608,  3.741440000537563
 7.265721282958218, 16.217708273926014, 76.301131517868953,  3.650237083596046
15.588994496464849, 15.302596456305336, 94.322562141238691,  4.034379694412663
 3.988417054868056, 18.053388218213126, 83.206991618204654,  3.995896746297976
10.515414568142118,  0.792462325163211, 110.289887910097960,  4.203116920866913
 1.122004680884966, 10.518365517805766, 24.965161585072206,  4.025217336567835
 7.846718328131554, 10.613706906820349,  1.192835236729035,  3.997898129615375
 3.891540462698903, 12.134287661493238, 87.842546114409004,  4.152252094048609
13.937054243408898, 16.544170735692706,  8.006890777734521,  3.906857425157069
 2.525685760068996,  1.927643486757835, 62.925493185024351,  3.822167563052269
 7.978666633100452,  9.637657171553283, 97.679549535286569,  3.860618563148699
13.151947220654780,  6.830353725830093, 12.958860394929800,  3.703882238457357
15.213634220555299, 10.788320477726979, 25.418582426518217,  3.989767910213945
 2.625651957049188,  8.020355399964874, 115.779370758235814,  4.125527974788979
 7.656565310642735,  5.804471356197301, 33.116128534990708,  4.035028887587639
 9.437225337880825, 15.577912601298790, 85.875523284848953,  3.933839581680716
 7.000774724024227, 13.297968283699092, 73.874961929813452,  3.916379205990460
 9.115550390917338, 17.530096610377061, 39.483270232686472,  3.727004687687682
 1.081822697306330, 13.289367220207259, 64.581146837547024,  3.969964232785405
 8.788820176350665, 17.904514353944830, 19.674827453218153,  4.313356354138682
 4.018413348433165,  1.708162546543101, 113.729180560376676,  3.847446340526953
14.423347171915157,  7.166458881090112, 46.352823477114114,  4.171404002938601
17.793426819690506, 12.410778951223307, 41.553165004650801,  3.764326525532789
18.192304326254465, 18.288606465842800, 78.775499341118859,  4.199352858310334
 7.184121159470189,  1.077682413979487, 75.438695252902093,  4.134623584021231
11.888210472914229, 14.128528396618625, 10.320932046642820,  3.922278590416326
 4.540879758128103,  2.216203547918662, 66.524290470875584,  4.440413379297535
15.671476736730259,  8.562162189735970, 50.373727753713830,  4.023987626813998
 4.372508207873942, 13.527429652896584,  2.220402233693532,  3.991647198392260
10.100467714851849, 10.367183526364606, 58.486428770979607,  3.939839645477266
 7.419024513576195,  3.914074914958554, 85.913946246915785,  4.126668966170120
 6.986771737723942, 12.030200445767536, 60.675382848378703,  4.027335243292749
 4.061843837993451,  4.365301640103278, 39.636004095829051,  4.340519970996945
16.016537747993912, 17.556725717240667, 59.299332049046754,  3.748424001785538
16.399474425899935,  2.346364180486539, 59.738288288949349,  3.742230180375413
17.123351469726380, 15.581920415107207, 86.271053438428055,  3.876686075189431
 0.258677233592509,  0.598156705086193, 25.144677778491374,  3.895464209015398
 2.632250117483403, 12.237872401779663, 61.056819121922068,  4.003824521409706
 0.069125579424597, 14.475734595018087, 38.628297471724977,  3.773048238204255
14.933351811853239,  2.786326429804684, 106.420448152036812,  4.153727748676574
 0.830762861571305,  9.713966295478206, 51.462764185114381,  4.081190533269149
14.051518308646559,  9.492054514974008, 72.529668106171385,  3.999758803661493
17.819050026073981, 12.210942873230788, 93.434020640151630,  3.772516864874595
 5.907858094667862, 13.653718555556832, 34.653099123802399,  3.701162390149839
 8.188878595710854,  3.231940850118454, 16.514598064731036,  3.812756753269330
11.425688667555855, 12.145038694094460, 108.703320613263628,  3.877680885082413
 7.275240682121661,  0.304812374193168, 101.411470251499068,  4.117596870923260
 0.835919265935193,  6.636623669733986, 16.995443747076326,  3.775878815316814
 0.426235807148053,  7.850800524218033, 55.059132854957596,  4.051136136947852
12.198117075254993,  6.202624835810147, 99.034456766725825,  3.918000443323614
15.095565934148434, 15.495030060499559, 35.351325179574545,  3.771567413066441
10.886468475115274, 17.280237073527250, 102.056614752959590,  4.056676408387656
 2.955220620945357, 14.861297199288162, 32.549283164188125,  3.688718240541548
13.459659403450894, 17.391276936174222, 72.127013119708721,  3.986751707819713
14.005107588414459,  8.212601421426102, 116.790379750938428,  3.745763362425125
16.575842794762973, 10.921461875227809, 64.323956771137119,  4.097220277644273
 3.662005476786211, 15.803712136500316, 96.774722959527736,  4.276349626968472
 0.399359893421631, 18.082215935256649, 40.341625669656622,  4.182390317342603
14.864448374939307,  6.959535735951451, 16.406196128187268,  3.967203746088748
 9.928474943916500,  9.659450715604370, 82.900757144818385,  3.722805951768486
 7.032611464334740,  3.952389799494075, 50.864521552636198,  3.736743429864980
 4.502043328203867, 18.444679223422330, 40.411781139751845,  4.051964575905844
18.656886210474408, 14.103899679112715, 96.926211600593888,  4.322712654734474
18.807597438362581,  2.217241029408778, 76.036371662308397,  3.821646285280673
 9.512560287391192,  2.838665539459801, 113.803241595481666,  4.053730736727092
12.497102001880203, 14.833469474808430, 46.435561267643564,  4.265425850403011
 6.662298834323614,  7.516161807361723, 117.269485413610056,  3.992626820601222
 9.378474897217439, 18.637819213181579, 63.794446178305776,  3.960802244242607
 6.905322552942328,  6.905436616752970, 15.890062390670511,  3.603373754418797
 3.111818420234957,  3.232395702492521, 50.688753034925689,  4.236364284052558
16.532705859442796, 18.894790112573396, 62.910895580019833,  3.989270436888162
 1.302040356502701, 13.640732311666898, 69.594494016142008,  4.252549831145890
 0.504595740388030, 12.961460658833646, 111.358521026828981,  3.875777914254392
 9.483206826759845, 14.537642184584318, 111.365366665067015,  3.890365524481369
 6.033391682167565,  9.063548459051322, 86.737361034340438,  3.653413092243608
13.686342650810559, 10.404342731881417,  5.562103896140489,  4.393981286635432
13.829153558704292,  1.694834751743434, 99.092961206970415,  3.713204910697270
 4.573454636923747, 10.304174104648313, 16.281819581567177,  4.319900460866680
 5.133189044947867, 10.021719381699100, 63.772047970185000,  4.123397045404045
16.977132220300081, 18.275407539370292, 17.904345647026020,  3.882461026126793
 2.179894250612019,  9.576668511985790,  8.793047330026750,  4.015701618959586
14.209124387268851,  7.696161346505312, 32.783790069571104,  4.134112462391179
 4.977689846507662,  3.904988702525520, 35.525826572804434,  4.094578783382097
 4.339610276720063,  0.117623962670584, 13.563728538730849,  3.608356968012183
15.845218732822540,  4.389346827005896, 34.563268465886750,  4.041390798221173
 1.294131562084605, 18.819339673290390,  6.197572389806110,  3.919360299854811
14.303137764003754,  0.705361592502403, 20.431693762145443,  3.975971386687339
18.404914970417639, 11.707498212722246, 76.901475535492466,  4.006726328709658
10.353202751054440,  0.270986430837204, 92.838412087033277,  4.066758419192744
11.282322363627674, 12.505498667357626, 17.377626448355233,  3.864818136553882
16.397118250753635,  7.636418346040521, 61.878916216245607,  3.980754797913033
18.021982349180327,  7.990063732372886, 30.961866669550627,  4.029810320157989
18.115827985686018, 17.328487530808331, 50.404318686919169,  4.044665166269850
14.728898234112673, 13.653312037732871, 43.312444779727542,  3.714748572998058
16.955326613218265,  7.109613129792266, 65.880083078402762,  4.154677367753541
14.557371211291423,  2.709654942209947, 12.476842832373105,  4.186483402068132
 1.812499244363838,  8.422203346083609, 87.864263049333957,  4.355466430263956
18.132810399817402,  9.183042194107738, 74.000055694218943,  3.684841825493552
10.261072726132234, 16.057079751532591, 70.181792432044119,  3.942478945456555
 6.476903114421622,  0.791096496534232, 29.981899769177929,  3.859382799686905
 4.747287870687271,  7.851687556157835, 30.739762998381163,  3.631922395554805
 0.364623369967514, 17.388617631781745, 103.243516513644252,  3.910764526680626
16.648038430514202, 17.735258082304899, 97.347703892066875,  3.945564341306264
 3.814411159645803, 13.249483752919190, 76.233111628332466,  3.975267142604721
 1.001615872979988,  9.199653362250048, 94.780867419100261,  4.079009546986151
 1.724411444315031,  2.023829047817287, 105.782982687967618,  3.943439897715017
 0.528015362637555, 16.524696053887915, 20.284470427194389,  3.769319775686157
13.367404431065280,  2.632893481804645,  4.451241535765339,  3.597997452450867
10.994153282326028, 13.175112624145331, 91.082673602135841,  4.068907480804534
 5.610380954746531, 13.644368332724312, 112.433607863991739,  4.306363603312911
11.381885091645962,  1.551736313802326, 17.847759908567440,  3.877935712261246
 0.545595788246204, 13.060096687786560, 54.451441240317635,  3.934212947803255
12.278032365922272,  4.112221088438708, 79.451614121802024,  3.964908527794570
 5.929005790926009, 17.390418571392686, 25.701404547010434,  4.024874910796729
13.236160680523847,  1.919375932866828, 89.823847377831100,  4.201840955612190
14.236752227412339,  5.360652016308865,  6.950092083154757,  3.912136159326578
 0.436377770716665, 10.228674561020199, 67.241217877277649,  4.086201083014441
 2.678016061400629,  4.890305969011507, 78.536064761338693,  3.715864636428775
15.779267283110917,  5.018733935729829, 29.436890194308841,  3.913560279367339
 1.538223392575973,  5.065294473435318, 65.519153710287640,  4.035439442764847
 4.383975075249542, 16.475825364210539, 29.360249207961651,  3.981754111221911
 9.727466701064149, 16.080542024458889,  7.770337208945960,  3.803831590801390
 1.967358743652294,  8.860488747097664,  4.557807880998504,  3.946864556356362
16.038050479954769, 14.187099616670604,  4.905114183284593,  3.724289984394327
 9.471266197235790,  6.786350642050044, 65.419540436879075,  4.018669980745246
 4.369109173704777,  8.910356509135470, 59.923628998161995,  3.828784010674929
17.167980914869059, 10.513365735654659, 113.736245347931941,  4.266475955009923
 4.955207829028725, 16.453102494529144, 11.116517625985910,  3.609813031259989
 0.571588518621832, 13.099216390429879, 10.211933829510009,  4.176819580588236
 2.008101846278543,  3.758566928427416, 111.222007493005719,  3.746201327843729
14.660213413877228,  2.045557744416262, 42.259669443458812,  4.015075387718768
 4.737978807469178, 10.172951149146641, 23.409959652558364,  3.864267359002513
12.329516519526120, 18.294623950589184, 52.448403325686598,  3.672010233406338
 5.629460303329477, 12.353792744768123, 30.908523926147161,  4.236301528470308
 0.871749132599055,  4.270836792177435, 27.386964981122933,  4.167120272360628
12.929814140357337, 18.879694374327762, 46.753279653264741,  3.794017041234936
18.729827851607549, 18.795174586840925,  2.488087245264216,  3.959358279325343
 2.517169115724062, 12.584621435241068, 28.166687447136958,  4.070779410675071
17.384660534568148, 13.176357324298516, 107.755335201208453,  3.925375551191961
13.380613637981467,  0.138894357925465, 95.523940771845560,  4.006247687912802
 0.170524716662070,  5.545446056558425, 85.516324964610263,  3.687883125931045
15.004847478002960, 14.056405133247097, 53.613255372447881,  3.979168139455227
 9.525012902641739,  5.739513663923373, 89.996100056209059,  4.011261412420061
 7.587813690496996, 13.614577187509429, 88.879588913017599,  4.015338277785468
15.923037452100919,  8.581262408228254, 92.870460592655832,  4.220770390469887
 7.201425479001207, 16.601869368635796, 32.382437553686280,  4.154196886978206
 9.762967625157861,  5.955449959649337, 53.313122367369360,  4.242201512066332
 4.236663072015381,  6.173205450936396,  2.981876115738008,  3.728770636126513
11.278086338684217, 12.798367347246714, 67.625051395116230,  3.911322824446196
 7.815291985281123,  0.108176438338859, 11.715673870816948,  4.211715618944557
13.589506096388465, 10.331184924753558, 90.033834441963478,  3.702073573499848
 6.271485508444933, 15.147793099995177, 108.423233314701491,  4.312707809892332
12.300133146518318,  3.519572871323657, 45.229757182725841,  4.080480498474351
 7.616451549100286,  1.821572536140004, 40.653490895905229,  3.710336282409293
 5.822041311775850, 15.326955327722382, 50.322287441737764,  3.961080404617156
 9.843741905151653, 18.802618410791052, 98.170237573389002,  4.195210159315484
17.289147392673833, 13.626146595574461, 118.071670965200212,  3.997218980537662
 6.164399291168514, 10.411814591797237,  8.679746381564003,  4.105775361401162
16.832826317681270,  4.600261591696212,  3.316844555493046,  4.463479359034557
15.225795522957700, 18.887785079198196, 86.666004541696324,  3.658550571237256
 5.064795537257974, 14.071479891468490, 63.652850353839817,  3.943139223676348
16.314687805915764,  8.762000675615088, 57.632676498497908,  4.102873256459986
 3.076046823090455, 16.032282687291161, 79.909484863389110,  3.942919906810202
11.520214023845286, 17.827511205719560, 82.407095055648739,  4.441394854449308
 7.430135034289348, 14.205453692793249, 68.201957978191757,  3.885060917102783
18.078409321477931,  6.187885665605893, 90.238555614365879,  4.083652507724846
 1.763050028013093, 10.985155597962262, 32.294586973151475,  4.388881196149087
14.037750443955138, 15.058652145130290, 80.459330095934462,  3.967335428744994
11.730944048019934, 13.839411891307691, 114.501820998048473,  3.725693168403507
16.518285849231603, 15.133902507200668, 64.249225204089456,  3.957485694770142
14.610405479362312, 10.241262180001259, 107.406758290213290,  3.982753946713990
 0.761395805301990,  7.323607955181089, 59.438274141871617,  4.096246907054852
16.705809738627199,  8.650924101202355, 85.641646536734811,  3.792424791397085
 0.475607744257964, 13.181482517522277, 73.470088236326404,  3.709388469389495
10.831791122736556,  9.001499354012797, 68.312895385707748,  3.752384039234184
 3.047097607826619,  6.615843322751116, 103.025727045571870,  4.229557921315180
 9.878654532044337,  0.896486410772250,  8.383572334513607,  3.735384606296032
 4.508918823013147, 13.393510092620971, 47.033198741383373,  4.089197667033543
14.476814366983172, 17.552211352791524, 55.637871226684645,  4.157578946318212
 1.828061722834085, 17.719695200845099, 16.494001395913539,  4.284539198638515
10.985377069930996,  6.506109292680711, 23.313484809462647,  4.089092724345241
 3.715988407859441, 15.283618488821823, 43.215989814900979,  4.211481389244398
10.331193236266373,  7.872987700653599, 72.241700401140491,  4.039951555562340
10.769404711155318,  8.933808785368401, 47.005701212643686,  4.034231802478815
 7.354939519083272,  9.467273106040091, 102.531933282204534,  3.870680063876107
11.350152768426687,  8.538898960998807, 92.841143249476204,  4.324085722190394
 4.170251619871595, 14.249352395333204, 91.218280983692836,  3.832103836114051
 2.394248067070437,  1.206668782998753, 37.315342653917881,  4.163509382999957
13.470812471593804, 17.011351682231009, 91.428523218387184,  3.904404196191404
 9.074920832059069, 11.194935169845980, 29.189368905156471,  3.800971631649973
13.256215649550995, 13.058044376595713, 101.377107538925415,  4.255555482851929
16.258136647285404, 11.306411003284794, 32.632975412056950,  4.131682467141696
17.880315445546103,  9.699441837034161, 109.704476444904444,  4.060294860737966
17.537470257798478,  4.812511586509987, 14.351088465828694,  3.988821762438898
 4.173958526053798, 16.644221839600561, 101.713218985678978,  3.979738509381521
17.613621536703359,  8.215516074612358, 35.093902069459226,  4.123301681630675
 6.348744412090908,  6.762971223727411, 44.718476729255968,  4.322178780082592
12.925729632101708,  8.402275384507815,  9.237617364358652,  4.089464320261494
13.760816360389606,  1.604522475707891,  8.202989649606669,  4.019943954729397
14.089573850068371,  5.990641479635752, 42.443335995594609,  3.937602433609526
 0.993157449192605, 12.481833407440027, 44.950008332073509,  4.241500323042057
 3.099775814570259, 18.134920109828830, 49.824242931418361,  3.913037423903314
15.151823573655236, 15.162885940891549, 12.197819191301621,  3.829672151347200
 6.244853985492856, 18.229797686991152,  7.941020577120025,  4.100181504547718
 1.767101847934443, 13.845611945506064, 50.402673927210152,  4.637559735220675
 2.528035234821876, 16.808821591427304, 23.630052935392591,  3.793655763236383
 5.638296134239679,  4.296217623786045, 82.146671450196109,  3.907364881154529
 8.318381620734531, 11.922174303941850, 24.858555639483416,  4.095396174899624
 9.566654514529910, 12.411687559877766, 39.664550827249769,  3.813472520273296
10.906105483577623,  6.536701997771044, 35.704909158232880,  4.241150346096461
11.416590578218416,  5.252471715642524, 16.173506796630587,  3.688096901797021
 2.036333347705293, 13.592821165358870, 15.804720268007586,  4.025134927041177
 3.922012257565369, 12.045642674839327, 66.948464893432316,  3.775006542996634
11.107548133808539,  8.804073039367355, 26.767352067880221,  4.122276061662443
 7.766485640863950, 13.087680726826333,  4.349776684600283,  4.019225191118461
17.792291691678052,  0.766716580040579, 14.242202327723415,  4.112318679648413
 2.420163715011378,  8.562751080549623, 46.003552243803767,  3.998188612777918
 2.687036780668079,  1.472001214180111, 101.912305251430226,  4.098817647683810
 1.248156703908979, 16.046360048935043, 46.831178443809826,  3.815887498563578
 3.040805051413616, 12.436950656028518, 40.250310086440564,  4.092996996740484
15.828243156928327,  9.164199363305809, 40.955505734299621,  3.882800560641831
 0.370258491644379, 18.638527069691254, 82.421024799001827,  3.461330833776008
 0.044661990967207, 11.657847502021498,  2.557031567624691,  3.816510264888692
 0.626299473264229, 18.855289286999483, 60.183335752608308,  3.977622074444040
 1.851263537561792,  3.925296686671065, 88.468726943086537,  3.795609514518154
 3.484507202693042,  6.941011931503223, 14.221192201465632,  3.853826789900534
10.049590468433561, 10.340770596655844, 11.548457758882007,  4.169835682288100
 4.056541301827220, 13.716817739639801, 57.604162190406051,  3.985183376486470
14.746052089000724, 18.431594025968035, 102.118519821212757,  3.987839579377263
11.846781868528661, 10.696764851671627, 23.177539401033886,  4.092181610112339
12.392243127566214,  7.117759451885409, 56.363128850850394,  4.070395429026489
 7.224850053284772, 18.535346437332549, 68.505246208958198,  4.009751706232457
18.582866005838564,  3.532578515578761, 80.275692258216608,  3.794202509071719
 1.930639167044466,  4.039542807141526, 54.704819052363362,  4.152876208385782
 4.039944902973168,  2.619777344906250, 94.803545894698459,  4.001365693790179
 7.064149831599172, 14.931748296582823, 22.203676194905029,  4.008599710494892
18.480900126842020, 11.719251569056539,  6.540613187137405,  3.906729577625305
10.017681894303049,  8.500277219345273,  5.031667809619342,  3.896749651694803
10.695214209417641, 13.498036044452169, 60.734672137231463,  3.803789521109631
10.755963861253365,  2.832503132961934, 21.596875591683432,  3.967336380412555
 0.833313699968301,  6.732766521191225,  1.127665336826654,  3.944263104025256
16.923985835984251,  0.172334735917031, 70.618145205772805,  4.239601917656381
12.405552836558861, 16.169607447923024, 18.489395563709170,  4.040866292632753
 9.364031094498367, 13.050540883919524, 32.802728692607076,  4.188927767244427
10.183281018610575, 17.196137503801843, 114.020624446670112,  3.676012690743120
 5.758981822563661,  4.806665034963769, 69.428009789349062,  3.684068229713222
11.042429697233352,  9.065679334741226, 15.376822725706333,  4.088877378186895
17.894092050157216, 11.477590959288250, 100.046204773660278,  3.951785308040151
 3.736736174222415, 17.894439168650464, 76.364791684724068,  4.157874966817331
13.131807111418725,  3.776260403871838, 52.309478093451446,  4.027608063892407
13.105076371413201, 16.141960521373836, 111.733194171919848,  3.946779053718644
 1.021460770328097,  7.390583187525841, 98.499248081244431,  4.189688252033017
 2.074151105341254,  3.458240992633290, 58.810733213012639,  4.114945837113043
18.178526856930230,  8.070073711260186, 102.124015736233957,  4.007602595990412
 7.861432916096859,  5.771555619040950, 40.899532575486774,  4.116353096969414
14.850233890562263,  0.448386339324402, 109.984098398015092,  4.185541403270034
 7.396929395577422,  7.070079344622185, 61.856167684180690,  4.232931318199371
16.803325447448458,  2.566155134331195, 53.103265491811868,  3.570536688969114
17.404581932853006, 11.543138776609345, 22.282168864252142,  3.806176527509062
 5.616299492174625, 11.961944810795419, 116.693412050271448,  3.810986979601631
14.500785110464541,  9.102579906976237, 100.686605130712323,  4.151928299876127
 2.154409594722016,  3.151820367427362, 13.998581503979750,  3.908952978609274
 3.443472596137517,  6.987622940652097, 52.518329274702268,  3.741105446280703
 8.715143267892373,  2.829248668879915, 66.157497493537861,  3.994177255623003
 8.633417775135708,  1.109463600130481, 60.135811796001505,  3.954067293062548
17.481129989097358,  2.648324415907426,  7.048174842638055,  4.045656157433410
14.123118790725362, 11.025088402452644, 47.550716849506721,  3.929148006770470
16.492810562085165, 15.110236992771533, 71.076076794222203,  3.878400674202544
16.491826531893938,  6.139648379500342, 82.434795261230960,  4.079084994132463
 1.057740289739948, 18.922806499316373, 95.493434661920361,  4.084269729770979
 5.287844337256469,  6.141884354097336, 96.380110089395615,  4.062284155212970
 1.674667867338271, 14.089667454610394, 100.392534885389892,  3.633694004904732
17.920123277984306, 10.828558992483757, 28.241667741652829,  3.812086904995550
 7.302589122023069, 15.599182083769593,  0.456012576232378,  3.926208982352053
 0.011946444536051,  1.541408940358351, 34.092973161529450,  3.854989294813570
15.523191286300104, 13.276187829521573, 74.502141745712976,  4.116830266381917
13.309565413143888,  2.351244453961765, 83.802985432958991,  3.853069495748004
11.516675642239216, 15.489122440329911, 95.067988531362204,  4.085870085053006
 1.808170497807553, 10.249735565224313, 12.888437629220991,  4.000696248778134
18.702289174504514, 13.979193354067737, 34.680573564399992,  4.163246495603934
 1.930250816887216,  8.265617111668242, 28.171657007110998,  3.951252709577577
 3.430405221529791,  1.061912039988590, 27.485713033105323,  4.034743372400068
 6.228285036904279,  9.238061787449290, 73.160043667811280,  4.336332119309030
16.946773507705473, 15.362302414548056, 100.632848327608428,  4.119872545614400
14.371009174482673,  3.876805944114016, 102.411723783856814,  4.030735983383068
 4.828284626674163,  5.499784317666873, 27.478845802923701,  4.112484490747964
16.146334431737934,  3.434533954432967, 64.570222781521039,  3.770403792283696
 9.093361219871568, 13.536978901223012, 102.166416791336417,  4.203431707026206
 6.280258044941132,  5.463832172926491,  6.308160289091762,  4.185309170149090
12.182526050250308,  3.404087384060666, 33.055367572817268,  3.996382105873042
 9.608018610858231, 18.880098862202647, 27.613394362786874,  4.177210750197535
11.275666758260332,  0.534595676058112, 74.903965119940906,  4.187193862366979
 3.155089117699251, 16.040425942526429, 36.410405089310572,  4.388005698386956
 6.870074554025743, 11.053131297956847, 81.043958321018863,  3.927495696740082
16.374406154450078, 18.035837877825060, 113.550551482636109,  3.762917913635710
 3.230401694502960,  7.757677561888552, 68.722452796181244,  3.902661369931443
15.790311504726604,  2.135876653310482, 116.007098279123184,  4.033320983368674
 7.494440343879437, 12.145236765449052, 84.875583644747621,  4.094185997189468
18.735694517719285,  2.952122439682442, 42.083910589619983,  4.292311762293446
 3.696845780905035, 18.931352245961705, 33.191886999686893,  4.316194917955188
 9.209824845033143, 18.117386847167985, 15.502851758811573,  4.071106468799452
18.837211942275143,  0.086985833869908, 110.755924458534764,  3.931617090674043
 9.268049892491620,  1.766208703896148, 53.262520400573898,  4.092594860538814
 3.628104326720941, 17.321806628093253, 105.768224388811149,  4.239038050098809
 9.288446234992966,  6.386672029945062, 12.845225139002348,  4.057645411118549
15.787754792196312,  3.877045828185370, 92.656703966973339,  4.014658029611678
11.924222730941903, 12.868391806902279, 26.690822255150334,  4.118797558169526
 2.190966049085751,  4.194928268918671, 69.180766712025004,  3.563054190335128
 8.932281134541446,  0.053527724527273, 46.428481708239303,  4.212741410567912
15.666977640325985,  4.767085504238246, 49.466662335921846,  3.775783005788467
18.398582370170267, 16.723129110956311, 67.452071175803596,  4.078204119757991
16.039877855244168,  1.814480383764322, 31.589892814021113,  3.823061447403779
14.029061092071618, 11.966062391967881, 116.819391563147860,  3.722586180082144
 3.569648686020805, 16.018447967530136, 53.955122011377647,  4.402589799088155
 6.006475277728342,  4.271248890970499, 59.237530960703396,  3.851329108148511
 5.639472622911854, 12.328263694358183, 100.180544845727439,  4.111052926526452
11.895421839566808, 16.001954160682903, 33.460794038707036,  3.694787464504449
15.583091028591150, 18.458225878281418, 24.000075400275154,  3.974449082123458
 7.602864411384577, 16.151061702969727, 60.754935960718257,  4.193362150112904
 5.119480458595240, 17.451472228134261, 46.458590704752531,  4.017282805718295
 0.181915134402954,  4.408694417857878, 101.443958380268043,  3.656032316742990
 3.284968296369564,  9.910090900975929, 83.987743001555756,  4.181857599066244
 5.276187722186206,  6.473793530799933, 76.083203655192349,  3.863658816919957
12.304084153652823,  9.587526170199961, 96.868027157849582,  4.112534848116240
 4.785203707980044,  2.381480133636971, 43.156599241143958,  3.869352250050986
 0.389842752369241, 15.832007843983201, 92.834660975742182,  4.098574780643796
 5.587038034281877,  2.626330409804211, 47.194387520211976,  4.347756626078504
 4.431602873274546, 15.630734548487487, 19.138869897970125,  4.137375579588557
 6.759566756250432,  2.419041795472826, 25.802945359596219,  3.886377034079383
10.336153563423641, 11.987707643683725, 44.572507200176602,  3.793610923671853
10.494088134866191,  0.024108639188025, 31.568170887890872,  3.778295924522789
 1.404966967229256,  9.557843181586223, 42.311810638547350,  3.631088372981250
 3.492278120107305,  5.646050128609615, 61.998756280575790,  4.073748877118032
10.586428047416195,  2.622917553545010, 13.471892882743582,  3.987268211150667
 2.001116396388243, 18.406297982888372, 89.836750618917804,  3.863779623259792
 3.466503095320768, 16.043987851336603, 60.696116023426477,  3.811712942020158
12.154927224690216, 16.929632080216660, 22.504450545352391,  4.084975456758174
10.367766127073972, 18.144269821468924, 56.640582661859710,  4.361880036021516
 1.099224104251967,  8.773463948698270, 63.393343536831033,  4.241685934109507
 7.389636086013103, 17.476847362280541, 42.991364996815683,  3.870909765233570
15.195698649382356, 12.887435162699184,  8.540626014030169,  3.886806622241362
14.573450378308181,  3.714776704537114, 22.936431779771691,  3.869691034166620
11.968042054211923, 14.481291480334127,  4.690430648608859,  4.443846207438736
 7.436613892364488, 17.189369912264571, 72.644606124939301,  3.818818793307459
14.210134395561109, 12.356263541546479, 20.087042543202795,  4.108429826913041
 0.271817744695930,  7.086507374433861, 112.553108775338742,  4.064136960908066
14.910093823367063,  7.765983974791816, 22.595587178682358,  4.236442184878685
 3.499014391971299,  0.797114229314639, 109.164629124683700,  4.054350782356615
16.771188366786898, 15.762603848697653, 110.570964839976284,  3.758796385420667
 0.989509511540244, 16.175583077832091, 57.353589661012897,  3.845825476896507
18.461996107924065,  9.849003578307757, 117.548278743032597,  3.892614600310416
 3.012535334006770,  6.133043289717058, 92.948152908961632,  4.107666574128274
10.486890457006965,  6.712215054437976, 43.743936029986017,  3.838257499353327
12.242229317812848,  1.499269105082298, 25.066242405026923,  3.775715671633297
10.842270121471524,  0.338771288319745, 35.484288875097512,  4.098511329159860
18.407040119654550, 14.102105542862075, 30.461322095480547,  4.144435248957060
18.764627703792414,  3.638102785752230, 72.251002744516356,  4.249390621882670
 9.633821683284863, 15.545234682258133, 25.070609056408991,  3.619297924282839
11.408664299064668,  4.282017359655192, 86.769367713821254,  4.008018958951394
10.814593371683294, 15.471676203967277, 29.715883694487353,  4.165647579619595
11.284109649780936,  0.200866036465591, 86.521307771844633,  4.171806200418752
 9.849448249393335,  6.991837197026604, 113.586164586618466,  4.284303926862140
 4.834689848525320, 12.684336494659910, 11.790875089395835,  4.041445691299467
15.127508196220329,  2.886228882787191, 17.059705076712461,  4.216250560415323
 6.117339480022948, 17.022779626854856, 57.096499120034160,  3.871737092837923
11.671852979330303, 15.038584413444658, 14.273063892732624,  4.183641945650948
 5.501492530917037, 18.494982392956871, 21.942645809538202,  3.745960001612663
14.332592283928616, 13.991523142675559, 23.650606651263274,  3.468354882542077
 3.671998560587007, 15.560178925679246, 72.730689830767247,  4.384804424468841
15.014239536170480, 11.907041139660503, 86.872049639709715,  3.906929408752208
 2.162366104864970, 10.072425614453518, 71.903023322764057,  3.813098369885521
 2.065684083084970, 12.671505394382306, 117.705163871801275,  3.687354609192049
 3.880474959787145, 16.202334612105066, 67.125511283153230,  4.535012203410110
18.425025788395246, 10.032907093181745, 82.435704897823683,  3.987186581373853
 6.055499939652714,  9.332517454331716, 113.444141414941299,  4.550729244969288
10.965315858312364, 11.147861293536922, 74.465738248056724,  3.975297972078069
17.100376939064549, 17.443480950074839, 89.731409497567824,  3.975827788091408
 2.404322959027630, 10.654412659153603, 102.124328514033365,  4.145376660003445
12.385205224375095, 14.786051763651436, 38.150798484141461,  4.109637233724317
18.467277065772610,  4.343905985561798, 23.479084542509202,  4.084338281165776
11.817758889744075, 18.483661758900549,  5.575387306454402,  3.611368354783163
 8.775335413219510,  8.406447801331227, 106.228459328223749,  4.219726588253940
 6.316304613507964,  3.033784034948839, 62.791468390889470,  3.673380133567320
12.154947515245370, 18.231267499380046, 11.392759927888978,  4.453783441960236
 4.520905366635964, 15.776274427446197, 115.974338191580344,  4.135387493102720
15.775781391593165, 17.520472386033280, 83.095548123277055,  4.035074741554120
15.659125810249700,  6.561409544257992, 53.962888346008320,  4.111859664583718
 4.023499438711604,  6.017072811616432, 85.286041848570051,  3.938752111577658
10.595481354803772, 10.072377429024410, 100.502074773101057,  3.840900819182926
 9.583408647726788,  4.115140448429291, 76.546503169728894,  3.853062513154919
 7.116321324495184, 17.750322428176901, 111.668928831240606,  4.087539865585640
11.069596405963035, 18.788419360909341, 67.398597021781342,  3.982468866640995
14.334125130988950,  2.752115791526041, 56.105572442440227,  4.190260611977537
 7.793935647815379, 16.917504939861413, 53.497673422297169,  4.065541224991398
 1.330841997718974, 17.219850377009355, 63.821051683865235,  4.047001434422456
 3.233095347216073,  7.838411082621640, 37.281915546961358,  4.208009413682918
14.825765168919798, 12.354317157217121, 110.814464549288758,  4.048106759217633
 8.487441103808939, 12.516083167900765, 106.094631750443128,  3.993799490949615
 7.519866159870813,  4.969905080061594, 73.102513893377534,  4.179702500859218
 9.930051967850789, 16.824556901953574, 89.610651874483992,  4.002882528107372
 0.067759815604356, 11.961071903758153, 86.067148226369241,  4.242012794579304
 3.541233607607975,  3.196017000704642, 10.291312605942709,  3.843859710712033
18.706467083799474,  4.382996940439414, 61.939017401893295,  3.806886009417278
17.634419003692631, 12.579274349909824, 13.838383614827649,  3.995631282149464
 7.121580554937348,  0.072501451278795, 115.513914416490096,  4.010948606045948
 7.102582825248836,  8.396091041126839, 69.167099816692968,  3.984046195407130
12.863103970289856, 12.286027302393103, 50.940140645979589,  3.714753008422378
 7.821096419855106,  1.850133638822921,  5.300784086117935,  3.907995561517985
18.137852140258335, 17.563405925466434, 36.513245091943190,  3.912886016892431
12.026758304852764,  6.000631963724064, 29.839461581420959,  3.818952417323100
 8.291946402472595,  9.203158462052015, 21.752842179512403,  4.103024756099971
 2.165389514331564,  6.952639935745074, 33.407145745821239,  4.001126538506178
16.628626498725573,  3.879059491137826, 68.561143290194053,  4.236373904323541
 5.162755805013380, 15.743064655573418,  5.175996837754428,  3.559697492492421
 9.363208428860830,  1.361426564343997, 71.458290689211125,  3.862742605218424
13.514842446228954,  5.331860322685996, 62.803101244876977,  3.612285007970601
13.705104054257434, 10.117611277193950, 82.980046407932846,  3.851778664462511
15.710361575228298, 14.184066150146545, 27.441310046869916,  3.952573265129933
17.191323955074136,  2.399674452627264, 83.788668302964837,  3.899104621403168
17.155989224585543,  3.541902391191984, 112.399310160266552,  4.145713167716597
 1.303435806059506,  0.425595922607923, 53.057693716019841,  3.887656167641275
 4.883796399714273,  9.884456283851433, 95.232265988074275,  3.804770336706749
 0.659936768320171,  9.462388920254517, 105.815818153685143,  4.360046682711500
 7.722932626148403, 15.682101505168282, 82.178694637489883,  4.191986234536576
 3.868086529584903,  9.603263312919614,  1.007055819521354,  4.218156017819483
 0.496005397695201,  0.814861596213714, 114.737812219484738,  3.665641740877000
16.778783526237966,  9.250446744558515, 19.121584730371190,  4.087275070894950
15.616421276647205, 13.685432008605979, 90.462715267470955,  4.181182699523602
15.350918485390611,  4.982843708525273, 86.228488883467378,  4.057699646817968
 4.370218098955397,  5.269560405475942, 106.713410203867568,  4.042851824829209
 7.157142537391113,  0.147458636255068, 50.160472463213189,  3.966543988733056
12.902939358684851, 18.851237420553002, 39.149461336912680,  4.309169372034789
 5.976374843471145,  4.826030213108939, 54.513901463643407,  4.008307131191643
13.960547210132795, 15.052769163702807, 108.041784961528634,  3.873441257988453
18.122566464277075, 13.142558212660205, 18.690723705877016,  4.151509422902702
15.205791682355688,  1.606982196922828, 80.429189153683126,  3.977723273516322
 9.271682618778462,  3.422627962112073, 30.415899955489426,  3.802996317392909
 9.994087632394772, 11.922463977547006, 94.717330136638168,  3.697507055268999
12.830816154715425, 16.617703342984587, 64.521041715571982,  3.999428189910820
 9.379007856507092,  6.407198284942525, 95.888334075374317,  4.027000474524633
 3.390245614314025,  2.679350476911324, 23.499320433328435,  4.292362541907710
 4.636015472754245, 11.017570907327860, 43.764219412637168,  3.959333109577932
13.256471346869422, 15.563810162229116, 87.511041613011727,  4.241758497491218
11.416432411122754,  8.099710566048115, 39.843856164254213,  4.527193329907370
12.846980481241982,  1.567499228501466, 63.758318098923453,  3.925116552837683
 4.796371734691005,  9.250055674738160, 105.708635200050466,  3.923898481567461
13.251153271108727,  8.543638781905059, 64.859205465291808,  3.865675044914422
 8.967176685435486, 15.668721816511304, 36.025157913282911,  4.113403291402374
 5.430522328830038,  6.294843428380319, 65.565427502070918,  4.119200049797266
 5.382432533183968, 18.134861132413850, 63.599617208578508,  4.029930088831378
15.111519116261336, 16.216045930549743,  1.813096170593345,  3.888187578937709
 9.174959216478319,  5.075641417089586, 47.623815814876068,  4.345909579608236
 8.576021273780366, 17.073645540669318,  4.002086810959332,  4.125027955846432
 7.032861505366728, 11.366959948261540, 92.308227191562580,  4.007655243615811
17.681805212703740,  4.829604455948102, 57.038541177903340,  3.902811382346148
 0.598926819248520, 15.369835169171481, 76.467464522786258,  3.713437823057872
17.215802407287313,  2.404112611493297, 88.845019314137900,  4.004283874861195
15.214584234406651,  1.229150632549711,  1.444000779573760,  3.872468281428482
16.892906091495590, 18.341327153155277, 46.580393910088645,  4.206896948870110
17.976456070309968, 16.530713422762052, 54.175106151005487,  3.643979891292663
 6.237254090379792,  3.560300688647575, 78.408950057519078,  3.805139486187484
17.391279699912552,  6.123378920659444, 116.219408483245161,  4.244501721187024
12.895001122300828,  8.578471374385451, 86.495134755161459,  3.982247112612364
13.292780327200395, 16.968113205229802, 116.594036420397387,  4.388966497650884
 5.644371596303309,  9.908245620192993, 27.398537083168414,  4.299456705756088
 8.955817633830417,  7.379595052485223,  8.855680412532694,  4.124828347996733
11.742067219882848,  4.133778275683477, 93.012760657522236,  4.110826370248335
15.642111901616056, 18.519253230130122,  5.013864678775534,  4.032622697409789
 1.592030990296035,  3.307960572290993, 46.295580133412642,  3.953802123054482
 3.467687658648981, 10.477375531250255, 54.332373169165827,  3.856984756721174
 1.899139105721713,  3.089525286248144,  3.653603871704012,  4.120910121684752
13.141472520128337,  5.406772824118854, 19.666862057625817,  4.007178453475833
10.470434644443776,  3.562349291108545, 56.560865776807262,  3.742390144416508
15.924765704753854,  8.757510604809532,  2.176929690216903,  4.344405917268944
 5.184219218717165,  1.095625976982454, 53.430360521001603,  3.783418234154610
 7.653209838448785, 16.632098464792310, 104.650408756855242,  4.222792165675070
 3.113172059492292,  0.382940374245512, 56.471100781230575,  3.701932549276779
12.924791612371493,  3.305000831398819, 36.886982954111971,  3.672730336032627
15.841659918730205,  6.148174817638991, 73.620584831076357,  3.889143643422263
16.648060663370025,  0.050229641184187, 93.312398193867395,  3.858029067353081
12.926804753864998, 16.820069824493469, 26.457447091232382,  3.963028682681013
 7.159741404181062,  1.736374592771162, 56.604080722149639,  3.801510633476495
10.526482828742337,  2.979638266249638, 100.997106297923921,  4.329661027940388
14.741357668244552, 12.820808753450548, 97.494431384143994,  3.968148055983190
16.429575759296416, 10.570756131433527, 44.513832625596329,  3.719113468794229
16.424124934168532, 18.089301407885547, 27.882975614795736,  3.986648495442494
14.861210564199187,  7.456019836218368, 104.480943197904537,  4.097783824461778
10.150154165580327, 10.107243444336531, 62.764353322798812,  4.164238419009156
 0.209666908061098,  2.878493442770646, 17.411440540207909,  3.862287968002859
 5.992130375746609,  5.573220943780873, 22.486611640821170,  3.741493427852729
 6.420405400759748, 14.323861420542574,  8.314813054653939,  3.753581162236814
 4.766672909091883, 13.646166584805872, 25.107299185197743,  3.811946127411238
17.263751436614427, 17.259261442113385, 32.712975167751956,  3.893869837623402
 2.042263243441865,  5.485831379925813, 20.512225510980201,  3.890476545058918
16.591647763382770, 10.440690139888163, 53.935306275427635,  3.816292235716284
 3.492820336369869, 12.342070942953931,  6.032420846069114,  4.152808216378279
 8.934446371950532, 13.022969603645684, 77.126455696325294,  3.632512834022617
 8.400687466050318,  8.281368454794036, 50.191522396141615,  4.001897094004566
 0.142022385273499, 10.112104546639427, 16.234376075921485,  3.472826578131008
13.970568142115400,  9.122597181126414, 36.574643039449221,  3.924819158478748
 0.512057159724568,  6.544321545437761, 40.089033139637507,  4.025670692141800
 8.314404011675263,  0.325689099973303,  0.734364573537699,  3.652113856747920
 8.171800585264915, 14.389038482629381, 115.396160887161059,  3.650808396115890
 4.329002909988915,  4.256045093298191, 17.333790422660293,  4.315891567772872
15.776865564923584,  6.374330831371569, 108.408957669531389,  4.213567744300867
 7.698430505944057,  1.784048724363394, 33.509566776156305,  3.845955967952964
14.183582097285200,  6.048312752191803, 95.602738604867824,  3.972231098651053
 5.063317002874614, 12.269547596012371, 70.612536511441320,  3.898985548613768
12.363899665489727, 13.915353739552009, 83.925964952641237,  3.788225207798448
15.132668478484245,  2.152445857567166, 73.984022669447839,  4.255562767476619
 1.873246227250581, 18.624294763503883, 10.638261654193677,  3.969200630958862
12.516111312666277,  8.944969561771231, 52.790158074407408,  3.950691086544890
13.161270937758005, 11.800757225890223, 40.502795595412834,  3.642402809078668
 5.195851301457502,  1.540676260252391, 71.712108434977665,  4.358865450623720
18.716695453429157,  7.889889893446996, 22.134937562276534,  3.370084722024389
13.226316174185607,  4.973909057938006, 114.864930393947205,  3.945922245213539
 2.896807615752556, 11.843176805967060, 36.245418968417411,  4.006010528284699
11.146205852049579, 15.280206861931928, 42.245996020803538,  4.419934040991929
 0.509360173769724,  0.451257489139684, 30.195522506160007,  4.026280347267090
 6.109370527734875, 14.078062250825678, 79.052738034983321,  3.471831515678327
 7.108106905330803,  0.132409071825695, 95.177160468194032,  3.918851222303525
13.134022087106800, 16.324610598292374, 98.751279682056179,  4.120052255589551
16.467015517970143,  9.152294003659723, 96.998617066039060,  4.162597491982229
12.703604852798458, 11.894561747868554, 30.616483716178919,  4.114462744777136
14.770117194793436, 11.132042184239097, 16.161357943237885,  3.891340168510777
16.400415583342266, 18.522430339025576, 10.529425315600813,  4.054103763554459
12.868197818481555, 13.208907833060819, 71.347664300289225,  4.105915144389380
 3.680659254151982,  6.764702423579384, 56.917910474089638,  3.677931598816373
11.367393264609600,  3.217233747274948, 96.784863108526338,  3.685644810076225
 0.100837095047106,  4.228206761951380, 31.336167213336662,  3.805216773033353
 6.309735548696496, 14.781882502632071, 39.048264541625414,  4.124136585755412
 2.756198481355665,  1.094859993642391, 19.757313421230631,  3.917224228829584
12.138128305154925,  6.250265883319399, 83.081250086420269,  4.405058657840722
12.332464672083999,  6.578057513213036, 49.708311340802538,  3.779807926983621
10.262228743387503,  8.977118750956643, 32.316339804860284,  4.200025592065810
16.581111697806623, 13.108538412340208, 67.705702084782089,  3.947623093948304
14.185121811456497, 17.875729788636519, 77.485204590561338,  4.222305919574238
 2.876194324616066,  1.159759190247874, 79.840699060596435,  4.192250218062536
13.687135651729591, 11.810076184052283, 93.845331846137867,  3.869519975142164
 9.075715967903111, 11.593310655507439, 70.828788618097178,  4.200866624731064
 1.099328366951234, 17.713658464396847, 99.380908078219804,  3.955390006097625
 2.543324124068570, 11.362523427937010, 79.814131332181788,  4.503414836694192
 6.654232469613428, 18.510428184933154, 79.349782416963848,  4.070548671337013
 1.611515434411738,  4.334438099656613, 114.787856724983584,  3.507875402382778
 4.380796010146097,  1.249978134886507, 86.931391865199657,  4.176098507624757
18.589910152867905,  6.357848965950065, 47.680602082246331,  3.760447062689666
 4.756815676720287,  2.134688247249285, 90.884608063147041,  3.894373525818202
 1.893572646595451, 16.192825720717675,  0.522184639784647,  3.783039906121690
15.991561556693703,  6.037864334653278, 10.454121436455845,  4.023030560953417
12.807290696766117,  6.243743126718549,  3.368592883429397,  3.996905712703350
16.471812994949161,  3.526510661928981, 45.711250295031462,  4.278891886005287
10.647683973430551,  6.325370669564193, 117.752896507118052,  4.129930349337763
 0.179318212876306, 16.125355148668731, 13.112996219864968,  3.825775497333525
 6.300840225275674, 10.332409558738384, 77.125482239961400,  3.884183589390021
11.477603918932660,  4.165771074441732, 73.140872735062118,  3.891609276164738
14.640624117824347,  5.599504127699497, 59.158234073501511,  3.667011012964982
17.506162950651529,  7.459229591530924, 26.025381711512736,  4.168766923397464
 6.047708731702615,  9.323740592834033,  4.656051438484617,  4.220603754481497
 7.126471601091556,  6.858238673884943, 37.162136707072868,  3.797418218043835
15.311689088139971,  7.179066286549835, 112.408875485865281,  3.745874454716826
 7.277387850404489,  0.174563365650388, 107.882831564960384,  3.956149094114071
11.938898808610471,  5.664613578119313, 106.915924277429838,  4.139566157813439
 1.796583713147506, 18.875544912658150, 44.144168511736119,  4.058588771456026
18.577026924655772,  2.017769278483611, 49.295830759043866,  3.548296474252429
12.774299208289019,  4.537379516818520, 66.627215181250563,  4.302208813635626
11.203581715683089,  6.961585928399117, 60.234378955993314,  4.019634896185472
 2.444287151954974, 11.180869906363236, 97.978795695899819,  3.956287598455944
12.288804883490265,  8.271492118606641, 110.098197521502684,  4.114697325560251
 4.737784637063474,  0.657961005603833, 59.915642418557916,  3.901621863402097
11.827927393944089,  9.719721966877019,  1.419470065684244,  4.160728025791276
 1.799227725728014, 15.443711779125380, 87.465580827516703,  3.711305542731408
 3.257202091066030, 10.070307037082737, 91.479933084874361,  4.086477833770195
16.809646741417961,  1.819408352963048, 38.510830949950055,  4.022943481241046
13.300072305188646, 11.218991128920731, 56.104948812323187,  4.205029790607250
 0.505872435421939,  4.784175879319474, 36.406846300083309,  4.091179031254249
11.891943751643934, 14.587749690977994, 104.843500494989897,  3.791259787582680
 0.167585929531676,  2.947868459332903, 118.369028712035089,  4.079215686049151
 8.567106839031407,  6.938139942337354, 109.864761720809028,  3.582282721205313
 4.858963859401810,  6.618540752429688, 48.768808252690249,  4.286477319669694
 1.466470884906013,  3.290802731274683, 97.893431968053008,  4.140205612481203
12.977885555545075, 12.678396362262431, 64.092230442211275,  3.919645371343960
17.008371033116305,  8.659608313424016, 13.527607195987247,  3.945328538588772
 3.584631716678314,  3.026450734137587, 75.297226787992642,  3.935849579856653
 5.896449243568230,  9.564975341825118, 34.267727310251459,  4.499800187654261
15.239326782774826,  0.304210508486854, 66.781179360336353,  4.088816437342070
10.968477078187338, 12.079619237595304, 87.125366764302811,  4.095405577509374
10.040664259119687, 11.725386879640503,  7.550349042855084,  4.284805371773872
17.488517589656151,  1.824644020279130, 103.539136232315045,  3.763782759059077
 7.738049696343066,  7.172052973902590, 25.321320171423391,  3.633304402635574
15.158151835200282,  9.601708008220710, 76.260038586404946,  3.765971664992761
 8.030867990108328, 14.257441256914717, 18.188579103990168,  3.695962041978009
17.450730064567555,  1.555910269719227, 99.833628004036029,  3.657518490671029
14.467316651582962, 14.456310450183357, 60.932101558024371,  3.913422677624520
 0.990878037266355, 16.230866281806971, 27.214049240734557,  4.058677307165940
16.180195170618092,  2.736756595303525, 26.313499287342886,  3.860781347715722
 8.394506949830381,  3.327996194104343, 44.009384732776716,  3.783761191627708
 7.048207609839660,  5.584494634998100, 103.603160893967839,  4.086539401238725
10.188240690947858,  3.251799125964025,  2.423950235144381,  4.043742107653474
14.352363112516047, 15.814946632322064, 50.044047688821927,  4.077036767850482
18.652610483549847, 14.989950833296836, 60.897078173204420,  3.994798310837652
 0.886851913566243,  6.748761627758077, 11.309208307633540,  3.888206424917238
 6.976823946649477, 10.224179842755934, 46.864103389894012,  3.899990732320258
10.285150102996939, 16.578058287245039, 49.582252606105044,  4.118346775567550
11.003669072830709,  6.817245524323246, 102.950956084683099,  4.299058398927915
 6.645289548331432, 10.511124864486110, 109.215723404931182,  4.229810707358384
 5.404226896135384,  7.666887721532195, 19.362466578938999,  3.871373283742610
16.201821933192051,  5.572712241914653, 99.101323092480897,  4.152302714858957
12.682929748573244, 13.212631875695957, 77.297659204695421,  3.828832316061640
18.591923391354587,  5.476751096896711, 94.969033733524626,  3.847520450791966
 1.104612262564566, 15.159222732778874, 83.686780128556137,  3.975056883903938
 8.809727731831401,  7.739528905378670, 75.825285280277413,  3.654098206810972
17.178250291367043, 11.333069807944012, 71.091874849237740,  3.770927415970416
 4.892909838059848,  6.815478475347189,  9.914001818517715,  3.910163369679797
14.775436961298343,  9.552595496305388, 68.463414288303113,  4.170802633189906
 2.637798759696177, 11.608965770960010, 114.205025999860581,  3.707615510341486
 3.729254713700147,  4.726635815578340, 117.830221925153111,  3.902786840480804
 6.000844045219210,  3.997856935921404, 13.313126757220616,  4.085532107997556
 1.396387349846520,  0.024987411941300, 73.252397963260407,  3.880383027194909
 9.081887152420785,  6.027532170686433, 19.234747910520078,  4.136684108490337
 2.222944983614112, 13.123704847095786, 21.807765499551852,  4.410840135650055
12.444782116024443,  2.435350181735241, 59.810326289553068,  4.120070719608696
 0.582947053276946,  5.984350734771885, 75.502793498434272,  3.902357480424987
 4.639213980561403,  8.130350321239886, 41.124529721287246,  3.815529965798080
 0.811707551068034, 13.615120388631956, 104.523215183348839,  4.100800247626132
15.503952220017059, 15.045123429541878, 16.169863161659986,  4.012897689882301
13.785504456733143,  5.822910341512675, 26.138009367605584,  3.951918378631418
13.159456130348776,  2.035858680096608, 70.148431670397073,  4.187367185365813
