BANDS
8 8
NANOPARTICLES
cell(1), 18.960
cell(2), 18.960
cell(3), 118.500
14.908808137896584, 14.349485939831380, 79.498081200136198,  4.045524426457799
10.498873214815822, 14.726153614989199,  1.201876377768422,  4.390947710656098
 1.599872818580622,  3.778735253632604, 62.870450304698956,  4.143238500951392
 5.293011289619121,  1.566462240299504, 79.553520389123847,  4.318290997957416
10.119807063781201,  5.588845296435577, 22.405657536447244,  4.280356998311428
16.853538069917313,  1.930195978935534, 99.455145888336460,  3.735775695335809
18.010980485930446,  8.583616168982433, 28.867533699342722,  3.845381908434608
13.205884801863707, 13.114015040995822, 76.132605994431458,  3.876724750218402
16.850377451300563,  2.673821938011258, 30.686842123872200,  4.027999217772473
13.724832219377122,  3.374286330297101, 113.069926632376649,  3.992527810543521
 6.219301579936225, 15.002454574771031, 23.614142820605817,  4.144427466976921
 0.264743083239212, 15.186156474357624, 31.129263002990452,  3.975213639306143
 1.252567556102411,  0.902071903329144, 65.836985359126658,  4.063945322417131
 1.011734618011564,  6.912868705929966, 18.246190217936697,  3.851716447635440
12.333973321263128,  3.329462262076978, 19.723951641240859,  3.999406372258151
17.755660428696878, 13.226112691690803, 40.234834239745346,  3.765107730989230
18.884395393344029,  0.120960861603237, 116.837136497060385,  3.758427230012636
 5.335715075142834, 16.786663640384692, 94.971580702253888,  4.002521612529797
14.719213292947433,  7.780933068091968, 43.639047015793686,  4.100865595185350
12.504544896977528,  0.467834374816296, 110.542016778138972,  4.086653470609063
 1.657554047991728, 11.589672274592267, 42.332771145368838,  4.042669529293384
14.821055190000086, 12.256393560703591, 33.628478398881015,  3.937617376231385
16.196528177943005,  7.886980616340280, 70.974982435457051,  4.215963007039027
14.163305640809192, 12.068165547308100,  6.313959142893977,  3.777852659326361
17.296009887166793, 16.833280352852785, 38.880316891015546,  3.964858860291492
14.923010869141079, 18.216218892212435, 101.683424423015097,  4.101940958512611
12.411870472342500,  2.994757209078404, 27.419769394771475,  4.149599066147074
 4.981633432666283, 18.122550721631836, 50.428217246883150,  3.924357182957478
 2.201853456044389,  4.661788756017107, 15.366194946508275,  3.753888426620562
18.287439511780303,  8.367507941457632, 99.543350275611999,  3.891284408601883
 4.532821150197319,  3.854696214390835, 89.404650131693913,  4.026355049073168
18.168612173115228,  2.346422005553270, 47.128904580597847,  4.323542094570671
13.689609122934781,  6.066650218618373, 116.176516219652243,  4.162774404531721
 7.140871046073007,  1.289326508759629, 94.853043015412098,  3.752568908112394
 1.218327720308623, 15.485312959766514, 115.709261622634571,  4.092022064323405
 0.873400645572904, 13.688092961148950, 69.147721036794181,  3.866222647888804
10.371774677972883, 10.352331315426570, 117.601789903590273,  4.405217469181149
 3.048043806056477, 12.872486835894589, 83.181400483684257,  3.955009276518668
14.099041400985433,  9.270187179533467, 85.774595719896240,  4.206103023464387
 6.909869626008708, 14.628485768925826, 106.909861781373706,  3.893838516116558
12.516718238183399, 14.021213845782526, 62.869209857076235,  3.920774717999387
16.774592905387784, 13.771295310687982, 24.281343563953733,  3.975667998795245
 6.847375657868206, 18.472026724185817,  9.658455040797175,  4.348056365495964
14.355792356852778, 18.748857306422607, 18.866331323931309,  4.158115987868705
 0.986258060102422, 14.135108429194050, 79.696666967516009,  3.942873679519673
11.365146498802424, 13.501545305338157, 82.307876685490015,  3.954979713704233
 4.199807116357308,  8.281146017887600, 111.669270246244764,  3.933836723608112
 3.508753606241534, 10.235952813116306, 37.322454981282384,  3.663293790526504
11.262690322044584,  7.476216498445660, 71.804326903804096,  4.276045219357508
15.231954467659826,  6.701825855819796, 13.312962622007479,  4.082942333357630
 9.597671867054204,  9.437362599597197, 111.386880619414157,  4.016326035486403
12.772551375260916,  6.946012244837356, 102.783985888657497,  4.104576728608534
 7.974790153905320, 12.319646045065072, 54.756881613629083,  4.199576637968441
 7.283537793227846, 11.807795004113975, 46.251966414861855,  4.035544912760215
 6.244516507673137, 17.821175067042930, 84.006058025224760,  4.074420348629434
 8.237742122429857,  1.367657967232567, 66.808956786108624,  4.096599313611102
 5.344424074059568, 14.853371140830193, 60.989692372219864,  3.766327522778502
 1.450915627710972,  8.074942615931185, 95.791176395414752,  3.633142458588841
 6.918194864105751, 18.461303114922551, 37.584397942238432,  4.032148321948037
 2.420859106753517, 10.721957592191719, 73.633640726154255,  3.842627050061653
15.056125618379887,  3.188091517269235, 56.050859387718454,  4.551516219717004
 0.358306116406267,  8.742649866653469, 66.085700603965549,  4.014268869927956
 3.470901834841636, 13.388114171898899, 118.370194568950623,  4.002298661674674
15.242230124903701, 18.668062890850809, 70.339605111238086,  4.320035964271525
 1.889788818545392,  3.407480597439656, 34.246415798130791,  4.561915544005097
 0.809974460385376, 16.983172426237815,  6.681551686511895,  3.802984533298438
 3.309848031490678, 10.060262389506205, 25.405381948223024,  4.006440550026338
16.618215836953254, 17.826447027799968, 58.213902244603965,  3.883757981022439
15.285427743176252, 18.578052281191525, 45.736077601393454,  3.947487013610747
 5.638202269666498,  4.114795106578287, 85.590510408093294,  3.891206440204733
10.670892361523634,  0.688399790932468, 30.459463240939797,  4.095177402694985
 5.466784531584883, 13.757329072339632, 97.922090339856567,  4.451494718486274
16.915587217048369, 11.081659758876299, 68.397481486815693,  4.099036705502192
 0.197190823474485,  1.729086483250814,  5.346124278603869,  4.081324890897733
15.020067109493040,  7.316211927295409, 25.050159437961810,  3.863634653663061
15.931533886885136,  8.809918330095972, 60.352948731124108,  4.063756600029955
13.666201336966198,  3.914231656987007, 23.670931494151276,  3.951425347896940
 3.282704924133696, 15.200460638473382, 47.892675579252490,  3.754728578348345
 5.187369458674123, 11.557333635823545, 70.924489250733401,  3.904305946139170
16.496379652745922, 14.091199700676244, 15.300042780565896,  4.239752782667458
 8.764568330331981,  8.816253325789063, 60.897417023914677,  3.939660471493873
 5.919460420744319, 15.262390910245228, 64.945290208992162,  4.150604988746613
 4.731409644973171, 18.329407676522315, 91.134226372612801,  4.292973596730198
 2.277412756385527,  6.228041314316699, 47.029537823674197,  4.129057446939024
 2.136321705590896, 15.921089077286148, 65.923442426444922,  3.721788701833978
 5.230319941471693, 12.990214423650675, 26.893364156151964,  3.588502620627207
15.619817537894152,  8.554794273101079, 49.675867418873530,  3.891383346598520
 0.926953076626837,  6.999763010315389, 31.956696273503123,  4.016701015282532
 7.745906863599754, 14.119246860738699, 19.888091087299738,  4.054991173442180
15.413877616339366,  8.802055955947040, 106.937882641854955,  3.822798815253138
 4.865405799852389,  6.591667440997140, 32.098565093884737,  3.806073989100324
 7.397354698124142,  3.693383104382858, 114.019363518928159,  3.955251783686987
 3.658483862336786, 17.300120576653306, 118.281794790148325,  3.808794711258200
 2.600735606983041, 13.730769977688546, 24.363080633390780,  3.671252811326887
 8.176983458801777, 14.850564092522083,  8.259296936963455,  3.856812667347496
13.851445639962828,  7.412878709951699,  4.559466361742220,  3.685279844895629
 2.571036486026185, 17.459477311366964, 17.747444379174073,  3.675343104317868
16.618801547306976, 14.234178709427670, 62.849209205650425,  4.240658108083081
 0.789044886881581, 16.297960943611692, 55.107461993286286,  4.114552719525227
18.269449325713374, 18.048672563781899, 77.367802722543075,  4.087980963745331
 8.470008467109860, 14.516653492003494, 84.871060131272529,  4.034007148053581
 2.601587772168808, 17.852551131816831,  3.431189964097730,  3.799290849798365
15.714068898712304, 12.710950358088340, 19.628269286513607,  3.969791828799499
 3.119586483802625, 10.485627856275810, 93.287449205316079,  4.013710040870533
 2.852303124326482,  6.983679015433013, 99.231522784946677,  3.706240513614872
 4.019248036291008,  2.810618330498916,  4.553231152428868,  4.013300736028352
14.497176636468410,  9.807436843747594, 117.496867263002457,  3.905339247031839
17.567393420569491, 16.018878458581806, 20.993925273738768,  4.085871412869468
 3.154022698600481, 15.819252807151203, 112.203172978587872,  3.941502393108242
 8.870209371046279, 17.849583906296257, 73.244139963972529,  4.084438415955206
 1.305145164459821, 18.761907431892023, 106.283441541116787,  4.030468065034469
13.070125678589442, 13.525611978334737, 101.069108288820487,  4.111636602830011
10.669887526539778, 18.088977434974492, 64.719018441074127,  3.688288031039739
 0.390921493289651, 12.107877540421260, 21.628029079085941,  4.070073293274736
 5.434666622828013,  2.355510720688910, 25.231264718992879,  3.991773357888053
 8.450540975427970,  6.582586774104422, 95.596892499459528,  3.978885552503473
 9.932450979451154,  6.252176865261600, 26.579193243841065,  4.177404057857609
 4.461354046098008,  8.307059938686351, 76.534958730876269,  4.265202416934119
18.644735185779261,  1.070206912852217, 55.806622940402427,  3.793449145307177
10.544173826365967,  7.435786087849985, 99.100861043419258,  4.098646935947888
 3.225591241450470, 15.151737231220491, 20.904567334692548,  3.896514320581055
16.146345162227135, 10.306388788792999, 64.136832830633608,  4.024145176911833
14.540964541676177, 16.753267006376689, 113.291953935687843,  3.810116153211522
13.501668060273674, 10.881578026382480, 10.001066784969259,  4.080204496283498
 1.597166199927717, 10.579252020704631, 10.555831922836392,  3.920372930901095
13.243412359254890,  7.900949235182678, 110.585092660530592,  4.040926627832965
18.547277829765285, 11.975420680247790, 94.488124921803703,  3.930799140862150
 8.662182884526173,  2.275490380514704, 20.580123368443324,  3.812751364143541
 4.131857485810220,  1.665173592636346, 11.932211010316763,  3.927032039443565
 5.153262627751208,  0.370033026467893, 113.039226093799655,  4.291971964613688
 9.922141338136399,  0.541503787527278, 59.117174923197283,  4.248420785968102
 3.032590946328594,  0.961731150814115, 27.985732874500243,  3.805716248834416
16.228654212009705,  1.585941067265032, 74.686417316555605,  4.298368928016114
 7.499391178462607, 13.111086047515883, 78.027036812295862,  3.867507135270135
10.313171607765620, 12.910596466145233,  5.706029157958117,  3.832825282106352
 1.781985795725770, 17.454100750004933, 11.109584315751619,  4.047689313062674
16.353934585009682, 12.583577663482657, 86.759785292281492,  3.966928019103280
13.500033230859355,  5.891796615308611, 61.500838941840478,  3.866375048084508
 2.949659465740405,  6.118381561908074, 79.790198997414791,  4.137109188902561
 7.757282321852483,  6.415255311558430, 88.845607585803947,  4.215880134291941
17.353110374425999, 13.805139963330557, 52.999563469956293,  3.960798220312668
 9.302405536860212, 10.340815293982986, 75.652488220746250,  3.802778737784493
18.324898140332834,  4.628332083822641, 72.652467500834419,  4.136048345025328
 6.177785429494189,  9.407375399877976, 52.374970069000341,  4.110656163239789
 0.024333571158309, 16.024269161338953, 109.197935678123628,  4.312989389763422
 8.649013309607307,  8.775992655831516, 68.952861695708933,  3.871660940981207
11.419791465982343,  2.798510275809946, 63.074529589065783,  4.093355356619622
 3.196186675553696,  0.545818245006248, 101.973827929891414,  4.138219640922272
15.804759107969598,  9.489339170380724, 95.988144607525982,  4.054668800510042
 6.788777098428047,  4.444328685168617, 92.636926934611310,  3.933077772227663
 4.082135761970523, 10.077585096096380, 56.209100055625335,  4.115985332138603
10.641183386162503,  5.989511780611682, 113.317768534494945,  4.108776646500812
14.223508792426756, 10.494457738749890, 46.562073265192694,  3.935407843797077
 4.610011955735281,  1.432093327547648, 20.480896503341818,  4.247403391636945
 4.834830477775839,  9.468684654083235, 101.295456302130361,  3.869193962848594
12.772841651856773, 16.351284841021545, 59.512647919557523,  4.262654441922171
 1.675761779250621, 15.524562655425065, 41.501190241962043,  3.956784496661648
 7.312789089926110, 10.636083530677945, 37.750765241028567,  3.922277096042817
12.417219806525862,  0.976340890826560, 73.161564971707762,  3.977333072406319
12.120637671697589,  5.208987184371705, 10.965127237726856,  4.264540415604720
 9.202307186020432, 12.643164044884271, 30.789698174907617,  4.461571142617024
10.778056268714185,  2.880546906405370, 33.892680351898939,  4.015106486672054
 6.160619227260379,  0.616634588382603,  1.933942288572348,  4.049013382528206
 2.865261659108778, 14.378373539490527, 72.425772789537575,  3.892815729138660
 4.524694150438312, 16.934743409084163, 104.852635888524446,  3.896547483627841
18.521724653852129,  8.253632242320139, 74.221197395490805,  3.751798537865286
13.348697976982788, 10.189584475700213, 92.824137935967030,  4.075401999567023
 9.763404060725723, 14.562898973796933, 65.462555630847959,  3.714181163744932
 7.417141037576544,  6.229228562228360, 111.045340675394257,  3.749377044710449
 8.084247538526315, 16.137349373204756, 92.171745356857329,  3.916444473378783
 0.801953165430193,  9.832576196935401, 113.347208287580642,  4.229599306653177
18.700258499248019,  4.385709269095409, 81.706770242164922,  4.077035643639262
10.938957819209836, 13.340020586255939, 47.145168306754456,  3.869829646176460
 2.647971760525280, 10.600798308841707, 18.468675340599258,  4.153163686721739
12.945191811676498, 15.730916018127138,  4.582588060280864,  4.190685071651075
18.448262140041699, 18.396388019808995, 28.742170595710263,  4.028576781877380
 8.236775227887167, 11.986970108232590, 42.199968744802490,  4.247497880466586
14.462002155890987,  8.545285063258085, 79.556125973499320,  3.783054320405586
18.863690001675110, 17.287517094686567, 24.762032128424849,  4.253673950251003
16.168365725609892, 17.789794486356449, 53.353759766309388,  4.370478547700018
 4.525512834899208, 14.015934260928878, 16.728107590172975,  4.317661495562263
 6.154140476100532, 16.865661301400461, 101.344980053626472,  3.805164913011838
 2.149013027176357, 17.028111753128435, 58.920911384053184,  4.110593047012999
 8.880991209864309, 12.037095651435862, 23.226424193975376,  3.856720949878575
 0.356617099349815,  4.570720208186144, 101.246043410400006,  4.318608522396671
 4.686192619326903,  7.944235278176770, 69.086758742093267,  4.218362984002433
11.623302805635520,  8.867621748002771, 13.177565620790125,  4.308626780478623
 4.286016550911846, 18.074523261860993, 54.405034573481032,  3.825881199026129
18.841821605098101, 10.668486088836083, 105.847550316570491,  4.273846801732545
10.637341342000324, 18.306302331546181, 26.591925970110442,  4.072422205371893
 9.331508585901323,  0.041888624232760, 41.791033891277813,  3.942322378330092
12.192120214317866,  6.720910715458198, 55.066447334800564,  3.998209493000874
17.499172093623550,  3.812359918287409, 117.298117179107408,  4.117651027061563
17.136309619903518, 12.021585374764834, 98.700379684320581,  3.821199044885538
 9.265005322205472, 15.641865378043008, 15.412449167010456,  4.221260348394577
 7.210528733123798, 18.227309544346518, 116.585641587090876,  4.175280364540232
13.618997748351571,  2.168627641201678,  8.062448808923852,  4.241052010418787
 7.197818311643574, 15.423127962011725, 48.089561324512168,  4.033523872523844
 7.854080167485621, 11.614027677841303, 82.281990587615169,  3.818670252478003
11.016136306722380, 17.061514460361987, 101.351194542807519,  4.056969099868383
14.657778571563050, 11.024963555793651, 82.298894571933587,  3.614325636012492
 9.286464011668540,  2.675456640181201, 25.024516736692501,  3.719639780531328
15.638452143181505,  0.935403330209906, 15.150062053229350,  4.006840417500964
18.049256972961636,  8.417172992809228, 92.875087878890426,  3.875718153958068
 9.755031032801693,  4.873781221515396, 37.023895711773029,  3.681858276343888
12.275300333758887, 12.322090884461559, 43.474994841756619,  4.201383271595834
17.729662421869328, 14.036411316907413, 76.162897869827873,  4.335474714528097
18.825964147294172, 18.809003679134058, 32.687889975219669,  3.921724786508749
 7.955050010329612, 10.580634037709228, 99.156515182328093,  3.979054765846950
14.405743603103410,  3.797149353803758, 41.061227855272953,  3.950603022807903
 5.124903856220360,  5.856516522159076, 50.560705776315878,  4.089381308688648
17.408318706868489,  5.847906589188393, 96.441806102259534,  3.948049455725099
 6.366444841973473, 15.466608012118494,  2.091918834515648,  4.178765648051267
 6.465005723182953, 12.982582762562799, 101.964352167244130,  3.981191900921770
 1.428790566983600, 10.031711343648922, 70.028722912889805,  3.726885357825717
 4.439169304863943, 10.222029263007020,  3.593593283420210,  4.097912935737313
 6.988588981947596,  5.397186946916219, 80.090710403500822,  4.088651267992768
 7.967313352594513, 10.500826952896583, 27.388540727706442,  3.875945821323620
18.850178747250538,  6.258648560554656, 50.424722800262757,  4.169165460651942
 8.714199357587487, 15.572892322605954, 44.318060062098112,  4.021485508536155
 9.090473025147702, 14.849179530937006, 95.849446999650596,  3.962810525001924
17.788526909464672, 17.420658300703639, 17.308566105981708,  3.807073289889373
 7.006932051137718, 15.765105764701614, 52.825648092567839,  3.919176340145058
 7.257814922708642,  3.050122860964212, 38.984036763730764,  3.626001297905441
12.097656475810126, 10.577467498575869,  3.012816811781963,  4.137281404595278
10.439882617550236,  6.787022430111167, 63.996053447232718,  4.189753123116402
15.762878402290360, 12.492786785680671, 49.613667343759666,  3.951329383631969
16.205711579525794,  0.883121626320823, 66.441886729280995,  4.029930398498340
14.947861503560105,  0.768935550792367, 115.940310221107367,  4.097309521903809
 1.685937678663929, 12.629557995248076, 110.649462326199725,  3.736996077993380
17.991184039984606, 10.140100176401042, 37.407756245649495,  4.082047974918219
13.455773271361497,  3.439448603183492, 52.352374352937034,  3.505839654184779
15.460916988548927,  4.604727930270005, 109.604910792871081,  4.131108760282951
 8.941570807617863,  9.098683089821247, 56.968124542600322,  3.823159859198703
10.151515265050165,  8.516256359725068, 36.457974664920997,  3.598231958047389
 4.562974992757007, 18.035206543395109, 71.572483095384015,  4.320936039305586
15.953111302406580, 10.263078791505004, 76.338625249925030,  4.009520895187388
17.914827476610537, 11.987564443708520, 116.583651980055848,  4.366201296266997
11.699234128701084,  9.716220366829033, 89.153871344849875,  3.966584512928672
13.376552683950999, 13.509172165889950, 52.613882282087708,  3.772267442365830
16.046176862169609,  9.909539487533991, 89.778551939542936,  4.076163529837340
 8.117495035746188,  2.302907130863584,  5.639551323521572,  4.187918223343075
10.254362215696457, 16.610359528303430, 11.390583293028319,  4.150375128333738
12.505389047121149, 16.432084946966665, 43.287756837491195,  4.003340648950753
 3.369515040048439, 10.080282532064667, 108.142853465991905,  4.155791826768341
 0.594786267003802, 14.057550134453992, 18.078516750656323,  3.907952450773862
 0.717469738721313,  0.540044026883048, 14.401734945561493,  3.966036006521481
18.288186251472446,  0.964511901493423, 103.041054890820888,  3.896982086210144
 0.351092297762360, 12.336387097345357, 27.291611165941603,  4.184805999901349
15.557147408529776,  2.985598264587683, 11.736268439851237,  3.944586593935537
16.207092536520193, 10.402801263311577,  3.325411087479157,  4.106471293757933
14.570482350080434, 18.041121684583835, 95.859376769364800,  4.079791011769294
14.661843183169553,  9.028085390067705, 30.734216638962071,  3.860198959165618
 7.678601536539059,  1.712037677484588, 28.270586354484518,  3.596496919644633
16.725860737634648,  2.572124910143356, 62.891655293663106,  3.876329962059505
11.673119975413920,  0.435244495261878, 22.652860957036683,  4.316623819866565
 4.343927730978171,  1.443083705634171, 15.891483586865046,  4.011114165609382
 2.578855850731177,  7.632902166707983, 53.265610814286724,  4.104834211902011
 9.735412252955394, 12.349294086534844, 35.041824315012846,  3.935586218570012
 1.817859814767061, 10.625276362549616, 30.551246426561363,  3.737635876047847
13.934584462587532,  1.041283173737207, 32.607476948216814,  3.668040991972311
 6.048374495613128,  6.807743043346963, 58.445955103812025,  4.030322178234415
 3.535917520108853,  1.738821087905352, 83.303655792098581,  3.928107456763370
12.537881462368363, 13.175075166007193, 24.671800866885960,  4.031771849244778
14.705729019997635, 14.550880597141639, 46.225575117531626,  4.236210441260270
14.687071659089369,  6.382803259296825, 88.540393187130221,  3.871456851891183
10.777975990158840, 15.616720034410770, 89.203583821382281,  4.118393361622247
18.780442192339855,  4.319620047256519, 43.277997951058779,  3.988393063175840
 8.308953914446278,  8.129205479708506,  3.076744654983104,  3.807555564157493
17.574557701402941,  0.087911784779778,  9.175744882342650,  4.016048097262747
17.159906492223008, 10.584185500916933,  8.309603287981824,  3.994296797321180
 4.248418577874561,  2.976282543106591, 73.080966352555023,  3.918212532113734
 7.516276855690048, 14.563401850160270, 37.358308566573974,  3.843129720737807
18.870642264017441,  7.326358394983767, 62.468702787353038,  3.737275005375820
18.153258542112109, 12.423411842201158, 83.334277814124007,  3.776246523888227
 2.308921796649128,  3.093757564576884, 49.768216922117269,  3.893393446464084
 5.416533402218007, 12.355674971571258, 86.460277810473684,  4.088874950156544
 6.179871094568817,  0.675511490368917, 75.620763779426582,  3.924541574322176
16.655848926689185,  0.591291654889638, 109.971207805246877,  4.265996104549357
 0.035997738233719, 16.064604907136466,  1.067760135729814,  4.031820178763116
11.537560728421964, 11.795376828392424, 97.624524588320313,  4.180609641955176
 0.615666312529406,  4.237478144214710, 109.872510474735193,  4.135676842028278
 5.772056150989839, 15.682281294509947, 74.886253866968815,  4.146055336506590
 5.313038037030902,  9.363076410457836, 40.950155443898254,  3.934312409016430
 0.631031220500537,  0.004837926088946, 36.496224666426933,  3.846351667242093
16.677684928627233,  2.670868664866200, 34.684089741454152,  3.945364431293223
14.674925441759152, 15.571218084101721, 109.368899886059324,  4.353101150772434
 4.102763154585591, 18.929949357031905, 34.953638649051342,  3.721388014478176
 1.008119767859009,  0.042730941791146, 21.361807996281570,  3.590674209037882
 1.241447098780852,  9.372463535831391, 81.704364032929718,  4.133082102528680
16.864945896248976,  1.920197853604788, 38.576561268903795,  3.981386064941700
 1.929807884173570,  5.751684504206274, 118.066809083973979,  3.794943242255822
14.101845854239592, 10.789181770297814, 15.959486541997023,  4.021199123218814
 1.030651331554936, 15.199462334431606, 104.258843475233093,  3.978113325229532
 7.068091056184339,  8.295472886931329, 23.983278989941446,  4.421241503522795
16.921240656136021,  6.713810699498223, 40.526243876101738,  3.813932644115856
16.618588879976077, 15.257865790268706,  8.516745221419757,  3.857342432594483
 5.237726758628485,  4.377796465439181, 76.602757089240527,  3.737590245473086
 6.858714524100013,  9.787987987361033, 114.529682687187446,  4.314910603233368
12.774258890723932,  2.254985970717748, 47.482087651552128,  4.102706638672826
11.366702380652296, 13.001274266377436, 13.109528849618004,  3.946303219133422
14.463771371557966,  9.872574035127402, 53.181352912336045,  3.886557833794767
 8.463584940135457,  1.367350569783961, 101.299644049761582,  4.119794623230289
14.380116870612444, 18.659019950391308, 28.969659329805541,  4.124597811520865
 8.792721554382210,  9.936344567709918, 86.254974350839476,  4.216619345479590
 1.388730278943216,  8.219700567602466, 102.865404283000700,  3.862399842839563
11.665521714713892,  1.089203426928633, 84.084880156982692,  3.950362002597786
10.536267810798220,  3.492844987263257, 93.925789189598021,  4.189956311659820
16.546762718557122, 10.474270483282419, 12.654562000276327,  3.938514726681261
 2.140079635981686, 17.013447513629060, 75.004960772872536,  3.564105329261576
11.034134414591046, 13.997892089121779, 69.127111383779948,  4.067022986895648
13.324975789385796,  3.569565729095462, 86.483010835449832,  3.587812962633814
 5.232781268101710,  6.574393795812675, 62.477721978023936,  3.881825352072179
 5.958143445820819, 18.342768383298804, 59.374615600964788,  3.990605501507407
 8.404192292285664,  6.529213062650562, 116.930273404555635,  4.281982039088153
 0.340126542964832, 12.284275419218980,  1.872935215612058,  3.689414843995183
12.896427948924000,  5.733342710519690, 83.232137938158090,  4.257169045441474
 0.970027337741577, 18.322345483294043, 51.513862063312345,  4.070001774955405
 8.080494813007085, 18.537003329811199, 55.573755213279981,  3.950971599455078
 0.164954873333117,  8.805632263712926, 57.792660598032789,  4.120200342832240
 1.299432887460565,  1.023344848822420, 80.214735948624295,  3.830934384668021
16.487035053253461,  2.382813273051340, 26.530256035483397,  4.261699790214553
14.659111701974330, 13.479150578990717,  0.889961927809837,  4.315039534864519
 8.135159738094542,  8.328956412901427, 15.572825548603733,  4.201146630556273
 2.373080173535373,  1.697389555345840, 76.437654592322474,  4.098715397179373
 5.710524221605991,  7.775598026850490, 35.658264465854742,  3.684785813766181
 9.131861331880488,  1.240651150713839, 45.679972743037062,  4.185840105809854
16.646805986806065, 11.777507501406324, 109.316665262284602,  4.167939728324966
10.125677810242271,  0.465415643030051,  0.827339002519099,  4.111889947239860
 2.263060098351727, 18.783976065305360, 47.839550361346795,  3.696837296155342
15.085472731132128, 18.382628385865381, 85.160867293166049,  3.955679388699658
 3.817787018471053, 11.483835269828830, 67.364843365068339,  3.666518479939916
16.121322408678033,  5.760140385897101, 75.859784945602470,  3.903811015226120
 1.992660118012133,  4.539454430030230, 21.162047391357262,  3.910520359653859
14.345318817759084, 17.757918606796018, 63.333308852177325,  4.191755582385924
 5.920809773149998,  4.768779992590402, 14.043589222529668,  4.052262011420377
15.507394014176786, 11.093326213258388, 103.369888281507684,  4.075413057153595
12.254562672984331, 14.413650155925554,  8.674016628598062,  3.867495131774539
12.809608199696621, 11.992183804095548, 111.009193108471322,  4.225651402209507
 0.984538756995615, 13.424734910050432,  8.021255243687802,  3.797213725468984
11.157950133937314,  4.368135029868878, 109.348120794724849,  4.492610875439669
16.273728254139424,  0.907752966581921, 22.494407978536582,  4.327239993812459
 5.508522822010046, 12.200497220596789,  8.976465689592009,  3.674649800392157
 4.215713181811702, 13.171782435044724, 90.336628865207217,  4.050150066808262
10.726483081196653, 15.568187048605783, 54.763713561114635,  4.160941871704878
 4.986576386236689,  4.813885718129725, 102.014131546055580,  4.191023630102297
17.967154914761291,  7.792772558654430, 116.466167750472252,  4.009218232950715
14.578953798182861, 16.865728167798402, 75.953458721666451,  4.120696879739874
17.033042342421833, 17.144362000721724, 12.635236774645358,  3.934444465392021
18.528931676194549, 18.562758880473520, 87.876190891453732,  3.692881252799617
 1.602439372007790,  2.942025024912228, 86.762936314689952,  4.068071089568467
13.534086165710153, 15.659943147736065, 104.418958658040296,  3.865068805870606
10.797030519742222, 10.308586927864853, 101.879611349247114,  3.894004493264712
 3.211008600354863,  9.626411288240481, 33.765361053872930,  3.541072293457127
11.367008304001605, 11.011466581139148, 79.047082045295696,  4.191264417069744
 0.915748542740190, 10.272511573871137, 77.155271947496232,  3.856655425205150
10.451942946379065, 12.548138402618948, 59.737138247978550,  4.104274817879726
11.990394583252694, 11.608419514828011, 55.942764008928442,  4.292703164504457
 9.966715642187868,  0.819108484829088, 107.393101726202005,  3.882179418972012
14.510941068967810, 12.545695601695003, 59.652972674945964,  4.008518712657969
 1.021797091212595,  2.045604064291979, 18.096616924507071,  4.034334456099371
13.069063535005629,  9.958045947968596, 68.914471451280335,  3.971490387747361
 0.013515206542500,  7.859481216457870, 14.518171954444355,  4.089340705419062
 0.812645652626101, 10.626814467172251,  5.305071915811971,  3.960822132496334
 8.158469158368526,  7.120040993042542, 11.594742144670073,  4.044565998274747
 1.692675226067465, 18.206442467113973, 93.927759037413054,  3.957196921465807
11.508149378545985,  2.722090972685712, 80.367757442338259,  4.154041317752109
11.646565077798641, 17.263858362006996, 47.165994260101584,  4.098042345237684
 1.109163844308854,  0.363167173305068, 40.399360427335388,  4.019686544694419
 2.561002137340849, 14.375643136229288, 93.682593692808695,  3.784603142678671
11.594190152081703,  6.815194811646549,  1.206669460310023,  4.182003306440612
 6.232324632226790,  6.001608196926417,  5.663472649516379,  4.063020795324909
12.487086174617724, 15.930885516274881, 72.517442794886662,  4.102124883818968
 2.345730293549858, 10.817838242397901, 98.443742094490290,  4.162224159611726
 5.243358616849006,  2.239176308330829, 98.651026544826109,  4.290757021534866
 2.793530218030527, 12.818466121040734, 59.087109627972573,  3.706272527167808
 3.300364969196011,  1.666014956199356, 57.262499632355699,  4.073170763323897
 8.044532074304319,  2.394008255856771, 82.710377049644237,  4.152287145158740
 0.784860666091125, 13.018875776726516, 49.904767829807092,  4.002876132441615
11.380906659518926, 16.858764429091369, 115.934836368738416,  4.429421850322076
12.911362833630102, 14.389421496515624, 17.347847433934596,  3.983568369357085
 1.328126711585173, 13.422280093644259, 37.338343328833695,  3.899078726056075
 9.452552552022309,  6.010915212267060,  7.992306413974618,  3.883710414873786
10.045229491165248, 13.721733881165179, 103.896475865420669,  4.172496319593775
 9.130687439487145, 16.004283511361404, 61.690419522775976,  4.217261990004687
 0.585180204657288, 14.270211314886835, 45.167835750723654,  4.011531168539410
15.840347234581619,  6.197762430498913, 53.144179875744136,  3.937514022003673
 2.527733596078731,  9.769020504275334, 85.465886353911316,  3.765408047481053
12.541701766617896,  7.879741148459393, 75.933098064645023,  4.342306820956072
10.440188953445348, 10.674442607423870, 65.859658146869663,  4.210596800177217
16.263124886139273, 18.056273088692741, 106.044249245095955,  4.058271635595951
15.561738677018381,  0.590122261301781, 49.682828937309786,  3.696813707022938
15.930742604550879, 15.679679534227771, 98.759237275195289,  3.855695840022968
 0.898008233069709,  0.837174809158742, 72.715415672783195,  4.035341889602607
 6.385055791983755,  9.767857459223032,  0.124340237617537,  3.895433568467859
 3.604629190472370, 11.630137446491757, 104.355620983719689,  3.928277931837655
18.135217437482194,  7.422032534967903, 10.575927798099761,  4.018018055327658
 5.761948139366443, 18.013132995247268,  5.574293188657543,  3.839528449733803
12.083656321706863,  0.127539518230372, 104.377429580697807,  3.516305778868246
12.048678728250689, 18.700747592793089, 52.180668998565544,  4.367330708216617
11.850789208214023,  7.593697453877739, 17.269507287494189,  4.098830252058121
 6.379350678692310, 12.746550095105128, 93.770833375366095,  3.950640491630512
 7.986107100384960, 16.564193294571854, 68.184418681472764,  3.914611318817604
 8.748200355695435,  6.402622715680210, 33.824421577112979,  3.689805064351591
10.017466651551839,  4.653318585599073, 14.621633611365985,  4.224615775725438
 4.606939116518142, 18.437190385784849, 67.473239068770440,  3.860618849618540
 9.242053114175967,  9.166820276654256, 20.435692355776130,  4.065150391930244
17.168819881313016, 18.199369398190793, 91.335620987507184,  3.728302263783098
 4.128341267577211, 15.682110279654026,  8.236161431559909,  3.917738521804911
 1.057923258740961,  4.970219417783140, 93.454068897999747,  4.133713851014287
17.161900376715973, 15.763452250948555, 66.825552893106433,  4.337730384592623
 6.576016587086574, 15.967649604436938, 33.993730272185793,  3.653291288592349
 1.555154702530066,  8.253218839009680, 40.017730465731390,  4.069896041537940
14.808463730288652,  4.792598035000948, 79.360079353323130,  3.741854165597957
18.474967461420849, 18.208969840177009, 97.244547548853248,  3.920009217292460
17.417945376988826,  1.839416485162198, 94.309390099614248,  4.148322214573196
11.243029630672735,  6.612960736630585, 86.838807298664634,  3.819670840456017
14.697666527258503,  7.298337907568877,  8.385194097038680,  4.126593560637059
17.978950898805593, 16.109823205061179, 72.478053217149863,  4.067467449210758
 8.354026181766836,  3.956704611479918, 31.089251469064255,  3.688286016863836
13.630228375744439, 12.984906791028346, 89.828679099416021,  3.743116214056452
14.922030068005204, 14.533885311863433, 83.612453929339182,  3.879507410031946
13.718374384198654, 10.758300477572112, 72.862437380025696,  4.177447179310096
 8.525109427100572,  6.424803854755243, 83.841817220291233,  4.265436654087423
 8.413279184363342,  6.906399758701793, 40.098475652559273,  4.156307170719845
 6.207821382999771,  4.703479846638127, 22.157754024270307,  3.752582306780617
 7.274072073826086,  4.977657565524973, 70.158096237372462,  3.858454530446040
 8.538720488137464,  5.735369389407546, 18.704610527957822,  3.738334671992209
 9.986883004455182, 15.345797794042330, 40.330014752857196,  4.009094119059891
 8.799631404027334, 18.760509081034289, 49.570212646717486,  3.895085202541844
 3.379914299616543, 13.876056692539082, 11.595276259081331,  3.834778335258998
10.655640820495471,  3.735655813186149, 104.416050778613382,  4.238768929006738
 7.465046245491096,  0.668461622409096, 33.052458447300019,  4.112340050568695
 7.491401766586216, 17.060663019234845, 78.161597251269228,  3.744319750590957
13.962598280477067, 16.084527926596483, 92.256324374535055,  4.151756633814895
 2.278638139379681,  3.391753429250685, 104.735738558298834,  3.990835330705392
 1.413729235602190, 13.162416015776918, 87.273665405618175,  4.220252266830780
17.956318683764870,  3.141801757653389, 78.011912150883774,  3.799552949268763
15.414211068386715,  3.765087740728295,  4.556950378664804,  4.183435496626434
 5.565412235415847,  7.836203547972900, 20.177976020912993,  3.764078330702225
10.978509293640146, 17.996330696878928,  7.604425964786283,  3.994169586042854
13.743349612610404,  1.933949853033238, 107.094432752411691,  3.800094876725705
 6.035207077947700,  1.831071709768416, 104.720994188868062,  4.130037365182925
11.142117950163007, 11.553914961152726, 39.033086090126879,  4.295307497113867
 2.894163763890786, 11.496210784524679, 52.759222690681021,  3.699802189716104
 7.442974083367053,  2.378312073135356, 110.141349092245363,  4.063368134709431
 6.556646290165419, 10.854061257510669, 18.176241610160854,  3.692483455586663
15.111846563294685,  5.279747563146659, 92.544325301648939,  4.414583154730364
17.588355569118697,  5.887669463436356, 22.630663768060188,  3.667838769478225
 3.542301650073453,  8.818127129843409, 44.334024602722891,  3.762124475494833
14.009944847536746,  1.475680999717226, 60.011076124321420,  4.323767305043249
18.125883682629002, 14.222178240928658, 58.967862948490144,  4.064515792629236
18.331312139740035,  9.402453151956989, 24.609198738319261,  3.939435131456311
13.599424427036933, 17.613657385724228, 81.557673115386038,  3.938514694023473
 4.403266017219160, 14.162959239550675, 55.808005905509432,  4.065477449696496
12.551028790078897,  1.407708322769477, 43.526537139117877,  3.847629478531108
 4.772944417093425, 13.659060533196744, 30.909450495953614,  4.420791751054542
 6.091554346598394,  3.831094295835193, 35.351001077366689,  4.144670556172214
 3.069389946684068, 17.050200659436925, 86.643851903202574,  4.313765666639588
 7.799335165075628,  3.804980701294185, 42.728342384083973,  4.028568186532228
17.459346255037534,  4.313746926954368, 15.465057471050040,  3.681422549475647
17.224095985500050, 13.496856279899834, 91.083306348904131,  3.896490910526831
15.539307868644990, 16.135088979954794, 88.451799219029638,  4.059368223343471
 4.477271296854818,  5.458495074366905, 95.903245987923924,  4.299586333319059
15.557179438944667,  7.605650737188225, 66.970620907073169,  3.867290655525300
18.234287489009795,  8.063331365953841, 109.942803024097742,  3.963296283995889
15.877429573510835, 10.415430775297498, 112.926997783649867,  3.665853491694784
 4.904593834592325,  4.705668067736685, 18.063574922847231,  3.874160019467956
 2.192203791298731,  5.573762197611092, 59.244684799958527,  4.029841661207217
 3.410921676989889, 17.466589513344829, 98.439457369683367,  4.033132462873393
 6.012923649378766, 12.130094055609771, 110.867424356761973,  4.468460353599870
 3.440555896828204,  9.202363659173868, 60.227807409271023,  3.884114608375119
 3.991151018097342,  8.149163414575510, 15.429271386674111,  4.079861256505104
13.269912495423506, 12.537650251527312, 30.082759925073777,  3.776930621240753
 5.267930903300319,  6.312118408881487,  1.554687300776955,  3.866804460680250
15.626925398629153,  5.835989963787187, 32.660746820976698,  3.807004652929797
17.899192385139294, 16.553518066554599, 48.279103814357910,  4.348227318199299
 8.177679951035035,  6.241056798038469, 54.229111409988874,  4.224560837482724
 1.614386706163490, 14.744516204653426, 62.103973677867344,  3.743596409843957
12.650220003110423, 18.735985779489408, 56.249855450788061,  3.791939542365003
18.329184569790481, 15.969561223688860, 85.016419962644861,  4.027072061375832
 6.125152481186205,  5.287624661452101, 28.054255320810395,  4.204541611249955
 4.461656578883122,  4.913184625004503, 55.397985332098358,  3.759202937119398
 3.940877723850743, 17.817221141559454, 31.230670343520490,  4.054611317951829
 2.456527615122149,  4.947337636772765,  7.803662084258844,  4.060515872489359
 0.403505389059244, 12.602302796859924, 65.415832771015573,  3.820955856784288
17.518335830822451,  8.879943956987407, 20.390521015342916,  3.751610430843873
17.877964100553552, 10.708253335751200, 17.060937172324294,  3.817091462202476
 8.993897781472297,  3.267827509071924, 97.602374592802960,  3.761671316154555
 6.487870036208639, 11.580129949681883, 59.131893376504848,  4.028627760253451
17.115715874516866,  9.153048561932266, 33.712073968756300,  3.757459070602780
16.077102950892552, 10.936144509810486, 56.480956550182668,  3.741073657838230
13.853422808808146,  9.526034568791172, 36.386908155152838,  4.050019015378995
11.426799140890575,  9.265076755998722,  6.903320206274777,  4.000817419560867
 5.413266019516049,  9.734124772989741, 30.077127901215011,  3.692071610178199
 4.838769883005505,  2.564312440663477, 64.994111953679564,  3.970378660135738
18.037375150108058,  8.357594347838317, 86.591075014255267,  3.994553196782517
 0.777161336430015, 18.225212935991692, 44.312556835076428,  4.033552935516822
 7.767673847807255, 17.361025723249519, 109.746352397746520,  3.956597369030475
18.349874053549744, 10.428031926744390, 47.081889564023065,  4.151840642694880
 1.508871968557662,  7.217673582666126, 36.134218320424509,  3.948340006892223
16.592460293249701, 11.894957569007602, 43.709470375316599,  3.981809741773224
18.818233523843030,  4.576104115982259,  2.604905654073376,  3.824182713025364
11.300827200624626,  4.650856868186223,  4.856209782650990,  3.839208481549283
13.895362146130502, 18.606780005329490, 40.123154897146662,  4.095014266597545
 7.765424317474028,  2.585873763443105, 17.029630786339318,  3.530208169602966
 7.456269271612825,  9.872152080737324, 33.186365467294721,  3.651138545341549
18.046120288598985,  4.714432837945859, 65.957327939622104,  4.009793010400371
 7.747306229887235,  8.184659032399507, 44.064847391214826,  4.252356433847286
12.513342939087810, 10.012904276570595, 62.286622739542992,  4.149031517793760
 9.191301678729767, 14.184222374120750, 99.605628765720724,  3.594695108903041
 3.820031781625903,  6.126341804954448, 108.442072268367241,  3.821899270018478
10.428711512208235, 16.668840812862637, 33.306124248700826,  4.149244216576639
13.996181858153475,  3.294774302698603, 96.581757389137564,  4.537242432424310
 1.314733349344227,  4.093966526444381, 29.288536662484542,  3.762500192068785
 9.591622395823054, 14.170662173780652, 74.822992615144670,  4.033463476735845
 9.798847374418802, 11.333941761755591, 71.878651651618483,  3.975881117202823
18.089411559947539,  7.263150960815078, 78.937702986399529,  3.996796243159753
 3.911563921425144,  2.207561888191672, 108.195371242980855,  3.998398164387597
12.464667749663803,  9.426649482770079, 114.159342599931747,  3.846000075841794
11.156487984116698,  9.505369019023110, 82.881919967158154,  4.058775171495778
 4.573154274249183, 13.983219150441963, 44.014134501474935,  4.200789825075006
 7.102613527814293,  8.897525941887988, 108.457508420898051,  3.685193193008222
15.874441899111906, 18.340814100894626,  5.654682407607062,  3.905760728920333
13.609673101207921, 15.612785366755462, 21.294241951310106,  3.886129617927543
 7.690883768325074, 18.697375930096417, 23.268033189100027,  3.829978646996822
12.209410672178750, 15.133148596821075, 36.813009547775557,  4.295242021847748
17.500366337243104, 15.786789939694023, 94.291045395363952,  3.921297718726351
 7.915438019759429,  1.132184340293247, 13.455523393041616,  4.175963635312791
16.647291097439869, 16.018779459622102, 42.832303896952638,  4.111392175357174
 7.705896080904274, 16.675355337184392, 30.216065671352830,  4.068457381590950
 4.901278687891983, 12.493352199647193, 49.814385898254834,  3.615086326743294
17.520324154515357, 16.958857267779671, 81.205438546322313,  4.007212435636215
14.003116199772867, 14.249483741747943, 40.390926770298137,  3.839255726470684
 7.934158165983847, 15.157205707490251, 57.793499564981367,  4.105407371190886
 7.071067146943276, 15.553104066163574, 113.350215707445827,  4.183810255740402
14.531255618424769, 16.110138080849328, 32.314289889102561,  4.221562657245343
11.936391697806078,  6.312748029459687, 67.773249566896155,  3.980896916562913
13.157865313086532, 12.234843773897436, 106.712979870823830,  4.392226921246993
 5.387521663719824, 18.060356242106682, 45.292504240477328,  4.464099525362023
 4.601353214088929, 13.146308982306296, 39.704173386253210,  4.154751269741488
17.148413084724297,  0.975448122115939,  1.810721734248102,  4.188205981218553
18.669232996826711,  8.373454894737801, 43.508303957329716,  3.811456913371594
 2.779635612292485, 13.481343372650427, 76.261488540879270,  3.755562294315034
16.154654744985770, 14.924310297140494, 28.304274544137456,  4.214745473392692
13.934910886645373, 13.151079160349495, 115.050808858539710,  4.258711575184929
17.332212997809116, 11.321954960495855, 79.802593434811214,  3.726551073561974
 9.776230052075920,  2.355009870090566,  9.301804932348169,  3.830732409321534
 6.062636782475079,  0.751840579278230, 87.503309593084211,  3.857821154047105
 5.907111704774634, 11.737152757198393, 74.765331009797151,  3.749140339984254
 2.986044787186581, 11.728273318653290, 46.733112676598871,  3.521775056599453
13.629420772747491,  5.577691647657208, 106.319333039675158,  3.637614391250977
12.460474192221392,  7.187146046526195, 95.468100205852693,  4.120684458285923
 4.573399667488975, 14.848105070982010, 68.961411946492035,  3.849123879133407
12.521767395067897,  6.720497355267278, 39.049333109826172,  4.083582154266252
10.082788009779948,  3.580425346526776, 50.386458482026832,  4.242642594921990
14.244196627381161,  9.516138103203609, 99.802424794268788,  4.118875865710796
10.504102046892012, 17.159452117039713, 19.223721273961761,  4.192643025290828
 4.980257781240130, 11.426672075244072, 21.834584958686406,  4.200138925679409
 4.023004578547528, 17.286788032236828, 108.709690975914270,  3.814286675156065
 1.179703436373729,  5.909271662419003, 113.338135782510108,  3.636108500475156
 9.306806812519753,  0.292182026167343, 113.123657281072866,  4.017253561161014
10.939080921205148, 18.475300162540506, 69.837129671127499,  3.852292497216189
 6.206093819086179, 17.633632406096897, 26.660191797899905,  3.873944731339912
13.837837257324860, 17.613454543340396,  0.850075284673531,  4.105133633076304
 6.447998422728482,  8.376767329943906, 92.677452935854191,  3.944268698371959
15.012197959699520, 10.538372840034970, 22.836032124856978,  3.902994376559811
15.761592989696130,  6.696321164692668,  1.202952431307539,  4.103404094053007
14.222663217611959, 16.046303271173503, 49.944367171934417,  3.780003200998142
 9.374231746564933, 10.287383645993753, 94.535196385705731,  3.939644365259517
10.007655944250631, 12.462864485748208, 114.000832870365542,  3.945793012158830
 4.088639731037168, 11.437299996698821, 79.437121368119051,  4.235861097181921
 3.633839516642957, 16.840431496000484, 78.491027252406496,  3.995126299453556
 3.652124926797869, 18.137969566836158, 62.865947110592558,  4.270575457918004
10.342166859821159, 15.121142731966026, 50.653744650931444,  4.088793716544884
 0.105213409240575,  5.127166327496270, 55.627550836568119,  4.362322649885498
10.816039960470285, 15.804172248335412, 107.488748086681341,  4.243187392361931
 5.057953652587998, 16.971725420116364, 13.644217645458090,  4.279621364970918
 8.461746509269213,  3.474453735248770, 73.723392584349938,  4.230248165722339
 2.773565322953064, 15.389447480646149, 34.220451167505878,  3.974278521215906
 4.655737405950173,  1.574588925997711, 41.733122885665736,  3.915258798253326
13.987671376033973, 17.644727432408160, 10.181523164897195,  3.931386877868223
12.542829076425521,  0.296128112263081, 88.408153206170354,  4.113313957829054
11.800604328789412,  3.671182778777533, 100.375659742298851,  4.148881591486104
10.362913285445361, 11.341846547193425, 17.250478448637189,  3.934647255867913
 6.624156022148041,  6.921666470252395, 99.023343406526806,  3.803327730120135
11.317241343427053,  1.143880786125967, 16.509780563985853,  3.959288421206114
12.546902510366104,  6.789737117575954, 51.180766104783487,  3.799814255646808
 2.563950978928631,  6.772900157076906,  4.282717296812089,  3.867477695692934
17.676943219501421,  7.161193693162994,  5.431524691398598,  4.127328594553362
11.562227401912784, 15.905992312292794, 29.573463315496276,  3.795451000383082
 8.472347679272421, 17.496953239383039, 104.492112362845745,  4.066986876890307
17.168065919461963,  6.529896416683269, 46.639376546296432,  4.034071452776427
10.256710730454859,  7.264771524197698, 92.028562937038146,  4.022543895853506
12.434379809560980,  0.892673645885375,  4.263067829811978,  4.086360090831028
 7.373062320697080, 13.422691668496766, 117.002827583515725,  4.254107509959013
 6.710677365970169, 15.775847203355141, 88.389286505560719,  4.136219011605042
 5.671006888243197,  5.218233429303556, 45.533957164743974,  3.554354381942017
 0.992939620262377,  4.346544849671375, 39.492141359503094,  3.841669193353988
11.971871465877797, 12.078381622752207, 20.839141984737228,  3.951036994321637
17.730912042145182, 11.956845664349290, 72.394078551371948,  4.234563979631053
17.230074154900752, 11.875810130143735, 30.658419946043164,  3.740966324223150
 4.670069593472663,  2.836190513074286, 31.019887171593499,  4.009178992163373
 7.542857349378921, 12.214419132450193, 14.987805829375757,  3.492978439261129
 7.767213611941743,  0.876524395649348, 62.728748434787683,  4.166278191365146
 7.016765002082066,  8.241313182663820, 72.796123891601312,  4.541222799539872
15.614194643291610,  7.278171197616047, 56.799575829385958,  3.656234421628804
10.706990059728678,  3.265422535856229, 40.227543971057706,  3.699328238178679
16.260636935662639,  6.587905262016215, 113.041596180371030,  3.949270585459520
 1.240940296461131,  1.773908258174392, 90.739472979667966,  4.204721722676020
 9.142483108917908,  5.078128751429541, 46.728402944012920,  3.743485333383219
11.290643237621444,  9.391898395051475, 32.767783935052194,  4.032456536634129
11.620972250618184,  4.430278906848859, 58.296946958389015,  3.998385920648437
13.934930887173790,  7.044592311894327, 20.908804774004469,  4.350882425241563
 4.962908993333366,  3.028471260268650, 60.683236352790651,  3.998597571860890
13.228520679804610, 16.859542138485267, 67.197038093895330,  3.844921346674806
14.169054187253105,  4.573974446547301, 72.576927738314467,  4.076043465159088
 3.542132040944369,  5.964195100372643, 24.804295561199314,  4.167695603121664
13.747413018742861,  4.249547760555275, 16.156681854407854,  3.870258183685756
 5.326015417335703, 12.479099815820899, 34.893359034909253,  3.881875704959227
14.755498536897962,  0.995732348055857, 78.563027510936038,  3.972731131989883
12.246141146068370, 15.669937996204055, 97.873727214364536,  3.686098556524736
15.628349158986333, 13.179677091584425, 37.205961676591087,  3.612806161232383
 1.264602643597494,  2.990727457818734, 97.291834260033994,  4.251022519760495
11.655132278759408,  9.503051250820940, 28.259100700409292,  3.906788100975213
 1.333930793697763,  5.535066315294474, 76.176919891153915,  3.819982118313066
 7.708701719834187,  1.337318845767114, 70.578456750215963,  3.515250697333814
 4.557693407470679,  6.322932400172156, 115.196014523105077,  4.063760677622334
13.571218872284106,  3.070357371255544,  0.773411733331460,  4.330178966119846
15.139994758302812, 14.227609842386968, 70.075577083794030,  3.862102938121506
10.972732506083673, 15.738921723837517, 111.733445642229086,  4.236074985924716
12.312051342581960,  1.875634723086031, 66.948831189736453,  4.069048382944453
 9.433906241497324, 12.090224849506637, 108.476120251284428,  3.838939520111226
15.098872070158391,  2.305993832367980, 82.361348950606398,  4.046636215346601
15.437483149845784,  5.579548522733182, 99.955867938187879,  4.102647548962266
18.517163895942964, 13.705160797925057, 11.588713258374115,  3.816872956249707
18.706057615470339,  5.804034157951177, 26.232263892942104,  3.875718850218637
16.093230085756268,  2.546597393297533, 89.217556786146261,  4.404748330601516
16.731382217348649,  7.038293153673961, 103.469568881157784,  3.842767003937466
 7.631954174772913,  9.314182876088653, 79.048578758753635,  3.996348722298523
 5.885624619607405, 14.870510705439308, 81.184257958745775,  4.026047676627751
14.767375871964232, 14.186712656241451, 11.666239678580496,  3.739944287760954
 3.772293843565292, 11.711033595725274, 63.448625270478679,  4.166933749789332
 7.572972423684566, 10.167310736798202,  6.336966718616590,  3.989048149977124
 5.757533523743977,  3.349062883540552, 117.572900840224875,  3.894855513925975
 0.459578574309876,  6.572465506670460, 106.374041976807689,  4.018483874737774
17.740180969375693, 15.665772002293206, 34.991173039112226,  4.150151646237469
13.943189061343313, 13.048992845992146, 66.453562069000512,  4.019332474463761
 2.759609078772719,  7.537967958991562, 28.437998530343286,  3.898007867977523
 8.635880257877636,  2.803372589935029, 77.652348393437649,  3.739940608701231
14.894113631609049, 14.754919944028735, 56.163539309630970,  4.266361980134194
 3.744591545700088, 18.131001557897068, 23.737358585268723,  3.811920520609118
 8.499122336720887,  7.072807869459087, 102.910680918658002,  4.229451989023187
16.508220148262883,  6.319155020876427, 36.546947111188253,  4.212903688905851
 9.039094284913384, 14.410528797840398, 26.733043900554129,  4.335509811754823
 3.157248205306519,  0.912246644198057,  8.086630753425293,  4.139774976921212
 7.341103688884246,  3.178736627719310, 57.327415407837854,  3.943743400688918
15.491411147292306,  4.339005819186981, 49.455085105656963,  3.796385353032949
10.712247488871393,  8.469791269562631, 106.466475175974281,  4.580018305844160
 0.727419622294691, 12.289693257382854, 55.814948245996632,  3.954135700222056
11.869111856294635, 16.336633518949608, 84.823347884199549,  3.607377862044713
 3.356212288032326,  6.986067317161878, 91.130916254680471,  3.488553015955757
17.749607384859004,  2.861090017587431, 113.312817503894891,  4.089155782959237
17.060756364663462, 14.432169385020723,  4.487601876124145,  4.410944123118272
 6.461672643467593,  9.123409718617269, 65.407804294923338,  4.242937203085972
 9.266218646339558, 17.363779574908630,  4.130726275997262,  3.840762561062610
 1.293992546193095, 15.622623121873465, 14.590651638076693,  3.860852682800037
18.396694100960008,  6.000698331685645, 89.793552113901171,  3.954756351578333
 7.730103102321471, 17.960785469698493, 97.952746464833780,  3.989340572425361
 0.612123258832607,  3.734149585423586, 11.835629635592211,  4.201012201423070
10.890224697818782,  2.799698631698691, 115.965249740431659,  4.178248931723861
14.335034146024599, 17.012829471041002, 25.075407822203875,  4.290416248185275
16.341995082402391, 16.037439719055829, 116.626596548783112,  3.873279985584897
12.492728463083230,  6.256972183269163, 34.743951507289097,  3.747216855642422
15.002868701283962, 10.233142003290169, 40.296910579687676,  4.207904854304266
 3.251530311484152,  6.075237070451694, 65.775543443516995,  3.872966045866228
14.853114246211851, 18.357560485472494, 36.090557233900604,  4.041547230175486
12.053046277546617,  5.393592643956636, 30.860084267789350,  4.232816778064364
 2.223267324249540, 14.208243752737831,  4.523872984353810,  3.763321633976986
 7.499999782262194, 12.562068193247693, 67.898726965094767,  3.864733563695973
12.311692060902985, 10.682815499646587, 49.944933492659558,  3.803122622520571
14.534251956763228, 13.280533308208774, 95.198214787368229,  4.051213057334865
13.533359756218397,  3.401750667840708, 37.086793067335257,  3.886606051329865
 2.665398679212653, 15.876483091893174, 27.747619027703500,  4.312508690749955
 8.787694427628944,  1.118908397336950, 90.700659202456308,  4.405653828752866
10.967556350481086,  0.225496047134514, 37.238749770982885,  4.203757163358416
15.880345508085853,  7.375304049663321, 17.235606457246952,  3.960457182715407
12.375323333162759,  8.445584219314277, 58.595985012760984,  3.861451771207300
 9.309557903405082, 18.121246463647239, 86.606581633755454,  3.566535489160142
 3.748574598066809, 12.578330819205210, 114.437680402004432,  4.012660404785973
 8.882168095835901,  7.600436338365109, 49.787460632016952,  4.201174704760722
 6.146523250258987,  4.168219250394684,  9.461059419147421,  4.177051700475656
 2.920817017811462,  6.776132342359568, 72.718334390902371,  4.152713298412284
 5.214977781079841, 10.553013974998690, 12.398753022895578,  3.904462012291500
 8.189999251831072, 12.088510271231957, 89.848040954699414,  4.217494341708429
 5.798217385458948, 13.529483465133417,  5.514484046437817,  3.739116076231327
 6.012209072036109,  2.450017096159602, 48.255888186180805,  4.209588131809837
10.615916684695149, 18.285230615140744, 94.384878973598830,  4.063541265248054
16.442088990753557,  3.863373921757545, 19.352390566275684,  4.296373297650437
 2.923525939107686,  2.585005270642088, 45.185719768833792,  4.059917788663892
 3.849084412401697,  2.318479588199340, 93.613984264950474,  3.572569480693092
 2.452501699573753,  2.370745111249212, 53.510151965568937,  3.728927549256861
 0.449049302549127, 11.977815922772443, 101.927689729096741,  4.056312927154055
 6.517534440103597, 17.582959698407073, 17.956430755985004,  4.209861613578781
 9.231486802361719, 10.943264453224327, 10.130376503569865,  4.404428862789593
14.776326604638101,  3.159252754897636, 103.356216725680127,  4.330112376078699
14.294144477365537,  4.615508641761916, 64.990626115201280,  3.680348131901525
12.929614614126734,  6.454267607845701, 47.187110452931272,  4.247916268278622
15.225925623628221,  3.743290907435791, 44.796472205269431,  3.683253670820077
18.104569603700252, 17.944516769473761, 113.360709982864989,  3.690009819771506
 5.474117595417939,  9.407571746958771, 96.321775076517028,  3.859002513491230
16.731948280306511, 14.154184829124926, 106.114555414052134,  3.797433270423832
10.864385675534210, 15.048860795948620, 78.639780081176099,  3.964921784477397
 5.611015867545142,  8.452835913009714, 47.557358884903259,  3.897712830663978
 2.514035225251225, 16.868866154893364, 82.427735599790225,  4.178930515208719
18.616210261946197,  0.877563816896902, 83.835441240715127,  4.079046739212338
 3.764595859140446,  3.202417801585047, 68.976725169060160,  4.321052058455982
 0.161597852429446, 11.141949369345463, 61.469962000537826,  4.114348487653669
 1.860904626842127, 11.573112169402037, 14.495766873772606,  4.163198452393808
 2.430447512051684,  2.751850233663021, 115.251191953209599,  4.139755637795642
 3.483233848854975,  5.468377950436381, 42.549094845952794,  3.799382788651658
17.547735944444927, 14.033426885080109, 112.771604883609655,  4.270145591492525
 3.465203952658742,  6.943138027862184, 11.398382690145816,  4.349396762438757
 0.867679362317546,  6.272593725489752, 69.207454330361585,  4.002906937195957
 7.422234261948290, 10.937352084548817, 105.248846292696314,  3.941288084677660
 4.808223577006222,  7.793193601630796, 104.943545925450636,  4.156892341139775
 1.293502995655276, 16.015199196628259, 90.332165709380078,  4.092607178957483
 0.312123032550956,  8.484163339749589,  1.676422241127670,  3.824141451913646
10.903607523861954, 18.650367225973490, 76.754809225062104,  4.161792073172417
16.594063115869933,  7.720385630846180, 82.806045537138090,  4.102236038239020
 5.152960528647967,  9.518370113648114, 89.201644745339465,  3.813068755940794
16.764897852825957,  1.061909398036995, 42.456051425222945,  3.792077949900456
 1.339914525480121,  2.344475888220940, 24.579426389972838,  4.276830032179723
11.479435876570466,  9.155177311782117, 24.097670322338143,  4.039423466542416
 8.560338002698305, 11.614721407828711, 49.985232049481219,  3.846961308725445
18.642187990355580,  2.451855797617751, 69.220399873707919,  3.986586540019649
10.914811961223075,  3.463273044070709, 70.401253985344312,  4.026019163133833
 2.680039894208020,  5.922581753977221, 83.836018221809383,  3.787833213055350
 0.495209556057491, 12.166794174363108, 33.767773705545792,  3.834099366391934
 3.812326110203551,  8.883798519566888,  7.541859538632272,  4.281596447184585
17.386043687452059,  4.093554053037118,  8.258908147921757,  4.210808502802123
15.284699816146546, 10.944859360204125, 26.939251834427619,  4.326553096151730
10.068203216446443, 15.674620188606694, 22.915344670560152,  3.781143261566208
 8.605831001420034,  6.575416154715186, 76.358101915919505,  3.908032475541796
 5.245633628980727,  8.553520151171179, 82.223157647231730,  4.090779374713466
 0.941102759027065, 14.493557716423632, 97.293763592820710,  4.027936160048808
 2.108857392316561,  8.437553190564106, 21.886201326932966,  3.998680153833091
11.956618421023826,  1.301948756765852, 12.496583613906886,  4.134028521862069
 1.186901308554674,  9.800949446664701, 89.746064746574135,  4.125747978714342
 2.942850424124276, 13.928009948094395, 107.361166802677246,  3.738294642903069
 7.176782419873009, 14.061068453615363, 11.849340736844761,  3.757779796503108
 1.098160993745789, 17.642153704638947, 69.250378543857650,  4.048413140231215
11.187251357303094,  8.828926965584905, 42.056461294920247,  3.637814112771386
11.954827393488287, 12.786019369990175, 86.279518664160292,  4.064557189261450
13.705167278447265,  1.234841341698220, 92.492545239204276,  4.097969828334628
 3.725812403216382,  2.100938281963737, 38.020962332094030,  3.784628724931250
 3.370759027198126, 16.696304564307219, 38.120625733623328,  3.922304796012286
 2.380433263888142,  1.983959297999727,  0.861401931635673,  4.201469264127777
18.376541665750359,  9.968530306225059, 52.217873790265422,  3.973285556187978
15.106773304097153,  4.128938042981964, 68.717511166982007,  3.900539798364429
 8.594474424821467,  4.097003049221859,  1.931817683454732,  4.039059272279965
 3.148415587453886, 14.551369838990794, 101.113537110224868,  3.544551312757203
 6.548418047500348,  2.405183235694645, 52.764594705626976,  4.580543668146650
 9.526470439440347, 17.631027122048650, 81.509773401476494,  4.161868596767455
11.513610096262919,  5.249665295611221, 43.467495654849863,  4.068539648217590
10.849560078381350,  6.884709162086898, 79.707638559441918,  4.158348356346045
 2.537203247073873,  6.696902135537614, 87.629629388673976,  3.701631140707692
12.390118643633190,  3.612288761469395, 76.326933852250662,  4.230390693296175
 2.393254363211405,  9.357182048115735, 49.623587469558025,  3.956526673727525
18.459436920760698, 17.944114417474591, 62.726355610852600,  4.022372344370114
15.416446930115097,  5.726957859056203, 28.596233951415439,  3.858437445330496
16.619593528162760, 14.717510040467648, 102.378457372281233,  3.756806529933610
 2.649000349681489,  9.584148557531513, 117.114137864636504,  4.171955579018282
10.463601187484677,  9.575936878697640, 46.706618140492566,  3.759966246573857
 6.021365576201229, 16.750384045241407, 41.207222398285118,  4.145644576871413
 7.436596972327589,  5.265860855223300, 66.278524480544903,  3.902871460705629
 7.943381741177877, 11.892634172835669,  2.896807721514490,  3.743316991118211
 4.589095154506968,  5.844161953674966, 38.808448712119123,  4.037413974703925
10.469795455943627,  2.773258098587714, 54.738861416995810,  4.133140985783763
10.335319532858106,  9.526656309495660, 52.927644657099108,  3.684047867018903
11.398359403755755,  0.363224653736487, 98.138226988773638,  3.830114935492179
16.973452414873417,  4.560485485032365, 85.468790860561640,  4.188396312946127
17.606453991309252,  2.934277079248704, 106.483762254777744,  4.109936122637929
 5.566215148393454,  7.814071609316088, 85.975916527290295,  3.526269435999065
 8.571499945442696,  4.801557662504563, 60.905231846543089,  4.050911143190487
 0.137586105610389,  1.531482457181491, 59.725851359752646,  3.946256604175677
 9.353029818106249,  3.056536095563250, 86.837727981731376,  4.225045758379472
 1.666356765428720,  0.450174279580954, 110.908123974652426,  3.869409362097165
 7.891199237546947, 12.196330603885730, 62.935959401432619,  4.115015480172969
 0.332056948677778, 16.909360840352740, 100.818809253028491,  3.820717200518855
 7.573968461749306, 14.533569187415624, 71.452214199405091,  3.796244120156757
13.267821519709370, 16.769741795773584, 14.148247473613798,  4.023668380315554
16.889079451128705,  4.895961811571953, 59.630654752292557,  4.091253374099429
 8.695898402169846,  7.724510644718148, 30.187329294471279,  3.999183968837264
 4.170410409245569,  4.175579451381836, 111.787791397824108,  3.939196153746070
10.913963687167355, 13.401206939332436, 92.616254410561908,  3.979494137155613
 7.516719879315027,  5.181658724975806, 106.977600883334247,  4.347283503299532
11.827933389586700,  4.015580858441179, 90.034009302782920,  4.051430644105204
17.685525326459032,  2.697948600712404, 52.317343494280649,  4.123729804212763
 3.222401600812993, 15.176035236596089, 52.185096158866308,  3.768879772577289
