BANDS
8 8
NANOPARTICLES
cell(1), 18.963
cell(2), 18.963
cell(3), 118.520
 1.918911692569968,  9.428542429660746, 48.983451080028487,  4.293253830218944
 9.023975488873422,  2.376409824166713, 34.081261831772835,  3.911829526200527
15.789879523508478, 15.131208652749265, 105.503572847034874,  3.904920410541504
15.007165933503117, 17.534048221174704, 40.071413820777472,  3.966418232765209
13.582506111842658,  5.778992926395921, 90.258731185870147,  4.002787950425994
11.931919249431790, 17.171227537116856, 26.372304195349891,  4.197852128278306
18.893713533532488, 17.601279864520745, 15.857589228614271,  3.989044231703970
 5.708192867888086,  4.122462336255580, 11.055423911659055,  4.135563536992749
 4.041856078038636,  0.220082978790863, 70.085548783967312,  4.068549977824590
10.292192790841275,  0.170703552784931, 52.481355158790755,  3.952871359379402
17.433574742952889,  3.644386887894010, 11.243659104847438,  4.099797613687078
16.312828530426351, 10.634267006995143, 106.627790783565644,  4.337341038464754
10.733158427067970, 12.639659638009970, 55.880319169158064,  4.203664521771632
 2.653064093479123, 18.882369809916234, 38.101503879421635,  3.999775552694034
11.204263001105907,  2.032332845989252,  0.347067822324699,  3.842195885980111
 5.952316777609560,  7.639227538140785, 91.847466166063597,  4.262595822800241
13.581419523992237, 15.029617158615421, 79.584594129552968,  4.157704018615243
 0.359189483915899,  5.036562144011445, 97.852111138874406,  4.054437086811911
17.086718472940976, 17.289117157182943, 99.327228816003441,  3.999184680142613
 2.333122615159005, 18.757760713322391, 51.802184725351090,  4.038424016560477
18.012894937291058,  7.346486942675548, 51.261609199865006,  3.904606163109883
12.483251220181611, 16.275547389842654, 103.602589076450045,  4.017186690783374
 0.816141942496241,  7.629212676055038, 45.137762398819874,  4.032208226206201
13.629174138777611,  1.707635995102826, 96.642564058106004,  3.884676063109540
11.972065770087220,  3.793251749675635, 36.524060777588879,  4.024220655903325
15.807227350887834,  1.685084953661647, 84.957931214749209,  3.985167076477028
 5.060774573974835, 11.326931943054900, 30.138995466024337,  3.819178297930878
10.150133391469774, 10.748663737781579,  9.075306629402620,  3.988844835039772
 4.970561868994813,  5.159698364011801,  2.318455518381607,  3.849309769833695
18.301186374465086,  8.088714467312249, 118.222154005122349,  3.628772136333248
 6.669552599589629,  1.278372893497343, 95.296866234968135,  4.070243045396887
10.675775469585846, 14.977069984310715, 92.625337512433219,  3.794989389601614
10.765979804540759,  4.448539995860991, 30.217103595449291,  3.900877727174358
11.615743120205655,  4.220111728721545, 64.494755943651654,  3.754294669935796
15.433401278612569, 14.851253018864810, 26.613364123100187,  4.197570791346656
12.175635682726469,  7.676095855930395, 62.847603111748583,  3.945261769759089
 2.720710320776147, 12.898567007769108,  2.914893408147058,  3.981193297734360
 1.459339182135660,  3.906508875189353, 19.761788748427591,  3.952074702633666
16.057008681181710, 12.591629267225620, 77.339236219005542,  4.095795142994917
 1.258263419685747,  1.647424585138150, 84.626568751193261,  3.963103919163463
13.707106668193061,  7.861931431934769, 19.751026274862237,  4.214147034952926
17.986818261128665,  9.574588572980616, 114.119905295401864,  4.317163424355535
 7.512928790180870, 10.495473467607688, 27.227232561820010,  3.971470009885627
10.008376146782243,  0.132192760853185, 102.423284705766633,  3.848395211701642
 1.396973950250006, 17.688942101070751, 12.080259248340985,  4.082707778711478
17.366280994358831,  9.346735950208149, 83.308526673747053,  3.892168922934415
14.752296478620581, 10.393984259104029, 111.306713823009162,  3.803153604761634
 6.099079742342360, 10.453001976249766,  7.487915541101903,  3.822613128808578
 1.474743764218031, 10.116554668322575, 93.073480732218485,  3.964212427129727
 4.624442795679735,  0.341811096850576, 28.316363610049216,  4.317544563144097
 1.447134621065388,  9.333531935598616, 100.786156337488961,  3.824018949962582
 9.609622134650126, 10.296775967444992, 100.710640515590413,  3.938872869041420
 0.834044923293239, 14.574421149570183, 60.581436013963071,  3.813746125951263
 5.961794169658121,  1.852821902690573, 114.054625953419716,  3.579283452005313
 0.310418930888565,  8.546538368072577, 20.290683653320638,  3.503708290691935
13.507081798999272, 17.347556019924141, 94.129602076341499,  4.173707743204523
14.044907960683851, 18.098966075654548, 64.015902552560121,  3.722732111093044
13.813695024308243, 14.418211022681524, 19.639085080715930,  4.317034919414088
 1.430558599020012, 14.507878583624713, 82.012695388687689,  4.203584633993243
15.293379800768884,  1.029869187479612, 43.483254368602893,  4.275859114999708
 0.726419950115789, 13.741589680220734, 115.246731437479355,  4.087839687192127
18.390821781637783, 16.009051831763490, 102.788696180913703,  3.808988059344289
13.076997409248653, 10.397304044009262, 75.758639986283342,  3.948813309553044
10.626061770161236, 14.469642395721738,  3.109272927117002,  4.077589906872215
13.885571057715525,  2.287399259165171, 71.039884354256174,  3.666159388291720
15.656676189970478,  8.246739609839503, 96.122285218012081,  4.053039808448375
 6.716737682879352,  4.390143726184476, 89.264653750910369,  3.967952654840963
 1.649806464399783,  3.357620020114274, 60.422600568412115,  3.726737580025964
17.166120378533947,  0.531918744795019, 51.233037190702795,  4.108105115525699
 7.082705169110906,  2.030886127226790,  0.553469609322550,  4.407075155998235
 5.282236323691497,  0.633525918263330, 81.953742965094648,  3.706893046454547
 3.834971170074557,  8.203337695856050, 42.435357228863808,  4.115674651018698
 8.380272731506942,  4.960597148159153, 94.258487773206014,  4.207753204073304
 1.762771935246969,  7.821791224600075, 76.767095857300845,  3.919889007611902
13.676543540632387,  8.138094586840639,  5.740488534804228,  4.022069739801394
11.001492718733425,  8.235229767500075, 73.329431852995398,  3.712458634828562
18.071360819198951,  6.753044595700208, 29.680934602143097,  4.231579538681983
17.922846279090905,  0.612295826831665, 55.236620432503912,  3.821122042934462
12.814137223675571,  9.605133583531421, 93.681149774542760,  3.826056610031385
 7.072637679597898, 16.538480165699877,  6.459889868435960,  3.854677387273587
14.675444654997408, 17.583515433271277, 87.077653817160950,  3.748528534165684
14.326516940567338, 10.071222020072648, 85.754337783361777,  4.004113888186001
 7.701479570050421,  8.293948844369840, 97.793878429389721,  3.872406578141799
12.264062762062816, 11.151466539517481, 114.548155199772680,  4.067638705278003
 7.055112297814483,  4.485022999499497, 98.111124841696068,  3.849683788401281
 2.148005557151361,  6.821896178598192,  8.580892924383258,  4.063242002416702
14.426222296679789,  0.415575345358300, 35.938633733543668,  4.272265307012900
18.902257441172107,  5.051107946558755, 102.547152885681228,  4.375227103727802
 1.527316579497481,  0.571614389174163, 97.839292821083433,  4.201466870174505
10.246454938699284,  7.555054054067472, 114.314425602585928,  3.895313513436717
13.336722579964787,  1.058807348980374, 49.890242725158210,  4.029069020630670
 7.944259802990791, 17.748906988237284, 59.720677870527602,  4.103172699403935
 8.020343991891828,  6.002243462457356, 118.255219664522897,  3.882921900094161
17.381383509834965, 11.638324578519965, 50.788718658414972,  4.064780928776129
18.212729116556250,  5.440207839017807, 47.951344380001579,  3.744593613585592
17.987481823361403, 11.112989421134328, 45.145857539314520,  3.791555738269237
 2.925511454035461, 12.174560613787124, 98.128328203332913,  4.023537083804440
15.268641784919430,  3.951042040044023, 28.376142212246688,  4.020067015144634
 7.300132371347387,  2.852403075507603, 101.659339236447124,  3.956765890114232
17.341454464294976, 11.119552550434467, 102.684319057245446,  3.847654608038920
 5.478192401050408, 17.987843093687747, 107.399006199911696,  4.168396524242898
14.978694040544065,  7.830085094910801, 72.387049566499073,  4.350442812621335
 1.237084198462616,  0.574383150216272, 44.965689532728113,  4.077835774208665
12.322706590954185,  6.268582719709626, 27.166176810776808,  3.812452506043670
 5.571945260069980, 16.555641460016588, 56.398753490632970,  4.358798700884720
 5.889768914306499,  7.187112797127245,  5.461278484846585,  3.821223238920063
 4.071831974956628, 14.556134332276494, 18.788924874735955,  3.736193181490645
15.828883160531147, 16.003275222759211, 10.553459256795492,  3.795309307845169
12.202675723316581,  4.831469090436845, 72.959261379932911,  3.495472509045858
 0.765976819695343, 13.311860747938097, 47.895151458759429,  3.993018104947436
17.702053471225252,  5.407376813706647, 40.480143783490512,  4.093982558856632
 3.029661597210585,  4.200025592588378, 45.713639736491764,  4.131287374549998
 5.192145299699280,  1.301446636313486, 32.132109824122217,  3.579280353337785
 1.893458772309605, 10.882352486678560, 52.917349425685202,  4.073524224961502
 1.688004864389352,  7.668083923007517, 25.792764006086930,  4.014898486126758
 8.764557562616766,  2.898216216192705, 50.113779430351492,  3.870533425695954
 4.639413606472078,  3.655424165557606, 52.436348071055093,  3.951534049512241
16.259693905792677, 16.216550474083135, 53.913528627666629,  4.126576955821946
12.649810459743509, 17.645300046216921, 12.412462687248597,  4.116851106404797
10.597916468776369,  7.965418045062695, 86.970906725813094,  3.894113637269292
 4.035015623416529,  3.854902137850137, 71.657041758241334,  3.782662134994388
 0.309120784407831,  3.828623959428640, 56.896732570622113,  3.864096084269473
 6.969096549808317,  7.839129863223325, 73.666979223639558,  4.127684573483606
 4.968153203961464,  1.355850237331229, 43.272038233199645,  4.250119499639453
11.486868258443881,  4.038241652344215,  6.578741498539220,  3.955662344554562
13.456565614227882, 18.397021494576880, 68.530824354086093,  3.675510004086608
14.224949193622548, 14.072970625297501, 13.585288501349300,  3.988714084661992
 1.891039738549727, 13.437464512950719, 28.928205281646949,  4.151297313123491
 0.929998846958735, 10.591583594267059, 12.928976339542981,  3.735867359902415
10.038530369077929,  2.263201222061980,  9.715877292619268,  3.803273228834183
17.433493480343316,  2.230820691614044, 106.442667470626176,  4.060598038693590
16.661125562959029,  0.053618530915647, 12.849116879647669,  3.867758565054791
18.526042768306827, 10.364819142536643, 23.691793186793070,  4.035018658965979
11.068557629898720, 15.398193149177933, 16.641568224326896,  4.009026913824293
 7.104172166723444,  3.531394706103738, 79.678947432784454,  3.962148734965334
14.671052250235563, 10.529908182643313, 32.289146824016115,  3.952403802716431
 8.512405741528900, 18.005803417502491, 83.825368095800187,  4.363184296514202
15.599402850483285, 16.452595413142301, 33.218609699998332,  4.029669233313150
 4.345444792287945,  4.342216496155687, 67.658882981887032,  4.113638972059939
 3.930295398511300, 14.388066785302184, 74.760142787640362,  4.063326256961812
17.156842493324817,  3.237032278026382, 25.017288595332317,  3.765206864733952
15.484645378968290, 12.326583636641370, 63.623219595176849,  4.014104149155814
18.271916953960282,  2.282194624068149,  2.232284186904270,  3.787274844534696
17.744898214070759, 17.026195029162551, 84.249003348903855,  4.344983934473342
16.677641041125995, 12.044918253982116,  9.848737281309688,  3.924449073798594
17.232142020978458, 14.053190685090931, 17.107974542169700,  4.187675797297217
 9.353934903338198, 16.283300527793028, 29.903032831523227,  3.931531179137638
10.391165779743341, 18.301762268800854, 22.716995100172213,  4.021397156780109
 1.487569243026825,  1.513585616542573, 30.749864201268778,  3.938978356484272
 5.489605528298092, 10.165799614376059, 100.728013756188290,  4.304611936420433
 3.813828409162221, 13.901318448727437,  6.923067442555204,  4.524484847054503
16.289859956343484,  0.526428075498587, 80.984133252314834,  4.334218309064694
14.523680787198202,  7.862115620007710, 15.848979168276978,  3.736104856109995
 7.595134256053622, 10.125679900954140, 104.266312426005356,  3.928247403005209
 8.681468512377473,  2.601263133029528, 13.360354658595298,  3.976840628087298
16.951010806683684,  7.882760878483457, 57.224410547347524,  3.933054904652513
 8.295318396914906,  3.355422757837665, 54.035306420436626,  4.041015956625139
 6.198293489435788, 18.013782802770830, 102.840223394674936,  4.077611905110359
17.400944015789584, 11.354793907179577, 27.387451134284529,  3.817851510681332
11.047190729714508,  3.224623699560125, 21.936520991217204,  4.008901414173517
17.207566604240856,  1.395289488380116, 111.410971248707810,  4.113520960647013
15.615600563337523,  9.411777577151060, 53.726641401160286,  4.085686233386121
17.623601948116722, 15.892341426636179, 79.219714857128537,  4.093140998843189
10.447674471160617, 12.664352003042485, 64.242845055431772,  4.039762936308236
 4.178990719878144,  9.643202304622468, 56.476556979324457,  4.289794408542470
12.519795723601904, 18.814486127472421, 19.325267337181828,  3.950054078921549
 2.049486112905708, 12.903286909399686, 15.873272501765953,  4.069206342832910
 3.961781495866098,  1.447853293128294, 21.793727765107970,  4.047342701579582
13.929282977059156,  2.158978113621013, 92.788528321456454,  3.880007297397912
 9.747505840006301,  2.531811766717097, 82.362648715270453,  3.591863092474861
10.194583147742508,  0.164063716839045, 108.586663860214117,  3.863597552989153
16.558530259396683,  3.890913873330240, 95.154278117340354,  3.965782459548279
10.484179159944675, 16.219211871073671, 96.545831082909558,  3.877120030905898
11.778211310925247,  1.786211862322491, 57.426841298083311,  4.032542562663354
11.006286654802459, 16.023504941262040, 86.809772367174105,  4.229655521117650
 2.025725921781532, 10.465428486926884, 68.886492175877862,  3.705934810796087
12.791011250185194,  0.687878760363591, 105.798775710767501,  3.810730112953894
 9.374100946245315,  4.173440168947520, 86.158048064824399,  4.203365079781437
 5.400524363549569, 12.927804938724854, 118.512257938628935,  3.948005300794979
 9.813654639392226, 18.225037277218004, 48.454067468256959,  4.352824454052397
 6.143740486874059, 16.335731106581466, 87.413378818721867,  4.080459320937728
 3.930994605006046,  7.008115733635224, 98.371529634132159,  4.159874094414560
 2.336500187714353, 17.258875736346226, 86.440585005002688,  3.941072193069183
 9.288606244991133, 17.315696196453519,  9.953210950180964,  4.124112350378347
 3.432173240762071,  4.272548713645235, 86.881818305680866,  4.106805860898159
12.411716995702108, 16.034782272241987, 37.031867863793885,  3.811814587862592
13.636242985703479,  7.500910236853711, 35.155602306770618,  3.822793563354524
 0.580998168136223,  3.974541512584450, 109.685769697575921,  3.565531697932505
 3.451317897346345,  9.289479968551655, 80.020111952833432,  3.972329965702276
 3.404761021080325, 17.815794050300536, 94.318176460391825,  4.280660109828360
17.503968192632055,  5.926085202989903, 22.262180428969046,  3.923090976662094
 4.923426714204316, 10.173656643400182, 14.848868780258226,  3.864857555648872
16.451698977797079, 13.738212659707541, 30.404967651746279,  3.948928189945939
 9.252871663911794, 10.872780108478869, 80.496994905519841,  4.012080833654224
13.947894419985408,  6.253058344824229, 67.149737164943602,  4.237208808464051
12.182954408375977,  4.704614683983940, 53.104551240184890,  4.386480600595447
10.731967436768912,  7.912363477952466, 16.829455592166006,  4.077591949191074
 6.029224896613588,  7.802506840205381, 109.778956169859697,  3.859128371415309
 7.792916300293001,  1.670651323949077, 105.381010534262458,  3.865424283939927
 7.845768236071767,  9.161132333133787, 43.579658795482054,  4.034362139302115
 0.238992586380672,  3.281842991864745, 80.417871972311886,  3.762778930750776
10.496579776416393, 12.285903395555453, 95.583905903519408,  4.203907377102694
 3.732229168998752, 11.033894938592782, 26.196254254941891,  3.896694286431775
 5.539127970759103,  8.991904613358880, 117.838793938144036,  3.859730446050172
 7.266721207210518, 18.569186223628172, 72.229642427833539,  3.756224432754787
 0.323044612681372, 12.460623177375419, 111.404732938586093,  4.019753237584272
 4.110454960643148,  4.415714996151354, 37.088931852965523,  3.639591917336441
 5.750139112295738,  1.188914185404530, 35.921601743654215,  3.958753105853825
 9.733140030760294, 12.289203314238474, 106.863781979289072,  4.045753302590359
 3.134032337066124, 16.001550280181860, 104.398070498197100,  3.869251554212927
 2.245312264763899,  6.538997811699657, 16.818377594091636,  4.051780609803021
17.605928386705173, 18.357337102264115, 65.895695894779763,  4.190393702294653
 8.281875639151576, 10.453380022314811, 12.640014784203192,  3.902064714785175
14.426971468719911, 15.787766017330132,  2.747097828199033,  3.999680682267230
15.817081792096953,  2.445330238977963, 38.963055677059813,  3.495642719440113
 7.120525560978900,  7.605959898929628, 79.080449721709471,  4.261533330800403
 4.001450331103338,  6.740307120229141, 20.491548287202651,  3.773061597444788
 5.424177549162279, 16.022405699575760, 79.736322892735842,  3.919545693415714
 8.909554251739481,  1.643694364294888, 42.373639222495171,  3.827519551176731
 7.120841720951878, 11.840941424300063, 18.327899080570987,  4.207094712650137
 7.897190748041896, 15.761217097660150, 24.224879979665975,  3.693765411726514
14.323204214889845, 17.388109261803766, 22.760742814338737,  4.036327203353349
13.607793647002817,  5.186243002877275, 86.053220016084140,  4.485752635230519
 0.402963094595844, 14.932493815238903,  9.280850901192384,  4.017223553282608
15.379344210595081,  1.626672866692370, 60.954591205953818,  4.076502391975208
 1.861966466920141, 16.908390464023498, 21.125817328188070,  4.214558958073127
 9.038906199611709,  5.052235459758590, 57.887590692613124,  4.501990358594748
 6.022055360045866, 11.125625979973101, 107.747484323871191,  3.902530250596596
17.213899630476298,  8.087182056468221, 37.496743708867847,  3.910556385446478
 3.693370818502598,  2.405556298013138, 63.857499702761459,  4.462048953123594
11.302522506274668, 11.384333051445243, 19.255571259462315,  3.545914179539662
 8.199315783659809, 18.012901047930480, 92.247452119148832,  4.070682951198215
 7.979140569061655,  3.874816837014754, 65.821735009483547,  4.010707658211768
17.551788787051112, 12.030601201204922, 38.386342193448918,  4.148368059536028
14.657215265184018,  2.275962466862024, 66.214221837398611,  4.040019851951218
17.004824994084085,  5.265369816118310, 83.332675135841782,  4.219155896149392
16.455829714873705, 12.393250222404758, 90.227967241836367,  4.177827382819653
15.519647155771310, 13.875052034920934, 46.211235135400919,  3.902858294595816
 0.118545989196069, 15.491419621046257, 68.346891435906372,  3.880432201881926
 3.149127736712617,  1.687229283285280,  2.065255158455110,  3.978389027324940
17.459429337155015,  4.832878289706206, 91.280430922865662,  4.203681023939290
11.983603869482764,  9.797539979091821,  2.660088405791558,  3.747841291465992
 9.273826685224673,  9.663056410243664, 76.336453859563022,  3.787416835585852
18.369488104656391,  0.953855441999322, 77.184494216515176,  4.286226609602070
 1.729102623828333,  4.120399211457955, 27.717028276950494,  4.055667957245605
 1.506398939594802, 10.969290436766041,  9.072655462385127,  4.081791245586105
 8.116746637901144,  9.532920617712010, 63.249893243890554,  3.992215471739182
 7.521394253006779, 12.469430665334478, 74.132157941724671,  4.126482047834520
11.317043885364074, 15.030687592350441, 50.636185678490811,  3.922465899780422
 9.471841597013551, 18.434940721181103, 68.856898756824904,  4.245070929095602
14.925850466186180, 13.855404696504422, 86.524714985327023,  3.799403251199774
 7.424387328475854, 15.037738908879847, 49.650029522045571,  3.961074435250231
10.191753862393771,  9.178117106063260, 58.108322938783623,  4.075649477281880
 9.372410573124466, 13.672882893109875, 102.999088836059556,  4.157296240215085
 1.425621378138751,  4.821178950769029,  0.006168518478627,  4.149653406744513
17.375896237960607,  0.698283617237365, 91.639012471718587,  3.942603508602446
15.548097026246998, 15.374846066451715,  6.570876902432806,  4.011598847710683
 2.556944319244411,  2.688388218037638, 34.222659789090862,  3.693293116607129
 8.802323002062998, 17.546951841359011, 36.378174745648636,  4.107966842930603
 9.911395274809959,  7.587718884822550,  6.688569204353829,  3.799216682020570
10.120939300505302, 11.264448351346717, 91.713390131416915,  3.616306026702857
16.404502054730244, 10.989807891062448, 19.761336943524846,  4.045909000072129
17.264434427596537, 12.861795304824454, 34.251412249507887,  4.040170501397562
 3.888042266242269,  6.689749002570895, 102.531435121857527,  4.155130990617774
16.234650499400473,  5.362361891256331, 54.208774814277071,  4.001676677925639
18.535415417173738,  4.040802092983321,  7.402019632140162,  3.874495878510167
 8.699815001873036,  5.650701360728944, 62.225593732002409,  4.115293886604785
13.467519310024084, 16.548754395900040, 83.452221730813491,  4.151268047654891
 3.834156600852772, 14.327856143822155, 112.138770014142906,  4.064832356286307
18.071880145259222,  4.969890177185786, 77.236710704407912,  3.766755999099560
 4.791589819557829, 15.703824492416636, 97.607006684822224,  4.006633533939060
12.514516989737453, 11.289484870356999, 60.896756940622005,  4.288496844973004
17.495315881851951,  6.162452876306221, 107.189465084207256,  3.911055114141603
14.565658599529842, 18.165616269104927, 77.083747203608056,  4.085688211788315
11.607498035295372, 15.850737649703749, 58.675153502886182,  4.403748411922384
12.616838314798910, 12.689464220092988, 118.391425115169909,  4.113527310577924
 6.180447040708960,  7.883523777051284, 66.292645655659541,  3.679470476917817
 8.423580883075651,  6.599767797202054, 27.836435435549433,  4.034717086711867
 8.071505644558318, 13.835269883215597, 84.731081695066592,  4.165618357589082
 8.476957418385986,  4.908054676755445, 111.890114373262548,  4.095540064579764
11.106540083515428,  8.741691485141780, 29.935802824035271,  3.938997257999190
12.516384144562787,  0.396788655644825, 115.623967441316097,  3.806632194622269
15.536985499212157, 16.337683960895390, 90.618202661642272,  3.920575825282337
12.490135032063590,  8.413279352391545, 46.480167785257734,  4.166695641821249
 2.670999811177867, 13.521461822372446, 57.185798457433869,  4.149504309787114
 7.432434712098312, 11.562288075901867, 66.565760361755693,  3.870781576014390
 6.450957857512131, 18.415301113943713, 39.723308424936683,  4.248097906053174
 3.661513759287742, 16.330804138807451, 48.813881129812238,  4.104160776070358
 4.025739606831642, 13.771215654332030, 67.560585846840354,  4.461179488156175
15.410898013260713,  8.332269244168989, 43.768195646790943,  3.805959786574015
10.344586050132861, 14.057402726045483, 12.678314389959802,  3.967136075383475
10.615989303511910,  0.548444408486977, 65.077610685466809,  3.926745955188016
17.150636843761983,  7.736931221125271, 33.539584979495380,  3.924464685999674
10.204713306425521, 11.671827518575727, 15.748714334351030,  3.802637648233449
12.310794655863383, 15.502408928105767, 107.718397923951613,  4.358647767209304
13.149490336868205,  5.724047263927551, 94.229524636057150,  3.957955578626909
 9.800672488162302, 12.916160121662523, 36.770951738086247,  4.324678843420714
15.480731530125754, 15.525261821887410, 117.378115043870920,  4.072682309998933
 9.201705759029883, 13.774885721509062, 43.223355497145349,  4.308409171293970
15.615784013982775,  8.491460999469670, 60.929018662432959,  4.022874420754423
14.052282942819993,  0.894319310600433, 54.033093331968836,  4.298201134436236
15.963758075203296, 11.826985254101499, 73.315473791575030,  4.084412095006877
 5.929604762801209,  5.067261144943285, 76.242866233050265,  3.711062714671181
 2.253547539220928, 16.871839395663446, 77.483910574330011,  4.031579538996530
 4.703706711416079,  7.743491925640454, 46.232488808608579,  3.726888685692025
 5.502498229173288, 17.462485478257044, 11.633046114865300,  4.148885259845974
14.002133547773585, 11.571926796792908, 16.640140487242157,  3.915172911932075
 5.767042326047132, 14.425212013159845, 27.324501808563848,  4.284152013744604
12.764681858507931, 11.824528580020793, 44.203520089623161,  4.000185034589933
 9.413007556677034,  9.222397963313247, 110.925086415506556,  3.822472689394493
 3.305685234377568,  8.834271649325846, 32.513440088525172,  3.865310225276355
 0.706953569178331,  8.626254556599740, 104.815388350836272,  4.186992399926024
 4.534597545242013,  6.531643922955569, 63.017995146217054,  4.096557505676413
13.836663641105947,  9.243674802522760,  9.624781797649836,  4.042490379006703
 0.717976271421037, 13.565785049219668, 71.733331751435671,  3.996388827297792
18.124519402348763,  0.130466977798895, 87.793812851362475,  3.865051229570779
 9.197643826131085, 11.224962778339398,  5.131311014000515,  4.084226697860962
17.847712854825783, 12.112741392247033, 98.856990352328978,  3.940479160464502
 9.182417255048932,  6.316711599285833, 100.914955923555056,  4.049093120727647
 3.464795964804743,  5.242213333477248, 79.327720386771645,  4.094605301933910
13.737640698374703, 10.122897267143198, 100.930667440128431,  4.314662846085831
18.156837870541942,  6.413363041269331, 14.186555752008445,  3.960852383337663
14.999141311299669,  5.424977096107138, 46.090543648177317,  3.668990594945187
 9.769460965118208, 11.219120251057664, 51.221912049796018,  4.146488046605275
12.588786611436385,  1.029091694059293, 29.321954908779194,  4.032676199324814
11.489752538737545, 12.641212170901296, 110.782066446321451,  4.171992003492160
13.053040630746496, 10.084613660826621, 65.912425565513729,  4.000617889759595
15.418720631493477, 14.966250406180304, 66.655291991400233,  4.010825738282136
 3.100458543985290, 13.028172155943818, 78.508989395990142,  4.045445176945818
 5.544737205468375, 15.620835213986673, 115.563123039150668,  4.010914243446623
18.815181616323056, 10.333701981380685,  2.545685973437051,  3.684714048815345
16.846586630888766,  3.661632302584172, 31.936391672988627,  3.782845115604548
 2.406107885251852,  7.047821542016400, 109.198698947960040,  3.626615541039198
 9.412558104757643, 10.814359658141626, 40.354171902981712,  3.837160415733577
 0.628413752176754,  9.045835883990442, 96.908044765279314,  4.112113472117032
 1.943618919859323, 11.109870930677594, 117.990864864526799,  3.875049240210695
 4.025532884390320,  3.737403482463849,  6.489782537967687,  4.274880525944295
15.813403629118090, 13.193521580218128, 113.903520622718958,  4.110025212055452
16.738730264028586,  8.666003216503718, 64.829312056924891,  4.082046062452019
 1.113517164681791,  0.898958689320486,  5.482921266228599,  4.096656338246548
16.073166139795394, 13.222991054911020, 82.617529337195094,  4.353038834560061
 6.674801439420503, 11.618941438147029, 33.984910891139954,  4.118226289721201
 1.054990015810171, 12.768110865352698, 20.657783260805015,  4.199335805597299
 7.590422894959622, 14.712685426597883, 70.071885408931934,  4.424000878714964
 2.254521048427984,  5.627182885962805, 50.169675804555659,  3.689027808766604
11.670608735008763,  8.830610953324756, 97.529122543039918,  4.003262716905670
 8.866690089263551, 17.554662314745411, 14.020528242740891,  4.067566440603152
 2.250460144980157,  7.602340303738797, 66.253042387167383,  4.081648316509870
 3.855454961787932, 15.543424908625955, 71.140734099075175,  3.513871036991267
 6.721485770884541, 13.963098529414292,  3.505815987943226,  3.806437905100413
 8.161069487078436,  1.244689236647460, 19.932284068304124,  4.022695099735630
 2.963703473926694, 17.912478681740126, 34.307489517104727,  3.830026838933442
10.351737302039300, 14.497510192046127,  7.210140156998415,  4.000513402243826
 6.193249280224358,  0.856623188254604,  4.490222096043038,  3.943054913937291
10.919841576495719,  3.658420249673299, 79.053437946434627,  3.722080602305892
 8.648821717721180,  6.608289447198333, 13.587345216480847,  4.034525135912817
14.252640843904961, 11.824151421708294, 97.213673335565247,  3.884324011052967
10.781025471262751,  9.185553615261878, 22.210924615164306,  3.863619012799083
16.604705076149855,  7.496925551520273, 25.844033224261558,  4.079010961954554
13.339275720474001, 15.799782986363626, 43.300249556421640,  4.082081392330772
 6.054981525196088,  4.182358791620517, 83.568521282699024,  4.177796604304199
 6.673017811400072,  7.719562391491334, 17.615003088855151,  4.187896586510284
10.750264558340428, 13.024960750981705, 77.541776931525149,  3.870886721548647
 8.385683081769999, 10.730436542830153, 115.843456955168762,  3.896157928117683
17.022235248502142, 16.816707980220016, 19.985079257092767,  3.719864539179381
10.259950638721071,  1.926448496583370, 71.947502383275165,  3.776578420850409
 1.528354244997570, 16.682155962499628, 55.046609123235832,  3.817071996812942
 9.956564083442597,  7.407592408599149, 90.840262402535402,  4.003933304614286
18.117710385625134,  8.878211930496255, 110.003160486199064,  4.005647394243858
 0.410059968354670, 13.323851214611052, 105.522211941076705,  4.092328355926839
 6.205094466627159, 11.808270098519042, 91.951888271108700,  4.071817238777027
14.810954182606867,  2.148373177071377, 88.874924053673595,  4.136453918712834
 0.611906442102378,  0.795011507846995, 102.642667944244678,  4.040923188578227
10.349746120274490,  3.320467046149152, 90.848608706464375,  4.184358967488910
 0.981849793288342, 18.050503249406443, 62.542756751475245,  3.997654106203579
 2.922896905671756, 11.048891510642846, 45.300567939299640,  3.999673099155195
11.489625972899720, 14.871553359768294, 46.716005005024627,  3.878564005502634
 0.688884365346804, 10.337148391025327, 58.314663346540968,  3.666758817162110
 0.085742714453291,  9.656466729915319, 89.647818245397616,  3.447805377898289
 2.152254623667669,  6.393446980305838, 90.105913187492703,  4.008492574054674
 4.236290871370029, 17.299124183308461, 24.580764979732422,  4.195767231758884
13.551152894293518,  7.715924039813562, 82.395189332945492,  4.341924183189144
14.211221705869569,  6.054463675867381, 38.712721086242205,  3.690895572602868
 6.050521533016655,  7.305432683840584, 86.684729611359288,  3.905534114961927
 9.327634184145808, 15.017900313633524, 80.808103159728049,  4.276180318565231
 3.129092812611945,  8.510406481050984, 73.263751433815358,  3.700703998059532
18.014014041260726, 17.198017001094144, 23.902727818570927,  3.695378027197970
 6.220235502759161,  9.892801222477296, 49.289820789006484,  4.322100424554538
 7.366317113833683,  7.712445170400009,  9.952491891750153,  3.970222577317001
18.508773339252070, 17.232144962553122, 47.990181856536530,  4.217221208767890
10.271040203007903,  1.227411724649729, 112.364107899328886,  3.914468789233575
14.882676905258689,  5.327973534134557,  8.457692413515518,  4.152438030430374
 8.454495115175060, 15.184479908928379, 53.520093948321332,  4.018798200449198
 1.325447177721753, 10.161210886083559, 35.804925155980705,  4.241126807919885
 8.862066977042968,  9.993477794006042, 84.245116617145300,  3.720962440211924
18.774242732353958,  6.303910176888192, 73.568017528416377,  4.154959975655736
 0.344468701034718, 10.939179819660851, 62.412439042930110,  4.236606217524629
 9.345375908503197, 18.029605478146014, 56.052770626030444,  3.746822941861850
13.874009042072952, 11.420606557589778, 36.320577870371729,  4.354516638353648
16.711759914827013,  8.798995911011312, 76.078603385437447,  3.986527170550656
12.497418486863399,  9.545505274079497, 108.142682071796898,  4.144637584495542
 5.645849493506878, 15.783856281158336, 42.738563519930189,  3.907085566932012
13.283959747375587,  7.940924655628169, 50.569836929844030,  4.110812909839520
15.675841891139362,  4.032856299364394,  4.623944647169879,  4.090505400417830
13.084013268035813,  6.133150186250639, 101.409825003237216,  3.818597225654585
 8.720416266647208, 18.218706954087256, 116.143504834974451,  4.172103910211059
 3.068861888426697, 17.830141381095526,  8.371321344899936,  3.973581510344914
13.337554167507060,  3.551112600417897, 113.361107071961612,  4.030636690911770
11.284904201579414,  3.215813831528896, 68.297392733304264,  4.101821519092466
11.028180143771305,  3.744113337351709, 103.886935543748237,  4.194659062483445
 0.490705832030810, 16.479383822183479, 110.487202483883735,  4.224847082089091
18.628151315282025,  9.395414554758599, 41.524237347189015,  4.312409959798383
11.885800798418886,  4.696645173590411, 48.356213452176803,  4.141212844091005
 5.755041744545456,  4.772398549370759, 33.635586237729385,  4.025069981407793
13.314117641173967,  2.607064020196549, 109.373948226038777,  4.158081629750141
13.769152732944711, 18.259447207477194, 112.038298816206407,  4.037914515547302
15.893776022556242,  4.326515764295399, 35.678299571974989,  4.036528510270015
 9.142280956532327,  3.306742937069553, 115.571291455041106,  4.035111604079129
11.378024033051032,  8.526571012624787, 104.196006034473498,  4.278993743835753
14.183119833427202,  1.342262176052975,  7.774794233587921,  3.997852925906468
 9.089217983176534, 12.194451672017125, 30.647202445111024,  4.169765672317942
 8.870119396291154, 11.452696262551962,  1.140196818806145,  3.931143547074195
 4.873500542524345,  5.312614487328933, 56.272523905141028,  4.381265096230083
18.569517668667032,  9.682574155436090, 16.510180213644684,  4.093077926567480
13.391036856385940, 16.129433993108762, 29.971152825870501,  3.830941207675842
13.262912542364614, 11.786031534734080, 48.901365917861796,  4.267172401929785
 7.799867032821530,  4.585528392173460,  7.683807920324729,  3.799487224627494
 6.446085099897736,  5.323063454414633, 43.734307289478629,  4.039958061154622
16.359756103305070,  2.065057828016829, 47.372281886240373,  4.019693336354180
11.571829001682552, 12.010318693688653, 72.308668582600390,  4.167749525299914
 1.251768504485957,  5.888483970841127, 69.776282982934148,  3.991717791855512
 4.806063852435040, 13.635429219085996, 22.602190389287369,  4.174011301186576
 7.112983337191135,  1.653276155549373, 110.069662936147864,  3.592647103835352
 3.819246446519490,  9.987154826780783, 88.970843179261990,  4.164969237575880
 5.491554926404028, 15.158925284297583, 35.574631833724467,  3.984146516697185
13.538265491721532,  6.535612055583492, 75.952299388442398,  3.699529176167557
12.446095663002442,  1.678228992665810, 40.504578633688567,  4.064601922782747
16.505096950162859,  0.020855309767534, 73.672703680741577,  3.855990586399987
 5.484354092623270,  4.676559700031518, 15.133413290103558,  3.986863110586271
 6.496698594576255,  0.959863182739446,  8.489483800231925,  4.020081430639919
 5.356814298099159,  3.940289910212804, 107.661060282707368,  3.890048807051932
 4.101005031368424,  2.362656388897145, 104.038909482555951,  4.077043201277327
13.026421084779262, 13.381447151217717,  9.913727870009236,  3.845434338024254
12.925944262512512,  2.309843865116697, 100.568015469991721,  3.954097658151693
 8.737216045658466,  7.909389797383125,  3.001442348975711,  3.792120843883435
 5.128684767299196, 15.613559138406618, 91.256535092089067,  3.956260334638305
 5.613220508345682,  3.839148071944693, 60.158838770078766,  4.045169233077723
 5.793965734006737,  4.132201119435136, 29.655996955714773,  4.021905429238723
 5.250195265822648, 14.126884534458188, 101.726344994697016,  3.869803804670499
 2.528512415664944, 16.795335953690195, 100.648774523238018,  3.878986561006740
 7.366512241614902, 14.656217704516123, 109.376347164377606,  4.314357188753117
15.905417334118541, 15.628393127315332, 71.210826161619579,  4.536085155022383
11.933292748327830,  8.913063818929917, 69.616651905643707,  4.054446882683132
 6.388402664029693, 17.702004104434657, 46.115880640462706,  3.979942030359650
12.398963624353639,  5.238864184874109, 116.894324831054007,  3.978200872446515
 7.754476010125633,  8.136815022448713, 55.056449764441375,  3.962907840424570
 8.213318630553371, 18.741379990711557, 79.572551359454636,  3.866393100275719
14.268070529144444,  7.523583849216704, 114.012463309777644,  4.143080410439828
17.186420789579589,  5.033734887165693, 59.892319397585730,  3.802258254724528
 5.938991886998752, 17.106039743068457, 20.930579118610936,  3.845046194723773
 2.851209540889303,  9.478797525103779, 111.989280971838198,  3.813378561229258
15.277771681417276,  5.121167726626136, 63.357664158792794,  4.105677718243371
13.305255883975050, 12.049008291251152,  6.271389445886151,  3.880409685984875
 1.184478370912540,  2.135051177161991, 48.720094575666870,  4.018090180811168
 8.078886452437137,  5.095240608960051, 36.875755465576738,  3.924049236919109
 6.276964033456375, 14.133634768084878, 105.397664485133276,  3.707086535977790
 0.443000813595498, 16.261276486259217, 31.644512814379070,  4.201202541325254
 1.115205457943835, 14.992325580937038, 36.309781818311173,  4.118501302808685
13.876944310330948, 10.321038754763961, 57.184279737557098,  3.851664866471474
16.180148618538574, 15.472493096560097, 36.967038531231658,  3.782766526082831
 2.688170780314119, 17.605680798368546, 66.173601578856378,  4.038124343446563
15.562410353952661, 18.939166939580325, 26.195604733282391,  3.829999723297399
15.280648431729160, 11.850810350365952,  2.854181678466253,  4.010349842567770
 6.899098202418557,  4.471269447030598, 22.143607626158392,  4.174527348661690
15.672874220158340,  3.298668420402858, 15.006176749099820,  4.172114335285123
 9.910910572457686, 17.543297110558463, 44.433608220630944,  3.725707393612877
 8.891937448590426,  8.891715117856695, 94.240005242936178,  3.713893875482521
 6.985894431221075, 12.929051464316871, 78.089602745360580,  3.732948453195631
16.033662028524830, 10.503024152455446, 13.427899634992070,  3.967958519892997
17.165065920869772,  8.358195336535701, 68.846105604780064,  4.004338015889193
 8.494315090714773, 13.860102725248748, 113.394166833926562,  4.054650117804282
 3.773438518455608,  3.564743595067987, 96.512676185173078,  3.669214475135386
 6.103927029304332,  7.840670889221322, 113.910639034558500,  4.399905221738050
 3.911406965208382, 15.202896999338545, 39.231898792553622,  3.970099631626531
11.924020761534974,  0.847149832262644, 85.456686662520113,  3.999341177338066
 5.671732489454091,  7.557124072788950, 24.988265201090289,  4.105185538513241
 2.694055987388805,  8.141693459914608,  1.637042686069203,  3.594232096414095
 1.514187477390413, 13.045195293350890, 101.665774759204183,  3.773169474992958
16.121343698849902, 13.003267495152905, 42.204844926303103,  4.062363377645786
18.590012331790131, 15.654366699264356, 40.098492253022059,  4.113595188493582
 0.756369538104221, 11.575032850553459, 75.388631293442145,  4.278516402884208
 9.010926203183931, 16.874141740653918, 105.531271113907493,  4.014508662955962
12.158778009671044,  5.572580545616784,  2.611940098469195,  4.526608512679060
18.775607357801039, 11.224585736043441, 80.072232417213556,  4.079005864217627
 2.829655820499673, 13.020616788127105, 33.038114659961252,  4.239114525959330
 8.639428702655051, 13.956757304531195, 89.484689606529017,  3.959147240165918
 3.224382876748715,  1.364372488790708, 55.526491988223732,  4.233720495733153
16.528050735897988,  4.772373099120193, 70.183686365283990,  3.730927319217900
 9.701275608891004,  4.271745616447268, 107.905055125752639,  4.317915305748396
14.059248351302676,  6.429155462633012, 31.347998771711300,  4.069873787618729
 0.046887919413858,  7.194584729502710, 80.291362852729847,  4.006206761884997
13.411106251911242, 14.759914132555636, 74.925967456107045,  4.263217365634751
11.575427881996124,  1.126128810438659, 15.667136107822337,  3.979618696761705
11.539948903465765, 15.868270904990528, 66.376874120541657,  3.937517129430889
15.146316522584517, 14.191507432870630, 101.227099446020347,  4.237851479388039
 8.206048425579816, 18.287152005171421, 26.900076082259524,  3.640426594349619
11.546839762661403,  8.612322026825739, 38.147890060745567,  3.706934883274509
10.511362956458536,  1.459309934942986, 94.403627272380774,  3.806877101113637
 5.204010286837056,  1.233153357456399, 49.167598445169240,  4.214465855337159
 2.152922817415415,  5.238007355044670, 83.141409003976662,  3.948835227759529
18.136356740414620,  4.018841864921423, 44.304606895626165,  4.058834581563713
16.337293468213009,  8.892276268909949, 47.955704677048615,  4.076506297707918
18.348533082725226, 15.127118663521651, 93.240250371923111,  4.138151382901195
 1.817667103386673,  4.262331579281537, 23.709345406509012,  3.959459521684990
 2.160804375677928, 10.796712118706656, 83.384878907507641,  3.838043309103228
16.468928366701270, 12.443187914752516, 59.553196011712615,  4.348805551707454
 1.062306848281515,  1.962595315692446, 67.999470411524499,  3.984178256335836
 3.599433129514188,  0.299092640628413, 111.104450207086018,  4.164858705853824
 0.382257319988920, 15.896443632989088,  5.395595106651060,  3.967503600571200
12.777274752347287, 13.826885925418106, 89.705501363106180,  3.744416467405497
12.228449990929811, 16.160818900697375, 54.322011472975504,  3.921910466658091
13.137320509012785,  3.857916715944529, 18.390277546090445,  4.315304944833620
 5.115201817769335,  0.606648765866725, 89.867160138059361,  4.294329144889080
14.097479751482936, 13.299662444811798, 93.460595953567392,  3.994734856531370
 5.377889107787807, 16.188753344224089, 31.364646562540248,  4.518696709353760
 4.340492929859055, 11.816542778548229, 71.685982847163359,  3.992122121276736
 7.268173494980211, 14.739295024290369, 94.569370388185177,  4.058519464257203
 7.443881761951882,  4.046124063055657, 73.076264540016169,  3.591204155423173
16.302724241455326,  7.510780577564850,  2.823129503008965,  3.796329021867025
12.012375971339212,  4.842633686521009, 14.555813559778001,  3.766748660039422
17.216684727154338, 17.115737542668565, 113.985099499376901,  4.156685224055463
 8.415270942840211, 11.986073119898414, 23.638422651544534,  4.003816513221943
 7.574924009540318, 14.450744654472699, 39.650774688606823,  3.549913818690658
15.793755789492058, 14.105288882807127, 109.814269376965257,  4.237118539019090
14.144535957720793,  4.878529010896300, 42.384405201325620,  4.012281871175186
18.223817728259093,  0.545341012536949, 34.020154734375083,  4.178143052976499
 0.509055379499839, 15.081061903896812, 51.544247316285912,  4.129097214650804
13.464931894451821,  3.470684210318309, 82.128102856969619,  4.074675474672632
 6.282204761728313, 18.945099253425052, 52.990024488239996,  4.083658945286447
16.923209216975899,  2.367429607492565, 99.866857658823292,  4.160682692581810
14.760395905886803,  9.158277742269297, 28.776417310842469,  3.553310164144986
 8.899094170551701,  8.179834579714305, 107.327434075284231,  3.720201859723579
 1.188249736229759,  0.837830536826217, 25.598969047094887,  3.810894125662398
12.742581957423347,  1.539904239573085,  3.770863690473260,  3.717864287684472
16.539931617018205,  0.028838265502108, 30.090908326413885,  4.200398966198713
 1.554796390423091, 17.356743080982802, 90.493296148170501,  4.140165601450391
12.777659815104970,  2.561308223784763, 25.485248596524336,  3.871397371250276
 2.548378533305320, 15.804348757745153, 118.313455345852134,  4.129841108138259
 6.719398473413102, 13.688404384023515, 14.337715310407209,  4.040076990925050
 2.433391098289615, 11.583776891632953, 39.459819789415313,  3.861481465034506
 6.772381097227187, 13.742540086264878, 63.487772340535358,  3.765833019607969
18.809612656903170,  1.345364646348179, 22.105376821679879,  3.663040357791743
 1.091087109346630,  2.273720867484569, 94.105241276689824,  3.976542085521167
11.840604051740188, 15.454537921992481, 70.305088480652032,  3.799328638916593
 4.882300623408836,  7.970426975091777, 35.940457156222905,  3.867676412002175
10.977026925591234,  4.825770644365106, 97.525280351262893,  4.106317103248853
 6.339797285263540,  3.558980185796423, 40.078160058271528,  3.967918051392894
14.783042555386064,  5.177524037905125, 98.250011259819587,  3.604319469149651
 7.457681749317733,  1.299259515801055, 75.874003589351005,  4.236948092118527
 7.566417638000009, 16.030600351322580, 66.275627184167519,  3.603692536078373
18.806446555622220,  1.438747147787810, 41.160499618371304,  4.183309034902923
 8.863769949965167,  6.866390841141686, 51.262162086465750,  4.340591982768244
16.216341520120729, 18.891597015364077,  4.598162842876836,  4.047447193218052
 7.124631117464518, 17.569542138731332, 112.393406271753747,  4.068114282048732
18.356360967855416, 14.890954930352994, 64.084945680743928,  3.713902305334353
 2.190867543120672, 17.205994132539765, 114.190583448357557,  3.723104361939009
13.003402619527339, 17.376147209380566, 99.458930299646852,  4.071344703066306
 8.702852829131599, 14.944096882607271, 33.460200130719478,  3.712768990829654
15.612229100071591, 18.835866286302807, 103.050022558687303,  4.134428947648550
 1.005406490874575, 13.041113019036487, 42.635492764706228,  3.669739279239573
 3.268311206042859, 13.580050342104828, 94.263925401763416,  4.191609220195557
 1.720018771729588,  6.245502177705667, 94.131101710319314,  4.054141339295926
 5.821076370799882,  5.200943172893789, 49.066668451490621,  3.807051784600289
 4.850576102847231,  4.643874542285388, 116.346489736294487,  3.974391385549909
 8.183552584930284, 16.064351691958699, 99.821307990976010,  4.123518437072146
 2.459008935788125,  9.347545092994862,  5.331039584969548,  4.182627240473786
10.709636226240040,  8.612155980970153, 117.922252239120851,  3.635037083188326
17.680061057108443,  7.939602341961012,  6.536481679285006,  4.148051561045103
 9.775572970996267,  5.461596176906444, 75.797229189060218,  4.059612317545803
13.245762099879055, 10.902951529331730, 79.710555472835139,  3.986268615085195
 4.857352861310718,  9.821540320137233, 95.351357286886241,  4.190586596065395
 8.997103472805746,  4.138007841842573, 17.120364823491336,  4.153266025475327
 4.167752061622750,  1.337063197885373, 78.328558260636740,  3.812871920348113
 6.839037036735220,  1.606286987583089, 57.205127627173560,  3.733983508024284
18.224831655908279,  4.122384299068980, 87.196691323732026,  4.198322324880438
 3.751700663740383,  1.591315053116064, 13.467323313928178,  3.834679067011434
16.334392981330875, 16.582529078862031, 61.211555196956475,  4.067722176970694
10.943272090375102, 11.898978148247279, 86.891766293631292,  3.998857865588980
14.513824293941118,  8.412980001849649, 118.023631897404428,  3.956200133924464
13.214006522869127,  2.844004369170469, 32.851388031620942,  3.870647652321283
 7.234740379574395, 16.172088883618919, 17.392275253914303,  3.890408880790747
 4.155139710633135,  7.696456033442821, 28.891977103585827,  3.868221620280969
 6.038775378132453, 11.775143637877608, 53.196271573726158,  4.351053309946633
10.056851173381050,  7.382279784142075, 66.235512145516324,  4.066484061325699
15.644462115672285,  4.476305429630991,  0.502544029984909,  3.872337950608961
 7.123559292394614,  2.559856967386422, 69.750557998139854,  3.692621762142256
 2.049597470530282,  5.059121699763794, 106.047293427257614,  3.784505526572838
 1.555065724844911, 18.582142404424296, 81.129977904500194,  4.122757862618542
12.299710303819770,  4.304760970449409, 60.607763189830088,  4.111818429099984
 8.726161927421455,  0.479062619869890, 87.834218484660425,  3.996911221464246
 6.695325662572977, 12.713380671019594, 57.066450388717435,  3.709984540501227
11.524998853263302, 10.078799702073251, 26.093379404400839,  4.240631561779560
 1.157784586250799,  7.160607428527696, 54.745410772189175,  4.242197137884185
 2.113627703701670, 10.680090905327097, 108.037349191882385,  3.910320275483899
12.123311525304249,  6.345986808569929, 110.689152478238242,  4.065272799247547
 3.370994467234253, 10.082976857843967, 18.507050980938608,  4.082271233938796
 9.549917440293772, 18.401859020289013,  2.816288966236524,  4.033821736126430
 2.782575607603264,  0.537230124718203, 18.002054538878692,  4.087432497848785
 9.692411704825243, 15.831313830084127, 73.526666968839564,  3.956032100890819
15.007795952733670,  2.333325050509417, 21.839726724792886,  4.090061235695357
 4.328714096182670, 15.473857415226963, 52.639192226921779,  3.826663432438780
15.141284283760404,  3.776620867295521, 103.602543339660016,  3.781114855822501
 2.632057935591812, 13.309323607540312, 86.411304702336011,  3.869554023510355
 6.137400820379781,  0.506806233095896, 66.726848868824007,  3.869382253339817
14.533795865879402,  9.923206776159578, 23.244907117473645,  4.045679324867963
 9.834869229402496,  6.108052312627293, 24.242852956506180,  3.743939655765607
 5.112701484107952,  3.553305873164865, 18.772164721603371,  3.636701671237086
11.945997179286362, 12.696300105050156, 83.092208582638136,  4.017812425655467
12.918077696583314, 12.373435743701640, 29.180209763129387,  3.894031721572286
 8.821594244017760, 13.072120142329673, 60.253141964637273,  3.982331124941513
18.651704316742247,  0.379706283443705, 59.028114746791353,  3.911218485941025
 0.824255986809866,  3.004126047595291, 15.533798907619417,  3.861843857801571
10.546606846310047, 16.401588395796058, 111.170866821597841,  3.550993877783214
 1.528565734393926,  2.456275522990103, 90.099520077769597,  3.789349712168617
 5.720310313823445, 17.580701531274336, 63.205858552081914,  4.138408669609965
 3.299256323272282, 13.930170436556576, 12.015457541042599,  4.178250258485425
10.268883327938058,  6.126532867437205, 33.755663356273480,  3.971457983861475
12.448664191477599, 13.829631996374545, 33.092444934188265,  4.133254980884514
14.326294859873924, 17.611656826775430, 46.792545522382454,  4.009494145562706
15.449077607368453,  6.812648157299769, 79.034880484042048,  3.569306239704735
 1.238383960586999, 13.995252123992785, 24.813878099367070,  4.250360861589099
 5.222295466460042,  3.569862396796760, 25.734972816055457,  3.952643693205630
11.668495835489706,  8.418868062277427, 42.450995777965112,  3.954440330152456
16.970144556410023,  7.717465622765727, 100.008334713629523,  3.929409260285603
 2.146964107175448,  2.436248645328291,  9.962814088580144,  4.038020803975033
17.938526468343685, 12.071445827795614,  5.970026948336604,  4.186690037169273
11.902095179220993,  1.600866359011555, 45.722480068769748,  3.922471106889239
 1.098219633355669,  5.620788715426429,  4.075113127122949,  4.088291543414381
 7.278359229302144,  8.139561335672155, 31.592335630945222,  4.398501339258695
 8.472165786544425,  4.040493515509082,  3.909317587189154,  3.864113228516228
10.891891736200419, 10.088760381376467, 33.682635450190261,  4.035160582583527
18.961285492303457, 17.404834806268980, 106.449527660925227,  4.104146114681680
11.919653309770403, 18.349117798924748, 90.302580256991874,  4.351181815086485
 8.590275512952035,  7.186171799422137, 47.062433468608674,  4.083742660883701
 3.851838854239034,  0.028511144412029, 59.615195922337151,  4.412341107425855
 8.478482661523001,  8.720250198638615, 36.230698811920924,  3.475092254609590
 5.019957692709501, 14.950599089366694, 60.213603160614184,  3.943734910416964
 5.477657648657554,  0.420891259593739, 99.076457247083042,  4.012743399953095
 8.073273972810542,  1.731808937479585, 62.408686042845325,  3.799071662964808
 3.720947795772268, 12.778529005970857, 50.168008816828113,  3.497357318131510
 8.093597614173650, 10.380427548759837, 70.441284513534356,  4.326697568632433
14.736697299478305, 17.390215641232352, 16.102822057860585,  4.339773266587159
 3.829919646095421, 18.658142920226268, 74.178533635953301,  3.992107859101281
 0.838849490160641, 15.438647921829439, 97.031116180772884,  3.995137943626774
 6.453386000406911,  0.943625872340184, 16.285573053183224,  4.052940567177922
 4.944678731351811,  7.662114067519826, 69.957642397812464,  4.025594628017584
 9.436676302748683,  6.462940323856730, 82.480990228676120,  4.255132517985374
11.539311609265352,  0.296764510290615, 61.197114383146683,  4.052128253859513
18.263467273386397, 15.199927506172838, 87.938361029128956,  3.917667615173699
 9.426992426349242, 11.331499066561552, 46.780088674526468,  4.314776381109108
10.418003685894881, 17.010881698413982, 40.418937232593443,  4.243325665984854
15.457531908734307, 18.219060518251997, 108.356426799065915,  4.038328708649787
16.371303392639327,  7.643260328008864, 88.127949327805496,  3.909120982636868
 4.172339241485847, 10.751998326625269, 64.270519764587675,  4.258806772214228
 9.615096256328988,  0.866421780519411, 98.377160957316505,  4.402471812649726
12.133393165403803,  0.013282737144218, 80.360040508722847,  4.133805845601024
 2.420655920550640,  5.237275476731422, 31.441411921150873,  3.832151687095187
 4.819110720880293, 10.418500135373817, 11.047040893768319,  3.707866432049484
 2.434951896034821, 15.604786708409605, 45.054833356925258,  3.935828987205138
17.756057986699933, 15.823788070137510, 57.597643872868801,  3.817451415027390
 2.685000684730039,  4.373669132955806, 41.592380824437690,  3.971938701154061
 0.472548158260838,  6.361614066616472, 62.818535449189774,  4.039700905911171
 8.831458964917946,  6.150811479560363, 70.054531115056946,  4.268465039204171
 5.949368867119802, 13.647219100273052, 46.135343791965866,  4.139168796561775
 2.486009838273264,  7.032884346364899, 59.332896496223547,  4.106642885586927
 2.484538123361166, 17.614074783315331, 41.833377186090985,  3.606660912168551
 4.838386311402457, 16.078961768346982, 83.624971215212383,  3.943633252356018
15.345587173357183, 15.268328017124487, 49.997492768765461,  4.128533320753215
 5.285509576599183,  0.905080605972894, 85.784953288695675,  3.881991880714841
14.669781425004599,  9.784498816807183, 40.192727715841770,  3.998450132250927
17.943325276786823,  5.109997529969763, 66.499218918815714,  4.132415926886365
12.011356718240341,  9.250109060764437, 13.227592290286017,  4.009158826190393
 1.384539990476515,  2.439196471600477, 114.160580943294960,  4.414176520080296
17.339090975752736, 11.644928716280669, 94.910308322491304,  3.821028241135132
17.589333293066723, 16.506396029112171, 43.994659656139120,  4.109920431324602
12.206235869667591, 15.351252404196751, 114.534539071092496,  4.237521374081328
13.673149002893949,  5.943291958471696, 23.451779530991427,  4.098755487841497
 7.075095748390877, 16.263406362081845, 76.293992455033418,  3.709496943472205
14.694965654305248,  6.441625038761678, 12.314289441313578,  3.883244315125963
13.482140952463149,  5.769089533557927, 106.645337974293952,  4.195111522579859
18.888923108966726, 16.756830603398594, 27.632298636287981,  3.925267252179044
 1.157426827220402,  7.929282592316885, 86.236524319377750,  4.492403476954447
15.516179086896217,  2.956929396258432, 57.190106295781860,  3.780320256147013
 0.676591653488744, 17.909314876178900,  2.305453192579152,  3.410159321232229
15.583504168488687,  3.806399564466652, 74.184914480281961,  3.973338643819262
17.932382938015643,  0.066677565090666,  8.914297425070348,  4.158787260549393
 4.283397520974955,  4.470082094412579, 111.582733829717043,  4.308713254458594
13.681173586242597, 12.819913914809884, 52.875234746342436,  3.902931886996268
 9.078034776961118,  2.917404963422711, 26.606021565023088,  3.771899416259958
 8.817323445005242, 14.397893294545325, 117.229742988771434,  3.687089874547279
 2.062448498335335,  7.274198229491797, 38.758212910210368,  4.140411224094948
17.345729390451524,  1.544295002732824, 18.440535400933371,  4.232606068274794
18.376663427979320,  2.588395054563504, 63.422257752205937,  3.855285412876024
 4.604631120956364,  3.718675619146436, 92.668964410589311,  4.139475241162820
18.227094722999443, 14.201124864343734, 13.120622845563437,  4.024876181551852
 3.826501165322540, 11.206780494223860, 60.249279136861048,  3.843842916781343
 7.235663706352685, 12.620786111755354, 97.941565300881322,  3.868919013170067
 5.463171786576491, 10.942181743111313, 85.463640828429988,  3.742372742067712
16.587380504408216, 13.776181151860955, 22.712806424015149,  4.031670557382559
 4.369483395186772, 11.507317322684983, 114.964656281303448,  3.922132719080698
10.636867901016581,  0.084882056024561,  6.587342280700700,  3.891158072278738
 9.689453681875483,  6.289528789193250, 20.201165076739660,  3.471717739653835
 9.261827026324735,  1.850215101112773, 38.373655291422438,  3.598994742194698
 3.791486440383407, 11.336264455032627, 104.366721550045924,  4.052108441863767
 3.120373149323282,  3.426858806251595, 100.264649888691096,  3.934184028328328
 5.637074943837172, 10.247234275350598,  3.003533624768549,  3.897882075209361
 3.916704939159351,  0.381985212712763, 116.884616910012099,  3.919943731301308
14.873245952056049, 11.822572571994140, 69.280904958323489,  4.242788420635008
 2.305622808218517,  1.511512430324547, 107.502635136873337,  3.857054809483580
14.676307685237630,  3.163983334711334, 78.094150864395971,  4.088357568199827
15.805316811430121,  7.614358385570720, 103.807945390776723,  3.966625035663418
 5.021696946331111, 10.049521742627526, 76.450768656546074,  3.970437905647050
12.952144673556438, 14.953571767259461, 62.395692812314238,  3.676374630886599
 6.964110359704412,  9.011672720044317, 21.462111453648955,  3.917495768477631
 9.831739585202238, 13.716225453375639, 26.942153456955371,  3.957995905598468
11.627767230341215,  1.785926417664848, 75.689338827972833,  4.106792401494031
16.897897162843645, 11.665922431930776, 117.627715890353173,  4.133465866020339
16.864287398871610,  0.427468465901467, 69.697655001101509,  3.792597797915475
11.583037100763418,  8.964639536336806, 54.168807765396025,  4.058771518793316
 7.870426289847043, 10.170420673055355, 88.701759094175145,  3.925158214934529
14.986693689702554,  0.393812946275632,  0.554456200570541,  4.365411874762991
17.828074217654841, 18.673724540994467, 37.799628621753115,  3.602361596238504
 3.890041019015205, 16.691564177663921,  3.682159295252814,  3.968616157290314
18.150319964827343, 14.506969742476279,  1.805762805256525,  4.080927017634756
18.939466928266704,  0.006563879319018, 117.334021990431182,  4.017805122545581
10.541845850399168,  5.307249133355207, 40.067751174358278,  4.146888979323509
 5.867739510601078,  8.228069663367339, 82.879517762990005,  3.742623025181670
 2.342945951760878,  7.724670208515436, 115.824736083842424,  3.989233822495938
12.632995946171389, 13.333197033871144, 39.980260648394705,  4.185980720785789
14.826836189205707, 18.253262580386735, 57.872173038595051,  3.732195841691746
 6.528602376718977, 16.795378338737937,  0.728901590868785,  3.939900231499202
16.039702943906430,  1.664191142299449, 115.368603302133991,  3.686107053038516
16.146331992353048,  5.393798847481383, 110.939190111658007,  4.202312478771779
12.744537134969844, 18.177089998602298, 72.878982325813524,  3.811108530824030
17.070493817497571, 18.861369332936945, 95.582316932588682,  4.093888595977147
11.150638034187789,  6.120388569669698, 10.295946935224322,  4.268289596932291
16.351244537495454,  8.725050048362904, 92.142764889715551,  4.069416880991061
13.478576527021429,  2.682658903326576, 11.560818971828150,  4.031642182350366
10.486845336503482,  5.011598972963743, 44.192994521450245,  4.029771024583433
18.148754104761029, 11.999529984315465, 66.687935553996297,  4.041459874868622
11.444216251188587, 13.613023445636008, 99.394560202831187,  4.074206826569077
 0.739129206151480, 17.576341828542049, 71.834522680423277,  4.017187957675823
 7.064995562903396,  7.581811806645664, 39.895709758691531,  4.096668938261106
 9.510333718241736, 14.726389188459310, 20.594359602711762,  4.474901755000236
13.147358407112693,  6.302582981085364, 57.030604257476526,  4.253025612836583
17.109383104614441,  5.804688615440542, 18.147390661653233,  4.311091463116683
 0.787936425184994,  6.358719318556027, 112.447695292538683,  3.721655974066718
 3.825463125511277, 16.565268618842250, 15.317456429357561,  4.116154150081678
17.483810249871773,  5.346746666519933, 115.530202487095522,  4.190994381043073
 5.577591789786631, 12.315571258333550, 81.736715168920767,  4.176216692740190
18.946250701874135,  9.820330222010959, 71.896376858741462,  3.633852835780946
 7.139426374906087, 13.611452597624018,  9.980881045241782,  4.436336197714546
13.082862568016020, 12.347393595038270, 104.496304484826425,  4.101498928158589
 9.522240282911598, 16.332889246942749, 63.070369534991244,  3.821011605692642
 3.324847922169729,  9.903599042928212, 22.504536244391254,  3.841625534346589
 0.434922791186047,  3.259805187700680, 37.470732328494897,  4.039920056899084
15.923623228233470, 15.132752328414513, 96.342361675224083,  3.724033742385909
17.819318351222130,  8.219310931715485, 10.625820977630013,  4.047108816557627
15.395370602658714,  4.485297979782411, 50.409537122867327,  3.965810012707237
 6.224707510119840, 11.220579293550378, 111.587202387147428,  3.788907604465638
 1.714597159177901, 13.214448013893154, 90.422467259569217,  4.053950712364385
14.409315789158818, 13.962041073331875, 56.491777104843173,  3.629674762865719
 3.363174333302320, 14.506720235693340, 108.092848352564644,  4.084732552471451
 7.383002088318305,  5.704381030551795, 104.621361757800400,  4.212243208206387
 7.893213570710436,  2.443176134254603, 46.164947415590198,  3.949076476879856
18.053473542388563, 11.598924210690932, 86.422836902016613,  3.906256019490466
17.914525267979151, 12.469454301008863, 55.383375946654844,  4.220487677534321
 6.490948599890654,  8.163569135636958, 59.732014017633794,  4.216398261594842
 6.161011267429971, 11.153204837775304, 38.055123962207894,  4.136012344891138
18.872341579269371, 10.582790211722280, 31.222005276505339,  4.161196402850734
10.718105698235780, 17.008490754039176, 77.135955055223093,  3.906193875889281
 4.649534801909135,  7.707242714197004, 52.529146070378246,  4.084350738010543
11.763955640500100, 16.734382963877088, 118.436401343513026,  3.986393429649874
13.139862354330120,  9.830856133219882, 89.680469565044291,  4.199224808754150
11.265335035202044,  7.511082998404944, 78.921359098533017,  3.984893995767448
 4.499184265352740,  7.952924811205497, 106.233136869881832,  3.753200326366266
 5.424199357443013, 11.912598384164575, 41.974529486865741,  3.962904779323032
 7.144553927199737,  0.955597433090243, 23.828451938973334,  3.520074210010688
 0.299028288687807,  2.611564337623334, 71.880986227773462,  4.017228302676721
18.083827565909299, 15.507363009626724, 75.069590589141995,  4.261017628451217
 0.612040014477872,  3.407356533371254, 52.921511307565126,  4.106645386510513
 3.098651004143422, 14.610118502982862, 63.626209147451796,  3.754795415146285
 1.399459815588371,  6.162853531731712, 35.005723686285421,  3.792772993034498
12.851961905892514, 16.896513324874075,  8.679658807843769,  3.462199058587321
12.489049826081784, 13.601575309347965, 23.713605344729256,  4.393657363695760
 3.087011112182058,  7.134126366488498, 12.711090416467888,  4.414454674930965
 8.566911284473312,  1.178733314370467, 30.253760376919086,  3.954658300522692
10.849201177747757, 12.447772484123927, 68.159216639158245,  3.843061872780825
 2.373024570846101,  3.462029640221230, 75.386157479148508,  4.274920021829550
11.466743596637526, 18.023333752604014, 33.074260761706547,  4.394372043239728
