BANDS
8 8
NANOPARTICLES
cell(1), 18.953
cell(2), 18.953
cell(3), 118.456
 4.811828754766003, 16.623025232498865, 97.355586171769048,  3.668834438348853
11.881337311621325,  5.093231470498418, 87.379957753672841,  3.769344121158556
 1.207270899172642,  3.069116732208371, 113.590345969035383,  3.853556311557440
 7.201583561432529, 14.323450787848467, 87.834048086368284,  3.833038216669766
11.520093873186790,  4.439392299577716,  9.058733511131070,  3.629776948348108
12.020407084728431,  2.125750308222975, 56.075381081349491,  3.829178849698558
15.430169562287340,  4.331234179212661, 90.000869333285735,  4.453693615559681
 1.017525199142125, 14.260394337039447, 108.455691869258757,  3.774972004998953
 3.657897370495035, 14.862426124113918, 43.621908332927049,  4.192368331025900
 7.896777904631867,  1.123408230336999, 106.559504692134055,  4.225787059093283
 8.164428141455598,  1.074891366491634, 78.383223415448413,  4.443646835172817
11.356545249446581, 17.262125665129528, 71.103324602701619,  4.219628548374943
14.528726864114020, 13.566126415747396, 17.387929225870725,  3.946609041513031
 7.522727710910359,  0.168687266906289, 96.778144077015355,  3.683911991597761
 9.594663980690180,  8.023218794599442, 66.362007077521184,  4.037322982849733
17.997911711722839,  5.155441314499777, 53.737752851504126,  3.977479887933907
 1.633675785446134, 12.456491839425922, 29.665392941043844,  4.321033690481319
12.171510563686398,  4.360866957910249, 96.410184605073766,  3.734147035543472
10.900123058164072,  0.720081913172066, 113.007958525863543,  4.247474234782737
 9.532454716529445,  6.442456390915658, 23.886045198244517,  3.888762905119236
15.861535749190788,  8.056068085468487, 48.392799378909061,  4.043032960709080
15.833713284376323,  1.959759269884774, 55.169791306075432,  3.998399639965009
11.289504383703548,  5.802467703383297, 42.544260748552880,  3.716399117925345
 0.065750262926051, 15.080972901536018, 92.380693841654505,  3.858815601630099
 4.126760747411714,  6.371973593355622, 75.751977665788800,  3.819156562119144
 4.449024163393917, 15.731915718102185, 20.436309385840818,  3.758337138462572
 6.776215608430443,  0.542604366025177,  4.251127818174886,  4.177450229522568
 1.759683824114886, 12.270710392479236, 103.221825097902453,  4.018729068263484
16.739804574212876, 10.622457509476300, 116.781628389791450,  3.758173209818268
16.688516835229006, 16.381248098126409, 47.795126450720879,  4.024672924994677
 2.771118445224419, 13.002610308303067, 25.710854488760496,  3.832197055899607
 8.421138732804653,  7.767683556422613, 28.240236526295959,  3.933718631283207
 4.999872519052095, 14.122273355481667, 66.586052381315852,  3.999368229561243
10.077430150062538, 18.856443699465157, 31.723321613902790,  4.103350933655146
 7.343901880717898, 15.066235638585495, 95.025525143638959,  3.828450123879723
 0.360609939614549,  2.030428209494306, 101.752867082949095,  4.228356958501108
 7.543277264879508, 13.779355373008061, 115.685138731324884,  4.239018171060865
 0.066688765673057,  7.960431233164988,  4.148533599795311,  3.996410738008354
 4.641740513742451,  6.090779044052125, 80.331547730362516,  4.438409063138802
 1.782477834636877,  8.033340506488223, 78.169352653039851,  3.658707192568670
12.634672232844283,  9.839898488444200, 116.645612643719204,  4.030961533933210
17.202289684661821, 12.689170741467921, 101.408918847754364,  3.793534112843166
 6.355731505731184,  3.409433485372686, 94.190093036804853,  3.700341252118675
12.557181547152952, 14.731710349639673, 38.220995984117266,  3.947115633114600
 1.100061350250264,  8.809297615929061, 58.228845550800621,  3.823921025789565
 6.546839092626635,  9.434108649584566, 90.793006055228304,  4.125078304911548
 3.905748510795419, 18.672415915701993, 102.073145022046958,  4.184265220838716
 0.941548516957543, 17.306431880364244, 36.940003582409318,  3.788815998920451
16.100665408563867,  3.657777783195750, 105.141792528121471,  3.867869564170105
18.642985411319316,  8.552004251274894, 16.254671685017922,  4.183722388661518
 6.251465395794453,  7.571954912197477, 62.262754050470065,  4.031246623831316
18.316162389008895, 13.436176674448292, 37.783381000284578,  4.049924136637101
 9.495779479435070, 11.582638921046330, 29.010967533334700,  4.131936034203706
 0.481574426538166, 14.749589635732281, 50.128952006641200,  3.853072117028946
 7.001511905248627, 12.562318872920534, 104.047603425134312,  3.808845340026452
11.103691707289229, 18.834759788193519, 23.203861093472756,  3.999614989071126
15.642978079931693, 13.573596305093801, 31.564139181180941,  4.484913368605657
18.385157782416425,  8.015245429406496, 84.264330653051275,  4.353627477413331
18.557429368526041, 11.968612730875925, 61.204809867273994,  4.089039517404040
18.435218578926410,  4.946452253004853, 29.267277411890152,  3.975023280114890
 5.213636392747811, 11.250874000293464, 69.229063035110300,  3.698712865488987
 3.427741204595939,  6.272801096018114,  2.330626052364160,  4.244357835308875
18.660210675091438,  0.663916248325001, 105.595323002366783,  4.026903569589628
 9.096398827882954, 18.834523958149763,  1.052130425080640,  3.835126229596963
 8.113759040094498,  4.880605918206352, 49.142786397595465,  3.866162437992198
11.679470783140934,  2.537039138569688, 105.690886395556674,  3.979139566430781
 5.472559889856229,  8.638833979256692, 37.042607185983755,  3.761408737629565
 9.612195359097118,  2.076874779750179, 88.074082081275648,  3.903409392512357
 5.552679943198743,  8.759602956845995, 66.216786639869326,  4.137069549492529
 4.952951779836982,  0.470132874900736, 21.694785296984854,  4.083429032872144
 2.978926978034884,  6.304685338116552, 16.799384597895976,  3.832124375104626
 5.968053390847710, 13.005320194851731, 40.768721140034444,  4.022026965409764
12.973286355559695, 17.284447029884451, 48.961063281545712,  3.967724437404195
13.667976553931652,  2.998132313383754, 17.082669725020253,  3.839541982365970
 5.127008100104230, 15.882773109263056, 10.727296312703887,  3.848912166130587
 1.101177292253707, 15.579220569795206, 13.405614494582792,  4.486663630078788
14.366908278359578, 14.440609044583070, 70.198181497337785,  4.163492848185185
16.785450245115062, 11.129189853796994, 42.973473643223386,  3.931650436829871
 2.802006694862712,  7.115691132540366,  6.911971693989680,  3.835291411344925
16.980648100635481,  0.195876881043767, 64.157049642195062,  4.189057657764677
18.554157761641473, 15.011087182018983, 34.181390237840851,  3.817831016289290
 4.914868706927513, 17.732235160632893, 77.089898371313993,  3.895743030507433
14.107292087331082, 18.717691787132594,  3.969306526888617,  4.053342185767505
14.670928475305306,  5.282249763188918, 20.108022317654882,  3.994391014437788
 5.672680222658892, 12.776917318882173, 30.064824888940500,  3.795803875501188
 9.056513631518374, 16.497685256599446, 10.981989346881326,  4.039089094017627
 1.125520649928822,  8.881966784673574, 74.463077819782143,  4.052252901976007
16.031902647716592, 18.184136356463142,  0.295113260162909,  4.081130970360015
18.061702522679248, 14.606001596568609, 105.127486787326092,  3.832710386366307
16.644632456624493, 12.853117129469862, 12.564673020565827,  3.683954965650309
 6.282143142087481,  1.812051535093140, 85.792641594884728,  4.161888990121969
 2.034785582225324,  7.605117808389371, 10.722651134462813,  3.980838202067853
13.605715117602259, 12.538535253253025, 21.448606176565178,  4.366373701298497
 6.225992775329711,  7.688757439677416, 46.811395455546709,  4.125643972291527
 0.218744826985359,  7.316603688047773, 92.140965721040914,  3.970821465564350
 7.201256330038043, 12.835124969273636, 84.199024250497914,  3.993312797554628
 4.686617529462223,  4.960596495926823, 29.907738209683234,  4.337476200518717
15.069553207725935,  6.588384363414035, 16.355123840298489,  3.944036724184233
 9.239975195498372, 17.662334125924037, 109.706890929692563,  4.097303786774620
 6.015538826690501,  2.371597778358505, 70.643298941728943,  4.024039559898624
 7.745229046072018, 12.283246860899949, 72.093072759886368,  4.195544803647082
 5.287178585634474, 12.100893883358115,  5.812794536162616,  4.078046202275196
17.750663920132613, 10.885703345549535, 52.858031068434613,  4.092082881273257
17.289565846563871, 18.839717448658334, 39.390786315178858,  3.895270339397300
 2.613528279596027, 17.200348407403343, 56.163459277575882,  3.974219104968360
 0.691017387698918, 14.324124170104840, 54.077299809301834,  4.099797670060677
10.284215280857612, 18.118695410510824, 35.901926397084907,  4.366808943662128
11.879465221879098, 15.669573954209945, 60.053923590999077,  3.802852206990144
14.063293750151891,  2.414758093575233, 93.571443142175255,  4.095332316105024
10.067209259656472, 10.937064231975421, 24.794940916909894,  4.406578700469447
14.164322396533993,  0.688973957246554, 34.948519634346439,  4.128826200559202
10.759559787880567, 17.325900078030507, 27.062358163743937,  3.947674149322833
 7.734475082296276,  1.954691390647845, 34.323430867510901,  3.797248134135536
13.043837910500480,  4.332787238071337, 23.831031897675729,  4.277677631722383
18.446976252049669, 11.089726462967382, 48.883164551976563,  3.939998373552004
17.831320462659058,  2.251336810157919, 36.138631025252323,  4.129545414942085
16.366288369978687,  2.787724229610364, 32.085300133418997,  4.221939563509249
 6.343238207255697, 15.361790287584318, 50.520887625164605,  4.014275191978986
 1.523992701345128, 13.897423497637730, 22.028133508066144,  3.815424751310335
 9.794583254219679,  3.007853928290242, 15.715242639108718,  4.352514584970108
15.171259367949251, 10.333699783118332, 15.153043035799783,  3.921341819146146
 9.963132791508373, 17.507000885155989, 86.078389088920602,  4.154681260874922
10.210626125466442,  7.625206206191697, 95.538796928256559,  4.077011887507332
11.052043188409590, 13.462786671414614, 85.569228393999950,  4.194416765999445
16.818208866429838,  4.661711568336609, 112.326313303602575,  3.929573377436351
10.983599736748177, 12.158317711143724, 69.487543946138217,  4.101938422939981
14.370732380208729,  4.453395760539575, 47.516072065095948,  3.897863311240617
 6.888531328535580, 11.072962926129458, 94.708193314547614,  3.886641156097136
11.756021316282785, 13.484214031635933, 79.668626006118572,  3.962120715289399
 7.820224443810967, 10.148466186070598, 15.861719730454443,  4.321772827342160
18.254485982260920,  0.811251775027399, 12.240727126590137,  4.289212954284498
 3.549878529053896, 11.161789665456677, 60.187276653919277,  3.998144000130527
 6.160122860806875, 17.414865353182378, 117.226022564662557,  4.118189204806658
12.417616076703174, 17.752493333535110, 94.423103494378125,  3.976594954840345
16.911453504183910, 12.568537732446437, 27.643470503133106,  3.966903029180659
18.338521016018110, 11.908343117887807,  2.355395011886654,  4.116952992443158
12.479693438989782, 10.098134129275831, 45.063755409337681,  4.103750329403097
16.116306823283093, 16.420435099648579, 20.450339674499091,  4.159283485837767
 3.594388818508990,  7.559322165261726, 43.809210759307312,  3.856087181331843
12.150403619267674,  6.087140687759829, 39.013591764914693,  3.544690724518296
14.039870760264334,  0.397880444770944, 76.765022918306542,  4.087902834528758
 1.589117684128748,  3.506525286515908, 32.433245742407081,  4.149785842488888
 4.467999235772485,  0.284629313896456, 94.720565614361988,  3.677433740219155
 7.169967584792698,  0.426573627869368, 48.059128249138631,  3.878043782787668
 1.492440884418275, 10.333883063824318, 19.330689851882166,  3.777142040648261
10.816281616824318,  1.361822714520665, 98.646347478472137,  4.202054074937833
14.086541537643354, 16.519375812343014, 115.555538331871929,  4.095670115904251
 1.254632130583548, 16.591068201379205, 95.861461212754264,  4.024732106713204
 5.538357300876671,  9.918425526003459, 54.039668991503312,  4.227820465810948
 0.705932144296398,  6.193912795457638, 81.035491507997094,  3.475170749333522
18.101094040216342,  4.927616344101447, 46.048904239132725,  4.149098818473957
 6.116674608490014, 10.698563403039207, 26.659138767164045,  4.128136973327145
 4.248264700854999, 11.981151864345737, 86.806086237051019,  3.972888114614466
 3.439488369974208,  0.087274378078476, 112.037672420746333,  4.129933608260750
 2.666843233437798,  8.967947355664579, 63.367835323642460,  3.923681185546374
 2.784226949179779,  2.388396888576779,  3.780211436110658,  4.128515608309115
 1.772746348830349, 18.134567266220145, 108.564800696045950,  3.775002218900151
 2.270072019215956, 10.692116437099408, 110.328562544178340,  4.590453674662430
 6.573058927811855,  2.147030756353496, 100.224609214645483,  3.788656799406310
18.243618397870954,  4.769586992828933,  1.646523596857020,  4.212217270156199
 7.034539907885082,  6.096505872515738, 17.154758380364061,  4.304351612630805
13.955467338772397,  5.726357434890450, 55.579887996954177,  4.404145599260609
 2.523623279524364,  7.396577874732431, 102.410803944299829,  3.969043068019451
16.998722350966975, 15.944152489124228,  3.488525449766847,  3.909617979323692
10.241810010582904, 18.237294158990611, 63.182549942480868,  3.943502878051293
 0.641085236005219, 15.036566946046479, 58.824543724563867,  3.936130742060671
 7.983814279688961,  2.616216829815924, 29.573416236424112,  3.768967143122370
11.443264647674955, 16.425020830225357, 41.759474245284274,  4.095613523224058
13.686204224048739,  6.998960760081370, 109.515519050728074,  3.797603948299182
 4.571295413122580, 13.906597299994161, 78.490795524659873,  3.954441917171586
 7.777935338778021, 17.206926100794242,  7.309871534639535,  3.710259096139745
 4.754879008607944,  3.015314945030842, 15.641130791084947,  3.934370889049750
12.918224856217183,  4.166978796639361, 112.051619609497195,  3.948767753906837
 8.981694386564008,  8.139318107777521, 52.601925753410384,  4.036289703217101
 3.493051914714115,  0.453275604968264, 12.760628522119312,  4.149646597435590
 3.966816710637096,  3.728050159296590, 102.594934493753698,  3.886422501940443
12.299822442902689,  1.933313439307628, 69.273552850929036,  4.065253684568165
 6.657577273426285, 17.624744220905416, 53.789398782030936,  3.955285429607571
 9.158222192322963,  4.555415400489867, 69.320002225815017,  4.070973902733699
 1.067837945172258,  1.068903525391033, 15.976001393420805,  3.990105605961350
 5.033601393599795,  7.263395171836227, 109.959924683471527,  4.197173791985406
11.410757609454244,  2.364070083055564, 49.448037647624695,  4.226453199898169
 4.479408157947492,  9.615250495311384, 105.316440799201189,  4.314010304844626
 8.549541691042355,  5.445435914464642, 35.961438858493580,  4.047445757377271
 7.685806243067216,  8.090210748200198, 103.010513830634963,  3.996061023935007
12.373709010104273, 16.648602493957007,  0.977673337101155,  3.957083118435345
12.336744476199572,  9.925965187911732, 107.242386156507379,  4.034930311564960
 5.376833358995663,  7.276074949271941, 50.812500335099948,  4.093483814724586
 0.597991082622438,  8.485700699678942,  0.143022621621971,  4.146369059299305
18.935239541272225,  6.352508050741217, 63.038880610171439,  3.581813112689882
 2.531878575393784, 11.732911731450690, 51.619502238751231,  3.934876265596032
13.381480740198592, 13.009781389040008, 42.492377967689727,  3.848578409528628
10.049384184548614, 16.634126636257243,  4.136658628111505,  3.823969356700699
 0.910915722064801, 11.779805856243328, 84.829566606527663,  3.788177444610681
15.607233465412024,  7.663430475844753, 44.425502904466633,  3.898188624002472
 4.783025269763883,  2.366290924673909, 66.831922302606387,  3.937520035944562
 2.869837950629412,  6.144799205849276, 60.569442536083095,  4.028058992047789
 1.057436415001454,  7.516639779325105, 31.855680744160555,  3.927337087042245
13.851348021649509, 18.438091324058032, 61.757510608042111,  3.800140041117695
14.427408487902351, 11.358000604586850, 86.584843306775824,  3.979016246613472
 0.019903822707714,  6.012246214108828, 88.049325932579379,  4.250128682576252
10.097376352155527,  0.274937292427922, 59.178517630871262,  4.304313719875823
 4.072230670382705,  4.791123728617023, 87.756008644266416,  4.209989834581033
11.356488361660560,  4.065447203960959, 91.059053445833229,  3.919150871698332
 1.073456157987887, 18.481374429529140, 20.786820176986460,  4.098332492125436
 0.380579079054448, 17.119489274186048, 89.124450216836337,  3.830083568511792
14.961406474081802, 18.183662683946356, 69.491129209877784,  3.533229361085553
 1.198035047545818, 17.769655680810793,  5.161140675820697,  4.091891269062675
10.936713189028323,  8.118869076226897, 10.379130536330440,  4.119756049913167
15.913242637567235, 15.825020826707165, 66.537664814186144,  4.247601921163447
 7.480242820646549, 13.325353633589001, 91.572749150115456,  3.897286226149489
 8.807718573651133,  3.102012286630907, 62.271550610727907,  3.846487720374128
 6.177709578241844, 16.404082565372939, 81.029360233072808,  3.649206257250136
11.273949381040643, 15.568916070871881, 112.552018351643071,  4.021337154472063
17.910097131916739,  2.808715671729260, 41.918137502475432,  3.916227193905942
 2.382665908340213, 14.134954630627865,  3.908356434402801,  3.937532718364602
 6.616595694834512,  3.807718913281207, 12.175728651627704,  4.047406584238301
 3.248674879865885,  0.841788318810515, 35.146277835493272,  3.886286554897766
16.147569911635628,  8.746499887193986, 36.604314575803777,  4.038947472077855
 4.387872627694691,  4.156153963108341, 23.162770625495018,  3.885592438370032
15.928012056384416,  5.652532838418227, 65.355778220954349,  4.113000107254685
 7.260265295052345,  9.966868668359252, 11.794716588111307,  3.860297640233085
18.122126321592916, 11.130144567554751, 34.053951082213032,  3.980967457624461
 4.397666647807608,  3.384155999555363, 63.048462839578441,  3.832990159006413
 6.315631556832127, 11.230271614291413, 109.385957336869879,  3.786677833526050
 7.819400865808983,  8.401512403503725, 70.111842319214944,  4.174104119630919
11.474308672440337,  9.910287565383046, 13.922647902641538,  3.887024104462979
10.611477830366049,  1.407821249673886,  4.135814857882329,  3.668188551770511
10.413444645132842,  3.528510336365524,  0.637018490621030,  3.593601936852062
 7.964014365097863,  5.195551966284061, 77.363324556118044,  4.047779992762798
 4.594828961347607, 12.641178215003865, 12.842281495270083,  3.961592355496592
 9.603969148743358, 11.341023968086507, 88.821314592606072,  4.057929979994038
15.830489495055259, 15.311319965510334, 40.443321130357234,  4.019727746040249
11.017150596080938, 17.230207050659480, 105.824180763962886,  4.328506541970204
18.679184287346754, 16.145292812296052, 30.001664584359638,  3.980913358399840
 8.870779478168885, 10.031624544028528, 43.194790162536364,  3.947675133875045
 6.700251948619150,  5.807754031841471, 84.501976441818286,  4.213555681357667
10.423709955928166,  2.630054207136653, 109.430794439990407,  3.911429223681497
17.494573633793767,  4.972796189901398, 57.724388465942958,  3.952482246436819
17.541549119067799,  5.821090677845806, 101.821533015935060,  4.072931923833260
16.760413568037826,  0.132289939110503, 91.464908945120754,  4.063876627970703
 2.064783082650960, 13.417418644874610,  9.792831021313662,  4.104328068946418
 9.251660544025960, 12.844279852791335,  5.031286535183065,  4.107205432560117
 6.429907830967984,  1.426235031268177, 74.521616920508379,  3.995053683688926
13.718896454731629, 14.730378944849546, 88.056583834849249,  3.503541818199448
 7.373916301237182, 17.273239051397784, 72.180496160738272,  4.002062379272439
15.344583013822430, 16.219785982679898, 27.819186938991759,  3.939647970164985
15.153707681646326,  0.979291357321959, 113.378437702235274,  4.275441192845387
 4.689842649269417, 14.662671547219503, 70.871701493313907,  3.875832977734254
14.847165369893075,  5.184595240733908, 70.235694294141680,  4.387054777599154
15.607593055683090, 13.899810804149192, 54.544933425468635,  3.997650140481171
13.956364785025391, 10.993220981690721, 110.858065228637841,  4.096706769440924
17.471807242435833, 18.112814195309742, 23.986420560017795,  4.118573969681165
 7.351380960282099, 16.478335963398269, 42.470053661002751,  4.184460937654174
10.296250194750092, 17.617606482948286, 55.363950330811896,  3.973909915563273
18.412859786783677, 10.097579964386158, 22.390154516837836,  3.509276477811228
 9.975206933416192, 12.846950702115974, 40.577388096863245,  3.964719995118541
14.627850234804241,  0.591492284311741, 14.167500546912390,  3.923304453631524
17.221489484534441, 16.015399948175805, 43.976432249640126,  3.687059381682645
 7.676131449644443, 14.165683870150790, 111.589764116138667,  3.923613370000078
 4.654169741762885, 18.811411188180823, 44.854218755145773,  4.299527178721795
 0.952205024617157, 14.853460451589703, 68.618408015522760,  3.659171432857437
10.764057597789421, 15.851062607118541, 101.781024052060630,  4.093182348171717
 6.763783482383891, 13.919336884182092, 17.720608707882377,  4.227166262035130
 2.482390665775932,  9.506823275390598, 81.759345282643054,  4.069186306726532
 0.627156525923147,  9.518615131972124, 26.076957877914111,  4.291686448018373
17.182304802223577, 15.642693284338582, 75.911005945498161,  4.117181342229725
11.401282364170962,  2.871505977461914, 37.321411328042132,  3.867606181279549
15.064825430874288,  3.397354552806087, 39.068769476214335,  4.122534077045433
 7.115209710012902, 12.047146824062303, 37.128602787706861,  3.755153328724808
 9.435036092006889, 12.753087822489523, 20.708520984582023,  4.113746533869362
 4.462298104759665, 13.466251602501156, 106.856185935870982,  3.895860012732832
 6.925945826215955, 17.080063057770545, 33.594981939849049,  4.017195152296974
18.150152001299617,  5.220974288138896, 73.596780308217546,  4.333292791360718
10.010867473326430,  1.998413071757378, 94.197211310571419,  4.039449443333027
 8.059885018676216, 14.649526103514233, 56.720820456329029,  3.917997769783200
 4.421641114124880, 10.298129685707384,  9.203530476565179,  3.786009664353461
10.456736464169296, 15.286665816891251, 89.529775667962625,  3.710615881421934
 1.686050329400356,  0.594286955179142, 29.607972253310685,  3.885127833465392
 8.560132284194145,  0.016872055938938, 69.033143553428445,  3.528995642391833
10.819580241405058, 11.338567211119726,  1.529641313857293,  4.134575127958601
 5.681435818644839, 16.617710605092050, 84.954499331594093,  4.112177857635051
 3.172235049708573, 15.797700170519674, 32.443295776544446,  4.227935237590194
 5.670032431756386, 14.671523687861296, 74.708503519149374,  4.003111609374549
 3.360686852856840,  7.133134185259363, 20.639170156897414,  4.057201282633171
 3.101301568468713, 10.387008276442604, 22.901152277506721,  3.863408786953452
14.383738720113367,  9.064609293591493, 83.253504837227254,  4.105327581678575
17.011109833089463, 13.323108740901581, 23.749629287399781,  3.965169966299721
14.653108829489625,  4.024671049563046, 51.657755127635347,  4.212223558581557
 2.830525707314868,  5.740949245127985, 65.767240112945075,  4.005743722846172
 6.250782899510426, 18.122177424385139, 57.787721802170722,  4.142345663535230
 3.943593549105441,  1.607002719283390, 50.263925609095899,  3.874867134068827
14.513309462927539,  9.858616500682565, 33.131969802850712,  3.874263623618496
14.405626314008648,  6.392459639915790, 31.052905608279410,  4.210467220985084
 3.058674053208985,  0.666315844587438, 115.998744017389015,  3.875796367094578
 6.270547073097517, 11.296420933471696, 50.133345806775644,  4.143374448158974
 3.280785605669544, 15.671873020755520, 39.522597137421329,  3.818349839788795
17.788221686948823, 14.681600647337776, 115.225415641061076,  4.039739174589310
12.557638091900728, 14.427335343100896, 108.709765457705188,  4.248706324640922
10.655743247348036, 11.901919852174153, 113.883405021738341,  3.857034369167939
17.155860672755299,  3.294742291391429, 98.479354083101683,  3.765023248860700
14.266240303451228,  3.324109616990524,  6.276888816049953,  4.387556938327818
 8.269704952597994,  8.927314723421189, 99.004008458827670,  4.269731629804332
15.791792780584053, 17.692580364835958, 87.940596274773725,  3.721134352064122
14.837874203966317,  8.098286454192598, 52.258096387647335,  3.934825282921872
 4.782818359453570,  0.101111522885374, 40.820086341586375,  3.769413531833422
15.539793070073500,  7.283522334138063, 40.406040665476638,  4.147609662491726
 5.504195810829510,  5.611513608421544, 68.654768437814297,  3.639463277981948
14.115795280075677,  0.774709446335777, 25.564411024730646,  3.854402669637538
 7.705745689287226,  4.451503607267622,  2.944075717338717,  3.702854617083811
16.538657271071674,  2.796079299927833, 116.869060207901981,  4.043584685938209
14.323091508788821, 15.399635426394068, 103.857270957994288,  4.189070222572037
 7.264866329748674, 17.259851191353896, 100.270442148523543,  3.935487089794759
 5.770475728541976,  9.109188938181738, 41.062735127082988,  3.788258953372678
17.452856472167912, 14.657200725324182, 98.068870778246392,  3.975030083352203
10.580875217268437, 10.963480424891628, 63.698166982871705,  4.135743894209346
18.660857643064091, 18.467000930454248, 68.156003292022817,  4.033137585085735
 3.289942135364631,  0.929446147078788, 89.193706446673943,  4.077858778773575
10.736929364638115,  8.450399469242580, 31.549197359116622,  4.206469542541378
15.710648058192564,  8.633548459030560, 90.748622044062103,  3.938709779674401
 6.787137630757448, 11.418357686464944,  2.111564089504935,  4.012826592220238
13.744357579916626,  2.215425123402833, 73.129896870576218,  3.752597475278259
 8.976446475974845, 17.499937474811340, 92.380263909110752,  4.028596872457948
 8.737043116670431,  4.935238347874553, 112.426741956803767,  4.351781701746112
 0.060412527737485, 10.932502093177874, 106.639002157522029,  4.017791929060910
 3.189015688542812,  3.482242430429526, 109.579498441329591,  4.222115310025372
11.764636177358579,  8.048548885763321, 112.952837449569685,  4.345066369423310
11.518583029940855, 12.428737621299696, 32.503173560200054,  4.109883951295508
 3.174437044452216, 11.797939197500924, 37.968400806118794,  4.246619199123712
11.456379524522054,  9.246080742259155, 102.503050456189129,  3.854429559061913
 5.608359857834814,  2.153642022733244,  0.572285740534098,  4.103600769938708
 9.055912137000981, 10.750770498261492, 56.179334615430434,  4.119065123480094
 9.957465342242834, 14.318348413314487, 48.818793945992319,  4.201148639628334
12.190998479946423,  9.540806285924315, 41.046899310400129,  4.013600835928722
 8.774448356836794,  6.842784694633454, 13.515838104626912,  3.864755319971434
17.441947157413594, 12.063538234165479, 69.047098598954335,  3.748881278129399
15.459803027660744, 12.534202697718012, 46.520941187805718,  4.095801269473855
14.329890417737191, 16.709904266645079, 99.894787062590979,  4.021089911634309
 7.358542846595319, 18.094568072733555, 24.865297985529544,  4.294307351069727
15.146224879852285,  9.162620253775291, 101.279983159528214,  3.861229637137054
 2.754018107439008,  4.672388700211488, 52.409451717694559,  3.958234928732621
 7.481237265435291,  6.296691119249711, 43.179108590879792,  4.008365277334458
16.340119751412548, 13.071896731358407, 108.496301850233010,  3.763751189714366
10.619486798516855,  6.536454724927471, 105.513707340569397,  4.303296565934045
12.533558760562864,  0.885651776998408, 82.801435832881268,  4.073662942834975
15.683297564055897, 13.515056636657894, 50.488331400667185,  4.071745865392577
 7.347311416214926, 12.559439635342599, 33.433757176214748,  3.706267983313577
 1.578184915005139, 18.575527268030548, 92.472665687875718,  3.757203044760458
13.542575742808250,  6.501432932534002, 93.405821189660145,  4.134083315479020
 0.453835558233678,  4.287113214394949, 77.647402873678104,  4.315286151481440
11.690515107267617, 16.051980603041621, 20.467392401462366,  3.869920596738733
11.737184982205322,  7.904674558612257, 90.041177967331606,  3.887154085261943
15.913230029095246,  8.427462269681179, 113.620456478082758,  4.056023561677991
 0.897845975235089,  6.170783958441654, 23.640248937538882,  3.941859207158844
 1.812036483287710, 11.757197971493204, 71.355897905639296,  4.343965682578731
11.084896683238252, 11.789052049887529, 59.650768096151957,  4.155940368449267
 4.306697355358033,  1.829141264940420, 54.956875165162231,  4.247548287319390
17.360806721843339,  4.137742100160025, 84.394385217053070,  3.667930172024854
 1.045520856051955, 13.348325166713325, 88.076243493337770,  3.404442109490055
17.243875312149612,  1.788106243143497, 71.261170379702193,  4.164022104401686
17.297477199860609,  8.745810568378603, 109.722078131386681,  4.224386092993954
14.814861201442383, 18.596613530662907, 42.526882588588435,  3.844615651361419
15.058961797497069,  9.284982270882763, 19.266677828092188,  3.987952866467629
 4.423208142674006,  9.795584495584141, 117.714070479188706,  4.071072054320081
11.991085666926708,  4.241464222818093, 79.912181066903173,  4.598280615487168
13.313755074273498, 13.934150846601440,  4.061636546221850,  4.461544524231567
 8.643195633199305, 14.909009921615782, 30.918476746122483,  3.638716039769562
 6.925086246779386, 18.045415463936685, 65.662470927476306,  4.155376550602449
12.355663398319201, 13.693125507190693, 26.987617128946106,  3.959051081711608
 0.700517836318465, 15.929715117361994, 101.580732188119725,  4.262818222330381
 3.582396698098078, 18.175519738508015, 72.352437417729845,  3.796009235929051
17.467461387478505,  0.720611415328441,  7.833122700571562,  4.297045459924967
13.071074903098781, 10.342181822027431, 94.930365168454216,  3.903448892708330
11.157573701796034,  4.245724164792988, 59.311455109596046,  3.913325783223517
15.129143525661910,  7.359710572339570, 86.945313478298644,  4.159152811722302
11.761846450443636,  6.613080587669044, 49.867956005104134,  4.325259840405763
10.756890091310137, 14.621843036430919, 16.949527958825506,  3.925482180532484
11.456519172280384, 13.751359476637679, 73.165041146193161,  3.895165661821237
18.331216371652591,  7.138455243591654, 20.076772911017354,  3.976860339664882
 2.454119220428838,  3.614783996162435, 94.919450024669686,  3.889249482477665
 4.496048230317114, 14.548866351564156, 58.381575008441651,  3.867647960041136
 3.724906476436368, 13.549113840663122, 94.696466328340193,  4.045918807109880
 8.925410748332952, 14.805508012486849,  0.902272911631370,  3.851123362846473
15.117819351404759,  6.719258034115572,  3.726428602366611,  4.225778782430869
18.012164035569235, 10.173201705098810, 87.874063398175039,  3.998508655761076
11.540364664957531, 17.546911397140843, 79.515026880148753,  4.166720761528091
 1.752822971097124,  5.063490906967395, 99.093894258278326,  4.257530154377665
14.213760178782184, 13.488172616541693,  9.757171592244623,  3.831961595746341
16.031465497751384, 12.801625658087008, 93.701428028780768,  4.106601928321122
 8.036526565776001, 16.927318696435311, 21.084941614493136,  3.690214682403028
15.867129252222307,  6.193335304614677, 80.556153206250826,  4.152575823789266
 3.484672910348686, 16.515493873661828, 24.080507668530348,  3.863163333507408
 2.627075376064105, 12.857305103345375, 63.659324171369732,  3.874332391961552
 9.241870105175881, 12.269631929191721, 101.000733122246018,  3.753011830037746
 7.166354629455950, 12.046556980117996, 59.354164337281333,  3.626704969667693
 0.375138100549605, 11.542601804512936, 95.747222881384417,  4.038522023395711
11.339941992734730,  5.148111053988798,  3.925262957488361,  3.947082180345381
 3.953099031994276, 17.364744673687834, 48.412031815754183,  3.506178682192515
14.390549241632696,  9.950364622438260, 11.308402742438483,  3.873314114301664
10.979493564676543, 14.075016030622912, 93.401068277918384,  4.110358157314964
 9.869983227283100,  6.671630580114059, 56.356421360673075,  4.123367790652366
17.570675024557325,  1.518738634433427, 75.259361363260481,  3.860219989398554
14.998594238898770,  4.405363648166679, 76.670311158749413,  4.082059465329962
14.097353030127350,  1.946085876419187, 86.457650602592608,  4.113139745027153
 7.454953447579857,  2.322421834281221, 52.192049757800909,  4.170839675865384
 7.513950721277173,  4.753734258820368, 108.175678038639859,  3.681195726787991
14.277138363113515,  1.995070869717588, 10.380657239518637,  4.173319454783643
 4.876380495860406, 15.830911508234680, 63.168264682915009,  3.640603839566289
 9.018558764539764,  8.722211642528578, 79.191707097254408,  4.142798487341320
12.203757273658089,  4.947079629603644, 12.848378692210325,  4.079051704057250
 0.103491769141987,  6.574771586944195, 42.312884031189462,  3.966310889539528
 3.505088843024743,  9.848209647218866, 93.311338898641878,  3.788606351329854
 9.884687481852934, 14.085321167345279, 35.596500211676180,  3.620543868742808
13.414668514017876,  0.917512087954300, 45.903236313544156,  3.840339715774763
14.741433722891276,  0.049633316794381, 105.692861731439493,  3.908286119139909
18.115574584113983, 11.917334546724659, 56.905337801581062,  3.924953533272289
 9.990490023943362, 13.724495043621927, 44.589740034559277,  4.244849584597477
17.517165720087753,  0.738461948254535, 45.383166632826935,  4.190300177796489
16.337615817672503,  7.486379275207661, 105.952110959576785,  3.946756405862625
 0.384449715628441, 16.292742026877409, 111.791641630469556,  4.102026684167363
14.324197252856292, 10.867445919272244, 56.772711302087124,  3.931960952089430
10.004326466279146,  3.485243270645372, 84.482814255457740,  3.844564334754816
18.499109876336579,  6.036608475298385, 115.589643442588866,  3.891490581135314
 7.225662019462784,  2.328787639014322, 42.800017908314715,  3.887462266409931
 9.951126929335970,  8.798460296270948,  4.490774004626650,  3.844786866729430
17.900331907013836,  8.574702757757938, 70.924951066724034,  4.201384916535201
10.800963500345949,  4.373793194466151, 53.190879802958086,  3.876189694850042
 1.816222021869851,  7.388177154782962, 95.742580934771169,  3.896972907724665
 5.488964679262970,  6.229007948681336, 100.110377220770275,  3.788311451626659
14.136004624363832,  3.181058968868553,  1.769284909379494,  4.061189527896509
 5.651118746245600, 18.202204914178441, 37.419072489431805,  3.435763034629066
 0.557904340737203, 15.935118402622981,  0.301654370102224,  4.185739587698782
 9.597560350334325, 12.028019211799794, 76.418163607295625,  4.253272185804399
 8.753566797478124,  2.240634509016413,  7.477292854664466,  4.102755769172400
14.273172006825233, 13.188058263224139, 82.876146761473862,  4.176600565696467
17.343115572350435,  9.920802876773241, 30.448351210815435,  3.754631567001574
 1.417066388788622, 10.865339661835737,  6.642227923420276,  4.105308655368538
10.698285776149051,  7.316823086682886,  0.645973232395808,  3.988140391090708
 8.088141279470284, 11.695341837451348, 66.883766290611902,  3.729509574463254
 2.410643225723263,  5.281649009539388, 56.511480663173735,  4.147423461874693
10.991772878810055,  1.016943911454504, 19.298274431477928,  4.095432365777111
13.660007776392760, 17.795661214897514, 57.370113848297343,  3.838773535647805
18.198891036002767,  4.158692647242753,  9.944638774868205,  3.787838353685907
 3.018910481718441, 17.107715711151659, 52.100235066118614,  4.115587781865721
18.592554669568997, 16.722354834701449, 72.007689132919154,  4.403408774268627
 8.432723030896119,  9.905813921906674, 106.457279285249228,  3.893779133739885
18.334357825553475, 14.244394907818577, 82.065779469960987,  4.200045473215406
 2.694054484044338, 11.011952128256297, 42.335732380608235,  3.856186695798278
13.216422701281274, 11.823620786786579, 90.749099848286178,  4.151010824374903
14.227263538527364, 15.672469625158318, 91.591673011244424,  3.875146182632081
 3.680424990948738, 12.822495711072028, 90.671713541287204,  3.972780652010689
 8.225004911349870, 10.048903729827376,  7.911741069246594,  4.134626246682066
14.591573651055800,  0.691055841725384, 97.186276950088313,  3.980237622529369
14.520202242708763,  3.958673891751264, 43.602077761544045,  3.977879344987310
17.462998537430856, 11.501816923103798,  9.200891702304274,  3.670236300206632
10.466758742169443, 12.258717584672006, 10.718862883091745,  4.225682301928539
11.709733158381638, 10.913379186978355, 17.627493311934050,  3.751663191737508
 4.648421988486602,  9.048489019202078, 72.560944265939384,  3.851443253018674
 7.172803345737703, 17.804220431250261, 113.255696301741935,  4.089523191627176
11.796961862466571, 13.715347004996296, 117.022378805645545,  3.697324192458248
 2.878151191370131,  4.479101787653956, 117.090577976610106,  4.033200419506118
10.642748113356038,  4.957683229067317, 20.267162569977089,  4.026235214990813
 2.589259617003234, 17.920007138027501, 60.709870550890493,  3.962093679982818
15.665209479581234, 13.349156065132522, 79.048037738796396,  3.958525641108528
17.605548572128466,  1.467538609878957,  3.806310847904067,  3.725189034647459
 2.707341905733355,  8.252255031059997, 69.162902781743242,  4.116374106720613
 6.376289280553068, 15.388567683639714,  3.777245529314182,  3.893241501873144
15.346962045377573, 11.395518043045298, 104.764444575713128,  4.269603629646994
14.342761555833119, 10.650570332809032, 25.164573774918910,  4.096840997843803
17.154636421279683,  4.929205056386754, 94.810776176831922,  4.230045818969520
17.041865094754389, 12.903698415718676, 72.891985047688351,  4.024097994378703
17.114654985479451,  8.340615419185792, 55.815248752463667,  3.809685126155690
 1.312809002988089,  6.575519734897651, 111.580961453470337,  4.015627611448758
15.175646177009426, 11.546975945363169, 39.360475992454042,  3.914695613617168
13.060648150326257,  0.202044852756117, 52.690456345045497,  4.225845532152841
10.700778768876921,  9.485746707171973, 73.201956667388970,  4.212710672076856
12.020431272429549, 14.122085126656156, 56.391972061491849,  4.067965831032959
 8.959625372283774, 14.649981063473538, 64.472676354105900,  4.056433045456263
 4.375576680559671, 11.621932287110345, 114.014420224658309,  4.080982347003079
 0.374402799868866,  2.021521390527014, 81.906774707641148,  3.912681705594321
13.924291934647163, 15.966535604471414, 23.997805281321643,  4.147610479166564
 0.534416347412931,  3.306205778643994, 91.291706648282343,  4.251167162603935
16.274573486844687,  9.120158252448784, 63.186382252465677,  3.749421981470290
 7.131525128739071,  5.073680373774251, 65.225717152194790,  3.909421927096721
 8.174642936991866,  2.538160293532390, 56.334678487023567,  3.909054238217361
 4.269694387595338,  7.306077297720550, 114.418278509110479,  4.154907881156309
 4.905507148523995, 10.511570380212534, 101.130089147464872,  4.280094824348629
 1.235986356482333, 16.834914267873987, 46.072020547871318,  3.739824192492934
 4.341282316262552, 14.145689363477718,  0.417848397392324,  4.050059147312600
16.627317693706516, 18.250557776983324, 102.538668322469405,  3.591189752828917
11.262853410572689,  8.800026851068804, 86.010916249300436,  4.206103071564890
15.248494025528414, 16.839187021293348, 81.162553576634494,  4.015801384147003
12.991733437794103,  9.559525816959729, 79.496854362057064,  3.966271780145432
12.701545614781134, 10.806623731447271, 49.227521172272077,  4.348757703984264
 0.580759701719098,  2.648627754569523, 61.818485426353789,  4.280716231949213
 3.388797202085591,  0.021581268139641, 64.241404823210800,  3.579993467048339
16.296069259860989, 16.761579341462991, 94.782041854766717,  4.033906949568610
 2.054106749645188,  0.725676101798141, 78.718321873207003,  3.742126931890904
16.202479198989000, 16.097498978375093, 14.732889354441093,  3.656234756903100
 8.268045086688549, 15.705790498922061, 77.863362263073029,  4.020372851908395
15.630853136073325,  2.141111209305947, 80.617073699523615,  3.909876150308038
 3.561959462337487,  5.483903059138219, 71.817665228630588,  3.727914979860757
14.586856643090815,  4.375593819994394, 35.502691159829538,  3.301640631916614
 6.760366623689447,  1.819503840780318, 110.565906144370629,  3.891506456312565
 1.431176927432458, 17.908726562959188, 75.483757923690135,  3.730346055589445
 5.552908533896679, 11.441258079564326, 45.140203522733408,  4.197229023026387
13.123053942046880,  8.321336640971644, 64.928344844603544,  3.582405353314017
 4.878240627129470, 14.025482929695915, 54.072213943712832,  4.071477751609273
11.549038936324973,  3.629599719549058, 33.219632367769378,  4.428326702284289
 5.747045518331668,  3.661007124511806, 46.235704665089678,  4.014578966445096
13.383241768794726, 18.676919468229062, 109.608090114137511,  4.384151816144692
 3.252162041276953,  6.267216039448942, 39.540147518533885,  4.381218407837356
16.048186070838824,  7.700447208350480, 27.456148087803800,  4.090043105605687
16.848734979185487, 14.480013651295563, 85.909176100284711,  4.025945893389472
 6.755686488272138, 15.560040394169315, 46.484878197820549,  4.100828384679675
 8.102651889906410, 14.969652603740567, 68.960403426059941,  3.928310515284449
16.667366454863203, 15.224554790275700, 62.574364578061484,  3.909568905060429
13.661619508820740, 14.275374733126574, 96.699124111387945,  4.082654090854950
15.881299369223234, 16.400039997828788, 36.618575665290230,  3.921026570909225
18.759332253659807,  3.697531410143231, 49.892349210511924,  4.011768250261925
 0.476430840030571,  7.630379236850089, 50.743353986940086,  4.129986780724365
13.925596933736735,  6.192291780518348, 103.276595520490005,  3.683274351230474
11.371068858364124,  5.397527495915996, 72.685700806117268,  4.127968097232389
13.121148579156094, 15.419561865491852, 76.388644337534828,  4.007451321817407
 0.537582593077622, 18.698401626709138, 49.376399040841548,  3.897212751598019
12.241798446648318, 15.005616819829129, 52.312469622257154,  4.255907598951779
10.183647921985251,  6.922015977130291, 46.054484391132576,  3.943159244816941
 2.296517138303369,  0.749865987266747, 85.193914507478141,  4.112178693369862
 1.729679292824545,  1.926040792929336, 39.190731550822491,  4.024795987400587
17.784353590221496, 18.421054589359141, 99.020531258263986,  3.777401845487322
17.447446429204891,  7.823513512016869, 12.448844616812339,  3.901847424343437
17.997330794190912,  7.822261117917893,  8.036142938569682,  4.030218253798747
16.941621688146412,  8.068261056647440, 76.998334786943275,  4.139472039588695
 5.134620491306364, 16.161014325409937, 14.657586158201022,  4.025322666071267
 7.464978979518399, 14.542986815146651, 27.047871457109888,  4.029908268910994
 9.599561581121604, 15.398791936485543, 82.304905040468427,  3.845029248545553
18.853184218044714,  5.055678983137715, 68.616515616957457,  4.252851917577487
17.632454403716778,  5.835040428285797, 34.401835310779809,  3.801442554696373
 1.151424174678202, 15.816698942374160, 78.652707483009792,  3.878134927841287
 1.686407493646381, 14.241325697607390, 74.568101247063197,  3.729620216391296
 3.884463623443422, 14.632300887571574, 111.059158232267691,  3.775641356565286
17.453980932514803, 10.072141344957563, 80.582180731020131,  4.048162687321371
 3.043889254503692, 10.346319815431553,  2.979645543212446,  3.920758816069285
 0.237074891879823, 11.243503371539040, 91.777307480747950,  3.915578794831391
 8.569707712145018,  4.746471861506161, 97.939791589878880,  4.020697240165822
 4.711233397173944,  3.085829741040487, 77.558282712980812,  3.713294815319342
12.881643826816127, 15.237834624803948, 63.767571192808219,  3.931041769577221
 9.959310830191273, 17.920235178572860, 45.357687025592625,  4.085123938911213
18.110693006809612,  1.934934179750928, 87.576577041843905,  4.112670957591408
 4.944843652161552, 16.421644553922977, 92.043800757217426,  4.132656820031484
 7.840517547039650, 12.486162006164200, 80.273622134788923,  3.981990565916349
 7.254023645232790,  5.226762843024058, 73.296548633651540,  4.144675481666318
10.202642484221061, 18.016364674204720, 75.075726891969154,  4.186049626511016
 3.521248155390365, 16.152627573631548, 28.190319776998919,  4.321576129028186
 0.825489402339646,  9.594968704436146, 114.275209898247056,  4.092006775905286
13.533317703250532, 15.896473026194304, 45.229951331368099,  4.070432688722065
11.642493498271319, 15.507909825051559, 67.446626628795698,  3.841124720171550
 2.981293952184527,  3.472197417807676, 42.976422459674041,  4.485897437395129
 6.530785655875428,  9.333035021413815, 82.368544806796749,  4.018958143346984
13.138973895081334, 18.791031349736745, 65.818655244758645,  3.944180514054592
 7.626819946740167,  4.207422071153311, 103.890669376746843,  3.918718045710675
 5.146339830596775,  3.314750589987948, 113.913444854686787,  4.035480310190271
12.706185644650001,  7.982841398498993, 59.124597414422773,  4.182542901615795
14.427448764386243,  3.458268444267723, 108.530629095769669,  3.643281446037838
 0.994579143522473, 10.873007385793979, 12.771441126367314,  4.005889532693597
15.285329864020952, 15.492975193384753, 111.725746211345978,  4.157424618316030
13.711427652244172, 16.661802128695740, 84.908455941259220,  3.867198989920568
 8.466865330566311,  0.274430706407965, 82.599246188542907,  4.159807778108457
10.164441240389296, 16.320356216212843, 97.590937299046516,  4.162002593962979
10.069956349267851, 11.469051233054739, 110.086371335007613,  3.850945827856818
 3.101059579030849,  9.844788675696508, 48.233747447160965,  3.769968931747888
18.185602121214135,  1.356595510266017, 110.568716508758712,  4.016467226546660
12.655117950170505,  1.277122761450764, 116.836036463538292,  4.185979322878098
 0.666540723510618,  1.018174874029405,  0.592227001324534,  3.902195084622852
 7.944379733381566, 15.619247070480791, 60.635567782896736,  4.096638444516696
 6.033217197990709,  7.147062345672234, 95.647530908434533,  4.331585124564736
 2.106482541837368, 11.620021675635698, 67.217296841675790,  3.723848020723276
14.741717309270069, 17.506661643907591, 73.314181810510931,  3.841827580204041
 8.455722521705290, 14.173216113111790, 107.478375394863008,  4.296394805980798
 7.616888438115719,  9.270088567577728, 112.706589379965791,  4.313562806039826
 9.036173379333253, 10.630045608627595, 47.186678853522494,  4.040906086554566
14.232777134033553, 10.478932912333310, 71.301141480447498,  4.050141950262054
14.828091371316217,  6.162681625584851,  9.971380503170204,  4.037041944634446
 2.383232430985647, 13.777962468557254, 98.486399140801183,  3.988349642690386
18.313205820865960,  9.288643666093128, 103.270697086452387,  3.595319282847678
 9.690581817343203,  7.644960467099384, 109.396511059019062,  3.927783036325751
12.651055513153715,  7.279780787770628,  6.898933688582233,  3.804435172318677
 2.530340359735398, 16.455514945663445, 105.198198256601515,  3.883622184912994
 6.982189675721901, 18.140012878312451, 88.903874947853609,  4.083005287040905
 1.727305466248102,  7.551343409097007, 107.593688915421055,  3.755915289887966
13.066140808702434, 15.724074011208140, 34.091228716079762,  3.743628146741407
 8.868345609810964,  6.186096579267358,  7.085512083325409,  3.826865093019243
 3.744205850385932, 17.680675115542392, 68.358730856645863,  4.196109391010274
 6.048060983314666,  8.199077209727619,  5.003329420089616,  3.993042847921781
13.795574128543954, 12.038838769069411, 66.299835800969532,  4.402257553767360
12.328727029238513,  9.162176274710289, 98.600314748302139,  3.890160121648270
 3.592419111397329, 13.422821727163157, 82.402614745639468,  4.150663323347716
 2.173712732900105,  4.316585324837841, 36.202450423180125,  3.641852639103658
 6.372206430486322, 13.230140530814246, 98.351246449983890,  4.013804946878974
13.551048742471172, 10.500642309420172, 29.225524547451638,  4.158756835300405
14.434321664062757, 12.665133038715393, 114.479129854070834,  3.916677938837271
 4.725211802270323,  1.907466053915605, 81.452679932614217,  4.150612727033079
 3.039738087699547,  3.210708220174860, 19.303835185368527,  4.127461042858053
 8.084703297113142,  5.507672759701393, 32.053645745354842,  3.750832071109566
 2.726292898256226,  4.624827787463395, 83.837695298448494,  4.072735309564640
17.427435219718443, 12.655139905283066, 19.889331127745056,  3.881079271682955
 0.038079092532197, 18.735820161946581, 33.091562625799490,  3.987303724891368
12.309022513046289, 11.184594290247846,  7.169044026334785,  4.051450951154947
 7.238558041208180,  5.081940352649745, 59.220313315949959,  3.996363415073847
 7.130632245524672, 17.870778104691276, 29.203390935038474,  3.838244560365152
 1.659517778628322, 15.616342827050921, 85.210073305381357,  3.950350831456098
 8.559721387239575,  0.401162059397159, 39.546901994450756,  4.059047152290036
 0.925057654372537,  4.653030014928685, 104.939035045284086,  3.945555118776408
14.364203992764311,  4.024991709190828, 27.725151109640169,  3.952934192583546
15.856692651646986,  2.257241462489772, 67.480784878714118,  3.898682365488576
11.687822880430057,  5.124015036446442, 115.909329545949703,  3.953916689284717
13.021481522031022, 17.088639309247935, 10.810078956454497,  3.906136388022414
12.259075828943535, 15.787319267896867, 30.350761609191117,  3.888985358733074
 8.976778763158947,  8.328676839774525, 38.844667398334927,  4.143818876988439
17.439681634513658, 17.249509424940765, 56.009531182774431,  4.152032154879199
 3.774496382976775, 17.800122596373839,  2.030682863107518,  3.997117294563437
 0.098403814931902, 15.486220830518782, 26.320347168845231,  3.495417440524458
11.766804101114275,  7.896621482769020, 69.624975618495753,  3.803667618755193
 0.838160215367577, 16.185368689359954, 64.959990156047041,  4.099479765331402
18.295117381276313,  4.467286821039823, 17.104929981329583,  3.898354181437362
 9.752342216882427,  2.123230721283341, 66.042289201117413,  4.141883182581489
17.539588584033535,  7.421704176480460, 97.976001516967273,  3.847246807293380
10.694113186238653, 10.813230682769387, 82.478667640543023,  3.955761739037626
 0.890421139011758, 10.145715933715499, 99.817487474611667,  4.148179456715018
 3.886937590182994, 11.396941360533065, 75.322110202683703,  3.524508415883043
15.110725415002587,  6.674371759910543, 117.857862777765476,  4.359114822383134
 1.539223120188949,  8.306652119133465, 36.028903894806895,  4.381185360727391
 7.209422964293308,  9.444566933092778, 86.277285621721177,  3.890475839323281
 5.624156079114827,  3.081574220288138, 37.720577971303989,  4.243542949968240
14.600698306993367,  1.234066876405653, 21.401088881779827,  4.179144292632229
12.715295411042558,  0.261218568734689, 90.116442035408625,  4.357724027619976
10.454576072041057,  6.781199824542328, 62.506686414758263,  4.214201052263287
16.999318433662946, 16.928168562893781, 108.247358697469451,  4.071264777448977
 2.911793851434964, 11.673317622884134, 56.422122265238649,  3.646559929396979
 4.046415031664985,  2.459282483477768, 59.136851357482172,  4.221415530278750
16.485139310145890,  9.157274856042724, 59.445972809387399,  3.729108889455673
17.843246275665376, 12.423888545533302, 65.177225177785502,  4.025824790723403
 0.433439546024193, 13.023210238737777, 45.455261915154743,  4.080025963992713
12.061835475288587,  0.042194997492179,  7.449000147140246,  3.828318296356937
 2.986022637822703, 15.507226238148162, 115.097252305193123,  4.402536149858034
14.037983296147580, 11.209081595505337, 75.618638077929575,  4.703205253717571
15.791801180138130,  1.117501574725825, 49.035638332915255,  3.919352400157746
18.358086439622859,  5.461636699976484, 38.347591137371566,  3.725371277183627
 6.513471029322418,  0.449159371891607, 10.172718875123184,  3.766992152571959
 3.435975024296920,  8.804278545417516, 28.991938426262958,  3.925524157227121
14.843535332928253, 12.784152399108956, 35.675547000892450,  3.791564642922324
 6.923888411928123,  5.935487987730705, 21.067834129123252,  3.500344040994318
 8.265747167075265, 17.727061197933562, 17.293523095350675,  3.993498142324683
 4.045514886900035,  0.737757523743499,  7.222212473496233,  3.897238744618080
 5.096458682216441,  8.237128692518734, 57.837483874890076,  4.108474518094915
13.636949440715593,  5.082869234164420, 83.851668285122742,  4.077473936280136
18.211738208514035,  3.182734625940281, 20.874592304846512,  4.057766582479024
 0.456111536989879,  1.279807068616402, 53.186888006973298,  4.250222015977279
13.014353644993355, 14.092223567673921, 13.557158071355000,  4.220592278321753
18.377262703753882, 12.662525871486103, 16.028777708216555,  4.042034859364525
16.725127031112688, 17.233575600673142, 51.913665540979295,  4.145967465822135
10.119104761192700,  6.915726767098482, 82.623794131605408,  3.875855031069289
 6.958235353991930,  7.663164743683244,  1.326773395589269,  3.582739843846855
 2.672534343613715,  9.084720281986417, 89.414023552996426,  4.114585837262287
 5.504892536810120,  4.337954517299755,  6.143918895713081,  4.066388111851550
16.127644615654969,  4.161926121498327, 13.404542472105035,  3.969219268428465
17.485280516086110, 18.528347896176129, 78.498624602713875,  3.653082096805740
13.287887806291305, 18.643452561333778, 38.843301012579694,  4.099157443708682
 1.718975252614304,  8.648201406710859, 54.411945207625251,  3.841889310857174
 9.972589253670318, 15.053918450673404, 23.955018080617425,  3.898386173127034
12.091486519409667,  7.640120264245935, 26.645597706551644,  3.973519499605535
17.428548175640255, 18.305549547512353, 84.329363079986962,  4.190767675768446
10.100708780302975, 12.172768018131430, 96.992468546858234,  4.195240011566647
 0.287451960975367,  8.899854747604682, 45.605264974668195,  4.094720276340219
 6.861166270093565,  4.587125482255132, 26.288911379604730,  4.113716519396074
 4.640328033426138, 14.626140831233194, 101.698024290104399,  4.021839772178848
 8.862160474056704,  4.406275739696397, 39.883121798248148,  3.967186687227731
 8.298030150719992,  6.152669642176285, 92.342425351127062,  3.903935879971247
16.759844683885579, 13.449502068053993, 89.714236978404230,  3.833646766571050
 2.004679595862477,  1.221640297604046, 24.350801665686831,  3.989245840605324
11.356923720174244,  1.740339709337978, 42.264050406997200,  4.183966158125686
14.708272502828081,  2.342288729082366, 59.089874079507013,  4.153685314987302
 1.365410675138877,  4.474652407808769, 13.451099990083149,  4.412333019071285
17.615133327529833, 12.181513042464825, 112.080481430941902,  3.954194123369829
16.882246035860476, 16.189229829269195, 10.671902409181540,  3.975613064145377
11.651798156844194, 10.976497361593157, 37.190772994876184,  4.041480523800892
 6.430647306442367, 11.580423894243090, 63.251092127818744,  4.178056667846123
 8.629716043714751, 13.122700656694413, 52.913147220383159,  3.975813969276739
 2.663414383494717,  6.061522649134607, 47.722594449549206,  3.890336997916150
 5.014847018043391,  1.210796208277990, 31.647978315297113,  3.931868747266869
10.075306820812230, 17.065368704563529, 116.127405879618820,  4.039142057412843
15.585702053683823,  5.773050340956339, 61.225401375080757,  4.113070651329732
 4.762207725889939, 14.965081472192482, 36.082999713642984,  3.779593212646005
14.370906760402963, 12.165335701092989, 61.908810526027452,  3.840915952159545
 2.546415387536854,  0.915516116743776, 98.196244734353130,  4.365164842067360
 9.503453151235911,  0.794622959586827, 102.644492084526377,  4.258936834621705
13.018027045545550,  0.721957958036224, 29.224132209720462,  3.762053405712551
 8.070010985982693,  3.975116511211254, 81.264542581468632,  3.707295978042567
 4.182911388285732, 15.784161941897663,  6.971791190180694,  3.892716061316807
18.035923735163962,  4.813182396516190, 108.483748211631251,  4.050394594626844
 3.742578127719929,  1.414797782740524, 105.899950244361790,  4.191770605072206
10.374147808058440,  2.362115170271429, 26.429357570325173,  4.145384375819584
18.431894630359228,  1.119363079454597, 95.344034369495077,  3.851566976936055
12.832727670760374,  3.188965000123560, 63.244831713263650,  4.427957287459667
 5.009699788302649,  3.864387954472226, 97.475476557184720,  3.347149632559228
 5.110502535337214,  9.939844953410599, 78.623541195127501,  4.025987140312478
 5.530558662514647, 17.059815074931709, 108.155570323387138,  4.021092847260527
 9.710766518349399,  3.006009623395160, 45.771080639554469,  3.965281253678685
18.513713463061165, 14.458497698280169,  6.816332107667406,  3.941509830595424
 3.482459220995934,  8.273831543753484, 85.489740342934539,  4.038775855853265
 4.865212100523738,  7.155968058695028, 13.496863757887985,  3.953602049094303
 8.741304126571379,  9.356447906890937, 34.961921582358968,  3.871839397391250
 2.128633708096776,  2.022715676260201, 70.161619122760030,  3.831017180647069
16.043413894836124, 10.525608030148549,  5.629758851017142,  4.116892497666703
15.180138630890189,  8.573001765006456, 67.977029200192121,  3.773094210385286
 3.288634434896153,  3.868819775230098,  9.658649659073072,  4.176496846419918
 8.314224087152084, 13.797410559322765, 13.893953164466872,  4.027481919440928
 1.243697973070407, 12.235519699394677, 117.258593745023163,  3.902718714625773
 2.093427343432299,  2.303626526191309, 46.886140828271778,  3.864772781137813
 3.849197848347826, 15.932410276317574, 88.315232583733291,  3.652403713646494
 8.370645244168001,  1.735353727709571, 116.114959331418675,  3.908162798768672
15.426583923645440, 17.792415189666265, 31.582759381977745,  3.952494378543895
 7.575556260510455,  5.684941242361152, 116.466220535469944,  4.174968082291752
 2.484260135012497,  2.586691367452755, 74.296076927573424,  4.195030224795077
17.478132547636125, 18.315008570572029, 60.055309285623920,  4.200511849113443
12.226017094328833,  7.335599857221506, 35.336466468482421,  4.206974899032123
 6.561653710380687,  2.912610107124208, 90.395970500771114,  3.939528709550546
 6.250465568617630,  0.157573820159019, 61.771931109565500,  3.969570433234970
 8.279739242748443,  6.140808579032349, 88.312192473201634,  3.939754446730645
 8.449429401056678,  9.845442473188017, 116.835676646533898,  4.129881481378632
18.828744602723109,  9.787452225454455, 39.707552013048243,  4.209424406792407
 9.499731723472879, 17.879477407709803, 50.943840639406176,  4.091692937281681
 6.184637293347466,  5.665605493606945, 54.593805843089100,  4.280453524906460
15.787052215343747, 10.984030166456574, 97.818615405873331,  4.061854195293778
11.109127910800968,  6.853419899780896, 16.679487872581785,  3.996636279181320
12.272420299734787,  5.149681191587597, 66.903397174125871,  3.885563430617041
14.677817892373669,  7.395549159416912, 73.752501702243876,  3.865268265434445
10.552310721272971,  5.497742094955126, 101.424580467609829,  4.131300757738557
15.447985719628672, 14.028234842483254,  0.173030910885762,  4.261186762467175
 8.225018343134462,  2.763682135903038, 22.809736114444856,  4.180340619987682
 9.608248566316295,  1.851579484408233, 72.174553119253275,  3.843607737284747
 4.577113019498713,  5.584736856134873, 105.949422739817862,  3.835271745584997
 9.125036446964748,  8.755034132013710, 19.707968330132420,  4.147087956596280
 7.354840880750236,  0.356619796718150, 13.863959057282715,  3.738547041840199
11.001176813909781,  2.985500123124694, 75.929515123302807,  3.973996414003507
 6.561204124403475,  9.164926296976940, 31.561654514646573,  4.171829251282277
 1.652162144966652, 17.503370848452100,  9.589236138506228,  4.095264663660039
 3.345637894083357, 11.592887322465916, 33.624007459255253,  4.458391714725463
 7.098905356869149, 16.624226660144156, 104.297718136414787,  4.166659627769843
12.353751842414475,  8.626500750814323, 22.165429637624037,  3.923968154081353
 4.181914723720735,  7.423977073336510, 25.399773432443741,  3.882725247419244
15.499071781286862, 14.446156934879703, 58.745006388944255,  4.228423780676870
10.018551151127616, 10.231160640233202, 92.580591308108268,  3.804011119040906
 2.546409771957536, 17.495465297845897, 81.864629932617049,  3.883206443132394
 0.985431363273843,  2.350717734707906, 65.797423996868417,  3.700321327165404
12.103240820513093, 10.933047113049955, 53.418824937456790,  4.112369166217741
18.485671484367984, 18.492522815319241, 115.014617562376046,  3.683609493781752
 7.164894611582006,  2.328671892719069, 18.887754840451827,  3.972914118970987
16.870265203402628,  0.918882966317533, 28.402276068209758,  4.054793397224979
14.722573152260571, 10.208077992197195,  1.601927701716830,  3.979651372070562
 8.691252046888454,  8.690440887101113, 59.490635061656896,  3.674823523611893
 1.213502820981743, 18.112452357005598, 42.340771460222513,  4.146021416334594
 7.966588627530312, 15.559443459761553, 38.478493759318845,  3.903871729469194
 0.528765027951730,  1.580480229847195, 57.297470641916291,  3.854681559533188
10.227341886512203,  1.486666510593037, 11.286204123109911,  4.178778662823777
 1.348051402301112, 12.229987246079759, 79.431479459296838,  3.391169254053233
18.235361494444582, 11.828604363049079, 76.486411249277637,  3.847030150453920
13.746938290031027,  2.193879565822076, 101.892787138547646,  4.661923558218409
 4.163967907496942,  5.967287099649961, 91.888312504028519,  4.377112389472683
 2.325435168819224,  4.297402075435276, 26.689749885641390,  3.754199712548648
 2.756447405362885, 13.619231698670516, 17.751910287167142,  3.642103450444885
11.750296383037290,  7.035306029811692, 76.511967729462569,  4.209390575282066
10.946259675886040,  5.024884432882578, 29.354964526218303,  3.843584779401295
 4.739955043070514,  1.300303095302656, 27.268016818895958,  3.935777772449363
18.941419502593682, 16.420781820520688, 17.443291335963700,  4.050708296414158
17.299360171642991,  3.237381565653497, 24.942978120189835,  4.258401177857507
11.142832531330095, 12.749499991296496, 104.529009909883158,  4.146286032512704
 3.537744110323112, 10.189207965818166, 15.918353087961300,  4.182482859145310
 7.311147474252783,  8.702522798767230, 75.458709554519970,  4.029905955172400
 6.059399452215051, 13.268205554434525, 23.252924293191082,  4.388100292271807
11.049281126380139, 17.712046796756038, 14.323537027032367,  4.093368636954815
14.237731959836045,  5.760890673844886, 99.417645472744226,  4.072563258589599
 3.913096470214087, 10.371036539663326, 97.137834641459520,  3.904373242362927
11.199352941427748, 15.149908964654475,  7.784391130092597,  4.052616306499010
 6.786437152361467,  9.085928255228181, 23.021455017348600,  3.914962416036021
15.979596350447657,  7.328165058990161, 23.366661632835726,  4.117425787563644
16.700383545029123,  0.847343267164541, 18.008404038676410,  3.765583304574362
 5.408335404964605, 10.474010907817119, 19.563806120262310,  4.021657015576761
 7.359855069120301, 13.774333170812362,  8.613714979990684,  3.601659044311003
 4.688826360605107,  6.296977001801547, 33.941197752831762,  4.147264652156916
13.219966377348406, 12.676466861692306, 100.621755527357394,  4.241901955848516
18.943019674576181,  4.370863303161415,  6.077843207763949,  4.096324032149034
 3.503061285436460, 13.676878727374410, 47.942215322991977,  3.904423119837040
13.664237198600523, 17.463800951177245, 17.375238904727368,  3.957501554006849
18.756946239453313,  8.560758237036795, 66.221445703422546,  4.170998014844386
 0.363367140142010, 13.940780906204896, 41.541765914826634,  3.781008523210150
 4.361672874109946, 18.611666617376642, 17.768250508713464,  4.020351369397849
 6.026896214891658,  6.838635348262467,  9.680472046496694,  3.888592757587436
15.014700660293316, 16.362945986699582,  7.130855974711664,  4.034310220585475
16.629589557661731,  8.948287999539806, 94.570227458874129,  3.759639401173843
