BANDS
8 8
NANOPARTICLES
cell(1), 18.968
cell(2), 18.968
cell(3), 118.548
 8.987025970752855,  0.823689165016665, 110.489997118564276,  4.325920482387946
 1.656995227029914, 10.356562749083796, 49.191990662326795,  4.039871980772521
 0.886059187283313, 11.100631746246970,  3.904616470615164,  4.116267019059828
 7.582179998245071,  9.507199850403714, 72.167847915468840,  4.050893271948261
10.574946964254432,  8.688320688181649, 10.289065440533847,  4.015383438885079
 4.987344310317533, 10.766778154483575, 64.556788379305189,  4.095598934275778
 6.497755944217093,  1.181485419750111, 66.516079483548154,  3.990703968396974
18.555322393720104,  2.563228549582101, 75.718564211151417,  3.733025205576969
 7.730175669981019,  5.990489746463813, 30.466539032531990,  4.093771046106211
 9.259282440949306,  1.567738809852993, 72.455397596705211,  4.062287511404719
 8.534919597156144,  5.952886236907148, 53.423838960350196,  3.927144265188374
10.880919604734927,  7.454985521468473, 24.029912868816247,  4.178227101313350
10.538438243147105,  2.898309902078323, 54.863677344202507,  3.902436131624579
 0.188337567053871, 17.533759096870327, 57.134009078074072,  3.894665140113198
 5.831691800574523, 18.477802649270892, 74.881039524689001,  4.055691105000172
 0.642187910365615,  7.532602066832608, 45.088303352584838,  4.438144167986588
10.730125559574756,  4.313163881076225, 94.357298840554606,  3.821615553143171
 4.872030194066229,  2.279969830876913, 113.380960020679993,  3.853697318915834
 4.713766210715278, 10.396309361766336,  5.452652544166657,  4.226727469929111
15.229099239707748,  2.129073326026253,  0.701295875126679,  4.067372831205037
 2.139079833891175, 13.416158815282742, 41.071756627069007,  4.267777527627421
 3.753132071261869,  4.039448070824033, 30.831421141557570,  3.979881147750144
 5.609644493733767,  8.003021263630904, 58.694053441107876,  3.841079249466802
18.350205408912668, 13.400430802384522, 99.316566582487383,  3.808895008507728
13.418111751531058,  9.307061653876662, 29.280523386629920,  4.312577439743386
13.424909708293621,  4.356323458342391, 82.452956150204443,  3.745075913663200
14.556142644397255,  3.454864228315623, 23.840021206741724,  4.001795478199845
 3.802658542624711, 16.200233651085370, 61.057060121273885,  3.990589094967260
 2.418022099897331, 14.040296813540804, 50.501207207772218,  3.917390890538421
 7.088853545780903, 14.883701119232597, 75.943859628070214,  3.811584009048130
16.400582763666531,  5.935417363340570, 55.630980065629323,  3.757869129907120
11.369874669769580, 11.370129773953389,  1.011648986215505,  3.988883289506605
 3.299384304555870, 18.500616534650757, 88.170145040177673,  3.754962814832262
10.734714892088100, 12.393694452136927, 28.754487523713841,  3.918958754793054
18.839341813019100,  1.491202758996229, 86.166964404550427,  4.147530741401784
 6.742292589564553, 13.271811661418244,  7.435180928870643,  3.841272183447423
18.268385910905277, 16.480746062062408, 72.816977522503450,  3.922996351322308
 6.068563527878510, 12.225505178183131, 41.585788575636485,  4.006439581062891
18.259616894407714,  7.402959602828337, 28.261077677742225,  3.860209097506953
12.650569834628815,  9.537473567591118,  4.850605658447942,  4.114040455808915
 8.579310239484123, 15.865953150917056, 47.693513188140841,  4.216792118825606
18.629247424912176, 13.400770051702322, 76.466645763460491,  4.197208937242105
18.041426985377566,  6.873389432945038, 62.029502414777255,  3.754447867678559
 0.379349596289257,  7.059273179923367, 100.082867892625671,  4.170692380911193
 4.721904588291081,  5.925783557652764,  0.557720789728660,  3.791118720681821
 9.290748189795442, 12.890972116873559, 73.422462922943296,  3.871491879868850
15.137313197158857, 16.830304816336511, 50.601732965933735,  4.119490637116878
 9.704209540217157, 12.759492731670504, 80.110235886400403,  3.938678243875215
 3.140810556859974,  7.907758671434450, 76.252350464164664,  3.856636617595083
 6.806158192756854,  3.472428213145076, 83.403341499750155,  4.113297398611722
 0.253553039539943, 16.619311414049942, 87.055862789467312,  3.725845918252595
 0.471985904774808, 12.765864628722909, 111.119910600699697,  3.809860558821402
 6.226657764646597,  9.447168453093962, 38.645347426462791,  4.000978279959324
 6.550244427088258, 14.558701725750829, 97.418493891173853,  3.670433105102477
15.214572285157661, 13.413794090629994, 21.829260024615838,  4.138219467973121
16.313758843169531,  1.486621246605790, 51.534310166955144,  3.652247891082600
11.593471964153528,  5.915414735484308, 60.961459447531823,  4.078976436543643
12.859212544009916,  7.791413425560027, 92.141703988630397,  3.946318952249476
 6.595342845734833,  2.354774062378345, 53.035064034755322,  4.186882242569033
17.957688094538309,  8.043951828767918,  9.692544463850464,  3.660724582213374
11.051074609038620,  5.023340225348794, 39.610123918675527,  3.714370150227103
14.736001922295522,  1.384244654123737, 36.040446260714802,  3.703860314308970
13.471742998908361, 10.130159646428030, 40.384648032158424,  3.989543644520434
14.944505942922742,  4.857919837345166,  6.631337391097552,  4.084881860044703
 2.792476143296764, 10.762104507702844, 109.133362534975021,  3.433532464403400
11.232819498484746,  2.412985909768847, 58.864889034200374,  4.006491719007719
13.283299599715399, 14.803158149201387,  1.502028046995668,  3.928630427980874
 9.412459582635336, 15.241798939136197,  1.994948306164120,  3.902104367501663
11.965631702016948,  3.299245818420940, 49.714042157992864,  3.593792836240741
11.805908491358259,  9.775030278813620, 87.578730198508140,  3.930836416791252
15.801145994080395,  5.777997091135425, 94.299042755440695,  3.591184504025924
 1.041427285149402, 10.368798313790395, 78.697372889246324,  3.805606698742811
 5.674324512403426,  5.392043148155762, 110.898732331489001,  4.261765103543541
15.264824473811490, 15.486310596776775, 75.297383729401673,  4.047254358908694
 8.669779841838167,  8.905271596124667, 98.330422474410284,  4.417654019696192
18.178183914321810, 11.062298495268520, 30.206022356810479,  4.000823025776123
17.322967239826582, 10.261754951088346, 47.202548014797969,  3.661326884463098
 3.656131068000894, 17.706612905039286, 91.829408820616663,  3.760975751620310
 6.731301730630785, 15.553526229367710, 25.754247547668211,  3.913347818419678
 0.334854321944537, 13.350187307191621, 27.055442050867502,  4.028953901609168
 3.141425539869407,  5.194319572060230, 23.577792240411764,  4.190884137379571
 2.295272488496656,  4.347556723762395, 97.720889247532654,  3.956661467521732
10.287236357881051,  8.387936043736042, 74.843176595847311,  3.818789770101308
11.862296327460689, 18.502218509829188, 114.644479691534272,  3.749154317395029
15.192054835316986, 10.381478532523301, 32.783706824295926,  3.810672662844057
10.963128478938739,  7.413516487870606, 106.448438867199698,  3.929081628743574
16.205243552078585, 14.217222713631422, 88.198215309656831,  4.287499483022554
 8.785184178581156, 11.936508716243718, 18.338598939869446,  3.972276556994697
 3.169240047087754, 14.525202240557768, 89.330399439507460,  4.386985408801875
14.997684549947563,  2.588939215563710, 57.650552702010422,  3.904448705585712
11.283397278488858, 13.893087491955676, 16.172005700433054,  3.638782870942327
16.244982584545184, 17.627617934112784, 84.656607605330706,  4.082975672124412
 8.111268711819214, 10.635377945308951, 35.374119634656800,  3.874414809406730
 3.843338138490461,  4.294997638287427, 59.568021977939658,  4.517178799559679
15.428431693849545, 16.775643659494200,  7.754716017654489,  4.084668168395087
11.464746936809814,  9.690313896292523, 16.467901789392517,  3.941011649042184
17.589529720031013, 10.899129819339288, 59.041276577729235,  3.919990992778676
12.067828765588988, 18.245357255565949, 56.254429080673511,  4.129778712130744
 5.345709923612031,  2.737005959610761, 72.569159865968388,  3.933992315611993
12.720361193213270, 11.419353921148023, 74.439105298350512,  3.856235803130557
 7.378077632493770, 15.911994614970238, 58.943089329437946,  4.301059041437024
12.072348019599771,  2.281244645681676,  7.917486574340075,  3.977152662560241
 7.324000011781437,  5.534718658960495, 100.164959764825014,  3.636802952449904
 2.711916030717308, 17.758225090116156,  4.048734850257077,  4.089075311039031
17.393652672720247, 13.234626569097383, 62.628258364915531,  3.579395818976426
13.790148686116208,  0.838091448527794, 61.308951056471216,  3.644557740866504
10.705653553207169,  7.501596153373018,  1.860195360253386,  3.999377430134730
16.924056573285334,  8.320667828460650,  5.204925573552543,  4.356583999165850
15.358169050635734,  9.918401043318964, 114.183486544734293,  3.881915886274574
 6.248941023538589,  2.611121367608739, 107.859157498405253,  4.045853273190725
15.320198040974056, 18.916173479111762, 25.644289399710484,  3.968203187279443
17.031368553653675,  4.081430223914443, 27.038582494219668,  3.605930784306060
16.373061431991371,  0.970247903419631, 110.728872739414854,  4.133402981640987
 4.461635022770898, 15.738347129448343, 14.348115694082118,  3.951855613243386
 1.052006926924674, 10.377353214759891, 11.904899459809151,  3.666901749793849
 2.353689685184960,  0.487943333624046, 102.472067370723565,  4.464934885525085
18.170044387759628, 18.760737407688048,  5.681712096413778,  3.797476067936622
14.552499996133552, 13.268927437910817, 29.437550552130283,  3.916944016040401
 3.653883406274717,  4.497448880873577, 45.366727427629471,  4.044472575824810
 8.499474105738688, 14.025150205536814, 106.096086248408994,  3.894270411187681
 9.035363115777919,  2.625732233816699,  5.254681865196739,  4.106764007256051
 1.022993468995931, 15.699557961644022, 116.627617612204375,  4.021605758681861
17.505152043294039, 17.959015661578604, 101.125285433973403,  4.126658408173985
14.260564967494251, 11.478992435053092, 51.862433148150430,  4.208537836783872
 9.796986985843263,  8.035512866492638, 37.689723502329045,  3.791896088184476
10.980586816685330, 18.729751574212827, 16.356973181917624,  3.993680523537425
 9.843699279178077, 11.133862147266093, 101.775341583803964,  4.017272325070290
13.442442927298323,  2.862208279814293, 27.663106106848133,  4.043475953749508
 8.202023508145231, 14.419102976674846, 69.757161358355333,  4.345405214036274
14.718573891703034,  1.345372013317438, 16.336090222465359,  3.862249990674439
 4.803849237169070, 10.766075369045955, 20.336082255583431,  3.797032221185948
18.244919283703823,  9.837844141460200, 15.521904637996510,  3.961288212542708
14.349978014530990,  0.238568151737175, 43.441687652992918,  4.140867839309988
 0.144411324812719,  8.244218389724129, 105.273357865603458,  4.139570958250115
 6.433765355938379, 10.999244217432640, 68.287196817897652,  3.862030360585693
10.442357771612180, 15.070897706181693, 12.701907169073120,  3.808746221872977
 8.152807204602544,  8.568371561590281, 21.070293275940887,  4.166874410220787
 6.927546999518531,  6.877693592955284, 76.143996322477292,  3.969721674746830
10.187875832457987, 15.052425900266297,  8.656883534394497,  4.051132404291137
11.551279618686246, 18.135459256991137, 40.692197034224804,  3.928503129519867
15.952567196170403,  5.893924594330310, 98.016710782587239,  3.798826684148528
11.975354771206620,  2.725336884518530, 75.126517678334324,  3.842647121337611
 9.034412666784531,  7.191233416292060, 33.985196158472995,  3.777668453044039
 0.696024030388407,  1.736327580936670, 106.152917936656507,  3.956417007913386
 0.852948165576141,  1.317608251056247, 113.226964108084871,  4.405023424205886
11.830831427192138, 18.757058590508194,  1.960426369182373,  4.533431271978662
 8.574421096718376, 12.001117290067427, 10.495984076739095,  3.725542969728366
 0.155720961822059,  8.939363771988976, 87.728306681950883,  3.964449987539788
15.172068318841756, 15.594952176460763, 46.246424591917226,  4.318214588215549
16.775968015883269, 13.936861691346094, 32.580729314558759,  3.886204868679449
 6.264126244092837,  2.336281864363501, 117.277223395265139,  4.051343972348129
 8.062974843647043,  0.401918889874308, 26.814994403032269,  4.408127103220635
 5.761817194994427, 17.458561741332396, 29.575016739457528,  3.695792477554717
 3.914166195543403,  5.375307401667805, 41.384682059441964,  4.095655433288100
17.144214985919387,  4.005007854156549, 65.474837631505508,  4.050751122374344
 5.755551345428959, 13.386525040176004, 79.331638003616689,  4.048313631607517
12.615150378908620,  5.794960048782622, 56.949145959645961,  4.185682003239924
 7.102278641200840,  6.816099166445202,  3.671725112597492,  4.137863175755607
 5.717500315338691, 17.127286586047457, 53.156522186326953,  4.089537880056123
17.228919965484327,  1.167199078949920, 40.909507647422870,  3.629386467486835
 0.761983050430788,  8.130280655127370, 73.190225616189949,  3.894964803791582
 0.927549919164855, 17.334437852195567, 40.585481444891499,  3.956144700270685
 0.974761223114433,  5.678069544457713, 34.201063963138481,  4.021511029381053
 8.815861182422189, 10.338493576189192, 105.375217847236343,  3.617018029901022
18.933972882174672,  9.164704496905347, 55.722795647898522,  3.817446529249080
14.277826263052992, 11.161761452911575, 90.372295508382635,  4.028014385520938
12.657456730904631, 18.880866266535573, 99.295565554882756,  4.053796624857648
16.060300581890409,  6.938874159180295, 102.660268446253113,  4.173943774034442
18.211301288886077,  2.239417417282839, 55.307009325214963,  4.008227567064249
 4.820266004473083, 14.166339530221695, 47.320928572317243,  4.035630911439670
 5.771961369381398, 11.543505992258838, 107.215814331200278,  3.800294682993415
 2.573357992309770,  3.366031217944752, 116.352676031653218,  3.819264856215852
 6.676125186856311,  2.484551489702717, 10.504301888285539,  4.047058388803321
 0.287294832303726,  7.625668705144887,  1.782349100560729,  4.024030210201270
 5.537052867647270,  7.219532707282161, 68.937897341323449,  4.009599737296092
13.470169945362656,  9.165338131869973, 36.304788414109183,  4.376504677178226
16.422194242391004,  9.045817081487941, 79.333615914518631,  3.929355742580841
 6.807573632502105, 15.533239718928522, 11.024681125942806,  4.187236170163375
17.198981706437440, 17.367267237563645, 114.434852067627460,  3.799341916654975
11.386283322025092, 10.377699794786681, 77.736404995571803,  3.531194586149893
11.450022650047279,  5.794506309032387, 29.250554482005143,  3.702602948348954
 1.153776459965366, 16.979968493788579, 12.400969262149069,  3.778035525622113
 7.883647624214264,  0.339455087387330, 49.714419202860689,  3.880446312171893
12.895156991074833,  6.560399671582912, 113.625765051618487,  4.277146509059421
15.250212230929609,  1.378336504026589, 67.889731054326944,  3.983954356161577
13.489745040116528, 16.376460282041634, 14.555807766363209,  3.743133198385160
 7.977895298101182,  9.064990121969586, 61.746671248987937,  4.153299895786703
 1.614258955623762,  8.168242402657446, 59.267112423928985,  4.174683482434592
 4.735402336559899, 16.815721465640639, 100.038058661895988,  4.097193685577590
12.777838910667974, 17.708069155913371, 110.641270000349962,  4.320578673861667
17.018889504505594, 13.388763550383818, 49.448379625489245,  4.054967304085286
 1.479375896960244, 18.941008075914077, 21.778059115908810,  4.178097999660082
17.761784285573913,  1.036839659143395, 33.243819146476937,  4.369036747140879
 0.118085911102047, 12.454691356652940, 23.023701466548683,  4.137510198710755
 4.252618896069292,  6.630621489250861, 95.033990986527087,  4.103440603168931
13.007411652523968, 12.306580427891731,  9.602038768770598,  4.042367107404865
 7.614855773288205, 16.344004875872411, 93.584359957013035,  3.946341942543976
 5.223268162179175, 13.389278663639113, 17.534455764821860,  3.858847194293756
 2.266529881971146, 16.715507275012925, 25.423606281359383,  4.354060377687047
 6.075129919956296,  4.765696499020905,  7.162365555833729,  4.125441631020561
17.009660535515678, 11.843327407627735, 35.757077841585229,  3.736001563912327
 7.653584309015113,  3.015071494295229, 75.818675350334345,  3.858934650130871
 5.164496559909016,  4.001605901427867, 37.614313030628040,  4.106180066448342
11.629700888554300,  0.855829494092963, 24.700186210951774,  3.853108935535350
 0.731282566817707,  1.680540117591753, 90.181208695395497,  4.023913069901473
12.058013301216064,  0.237587985450382, 20.639337655774415,  4.109448730392229
15.737973684993888,  4.190234334001787, 42.942074355243534,  4.232752272171086
 5.633198185587610, 16.052072464321071, 104.033620299472886,  4.224926907496863
 4.225185739180657, 17.871843810168002, 56.937680938186190,  4.134640458767128
 3.405976503455199,  3.238003173233095, 86.793293300306374,  3.787534855200390
17.290714317836649, 17.119021072801981, 15.775003815438307,  4.377183072756308
 1.268834533463732, 13.349804249521748, 60.324456653813066,  3.728887943789883
11.629741978199347, 14.816962777828518, 93.057082386833841,  3.784862451266900
13.558879757416181,  7.715981637543767, 50.184333941344846,  4.143973460818597
 0.683613664318236,  5.252589216506274, 88.457979917475456,  3.608870121295786
 8.250757196830595,  8.780906754879679, 13.530695262634254,  3.892844116827857
 2.146821869745088, 11.852864857673136, 105.580985613293777,  4.073222638604957
 1.623644006832966,  0.038701057940613, 98.145562763036395,  4.324276111868603
 7.472783241751178, 14.948096322238657, 109.856776457955959,  4.110421134630803
16.137547844185647, 18.705545311689306, 64.268658795033815,  4.156745304526861
 7.217968396465687,  4.388911316899622, 96.524543999613385,  3.898246965573987
 3.371261253786220,  8.695123357747494, 83.231824083531464,  4.005059844263504
17.879143810707088, 14.763270265946797,  4.910925176340940,  4.341471698690265
 7.326226344254058, 12.387486559052062,  0.153428243338379,  4.068237692059361
 8.705691548337825, 12.548598743453907, 94.737887768006445,  4.247804543539835
16.789078852011233, 16.756855919611006, 80.336309879686382,  3.870754242214881
 8.826129947890873, 18.773647325391835, 12.789668922081987,  4.194979692361218
 7.390363492932670,  1.159297355881653, 59.819599072222751,  4.292350668503254
 2.540684041579188,  6.383089115102579, 48.813898269469703,  4.121207272798093
 1.837885902715092,  4.578470017793563, 19.709677458033280,  4.022937484204594
18.838662556685332, 14.818422233520272,  9.100498250768194,  4.225895274905125
12.454279085159436,  6.966183014858685, 42.799794797492510,  4.182586986455056
18.287905673700177,  6.514338423295101, 76.674533574502661,  4.306150609458285
 6.243590430442089, 14.414308366160693, 66.069336704865862,  3.878681981610279
 1.869960775412649, 10.461915248389284, 98.591798590539426,  3.833082715904269
 7.803843873173721, 18.355154181633573, 42.155760742865063,  3.819380925020445
 8.863911319775525,  3.930499041988386,  1.375631810096175,  4.019690921107702
13.401622000773404,  2.731274590263026, 64.636637073207723,  3.971203672013552
15.273758158774621,  7.725837563290170, 13.550324736028095,  4.185556899973297
 8.841887364713704,  6.647795273900519, 16.913049334365631,  4.113565957070499
 5.475508504926048, 13.450811428378275, 72.745439108810359,  3.864685339933076
 7.617210194288153,  1.283886220476373, 93.591643675268685,  3.791559235718138
14.669110503398935,  3.365750938217295, 19.783930188236759,  4.111373673563072
13.195124935255025, 13.720533120105003,  5.556554244433690,  4.436403955853984
 5.941330378889472,  4.099857303798575, 27.242324531211388,  4.154112856947898
 1.704953170235165, 14.482186031671892,  1.855171972573224,  3.957016397896111
 6.176372186646942, 13.322491531586174, 54.774505297518886,  3.730639494254032
18.070489287136873, 16.017526769278565, 96.386964477896299,  4.056110522295665
 0.120173554873406, 16.846832011541050, 48.794591681582872,  4.090296135292048
11.434880037111272, 17.291761709403463, 106.902457481006522,  3.631622195393377
18.406368494393270, 10.514289876600172, 70.146491614414487,  4.268118916591011
 2.731183260519693, 13.702575172343431, 101.917571692297244,  4.205110702739903
12.361096098996018,  2.508362401306447, 78.936587724657031,  3.804806203256262
 0.865318864134615,  1.780932098602547, 12.672544175789545,  3.760347586378183
13.674314544769183, 12.171819680052190, 18.414155598252670,  3.735693983732209
 1.657013426749218, 14.944052804990674, 17.066091959235607,  3.975896359789014
 1.518214398995918,  9.634858073700858, 25.759782786595814,  4.173297384808738
 3.661601453576643,  7.144872155633112, 86.937749488607409,  4.046954079615633
 1.744306861329967, 11.221558808303618, 18.147358191503230,  3.719694254092478
 4.705663483699854,  2.684190762647399, 48.897164419999797,  4.158120030541314
 0.732454354880611, 15.912474102807129, 83.287996792271301,  3.995750690483983
 0.934303202207823,  1.663531726187377, 50.161550213178977,  4.029944654008333
 5.630771814850061,  5.903804166571302, 115.160975789554286,  4.297553358347311
 3.066632897628103,  4.318281608687345, 52.238086385390432,  3.934663259906557
 2.291220022685255,  7.517574116629961, 16.901934777725444,  4.116134875592394
 0.612348933220234,  2.848569941981968, 43.371990661349592,  3.913594389194185
 6.177658112348291,  4.617059033131533, 33.800407649860865,  3.756766704911846
13.443543991090694, 17.681604898035847, 78.228179027816637,  4.105044730324592
 4.578062483850857, 12.106122608131177, 86.273159115362319,  3.730065839867637
 5.578947278221536, 15.982356613930708, 86.193911194086155,  4.005005370589421
 1.023249669932684, 13.518211555129890, 46.944733175142666,  3.698106576019729
14.557840765520547, 13.920045842163727, 25.676749208229030,  3.699165692316561
10.602771398281499, 15.320858055246555, 63.760833158240516,  3.919856047782551
14.282494336041980,  1.058950118043866, 107.117012522034926,  4.214661241053617
13.465240248559954, 17.251196511089436, 87.649890900519338,  3.918924544604792
 0.940690588494250, 15.054550789732366, 92.919420762071582,  4.019127954683761
11.657347134458751,  8.585346446915000, 53.844445764986098,  4.269046045750493
15.431770772676932, 14.991621431884807, 11.463536098729213,  4.021047960860195
 3.687417595784860, 13.037951317480511, 117.453645905066836,  3.659848089237760
18.931188185108752,  8.600393769987035, 112.512778369799904,  3.593540965286999
 7.554644572353196,  0.074596442179747,  2.472654313327193,  3.963075558052708
10.657224929800327,  1.040452473917049, 86.704816643064746,  4.074180169264884
14.122095208061262,  2.357755847394800, 31.611387968886206,  4.014394359375583
16.611830336046680, 10.142335913516140, 74.761543385072159,  4.129003778127985
13.486229904904508, 14.603640779662959, 113.404639649796238,  4.094768329074705
 6.810727729982904,  8.524852778608457, 102.591598148436731,  4.078577165249766
18.704255738810229,  4.190416007277508, 30.595558820186536,  4.071665504245514
 3.213519795014063, 13.506336702111291, 11.188129822628015,  4.064773610636690
10.671397922569980,  9.732131055825647, 45.244942680346668,  4.004536828196088
13.231536965025004,  8.348396326909189, 99.790499026395679,  4.255076256868800
 3.630678108653370, 17.294808534751279, 67.191729718032377,  4.048776775056850
 7.663109945721922,  9.794993388363535, 53.772807301440665,  3.982722722900862
 7.540003840241830,  4.607300294878685, 20.080354771003019,  3.853346895473541
 5.777193516876355,  7.050685787913127, 50.964228814098043,  3.688586486976019
15.098507749769166,  7.002031108307472, 46.216356956205530,  4.454712125432212
10.374122632036743, 16.094631511006316, 96.838129582859921,  4.581133850519031
12.986603899546301,  7.473365239172857, 95.926921839791163,  3.649603839290711
 9.584345384207486, 16.919436260426398, 103.667825905967121,  3.849928863379585
12.184574563482546, 16.371005177909556, 37.185902607405062,  3.980443854970600
14.380351702126999, 14.659729006154421, 107.285015133930756,  4.210737187815838
 8.310608399780374,  4.357967227088916, 49.811606315907774,  3.944821179178225
 4.564188261548998,  1.602882937276988, 62.941801068507104,  4.176857276000600
14.014158855182272,  6.506178991346920, 64.606677613942693,  3.627164546459839
 4.388881821488898, 12.941106073001640, 111.837294846768060,  4.110391488125606
 1.194424475668010, 13.405389772435925, 34.419525478169582,  3.789456917441990
 4.646743744080607, 17.105228346028149, 18.543098271217115,  3.913041348685563
15.110110829033959, 17.353121473049001, 31.234538048889526,  4.105544262944611
 9.719640582009825, 14.417637234292021, 41.361678733977769,  4.443877601600546
 8.716870474186994,  3.132817225983823, 114.096771050437084,  4.134829716871354
17.460196612217509,  1.158264718311146, 60.794434744545875,  3.794823450170779
 9.000015450092823,  4.593611018745841, 36.591222117183449,  3.522823520798230
11.156136821523445, 14.529258799620289, 76.660958218720552,  4.278027479126882
 3.138215007779539,  0.791179218539957,  0.623056479034353,  3.874993156752456
16.859138670972914,  9.844959671835600, 98.140371286624557,  4.247820223747821
16.709778608910732,  1.491642498132443, 78.919044040719228,  3.649956472069141
11.334788591256959, 13.766409516798014, 45.313684466501101,  4.144752973107371
 4.723390699943287,  6.647682797952131, 72.816495478827008,  3.997526118668733
18.798996224597722,  1.091010586396641,  2.297341329482999,  3.553175480180420
 2.107189090355656,  0.539789035294497, 59.850658339939194,  3.772167822858198
 7.116894347955329, 17.284475970392613, 63.165138422417009,  4.150237530395835
 6.766558199747871, 11.225371846016596, 82.859976928740465,  4.468044654047429
 2.736892355562433, 12.554314591417031, 82.377390817172810,  3.998681018420118
11.122420208479756, 18.116543495588925, 69.843456960199418,  3.904220246677490
12.503969570852144, 11.220444796802656, 94.112563429337882,  3.866336208686435
 3.814390906943710,  4.039778793510718, 75.990336114086432,  4.001906483596989
 8.751160532835881, 16.642085217857453, 73.071958321940357,  3.689495747792947
 7.617582486178708,  4.906984907370449, 61.748023472560142,  4.129933382072722
11.053376134723758,  6.104596818428408,  6.531852124895208,  4.079607815628984
 2.013536947150491,  5.389780096529267, 113.018635813691901,  4.053589019893735
18.618767344038105, 18.160762061126711, 67.534108359402111,  4.065170971324489
 2.213536936876449,  0.720382473062798, 70.086398926550331,  3.665294773814624
15.227688116484376, 17.206332510004298, 39.594857026102943,  3.934903988888959
 1.889737318845379, 18.586390941470736, 53.577878392818413,  4.145121263270578
13.363267732877121,  5.091190343240189, 68.390745816847712,  4.405558721964913
 9.924170983334214,  4.100002565865393, 26.138374059914085,  3.973194764884482
 9.072373222056910, 15.950361225199762, 28.740757556763359,  3.646540078887514
10.164732325702179,  2.131078604031251, 106.341698063575109,  4.404599016001130
16.438771753960236,  3.800276555702248, 13.828822534486230,  3.893064119356616
 8.598460102477752,  8.177537898061312, 112.779585488211922,  4.562885120630710
 1.348209289282686,  6.862012959659158, 69.472213074981497,  4.038534769025293
12.004467246392167,  8.344787009630808, 110.101266523268521,  3.787494706470646
11.856922374445912, 17.674367720362937,  6.095559549999760,  3.963535431725211
10.494001698275236, 14.347218927901210, 116.521904921459722,  4.551246473612110
18.208033177775334,  9.835578405332065, 108.919778917631973,  3.917282081072352
 4.312722289468280,  5.268712135524093, 102.454293859220613,  3.892368710085683
17.002499152174654, 14.581044337032502,  0.386529765549129,  3.842653260032732
 0.935277991576392,  0.069059314242593, 80.794528482710803,  3.896610220916697
 9.314322013463809, 17.301796000597321, 22.853318452268905,  3.903630046741570
 4.866123157469656,  7.099607020321375, 19.715751301265854,  3.480239155960080
 7.719799501649054, 18.520706644060255, 82.998037241129396,  3.939859942478718
 3.840928704536521, 18.290483784635494, 115.650348195549995,  3.874226300196506
14.426318329578807, 10.678124780947586, 82.424013495858972,  4.104503935011408
11.111834014079555,  1.250081302850434, 37.232293985839227,  3.860298425335216
 3.460908684825432, 17.170741650780904,  9.202171290323182,  4.060418109930525
18.418364370554524, 15.562876820066606, 52.547305214473774,  3.871146491711481
11.564831181627991,  2.550903411052744, 117.185622153656865,  4.121316659081971
18.150726670766478, 16.407089873093685, 60.953059342633310,  3.740075066134567
11.302603383222960,  9.651697330340724, 59.519286665299283,  3.929350822769425
 9.703768409256808, 18.542533579556455, 76.472972710517723,  4.224286949196017
 1.223051688550277,  3.658300454446366, 79.088772455432533,  4.067357456105090
 0.672980613851691,  7.188028525125829, 80.803981174385044,  3.851783379906638
12.588135024849452,  7.658728085575715, 80.336041693165939,  4.099746976196053
 5.899658841595776,  9.521124736821788, 16.695056101869746,  4.117181637798997
 6.926705793927503,  3.054960104500382, 43.391394976463040,  4.103086143976478
 5.711989139885069, 10.407567159670240, 48.872475376015203,  4.083869091312590
17.554040376012189,  6.064512796822454, 16.763627916424788,  3.842708105826950
18.090659581864326,  3.167194416190871, 22.170361118848426,  3.765072732730895
 3.949568208284050, 12.906306742464867, 24.535142540501507,  4.106297244999161
 5.882532376054297, 16.410427163142664, 35.096391584508495,  3.913618056257939
 2.030577560302114,  0.268204200136784, 73.832505924086348,  3.889068444638756
11.998827539908174, 11.151408573782854, 107.371524548690800,  4.035204219254514
 9.583412723681844, 10.258087784589009, 116.249608789728228,  3.762076594476831
17.361378073762431, 13.391344758831188, 114.476737545939272,  4.157558037165760
 8.622890705299401, 12.197440433692247, 86.666832694908450,  4.205164187034551
 7.416042235852501, 14.248543071496627, 90.084928081951205,  4.106515994995622
 3.900845597707240,  9.836842256562370,  1.321491506262780,  4.203514933018855
10.765410794228831,  1.837329383233958, 82.936023951582143,  3.629193586343102
12.706408679758660,  9.220474463880796, 67.233158716375229,  4.137291444846463
 1.139201035980723,  5.596689681291633, 55.283930865620889,  3.691905149441236
 4.021855777879792,  1.450558379697379, 24.876083072928349,  3.906141599305351
10.970360224255517, 13.726706782737759, 59.951627293674555,  4.238121001466270
18.390635962493860, 13.653915568842322, 56.160538631782103,  4.104413531163481
14.196871567857780,  1.944618969295988, 85.280962879112593,  3.747816697265437
 5.469159996730950, 10.342403752451052, 95.979688097285973,  3.931260879501211
 6.300036066730708,  9.663184059246058, 92.233503133960426,  3.861980572347210
10.607310037027748,  9.318640668427479, 83.684729405931606,  4.254466270575730
18.060078284615031,  4.173337179595920, 10.299118435259466,  3.846582944744295
15.746773332931028,  1.297643454937396, 93.790076286932617,  3.795454470676023
 0.221010955483340, 11.255794241046171, 118.311263971723548,  4.211184929329858
 3.059304662421360,  0.513369813612503, 77.560178064365800,  3.810256850796373
 9.605992528275163, 15.008104833377526, 55.522234239097699,  4.049965003368559
17.054958352197861,  6.515138772463389, 20.586670585619988,  3.920437665418842
16.626801416661504,  8.355706326636254, 52.741185025266716,  3.790463939871461
 5.736521862621696,  8.503167388912159, 43.307249228608910,  4.042493604398053
 9.770515698463656,  1.570310431055410, 63.285076812438184,  4.113725590162419
16.244632866610321,  0.170570602770134, 12.227681644204631,  4.045275354600972
 1.082447368463988, 10.270914929845461, 62.959155121793437,  4.348885706262164
12.659693000870769,  0.563994174380457, 52.405687527021421,  4.033338239046377
 9.990043427652541, 16.877478833359636, 80.204276246839413,  3.966880748280911
 2.992482224988277, 16.244709450784065, 71.512895778051202,  3.912092246146535
14.682128575288647, 11.855223269049652, 43.851684017850637,  4.092944598639562
13.440646422034055, 13.362393430116132, 34.760306478677293,  4.139949708127021
 3.418392296695519, 10.393121006338150, 89.463900343962393,  3.860893231860157
 0.601443803440269,  4.697595275875855, 103.443844588231258,  3.865077588952050
10.716360661417459, 11.107165155908614, 70.252934398546230,  3.929070642460217
 2.972673364932445, 14.199792353552107,  6.241093856972736,  4.278963114291600
11.004947716661981,  2.620618211171395, 42.751317539302541,  4.179240400414008
 5.100248784998983,  9.072272464094958, 23.849703132652309,  4.012547771982271
 5.942819124883515, 13.787253626645843,  3.596063122882370,  3.686179916097123
17.554533705144966,  1.310182207484647, 72.174716785676353,  3.779865198325734
16.025242793583921, 18.808425379816899, 21.662285378766118,  4.113477713703179
18.793231336747645,  5.150602715458404,  6.772989652049341,  3.611777817139764
 0.221417096937768, 16.717368175370005, 30.844732465990074,  4.178547338029234
 8.012597480607379, 15.995529776353475, 16.187575426619684,  4.056896439855808
 0.180871376514949,  7.225229386236428, 95.713908463634084,  4.232137114885883
13.627679361313630,  7.071008263190439, 85.417151099182192,  3.877176965236152
17.626559525793446,  8.017382557025110, 36.759773594868818,  4.265655232374314
 2.092927753352722,  0.796844993138899, 46.456772433585954,  3.914699695231243
 0.893359866926218, 18.009646244702623, 109.229773674396611,  4.224033268111813
 5.248975342270226,  3.213134495901746,  3.281731030289161,  3.952921568875814
 9.586903355608539, 11.890166763170001, 48.554768180229260,  4.110031633547652
13.651234707683653,  3.896197310734745, 91.949494259250201,  3.791643143645792
 2.472835643143811,  0.600510053660002, 28.696848532691689,  4.191007384551730
18.472679462198659,  4.526004500107815, 58.786880415332732,  4.297087589032883
 2.032736870542399,  6.893349779424552, 109.058197572750188,  4.131136141307360
15.885168431142661, 17.608112074196935,  2.612187307765246,  3.989697363613899
10.012771759359318,  2.655154999614088, 90.548197240938237,  4.362196000687454
16.151902143779566,  0.664605703423894, 47.597522605830427,  4.340305595720467
18.829174257652731,  7.915665383235864, 91.404120862297532,  3.661316933045638
 2.357980525332895, 14.213763077770905, 64.525984236602966,  4.470724294028519
 7.292633383083845, 18.369976532109117, 113.852826199729037,  3.671632827395155
17.676914241088667,  3.189400092582898, 82.441471211342545,  4.289288400079839
 6.426693370820840,  1.261658806960979, 103.880940408528758,  4.283244634801430
14.503207962060994, 13.491257986869241, 38.654463248674389,  3.829932014738598
 5.194901424277173, 16.280534849451900,  0.625727161472084,  4.181458950164802
11.932611175536373, 14.114996922020234, 89.318940441639668,  3.773178334684091
 5.279719386959185, 17.423353360214772, 22.499501119472921,  4.124658986939020
10.331004204987014,  3.417975803484172, 33.004412373596892,  4.324758195867780
 3.414382267413752,  4.630120265867828, 106.123346161081997,  3.732084536032034
 5.305100252926247,  4.526522365427598, 16.772669614437007,  4.111597998851590
11.837087761789803, 13.417599679021706, 104.208490307268747,  3.715627421782254
14.428273126262672, 13.828260191982984, 57.525936508351926,  4.200939626612398
18.717015604178883, 11.487557216302656, 43.847346296087359,  4.006740199157083
 4.826142481077746,  6.996427945180496, 54.814309700956450,  4.243021533606345
13.400441242684881,  4.567803523337113, 104.825928980518100,  4.151746652422302
10.141989123909614, 11.508961314224367,  7.112759017121376,  3.658745436337270
12.410946282418776, 10.814475508093089, 25.610892765431203,  3.852501084899441
16.658195775431210,  6.064358053684967, 71.331484188576354,  4.276481638645586
15.635548871448949,  7.483713389922635, 89.235646983679842,  4.101957914025303
13.302516945344243, 14.567807800728167, 81.193787700283607,  4.346818879995650
 8.964498808677243, 17.119976459925265, 66.780455933631032,  3.835568319396840
18.585497637810512, 13.545531447642286, 13.764064283047354,  4.219662186664523
 3.009098339472508, 14.296594631488093, 20.845901747938907,  3.842945678378153
14.128799068653814,  4.877009116048896, 10.689164083086771,  4.157343798876797
10.389375944715889,  5.269876596705835, 64.720337613689793,  3.901298958414492
10.927773892625329,  6.215369512185767, 47.325009933458084,  4.148557101099080
10.834999806510151,  5.122068062024329, 98.333193640439262,  4.286833161486311
10.344187936036271,  5.588547323346750, 77.696915954322193,  3.955603805147662
18.245583406264149, 10.529186558697850, 101.991162427426701,  4.032411173131575
14.311747038553154, 15.628319044308405, 61.987155334550216,  4.322636797410448
12.563544589882770, 13.336223145157931, 85.332952553362418,  4.406738324350204
 9.468916061135410, 16.183211075521875, 87.135287700737635,  3.981992418070866
18.115800467553676,  6.583722251318352, 24.396991940221557,  3.930899776263507
10.890707483379426,  3.795136012903336, 22.234974592089713,  3.950337988534698
 6.059032330885337, 18.827839908055140, 45.974017072229778,  4.280802608944062
10.709353753476924, 17.772402248057102, 60.474655049898246,  3.921178835444496
16.409937667264185,  8.468639802635947, 42.488271412465572,  3.957990262173211
 6.185046878512225,  0.675783207064029, 15.803033722999006,  3.971013506639437
14.280775100599255, 16.180526026333087, 18.745191534424482,  4.269303911314259
14.340062408459042, 17.711220682707655, 91.561826804488305,  3.469803475262577
 2.525673900587483, 10.996342286884600, 37.449446063330150,  4.365825590145854
 9.858435578209406, 15.962687139502394, 112.791120740390568,  3.675718531803965
18.753136426806044, 11.801554950822664, 90.806444932454241,  4.064427631343183
 1.712252839265124,  2.426468411037194, 39.494219581824140,  4.176874547366471
 1.604723062873014, 17.257018973546998, 34.621027228209812,  3.929992278380135
18.471710195420858, 10.175197395861300, 83.327919988125046,  4.227194416624313
 1.495246681917334,  4.106108272068310, 72.578261333427790,  4.230968258081901
16.673590936476014, 16.073840731774169, 27.867387170312909,  3.710964230741622
 8.472629981642049, 17.521588374668021, 32.300957069472851,  3.983664810358867
 4.170430608550635,  7.534001081267779, 62.342178173556611,  3.892742876529345
 2.589040458370924,  2.842274197340013, 109.613693871044489,  4.084414649835983
 3.752144587524182,  3.904093724584792, 69.351229504161353,  3.549085743622172
 8.466823160310076, 10.698228815743731,  3.719474340507845,  4.042733921405135
 9.441957530857067,  2.250461032505791, 46.578347932986148,  4.090521170976780
 6.362163509959339, 18.347585243683884, 70.293924523025339,  4.380045396394308
13.759181096735611,  5.238358923917247, 16.346461913762564,  3.886655453431367
 6.731412179047131, 15.243732550844474, 44.069459771875358,  3.786493000664982
 2.854038246535601, 15.920182547129727, 44.282434205867560,  3.990341228439884
 4.145898264599355,  0.318183725037617, 32.478054545425302,  3.856267692213635
18.686467810883919,  3.927404160368274, 47.054894501841595,  3.954606581970680
15.289886205558272,  0.637429571832233, 75.225548979442507,  3.871699560348141
 7.567702866068827,  5.203670103760262, 104.888693214957655,  4.131814723925285
17.290875181915283,  4.529207104338463, 91.172536453353473,  3.682814009691514
15.028310844782592, 12.114405056727318, 68.679083661749345,  3.747428701704528
12.791458058199131,  4.721760274461007, 36.153871007268698,  4.001976882990685
14.673372078012397, 12.345238821203786, 77.834091139440318,  4.107870872709912
12.825005907478372,  6.938717688520605, 32.734361948468916,  4.119243044172149
15.091501195139143, 16.829272356205625, 70.159048376650830,  4.381818405124748
16.722260508283924,  7.711517491416302, 67.363946440712638,  4.308518814404688
 5.047637745154909,  8.217925195346671, 28.002552546447614,  4.375929021462170
11.788997435118215, 10.861445932419452, 113.120020848030194,  3.789974087360312
 3.854314836669545,  8.862669388859056, 112.173133141653551,  3.974249815922363
 4.068060613431407, 17.570959622309019, 49.442363094266732,  4.040230132922860
15.695351925414784,  1.461191265329729, 89.039242763096311,  4.307625817346211
14.433039854912099, 16.035287381910720, 103.526278506382170,  3.769663241375794
12.052695331932695, 14.676934381753535, 67.808566220166924,  4.289668295570626
 7.627823279210094, 10.939087367955869, 76.570880049170867,  4.226226584678185
 9.787649381157093,  1.391197982606495, 96.881500259607847,  3.988667367618034
18.139909285154289, 14.919365103982425, 37.877840740149047,  4.037590535932206
16.466910560566554, 11.803263663618043,  7.534315408416960,  4.051959478079659
 2.852833174573418,  3.893088209737412, 82.731014698206010,  3.903715622834544
 7.209371367721825,  1.968804075937615, 30.632657835921755,  4.017711621257204
 1.422860465783113,  7.909991964236575, 52.281294784047113,  3.699750609511334
 2.144571313110565,  7.590915486150815, 30.838636427667794,  3.794513734816652
12.086122611497256,  7.150536818950485, 19.817769282109285,  4.548613961777854
15.163727223628772,  5.709345918982909, 29.804970893365873,  3.737773493890711
12.160952549134755,  2.357905347628134, 13.385259837665551,  4.199634867668295
17.509909468512692,  3.958626248775421, 37.453885962239205,  3.955879224500109
10.823107765218385, 17.592181857575152, 90.544892434660852,  3.851046429029168
15.491406940543952,  4.346084416189565, 49.329726134866810,  3.747216882826567
 3.360347970966740, 13.520245343031185, 68.616561596713794,  4.003655746962066
 7.185685498661353, 11.633782444306050, 45.346347978981392,  3.908406825732663
 0.417106157037902,  6.371689602593693, 84.662759041406034,  4.025619988284006
15.195073784794095,  4.387033338599265, 61.502984263772063,  3.814639651246988
15.399880292597862, 17.695689375309918, 58.532062490383524,  4.016859988004824
14.216341429890990,  9.427050866422212, 71.371444849809308,  4.029461169432063
15.430818797913352,  4.401106046230966, 74.761927491046691,  3.711258489674695
15.073434864321907, 15.860524969541858, 98.882329275487407,  3.701274611540647
16.812148788460043,  8.170064937560547, 117.299843935458625,  3.822772190919060
13.147707812566919, 16.490657954648210, 23.321294132582267,  3.738489807904319
 5.399647906681080,  5.242191262701476, 79.713304682144539,  4.426455095300570
12.479351635886044, 18.031767475645307, 10.613186404129207,  4.421243819400677
 9.606122377192897,  5.413823676430299, 81.468175981717053,  3.697229191928452
17.241178054673746, 14.661702703969926, 41.890901635536984,  3.999175419297328
14.792794617912421, 11.742449083257942, 110.493441864115709,  4.379760181801655
 5.336068405487536,  2.058081926162298, 99.528949651027020,  4.465117274042889
 3.524596420551071, 10.429161947994306, 56.525538946818116,  3.839711201660104
 1.545251806122835,  8.650272341567524, 21.585848722541350,  4.355006102379274
17.258439962421996,  4.405932972293195,  3.347673729744942,  3.998979921661926
 2.326078447143793, 10.005189775686754, 67.332128773119280,  3.742130680794670
 1.714082246875691, 16.096394822984532, 104.940001589711272,  3.767738205909128
 3.207107864923361, 11.437361254509513, 31.041544536981977,  4.188115864084851
 2.792629459363753,  6.809922847157892,  9.173274851462581,  4.384083018405751
 4.899518974694376, 12.602091753709516, 34.498134828898131,  3.793869775014157
17.181031690280204, 17.352131875735548, 105.947077948181629,  3.936462622339561
 6.665030902432675,  6.707453164693320, 10.627714684218303,  3.865537377803300
 4.667582556639432,  2.553920494827649, 91.131866174394318,  4.251105045470613
 4.129801551957085,  1.746660644608597, 95.305284578693460,  3.973251868415834
17.102408272842105, 13.451627052130371, 17.389622580550988,  3.589890076818551
12.952115758929184,  4.409259516265006, 88.189565903470495,  3.906426330785340
11.353913371316887, 11.668743232465586, 56.312046019850634,  3.645116909592377
 4.785920198984885,  9.441797509114670, 79.521900064217874,  4.068523570785536
 3.540887591779026,  2.655976199714260, 55.722854110556824,  3.842803002295025
 6.967438711531318,  8.887414890806690, 88.431865997759616,  3.994284384164590
 1.944334195514749,  2.483182975212378,  5.305623213539665,  3.798115306344494
 1.853255139907812, 11.312214119368194, 114.504177975899765,  3.877955110113553
16.468002256429081,  4.647862181674429, 86.617428299766047,  3.791529255448422
11.990983535882425, 17.331880860255939, 84.000440422986486,  3.934084657471771
 7.868585520270954, 14.492546892429038, 101.004890866857806,  3.920307295717491
12.404781769292839,  5.846606304860698, 72.542332660494210,  4.230710538589320
18.876968695814220, 18.814574819224678,  9.373355764408764,  3.717460408768445
 8.619248758594958, 10.723949838397337, 24.719724082751245,  3.889870108740063
 0.982792801137379,  3.531517612184099, 62.628200980909696,  3.982309993587378
18.726628716979342, 14.209731177027125, 107.645989034663302,  3.729809893256083
 4.764432821755543,  8.268965466600898, 34.879827078078961,  4.359701070718240
13.514916809767946, 15.355140529202588, 42.494683376141182,  3.648252357300020
 1.251818239147272, 18.262283861310245, 63.805228598049347,  4.042776477294955
 9.750359646059749,  2.934706271279998, 101.809329690639615,  4.197120518740610
10.922803576318895,  0.629312982172731, 29.903922380736724,  4.005628694145486
 4.166098078098159,  8.352299825107769, 105.603773794353955,  3.931324657732651
16.608277491620100, 11.536851659397428, 105.615565968870627,  4.155980219924072
12.413956462924087, 17.616362160632839, 73.504052191938214,  3.920539319357446
 4.220450311914905,  8.577320910587671, 13.114009529046490,  4.008713787553955
15.419830088251285,  1.967463460965179, 115.050588191575883,  4.238690056918472
16.166217982047126,  6.941885870397610, 82.543755117091322,  3.757654346976520
 3.515441084677036,  6.663354052804501, 90.987997307365632,  4.107067937713509
15.702141594875709,  7.693880059619530, 110.939352473036834,  3.805985671395937
 8.826109792711041,  6.336224623096373, 44.063633723609435,  3.583925734398074
11.638695612623112,  9.130257495417066, 63.383954382657294,  3.850453541781516
10.286257384304642, 15.466166966359960, 19.504879889572006,  3.951155284310595
10.221738268068570,  4.853335568966474, 85.287229957322623,  4.092750873076793
15.544052584146892, 11.223736683731271,  2.254418345195698,  4.317656574374564
15.742890204459032,  1.659939036042156,  8.708467977071138,  3.632434991238233
 2.773598020066378,  2.528793969760912,  9.205113983913693,  4.135946990317665
16.471366123439026,  2.036429611221317, 103.729839026517311,  4.053012263625305
17.818910372251210, 17.251788364080678, 90.494961579985741,  3.745261437239165
 7.036850218104532,  7.371601512496182, 84.683834288026489,  4.075703414274821
 3.549486409951349, 11.871991837706839, 76.018438885155291,  4.098366087913663
 0.173039914250075, 12.247321624738275, 95.611029962500851,  3.899631953115545
18.087137156508895,  4.782536932022819, 52.155763389791652,  3.915342842284134
11.942212358832620,  0.703607502498909, 93.647815651719910,  3.889838510370904
 1.380435080357167,  6.664959127537252, 65.319351024966906,  4.273802638198811
15.062844542654657,  8.817134937719844, 17.480814316166718,  3.716194453510882
15.011411622784703,  9.938161905315907, 56.067201340315869,  4.172385803640164
 4.010444420337675, 14.321158314519026, 28.312127937756969,  3.911331024970341
 8.388808207350367,  2.005583949415413, 79.735109026259579,  4.323148468794769
18.015161699046434,  4.610317344966649, 110.485206747175511,  3.844154222190248
14.397164713571524,  5.225388604042933, 117.077624636848412,  3.672614622049522
 4.620139462005190,  1.787215707377110, 19.761934976350933,  3.722475442866162
 3.945072376032707, 18.607462736579336, 106.685131276656080,  3.796851597857362
 5.485426056931923,  0.678345265145709,  6.537528173659590,  4.214535055165947
16.348120539879258,  9.863570468577109, 93.809755699298933,  4.267414181901550
15.983481726928510,  9.666861652820721, 63.768137876255729,  3.982049340090884
16.376551488378052, 10.465303525424421, 26.404328563513857,  4.218474773866363
16.290253752978710,  0.411080750235409, 97.507560355641786,  3.869543721220793
 2.011692521572495,  7.717955324455398, 116.534114004144485,  4.224104616962790
 2.738716217465288, 14.791935224644876, 54.349589532041186,  3.765713831733080
10.731503997639123, 17.817618981360589, 44.718505623032037,  4.019875629824522
14.300096110843672, 12.461905249042999, 117.002294862119967,  3.993435047793862
10.404340659165184,  2.181602034463649, 67.301726196839127,  4.110246371718315
11.305183205647911, 11.386482314441558, 13.000383327015674,  3.768943785854087
16.594003948189929, 15.693382103376804, 110.794161226570253,  4.301486728204401
13.228269104246904,  9.774368535803314, 103.730069923643214,  4.121076785738146
 9.055773921221446,  7.759875158893382, 56.914777715477591,  3.919572386332725
 2.925583244056287, 15.747486854492077, 75.371145741791437,  3.855590608233342
18.109783339994962,  4.526893120311520, 117.792437985832791,  3.971204227569508
16.129452954973331, 13.188871933065094, 72.166985589878422,  3.831064105315622
 3.767829034415996, 15.315152467069021, 32.044508011819559,  3.816732339662887
 6.612953351431875,  0.879380490551355, 86.605631846893871,  4.019699675339926
 7.689463136284379, 11.541765404037296, 58.124232489035698,  4.433667212135261
12.730010762626936,  0.559948548953016, 103.333181475008871,  4.009091840027651
 0.120103257620162,  1.327389791375160, 25.427345106204655,  3.972951076529869
11.693085120293500, 15.121143600109114, 31.484073814379876,  4.023090406859290
13.230287064375574, 14.973198563816633, 53.766317170017658,  4.004782977501752
 3.321361110491984, 10.740639819380139, 45.572693298462767,  3.894088114312160
 7.416096736042241,  8.512180658483755,  0.182677802143309,  3.641345895420802
 8.749622654803192, 11.120350174021832, 109.674003308454559,  3.926009946588582
14.790180617040711,  6.314264424353769, 39.402904053422382,  4.161344587613423
18.587954395812595,  3.241589362806617, 69.063926287679820,  3.826457651924616
13.292031293844810, 12.451357673279659, 64.564429950331274,  3.916066531081292
 3.530197472370755, 16.764053154696533, 95.427143731248663,  3.670715282174810
11.743702541516207, 15.275989629974802, 100.832831347528327,  3.987202436487209
 7.305923529551868,  7.834293835893181, 107.976357368842969,  3.996625869817922
 4.367064119425496,  7.532902050935959, 98.921201030533240,  3.878705264738027
18.217135078880101, 17.893838849776387, 44.272532802280359,  4.163288533618614
11.279293004919538, 11.538637016679226, 21.646520582086890,  4.329813496416817
16.529206787578634, 13.674635377745227, 84.114574331280167,  3.916875731982289
 7.866265337914087,  8.445563965657897,  7.316289945860337,  3.977370028921345
 6.926656664632954,  4.746075253961132, 88.142450756693790,  4.286489287238667
12.484432478393416,  3.979228920200913,  3.292245145749380,  4.162099332110265
14.298670169985446, 16.829423628472302, 95.221258751211522,  4.001230643175544
15.885042253523967, 17.968561357540150, 54.495585669187278,  4.117644964096939
 6.713081440953053, 13.437826087036283, 37.820201063369289,  3.945839121605347
 9.453476557513932,  9.873426128443347, 41.306141843156972,  4.242677413135709
 5.636422538583395, 10.141531741562623, 115.628313960357303,  4.209483180984201
 6.208239170237276, 17.418303867774476, 78.867526809458710,  4.114209056813100
 6.271756192943167, 12.205196207197993, 103.604023657146428,  3.605510067313701
 5.542003590761547, 11.382499181662455, 99.881877657258954,  4.143713131539083
11.295869974335252, 13.991207100850669, 109.982772921214817,  3.750543301152633
10.827117760215632,  3.325738519116593, 18.253898109798286,  4.067576478613707
 9.349020894581926,  8.769755255043593, 28.052214748151176,  3.943055174089416
 7.525880586661823,  1.171272533077472, 35.356561757972585,  4.229037688329870
12.326449452617176, 14.630856270623973, 49.018230403005603,  3.683613663581205
10.007370175728234, 16.452146032111777, 51.662273028605696,  4.219859540300364
17.392266870580517, 15.931912299005765, 24.131425435476061,  3.898614564294467
10.052411485391540,  4.683905635869209, 10.394375656614844,  4.011955655986299
12.101957859247440, 18.534212215823619, 33.762861664241441,  4.099030597816276
 6.106120398067888, 15.115863257857105, 115.404799899603717,  3.913965505901404
17.351092236789210,  0.812008914108928, 28.938619542879959,  3.914027008730529
17.368172830542232, 10.655194570848643, 19.873073527870392,  3.849773279866533
 1.519421441189255,  3.766297071662321, 15.855556738133918,  3.806050837908311
18.878479657360597, 11.614393257762222, 52.642427127003678,  4.030339308307847
 9.643590960324145,  8.571994072122544, 94.280441526314661,  3.929263249699550
17.719008640202667,  7.306180243078168, 49.337597360737256,  3.660224388250723
14.805730357125277,  8.181215017963046, 107.136383139744140,  4.025754764044668
 8.948570542409236, 18.844974183687157,  8.527480998188638,  3.918894806044231
 3.325371133670003,  0.073390372625438, 84.171580669676459,  4.314993418422822
 9.475265039012321, 12.053126433571897, 65.777900778080209,  4.079761774547134
 4.269966785250991,  0.157718463363204, 12.481397851856919,  3.725039155226235
10.820473579253560, 12.040635476018805, 37.968473698553773,  4.119023257415088
 7.453700550441455, 13.208876492167969, 62.263970329710375,  4.221510770097066
14.695643306728620,  7.122427224057142,  1.865385263464838,  3.985522728361901
 7.405789021748351,  5.635276367910683, 92.369768404202915,  4.354329718945365
13.871435902666869,  7.579886594415979, 76.440972497315130,  4.080318969780190
 1.804717283296404,  4.054903870629845,  1.904146755391517,  3.609763729896353
 6.619586338162051, 18.194081712477320, 96.817753802149880,  3.683316905932021
 2.283069938223308,  2.121105184438524, 35.457333996969702,  3.954299538604517
 6.808878903058893, 13.833058127178584, 50.916015293769554,  4.152225970997446
17.852530081374077, 14.356869517681909, 103.014991210314264,  3.895465022076134
15.899868695055284, 14.332222158905525, 92.414189612661929,  4.158547540667932
14.528049895017491, 17.494554995501286, 117.348767035255307,  4.091024204010933
 3.010523959707023,  6.506627002692000,  4.802151273070506,  4.353609868130436
18.684009107292667,  0.668349419656788, 117.157159072868822,  3.874964667935292
 4.002016009702798, 13.987288201627180, 57.817026880323354,  3.788301734714055
17.712427064515069, 12.968825213227902, 80.431153666187058,  3.928728986341520
 2.065757760811089, 15.360780208231791, 79.377139575160982,  4.292584601164438
 8.290793125284722,  3.732260172744389, 14.058952920333910,  4.109627579496197
 0.358636048286001,  6.706737429935501, 13.156570864268039,  4.163268840088256
17.126315173787003,  4.859986238789244, 106.610696199300264,  4.118529792435926
15.385736123540754,  5.002161417142955, 79.226980653246557,  3.876025264052733
 6.969880581938750,  9.827450543658276, 31.637463355158921,  4.067267565788574
 2.986968828755863,  9.286653250355478, 102.067609829199426,  3.752415299783006
 5.351005041042613,  5.013724397792021, 65.371584707560686,  4.325860004784422
17.868745427764903,  3.454254878203016, 96.072009305223673,  3.506665624670902
14.771364194027699,  9.226515440528601, 22.661869837154939,  4.288672913840053
11.011793763523661, 10.755605305603895, 32.529506701959995,  4.236508025734642
13.297913598103987,  3.213218433784903, 46.048819296238783,  3.900793517779282
18.527735104392168, 14.566098836350672, 69.355387675364085,  3.990088222797660
 8.974650508940295, 14.786662444411473, 83.438973609033710,  3.968763076207652
 3.930189372792614,  0.401955240039546, 42.381608066576781,  4.135074832145524
10.127466001922862,  6.839315741261071, 89.513740997907846,  3.826812925524467
 8.272729210965945, 12.513005044468438, 113.369342366311272,  3.987911367475089
 9.410649389277571, 14.428608688752906, 34.825779321808135,  4.186132712121081
11.419837507826363,  6.576068699506312, 13.549151413586030,  3.825905518625676
10.525419504200652,  6.884275816674067, 102.540870496773934,  3.978370832603868
 7.984922310686709,  8.252663498767573, 65.841429557393795,  4.073213910778382
17.520109997189767,  7.624365846209935, 31.921591118689982,  3.602292538741669
 7.213819759088563,  4.149135520623025, 56.816228715871482,  4.187403909473746
12.463811828499132, 14.165650550600560, 71.767238938185628,  3.716137625172593
 3.594602471299198, 10.237519629617946, 71.122214903044679,  4.247930205904181
 7.305470421415624, 13.820847425488413, 31.375257842201336,  3.959775649764847
11.701363643343855, 12.052572822786878, 98.156935079708973,  4.312633547282683
13.983181828506043,  3.568258290093641, 100.777053095012505,  4.240083113428685
 8.067186523486880, 18.856171873466330, 55.947576159874806,  3.967844094487454
16.303675353295134, 11.047769620467147, 11.457754770794015,  3.927790596816061
 9.390720117050789,  8.327422995727655, 50.417949733971696,  3.915259883891260
 0.702369480904383, 12.701613058197772, 86.405898492859606,  4.076567270899417
 4.527713078571036, 18.849207252460577, 37.935324117969706,  4.018824992829130
13.693175273436932,  1.975605608486385, 71.599159995938194,  4.134756968210261
 8.310977787248966, 17.181959416188185, 38.310861988591931,  4.234962536231480
16.963671649540444,  5.724569406428348, 114.133152443299750,  4.061644545803500
16.099427401958387,  4.821085692433471, 33.932884688646915,  3.816718496405100
 3.945762717089747, 10.927697128037243, 52.578668070825742,  4.140121475888029
 7.006011148302510, 12.603570534792317, 14.039471348201864,  4.116318259446975
 1.214482036751266, 13.048371054782791, 72.782020237749592,  3.830725962014312
 9.963788887277069, 11.054791296405362, 90.992198511606958,  4.187623706337206
 2.211641924174150,  2.368546087046066, 66.261141028875898,  4.005033312016184
 1.880179994619730,  4.506457811585211, 27.308219507448101,  3.797402220027327
 9.817728142541588,  6.288015734692266, 116.586339951943430,  4.172257281429951
18.779859144175202,  5.818653026881997, 40.713372588872936,  3.966319024877252
12.795374463599703, 16.654786498787360, 27.836196675450438,  4.100185507234992
 9.007695611322596, 18.300445450999234, 117.306089061700476,  4.035735502660732
15.593745546967346, 10.457306465796114, 86.369845436944402,  4.126875134844810
 6.538736234485756,  6.784139822605178, 47.127584082669955,  4.103977295596090
15.621999302741891, 16.721387945862634, 35.162762035237371,  3.899453344092522
 9.742809780862443,  7.198631850516266, 69.480241528672437,  4.243917879290082
18.137582596343719,  3.014673693181997, 100.025913972492717,  4.253113519458647
 3.921245553697674,  4.504798434043684, 12.762221709791632,  4.140834319859066
15.233490851795052, 13.092370044609014, 96.234380104404750,  3.954700948107762
 8.429309969762606,  5.366231309110878, 72.912327102322067,  3.755352216890851
15.904614298952698, 15.276838525075210, 66.344546266972884,  3.846559403007125
14.438865853630402,  6.823802029825075, 26.063767703208896,  4.058086122260971
13.810072760306236,  3.234332354953921, 96.397787219442193,  3.734538121232185
 7.643404538528557,  6.306740172304641, 40.455955831074753,  3.744969028552255
11.902875794363688, 18.500590279377860, 48.557225428968287,  4.072459262164605
 7.486398845247825,  3.812115767473271, 69.469594225771971,  3.854737664588570
 3.637214740081516, 14.856629688805576, 108.237051613990246,  4.175772633384414
10.491511315624704, 14.275872793950951, 25.203268853618766,  4.094277062459877
 8.747610066540298,  8.846220633895777, 79.924370762637764,  3.974768959010631
14.290919816849678,  0.578796927742129, 81.685289756328658,  3.922403293472120
 4.751704233187000, 13.347778513025991, 93.231869000546283,  4.331322818803788
 1.023006097208561,  9.620398453764627, 33.879298311679975,  3.836482599412907
13.576297541622957, 11.150051607394531, 47.767049655532794,  4.115636486321735
 5.013766189659850, 15.810072518922571, 82.332263792234002,  3.805317284194968
18.309901441925998, 15.719104262146717, 20.258191708081966,  4.059762486170638
 7.464062569818964,  1.861426943236549, 22.908549107586946,  4.003812169656100
17.698178355010885, 11.193997292389733, 39.676001342158031,  4.278314069728313
 2.131810809293514,  9.156754348327533, 41.341723810772933,  4.250434147260505
14.796732584344364, 12.562124008999925, 101.067456710870943,  4.168035981672045
 8.596884269427836, 18.300079861303789, 100.128444739386609,  3.985967591017467
13.773899950564932,  4.505036852247046, 52.966876468371836,  4.213276505055207
 4.942732576847349, 18.223060165950635, 110.591636918307614,  4.294330689299660
 7.215629561555200,  5.723886663312716, 23.780729272219904,  3.903920190861045
12.991069215171033,  8.734070946439168, 117.092692406864998,  3.886338009916523
13.821140899043737,  2.347857613417577, 39.804617793703734,  3.900447577816047
13.837835956570821,  4.737405328214294, 109.072920191918982,  4.097640819998011
 2.404395305485415,  6.890586220082848, 37.965590770026857,  3.853907693032186
 1.976057751443927, 16.099147498600793, 112.730538365630068,  4.019191403348182
14.608028770772963, 12.564699040377313, 14.689527006865937,  3.972139552222782
 0.596440006828815,  0.088114660128826, 93.989845975327185,  4.197500537720113
 5.207099648336071, 16.026487038494185, 40.585420724755338,  3.790338135365026
 8.228342050603516,  2.325508578896874, 39.649081855384871,  3.951215838054593
 1.487086914773356,  4.066825991918057, 93.384925193066422,  4.039586181229389
 4.681326427714206,  1.364065325368088, 80.740881792525769,  3.449422018735420
18.123038365382779, 12.009689805139418, 66.266511048695946,  4.048410285798330
14.941744759819885,  7.925949175857165, 59.699983030874300,  4.127203301066742
 5.136912429553899, 10.337602706767848,  9.587482740222852,  4.003055046051422
 3.131134915280353, 11.907327523779498, 14.702074540095785,  3.642775618500206
10.329386349005180, 12.449623159367478, 52.480970069532539,  3.934045845416955
18.260634514041932,  1.495922004159870, 18.430941397913703,  4.360229771012399
12.373287264756472,  2.627722795325800, 112.273128640735692,  4.094014505622245
 7.056988761631902, 18.348142452527931, 90.221081879169859,  3.856389878170090
 4.362183402672432, 11.128091296024870, 60.579525523700156,  3.856806017132682
 8.020389099958487, 16.465394594938381,  5.493603838829081,  4.005546443631565
 7.345377994882172, 13.655417848446165, 21.970502914855629,  4.532883519604034
 2.226990805074307, 18.790430758073363, 15.816516044122633,  4.115164184457289
 6.972990185863102, 11.857365737337343, 28.017537895045258,  3.792997910249386
 3.149300120946896, 15.082107311205968, 37.510753238257159,  3.835291700671490
 7.700600234999359, 17.844730093210067, 107.100065294636522,  3.887650054095463
18.138208001582267, 18.950361511919937, 37.332311054725110,  4.087776160301070
 8.141741669842729, 18.958618969218964, 19.299869208969806,  4.140061554681886
14.251427987497252,  8.474155725411794,  8.518772936267553,  4.146825631182236
18.518619141065702, 17.634776231260076, 76.750524357996994,  4.273932699954815
 9.736768435386933,  4.970449868751170, 109.718582153659639,  4.197645299271376
 2.478033906773578,  9.852585871664836, 93.387494663997543,  3.954335381325037
12.504350651876486, 18.100075008148718, 65.729864194279131,  3.759545796669003
 1.412902577475067, 10.708875033361222,  7.990426600366145,  4.120347387893093
14.318998221015868, 11.717893260773938, 60.917676969585344,  3.776894550114337
 2.838125764951145, 14.088461899097476, 97.918822706838057,  3.769012919077059
14.638610852636759,  1.219841577305028,  5.211389956332393,  3.737886061275048
