BANDS
8 8
NANOPARTICLES
cell(1), 18.971
cell(2), 18.971
cell(3), 118.569
14.962524763752500, 16.311824606518822, 70.638602194009025,  3.800173264541133
 6.723962949107963, 10.173040351340033, 91.485483648484475,  4.161082083424049
18.736260180622928,  2.569551497516301,  1.323788203823281,  3.929871553573663
16.540966172136226, 11.517439956478077, 50.682305574688897,  3.966972416161584
 1.204299713648614, 18.931961048896287, 20.186625870103402,  4.073999259808742
12.856330249527172,  0.505822491632461, 48.551085648278274,  3.948991872927881
 4.178862064238384,  2.302306339481932, 67.042941630244101,  4.172541473886645
18.421728614984787, 10.434862590027269, 82.564065015297771,  4.018192015041644
14.379670976793376, 16.016277639767264, 91.341996508147602,  3.751935687778415
 9.374085465053085, 18.278941640919932, 29.015898654836928,  3.858577098699836
 5.403142688257864,  8.389898781343508, 110.796473055420066,  3.808334692792199
 3.771243306628241,  2.020105804105752, 35.661848341890952,  4.388152682061004
 6.208035037469033,  7.069321152525577, 84.282702081091628,  4.062332349137418
11.190840457494028,  4.288451118021753, 78.129244603086335,  4.105754221832838
 4.065329124361957,  8.261653407178869, 42.645469116056773,  3.722301042818035
 8.453107256606279, 14.837601497766444, 68.763885460084268,  4.082014471866270
 8.470505785636250, 10.108518627435975, 48.852415863952615,  4.315195824885325
15.737004058764740,  7.789595258592720, 88.377894441997896,  3.963707037973057
12.416366970625321,  2.535057696921335, 87.681451454891729,  4.018533282180833
 3.494217910378224, 11.699211431239981, 55.238775689149584,  3.930610190591534
 6.065053427464538, 18.158892031703250, 69.361206102740695,  4.115222556733610
14.324165169313437, 15.233059750280155, 96.023286912879641,  4.127579096440314
 1.316895011799755,  9.835878364473206, 11.489225418944867,  4.039679772216645
15.957254124277195, 15.758491131152661, 78.583055910696203,  3.840044391100546
10.338671162154425,  4.705803232417781, 108.689423257406375,  4.096236784095507
17.362677027477496, 14.905381712923578, 63.676719646564443,  4.200011224709177
 7.472847448832802,  8.044319466700891, 37.168075223867561,  3.712618750038782
11.285934360687126, 12.797883968205495, 81.984338176153528,  3.856322884249254
 3.785731689707062,  5.715080730751875, 64.602473400568698,  4.057829938866792
 5.703371451418377,  7.697138004248290, 99.799178681838896,  4.177450830436963
 8.840935729828077,  8.551468030415011, 10.213573447603444,  3.897861047558672
 4.165143919585838, 15.189548840337881, 51.304286625419891,  3.532036315485251
15.917586332628442,  7.053527870623730, 26.324174699419824,  3.782428053999971
16.745415864222224, 12.009054721836485, 35.312410763362131,  3.937995748075856
14.479139322317200,  5.894076530930366, 81.673159638750988,  3.817247204033149
17.218636016421119,  5.122685007062651,  3.877656444579514,  3.904244466649208
15.042280971955186,  3.491796164089348, 94.842115609879258,  4.010438089909788
10.064855649916421,  1.002550605068260, 39.032684111845427,  4.154480980522951
17.000107132854222, 13.328676304134977, 28.445572734403871,  3.938672609903767
 7.417620834746891, 15.508120662621003, 25.392535493298972,  4.249822832748547
 0.049469579827635,  1.871978256681904, 73.650610367113629,  4.162745704315969
 1.435523248628984,  0.217779484815582, 16.049902091350919,  4.175736063792488
 2.876448118686499,  9.404727058389375, 107.841786290428431,  4.214601693892228
 9.212220007452121,  4.957325358696949, 86.540501501681092,  4.321794281569769
18.074264795749535, 14.523353080440724, 103.446192876050176,  4.061728479146740
13.892087737396873, 17.301872316796498, 109.790050241246021,  3.698141127820551
 3.100137067578112,  4.323085033495356, 46.613132469797470,  3.974257520810160
12.788750116835692, 13.948732871620471, 108.258798038063716,  3.986761883458243
 0.699207030740995,  2.111437453563456, 86.566552853365678,  3.915717307725512
 0.852965985848666,  0.930414420473210,  8.476701168943226,  4.058034880600760
18.842979683430880, 16.009595742203430, 71.005694990214153,  3.984089936028092
 4.105404011243944,  6.634414449802448, 36.250833178009934,  3.803824832221422
12.208432696587476,  6.548217563112968, 111.848761747932414,  4.090219570147207
 5.343308932752662, 15.076189209620187, 75.781266163238442,  3.882284342356298
17.352959395781177,  9.167935372035389, 41.319424229262900,  4.058542655230738
15.569565580261768, 11.113677703300008, 85.951306919026962,  4.272608864482009
17.777977282097893, 15.420723674666117, 14.908915938888928,  4.203603121395701
12.198002703915085,  7.311788303671168, 63.353312378628303,  4.245210813153453
 3.945611726411337, 13.701402623179828, 113.811143850349012,  4.174897538836455
12.805786354251151, 13.162069219088862, 15.233799256876367,  3.885251200708155
18.405700042858101, 10.945003880379598, 109.197830103499072,  3.772661458890755
11.367580249800325,  4.813510200226445, 25.978325060155434,  3.845915946729871
 4.621199690599727, 17.499678754053480, 18.449200562952328,  3.992256094454188
 3.136367301625221,  5.254037427379980, 101.874929531046789,  4.034633962074953
10.679951348400376,  8.387038981910164, 42.038141462897698,  3.842229006286035
12.981826952223667, 14.168843723947793, 54.533274620263676,  3.934731451393667
 6.422701149128078,  5.507526481865379, 11.125998532725182,  4.087888242323260
 6.167594262971517, 15.715565049300970, 88.031111741494584,  3.951081312918091
 8.362889113100278, 13.646538625418733, 79.507595262402631,  3.815369222420248
15.987899685006349,  2.935333551140770, 47.169133054019980,  3.851166901726501
 9.583094476851658,  3.654593019563558, 56.487639397602265,  4.025649413123994
12.807452473410711,  0.968921640374116, 63.192222701129552,  3.989320682654173
12.590877703399425, 12.042470350311707, 22.970165836807528,  3.842252991570930
 7.659461904615489,  5.234630336603005, 42.732954613512504,  4.127087199834000
13.012480431196547, 18.049925667306759, 40.933134276087628,  3.837258623211878
 1.810386665341055, 14.377950634991679, 77.662167644383103,  4.186097634261446
 6.030632644722426,  0.541081994542395, 25.382225650990147,  4.219155744900791
 3.772612020558858,  0.244161015652304,  5.783394785537566,  3.999164918126338
11.504377496521350, 12.585661793514772, 19.078365653295432,  4.309900889877333
 4.694120365457537, 13.876020268686908, 41.869562543970730,  3.844629370652937
10.659550904798968, 16.509150950389628, 83.049189042670847,  3.853855690470329
 4.704638808565250, 16.394413935527055, 95.054280974929284,  3.926332043768980
 7.649317505125834, 13.816896075069531, 83.557344782668395,  4.198768010579564
 7.515310297110379, 16.791722981517804, 51.869928258415406,  3.960677245904730
13.519997233319177,  4.143278483767649, 49.935748394958814,  3.933756573969479
18.127297298165846,  8.984723705943754,  4.345853448719513,  4.000002694877071
12.069889137881304, 16.713702683161561,  9.431927773408981,  3.985350255203342
15.507235053314686,  3.995215408024690, 64.095816584011985,  4.133205603022427
18.722807267785758,  8.313885119845073, 15.029693289174928,  4.138917721274082
 1.767485391894760,  5.783475609139095, 50.112987548883595,  3.997273852242326
16.794625373897386,  0.083665407883203, 63.547031949791226,  4.174920304293887
 7.699874538218983, 13.503769275882307, 103.692370430127809,  3.952652918709342
13.382064019500472,  8.778017104109376, 118.347702106831889,  3.971367952360877
 1.078763332872773, 10.541798252632688, 76.945259997773405,  3.747609379217399
15.688777995157169,  8.455395748657628, 115.298642120910301,  3.700346074056419
 0.047722250861646,  2.493967681203152, 44.996187586139428,  3.609586223506723
 1.369145379627613,  5.066422045381614, 16.873857427439699,  3.933612853928060
16.508010221175383,  7.830583012744257, 11.384251650721733,  4.277245756620528
15.686519269817472, 16.686801110669609, 60.419496310419589,  3.934881666048775
 1.972191420743900, 17.559026540903201, 98.234318923322306,  4.223966402546814
 8.184394148589261, 17.558503317988635, 80.106713654583601,  4.097682414573756
17.881252142003980,  1.106354508973964, 23.161438486729608,  3.741603424353489
17.830177620783331,  7.700345173939285, 77.213865023234263,  3.466267947709111
11.054153404963083, 16.107902438354909, 48.185793852450900,  3.698782556007524
18.509636208450221, 16.355961984704241, 25.259642396733494,  3.916465689866194
10.218722232637228,  3.241457951080921, 73.963947171667968,  3.830936201201558
 0.127111530619842,  6.005137420072626, 74.330013765563720,  3.665613712276263
 7.090288633950369,  1.855624054517065, 101.970614754985419,  3.636474723481041
 3.707414161514998,  0.117201423364418, 101.976740084569428,  3.944378510608706
 8.394312542812282, 10.431630482171030, 22.211184523112443,  3.704618749132102
16.863095161934414, 14.844322490701892, 53.005087835444733,  4.171261324019656
 4.190568084786948,  8.690838226117817, 46.693615596192103,  4.362778155575078
 7.073105642459950, 15.023353172520917, 58.923535377469094,  4.471894481619145
 3.530646348088633,  7.548778639421371, 117.263943744150879,  3.721731671195454
 5.721606378046229, 15.480437053980072,  1.707009658947497,  3.876671006531505
12.702988959033524, 16.279807603827077, 44.564010089493586,  4.261286569498941
13.937708753728808, 12.813687005637879, 42.937570968217834,  3.707095132564641
17.418591694491813, 10.539872652368228, 103.372382454106784,  3.993159091744402
13.468742333462536,  0.654593533032906, 67.210565048508357,  3.918343163250414
13.572975103103056,  0.448091487689067, 19.748858382137001,  4.230282608408618
16.126789601778221, 15.453873402798074, 87.289128180334544,  4.161321920604148
11.958649567468024, 10.232350917352241, 60.488292862423158,  3.941737320043534
 5.145384973702256,  0.867357426836510, 81.037199693921707,  3.683769892488581
12.821045000322542,  3.663823898221735, 105.747354148815774,  3.844727856202134
15.252720014140584, 14.004259972987279, 57.669380204331006,  3.734698160169879
 7.255360818311110,  1.919908209160782, 112.212049171007692,  4.038123613509185
 3.093196487987020,  2.515819512583467, 31.449587692863300,  3.917893250120318
18.146660705660491, 11.449350978089507, 17.974348117597938,  3.829442762497249
 6.484960036425516,  8.850190007448896, 95.524063653315736,  4.330301583068694
15.458058405385925, 12.702149312903529, 110.785983910775855,  3.768071511817209
 1.985133200374007,  8.693113343715609, 52.979040373937721,  4.038851834177292
13.027962022059791, 15.642540930760413, 21.459364941578169,  4.010031860553783
14.406926117281657,  2.675630947637771, 16.437641114600400,  3.703705948524390
 8.051635654110477,  2.797758121620612, 79.873860565522591,  3.667422062090652
 7.913971560383199,  3.962685341368823, 16.396206740334922,  4.019005184393200
 5.985845881065018, 12.881589410224096, 96.908691275246852,  4.247610471113404
10.121801536338861,  6.362609051596399,  0.225568928315494,  4.159985868540794
15.815570635720588,  2.813805429909545, 116.906454667881974,  4.415768334650020
14.365204559030992,  4.578074119926897, 101.916502599809405,  4.285094460675352
 3.247592967755704, 15.610966843150162, 15.077660651321368,  4.077433333857035
14.006669623160754,  7.368609181888156, 58.455187200629148,  4.136140145882320
13.157655402218198, 11.136189312667932, 52.336211420330166,  3.559213434648534
18.053358221733905,  0.813366010973076, 26.904511440175526,  3.736641265637807
13.369971203771410, 14.751460788178326, 75.546317556674794,  4.301479203411711
 8.125408514613094, 11.968116830584384, 42.009988192029084,  3.990974951027375
 6.635204244157407, 18.156323181938578, 104.892721547580493,  4.329345112311384
13.358005453006811,  4.466838989880974, 60.927819542342370,  3.571676238842171
 2.232408832266782, 18.141764320685542, 79.212049547506112,  3.975236568156281
 8.726297719774269, 14.970526037397484, 44.713389970871056,  4.097522853716240
18.613275404430293, 17.681286145823652,  1.050329561466916,  3.752525658144446
 4.973419767159679,  9.204422360728030, 20.685930986191430,  4.106170175172696
12.541714738206455, 12.628827659090840, 118.083360161055452,  3.927466669882687
15.189285203227969, 11.297241314464346, 96.127658722549725,  3.928211541706894
 8.383078893628223,  1.219850448106536, 53.617540436167531,  3.852157721146314
 2.887353943701530,  5.953282792596982, 57.192714982443576,  3.802018389332460
 0.712446787142570, 16.378199899700931, 50.088589735188862,  4.104251058557612
 7.845367703651370, 10.969444529958285, 60.018468912500822,  4.000518409988460
 3.537822439782696, 17.579102298965658, 39.731420194783730,  3.975978877901289
15.608889107975857,  3.752510209823142, 21.783430118889406,  3.712963904709261
18.299956915636606, 10.430200220240776, 31.875172672744540,  4.147280200132134
10.551298528294195,  6.847038883673508, 105.051881221279345,  3.993584428461977
 9.617564652532616, 10.743311472465798, 71.385960513149456,  3.840187147172539
12.133885268903343,  9.265792671065515, 86.761689254422208,  3.670452864155244
 8.381739063662431, 14.352300327702034, 21.403793780941566,  4.239997931090473
 6.407583695503808,  1.902081173114816,  9.098138335090857,  4.136421637159152
15.044978485814092,  3.171084085164801, 25.764712330382302,  4.216689061706617
10.275681941298020,  1.353069418965713, 84.571665951189715,  3.840027135297222
18.513335552560594,  9.642113393909066, 27.824068527028729,  4.106091712651878
17.187510450662035, 18.493484576038409, 84.708915722810232,  4.065992513050529
 9.471151213158111, 15.814857922528727, 55.190240759058014,  3.926808002023462
15.470266300645314,  1.264541690702327, 107.689856787100794,  4.165902197973491
15.618545107872574, 12.951136744432425, 67.758573950798421,  3.892217621066704
10.464763509087526,  9.727448078423635, 94.781315120156279,  3.922110687500797
18.178278617663562,  3.307461180007200, 100.531155924840263,  4.096227592859786
 0.481856659378515, 11.097927590515745, 37.953583700702531,  3.809396319327741
 8.479941372092267,  9.611577266253979, 102.716532387179768,  4.137529941988234
 0.154687047507541,  5.697821662630911, 66.763030279326728,  3.979483159874386
 7.903079918221149, 14.888882635634662, 112.539969812206024,  4.285533646207841
16.423723600840425,  1.182481797744870, 42.487836501086058,  4.035237114571474
15.465847900442563,  8.353169371792896, 100.646323601745792,  3.962613621264592
 5.154315283612235,  3.985171154988357, 87.362736659831057,  4.086863179599103
 5.953152740230131, 15.659180942002502, 35.240769708769037,  3.956277309887232
 5.110505387328816, 17.777468174756134, 113.982456773485026,  4.240268661761440
 3.323554098287892, 12.676629812081568, 60.211235219867817,  4.052596131656755
 1.971449345096897, 17.228015038038926, 35.934370210967892,  3.923432373825614
15.467645221812662,  0.157251435903815, 89.135430838409690,  4.167478113806217
12.869885781348193,  7.611886455007097, 108.131746943560216,  3.648019297033268
12.229644809040609,  4.110073854211735, 98.348097870927489,  3.944985404952400
 2.135472447604660, 13.984366367772973, 93.365070407653931,  3.860036563474448
12.693265964757012, 12.260180361055795, 64.983921394021749,  4.181403738976866
 1.579878318515664,  3.771356281719697,  5.628825232335267,  4.087634215155513
11.219470560088025,  1.680430066959429, 59.541686777384491,  3.930078554473733
15.029521563801268, 14.550015999303515, 24.831231869920252,  3.968729839407488
 8.432016245259607,  8.164129032202069, 26.815665487360267,  3.730191038635453
 8.953923852838113, 10.491282589224591, 77.670575357049941,  3.544682477740708
11.357684770221299,  1.003056843005132, 80.796183419293214,  3.980384500603104
16.326326241162203, 14.505522429048273,  8.233459943517348,  4.201051952516520
 6.084225150651901,  1.599016630162996, 39.357246705582540,  3.914095483833150
 2.135005764519314,  6.909737037189633, 26.609059026202214,  3.802536948591984
 3.223940463690794,  8.175905661357907, 74.832349197069377,  3.869139556170928
 0.789138985413863, 15.145085213628292, 18.505727844385955,  3.998042952801289
 2.136399827290167, 18.376174710554960, 68.889343927696487,  3.803566695082214
 5.733660476329777, 17.799208887690416, 65.181172816434668,  4.297018994387230
 7.731899930831501, 16.976066745675130, 91.671301697541750,  4.144318009470763
 5.324341945328195, 13.885126907191204, 91.299548450816275,  3.721630462087501
 9.825996657634931, 17.008664553409115,  5.060015432382607,  4.062428335761165
12.902609372981065,  9.926302576952468, 48.739884938639101,  3.991058769501495
17.704724979063226, 15.034645570910955, 99.357385787526752,  4.165749535781778
11.470909312778081,  9.241941905265470, 32.791776312173091,  3.777310329615655
15.303374140559328, 13.344907628980083, 82.354796812718149,  4.191677862386396
14.158130518697712, 14.900230662089500, 34.256426008718158,  4.064804037915681
 4.018544047826059, 13.109210312655064, 19.226043044732783,  3.732967144005848
15.751536568544250, 16.424094732001684,  4.465336803594230,  4.212913688200346
18.427956474942775,  6.042231073989718, 46.815618216803720,  3.894787922618662
 7.513951813969433, 11.472474948975592, 67.054965525764530,  3.645106644668699
 8.337042817148008, 16.321463154824873, 96.813311322406122,  4.080693222231691
 9.643887500856019, 12.070991760592134, 25.523781210846966,  3.927060215424877
 1.586187848578258, 12.422594142866309, 34.535291756348045,  3.845647684694302
 8.547090101120599, 10.327132372804474, 98.741314927845764,  3.847925964250146
 2.821137341734592,  0.467314147858088, 27.998176730802836,  4.061339245916984
14.066503582258603,  3.297704026028057, 75.192648162955535,  4.167663128899044
18.605729873704874,  2.263577736979500, 36.357535455890968,  4.012223297400070
10.070379635682308,  4.377482129624984, 70.247218657067251,  3.822087181557654
 8.989588503008427, 15.893309826779692, 76.542779480536382,  3.711845445882762
 4.156107307471868,  8.211631558002150,  9.190770500610567,  3.918913345815241
 7.319350747239895,  9.347220850992100, 31.992259893683279,  3.939424308551823
 4.315400449170072,  9.886130291403079, 38.595421388352527,  4.129574974239779
 8.369068597176902, 10.737293773419628, 111.939772627836348,  4.031791773159022
 8.056685569524650,  2.895276955557983,  0.997503351389697,  4.000474514023495
11.804027301172889, 16.042468368067951, 116.318261460619368,  3.882691400173383
 5.075596088133733, 11.586625739250414, 78.045242121458600,  4.436510884755404
 3.811500164691434,  6.338353262922563, 113.708234951701002,  3.557527873727785
 3.378001460022109, 13.899994998978018, 37.906245715591730,  4.218486838136149
13.463439635847951,  3.746423179458086,  8.976463196805037,  3.860374816177435
 5.490773718490440,  3.005263424386399, 56.307741802786445,  4.218287241945637
 6.129863246690677, 18.921981507533843, 98.868383680099484,  3.854923364604846
 1.236142569935821,  5.438181229587781, 42.682621837266218,  4.230837988168937
 0.247598931139938,  9.470812552832449, 87.147001772558411,  4.073915571562732
 1.205501548850550,  0.053451539518288, 42.469319096890203,  3.762734378644487
14.235080197783889, 11.380610932627702, 10.701502961217821,  4.117876554124507
 0.304528944392876,  6.675517192005503, 70.590587992115104,  3.905764355395831
 2.337589480925432, 12.357759506115006, 29.516991976073111,  4.345689256529834
 4.748809648574055, 15.148044285294777, 80.640820344939357,  4.284698149710430
 4.057698301779715,  5.449621955402153, 53.506550962067841,  3.715750991758447
10.656878519170348,  3.288916339696577, 113.679977591638490,  3.848167447665118
 3.718876353605746, 15.438946959052672, 84.787858694900748,  4.178981772263908
 4.473723918160465,  4.788369409395931, 28.692389176714155,  3.742965290689430
 6.474071253255837, 10.958000906593911, 106.361100369407083,  3.804758956586971
 1.467262730725478,  3.369931438530712, 59.681067463440669,  3.912164988834145
 9.570135833484571, 17.642249941205442, 42.126482813973311,  3.487279643142597
 1.092037606904533,  5.867774189516110, 12.078473560031615,  3.958126125028160
 7.464492943777515, 16.616166957027538, 39.068528952380710,  4.199344092924275
12.103174654937547,  6.252281694715797, 89.421573739088643,  4.192924505972130
15.161602619545242, 13.763959370285589, 46.700778841228527,  3.965775763632123
13.428743638254119, 10.555271059823603, 56.038097516125362,  3.942651299744395
11.333113373480661, 14.234286162468939, 102.333482047898315,  3.895080245886018
12.183197311821770,  2.554402539180384, 22.931750888281172,  3.882524507500991
16.847329581752966, 17.736242310557678, 116.166086652511510,  3.999738941392915
16.591416229312639, 12.110006866373562, 21.754478312256158,  4.446778613537845
 8.678750093753326, 11.739921220298118, 14.800387137801017,  3.884068383089661
11.610914746741990,  5.223703478384652, 15.750585445248536,  3.876758549792232
13.160397274229814,  5.909383968024470, 85.422813807224131,  3.826911956491064
16.756647811221178,  1.270465325779720, 111.721615572641397,  4.281979331795194
13.548419680666381,  8.710487803440492, 29.268965899061637,  4.468124730401720
 7.530311851337691, 16.990670083294340, 108.805955858000445,  3.734747968975718
14.336188180629513,  7.826062607254989,  3.540904163555199,  4.021429429400288
 9.352766427147852, 15.784657853262825, 64.935748391203703,  3.995172315431082
 6.088393997278715,  5.524583076739359,  7.146808900106397,  3.839253056622042
 4.039994751917312, 17.406934949078291,  9.519256533168400,  4.299942852466519
11.340285964309603, 17.977669211913927, 73.648194429239737,  4.204538228513011
 4.272258723749036,  3.858015184654361, 118.405881300843205,  4.145172541297800
 7.115051435827084,  9.411170890617791,  6.634396848105287,  4.212734350969390
16.578090429712056,  9.950476887511771, 46.915150971448391,  4.153537257658046
 5.889836138082837, 12.149918207494661, 70.926455570063837,  4.173190971094698
18.310922692375328, 15.986033030134516, 95.387081072701960,  4.083565797103555
 6.117756538010543, 11.858657396499421, 52.044883373906906,  4.326477545905062
14.403678116449344,  7.860282955113033, 104.560751552640667,  4.023362929675118
 3.252252751430754, 14.860187448800641, 26.079068562818343,  4.179104768385188
18.671767931449100, 10.358613313623181, 67.923594282583025,  4.053747789449744
 6.257094112031228,  2.643176938016831, 63.462639424857173,  4.128338421921879
 1.678697780573704,  3.039288468225274, 80.313068625934264,  4.135932935902800
 7.808866339464782,  7.684898280603760, 14.467515821202372,  4.254098655154119
 5.355819592073966,  9.812348747166123, 114.491030607697013,  4.060433292991381
14.096906531498695,  9.082273332899479, 43.802271317238791,  3.954313289787972
 6.620362506288716, 13.376626054860740, 31.839170871421992,  4.155323593735781
16.862762780822354, 11.008642524968156, 118.209306270144040,  4.299762908767170
18.415199408722497,  6.471295901870143, 80.746675833114509,  4.073554761732637
18.332859995063238, 10.861751269065884,  8.068752348891392,  4.071093954634365
 9.757756049977463, 15.222552725328422, 15.162923402098020,  3.441569004367770
 5.691447668158421,  8.633131436836113, 54.581525897292252,  3.713659917066894
15.379461386643642, 17.823141846762802, 31.801940443467100,  3.785134881915279
10.320363798932421,  6.112058819567641, 59.517881281412826,  3.889847365595210
 5.041612530114076, 12.519000731816877, 23.137824925779213,  4.129654572881129
 2.475501000407577,  9.118591634188702, 80.262983523114798,  3.988009671230644
10.658890928871529,  7.522320519854767, 46.581082061169198,  3.822697023289601
15.958926025793916, 11.407741035897173, 75.803161863087368,  4.136523693107437
16.297693166656575, 11.542863341922567, 14.423327277328477,  3.980909509243274
 5.282592156533539, 11.691321230722039, 35.201171435518589,  3.719576472257263
18.878445043893766, 17.320755478756549, 109.476968209073590,  4.147510471241098
18.115374209912659, 12.607964870271207, 89.477403524637054,  4.008323697861090
 7.113847376793728, 12.722398889319162, 38.376695248632167,  3.668559466638362
 0.406722825883960,  6.885540361022965,  8.127350151494507,  4.145649418821947
 8.528140406257092, 13.295336685743376, 93.568165761614580,  4.167016730132470
 4.573302234240855,  0.641514991281319, 59.813218566245375,  4.345193374624141
 9.474593746374262,  0.885127425480566, 65.637226969070866,  4.253529884851417
11.063788573788679,  8.989284784772344, 16.948078197413007,  3.968251846274535
 2.942125139037091,  8.076903969817666, 93.315910939273934,  4.097162085270689
 5.392160693560683, 11.656100216531607, 100.933527865985084,  4.048078650000893
 8.990611167754693, 10.871323414285914, 35.173386368648963,  3.832643695871292
 0.214944345463883,  5.320086863306563, 54.392321453717571,  4.022569669339668
14.430037446409022,  4.770167933396849, 37.066018432273722,  3.787843660499858
 8.994788164487810, 18.824670360825554, 115.359490309550907,  4.246320069444809
12.949193811247374,  7.495257820481714, 51.805645330799145,  3.796648023481099
11.654140306470504,  8.086416629833092, 79.729255972871755,  4.104579930317788
18.025370025922690, 17.832826577883061, 105.611675455480352,  3.798723027878191
12.532909009779674,  4.435952462468871,  5.124063011638122,  4.090065045823986
13.664894902911072, 17.204701929783557, 15.673277187845617,  4.032522773551147
 4.376229376436948,  2.538026650273891, 17.831590113533366,  4.118110116688304
17.882932641161350,  0.089562992533580, 53.448504579016202,  4.070275885051286
16.596619614473603,  2.591462375588310, 60.272188054765408,  4.004074955757167
 2.108358286534930,  9.372178113187543, 101.450160239163736,  3.926633669521456
 5.142649942722378, 11.888935737119432,  3.537561883926563,  4.250341357846286
 8.386055648619148, 13.944298887632645, 99.914029836301196,  3.710485511447694
13.695088515771920, 14.388457688237747, 50.432728983856300,  4.038773945733040
 6.592640884390183,  8.196000675762166, 65.548991089554761,  3.649379289557735
 4.650483683417337,  0.142930157464033, 13.320002986177103,  4.106417557411366
 3.868478617467316, 15.683440385469902, 71.868558133649898,  4.179422937050434
13.854402552895346, 18.382660733637472,  0.189046792670428,  4.008420219610023
11.515110890038423,  2.407882091801912, 117.456707775468303,  4.021415955068870
 6.854412643069525,  3.743791071408590, 76.222685436964852,  4.220016466130994
 6.048388368338711,  1.792196851929346, 91.632589647271502,  4.022631167295341
13.585269294764364,  0.892522520072622, 100.178498924544527,  3.916150804919854
12.147253597938926, 11.308409454295193,  3.346601011247089,  4.197636355748041
 1.676920486340830, 12.534511868414830, 70.585107770017970,  3.860391607686132
 9.820615576882080, 14.599221382583067, 36.295533939165871,  4.117060205775392
18.798851946373308,  1.713625567822211, 66.690868259430900,  3.952955521565109
 8.894034243290069,  0.880790531744709, 94.579375798923095,  4.338739128655409
16.287641012254657, 16.004276338102791, 42.183890022001982,  4.256927939525359
12.446546312259839, 16.116736227094098, 30.001957381593900,  3.894745634568205
17.632829546564661, 15.195429671719825, 74.898532752674512,  4.303253388897667
 4.744114348042803,  5.377619886125032, 39.895205701016693,  4.005381515374697
 5.695622369943176, 18.759417609410065, 77.146155886768057,  3.998421060952066
 3.160073378123697,  4.199226956757609,  9.233352467473084,  3.821705926918598
16.145421825367936,  7.781678743975442, 61.962393258454981,  4.120818374504239
 4.034128957176909,  4.083023389530386, 14.089123896791138,  3.993209610794624
17.867184448313996,  8.163005888812588, 106.551460420768052,  3.977103666792773
 7.942077416879929,  7.695892346385533, 80.867115840963280,  3.698851220000105
18.737234028616928, 12.930055639594116, 56.162001122531592,  4.104109312038401
 1.317124870026745, 12.623538907855727, 51.894083937412660,  4.206352732677352
13.058552592403689, 15.984425970070454, 63.384891538275390,  3.946753796825679
14.639215232789011,  9.871825213562230, 18.736844592654467,  4.008234702215117
 2.320386246054444, 16.339486727180280,  3.432480296128837,  3.899125829054208
16.209057728526890,  5.070433580482508, 43.636919120579691,  3.975557231629756
11.519148920461326, 16.280512204490865, 25.944438276422456,  4.150406117458939
17.773568033513481,  3.355987731294646, 83.277375804656330,  3.996389770544934
 4.986399383009084, 12.093944260964825, 15.726212696428000,  3.759375857153831
 0.336899164676695,  1.258092376088430, 48.656949067494210,  4.133827486121208
 4.885330360450695, 15.606835079255816, 100.532687631942480,  3.952344905811055
10.703926945577390,  3.643162585158756, 19.355398676939938,  4.136854970168136
 1.632775866166200,  5.024799873336994, 33.910811802671354,  3.680703748898483
 4.309851740807310, 15.630110662587819, 46.716438160616470,  4.202935282348646
13.284267219879901, 18.059451821232138, 85.765335015733910,  4.054763102805159
11.417192842084916, 18.558486260123114, 90.410973850410556,  4.258064180891441
12.463656848998523, 10.381662791888562, 102.193814206698917,  3.834750530318883
12.012073507392943, 18.164700947709832, 35.744045395209262,  4.283368592678907
12.219697762341687, 14.467492497685196, 112.521596540421314,  4.369753478974355
18.198069293759264, 10.886494633806672, 98.970510420787406,  4.197398020718270
 8.647483063190199,  9.248958857392289,  2.872797475755552,  3.896895879260257
 3.272870786656743, 15.965562075013548, 117.104175458604203,  3.851955733981701
 9.533597173628694,  3.416473080049919, 90.971035690891782,  3.748513121555874
17.019777446473572,  2.682285161429058, 56.312573926202241,  3.799596992939394
16.118151634986098, 12.437129613797847,  3.539457031311041,  3.977819160027950
 9.305292751561236, 17.393837150662971,  0.625743404999990,  3.935910138367475
 2.061982146297413,  0.029321544876893, 83.273337068491230,  4.114107564512348
12.396259606132409,  9.502889932798350, 98.356776252402682,  4.031358730908163
 8.911117719055577,  2.783009426511855, 105.304660586847490,  4.166358685788608
11.707731799833986, 15.691479505468768, 79.305936443247688,  4.027159286605685
 8.047945818215567,  2.687630784171262, 32.814659007789032,  3.975200649397950
 1.467547580791428, 10.929306358657067, 20.957078496136713,  3.724801327791978
13.306949835019525, 18.551207889842317, 77.115265564049253,  3.839717949336206
15.643447615059971,  5.124909257758747, 109.238204472974957,  4.098525297037358
 0.704434178177609,  2.394769023437113, 104.215464763009606,  3.941074790116045
 9.836498332333619, 10.669173589332573, 29.313418228074454,  3.866315326185087
18.817743025027639,  8.992518659688445, 23.834029260365462,  3.879540656458617
10.701547701834942,  2.964878825706732, 101.772819581660571,  3.706164755816029
17.568326057805422, 11.342093398282957, 113.685947901342303,  3.890811106812741
 2.484208522736782, 12.467214604979935, 45.062185940260768,  3.666506423262963
17.802240707736896,  0.254648129594792, 80.857059778023611,  3.865533638641267
17.989086549481797,  6.870776832975965, 94.766826384464579,  3.852408846393431
18.746932721287550, 12.561775797262126, 25.158495706923262,  3.658881690005364
 6.671226742910626, 14.847581845518802, 12.867472596813275,  4.208467059118003
17.831758053884599, 14.612298447496780, 32.300259920627759,  4.274045160671897
16.641812828935375,  7.436766381561952, 50.247029962551018,  4.190644793275684
 1.911382975455733, 13.286511811938773, 101.109385943056211,  3.625734647402442
15.880918452144693, 14.991132587088718,  0.512497766792041,  3.880510203612350
10.807401556702223, 10.368337475392188, 90.339908447790037,  4.263604003666009
 9.822236604226891,  6.847660913902677, 30.201471890211504,  3.979796504244344
10.688509616226373, 13.614217947672559, 11.777801530356593,  4.254301138966197
18.017260832963924, 12.920520013733736, 11.353363684372537,  3.567742728114138
 3.668589938766215, 17.497881003263672, 90.778399381433388,  4.230479203200809
 2.984222339115078, 16.108901167156390, 57.962558998098878,  4.165929362497972
 2.190741397798118,  1.751190685681292, 63.331842901740401,  4.193464136468631
17.968801186022365,  2.632818140150141, 91.248179022519111,  4.015732691547778
 8.843080706629086,  1.969112899566355,  5.858997329575419,  3.926245218604980
 9.832353413462110,  8.257605615847629, 114.847657552471219,  4.109274344931761
 7.486131072368775, 18.027662395632234, 15.858539173997650,  3.801260492366893
15.328592310609702,  1.670477971828892,  3.214029114644479,  4.044449483337635
17.736630498809411, 12.428193622789619, 43.811860639831998,  4.118210522397298
12.969137171539005,  2.431723960899095, 110.680942292879180,  3.906579195705393
 9.955929161888061, 10.335042145634887, 38.826944393909748,  3.794158418464190
11.131036528450451,  4.433511494566570, 94.511289575394713,  4.056048873105579
16.877748976405172, 12.757793782273961, 40.028158726722282,  3.584536919463767
 3.868555858240162, 11.924159952376517,  7.707429093150782,  4.072264565641053
14.563155584537984,  9.636723215267468, 91.628803288781825,  3.792015386890121
11.433628138080422,  0.446581551459813, 107.569763676396207,  4.048326859456045
 9.332808742494988,  7.167887854691215, 76.233707998174836,  3.723181513031885
 7.191693783122653,  8.515032990823981, 40.779257780746896,  3.563690472907855
12.144140026694838, 10.642227310968018, 110.451432797754023,  4.049905706155267
 8.115391352273438, 18.908979755289188, 57.375837127718107,  4.092548470014234
16.395665342291331, 17.917371769255862, 46.139410787677235,  4.410245216295440
 0.036968159716324, 11.244341484371310, 61.539000187370327,  3.563074601981831
16.504991119738669, 17.065803404800423, 67.123520512255681,  4.022136626123406
17.007388636674669,  6.243449999212116, 30.457646137028494,  4.221647841788384
 7.339913970445327,  0.600601970778293, 73.477332730948461,  4.037637201048783
 0.333896056930263,  6.992157584332408, 110.149476631964845,  4.107786297487716
 3.055872417314895,  4.029238985054161, 93.192162486583825,  3.994903717126573
11.464119180270409, 17.441299264439788, 51.986349963696760,  4.032425561152677
 6.115991654102921, 12.170718613881247, 27.578338263090284,  4.141707355270386
 0.085363972089177, 14.514810742477511, 115.400498045900363,  3.893525329161820
18.537382609916065,  7.589117200152498, 19.641685703512103,  4.370248209733346
11.613574940536848,  6.919793402135314, 72.948467477008279,  4.212552560537433
17.690105054643389, 12.391665323829102, 79.257498763390899,  3.802912436854788
 6.321498664241836,  3.135650267656660, 70.472724266626599,  4.083902598660885
15.719959869357039,  8.757915716405076, 111.224826892617543,  4.136204049574506
13.322848585604600,  2.062124167191836, 71.104950992575041,  4.241859793176276
16.598066744182656, 10.951886108893964, 64.475115989017169,  3.994894116270734
14.115069420238832,  6.691165731319231, 40.530586944862733,  4.098538252623409
 5.834247987556348, 10.688420274245081, 12.033693925841053,  4.301189971065286
 0.272297520916993, 18.673485397798810, 32.132741110305076,  4.152026904635323
14.628128493163400, 12.970459620987285, 61.408565549541180,  3.886797339459816
 9.561389773909402,  0.721525606118185, 76.903376460253867,  3.958427449832569
16.851999489339509,  9.134526063758424, 54.165486270648223,  4.316888625784303
14.676179942625685, 12.139392200949596, 31.422493503830594,  3.906001329884365
10.062424181474357,  3.794841921542704, 62.688431835307021,  3.938512361383331
 7.759106703232567,  0.975959375596673, 19.147646024465239,  3.760370586291355
11.622825836812767, 14.252937298969126, 71.380561495073408,  4.170310672764695
 1.808246953235026,  4.011621597329944, 20.753700075060333,  4.132985548965593
12.471672456739828,  9.153609231493336, 76.085646924957786,  3.661762489123133
18.559626380027407, 16.358932034928674, 91.228750325550862,  4.268551066952034
13.010815942027214,  0.511949890855659,  6.512532861259489,  4.278758116089122
 2.929229186248961,  2.569597757058058, 76.466142428029968,  3.959844167845287
 1.151563933029013,  1.913806546736744, 12.359796366918308,  3.965328335018884
 1.241321619399009, 12.145409138029624, 14.754607848333370,  3.946672930388353
 1.012053515560626, 14.915171257542038, 40.967745832004091,  3.768928926210439
 8.393465977559309, 18.338444178124416, 61.646356883432283,  4.485172910700093
15.745220036852883,  3.904056739926582, 68.224719195966543,  4.104423854995062
 2.298422519166021, 17.678542288972999, 75.173876820943633,  4.134982683168228
16.160779542493700,  3.956306716119791, 87.089927931143151,  4.071363045994844
16.254001647371627,  8.422926790783366, 37.331119416159375,  4.325135582842285
13.313568594804341,  2.920377199497486, 41.009191489521854,  3.623590237268096
 8.196365070519118,  5.896359616546260, 111.960955850732148,  4.023598621996347
12.010004736374087,  7.853318686842045, 36.466581817634832,  4.108887315540786
16.614460312538373,  0.527899747702093, 13.964250686064700,  4.172889941521754
18.831760226353236,  0.228655277602356,  4.621121514557774,  4.009267635842883
 1.663258025638517,  6.083929955164634,  2.095682812926122,  4.006667365756699
 4.210546810487096,  2.693959779711057, 114.593142904032831,  3.822156556732492
15.325398544187474, 14.357123546865060, 18.222218726201703,  4.284144329682500
 2.809094549657177, 18.734700959132866, 106.788271065714099,  4.244576701306678
11.817440002861931, 16.435313295042249, 99.034141067582610,  4.056830817829269
 3.674474530074118,  6.021398874511959, 68.607211355062205,  3.958301142358088
 8.094461063231325,  0.986708593296600, 88.024398534350908,  4.344156597027546
16.982897190541721,  5.687937972648357, 34.429452310267145,  3.719326644873016
 1.275627826152137, 17.295140027095179, 65.285860491501424,  3.899071296700181
15.132478812427028,  7.807193286423002, 22.407337817700750,  4.308890875608101
 4.989967341318886, 16.471711499805917, 22.251246858255623,  3.894774124690771
11.074335532406984,  8.176817655646420,  5.939651961952017,  4.089150344605545
14.059265954032359, 16.870058508708887, 105.934376404703698,  3.831412398084259
15.895872552053595, 18.598685940932601,  9.745495142204481,  4.564190763405792
 3.766555195821100, 10.315422444929071, 67.245084115706121,  4.172299973912906
17.014270440844793,  3.742158460013301, 10.663319977115229,  3.973886912940284
14.407751039198908, 17.384802610962204, 81.884452123026946,  4.121177697342548
 8.886443987994728, 13.355985293387576, 108.821714876700995,  3.986703032139780
15.078123010124811,  1.001353111215210, 38.113546929661865,  4.129462275438204
13.400338481859304,  4.457296729603680, 29.341011536142055,  4.025777281127160
 5.610898022145632,  5.304026836678783, 21.243534016766247,  3.830977936396097
15.568641581811425,  9.235964213083349, 80.028031474494981,  3.941125499162684
 6.869603349062981,  3.087156282082514, 83.658247561344609,  3.990543181459114
 5.360932702561370,  7.641033166736866, 24.448258513675832,  4.072761433070382
11.690886275755769,  1.043395534198664, 31.904120786635559,  4.218732398353254
 5.784038510524260,  7.435101759253971, 77.708050577291303,  3.965149668583652
 7.483755819405518,  3.525080937456636, 59.796754719386136,  3.798562221401763
14.586486092018083,  7.883357047522274, 15.159531779362103,  4.177510004636005
 2.873230451891397, 10.584154650148706, 25.856540285216163,  3.814850707611021
 2.058049349106998,  2.369485189456875, 52.230714684447818,  4.046717403331559
 1.096168806145994, 12.635306765399189,  4.683109859077158,  4.247763687697167
15.849393677970300,  5.436131886519997, 98.119615755570322,  3.773461885887935
18.813790942482267,  3.315698342855808, 96.441461772673421,  4.171766402004497
10.995143056033836,  3.304458779471279, 35.656178802546876,  4.185376005486076
12.575591278188107, 10.633749623028768, 68.801197242452048,  3.990032338558917
 2.587576952643509,  9.701418772412458, 17.523182591215811,  3.877550190555690
 0.381222474805044, 18.465557480713223, 60.266369762384720,  4.219369467596757
 0.243058040191889, 14.275660368379985, 67.506156492114627,  3.771321778759356
 5.435183685435209, 15.423465887808741,  5.976639819771812,  4.274268976777331
13.308651605643860, 10.789997389645796, 72.728447263428251,  3.985165964707829
 1.705736195752889, 16.140885608283099, 54.046244375317556,  4.060248770621657
 7.463295094378243, 13.224019101063183,  9.131872845706180,  4.060764069692510
12.953995083688550,  6.580051322306871, 69.212688285441232,  3.713000416956055
 2.670284540005126,  2.233066293249768, 89.821374597050379,  3.672476815470408
 8.106067073171983, 17.193554652153828,  8.725957446467925,  3.991227395152721
16.487237312916751, 12.864737326385368, 71.580331541099113,  3.938722447853531
 8.097606630702156,  2.217734198493250, 12.788042437042622,  3.999494684103730
 8.788168837834313, 12.913955468258861,  1.088082744226638,  4.205184817539494
 9.844994728669134, 16.394420682143146, 86.869662608795451,  3.870879387051002
 7.938454553624668, 15.592860259500490, 72.769514633555730,  4.121318541142751
17.332933353785577,  4.165954712382021, 39.779608123442763,  4.209662021793110
11.195030614993048, 14.394423271041957, 40.292023518431954,  4.329247054125066
10.523095704593693,  4.861163486298904, 82.350026801273017,  4.451143210291156
10.317856254250897,  5.428067120803936, 12.097439596229346,  3.879422575432034
11.821327439631725,  6.583646558569696, 55.282133835814889,  3.724799171127991
 8.789943832451010,  5.465696928384126,  3.991931636184031,  3.941785956523445
13.399165728808937,  0.270696707546689, 114.263698944191717,  4.358275137744240
 1.003265662259439,  8.589899807837430, 35.039979578671797,  3.901006223241067
12.921702519227695,  5.752281236172944, 115.755557167663412,  3.992024296656878
 3.220162148376201,  8.424940250252499,  5.184421516709713,  4.318401824163540
 3.543659858847401, 10.023253152696190, 32.480520922050864,  3.544326368922654
15.723368594875746,  5.827250216025861, 91.756702265788491,  3.840771978885698
 3.049765654250443,  0.863229894862375,  2.082105542742984,  3.626264928525898
 7.693506132432830,  8.878138344482476, 44.478939262938141,  3.931867114538090
 8.275258805592367,  2.758023728296650, 22.557698952124252,  3.976384998340396
 2.090292737827649, 10.241470769461881, 112.055238136833978,  4.109512872340296
18.169138048845880,  3.703124045669828, 77.212769785233746,  3.839743139412980
 9.094876080009632,  6.617947129606750, 23.133963900213082,  3.984034948687805
 5.550464255978786,  7.064163958518326,  1.960271274731046,  3.895396248512753
12.661920299897407, 14.233183243499589,  6.273417276807712,  4.123659220865980
 3.359054771191081,  1.188430009183401, 111.056938395895415,  3.916936498777243
 6.870002647790058,  9.878215667903980, 74.360413594577409,  4.214809701064294
 9.464883168193751,  6.165465138408135, 50.276954082995438,  4.255051795489672
17.050595162649635, 16.469645565959265, 21.475189006381932,  4.196142473292736
11.768511219205404, 16.663605071765115, 59.487928819007394,  4.105459259522339
12.541848516391957, 15.613288359834254, 67.511157980000135,  4.209151132168929
10.972259480138622,  6.822546402710921, 101.049348864788215,  4.000648922178587
 4.881371625392758,  1.306756444427417, 95.477163836798610,  3.857803601938428
 1.100754909612739,  8.845865844247044, 64.370566276035149,  4.121544348542775
 3.889726405604999, 16.299588753516378, 110.111382225648569,  4.073032417196308
14.509610101765324, 10.405599855530152,  6.676259629367742,  4.101623265490888
12.600414574970010, 12.746139525965868, 93.258816141043638,  4.064309342294570
 5.048460543941575,  6.574120826319045, 17.544466338707725,  4.056763623139126
17.197554999563359,  3.501695858658080, 51.352960852412231,  4.051979923050641
 1.099947346096521,  7.239441113874920, 38.866560986185618,  4.213056735367657
13.228416725764745,  2.997128982061590, 91.439610236061668,  3.726223513442219
10.165961389638177,  2.260167807500997, 42.727178977897303,  3.637057320239708
 0.756818142146853, 13.840057572927510,  0.728889831759992,  4.044574816131626
 0.920065710800586,  3.851806203880089, 112.754520456004784,  4.061767284683609
14.858696420358800,  2.612772422259633, 79.328167654406116,  4.257426364538716
 2.551767195480429, 14.344547273691603, 88.525551441806911,  3.828444864168086
16.580270809146338,  2.648987035732262,  6.857398969129656,  3.871965054943946
16.568228933123596,  4.446332805159146, 105.437848281061889,  3.832472614705270
 7.090311608093568,  3.895735222129567, 98.579799467474771,  4.250581830515132
13.066049607234033,  0.170445124690465, 96.234381868518611,  4.069427149182779
 1.298943141623375,  0.348734045882192, 93.827767736640808,  4.253807419174708
15.489688036611549,  7.697062984475535, 74.234902253173303,  3.970673087346099
 3.775374925972917, 12.221669768532561, 48.749893478584582,  3.772268320677020
 2.337037038147889, 18.700657310921976, 24.003114638106315,  3.739809661766536
 2.830696871141769, 10.735068284403866, 90.181000525078758,  4.125498582473979
11.969655612402461,  4.248132905856906, 66.202991905979729,  4.096256551581592
 3.665087070718462,  3.885673221455002, 24.507044063976515,  4.153357054428380
 7.698477809565763,  6.912265194198573, 62.221010786799773,  3.809462736787304
 9.355739332839079, 12.508747929390655, 87.025187090921321,  3.952523128963490
12.874117561544363,  0.716083136634918, 28.073425546366000,  3.799908247272356
18.561912333532348,  4.913023429194498, 24.191922897852919,  4.238809453283221
 5.372901990963943,  7.892826040083581, 50.712603605837842,  4.151964703564015
 8.776394339398861, 17.439459789209874, 101.429141291914704,  3.935569610382686
 6.387120343955738, 13.430476535607301, 63.081926668299985,  4.366885653347138
14.421535272567178,  6.502600233680949, 46.877153900759851,  3.959771677957839
12.675508441348310,  7.594005733543022,  9.704489822172699,  4.061722467176475
 4.635811020649530,  2.826160352183440, 104.717302260446161,  3.977752969701325
18.380031414047380,  8.734370055775431, 91.263224552984425,  4.080670180275474
 3.014746998344024, 15.502413075658303, 32.355919985019689,  4.218954596764889
15.237821010686872,  5.380810365291842, 54.209444439905532,  3.818921866195971
 0.601170036201158, 13.928752728839571, 111.541080032899487,  3.903148738603399
 9.386991360244567, 12.331427076238858, 115.574404718627022,  4.129073953463854
10.843182110904181,  1.205558992786342, 15.644901933126789,  4.161099491406629
 9.086319676948673,  6.507813806211145, 34.075467917188568,  3.909105530284501
13.222798089194781,  5.744681997764963, 33.180943105268163,  4.066776516556085
 0.628778256321995, 17.414420217614342, 87.544217751307073,  3.669897424332063
17.205851436068240,  4.503425082070019, 14.562808450348614,  3.935875778765250
 6.791681558733238, 18.874182700395938,  3.270752983307498,  3.862962862170808
 6.266382934212351,  5.802297360429729, 107.130564367530582,  4.339092811125093
 7.369177872398076,  9.130554476476190, 117.817281945738245,  3.786967467821528
 0.741060730252522, 16.141784002590008, 28.989283441462504,  3.924530751369316
17.888928046323809,  6.066378172073187, 58.148069697799023,  4.062035528802177
 0.694068867516304,  9.006293971732671, 44.535971909671495,  3.835258752573247
 9.240300474334765, 10.366105877701449, 63.770715150319802,  4.049401919946312
12.001921653327710,  8.721710471581572, 25.167954409454332,  4.208417861169917
 1.573116898291309, 14.551060629915485, 22.394019953686271,  3.943603669395421
 9.127346136140673, 14.428785383667922, 28.892438143214275,  3.831630945326217
 3.776183361331264,  4.975363255146169, 110.257458896626929,  3.805718587832345
 9.541790069945392,  9.376706829087659, 53.215063681004189,  4.444568761299029
 7.014361051171514,  8.266487712364992, 69.503830112807165,  4.265291188527999
 1.823933432556321, 13.640123786298533, 107.840512497758070,  3.868719164755011
13.604329029413220,  4.697762110091616,  1.288304692761135,  3.810997774540743
 5.474990944843585, 18.655403813249002, 32.748041976854537,  3.815556546141149
13.944619980771293,  2.488019324249386, 83.515758022307736,  3.812014933181464
14.533131459340503,  6.313328600357479, 77.734650037636712,  3.744132246979027
 7.571962335384460,  5.597781602170885, 102.726112430403347,  3.919591928610151
17.834378464083670, 18.805868275363675, 76.972217122116675,  3.940800855832510
14.197521826660735,  5.825351639277906, 18.766293445489140,  4.124243691378906
15.896152373562328, 17.684909628633584, 50.268772942496085,  3.892508764035436
16.389857392810924, 16.125494547273355, 112.502608722686318,  4.040787130760103
14.751987527128293, 17.435952107773595, 54.954503595253783,  3.535703796669964
10.703346597480344,  3.604919980408257, 47.137733547137046,  4.064789077767587
10.808614334175660, 13.058612828077615, 57.778878647999868,  4.093354741697810
 6.286584459594594,  1.560453061547761, 29.500930147524244,  3.791145186175013
11.636620057103926,  0.400527227392651, 55.553294275105962,  3.888391569839758
13.238212707714634,  1.584565460248510, 44.802989460842518,  3.871100090639945
 0.183049682681851,  5.239701558181993, 62.851183894534145,  3.881755936591483
 2.883127814423785,  0.259147176796429, 45.823874914020173,  3.733642212268076
 5.078889563729994, 12.318246423002950, 109.991301312808901,  4.237431052774974
 6.144224465289549, 12.177946479774990, 45.739232207621775,  3.780119328530336
12.705615061887507, 14.073902286442365, 85.453060519445444,  4.020345432076178
 9.924637272037032,  1.310116141882893, 25.784224312107977,  3.722996850995996
10.360529520193969, 18.199611912939300, 111.387496641896817,  4.231416489206253
10.282230175118999,  5.277422800681635, 39.385010017231210,  4.371312606495350
 9.017556024928318,  0.892474073504653, 49.709379890832366,  4.084501840047229
12.349850650005369, 15.354933998584224,  2.385384830229742,  3.979214368941060
14.588131100641064, 15.205943934005587, 12.232043175298349,  4.120425960163431
 0.665363796685964,  5.573059980115809, 88.797130989439793,  4.315988394118043
 7.606315803920505,  6.082247735034273, 72.948499214849832,  3.957901613170633
 5.944072115109848,  3.690428045335610, 50.398003769891666,  4.333259307244615
15.491455693979994,  6.495178471148071,  7.119993773041798,  3.892278424778205
 7.733550836954180,  5.666049734529995, 53.844838304889123,  3.568305785231114
 7.169447122819069,  4.250734946287121, 36.654475762681372,  3.943268896184196
 9.930862226142077, 12.610544817931464, 74.769240078894398,  3.901864344685321
18.640879684369683, 18.217999723705571, 38.988320141277960,  3.976062378886532
 2.066371392211203,  7.702028419629458, 83.989473037425228,  4.023967948998965
 3.623465291291456,  7.998420846092508, 14.134180660365386,  3.830263463462838
13.780206071833495,  3.903536297492425, 12.849294349674683,  3.796502751963732
15.167786743289588, 13.830314968267420, 115.471010838643764,  3.824391096110835
 0.767239640179911,  3.839819487508870, 28.533044059723924,  3.887057489736146
 9.214255612418089,  7.055625089324049, 92.179125745014858,  3.935800221732250
 1.961465692884512, 10.070089738522771,  1.549404147312872,  4.000485397633235
 2.270735967110229, 12.927739353324696, 64.278853170570414,  4.255767155898782
 3.321194692865093,  9.076795824756259, 71.042845828708224,  3.836832298888919
 9.048346781174132, 16.960334998022681, 32.917418930571252,  4.099967184493007
12.244486351640074,  5.264713974022024, 43.804493075586286,  3.963548484979266
18.510392234709453, 14.692478738779648, 37.432248895237379,  3.665037197496666
16.078267177269559, 18.820708233248357, 93.454837314944228,  4.014235323877901
 5.388517811625530, 14.659390506289281, 106.666872689746512,  3.899395286403389
 7.888267240863756,  8.798822684361784, 87.732836442473712,  4.146530307417705
 3.720822279581778,  5.896581455304188, 96.675142981675720,  3.978948035741604
 2.846219852959992, 15.803829070404158, 103.933514840246659,  3.891695743279917
 1.930926840402785, 13.542885304729682, 97.302354635469882,  3.996602918090556
 0.222503730864092, 15.400527649491719, 81.692717742608338,  4.429359990865169
 5.788184523934262, 17.554116517353460, 43.223622113737463,  4.263669530043478
 5.318258761653567,  5.788546234062599, 32.483492825186296,  4.259953480295849
15.897749841339978,  8.782871033878013, 70.402753588597491,  4.011790950043002
17.526705830769274,  2.994227627567152, 18.587974618279574,  3.841470882123330
14.552113392634192,  0.319776286288688, 57.960504323325260,  3.535299831465439
 7.425780551715335, 11.766788652757720, 56.093042055718740,  3.860362550766077
18.919725635456036, 13.134046609392659, 47.826104803460389,  3.940285597320873
 5.547593316834743,  6.168117159480689, 90.814860080809495,  4.037377820457829
18.839142067763973, 14.504952915535718, 59.841579905564288,  3.740905663163310
15.430271617616182, 18.654689518657563, 73.781059134014640,  4.054060667689222
 2.121414831414927,  6.095451029505140, 77.843739408560268,  3.770922722584173
 4.588204665015058,  9.335715510635135, 58.277325709291858,  4.062385536312586
11.170733821292828,  3.709383315933391, 52.943346391090010,  3.741788388898852
16.631453125642054, 10.506568960640445, 58.670882621289508,  4.026615520387049
 7.422564790808580,  4.400245548337465, 26.143087791010768,  4.090352040901931
 7.018349823136703, 17.966258129203272, 84.090958766299281,  4.241734865888612
16.063067311860646,  5.086751837089459, 113.320603288360090,  4.061854930311915
15.080774770086064,  9.078487555753485, 33.563039132053639,  3.602262975893549
14.061993492519713, 13.029435702111918, 99.618359156367418,  4.160879037015310
 4.179382021940112, 18.772466654682578, 49.683103889317870,  4.320378085364895
 3.611614527928897, 11.116079484354035, 85.423722696781610,  3.829405529988421
 0.734829719668814,  4.454708276086028, 116.654198163519595,  3.795251482380834
 0.214484308406687, 13.253157662685050, 85.451943021348796,  4.180577926553593
 0.943123137136017, 17.991716767879776, 113.466903255825770,  4.163207216081909
 0.761163745284592, 15.854186102479561, 44.701644738728866,  3.944302536360353
 2.096200610094907,  2.409443143110208, 39.518950461436887,  3.971936343527472
16.507489438753556, 13.344987824242342, 93.026624814431344,  3.851451359115411
 7.512628813274278,  4.769967091459239, 115.914192917963319,  4.207280119148550
 9.609263173259361,  6.864645230103267, 97.331861762888821,  3.907452589381699
 0.405305110680334,  2.979645969692811, 108.556897712427883,  4.527034050564686
15.676485495787773, 17.033637681643089, 28.042526648136480,  3.876883089056326
10.258338089248575, 18.496944004860833, 69.597128505173416,  4.242834200183901
 0.251706468792256,  7.467217798446473, 114.288905951795826,  3.894706274772364
 1.908303877532676, 11.208756876431394, 41.544336532329417,  3.887874101449835
 1.824279761356931,  0.625971296866334, 117.083373101477335,  3.933213425805951
 9.103023109701265,  8.725283661089033, 108.414903167792417,  4.201389846117457
 2.555019639386242, 12.355593951363081, 82.241289618191445,  3.309334358726865
 3.318424919183708, 12.087208941992834, 74.141973350232988,  3.982259658177601
 4.381878979730733,  2.600199447885085, 42.950363962173618,  4.254030928291294
 4.123012412097927,  0.043158895070917, 86.907011452436322,  4.099924886790578
 1.375167829570167,  2.986144137507594, 70.039527017570961,  3.844090653704631
 5.645032542331263, 16.529742702865899, 29.173419059649639,  4.268837479814525
 3.387437299610913, 16.276159504719210, 62.069770984404556,  4.045247736649326
 2.891098836898653, 13.714920911170633, 11.345965449208379,  4.249975111957994
 1.472333299605942,  8.001871606194065, 60.453619260826578,  3.831161263428341
15.389349452201168,  7.541006335646171, 66.306869727925019,  4.109005480445890
10.429253565411607,  1.359032384020540,  9.667146357460636,  3.968960560688818
 0.464741345423334, 17.040186382514545, 11.551526241446352,  3.934476087920942
14.026183410390935, 12.726262193451110, 89.394540380925676,  3.904593814757769
 2.139687626336710,  5.840758392950143, 105.823361218395320,  4.102585858393324
 3.693087878485162,  0.744770589913205, 72.097896939562915,  3.722508529948314
 5.236348665519951,  3.545681951798386,  3.826182499927899,  4.077395393118057
14.400126824428206, 12.957150334630613, 104.413960426627000,  3.912189916084788
 5.868317890314340, 11.995531165187712, 88.208088261238132,  3.449112067688730
13.956402655687221,  7.506385711351341, 95.028024643178171,  4.311746836982824
10.955066838301986, 11.407706597120868, 45.301805437561832,  4.375183570385578
 7.093788640764108, 15.437564514127722, 116.629530715743343,  3.854680435358083
15.479586843184482, 10.734431466768797, 25.489723218514790,  3.801822096895216
10.334762200382182, 16.912611297161607, 18.575271705886323,  4.249857354117617
 6.887227271727768,  4.644056788398700, 94.448305406505384,  4.149865470836747
 0.971432555111001, 16.024944619436891,  7.116148257053562,  3.947935496675147
18.871983683496037,  9.876688829005413, 73.150367250794872,  4.306596591589731
10.753031227564440, 11.468177045025097, 105.683209842861999,  4.205959101071445
14.719479256235799, 16.412214232619512, 101.963959560745181,  4.174560572549563
 3.920380870721701,  7.838559380169717, 87.543593622062787,  3.996309232045861
 0.463407114477211,  6.811051071815958, 98.867563597033424,  4.049706667048545
 6.229856701976179,  1.741741673640325, 46.761237656417578,  3.796190091740735
 0.916941194393510,  9.203420456527954, 56.870406853527314,  3.799205445112736
16.954231339043726,  7.161024175170977, 84.543268165353410,  4.163000899193857
 7.140181110502744,  5.626931200070778, 46.823179849282184,  4.140196135022451
 7.663112438796352,  0.254212380032982, 35.897082331595854,  3.873519562725598
 9.951016858310792, 18.057276819978721, 22.565860221980767,  4.084244577378954
 0.981546956575791,  9.572309970312508, 49.189710273007094,  3.953189688842309
 4.992812638050022,  5.266330796036337, 80.918158249128766,  3.940757103266892
16.852137530171316, 18.899366618351447, 97.961767861348051,  4.204090521753199
13.432064446732895,  3.692758512017895, 57.094063727200940,  3.765972834988161
 9.592076136317022, 17.580278738847095, 12.346817588897720,  3.855219696341860
 2.930333312757429,  9.705719708442116, 97.608009904842277,  3.952439897191536
12.905854769190444, 10.828308757894286, 114.370561649903536,  3.841206614250742
 4.878554877743753,  8.205560976897583, 104.014869732198903,  3.972400641588067
 9.354097699426744,  9.815938144761958, 83.929730134076650,  4.240713218647064
 3.107891908007860,  2.553310713428786, 98.842463140844558,  4.071652486865037
 1.588373602890670, 10.733436350624091, 116.160312204944788,  3.937297330497477
 8.581562956436763,  7.034701285369120, 19.246194318262848,  3.818058083382087
 4.455502665495358,  5.634720887765257, 60.698613960981291,  3.789312528821312
 8.834303491903798, 12.993984280442728,  5.268281514596180,  4.143203086465012
 7.132054972263122,  6.520823230589792, 57.414200621534462,  3.716110415113105
 6.218072212074026,  1.698351933848133, 108.271995206947437,  4.122430623983981
 3.521848976253516,  4.641041693169218, 73.047865402392276,  4.072111108023933
 4.678991284672189,  9.491154777911744, 62.408749097159401,  4.139617356481581
11.280649581559180,  1.203668012028118,  2.766237856425757,  4.085554378737922
12.669895582143383, 11.762962686411372, 36.136516324381830,  3.830864592129141
16.395209043680257,  4.512887242977266, 72.125337313160614,  3.878862703610732
16.893964171979913, 18.176694878822023, 17.766735356907535,  3.891527919653766
16.581114028641196,  2.177497983250627, 30.202686800017933,  3.967120772014744
 5.577026144702475, 15.067454856507423, 54.905290494727794,  4.012855805056378
17.135650198894222,  0.613417932028364, 70.219035347001991,  4.047822122455177
 7.832625354859934, 10.867058227346702, 18.474782294134641,  3.844003863026530
 7.129288322571015, 14.610483783306860, 17.587863091866449,  3.806735909165796
 0.103346837385920, 10.772841122460594, 94.827807725948404,  4.241967862111760
10.865920213361990, 13.046598464077507, 97.013586468310194,  4.047380329012596
 4.333072135394407, 14.556158193799099, 67.724884554492021,  4.405466851949511
10.574855030925235, 14.481364169230135, 90.228181741562253,  3.951692887527047
 9.909117890083742,  0.946152560407724, 98.585022693983433,  3.909202058197168
10.914094050948982, 11.317503874212036,  8.402506545437049,  3.895087142986662
10.319205808028102, 13.639939223300793, 61.741635048763861,  3.932507714017583
14.706846144518696, 15.589441024822937, 38.262078549009843,  4.122513059043421
12.933095308724651,  0.283006007186901, 12.496177395573064,  3.618844060179208
 5.690733907696205, 10.510105357541759, 82.178654246092762,  3.959505574206556
13.720731545659300, 10.664287260083990, 39.750256593716429,  3.984596065795863
14.925170957902973, 10.710431336025142, 107.541277320152460,  3.859099471095644
14.441140923431067, 18.445329354284834, 23.998233355827658,  4.039518143009155
 9.602893793119756, 18.863380146706014, 45.759028703356037,  4.138034299487817
14.131473965706887,  1.312144388568744, 52.673088422537774,  3.865411337131347
 5.213710102896005,  8.494542474448728, 28.804516939226868,  3.810369558482964
16.993003845500922, 17.596841034266678, 35.380898536072756,  4.038137871404601
13.284994967949668,  9.214586088959086, 83.180875100688581,  3.842619340870696
11.445756220003897,  9.530627868595742, 13.016306432083352,  3.984090869193587
 4.920289104386800, 12.289510953117682, 117.882873713790659,  4.177428569539344
10.139159143867639, 15.904805196916874, 105.864519359850746,  4.149594396576628
 7.636023175034139, 14.236227692840009, 48.757519047322781,  4.082938342992836
11.503716413495203,  8.873343217393087, 20.855713078826046,  3.718218759240799
18.660013849097780, 18.346916910879507, 101.709249998754473,  4.163491496841980
15.156453317533176,  2.160821191419501, 34.081748608473120,  4.252850153493019
17.907445899058359, 16.814319638984607, 56.838093058778682,  3.915665961397123
 3.113320519946328, 11.860492280003230, 104.488729912035652,  4.082711407728445
15.459418454968745,  1.016546178741514, 103.661157717035152,  3.877016603338316
 9.722504375730860,  3.122056112763385, 29.086643436261134,  3.797306357071769
 3.028003477529660,  3.870950741472682, 83.986663132000288,  3.858464731746360
18.442369628018294,  6.696606840068945, 102.786718387185985,  4.033575789969825
11.800191385481920, 18.747689330033889, 103.498272618366684,  3.782716179953408
 4.733654077215048, 18.811507333925881, 53.833705423296088,  3.950447261982912
 4.786792453364733,  1.304771384853143, 21.579425380718828,  3.792943996138561
12.925505719151408, 12.752548720577197, 27.813244618255450,  4.165174020179178
11.130076499387023, 16.431462116589771, 93.884159263483184,  3.906648052163828
13.106880074707872, 12.008003256967225, 78.622511081732981,  3.947078848796592
16.827750499526779, 14.295176376015220, 107.383976122130093,  4.204564694709867
10.024398740512177, 13.420472424053738, 51.939776431634314,  4.031451153599089
16.946135781062338,  6.649738301906710,  0.074187919834668,  4.299865870551669
 1.743664176417749,  0.911416223851819, 56.426267901334242,  4.235839890798127
 2.011234762345874,  7.130330764946581, 30.484132119677547,  3.918036743419141
10.031592744578006,  9.217390772273749, 57.292711772048108,  3.771496505006633
 9.813871811664844,  5.031761633753262,  8.222849718202687,  3.966499107652715
 7.812450118776684,  4.639814608894588, 66.849152760253673,  4.306653579387834
10.217146678616276,  8.027868466682218, 66.897474368391286,  3.996549869199573
 5.695791072617408,  0.024921093198583, 117.927071991620934,  4.061919050825325
10.826317711938849, 13.202145370190571, 32.378877619921525,  4.283992151513133
