BANDS
8 8
NANOPARTICLES
cell(1), 18.944
cell(2), 18.944
cell(3), 118.400
 9.490260278005703,  1.427590586404218, 50.283397333472820,  4.158914335449517
17.385335451996955,  8.835167867317752, 104.234342897025712,  3.818738224811425
16.796645496246065,  9.541443200372571, 49.786088364691302,  3.944926344455771
13.998162161407606, 14.492630162457846, 95.354784803038413,  3.775449862425943
14.747873250031724, 15.477791657103571,  9.325668874166448,  3.858095958312894
 3.540713896557926,  2.878570067425268, 77.082091981348725,  4.234117645437651
11.488980363891624, 18.815952586223535, 29.818223920443387,  3.929716884000932
 3.296827787362857,  7.138270246189284,  9.533833307747436,  3.736688005176049
 4.952389263636214, 11.641089111640062, 61.618454861108063,  3.932967174490159
16.316093242455398, 17.247478921328995, 42.703089036360446,  3.588017972818542
11.345418960118124, 15.652492471613790, 74.456286591952932,  4.204748360547114
16.675839266432924, 18.763322906652096, 58.402586243310729,  4.121740411829801
 6.825599027279775, 13.040578049308461, 99.427056303408520,  4.091614503784291
 5.825940084394718,  0.097734611192911, 79.123434513373851,  4.027032814104872
15.644938946671997,  1.522154731179825, 76.563947115843206,  3.993383566957583
16.970748166201304, 13.371918712977129, 87.263894224153816,  4.028279044009150
18.029478088349023,  7.076405700526009, 64.573908914824500,  3.819083781993835
 6.351926480094048,  4.308037745973831, 37.272773354076278,  3.942258694250958
14.713807462793186, 15.396209948578718,  5.394527741352038,  3.983024979432227
14.530559040764567,  7.997207790896805, 101.472191491640501,  3.903078562945978
 3.351882101479012,  0.982315334141598, 64.232595707506121,  3.961975382860617
 8.495219027985209, 16.300537816010532, 50.208372607903762,  4.213370106258898
14.765462009225741, 10.746167291814986, 42.379457446382226,  4.032417532915217
 1.438448937324822, 10.023393483196513, 77.979773148709384,  4.030703163856385
10.208225422320259, 10.812611002187712, 24.182182882557782,  3.848520531969777
 3.064026401972237,  3.514380292673568, 61.055520453490963,  3.936918834624519
15.013279697564389,  2.385510046705704, 72.837951200539152,  3.748972725990456
 7.266999407268014,  3.605660661228741, 53.498709448316028,  4.182148646026328
 4.903775980579286, 18.875496315846533, 85.688553926462305,  4.531358733531274
11.770061651973831,  8.744668587833178, 104.415676076139349,  4.292721500788384
15.965740916028810,  0.371304297030369, 16.318274331868821,  4.067711838907465
12.750616355101068,  9.782022716846871, 27.043061759109861,  3.941332540460740
13.868869575338273,  3.732797196089460,  2.242066735037121,  3.777284325417571
14.807964432420029,  6.067275509672942, 104.897139727179137,  3.849273157699561
 7.440507816296370,  3.419789400849704, 69.401118240315711,  3.896648387087191
 3.438515709880868,  4.656564389418021,  2.771138162668119,  4.076767347269658
 9.534005770143361, 18.270307858540587, 62.849073459911558,  3.906595704120750
 2.756363788676492, 18.775992892798701, 42.078758617280720,  4.277798353611083
 7.236773148376792, 16.992540985456678, 59.023818243977807,  4.109340370407124
15.753622566294588,  4.538371174690851, 17.739816117352607,  4.286656670778721
17.806094180431899,  2.237370105255443, 112.647363780350858,  3.966935849811608
17.129647366414883, 16.700633225228906, 96.653326048750287,  4.281180893862412
12.761320064635665, 11.871843952600360, 88.007428182316048,  3.693341895492427
 6.427211326173691,  4.849257401020012, 91.758065429193820,  3.874826522852281
 6.786606411877431,  9.388940035888634, 68.246259101290931,  4.498873925080231
12.575168735380059, 10.301176514008086, 95.201394224388778,  4.022662638473202
 0.593212933959690, 15.306548096971186,  0.302380776002715,  4.025773115153803
 5.714439014213267, 17.388977926310890, 114.555414870334857,  3.810747958861296
 6.866737011148114,  1.863847658209236, 112.411790923921885,  4.153656212400468
 8.565244212094019, 13.282778513853449, 57.800848109962558,  4.126030968775888
16.944182248696382,  3.384886181726792, 54.709822422824487,  3.900823135268710
16.528878852021542,  8.879185990833079,  1.860477106954609,  4.077503732486233
 6.921805678331956, 11.413082161974422, 82.799340968672311,  4.411366647510891
 4.609082965961965, 15.620128265398849, 51.583307958179539,  4.080327718813555
13.558002384880432, 12.102008618464426, 81.151474866218862,  3.985387376273805
 6.924698543219944, 12.053548782962009, 64.985074886506794,  3.909149521259429
 6.438959707950221,  0.420547271335166, 105.135658262310088,  4.002323237815593
 4.927908709648259,  4.884546483147708, 17.268515332888413,  3.759496142624264
12.693344798860965,  8.665490590347359, 69.585577743218636,  4.038143894033200
 7.139757243759326,  5.353958171219685, 85.893687222044449,  4.191898426354177
 1.546372549104507, 16.301858542736628, 86.867072209194205,  4.129073212054308
14.465944894254454, 13.111064305812027, 62.054439082178085,  4.155465204581829
11.378293458220055,  1.312359551976458, 100.715749166739656,  3.838025174942648
12.570790939746354,  6.295245630188834, 33.599436959028665,  3.720625034883537
18.650495338495745,  2.552658880399187, 27.895076651733440,  3.920707751176639
 1.916605427682938,  9.352213148722507, 60.500728237532066,  3.976766767777021
14.372038253633704, 13.854658419131654, 113.046826036055990,  3.993168420363907
14.143401135506215, 15.960646397616975, 88.583697963265664,  4.039533301534127
 2.132811270351144,  3.811793561982686, 42.809480928689638,  3.766820776441647
14.159663238493295,  3.240849368357561,  7.392916283273306,  4.123043846865551
16.543153263266895, 18.178923027834234, 71.153597092002585,  3.997688304806518
 5.064664730465762,  0.965182682098210, 31.320144912075829,  4.107883680763487
 5.644271191480332, 10.462007717541089, 102.220427465071282,  3.847419992598557
18.002322642030489, 14.894489751102522, 28.977246201017230,  3.672028298603480
 7.865798603234642,  8.673506198948026, 37.240482531853480,  4.277906378428137
14.438229604873930,  8.232977606912847, 65.873412809091491,  4.153702550966990
 7.331474010043292,  6.914007008444679, 81.966998528704650,  4.265009392803650
14.051019369278682, 16.506992149641189, 68.250911444453436,  4.313661012736492
18.411490847870279,  7.892410819332544, 80.782913628586428,  4.031507588027497
 5.748677128136488, 10.138266696557137, 48.623248270514019,  3.435476568654131
13.318699586148085, 18.869301573896724, 61.162249670480264,  4.449840215639655
 7.915316462098380,  6.030019118100250, 50.304556361480579,  3.884930717385331
 4.130296008494936, 14.895022925307773, 37.647659754816843,  4.288224634194181
12.651854256918202, 11.911202135051971, 58.341170854561845,  4.440721326256978
 5.427506780536658, 16.078158701709270, 10.411497605818743,  4.004524653776829
 0.477223585348957,  6.611797893496985, 70.656668980169115,  3.901604922230053
15.689388960945070,  3.570345162292207, 33.713247955212914,  4.330704337423253
 2.871763492812618,  9.444202125111003, 28.845391519007780,  3.728955680559041
15.977084785783868, 15.149720280348378, 100.362914743381126,  4.011805922370108
13.585030722937621, 12.248135417266912, 65.982731810281805,  4.056962303851263
 1.193729801103469, 10.319601744593115, 95.947662183386029,  3.886739710359421
 3.965595513930550,  3.209312878607885, 34.413585607394580,  3.806685740242615
 6.108646768284283,  7.623446446430939, 19.795144310356875,  4.006507827189448
 5.873875853189733, 10.274823833286074, 57.692621351281147,  3.949045576003424
14.335762076944889, 15.997201120292258, 29.589898400923619,  4.053252392395126
16.240629227637001,  5.083006579457913, 25.735194269294841,  4.288511366162302
 2.128943962130149,  1.356825799057834, 48.744344665235019,  4.048859823173843
 7.665583589517558, 18.155396191342547, 28.571993742887134,  4.191324798034374
 7.969640134371895,  6.166565463553430, 15.369639006254841,  3.780478660714010
 9.285748413160103,  6.559183836775628, 60.542260195885603,  3.701506118621536
16.585504426437872,  5.649313233846476, 110.017051007463095,  4.053416965733663
13.688862911017155,  9.049827893101190, 11.214720599271763,  4.077029760888701
 1.432743996834236, 15.337345063079539, 25.907459332251303,  4.130507423467001
11.786360449097740, 13.556699190881282, 50.251439125688144,  4.208461581835526
12.851200138720861, 16.437133630699424, 115.801622937168617,  4.000488217929587
 0.219069610904392, 15.828672186922043, 40.697117613475285,  3.930401247375581
 9.911741759571891,  5.910764751820376, 118.374652317177578,  4.103791707658630
16.612404566973026, 13.910841332490714, 58.768037643738488,  3.763656348373374
 6.544685739199635, 12.492605359031971, 91.434489540164449,  4.083537988244750
 3.878724560821617,  3.356939259794281, 55.741071705529727,  3.917302133012469
17.607960152442068,  7.105321699922468, 95.172432570949738,  3.710669419949007
12.760776194689567, 16.434572103146632, 98.602617734868048,  3.689698822842989
 2.840510152490283,  8.971811566430386, 55.469177308209339,  3.904745625987795
 2.722166493088983, 12.365713815365483,  3.721355209913337,  3.876987714390380
12.150820210374235,  4.890645977570755, 102.203434810918509,  4.056076793293816
12.181371617404995,  5.673816157669738,  9.842344915418193,  3.797328910121421
 6.099890795851138,  9.529010213846258, 16.079405129958165,  3.964954370139954
10.163110936839773,  3.191818381591587, 110.335808349415402,  3.959895964629310
 6.123214585381848, 11.930369670115558, 12.433941011606803,  4.097399616961869
 2.382196993473519, 16.335064097217334, 48.364645561516589,  3.846829748938199
 9.614538533383875,  7.251530118736100, 22.163238004850943,  4.413594474826276
13.180872630863401,  6.818978324177841, 37.483770997832778,  4.062461658630459
12.981703597440166, 17.464374323756008, 106.704746448604595,  3.713973352901669
 7.488720130689313, 16.298635965183024, 41.964506008912650,  3.832825028711767
 2.735293717799314,  8.676114998136423, 68.402241467985604,  3.698543286277207
15.571684246190058, 10.714214626987834, 24.696461578682886,  3.564507802246742
 5.585861361297178,  5.716395140057756, 66.482620102382043,  3.954027951439427
 6.558235501519509,  5.064970767689167,  9.653952311613331,  3.993090422960406
13.540209219134011,  7.606897106920819, 23.759000316817705,  4.084033838018702
 8.864270973170086, 15.871688615148322, 46.020637702804194,  4.229652720545808
 2.493166427782070, 12.916746168036124, 88.988541048603338,  3.756124429188613
15.981085187912361, 16.570921974952832, 92.514828952915749,  4.301131004277806
 2.142199752863104, 13.539041130929471, 76.645708269067427,  3.549217270709392
 7.117771354040490,  8.644028418551175, 45.418108810263185,  4.104595548805753
 6.398221333634973, 12.769286137566594, 108.157783382613246,  4.321990106863589
 9.660982842041090,  5.473987496128610, 35.727563261790408,  3.654447474652309
 9.597454069057646, 10.876863904119325, 29.273534506699274,  4.078882672960325
 4.008548591803470,  9.095662806686068, 112.420819313104829,  3.987631144596755
 4.921009010057399,  6.783006912758172, 96.372434183977475,  3.984988750720208
16.492273572316225, 16.791205861272040, 85.282371160274010,  3.820559886601678
16.059588305378217, 11.492047822018895, 33.702188143527763,  4.004418320591850
 3.341634239302981,  2.957950516371360, 39.311473281592185,  3.795419165326010
11.251461440906422, 17.754486097873617, 43.090614595637646,  4.194977654252080
 4.555105558300239, 17.344058630591785, 89.843515668118684,  3.940759854732319
 3.192635040563079,  3.958723424442824, 85.424123821692689,  4.227751420533559
 0.952229700605231, 13.327262406729506, 61.560158669926246,  4.448646248337755
 1.726915926537987,  2.544963602381983, 21.422270966400479,  3.916481240957776
 1.477100764103183, 10.246170002294649, 102.368133850934257,  3.819770643129913
 0.519468188970000,  6.275241088861958, 29.350324161091464,  4.188137829498571
 0.279690861290879,  5.198096647734607, 88.152571356396024,  4.126136737758512
14.986749332470193, 10.395821608871197, 114.989238174056396,  3.989739666776911
 5.051522711150535,  3.114413874876556, 117.344642031626378,  3.958268002000568
 2.137031246154486, 11.797485258653619, 16.398422797246187,  4.241337388283791
 2.200638316434265,  7.030569721350471, 118.011007309200892,  4.131296316739316
 6.055036089081710,  6.767701736191674, 55.910344359664428,  3.924470645223639
 8.745640047459746,  0.624415713399690, 71.650255146610789,  3.716501392129765
 9.681667648433725,  1.513522973690403, 96.146690960104962,  4.022175487249849
 2.621017157606774,  6.397226318951853, 21.293158340778657,  3.950020023041874
 4.596111796295083,  9.255092443996611, 72.177112660159906,  4.477179020926900
 0.974015705467357, 16.842683357182089, 99.682367319737835,  3.932272386895569
 1.697059281759154, 11.062810083546362,  0.145693983451164,  3.999549813162870
 9.497802193615714,  7.073438292335896, 53.813190924904177,  4.086845310115041
 9.443538890225136,  9.933679609173472,  3.073562429987902,  3.858610192764137
 1.099692941813315,  4.604617506205989, 18.043264644540088,  4.056738769885718
10.916215606834990,  4.198812810073512,  4.825632989456563,  4.123748300773617
 3.195481202490837, 17.432258038510980, 67.475514811345846,  4.166985619093952
 6.545259854249856, 18.753649788538194, 68.859520547045861,  3.532017980381859
13.955382695460633,  6.995393046062157, 44.168577318563315,  4.196265384310473
14.754479461535032, 11.284920188586439, 105.813380914363663,  4.019871134403270
15.478839039140421,  6.148325712212804, 71.535602854320146,  4.196060400974935
14.951808997311506, 17.230476727647453, 74.526393962370378,  3.667316531077560
 0.662695440546686, 10.658297694234372, 71.182943004926926,  4.099772616163216
 0.264040181897993,  6.593927896332390,  6.897531990340369,  3.944191522535141
15.044237823570226, 12.703763892422369, 12.028819903844678,  3.882262611718513
18.496391377459432,  5.207423131382414,  2.070613692151405,  3.873899842477203
 6.817679368377545, 12.833347410650839, 44.020186458360655,  4.040528090116887
 6.122095235192270,  3.126756215517106, 95.284719973805494,  3.972868878732132
 9.572791766310980,  2.993624223670974, 22.712602925605054,  4.088547607654326
 6.633028033537111, 14.483333032008606, 34.372986796230144,  3.995360943672153
10.058392852630632, 11.167311118588922,  6.758364929570556,  3.988497445095963
 6.900566906992993,  1.983550699162742, 65.767182639504412,  3.992502844434664
18.778502192051359,  6.001555902172274, 60.906956801824286,  3.952491471043374
 9.673089882891194,  1.242516805075884, 59.415779163019621,  3.945360220623822
 5.715837518857744,  6.781623188578602, 34.334169363849959,  3.841896391627576
15.670158698710697,  1.047076451121933, 80.379135001681874,  3.662802589753944
 2.319773615111020,  3.503632696241970, 11.163758177106940,  3.953459770207326
 1.414807309032068,  8.526260238801973,  3.423356653436569,  4.193215773547460
 7.919674893451588, 14.182576629206824, 27.114660934131045,  4.092878422344931
11.963636572486131, 12.564987937085498, 17.781988672477127,  3.972865328620497
 0.204784727530321,  3.408176516704284, 63.887128522275383,  3.967261026154492
 1.262036402136792,  7.056221733821729, 98.488662861452838,  4.358073691818904
 9.707532253816426,  3.683189069061436, 88.922749831647735,  4.418078709529198
18.446189526794786,  5.716533796197695, 106.355430154172126,  3.998531389773691
 8.017119091271274, 14.939687375694028, 54.146671539327080,  3.948985365953780
 7.153578622016034, 12.531851724968915, 51.098464064436804,  3.977716747236240
 5.375196172587343, 13.841319860594631, 47.670387837385235,  4.050383546426372
 3.706250083287834,  0.587504640745475, 52.621802635839472,  4.188211737144597
15.977980943364386,  7.399045690752693, 40.396779157594800,  4.090836564882075
17.683154268529101, 11.833684889183020, 18.687095933374746,  3.893733380113292
 4.705689665536641, 10.157334004956851, 116.191003133161786,  3.849788913018391
 9.725103530995225, 11.053206999341040, 14.498511567449361,  4.313749728303839
 2.031091718977939,  3.840302429708502, 95.706379890924580,  4.254674783044593
 2.250623703649159,  4.247176600953559, 73.375177542591800,  4.072923127485285
 8.819000979412392, 15.627870010126383, 116.596743247561761,  4.334525886401325
18.032011936647528,  0.782480400308372, 40.490163141055092,  3.815283223935127
18.696354779980755, 13.493437767968350, 111.646328460630428,  4.265431874222000
 5.766714626201298,  9.382693539226620, 105.917204653995313,  3.820715219524742
 0.868782098254018,  4.688470811237189, 46.328240103590808,  3.896466130881340
16.026045779983150, 14.314627976028559, 72.203840959554626,  4.024873511260597
18.527832053652777, 17.697449937064754, 81.470613531403785,  3.939262817703539
 8.110370566142496,  6.713831595250527, 107.730129459925081,  4.120497992370426
 8.976536144122438,  2.323670055070510, 15.505232767231995,  4.131825717690146
 8.543065718023648, 17.473041296341894,  8.428618183720992,  3.885072321819293
17.948399203302543,  8.022556626758517, 17.964202121458445,  3.862782854028238
 4.371808507339201, 14.267748151190887, 116.980490122763570,  4.529228202996318
 5.864209941141144, 18.343541427209921, 14.216248505999905,  3.889078266236217
 7.645702397402411,  3.542289337608920, 33.107606398849974,  3.994429070569862
10.423525779876229,  2.220504240628915, 26.700321304501902,  4.157058653437830
 3.833350242873078, 14.349605962728633, 64.756111018801022,  3.767671485720273
 9.466770618396447,  5.116909078457848, 75.543833322157724,  3.739482316022193
16.392598620293452,  6.367430097456531, 47.412646426096913,  4.015215725686919
 8.043235246515950, 18.657702013139197, 20.831332522049625,  4.042531310478855
 6.210070594677338, 10.587625744223454, 34.046026261407910,  3.855192832101680
 6.374488949980547, 15.221622460632734, 19.776023862777858,  3.862827643247015
 3.160802858690735, 18.414380959293396, 117.449414643692819,  4.152060133022144
12.057028942009039, 17.665412218356739, 91.629451893485054,  4.029939911102000
 7.918447437635570,  6.836037433682558, 103.406588035719565,  4.517254684768957
10.607405783480910, 15.029756353915820, 39.251448111700533,  3.745852618764796
12.925685274829377,  7.836662800329241, 58.592617578290067,  3.721367842533966
 6.169203165383699,  4.669642584993180, 62.871617072687776,  3.617414285186061
 7.494575128570201, 18.622086422362020, 53.274643185889452,  3.677769356562498
 1.070895980078486,  9.436168537663788, 115.017500194793541,  3.867813678086343
 9.424912475168187, 18.359334449122585, 39.719243820233153,  3.375340804233186
17.356914524907044,  7.206903891228333, 116.747131873218706,  3.854010390853968
 8.887295822895002, 17.396752698964271, 24.557849680335067,  3.988202867740691
 0.487789443044957, 11.055008514848600, 43.301863638195215,  4.154435384873629
15.631615227420488, 10.319608939652159, 71.812370158996913,  3.966973674812215
 3.867991093001053, 14.573436471221731, 41.815280833754862,  4.086197422333664
11.484740830402075,  4.719074694414028, 51.343033783628030,  3.808069927964687
18.854113438242823, 13.275513103262174, 98.265784350969241,  4.028664369974892
16.665345345372454, 15.250776507042843, 116.084324913189718,  3.704539946827880
18.060112408609992,  5.160998981819025, 91.937178446269755,  3.782670158018074
 2.764603710650154,  6.362104720633717, 14.289163299569724,  4.171623293653338
 9.796867926991316, 15.225576735949183, 30.615569024168085,  4.116661652070681
12.252467980131728,  1.035804472099914, 65.160745254909017,  3.948920724589678
13.938630772817490, 10.188093616047587, 15.156527768618503,  4.117113239333039
18.351599531726478,  2.807872584647676,  8.401432699579390,  4.179766419608014
10.670007392859942, 10.887787741898711, 112.151733808846785,  4.292195846207339
 1.139351122568243, 18.109149251516723, 33.859125554548676,  4.114629352463648
 0.279015937187674,  9.559961457437028, 35.358279698073886,  4.100587027876796
 4.306102516776821, 13.977964370569794,  7.068033198635847,  4.187287098516403
 0.814160897322487,  5.769572420346042, 77.724091226242948,  3.806638356577400
 4.576320665987738,  0.929786302720145, 92.632093446362447,  3.559125639481082
 5.434234943816331,  8.636829579770584, 91.856859450508011,  3.957269570317195
13.530895671539403,  7.932340661992719, 51.142880906911671,  3.796721051253937
 7.589501458117427,  8.328515090426052, 114.157953579525341,  4.081733178816942
12.391400398951914,  9.454755087027541, 91.150649219361938,  4.138898789104036
 1.107780178639860,  8.397049721842750, 40.111195105604793,  4.228618189961340
 8.709384134665967,  1.687225392466307, 85.281964630966854,  3.866375317793089
 2.136023831089036,  7.342114791918041, 93.592430572625915,  3.928392415913543
 0.990201861040186, 12.063070405191032, 57.415782327358023,  4.215586201249288
16.596183066219478, 12.941040082348149, 39.543367651401915,  3.976604827619384
 3.027750852095701, 13.592673507019077, 100.896336607367161,  4.110201791513867
 5.639067019493390,  7.851744956156784, 60.793476368906738,  3.928601966588684
13.613289224083916,  3.076654333157479, 14.583810754840377,  3.875987194052716
14.131656820916023, 14.350023278900332, 36.064524161784242,  4.113349862420760
 9.818250069927073,  1.205333482034521, 106.894681049290540,  3.673746683843021
15.765506110004999,  6.768956914882153,  8.768426199075778,  3.787596078436215
 9.944699908235815,  6.636925407288011, 29.897120898996995,  3.997770630188525
15.932352368787246,  9.426049950567283, 87.834635181323549,  4.177686647772688
 1.167185780181669,  3.420684678714045, 116.336792986098203,  4.046914825459431
12.715115287079639,  1.608395182440461, 104.428066137455133,  3.952762113027103
 6.750248689455400, 12.806974948909307, 70.957585364136264,  3.980749992400570
 1.279512118150824, 18.547368601426026, 110.818366334669847,  3.981486068399286
14.646579536992544, 13.271538052497476, 20.839547701119695,  4.071839713717862
 4.257920170427257,  8.289199591919960, 84.466765247052436,  4.114128981871271
17.976172835545270,  0.855975670480058, 12.802323967332349,  4.061624137835342
 8.629030545053379,  0.668677419882517, 11.797540641661151,  3.878417717387890
14.448134421296839,  1.957868683584142, 27.833469542839211,  3.633500241237320
17.841305860009921,  8.988366189077791, 67.949069810577427,  3.923931900687677
11.270451527648087,  3.658265031979728, 72.185411264389629,  4.220404511934268
 1.126323571310937, 15.892095430117026, 44.547995340649422,  3.982321593388695
 5.786207049613282,  3.632465490990608, 13.331882732339215,  4.019091816122944
 9.314739690400648, 11.000248681729339, 89.095537306306454,  3.716908782135832
 4.245021207542633,  6.347093164410341, 88.729040094002130,  4.151874491662278
 2.797340749434598,  8.162251727907186, 17.861846134302233,  3.704202334587040
16.301840001247534, 14.909246271262283, 65.065241697882286,  3.715394705626830
 3.814043908172950, 16.118076005144335,  2.138616873450764,  3.534699424689315
 3.698421010689462, 17.702901895769003, 74.473355193217557,  4.003821911323282
 4.095396182958063, 15.220177756865462, 93.129715526812404,  3.921271310861893
17.781943860779688, 12.979646784345874,  3.266873291120109,  3.950665190343742
 8.276515897631606, 15.318827645413513, 13.168221572028633,  4.064142395803508
 3.692152709639243, 13.712608640862065, 96.838614561291820,  4.102147216190140
13.186681190497994, 16.810223668118905, 48.089936951066164,  4.049925680553423
 4.860942496756641,  6.437851876592163, 27.328503089000105,  4.084704554514233
 4.560476114925276, 15.814423963408624, 28.135960579478784,  3.556678296073467
 2.590094847170851, 10.592695478534491, 64.976483244185815,  4.119845505525657
 8.001361843709146, 14.298683266954235,  5.411429784320596,  3.927348560819097
12.148753153628054,  3.762895648529840, 85.387936645516831,  4.150524037631443
 8.945916284451123, 17.558635605049879, 99.002019265353383,  4.176976563948979
15.140706822354327,  7.271144506453113, 61.935622961399439,  3.865202678280001
17.783503969011555, 10.518180677860716,  9.994218952568499,  4.206234116179197
10.680060698390269,  0.980265768284700, 113.771316267881772,  3.899598628151111
 8.771785510120303,  9.006289238646053, 85.669815862857817,  3.795289623021100
 2.228934837897217, 17.087184481833177, 78.362798200298059,  4.293421827826149
14.574481437722898,  0.926770520044364, 114.626674872557359,  4.016842233956308
 2.156871922358489, 12.998769894705527, 30.091287800961418,  3.919864143423267
 0.293525349037864,  2.874747410450715, 35.951400694488541,  4.157774931955530
 2.661756762201726, 11.363527913942114, 109.417156059151324,  4.005028796654330
15.049499096629457, 15.792895761004395, 81.398580885947254,  3.983383089285316
13.937539951462767,  0.130632510283521, 95.248090432621865,  4.151176225618578
 6.369370488756100, 14.922839820568338, 67.592277154343520,  3.911246760052790
 0.731129737449268, 16.737092284938928, 64.222312333924364,  4.112483927189514
12.426567977453969, 10.133373199826288, 35.022009959605050,  4.124141395979351
 3.842986519249269, 16.651292482690810, 61.420328979428966,  4.105230484365059
15.742321645854757,  3.902413830581632, 11.387195083231807,  3.977400256354768
14.726374410735062,  0.339018709052413, 45.390747996941322,  3.865090508287041
15.789290363966096,  3.161918766081153, 102.492324108184533,  3.937728777599193
 7.015167641697210, 15.438902852896911, 84.144590960026122,  4.036552754361513
18.677277332606835,  8.359754062823622, 24.433565460941068,  4.233434984906253
 5.999222257625650,  9.827347352174176,  8.984917033919846,  3.959813156075049
 4.045823608450118,  3.271234466606072, 103.703039431537576,  3.973429305448924
 2.971326198726252, 15.194157148680722, 109.969044610764925,  3.715361133360618
12.969993155538807, 11.765555932562833,  4.100955026084999,  3.976693219319768
 8.420223433073375, 12.245785956075398, 104.524428821448765,  4.034121642509251
16.372922877418912, 10.668024600151185, 78.554993385494186,  4.164738274261825
11.609183292887250, 12.675890296601931, 115.732985417941819,  3.915480264514126
10.669994025514651, 16.627959395479515, 95.367356878664950,  4.003556133127230
13.446254134675792, 17.756616090701058, 33.147647238244090,  4.072232089635520
16.713362011378795, 12.686362786280746, 68.578907059160755,  3.842156188033715
 6.156927458963127,  6.841366138831155, 117.556908176738503,  3.794442484739518
11.328596925394502, 14.850373607722613,  7.541852973113794,  3.944184434367799
17.504222300766411, 18.087257643906177, 102.513249556681515,  3.867162259405558
11.635338994719511,  4.757706424471191, 113.946517764710876,  3.897261041172629
 6.273604444829170,  1.117655205144341, 101.172762321708348,  4.021931892901151
17.406177004398568, 18.320194813253384, 88.699192612543015,  3.860400963093282
 3.968931789482903, 13.119647383963654, 79.940035190486483,  4.006111924781340
11.245984228782172,  0.784821915309433, 75.220050788903023,  4.080009477933432
16.700753477300996,  7.605183303168646, 53.612013953659662,  4.249690456765377
 3.722293974671349,  7.148931920406829, 102.986805730336670,  3.917341844582964
15.247879866948153,  0.509627157368577, 99.379167511774057,  4.286010260831619
 9.859824277488555, 17.750398393860607, 56.124936137155395,  3.803854720329556
 3.284367442012440, 14.707275855852215, 13.604030842476188,  4.146869907353933
15.114613710663752, 15.952581820851453, 51.328435134980332,  3.678838601896235
 1.964396640880186, 16.419752460891448, 114.110703196174839,  3.973376380122363
 5.614661421830361,  2.893548536931763, 49.889206126146718,  3.883510438170382
 4.122955556970147,  1.580209399503577, 45.407270459632208,  3.716269374563468
 0.469104469879841,  3.308182401529268, 57.929049034377179,  4.173899740714447
13.442145156655483,  2.045419457005726, 57.145079197882815,  4.115544995941047
 9.821838918862008, 12.849056871597224, 85.604383408671580,  4.136480511676963
17.497066225693363,  4.501732817606580, 74.817631917842576,  3.842208804942175
16.425602805052844,  2.823190734586793, 61.081729393376072,  3.937642818273792
 7.628042448301625, 16.726508527400636,  2.132090329075441,  4.170442158991563
18.122727926382435, 12.380795104214213, 91.065957528677416,  4.104164756412387
 0.617836757451328, 13.587254006922089, 66.396643813923191,  3.533417422165563
10.149695455681906, 14.405653722245606, 101.419100044072366,  4.114919558486390
10.895350611882423,  1.902785861677564, 54.059584567663762,  3.881190891212417
 9.469430686367025,  2.470853084400953,  8.328112024696399,  4.095839775173086
11.248290434137008,  7.070432825317439, 98.833551058424462,  4.156644603634295
 5.751404161314817,  2.667099566787008, 88.701507883402485,  3.736115428611386
 0.097118019638956, 17.106257580778937, 107.092368058105066,  4.347590739559022
16.930630707768135, 17.985175177627298, 26.759020395857064,  4.218777707742911
 3.906412638213495, 10.089618011743559, 37.264281666021553,  4.091198964588669
14.968211540302825, 11.921052943765453, 52.396351278915986,  3.993792923100895
 1.858839268209391, 10.717418634536967, 82.298699066043625,  3.900413029603500
12.301884363473848,  2.026417717448483, 11.093168073025225,  3.861027097564790
11.266993430164847,  1.373392843607007, 18.849928797546724,  4.184477949419846
16.400914150768831,  3.344637301055323, 117.769575149660497,  3.902163830882662
13.221285721894986,  3.948922736297052, 47.940938362912100,  3.965236832907970
 0.483736782328756,  6.857512435925201, 84.487339911444394,  3.914060423941180
 1.434424407695196,  8.003100017627698, 51.174098809470195,  4.327112693191888
 7.338662986880254,  3.613953127325058, 29.061483712949283,  4.085049268452351
 6.393511511717954,  8.588901855193908, 30.502933846885181,  4.158457107547853
 1.315352706309154, 15.801032361944953,  4.812028548168417,  3.800367929354551
13.813772668415517,  6.191635521524592, 117.768059956388427,  3.746036682753817
 7.283335556757440,  9.521528734510598, 110.388005899083367,  3.740230904695339
 8.775632142272041,  5.983504272143941, 95.828533193211939,  3.890603045723632
 7.396982207573688, 14.611203196511687, 62.157180874143521,  3.758348725652211
 1.871282522727856, 14.250891129360689, 19.933210624787414,  4.229388731746314
15.494387040071029, 14.199462077764100, 26.133461231181695,  3.975101807675777
12.860005413670361,  3.467357835896014, 97.707774950057370,  4.002232157544475
 1.446993256702805,  7.349356979650476, 109.661580017640716,  4.307516534002124
13.852999432576388,  0.977829352439538, 50.582694599945363,  4.008126383997350
 2.263096947604435, 17.509409375682822, 95.896451848331139,  4.078424016428999
 4.672611411772217, 12.525802957234985, 54.440538774027765,  4.307494363316204
16.593727431733928, 14.697543883817552, 54.809971613780590,  4.027437215757629
15.159865030659912,  1.352433357599560, 84.209368029006455,  3.803910489846465
18.925697018040779,  5.709424249046286, 102.312761711159652,  4.132347203210847
12.686032515579432,  3.280471784030130, 44.227365172267071,  3.651848955992106
10.671368595324251, 13.296894194532989, 93.095262936933295,  4.026410280613001
 7.254578218899954,  6.692000547658216,  2.792337741095373,  3.795355938379927
 4.499089487852859,  4.636050443844576, 99.886254589623874,  4.172116110679735
11.867607590910129,  3.111847060975498, 37.731392963422316,  3.802655114748053
18.286475892946090, 18.637641923677688, 51.276416099056142,  4.102879395589127
15.801643940256275,  8.134033630703980, 75.290229067038055,  4.154439547838608
15.598521302323912, 13.251021005050200, 48.509861328720120,  4.186692671279601
10.354652201669426,  2.340342745313086, 41.524233481806938,  3.712637888062271
12.912507851182792, 17.187802305832015, 78.123555687717541,  4.315763729875528
 5.154539148294403, 18.291049920071103, 35.211019247940214,  4.316887123490593
17.391930904666637, 16.973064702686539, 47.502482261671595,  4.280926467891370
 6.536112241755801, 15.165927205196741, 111.506510824628648,  3.899724746929241
 4.918835803046813,  9.443994443781129,  1.620494274917623,  3.788704260484060
 4.935901174669270,  6.607131762874178, 40.467820531865804,  4.164594030385877
 1.680071306733926,  5.183348474222916, 67.150934931123132,  3.992876675521809
 6.122318207843909, 10.797543447147246,  5.103374954231079,  4.040143137372908
17.852531827660730,  9.261944071661476, 14.274902657944073,  3.832823265660340
 8.433422207059223, 18.486360280539323, 82.073247579231534,  3.857535412494318
13.595358812925934,  2.280979878906790, 24.100135011329357,  4.040202700531005
 0.309229000179123,  3.868915376989164, 51.438507932760139,  4.148763756655298
16.100799299789102,  7.601544431715647, 32.832527207848827,  3.948996143401520
 4.116864396987054,  5.789801679271021, 106.841446508426301,  4.057369655301442
 6.616759576567629,  2.902613591085238, 108.373177097284881,  4.152294385341732
 3.752033844143755, 16.705343817458672, 17.156807249176421,  4.053877041233942
16.564308565348387, 13.824654985771682, 44.494129912426601,  4.134387491715650
 0.121613291329791,  5.975578165612546, 113.377600566153717,  4.016999338764810
10.204433609882058, 15.394923314024814, 20.336831851730004,  3.837735068251742
 1.891875793985065, 18.468537095737112, 37.919048817509228,  4.158276201314072
 4.922676842387300, 16.976413859685476, 55.660453920760801,  4.021452534878391
15.726353900606535, 13.867683424625042, 15.825840416999496,  4.129587029677481
 3.808149904226414, 10.264643645456935, 98.825315333904953,  3.858437988436853
 4.799876073223809, 16.220860665814499, 70.964092073528050,  3.879126877395249
12.226900599217270, 18.118291473163620, 37.158443768651118,  4.142351407879374
17.088281243745442, 16.249628911384669, 19.085986116666287,  4.368485581337593
12.853844690526547, 12.809765495620189, 70.025805921607471,  4.221535134949641
 8.199726349511034,  8.711773687982381, 74.394860190186165,  4.055027546128130
 1.097608679570687,  8.868714234935727, 89.945849477391320,  4.204582673868568
18.727101917395661,  4.536343627081438, 39.786304335789929,  3.939287636380907
 1.972261124833878,  0.812767645659545,  4.969273406492614,  4.208772264304686
15.604596312033374,  3.348649977896101, 87.561880748690896,  4.046414413571717
 8.235048004621413, 12.828092250719514, 74.788643771855348,  4.203542364161939
12.133673041037639,  3.564231446629631, 30.105135689297935,  3.548777403986940
 3.407392923969466, 12.492250718932514, 68.757345002604168,  4.043941962189716
12.139860765686013, 10.241270917887066, 20.931521019550658,  3.775409084287159
14.133156353734369,  1.033389501284073, 41.058278681585357,  4.077200894558613
10.484411853437273, 15.472968460468199, 34.617756464245275,  3.963210937097272
 1.476979974463300, 10.267010053439831, 21.154449526226422,  4.114183196348209
17.120249374495327,  6.307906409216352, 36.481214134597721,  3.951122395762013
13.097126369095285, 17.048915730354437, 102.480319917842948,  4.077655378136672
 4.360190155224811,  7.050059118395231, 76.707196424639363,  4.002143070757212
 3.986637603197516, 16.053664241171084, 31.841492321325351,  3.957704487006986
 3.046943604827764,  6.354890400964513, 58.301435199484068,  3.779906435669728
10.661224420803684,  9.558877766264841, 66.282137444024542,  3.892991347460891
 8.621069277169097,  4.567063692111160, 18.919907004351032,  4.065558080621277
18.846929909438888, 16.516130472025377, 15.181847208402367,  4.143944476493892
10.937272487682812, 13.296673012650590, 78.111582471350673,  4.378283007382595
 0.831938997822162,  2.057251954949792, 100.240288598360010,  4.435805256860379
 4.076348128512111,  1.297715438504918, 97.925258787513613,  3.605113383799802
12.739250787008539, 17.636069345460783, 26.070744460649284,  4.302275807585156
10.280948095846552, 12.471902140163943, 42.090388806640085,  3.920413919671378
 8.009434203215916,  9.189638875541467, 41.453823948001663,  4.049529687100285
 3.043308077466576,  9.004839562101425, 32.567825693724458,  3.753998021622787
10.919416881986015, 13.225735724528345, 97.482339488502731,  4.015283454388569
11.380904956939855,  7.307235615576193, 13.981706322213798,  3.926578428714515
 3.510793602646581,  9.382278408899051, 25.083915237661532,  3.578985409870081
16.644303334332129,  4.674975733303875, 98.780232188428471,  4.220683301317003
12.422071497045208,  7.393890359922072,  2.781364717443350,  3.974105486648242
14.873806749093578, 13.887842709190616, 76.504856859031037,  3.994608035829672
 0.799980977423268,  0.495807101518988, 18.060443263133315,  4.172126816915564
 3.672855587613319, 13.096884606090674, 85.151032958525846,  4.266704061271595
 2.725380672553753,  6.122526717257073, 36.926460710414958,  4.175232379973842
15.707691112892823,  2.911983329606506, 37.932833351903355,  3.848236493243981
10.021546161767263,  3.157346225338193, 81.845916273597879,  4.043564205583817
 6.438275602566134,  4.324228097246754, 59.059312377377601,  4.055316956304682
18.768718763799782,  6.691921055245382, 11.362859067954071,  4.142289318229153
10.771940865654575, 17.022641844969719, 85.404339265693125,  4.424913864884590
14.173251597725086, 11.698304736027865,  8.053712895327481,  4.195767890890687
 9.510785837304740, 12.098744489912018, 33.031977776799209,  3.635900849360037
 4.522476063138420,  7.222312116948356,  5.632927888952667,  3.856875601952085
 7.217033483982036,  9.552158240564459, 26.345062066663786,  3.911381085278771
10.213983272023860, 10.654015779830168, 107.904681431918291,  4.247272526515723
 5.613915563873278, 17.703944520958228,  5.665296524926504,  4.176844083052298
 8.422842963037215, 10.239535182446753, 117.608137142492410,  3.971534982400656
 7.491125797333695, 13.777525965855789, 95.491335461467216,  3.959262137643816
16.115566337203713, 10.032369319202170, 45.990730388987522,  3.796626566263522
 6.165952242971627,  5.085310895325172, 73.605458930580724,  3.869761677451279
13.938049625115360,  4.077778737826387, 81.812539922211002,  3.854869889429059
15.777866270144967,  5.279135725247400, 57.999846863142636,  4.031367811397440
 7.305277552825698, 11.683498059048764, 78.691381831941925,  3.641425762400686
18.854420634759997, 14.052532970783712, 83.835187728193588,  3.910082678787166
14.236765881035069,  8.021584748722125, 81.020392083450261,  4.205683007462081
18.691923520326611,  0.783028772156459, 44.726588128931176,  3.956068850136846
18.850605307772728, 13.817407680959610, 79.795058356443960,  4.173709393307513
 0.732851151134471,  6.034618739781549, 33.400729602694923,  3.919867310783831
16.010856815628181,  0.328690519397407, 105.720978938404045,  3.573141883175617
 3.576512961974561,  2.806598107209868, 28.161633068882544,  3.784034472975478
 4.260262210994910,  5.575904751253888, 70.186035314960890,  3.916487007316299
11.376324200385602,  6.703497027893547, 63.710282566941288,  3.891401963915281
10.312890402201509,  9.718142882345555, 80.859554536194906,  4.088271554118199
18.059477145028481, 11.819510575771883, 74.885778049128746,  4.218716450550750
11.179011278201459, 15.800720155970222,  3.762658873661510,  3.836037834606839
 6.985119968854875, 12.759600335469978, 39.843696145267472,  4.042668332850519
10.823241795109054,  1.706639564141830, 68.706407477008000,  3.804412386177733
 1.270901289459281,  2.542249795661238, 31.563301202798680,  4.032331485899639
 3.575499783399207,  0.523571917894434, 58.477620892809718,  3.936255375058763
15.343005629584120,  6.479294062309791, 84.821559839562426,  4.273208854154706
 6.838138424453594, 18.929698103551004, 47.671535509551482,  3.807611126674021
15.423227749534218, 12.054370120970253, 29.548600681795357,  4.078738438890936
12.891295365190544, 10.248152454841941, 48.114461958199023,  3.928108616649862
16.627644486216266,  0.408181225566032, 30.849523846547910,  4.398820578517141
11.733795637917483,  7.241518117531927, 87.754027770848609,  4.061885114658201
15.599998430947187,  3.821189340102152, 94.654535507000006,  4.001748240126508
11.226256588533644, 12.569180256266913, 10.857304593333209,  4.070061472210374
12.614861265313445, 16.029174691992111, 64.310056666176166,  4.095051232740467
13.087490300048643,  4.802634325790512, 40.872429571260334,  3.728752219222586
 3.848352280757006,  5.127427738886309, 52.428194553916150,  3.586364546244675
 2.962546831305112,  3.382555201383926, 110.467208346131997,  4.288530031955844
 8.815309231147346, 17.250396364454485, 16.956793422670302,  4.344310936827457
10.996459995935201, 15.225146042976496, 60.578902571506987,  4.196331806010716
 0.672958217268827, 13.133986186619676, 115.506766343314652,  3.618481545042016
12.597327114440406,  9.465081312771618, 77.484658535652898,  4.038664754870950
 8.406562497971507,  1.468519538841033, 92.307246415195081,  4.026331984623281
14.618998960382475,  3.276893423981994, 107.544180853796220,  3.846692665191992
 3.343582032981118, 16.360325722830339, 82.425060036325277,  4.254905041704760
 9.465557007482175,  4.465011620142208, 12.202868327695258,  3.790160510116785
11.866905329043664, 18.259385104003492, 22.188289631829818,  3.735423911268371
16.680104593384769, 16.416294531958552, 61.619708963441489,  3.797675194185004
18.872696687234946, 14.914950827917496, 36.651561322065895,  4.345850756218605
15.155811566067934,  1.544963178427646, 91.228725486468065,  4.103706724641115
17.882271569041723, 13.703477028693426,  7.310472745627104,  4.124531428518672
 1.581324566553439, 15.239016020550149, 54.372298062693460,  3.917973647177287
 4.955268489943948,  1.616782069933144, 71.941855725498115,  3.972892978642134
 3.956822560058117,  5.705268514875302, 114.551732656771279,  3.967845929094918
15.763810667285677,  9.886633621586872, 37.260737994084202,  3.816268431632778
18.732708617266230, 14.596505537909289, 50.850632931888320,  4.058586470448763
15.329098494679428,  4.557994255254014, 51.197674145980486,  3.811309277078637
 6.097272175605625,  3.013367156990636, 82.678684434311577,  3.970084361777285
 3.801747160262263, 10.840588577219608, 45.621143482373597,  3.853518839536596
 1.994363434592103, 13.102319680562053, 10.202463599527952,  3.795985433702871
11.769303508117522, 18.694613526763000, 14.493855512863451,  3.718383446138372
18.317842794461463,  2.893384681914704, 70.912656885793879,  3.846545126956491
16.969813631337963, 15.448407067575417, 32.793762580578630,  4.311727617684765
12.031335945613209, 14.481280001115804, 14.297248907114861,  3.943579076917850
12.369018596112234,  2.264157420431583, 78.772057078558333,  3.883881432267851
 7.991643794213880,  4.492467362887289, 115.192850434802480,  3.810493155039319
 6.848386320894902, 10.172689407802721, 22.561460396172340,  3.656592810556415
15.814599529811369, 15.302988610276040, 104.990441812635765,  4.095595195912399
11.434981729733790, 16.800229871157992, 11.064029806489481,  4.048470858801865
10.315502260750614, 13.147877698188598,  1.104186620920604,  3.852558425104185
 9.546802160542022, 17.357034623333057, 66.802948514788014,  4.208525356275383
 9.705084026124043,  5.825503774202336, 43.724820151007322,  4.194009417903832
17.909146593082603,  1.612625123491349, 96.705550103599194,  3.574271099397847
 7.735424052333810,  8.103692884604344, 64.107670923125852,  3.928207688502441
 8.634764665882335, 16.075462671052072, 106.457547124989972,  4.321771519830019
 9.587202863830829, 10.259415857508111, 101.047808558971383,  4.284077754464272
14.100439003751907,  5.586321315364484, 90.786366502347846,  4.264468630941898
15.319526365542249, 18.648868676569542, 54.221425461059575,  4.188563661141101
 5.821669975192832,  6.380241553368583, 23.497327768422906,  3.811740477733401
12.524225826112097,  5.815935535533642, 27.096562308812111,  3.752224137109228
 0.648508542735569, 12.814203534080336, 47.230295296364062,  4.128022189177734
 9.341878067245988, 18.015018250014673, 110.309809550275617,  4.407996400015867
18.450171834700136, 16.189053786086241, 10.800570958693751,  4.207790116035591
11.685338820181602, 14.496594396993466, 109.088763008101864,  4.212319018114243
 6.377810265454738, 18.061493440986293, 95.676797397001650,  4.022178093195932
17.112325180449965, 12.329529282623321, 102.786734786391321,  3.746102354881447
12.607501228208365,  0.715248438370560, 88.149918092519954,  4.016611483288737
17.644542965083595, 17.804289027382676,  6.844223839769623,  3.926086833106655
 9.642554874508363,  3.229503695924361, 63.188397923711193,  3.921245679642977
13.849598882175064,  7.938893674061264, 18.578186837197482,  3.642092585968063
 6.532072820039940, 12.926717981154255,  1.854589155701986,  3.738782027537489
15.763932061013573, 14.970779687162475, 109.057474972311311,  3.998415432453787
 1.521110696743755, 12.366650610113862, 39.482615732131926,  3.842831881288072
 2.924172296921095,  6.691068752021711, 63.567208118228820,  4.148511697856836
12.506471276815661, 18.462819535969551, 71.620558324493814,  3.953214073464823
 2.691718088483688,  4.056685845009482, 91.709250032995712,  3.692248811861158
 3.513715844365447, 12.622859101825608, 104.957281221020878,  4.295206309960370
11.060122793144156,  0.881262084015166, 46.630294491988742,  3.853662874729182
 8.528853241139480,  7.261396708750746,  6.656077436046538,  4.389178018030082
16.869587543917465, 10.329678442439635, 60.281169887867016,  3.899497369625370
 0.634694139892617,  0.397254583522647, 61.148315267475127,  3.945430537457379
 2.421590604834470,  2.206979632284394, 14.835477834798674,  3.778864070603584
 2.972120558447059, 18.271120204321338, 103.004131222592349,  4.316514085357293
11.874107299309623,  8.411057534826350, 40.999183292598566,  3.879790833592100
12.882526996967844,  9.190444452261497, 31.013774211075347,  4.062958618193970
 4.982987468648728, 11.497486720723737, 19.419016398458709,  4.071991811889800
 1.912499495314407,  8.957998872430462, 105.947294716140505,  3.822546121046840
10.429785976555429, 12.528603127171886, 63.475910934218462,  3.777574871820005
12.900236064103602,  4.863478457384846, 68.734298723518307,  3.753056731988571
12.504876166472288, 11.660710284834423, 74.035011204302748,  4.139490676115669
 6.183888815942847, 12.787812387179892, 30.646365356941988,  4.210466969166869
 8.706243858966989,  1.161844299745896, 36.483843386058567,  4.025112646480456
 0.528960393925038, 14.195110095690644, 94.406189653773737,  3.919410780084360
 9.481582026740744,  8.603733191995648, 57.404171314889282,  3.708631041569629
 5.566122601667769,  8.822737053937189, 52.314558130050571,  4.400056861318921
15.582174841416148,  5.046992130035193, 29.847447831397464,  3.929480014292714
 4.471050517104723, 12.308859939690812, 27.061400545237390,  3.737321937463769
 7.762937574259967, 13.251038576143458,  9.115694285098186,  3.744838260049257
 6.244271208249557,  5.818462242464288, 111.227170325005815,  3.980380828020906
13.298597756561737,  7.650969980808418, 108.133661187627993,  3.936074386861632
17.011408049224940,  2.282388989804363, 48.201087151493766,  4.321311844652714
 4.546406682666395, 13.993973656958007, 58.365903195859083,  4.048237454382030
15.184829398878124,  6.563711181167737, 14.215901954581657,  3.737346473971439
16.201532324799775, 11.018192408405504, 56.284822380966723,  3.857810751463297
 1.594856750112221, 18.557311600220917, 71.101779842819766,  4.028990562362339
15.459768405299014,  4.834609507203448, 114.338338238839739,  3.773439164699190
16.645180207967247,  5.032696298839396, 67.680821444498363,  4.032343145257299
 8.696102229471142, 18.589466062542186, 32.695599379120509,  4.082666535676422
 6.074876795862945,  7.889549799093778, 12.453193090672853,  3.978987480015166
 4.284983136143137,  6.459871320583538, 48.071972332549457,  4.547524980117997
 6.371785276228236,  1.737787546737932, 25.325745741980612,  4.389005652861422
13.124859262802346, 10.470494249824121,  0.304392436891373,  4.049461757863067
17.319790122573643, 11.073291144607627, 64.395749573318739,  4.274141391854254
13.027788325273447, 16.613761677735660, 17.650621023028116,  4.248336035422186
 5.607073470698591, 15.159280239206511, 76.908696736386233,  3.993453899996829
12.621759217134322,  4.343847684999223, 60.584149741994409,  4.300464965025788
 1.795725135347198,  4.644210405004661, 25.006033214709390,  4.341336504614225
 3.465682261103643, 13.189521433478252, 73.154981348570601,  3.935292756577959
18.862070805768550, 11.353261575347469, 53.374762230118620,  4.007966982489938
11.695807234128331, 17.170229459986718, 52.674104334635992,  4.046481880645215
15.497064089612129,  0.305965239059445,  9.757266326246247,  3.865572276339487
 8.566144293252714,  3.907942341646083, 99.266705341315358,  4.110372231277730
11.970503760866562, 14.058589878844961, 105.023067047731814,  3.983958384225381
 3.102052798317489,  5.654913578542053, 81.248403498057925,  4.511696454806355
 0.205500749899465,  0.929765843350656, 84.948508447869614,  4.332722548124393
 0.461279541135171, 17.209803323049304, 22.431200491278428,  3.982404497433158
 7.471276279305362, 16.657305620856857, 73.772988795728352,  3.865445352334816
 4.135947155743147,  5.279533019929622, 31.107815767853907,  3.943546556623078
12.357926630561684, 18.825547177963472, 81.920701021960667,  4.004428671850702
18.241941913373008,  4.375862132830106, 14.546864793233709,  3.797293568167334
13.151826289466294,  4.370710261373250, 75.668209374834078,  3.778413300291740
 1.540154633778944, 18.113340400833703, 29.200435293923245,  4.190146788223440
 2.812398697351767, 11.523239899961048, 92.577151973902176,  3.943898286231653
 2.603995082120663,  1.395750157114879, 81.581733065250575,  3.986542450569138
 5.781002974574350, 18.669304387974535, 39.294648552223819,  3.946123700847791
11.162697144845076, 15.111900168373383, 81.774000090059616,  3.795303629966900
 5.084086268763051,  0.988371309406247,  2.297238549546633,  3.964348072233950
 9.983873102086703,  6.983776155299342, 111.237102335282472,  3.835715910695252
 9.795695480964952, 15.605403189907973, 70.580463958804188,  4.126693136666933
 8.060368533463789,  0.706755004293477, 116.630977436190477,  3.836052977619527
 2.697250893301047,  7.586918800367020, 43.801184742304734,  3.804317860378395
 6.254035138589554, 13.569726283675934, 16.168227713775668,  3.941636364713462
 7.654595275587543, 15.136239445200456, 80.284998712779000,  3.809356202735978
 3.577237988674278, 12.978684659754981, 113.033977587263308,  3.904825397556624
16.322548470094045,  0.385438161587556, 64.500724997912769,  4.378612533718970
15.710743484195040, 16.825259488954856, 38.919622127741690,  4.075837938598699
 9.426789229322655,  5.592791080033678, 39.593727360325559,  4.073527927719559
11.962050140221505, 14.311060748911121, 23.675201832996315,  3.993618450547555
 5.359334615076594, 10.481576689836185, 95.274040143963305,  3.759016180930332
 8.884603976027574, 17.290151063037214, 77.332803516957654,  3.860507215147987
 8.723834800676793,  5.906689301510170, 26.047875753824282,  3.961510280809391
11.784552083894175, 13.463230820178383, 54.428047010476355,  4.141991830909251
14.768449799927437,  1.601502480007394, 68.229569267609818,  3.800395082014895
 2.367792429539949, 10.081407706341908, 12.584525006202368,  3.915247148374132
12.058913390559425,  7.555177883671652, 73.542491130032587,  4.176698993514108
15.883790931739187,  5.154680329876633, 78.458465051735587,  4.144294532871040
10.611507059042550,  7.021891767166440, 47.571556138978735,  4.044013603420128
 0.465301723073144,  0.091951920002891, 55.250504694744180,  4.187617433442089
 7.899187620674876, 13.852679936757319, 23.106518463001819,  3.898311497890973
13.449528990121353,  5.272760558267247, 54.681034510127752,  3.999738705393164
 4.936581778544901, 16.773622391672252, 99.243469569682560,  4.006064532238655
16.426508518173254,  8.573305248156840, 27.876342916408724,  3.897405469029219
 4.172335665289912, 16.389115465433115, 106.484318577829470,  3.933284418781651
 3.947437908419944,  2.289765181418219, 68.295127274138082,  3.688124247389508
 6.946656157835495,  1.229039963941175, 56.676887164520636,  3.779203260066840
 1.035580091320039,  5.701140634974891, 54.858477819713102,  3.657831927177879
14.260720228183478, 11.194033331708065, 109.903912943802993,  4.197698940463591
10.294493348946139, 14.832784329418272, 89.180622228425079,  4.062616097509282
 7.968724698860343, 16.473015609941616, 37.247194119415930,  3.480581192001271
 4.041712189129364, 12.811915418488441, 23.186245593305809,  4.092526172700173
12.949943008788068, 13.479279436366541, 32.325968408188508,  3.860738064678699
 9.230022555063247,  8.323754356705573, 33.356364783063761,  3.809432095555298
16.414563020812320,  8.768360277621191, 91.780197515086087,  3.845671609495106
12.659739939117012,  9.842378413998670, 84.550889978349744,  4.320966535635090
14.403799295607348,  4.259954718751293, 64.368708379060735,  3.924479972733047
 4.002574286374890, 18.293746806690475, 20.858591318249065,  4.007931666741627
 8.321461546112053,  3.711931804510911, 47.053676001611613,  4.027694197118037
11.451938450866335,  8.464676466416405, 115.540174180689220,  4.121127786931616
 9.620529762996638,  8.779537158068747, 10.526373609799723,  4.185737023164221
 0.761485747058793, 14.613896312838087, 70.756017237368368,  3.809968583249144
 6.239103741707480,  1.116980518954247, 61.479886726173753,  3.987193608098475
 0.888678186529619, 16.099363808404977, 90.905586638583642,  4.057352964820715
 2.725475230928065, 18.582971554274415, 11.886478245245923,  3.927565436969678
16.953073537859535,  2.172094242254036,  4.481714176730631,  4.208617766856901
 7.824258344774999,  8.072583049841326, 78.194606123788702,  3.687651219663930
18.916918659810200, 11.669277055907086, 27.002830953432817,  4.054834503373466
 7.350295096892189, 12.402420735173418, 114.267151345852440,  4.063905422502847
 1.023063965034221, 16.186537509432988, 58.284573250447622,  4.198093600145294
10.133630538202725,  9.860919967671171, 50.955506297073725,  3.997170371605565
 3.144903331699292,  1.285597672302073, 106.992231167436145,  3.738719895856671
 6.193577483499973, 15.442352406243948, 102.950173205783130,  4.251365092161833
16.492169683702674,  3.819446356610632, 43.107881211192982,  4.192345111886173
18.156563537628294, 13.199248409909648, 23.061979064939823,  4.206859322039787
16.481272581983795, 18.862543980184459, 35.538389214004766,  3.965110398060659
 0.230588748728032,  0.940026589162627, 92.878862035957070,  4.577133968692811
 7.288297266632068,  4.041558110731879, 78.777647289559283,  4.312417814834074
14.196382094922454, 13.066021322216868, 91.322655706093599,  3.875698529411896
15.013568974909688, 16.969492896271216, 13.065255037072129,  4.149251765624939
 0.264181607769171,  1.347058191744338,  1.215432536131879,  3.899153365836538
 5.713536912496028,  3.030366473544873, 21.340999846118109,  4.084927454166132
 9.927794518913556, 13.309619930434616, 67.224734258751738,  3.935514180617791
12.663256796206221,  8.055902743229108,  6.774996913180782,  4.020488385259857
 8.580981859532779, 10.950748496645685, 54.486603666802708,  3.973702123585879
 7.956499173387594, 16.308493799594210, 92.285566014643649,  4.228992570530062
11.875040963808107, 13.657996243266098, 27.551340144942632,  3.866635517511710
 8.821172125535153,  9.815061157804022, 96.960562050230422,  4.056703184425338
11.107131564453155,  6.611316110630375, 82.934309121597408,  3.514568841357544
 9.421815894023547,  0.177078622703878,  4.936398789553072,  4.026317463971891
11.961919467702289,  3.013486683035775, 93.192823409825309,  3.924080862938021
 8.867250361891672, 11.863675892849683, 19.963489264540261,  3.725228384699935
 2.746936114607127, 12.751972817477167, 34.180798957215423,  4.305394676228953
11.915382523445356,  5.252299616137686, 17.096467604743321,  3.582937306334554
 9.058509950307919, 11.805676620536072, 47.435467924048041,  4.320272527648916
13.736130918826380, 13.942389053905746, 84.789586430674177,  4.149141451627436
14.325279570838354, 14.622237884603434,  1.128824805284873,  4.674010104202400
 5.817330974801895,  1.158547841795903, 17.775072649924155,  3.963806931291848
10.077426338095156,  6.284374098187594, 92.158439244623267,  3.902899253636431
 7.718940040883489,  0.772795231618990, 43.916150569733055,  4.038713714280389
15.711656502348216,  6.154341220423092,  4.837433638836073,  4.139586110649018
 9.313678247652373, 17.958455483357991, 102.949232031269418,  3.745079291105562
15.362452270952001, 18.895396502629652, 109.406704865411896,  3.911203600736857
16.842367241250304, 17.126806995192233, 112.657102529714379,  4.057492307871466
16.999130125534894, 11.905448846657182, 117.850145007705194,  3.601798730985644
10.242263117710285, 14.863403904503981, 112.831122948531487,  3.813980956394301
18.614219543094300, 10.031014433927000, 30.966788529921818,  3.970001680356213
 8.828938533281159,  2.386793132844924,  1.665453824889235,  3.932667603011063
 0.281476976748280,  1.429980341803214, 67.361236118486772,  4.017623946876785
 9.846624343502375, 10.567786388526153, 71.361407567455046,  3.674368960640648
 5.070522543944378, 18.372350156317225, 109.743549630676029,  3.901805862508414
17.510628850332729,  9.470896132247203, 111.899416907739507,  4.114934822285092
 8.325225045030010, 18.462896358763857, 88.671342955332037,  4.215666308120248
17.617205755625431,  1.726731029754811, 23.759866514440855,  3.945586927954500
11.114240566927485, 18.119795544810156,  0.594040778099980,  3.940621994270310
 0.242952514905123,  0.902864671831098, 74.724445944773237,  4.057333909617472
 6.747559933330078,  3.432601332147762,  5.234508666733765,  4.361195163098686
17.169301725923482,  9.930994476484960,  5.768597306870379,  3.973906994231931
 0.595301574857372, 15.063915194010223, 103.614017712330352,  3.742674482446907
12.353334794105596,  9.814379192107154, 61.799201212978360,  3.662244579241504
 8.969459655063496,  6.858607066946481, 70.905229679835230,  3.994118269255474
 4.223083121600713, 10.533162332597231, 41.733736554347537,  3.982217122287424
15.404157134373074, 16.696178926484517, 22.952188902222211,  4.110114536341994
14.949595892409000, 18.714613955169053,  0.001562552568703,  3.905435393241742
12.615241353090701,  6.374690931458985, 95.076987961526882,  3.831250779755009
 0.040283100233124,  1.559912622280462, 78.624760584970048,  3.834597887695179
10.890027870467044,  9.556424666922901, 44.571905723488072,  3.815604990843005
 2.258180628757838,  0.449396833125100, 25.298244891387657,  4.063511593273822
 3.164163465994269,  1.158726749056957, 113.846301504622986,  3.770990420396717
 3.182980009916294,  3.967108706936774,  7.331165111175017,  3.955017982401099
17.068085735359347, 16.955254902293174, 77.831733998672519,  3.985817888760320
16.217003317192916,  9.270427879221815, 21.279199652161861,  3.933009961391031
 5.476921478074123,  1.111117937077118,  9.211284084713336,  4.251597844482502
 0.625678859138206, 10.462103341251511, 86.174258531216196,  4.037456692822726
 1.067140384235319,  8.061905161683962, 74.404722907958870,  4.157380461725244
 6.206521345257240, 17.300141988876458, 64.539298853016874,  3.786363991112139
 0.204847790186164,  2.174169064692056, 104.507818021640446,  4.096500072530968
 8.672224637166190, 10.411819456440417, 60.707573375058644,  3.936724894781257
 5.661053155635662,  4.988910932549076, 44.216326575214595,  4.120002119975267
 9.928667761894824,  8.527187907847404, 18.003114458878024,  4.289342461957553
 9.537054733730717,  5.815100210329799, 67.076957691101228,  3.982220453506720
 4.739094593091355,  9.270515701265969, 79.956761783276562,  3.805423591596001
10.105168507284530,  4.629033107736213, 57.137409003889260,  4.246745824875449
12.804557111969265,  9.386402212026839, 54.825285919771432,  4.218842699666102
 2.366923967221341, 17.350199761064552,  8.190999808619162,  3.871384242213352
17.063589893336029,  9.017385718548828, 108.001119165410941,  3.745687778533091
11.053353814848599,  6.046216745883747, 79.125310593661951,  4.138781704181754
12.111556594610027,  2.650223330204399, 117.304994709220594,  4.021559688954432
 6.368491550382308, 14.419765187598570, 87.933124416989727,  3.914492647225317
 1.964058719577648,  1.404177533641053, 88.856204889161518,  4.232380101102148
 9.035712604900716,  2.805322773247996, 103.433393681048841,  3.819105934570299
 6.746392594630887,  3.081845436419959, 40.932885042150104,  3.743742848416805
18.266488628583520, 18.777409205167661, 116.070008182150659,  4.033235129619996
18.566620298836849, 12.679258345454036, 106.843326863468121,  4.345481913562858
 8.039760280113788,  7.456884023383419, 89.130526183890112,  3.715078221533365
18.694177550983788, 12.880650078531232, 13.301038704194866,  3.822949486075923
13.978728341634968,  3.001982017253559, 111.334973869686266,  3.814316493360175
14.898448226630684,  8.185436181114653, 97.605098803054517,  3.861178915250589
18.125241114868224, 16.637637546666891, 67.901786009842453,  3.846491839709808
 9.479276537312884, 12.376629456575357, 36.773064297851725,  3.842559648332535
 5.462229544254714, 10.350964582020911, 87.956732784548635,  4.326995416790454
 0.053154004759147, 15.806888341813776, 74.470191234344895,  3.963210816016040
12.857891049782108,  4.729838403429177, 20.845158674201990,  4.212433718388271
18.427766729694966,  2.319831017042963, 108.487289859323624,  3.968652229130266
12.984612179028035, 17.318774062772786, 111.983363750659450,  3.723348030611072
18.543567961898329,  8.096224784893181, 57.514936558254483,  3.922976817389678
12.513489437132716, 13.490374078420082, 45.548404746479200,  4.209027384125614
 7.149749494506096,  1.448926085005769, 75.403464413463666,  4.198872123520810
17.516571367020486,  9.903128210897924, 99.871344478827339,  3.867852170979611
13.399534419384677,  0.146510775126665,  3.786254822308075,  4.084248049899042
14.683484888238336, 12.039952846599803, 98.262472349189053,  3.906095168620539
12.348773148559617, 18.636263962077827,  7.626781129616807,  3.826836861481197
13.493083011239724, 16.197094097772904, 57.228180662699806,  4.382778514675453
13.787414434709939,  7.701194016561574, 112.190630325332705,  4.132582574246010
13.644745485192885, 14.655801646470499, 41.710380191117210,  4.100331703944958
 6.690195198684361,  7.907464014519344, 99.606533826283709,  3.710386140850950
 5.008204496620267, 16.811866231097387, 44.963829461648501,  3.966440063970217
11.312402502332320,  4.879864654606746, 106.126853792088525,  3.925780854930385
17.545700125003862,  5.304679647135421, 21.593529461807943,  4.340473678202033
 8.914291761379285,  9.820171781357313, 93.053418059191515,  3.752989829918905
13.340105171533814, 11.805684732096783, 102.001761746000724,  4.026814709533678
 4.799786953138085, 10.898462287354921, 76.029587614545633,  3.835386024435453
 0.738030746013559,  8.708682255541317, 47.060412580085739,  4.085850309519400
16.488786532219095, 11.487585036577439, 94.719921701921237,  4.084419044700126
17.875460593548251,  7.472085549169259, 43.821397473742927,  3.716982387206011
 4.980257868291173, 16.567786879100826, 24.355800989274982,  3.993262017795313
18.051252411760373,  3.855516625471247, 81.941331626999698,  4.316575230989852
15.243933478402342,  1.165589744312459, 20.397342124152374,  4.354583213878497
17.223797188347596, 17.322482184309422,  2.950254569386342,  3.923419879026963
16.627968190230675, 10.647586383135339, 83.358837931506741,  4.105231039022247
 2.991740672018132, 11.909864841775004, 50.570310802657481,  4.164835409261216
12.727340658498521, 11.751456951911047, 38.962819056254681,  4.079484595991514
11.552645223025308,  2.453888281251018, 33.786607755755625,  4.214120650896561
 2.147982919748161, 10.295841070465679,  7.249457491661760,  4.349002582533152
