BANDS
8 8
NANOPARTICLES
cell(1), 18.956
cell(2), 18.956
cell(3), 118.473
 0.213410881730847,  2.334816739919316, 99.265797981003203,  3.866882067521059
 2.832460016887635, 13.692479847651818,  3.477847922766888,  4.196905513537695
 7.338989132627249,  7.556096599795589, 21.325046101851445,  4.283831376031348
 2.961136313020664, 10.169629321260397, 63.603391912490146,  3.966111750112266
 3.447105308767421,  8.173285177875817, 68.815337086811752,  4.330407728552555
 2.602470129554832, 13.907741760068422, 114.790663698387121,  3.763107675457130
15.623299356229506,  9.969839380339780, 81.796724743566344,  4.189004634775989
14.795507148001127, 17.595378499483733, 16.017219250565613,  4.224911118518578
18.145902530905744, 13.034065908219418, 47.720028333250241,  4.000260044365682
 7.029934267493646, 12.437608766181778, 47.286867480707208,  4.224762836269543
18.064555124918911,  2.039654427072702,  3.980245289831513,  4.114347799391526
 1.039446141644597, 11.920036785896412, 52.464353429017365,  4.136096307277739
 9.704883802724908, 18.469476045992764, 67.302839559953824,  3.962238646747435
10.202188150056619,  7.446751541985251, 71.169129877827189,  3.966384743689939
 3.069296406083653,  0.727858250991372, 40.420974060863472,  4.112095581938735
 1.496095718607982,  0.834284496172548, 109.222348322414433,  4.208646884227252
 9.034059193960548, 18.708658341962849, 115.400166205665684,  3.692514740290533
 8.799706527763648,  6.178809034223670, 82.725492185168250,  3.851613596718330
13.596305761160634,  1.797647632688411, 85.478380099432286,  4.006372941678205
 3.141795459735325, 13.087675549507585, 15.973856753336403,  3.736180425766337
 4.890117991843647,  4.461692389177447, 66.923504897392547,  4.083857043220660
12.188038509916744, 12.265057079496414, 72.314645560918478,  4.022592002191698
 2.676646703655646, 15.934579094993923, 62.282144038524365,  3.932730089756385
 8.518049670418851, 17.208091232202285, 76.881867539195824,  3.495085559949808
11.552438392275279,  6.138845219100867, 34.537298542023350,  3.881321776946688
 2.205014105903943,  9.803300325663985, 38.714245959758067,  4.078646941677892
 7.919009732107473, 16.814496717909247, 25.260056390742893,  4.045309597702501
10.278768298476882,  5.951112157185118, 43.139978359226504,  3.941571624332298
14.022696432965688, 17.151713325075931, 87.394782188887604,  4.096856100319652
16.177376290636250,  1.765720787086991, 109.103663581068389,  3.833203346455411
11.751225540605715, 11.758959717576891, 76.139914359557409,  3.594480109179639
 1.640170267547958, 15.991277020310863, 29.822804130223197,  3.976673574589558
 3.003880271122389,  1.960275265126784, 23.648932766445924,  4.197020003557893
 2.836428902851180, 16.493357809110272, 87.530786422923711,  4.149454181508509
15.387301618389618,  1.444015738265135, 61.518423969855526,  3.842336801086731
18.078428157399973, 11.535411006520150, 56.481392890349902,  4.173798852159445
17.038284713275999,  6.392946617135649, 25.673690307260227,  4.065309695622227
 6.069770861106748, 17.331037298606226, 37.732554501637225,  4.213085718050822
 4.073419161384855,  0.147495524971559, 118.390076534026818,  3.839386872541076
 8.248562928594193, 14.764271117445595, 29.644737466107269,  3.764795085682008
17.394582011387484,  9.018054502743672, 78.140758055284337,  4.149291881505923
 2.608292347494507,  0.975191791196993, 19.779564178126488,  3.786968840801931
 8.498470537425282,  9.899557453941211, 50.762336669808924,  3.969507678989578
 4.919066763804134, 18.606276826498288, 90.092812864278528,  3.652829158291981
18.355587348575657,  6.045900639054148, 100.312319170045981,  4.010020294536609
16.876703673405363,  4.349185402096231, 36.261240271839590,  4.096113074343414
 4.942996446262542, 16.800166537244433, 10.365309580873411,  4.136091482802491
 5.071062724064606, 15.545376555490805, 27.715051264728242,  3.828874786548593
17.063231804188650,  6.533807121872545, 39.799848590953296,  4.158265248811341
 3.720775881252625, 18.604338722333971, 34.565228934038537,  4.056885960070450
 5.623575758538763,  9.633403629327175, 33.006864482625545,  4.027214885437200
15.288594147646245, 13.513692478345570, 17.709135203843363,  3.966279332662527
 8.930833012193435,  5.530003071929579, 104.177179166096010,  4.148592035790488
12.956604422984437,  1.758133406960183, 66.735252861579113,  4.014485355020616
14.218195810763062, 15.619423199612189, 29.364385551121359,  3.725694179044233
 4.364202970030091,  5.542048945645678, 76.180250876551170,  4.182117609853546
15.933513086868741,  3.117920336972341, 45.528999747415313,  3.754268913942059
 8.350213767930837,  3.385738169574211, 76.402407693384262,  4.143632102360142
15.571182817061690, 13.789565037883236, 111.463603374816628,  4.005024152428303
 7.768913548765728, 14.621625306782192, 83.635649030309082,  3.755525225951212
 3.196968241105966,  9.498956772273196, 75.626137163391945,  4.116965305613930
11.703726182072465,  2.111824844658322, 92.171931182375374,  3.907421163655750
15.027295141835042,  9.715319464006171, 19.751194202664557,  3.939986105377417
12.196707266803767,  4.990163314670978, 97.793859336197698,  4.135501243992432
 7.931936421913685,  8.757572710131202, 88.515221698345087,  3.587949028920129
 0.894760442505459,  7.638646727714137, 96.553354557813705,  4.286785771907225
17.623583562404086, 15.392770961646059, 62.100035640796563,  4.134648887421372
 0.389393927891395, 11.547048214255279, 117.165675277258941,  4.193664718713152
13.273713785427402, 16.975435461778709, 59.972989078521287,  3.689696435143034
 1.840076586454503,  6.277113794245755, 47.118129285293143,  4.282915052954849
17.953539661469854,  8.002764853501201, 70.114238083318710,  4.279015160798690
18.009659290346036,  7.818582420429495, 117.433443361594115,  3.742505092892572
 2.419801862656473, 13.672539626442337, 81.418163137618421,  3.545145758670064
13.654751318145145,  1.372788285151872, 29.051652423312028,  4.143361972203816
12.556802814780571, 18.781594400742556, 101.008431912911163,  3.963235333108238
16.002744431325670,  7.699277563587160,  8.626826416516183,  4.186269111764203
16.953845194225543,  2.323173813527284, 39.734405245436449,  3.937414756470345
12.256306925681516,  5.664805561884561, 30.083674958701259,  4.283457464804901
 2.046055355758996, 12.874280052944469, 27.093414203201981,  4.336287722048647
 5.884858204651839,  2.186491409988967, 115.347681233949430,  4.259203533202074
 1.803354514399212, 15.206823928304061, 33.690815691323657,  3.909365162752082
 3.404861181200721, 11.132498360655482, 111.977717811568724,  4.223049566128776
11.747008904131599,  0.825132381843513, 70.481112189525120,  4.029047456558212
13.147995614532018,  4.814374099498847, 71.711931027582182,  3.997227407033870
12.918616392613366, 13.317297474184638, 91.172878441346072,  3.990137829551225
12.012613859039138, 12.920518864271395,  6.673584906652955,  3.980936914199114
 4.475746340731583,  9.866307466269751, 90.292341604159574,  4.478799591107327
 4.873835349395276,  1.430875106606474, 77.217362158875886,  3.988071976456383
 0.310779490110767, 13.051355356091253, 91.828780717373803,  4.149565898738022
 7.092043349148264, 11.563145668575748, 113.610052017548895,  3.853338894461638
18.631832798984274, 17.370502081282023, 99.286927231634238,  3.974185592110114
16.120822167198220,  2.965342855257935, 23.638122939658651,  3.956798240988364
16.656157104613094,  3.699959729875255,  7.518095629482299,  4.176007224358260
 4.575056529379370,  9.302577072012609, 46.096470971209982,  4.079475555235073
 8.135902829188284,  0.085317555191164, 73.618947841475403,  3.682889705122327
 2.174444094306668, 15.995915672976352, 52.259172194465521,  4.332311755611220
11.278514754754816, 10.710043225171072, 88.504800577550256,  4.153450527276298
 3.092447206301963, 13.627757308177417, 55.667547166271959,  4.123976295816288
 0.206921920003861, 11.721693625053934, 95.754365778602150,  3.911539764810675
 1.526110391837284,  6.041581958907423, 57.025933674754462,  3.703940359070539
12.452344099896647, 12.644442829798239, 22.835391088037476,  4.394794827836806
12.782755452701172, 15.724756636446394, 109.210521693267623,  4.082083772777381
12.448851069105391,  1.138602944244024, 114.529765525468733,  3.854177581809277
 0.529170738909146,  8.136192794391032, 113.735398687588699,  4.210002825782986
 5.871064575149267,  4.282999673994106, 94.680609328232038,  4.077651825785525
17.671606106676208,  6.516311789969881, 44.159385323116318,  4.293390793431890
 6.517218254341272, 16.249902781308585, 48.791580686789445,  3.987449479692082
17.967442963239705, 17.865029028981997, 80.337648872544662,  3.863618722056889
12.150619566145483,  1.469993107812119, 57.156103121467005,  3.895420339196788
17.041970755539104, 10.602601363621359, 34.038629553089407,  4.360276908203525
14.224793120758433, 15.620934653251632, 42.806431008313027,  4.238593277271439
 4.102429620618298, 10.571759555265368, 115.931373259392061,  3.852643560390085
 2.886727597330350,  0.528147326314314, 105.372491397908860,  3.965799066686297
10.956113033822792,  9.547812348740550, 55.319801100235438,  3.908715689491626
11.829196962600019, 11.811531458960250, 18.750227796980383,  3.961147300945700
 7.559390343631900, 11.315736508357416, 97.041091167765444,  4.000787537775047
 0.558510713806529, 11.975919806022633, 61.012674932963947,  3.904260981098648
14.717515786639279,  4.274685697505240, 42.172531106182106,  3.744149893330912
11.377941372451259, 16.310731578622967, 105.284874392400269,  3.797488569924996
 4.598819831396929,  3.840972595349768, 28.049901547379118,  3.883537089826816
 3.401585331921857, 16.221477660439419, 20.266543265729453,  3.770721829916270
 7.184352640174143,  3.570046629653084,  3.800776610896723,  4.154444767487638
 5.671867061414657,  1.601671765636855, 53.766204144579390,  3.819294212042458
 9.148080745070629,  9.291830087064804, 111.214834578210329,  3.901551242706647
 9.022024975975029,  2.898198444570673, 96.675255896499309,  3.753182307167347
18.222502911559921,  1.805584155082128, 10.779938035403886,  3.920594382994881
10.380623724105286,  0.876297885855030, 47.719940607476531,  3.895513528930729
 8.983209467619746, 10.650706729851047, 73.883107191097423,  3.804210622989735
 9.981304285109319, 18.262329824080457, 22.218100502510342,  3.831962441344532
 7.521463282702239, 10.431381731494566, 43.775679570045540,  3.679418307847230
 6.039191021220627,  0.535052797371242, 58.297082901954070,  3.907439897708214
 0.505694416839200,  0.637430792294571, 50.825293360797623,  4.101100103974233
 5.577708765652153, 12.781861658761869, 74.675268082856860,  4.208895437144926
 5.608670620027255,  1.032063961383020, 108.262300464061184,  4.016077911002821
 9.495917317073921,  3.688755093006475, 72.593234341646252,  3.833895247388981
12.310309848358804, 17.606916256866082, 12.830184277994917,  3.852751646866218
14.042186554883720,  1.316257116072789, 10.478493734467937,  3.911436674650722
 0.132515295363641, 15.224007547689459, 106.875117035023166,  3.837267977404945
14.164348659553195, 14.153636596052730, 46.722920331996484,  4.108679980311551
 0.564122209845168,  9.505102087833523,  9.284512050808834,  3.788086502223821
17.797262221456624, 13.998273539104499, 10.845519286350282,  4.216236127953484
13.583085115885517, 12.573857543977171, 27.006300260853173,  4.030832399157473
 7.224760320044400,  0.453684144784432,  7.917410419448958,  4.241483953806521
 5.285730242459116, 15.605817595489587,  1.005283629373444,  3.678264333876188
14.713269816703344,  7.626362065264345, 52.156169126028637,  3.976644847257848
12.771291118547294, 16.485327084968212,  1.889826369513267,  4.148188266817860
11.201833525899991,  8.110884409330128, 20.034474350253554,  3.931465599692968
 9.306612819588157, 10.312849179107024,  1.460771492181937,  3.844975533192353
 3.318571190639026, 12.231646994406445, 108.070678202281599,  3.829382272694866
13.595271738496365,  9.188110913833215, 31.552177338116834,  3.727486169820035
11.859832996928677,  3.130590968047366, 61.234518597336297,  3.952244558989248
 5.937350114981697,  8.322519729466894, 65.489829938132303,  3.942315686375432
 5.380983872353216, 13.001143299906559, 94.220942945629616,  3.873344459588162
16.617043361502731, 16.911019049559343, 109.288993400386744,  3.828325522789243
 3.582321034586474, 10.856198998325366, 42.433123345619656,  4.064489707667148
 3.709126323815935,  9.298500531044308, 86.017787737425962,  4.264339768004394
16.255871043315459, 10.851726591550081, 12.929735704684695,  3.890097327863746
12.922201716030607,  7.511832530592225, 59.787052654308006,  4.242967722440236
15.357333047963760, 17.568623541000871, 83.447401490889092,  4.277316113245123
 9.765210846986593, 18.588449434557376, 59.747518334555465,  4.014440804168073
11.372466670611312,  9.612969822536540, 44.259091787895905,  3.978056516095645
12.426544942289992,  8.879127521828694,  3.414859415674206,  3.996982538418107
 8.469655434470024, 11.492061550840566, 65.673122509184878,  4.155583258441627
15.994439929638885, 11.450659034931856, 52.461318465742792,  3.917930134281647
18.300225137190964,  1.170826172543565, 67.537865717068982,  3.411155887975330
 0.970415294018123, 15.417500728970841, 111.409298424291677,  4.207395610483686
 5.766522576362911,  2.838255436917251, 83.514377647231669,  4.117353726379991
18.937706036318705,  4.188764725729606, 62.288804355018797,  4.245585353805615
 4.984596345962081,  6.717542809968535, 82.808059023737385,  3.849190006107639
11.203928899825030,  3.616544091516831, 18.571138162996103,  3.899224399794153
 6.695268123505285, 15.135586145511086, 21.872017104355677,  3.871202962022361
 4.943290560753660, 14.835003261825864, 111.933533329349473,  3.791474378398794
 2.848478870882174,  2.305862402664631, 93.000626825000083,  3.871912141961645
13.092713547520320,  8.471119660928856, 11.590363570338729,  4.251909331526967
 2.057265769768820, 16.710590450948583, 37.643009750636764,  3.812781176514097
12.271830780768745,  9.088204773979198, 97.894346988540974,  3.923255398429642
15.034439051392619, 10.710076522804721, 48.675937638518000,  3.995982242309965
 0.467106064482145,  9.102396199103646, 91.577895188789597,  3.755037302225144
 3.942202789774408,  7.980709141333030, 106.660916500750858,  4.123589995621074
 9.987128184443106,  2.975671486093941, 100.686150559659779,  4.181083183783946
 0.715118142654457,  9.487879245309227, 82.148960647815954,  3.954512415354554
 8.078963978994073,  5.926690177126580, 17.642339363322002,  3.900603416689510
11.317917801308500,  1.242726263331158,  7.689675900757099,  3.771203573588914
15.964209054409498,  0.505990128589431, 48.914061943726061,  3.846364718802497
 6.965241695719210, 16.630159624021580, 86.999415953375589,  4.180670847413441
17.462262726698164, 14.360580572544077, 28.168544969857713,  3.626916331652887
 0.402526016238759, 16.899297195458590, 26.233721602238823,  3.761660617657813
13.830117701409891, 12.824324849898071, 32.717574265409773,  3.880255330718269
 0.629815947196329,  3.301765004874660, 53.686738151914255,  3.705531593395838
16.566209636690679, 17.568567533215042, 12.314662207213013,  3.885614007590962
15.814551802442443,  9.880739163514344, 114.957830561209349,  4.044844867330918
 0.482510302838458, 16.989664628524281, 42.515637760194835,  4.319050971893723
 7.303846081566042, 12.445298175888377, 87.195532429794980,  4.175079843990595
 4.636969303533915, 12.805597738391823, 30.517283326544337,  4.051601848211085
14.014175491038555,  5.297304035762027, 87.085115542617245,  3.739449943576719
15.372847983587121, 14.294477726964077, 58.073160084309748,  4.018279590384386
17.769780682326896, 12.141589905569385, 84.832062162397989,  4.360708487881143
15.065284702390914,  5.184736220444393, 62.213502104943885,  3.724911480152216
16.842240226512772,  7.116127754495329, 89.051394678914960,  3.995472231697700
13.014518780151217,  0.311178008798675, 107.297540169075589,  3.977815550333620
18.427515918433208, 13.750321469631608, 36.701937958428886,  4.236327551352401
 4.487663209660264,  3.475703133544370, 36.604234215090806,  3.998725290786226
 0.167905920189272, 11.664317960649818,  6.055653866896106,  3.982346175449808
13.754301921127063,  8.134195618610235, 104.767566339601117,  4.300877102208651
 2.185952590744759,  5.138397238037019, 85.081349575391599,  3.977283767749217
10.124121439090940, 15.116640056690045, 19.989119292197440,  3.871124525748337
 3.003535135233952,  2.253590487978695, 56.348588656780002,  3.719565998602987
 0.316298561576296,  9.885477227991194, 66.654932828476234,  3.991977407149267
16.325990838040521, 17.280613980008273,  3.854126794577374,  4.069310372425902
 8.758134046817853,  4.260355028264626, 32.212481257248108,  4.197471464084316
17.958050260832021, 17.908675850721078, 73.818044800887193,  3.637411883238157
 2.280982226221700, 15.074401715416121, 12.824063396625345,  3.883808463789387
 7.636804415614021,  6.238281424133268, 28.788923780956125,  3.837973321858793
15.066033199214846, 15.834738120615036, 35.414440319703360,  4.037243264472800
 3.892802306857609, 15.557469384284904, 67.355325455583454,  3.762326387264704
18.718933984172136,  1.561811549795572, 71.176103612000674,  3.931745680052174
 5.183796248228651, 10.493984088410921,  1.855029707801052,  4.018285135099640
 5.138024716480106,  9.914019611986117, 14.242992143757862,  3.983521882844596
 5.227098665280696,  5.297370437594144, 62.979172402524142,  4.003321474947143
 7.497248699309746, 15.473449903276933, 65.787348119332790,  4.039956278006302
 6.656080205693066,  6.169645587219240, 91.112508162211654,  4.109652699338291
 0.462210388757335,  5.581551178362686, 77.393429473600619,  3.964991486802863
15.961078274636908, 11.634721192971408, 29.938267432575191,  3.510312723112852
 4.480029893063554, 18.824823111280804, 112.055844035570146,  4.229300131804793
 5.324290161811431,  1.771489049628187, 31.432805688399917,  4.161064956181523
13.379040164660191,  7.845394816720468, 41.197902894773833,  4.093031220730769
 6.786827811621159,  7.735783884446445,  6.833331143576287,  4.027448692940124
 7.001834445589207, 18.430867151635145, 41.560604993174671,  3.965484411216318
17.192739173175543, 11.111882644754251, 88.885185012448147,  3.934708668634118
 3.771435592371543, 17.420209641140247, 99.571053655757026,  3.994306643032917
 0.195537942049564,  1.529911731598442, 16.753685029401293,  3.990533937580891
 5.580752882907523, 16.511316583705678, 14.348846095416761,  3.931881406767498
 7.862498405581619, 13.718764818945189, 37.055679038363699,  3.954828681812043
 4.045959357220633, 10.551392965315200,  5.986092491010098,  3.988412774527533
14.462198744728010, 17.469225953153906, 112.468809394966158,  3.922516565503588
13.601779805258293,  5.524047654567125, 110.925570185648652,  3.918093848879275
 1.460234767510548,  4.191205863315727,  6.317345927976675,  3.778305221003355
 1.820995515066126,  5.998089611468673, 26.623907305973081,  3.685762730955557
 9.113208997483582, 13.367431532053921, 103.539917734303842,  3.990822557212419
 2.863385522528630,  6.306562094739254, 72.428026996244469,  3.882869582603074
16.363571090197855,  9.815873488326400,  1.782894407173083,  3.916834880305551
 7.561004618685278,  9.255386273454668, 68.919618422421621,  3.844373967449097
16.074129172015745, 15.787706341728429, 91.719404780020369,  4.084281217617921
 3.724700935580918,  4.243817491543662, 105.580219744735146,  3.652044953143534
17.677266757993927, 13.587209980928899,  2.590916384105688,  4.185974556441874
17.667199732045638, 13.662204868978328, 80.967828889281307,  3.923345496972612
 8.529311532993191,  9.842954564890396, 17.574848168219859,  3.953362941479465
14.574876692176213,  8.757121361890643, 27.826633468124388,  3.993236671077917
16.925995530740472, 13.736295098565405, 99.427861781755894,  4.013831511644299
14.267973950662730, 11.138822019628831, 101.009909670208685,  4.046728460601613
17.557521941898557, 16.107899491753088, 50.149133227441666,  3.905151774199824
10.782496968632445,  2.696982236233946, 36.736217831957148,  4.187258204073092
 8.658487284562481, 16.093259217583686,  5.925703162725889,  3.991880031421803
 6.043867978204852,  1.041549199122399, 12.568957850940304,  3.928438363699737
10.204093522548797,  4.189898496233389, 68.690882646442418,  4.154354395325660
18.004537899616732,  7.443874398753571, 106.569385291077623,  3.856209127854097
 5.916152674335161,  3.718960774829606, 111.542680791683168,  3.932471299432068
16.498576511054370,  6.236358234220715, 21.511549742933852,  3.868072646946603
15.440493764909087,  5.753175928350919, 79.769602992017255,  4.124192551294069
 5.586603169317465,  8.006911812050880, 40.050730282643109,  4.002433195329671
13.825968332114325, 12.643226916416719, 97.211719306800234,  3.885154786526659
 4.997020975745997, 10.628387249248291, 21.773569374925099,  3.432025942283375
10.866429281068031, 18.057182840431761, 42.643707253922898,  4.065703427736155
15.462837024058167,  9.815470862260415, 67.528283471765064,  3.757291538993257
 0.373535351356092,  5.635770178499251, 10.023716416490622,  4.094602987888854
14.159146482729957,  6.139469899750942, 18.418760523651478,  3.876489531167910
 5.220069503325825,  4.034259889580588,  7.363253959666902,  4.032330422208266
 9.580091161730232,  5.037442713858177, 93.522548288273896,  3.792690322585551
16.709811695457198, 18.076267221040212, 58.549228525048122,  4.055497035975378
18.909116864417310,  2.170648609505447, 26.802326936286164,  4.563401062127782
 7.993129998259212, 16.426990642986347, 34.118083710354433,  4.029005241263026
13.160363868645423, 13.205680381135814, 54.773834492892441,  4.173711428623836
10.967950946286543, 11.173825052858428, 94.381086521606534,  4.630180587206204
10.404509665435693, 10.583858759309125, 62.246393451848625,  3.893230585811876
16.001130901647635,  5.617157666457988, 97.330851798466441,  3.615010524450261
 2.162711172021958, 10.786709958532693, 19.312547790858236,  4.002614986235768
11.790483876321019, 18.538285635984955, 74.306289240409654,  3.821097092553015
 8.705604957554060, 12.486270696695668, 32.955166874447059,  4.272696917138601
 3.165248684507423,  9.910008347149967, 94.168930455771672,  3.702320950417000
10.888204842984823, 17.357060053666839, 28.139643390466471,  4.158391791355077
 4.336486753913883,  6.200417951426527, 114.553346931235268,  4.484829729713931
 6.979711745802883,  1.715143074026560, 87.629609871105913,  3.967398612214679
 1.534135714822960,  6.676354680089092, 103.653082359568813,  3.943142018266044
 8.954161620375684,  4.059777131189957,  8.733731713532030,  3.871063174377285
15.233462806447251, 15.429854639077389, 105.800714101352128,  4.167252619802102
 9.314548438721825,  8.914895528491703, 41.012622196343933,  3.544974386372980
 9.869259099749078, 16.232676130505993, 80.495198307040170,  4.416015983573381
10.623366068970968, 13.009703163843419, 111.284904852869076,  3.986627506075138
 6.682125900691760,  5.277557756078663, 99.473538012924408,  4.187574639282776
15.142660013664077,  5.860113102442173, 32.989792668517673,  3.901156545286910
 5.561139630765831, 11.164378208779933, 78.394016780224447,  3.888990980680792
14.262803549592736, 13.102196439451745, 86.993864843598089,  4.053049927842281
11.506801926303691, 18.572263631359775, 18.464016354786864,  4.105417704698701
 2.103295438115907,  5.708313498336075, 39.039571164137236,  4.137357990737484
13.804357051596806,  5.292676918550588, 91.011392544090086,  4.051357254041368
 7.557460038078267,  9.349335279768420, 84.607040891180759,  3.908222057206128
14.899228034487303,  8.742211662607136, 56.146435381476785,  4.308296086472328
16.907451644570600,  2.658264494724132, 76.157395914575716,  3.962237227622825
12.760557511104626, 17.959150846422904, 49.974962765435940,  3.502543566681992
 0.601487422512753,  2.039102174989724, 78.868941736278757,  3.708815040966129
 6.484115776519366, 16.256489289826074, 60.786686728395480,  4.266781356151648
12.274015344638949,  3.712446013666521,  2.177662468194342,  3.831303830156772
18.053696560542107, 18.837722127045048, 112.282139185959380,  3.747565488526762
 5.133329134193775,  4.004200634343217, 20.526196368992125,  4.051107958341801
 2.366805078944023, 16.620502669876458, 92.597597621452607,  4.212104568894611
17.736699898726982,  4.035085342168712, 116.123471129958091,  4.278929718732003
 7.648765509278866,  1.385187907238623, 70.089891389117525,  3.895734929047884
16.098845274915977,  0.227855808024416, 115.731463042648357,  4.020274006533910
 3.581769628965662,  6.855867799276495,  4.119695517357526,  4.292102880821624
 7.434440599918379,  1.354410438960519, 34.881178710458315,  3.923128871672029
17.365598614907139,  4.988397004795211, 16.552960359373067,  3.797213937357188
 8.934955050696372,  3.207113500456289, 21.881103791123685,  4.120511837767449
18.795966098794025,  3.688879555788062, 95.359439138797342,  4.223245258863624
 1.127671429680941, 13.289359625220069, 40.485944768917093,  3.863675172640991
12.034185552834979,  0.451415620442517, 82.028036066768649,  3.830206197053856
 4.002943186257886, 17.598042437607130, 55.575166788490463,  3.855517535659227
 5.691414802941321, 10.024037350170149,  9.903478636665346,  3.923887504804147
17.958670447744108, 15.056806989636174, 15.093423128750510,  4.089787268495154
 0.117907766157334, 18.716681349082734, 55.247293985686781,  4.072474011589148
15.828573546471910,  3.639230916301624, 68.910113927921088,  4.090557911822640
 8.078963810882476,  2.622988564232069, 43.846412984565120,  4.099192884883989
 8.278301779186316,  7.429432179141622, 13.961658165818175,  3.987415903647054
15.029530347196140,  0.986028074431253, 103.917445099684443,  4.003646732204674
 3.841055410168875,  5.199767501217290, 54.152859585534721,  3.800728090373798
 3.147447557538730,  7.358086639845996, 100.101550731991665,  3.882281459897724
 5.451706167077077,  7.089593599504081, 58.652776492043422,  4.095138045676784
18.743085739307034, 11.796400196046170, 75.429494011834024,  4.068645225165666
 4.089996511114185, 13.569823253176569, 84.840074809232974,  4.054603339214248
 0.706307147046010, 13.254265284412551, 68.880399940343494,  4.093952591157157
16.107537488015602,  6.720734795027274, 48.380171252068401,  3.974545856955415
 3.118935046429674, 12.680218482863280, 48.889173688906617,  4.187842188721249
 3.199355446965258,  9.026662035109792, 54.328155659197819,  3.960715485891172
12.802684210723319,  4.333441007182040, 103.352768217503908,  4.026927214509628
17.431735851809776, 15.641534645599727, 95.676257262457824,  4.281981646267480
14.733661429509661,  4.037482042715488, 58.606516412247984,  3.861784926263657
10.793077018004398, 12.162468586428028, 84.586306926113352,  4.253794023643738
12.419116789402750, 12.548835850930645, 65.221375573373322,  4.012927883467737
 9.784204519728465,  3.298863896974644, 85.239623566629902,  4.030137677310351
14.525701908161901,  9.000255249919080, 23.722188760981901,  4.156267371177641
10.513886651448342,  9.111604742053213, 23.736371184890107,  3.842520328168597
 5.029081577270281, 14.211966514922290, 90.328830039499849,  4.274774550135767
 7.718264771450870,  7.175437177366661, 55.221262807533748,  4.039585660046456
10.177296144183833, 14.979314695722264, 62.608994593101720,  4.331706989637861
 3.827278991553278, 16.859822560210851, 24.153775452028494,  4.139317617477995
 8.354758934981854, 18.749847020049241, 63.536632333242864,  4.044117771018756
 5.636024685728152, 16.553447850143371, 115.582742959778201,  4.361981251062220
16.300122433081697, 10.977901226781151, 106.193811463012779,  3.824268438131793
17.039392102186884,  4.824766400113001, 72.507711647911208,  3.850404097560829
 8.864485678898538,  2.638547887212654, 80.585363599891465,  4.387070689685484
10.229548063848103,  0.454150545824071,  3.809146795412697,  4.440674866806113
16.277329161246733,  4.573448077238276, 29.343816353691174,  4.150980721334765
17.958895294635060, 15.342613482191279, 77.251330196262231,  4.030550879018056
12.225674621169386,  4.930376241689054, 64.626807969842318,  3.735399385086620
10.099234975678161, 13.331774441343141, 107.380031482746162,  3.901012215204946
 2.732257128154570, 13.021828368563295,  9.176951770809142,  4.469408234683178
13.772116499918525,  8.688178889288089, 63.929658348428241,  4.485962983110289
 7.042007886331441,  9.264374088713137, 93.680721630198150,  3.939289345592234
 8.499162222355823,  6.710663231616210, 114.124078003016308,  3.938337827563832
 9.084878095186269,  8.868301818358871, 58.854721798374825,  3.983347009627285
 9.695953554195558,  2.702310021723920, 28.358847750959779,  4.273135003773334
14.565800980671169, 18.046900952868469, 32.220446763793120,  3.796972691941564
16.869257251558981, 15.086609210176086, 66.674265600936650,  3.783201871860902
 6.083796525579008,  5.708475262411573, 86.673931709842179,  4.436975178623947
10.334669544835455, 14.076890640295025, 68.277673393939139,  3.923542406716718
10.784112216568882, 13.676208600598942, 44.312589431624581,  4.211271724563973
18.476434196709082, 11.278730797128590, 16.363797281488594,  3.928446720913862
 5.898823278751520,  5.820896161648474, 47.569272161045738,  3.925145830719762
 6.409132857411513, 16.009086993508262, 52.968387732730719,  3.911596217541113
 6.092299417867512, 18.654461996768401, 80.437015606774409,  3.688683824889472
 8.828668653169535, 18.150349564575606, 98.236113212467146,  4.206220433885258
16.319732883057586, 13.423489092590275, 40.063329561923204,  3.711180864634748
 4.999376430465443,  7.679707268910852, 96.657239971028559,  3.920385154342406
18.010748478050459,  0.153960844977279, 93.237699109271333,  4.158149659257498
 1.272951794994405, 11.227338992907377, 12.768236115404850,  4.062712627163300
 2.923575939016621, 14.508501891600943, 77.359805271538562,  3.988289457309336
18.544934891161454, 18.845629752413274, 23.046928417281894,  3.866900239689434
 4.127814909071541,  3.513836547496373, 89.576401670530501,  3.817320078714881
11.712116252692089,  1.055972798178652, 25.212233632875787,  3.893637497477857
 9.307731234925235,  2.257180270890994, 112.645170106204333,  3.751758369958166
 6.535750165927289, 14.330315088495052, 106.302321543632232,  3.796496311928636
 8.397715547657153, 11.448038443861069, 81.238350743837259,  4.096471461167964
12.418949933261086,  3.361877079538779, 75.490118834105530,  4.169263036764722
10.960449725034350,  4.876467910204562, 12.253868571734547,  4.143106904416800
13.052764003200080,  4.827348282841769, 54.924994538712816,  4.339787458939373
 2.273656387717088, 11.290036472694119, 34.734092281111408,  4.195355995635089
 0.995262384249608,  4.523822655311869, 68.550287370502517,  4.327713454921530
17.329011097452398, 16.673959272990501, 46.222048256799958,  4.029536041322772
 2.607998673248220, 14.066061199496607, 44.922350026823722,  4.277297486021489
11.637524534086667,  8.894140603843034, 82.124773588152351,  4.092091842417034
18.659026951174912,  7.934301074326100, 74.261859188552464,  3.988515837707043
16.112149706097458,  2.115749059476097, 14.158401385494944,  4.069800337035983
 7.922647829607329, 17.823267374465729, 45.397677857057289,  3.970497663473561
 9.475325508265845, 14.866127969047964, 114.696841555681047,  4.112149391284748
16.098892110940785,  9.419774488630051, 96.844205183558842,  4.023531565741909
17.288394445599874, 11.175270525935373, 25.947002521294731,  4.146554014845353
13.452984954126345, 11.774576667391745, 108.737540307674109,  3.970065128490476
17.218524644432389, 18.094834341616998, 29.329974992831549,  3.997621980678913
 6.835314935533240, 16.674701405633957, 18.179009205009447,  4.121476684117813
 9.930229410938816,  4.867020888160202, 57.969508168365984,  4.382095405141261
 3.018149307707032, 13.884542966744306, 104.392932863378846,  4.228099373528732
 8.961667515914684,  7.276182360800970, 96.665896248512752,  3.980024060487041
 1.552064809738313, 11.262852685059986, 78.876404459901423,  3.658249222986621
 8.666662931008151,  5.598090873916833, 39.775486605040534,  3.552855239537823
15.026295569049577, 10.304227947908114, 74.896256558185229,  3.988436170141727
13.900524037695469, 17.177851959889683, 55.619215487659325,  4.064035432702606
 1.851585074228100, 14.869267896686482, 73.142936585581836,  4.630859266525409
17.467456566671014,  6.780194728655032, 59.332547107015422,  3.980733140235105
 8.762739781262596, 12.638953887168533, 91.022952565089284,  3.916888051510884
 9.227353769282603,  7.967786216727807, 10.069312380654468,  4.078166685162817
17.616656601439100, 13.428327266082183, 43.751120090790891,  4.040914604003108
17.209869834465117,  8.220721319133752, 30.693568657151086,  3.847114844778822
10.634783869436491, 11.457318700712031, 38.551323955577409,  3.784678608032048
14.411324968767664,  7.050267850449297, 100.667477132385628,  4.158400798760402
 3.993464613995708, 13.343542368400982, 37.811867711180405,  3.945829317995523
 1.723678871333590, 18.155509461422213, 115.109442386181414,  4.084113463740290
 5.090186979754162,  5.578251651578911, 24.383508843258355,  4.272278576254135
15.684900366887543,  1.764068924213504, 55.681513541388959,  3.772384932993338
12.742236676074382,  2.579126647802053, 33.000590177535024,  4.223373417182552
 8.063445339438205,  3.555726770732619, 14.636586434915165,  3.731500040737269
15.241488298210458,  6.364379732946837, 75.722797260366548,  4.068589485252552
 0.081824177204378,  0.736855653011312,  0.138766024910428,  4.216421887660132
 0.887729580640969,  1.536159625805373, 36.969180677200235,  4.199457464705057
10.727150195826090, 15.366554860545886, 57.451630358606799,  4.102295924800250
 2.112102505322027, 17.037734123629665, 47.949872779676973,  4.224327064441554
 9.085438522714137, 17.153558095873809, 102.224701325685658,  4.004463997229330
14.012011284964519,  8.753469477735786, 71.306616609416054,  4.089787315476515
 7.345563215193440, 13.213760604235050, 15.779625728941067,  4.042775074264470
 7.118437842564888,  8.911253354226165, 25.588590524349801,  3.885066972500359
10.305244482308819, 11.332975064359925, 100.397895127128393,  3.852594552763536
 9.945602138764423, 13.826211392063641,  2.987495522022658,  3.861007787831693
12.738172079911637,  7.210924215235150, 94.412151099838240,  4.025319880200372
17.661522622383078,  7.244741595071756, 13.242360179509399,  3.807128816001759
11.677310705026494, 10.177699812211026, 34.910652417826064,  4.204277674943513
12.309300248296223,  1.087462272224240, 53.115981851185396,  4.076764743121510
 6.468511186699801,  6.616896623032521, 43.749090317357101,  3.854301265503677
15.685313830580574,  2.809242171936546, 112.787801387511266,  3.850661047438249
11.692579225345350, 18.071698749400703, 34.938229958868497,  3.969262230830338
 9.629976824034021, 13.224594638112622, 26.295764912980090,  4.092562106626087
 3.979912554191730, 15.842069410550067, 40.809857652923284,  3.792943516279461
10.279920932222151,  5.946236665951734,  5.377328266833004,  4.227464495788015
11.582104935741851, 16.185365466966630, 84.317585540909548,  3.947652140594802
 1.969057888906240,  6.561473628076322, 65.035283499100572,  4.022561596618981
 5.451118080307598,  7.674530269735263, 110.568961104348816,  4.265945714355667
 4.882607652918843,  5.585000973227777, 33.091334877445583,  4.178109159030001
 8.299708185258508, 12.921865214797510,  8.547763806121628,  4.237023454503745
 7.866423049345199,  5.646958380582942, 36.030159487205658,  4.106599488071837
14.314652675741399,  5.654240283032735,  4.847233969542930,  3.923369301186362
 7.704091227492945,  9.723315392324480, 36.511872369660395,  4.084981306395913
11.087319111165627,  7.709615351971736, 37.997786750373642,  3.768887267224040
 9.523367747676531,  4.852514516063254, 46.744119839152710,  3.741893006236518
13.329062453348383,  6.649531350675821, 67.945301383701050,  3.904643973085053
 3.172617407611309,  1.458028637385369, 86.356344229191677,  4.054197936701795
15.781201639479185,  6.376577852034443, 83.790791142985952,  4.023902379471890
 6.374910267221942,  5.105344695274912, 118.451409814289761,  4.226551922435038
 7.158062438581731, 12.747633896075136, 117.493700270503126,  4.223061636671980
 3.609674646164938, 11.200404927397189, 98.033123135292300,  4.067012297634591
17.048334791197451,  5.316546969291220, 55.649876877455398,  3.828266793890634
12.476096473536371,  4.436730310354903, 82.348712744854353,  4.155232175734342
 6.463827503242956,  1.824341044820201, 47.813566950498739,  4.158875663067541
17.964530974456185, 13.231894346953158, 103.354696796012931,  4.151038132222656
14.140012052944961,  5.559696217000761, 14.581333913736099,  3.845959067450104
 1.746297340839491, 13.339020022822979, 22.716542772987381,  4.461601548800160
16.611285283900983,  5.227847882279205, 103.747493984213676,  3.835443996236071
 4.748833577769338,  9.025241680587582, 28.816544213739110,  4.124071255798995
10.598497920596182, 16.765665447713808,  9.295784910898513,  3.896751674232989
18.502024035999639, 12.096706761491021, 109.260879236695146,  4.046808476977231
 6.653495741882390, 14.368637073551971, 43.492954779396037,  4.309820930062492
14.988505529322142,  2.196346329374030, 18.266269918209588,  4.146417563929561
12.435729698558021,  0.938457769365024, 97.140274976248804,  4.083293045363661
15.796714768175068, 14.061957899100282,  6.198736760866369,  3.963025696822007
 3.763686267302770,  3.913358060499602, 80.146494692293587,  4.000636957595696
16.774712155753093,  6.982828231201410, 93.614090399556076,  4.134571061391346
 6.020899871091357, 17.807211339021539, 94.284491903523886,  4.160028676820717
15.793020458914329, 16.615332047708392, 101.925624732888409,  3.865122461047859
 1.299501539319167,  3.951181063306233, 33.755846681346824,  3.790098993176046
 7.768839911897350,  2.901963437315832, 60.995456078767084,  4.018793633643838
 5.737058962937159, 12.663053291653005, 24.928378382752079,  4.213330551819423
15.094736073007260, 18.031948171362465, 76.378938638042612,  4.013914604596216
 1.190675492757212, 10.124521923266713,  2.595629405800744,  3.842048495233906
15.714520478087067,  4.705199945157390, 11.234687496395017,  3.745163509583362
 1.715484382316866,  1.173547176334111, 82.547008330131746,  4.118458046171662
 5.879778751779493, 14.751579609513557, 80.174442368071183,  4.110489083807565
 9.699381673141721,  3.675575805025272, 50.200284079592834,  3.567364209553039
13.128969349554087,  9.417016904339851, 117.974631652672969,  4.010246754451809
11.439211823322271, 10.192366418381358, 68.409959240086025,  4.153264887367680
13.014185392175015,  9.532928981585723, 112.040069616495529,  4.018829317064788
 3.166313814211065,  7.443727374875371, 21.256130832921507,  3.958941204606819
 5.335669284885205, 12.957096043788312, 19.088484443710026,  3.689177880875006
16.842277925653409, 11.555842349675432, 71.683874741075769,  3.785830993866317
 1.927445918295286,  0.145886149786644, 96.307401845880037,  4.213765564153798
 0.784144029908612,  3.591346370383621, 42.181780940889020,  3.873736455239128
 2.630202102330213, 18.877517813775853, 72.962339789205856,  3.537366442847644
17.382918685502545, 10.173163376627498, 38.022064053703680,  3.628998699274847
 4.464121020440233,  7.605408840023398, 36.397014350134967,  3.586915843177639
 2.918397880073780,  7.619773132738552, 118.419638367331729,  4.223713378955575
 4.245783185743194,  1.752536416888036, 16.160063423403138,  4.198144888094797
13.638331287836378,  0.249263390910266, 39.955253978755614,  3.858976198105172
15.775129984903030, 12.335107601889778, 93.799448028365063,  3.991942058047053
 9.764612600440412,  1.141750980531791, 11.241983969292535,  3.944426775018159
 9.398372078840133,  8.428092688416914, 31.740992703561894,  4.286890353474345
 7.466566090324706,  1.914640508370257, 38.573310798660145,  3.545040801870239
 5.479826323301406, 13.157541551804748, 63.264583753814946,  3.874009319625377
10.509154394156580,  8.760697406922365, 27.705719971182685,  4.106003597204164
 9.013063029283234, 16.368911826131917,  0.055309445081923,  4.083466771916559
 1.782572683151432,  8.142117552283281, 15.510761523359204,  3.949636396502448
18.593418573473610,  2.780881454560547, 58.337535979179947,  4.165830200513973
12.821055387400078, 12.201686872165352, 104.670680681117204,  4.029267967048442
 6.114227590058332,  0.151892386776165, 21.529310807641956,  4.143708247576651
 8.825762114651020, 13.733311776082161, 50.551257348017387,  3.663043994583302
16.474089693736296, 16.431020332015393,  0.003976284329187,  3.788279160772279
 1.368467108149340,  0.649685176508219, 31.451693749148951,  3.909916936256721
 2.986760837052054,  0.431247248753737,  6.946968648203720,  4.422552826864958
 2.616161053099431, 14.929774124228826, 96.462296356601428,  4.221604767326928
11.323082248117316, 13.012798061201652, 117.847879414754246,  4.037793630513416
13.013481685762745, 16.121637749429496, 71.509435478295117,  3.955297444818192
18.760774352340846,  9.469754704967105, 22.414544013868976,  4.215425748550354
 0.676559562822303, 11.938350556471383, 30.973024242107847,  4.078188057800722
16.057703759395938,  0.296591256819870, 42.970465739592051,  3.800511749710005
 6.474426773293554,  9.650193897470960, 61.774802604358477,  3.983365569283310
 0.018974817308707,  5.099645780431419,  1.520685554535859,  3.940951848095123
10.037304339042649, 18.045248728440182, 38.600802652760450,  4.033600924331174
14.965600467901711,  1.631605441496502, 79.578700340251686,  4.149415939816470
 5.917119224514786, 18.457081199365891,  3.779477451569511,  4.368294298804824
 6.291194242112460,  3.902124026361576, 56.627651893953995,  3.605997269689730
17.949306170718014, 18.807216749854017, 106.295143809389515,  3.722137642689143
10.295380018628853,  8.165951533323577, 91.431859871573721,  3.834840841874448
 6.813094003213970, 11.774632429751271, 40.311173047480885,  3.874799568508223
 6.744671512227432,  5.768366090173937, 51.510765186593815,  4.131649025624178
 5.222061916480462, 13.777539309564053, 34.239412385762428,  3.560747276407594
 1.796007385818503, 17.757868911323289,  3.287299022650031,  3.925508651756297
 5.612752402985019,  9.387926069979962, 72.329690461642187,  4.013305761485740
10.562068441115571,  6.950631885610536, 52.398063321493154,  3.923503042827163
17.335267958615194, 15.470272448351889, 114.745602893409767,  4.044543893385216
 3.161020388885568,  9.297837829339320, 24.932712324672536,  4.168499005094996
 1.093532193482098, 10.505310930020933, 105.463201695301834,  3.826824735444311
18.175263094332404, 17.973696505642714, 34.378935396547128,  3.741630770221763
11.925618119716221, 15.512251130749817, 76.786679201430601,  4.007142858830458
17.109339664388834, 15.030108777596908, 31.976786534298263,  4.101831308779633
14.473072734203098, 14.374428755334417, 13.193084425291172,  3.951334002534994
12.277914948252612, 14.735956761432590, 101.355782188281864,  4.167148247610839
 3.668161395830916,  1.408302920997092, 69.582811222081503,  4.126511321198461
14.014816948092378, 16.140780998843240, 20.792500914714733,  4.259458027604465
 1.248117038827290,  8.468175176129900, 109.691240385076043,  4.012735054594543
 7.711907615274864,  1.886719594159860, 18.264361664014153,  3.906854548140222
12.492299817119074,  6.667643623418329, 114.973565161886157,  4.227045177785916
15.461047256158217, 18.706210836021253, 25.823359237741382,  3.928577713540095
14.008612771356537, 13.633837357586250, 61.764087145439042,  3.865108955681726
10.292685976349800, 14.327967258242277, 97.791186269008151,  4.022389141628473
16.817483966171878,  2.226195650758592, 32.705279243229235,  3.954329901981235
 2.809664543674974,  4.763706752542660, 109.275242664193144,  4.005729788235200
 1.947968144312271,  6.725951983154276, 88.813156269870277,  4.090811248899036
15.441905818236249, 10.226457948843654,  5.538877911210138,  3.826310403901158
 7.917092625134340, 11.133929480602767, 29.205461397891078,  3.515558527429654
 8.008767841024845, 17.831030779154261, 106.053831877946905,  3.746780625987552
 0.523327677044654, 16.186363868545051, 83.901707825527978,  4.460693904236504
12.602738787458343, 15.276072677646049, 94.601316245395466,  3.919275159633715
 1.634412032336985,  3.036372768816457, 112.944915608737531,  4.434884334475283
 9.842085107105035,  3.607450952467172, 116.355292570581128,  4.152747241849952
16.856666990813142,  2.513527624214405, 83.113895637113004,  4.044084244977077
 8.786341500276135, 18.513026678253919, 55.397863582199449,  4.312964195479172
 5.204619383005474, 16.736556794592929, 70.934891588284756,  4.197964375059889
11.445960008523109, 14.184059993631996, 35.468286250462349,  3.888937137393147
10.764941769326756,  0.536575194420045, 88.029135413164994,  3.992319518652182
 5.371534042105568, 12.047704574849085, 52.464919257730124,  4.339367065123011
 7.942369024568070,  6.912192928723592, 74.413668833081573,  3.954920903298591
13.663481040748994,  4.820672504376220, 38.559209828970523,  3.843261320499257
16.016687239354351, 18.096934981961741, 64.442190355371579,  3.689116062646786
13.126531838087121, 11.859821739959763, 41.486365872163908,  3.946909336092386
 7.922823002621852,  8.917468204481461, 107.367490060833177,  4.169446767764210
 6.520716165509552, 15.071580185192591, 97.220552111890782,  3.733565310238380
10.073489880719714, 18.273598917470334, 94.363114653686495,  3.891522810258808
14.209460221713750,  9.414936056077449, 91.226865592865607,  4.225887236147262
 0.494850666968410, 15.699516891884588,  6.413423445417896,  3.982926716549305
 3.362930911130706,  3.561842154814485, 101.641413314389183,  4.304897599710258
 4.855944123284002,  5.663899578957359, 15.061288769026570,  3.983555619363815
 1.458290307670316, 15.490011124186903, 118.331684189478835,  4.282853295165557
18.624245295312285, 12.044645229344624, 113.213084925658507,  3.849136079236100
13.129279419899673, 12.719405280688511, 114.349742271499807,  3.833675000370408
 9.128918963184411,  3.528744143637936, 54.018890843139971,  4.111076665838606
 6.723702234842783, 15.046150335070450, 56.828161728036513,  4.007706976116022
10.914663539517754, 16.104017939593465, 52.778369559447349,  3.900816584332131
17.088213139052129, 17.222285188792277, 38.862524466606473,  4.364555023139681
12.783444876351325, 16.803643224810006,  5.977415502446322,  4.042719099643396
15.402931744968553,  1.414672495452752, 89.964870607325281,  4.558169768615380
 2.111424946718922,  4.905563071274453, 17.939669395358308,  4.103372765462997
 9.061823511864326, 12.904241777628743, 54.309874012969274,  4.028736451118542
 2.035343455039557,  8.206219261523160, 31.747305701650550,  4.003041661403493
 2.284793826341259, 17.025029174935142, 16.575953462839596,  4.066755516562369
 1.773844877148888, 14.112719396072212, 100.474309114622244,  3.910885057974340
15.008276652450613,  1.062895101336317,  1.088378115971192,  4.080848504225295
15.493305171211842, 12.467775741888950, 78.053392038289445,  3.707003624603473
14.821795375746841, 11.605022684959286,  9.233575754675607,  4.055325846323040
 7.737638094805301, 16.290159761795945, 109.619105011704789,  4.022288006765737
12.840966493588573,  4.996866427723973,  8.541522078829457,  4.128739383338991
 8.396055745773996,  0.121924678734010, 51.182368201907600,  4.225249943802989
11.427160011835767,  0.473256481438699, 118.131322034923471,  3.698412619961287
 2.823928603786248, 10.711478896043905, 101.942721314363027,  3.789457187777839
17.754053092171020, 15.253345771482229, 87.896975341622337,  4.329952983731058
 9.920361063762796,  9.462710983957843, 103.850704122779746,  3.976928847281176
15.215595391015547,  2.916097975324089, 100.236793585468817,  4.292050779826008
10.379862896481971,  6.680230623961653,  0.518492197873584,  3.952723926098598
 3.148893009457723,  4.359152378839521, 97.623790003116142,  3.896954447618117
 4.929375477871435,  8.361379195222199, 17.904968135788582,  3.832394623532390
 0.917913174907135, 17.360825378336045, 65.575055202212482,  4.050026918761731
 5.658221291553622, 13.231468488328430, 12.165637632025451,  3.897607387407514
 7.139844517066448, 12.937336755958087, 70.670870679969752,  4.343329341603409
14.461887476169460,  9.101165134574050, 86.446538894589267,  4.026178370416861
 3.413353984608576,  0.103288688761586, 28.098080770532498,  3.889831896259714
11.336639584022462,  4.023356691186169, 107.219070546506131,  4.161357350430757
 6.045166160873806,  5.493104455701464, 11.133890302308536,  4.191473486463900
14.601116738546592, 15.900020618497029, 79.740205382197672,  3.990924578114209
 9.481515045083263,  0.904775556564295, 108.886567859002454,  3.810037560845363
 0.600806786680951,  9.915924737165502, 45.628811205439483,  3.954063358086626
14.202996099520675, 13.258063179602265, 68.934842224029055,  4.083224556110928
 8.881072461701200, 15.410789499159318, 12.515511195221007,  3.871452665304871
 8.711507976873738, 13.343531754354952, 77.706861237620231,  3.888894357673199
 0.471692787828995,  1.194639530958341, 45.452754590257285,  4.213122386177909
14.783771065588040,  7.898192739808748, 36.352527393763253,  3.994715495454910
 5.826547916686446, 13.592233187194330, 100.952791112319090,  4.313392792389435
15.987977324430407, 10.420228495294150, 59.885483466244565,  3.924627544843210
 2.587613517390847,  7.005270191833110, 42.889336023377467,  3.909940812582842
 3.746369259448733, 16.329004653807779, 108.369731619859067,  4.194991990676898
 8.462521948910613, 18.675990337572436, 83.711050667559888,  4.115184303217275
15.072000000198129, 14.362503915737186, 74.510610806924873,  4.086300173744571
11.373470835598981, 11.743620291738912, 30.051866120857404,  3.659613460965777
18.711750153212943,  3.583606960836662, 106.769527762937415,  3.895762561506359
 8.431670365240626,  3.642756215888584, 64.967621280721389,  4.153471168644943
 5.370146454962292,  4.078916634596698, 40.836975535855984,  3.988527575457217
15.987453901605557,  3.651283426687459, 51.905942499302668,  4.351248720121856
11.646332804058341, 13.381662135214864, 10.574894648203220,  3.615051802323287
 9.671189600681069,  7.312145106272634, 66.180274591528644,  3.907131080244504
17.826380138831198,  0.304712472391882, 86.428610805662814,  4.150091330831906
13.352269097558386,  1.050232567284245, 21.716969377889757,  3.794273606142778
 8.258683369104011, 16.817446001806132, 90.946357819888718,  4.111894413732263
12.253983153708862,  2.228673481686937, 15.073314742317676,  3.860751191767842
13.992717561501415, 14.476675909592441, 50.848346706632427,  4.000968789088623
16.280200337727614,  2.833557753222804, 64.991517824091900,  3.792577671814279
18.268210432486576,  7.351235020982975,  4.917229315549688,  4.305568207677717
15.598676036093956,  8.763316546945054, 16.060868153905805,  3.738977183259847
 8.763701023934681, 14.708243562667972, 94.252671058490264,  3.702817135196675
18.353195792879514,  3.021182412230483, 20.338303888610213,  3.900534213334738
13.629276135001698,  6.386198248081029, 45.227777539231560,  3.995870172072470
 8.253379562892475, 12.701205456354762, 59.721575572756073,  3.952610553723449
12.237232682257458,  8.975524499992696,  7.489097426545999,  4.080035410638210
 8.623581982959999, 11.602444936192017, 21.226724244112003,  4.150782088514343
12.732576948644814, 11.128177848779172, 14.779341399121130,  4.061656824453459
 4.471278455225776,  0.689037104408043, 62.429323337532992,  4.200301135422922
12.342223915962368, 18.742810092546321, 63.289020038165340,  3.940993372605814
 1.186086718709108, 17.186136854111773, 69.594959185314138,  3.937754209913834
11.099709434158550, 11.713904278313297, 48.045887837725765,  4.114281223411351
 5.924013175559963, 10.923876733284976, 104.395618621361521,  4.038795237994981
 0.992501206858917, 17.331633642990610,  9.949181178907649,  3.862527923554395
 3.174672057163346,  7.251483229991970,  7.996717266277466,  3.537049459412118
 7.663656472959688,  1.975057289194633, 91.660120428929247,  4.192185367080409
 0.900521901074014,  9.192836335755798, 28.199615106348773,  3.669187069560308
13.918527092248977,  3.590454247575125, 116.893560757565496,  3.559480433994254
 6.865747883370444,  1.839531150147736, 25.249041217823624,  4.160295423705680
 9.572856766636368,  0.268365009693949, 31.707628276287764,  4.002405988190591
13.706551947102849, 12.652533798998009,  2.941646396579598,  4.001147132347842
 9.704159194751226,  5.467346988347129, 110.615694472389322,  3.880115680395330
 1.996605139809221,  2.264622348316471, 65.262751914233803,  3.894160200427280
 7.423316212845759,  7.428598029826802,  3.021874057621289,  3.710544063227119
18.901476589162325,  0.190668963815521, 62.249594965014374,  3.741898705119181
15.048964352774238,  1.322062574097996, 72.824726346731296,  4.122260826179009
16.792555304999109, 18.501253752128829,  7.749418316816813,  4.142794294782194
 9.239709512268389, 10.494236001905829,  5.315033764541897,  3.869298522581723
12.193451644875397,  7.782286350686596, 48.787241228962088,  4.162108760000619
 3.003065365621679,  7.981756631362119, 11.633573904291461,  3.622071749504891
 1.751755095876605, 10.643360291165163, 71.910769044521643,  4.147810975492527
17.596090914811406,  4.255638872742582, 86.537626173130178,  3.766992908260151
11.802792345827598,  8.109935406718982, 108.460296719860750,  4.049936918556353
18.227529636386890,  3.503913035271549, 48.452014067161485,  3.713238195039546
12.060766143143868, 12.631967109325098, 79.867575562441544,  4.044509517578953
11.444991911440869,  7.713681155301821, 16.207778216965099,  3.766993165754508
11.388095011117125,  0.389737970071187, 78.109864609641875,  3.972702641008277
18.351087021422497,  9.944311145990497, 41.775280893822234,  4.096581126213652
10.759679942456195,  7.331015121763213, 86.091618335505672,  4.183824510140234
 3.122578601149302,  2.730982140798054,  2.930404032598881,  4.294559143150279
 6.782163412932363,  2.218659017833238, 104.708510595101032,  3.797949392367832
 3.506149865520192,  3.704295529777617, 50.011277959464117,  4.067025589260348
15.400654544926878, 10.040245854676698, 44.672450210625705,  4.153489594157357
 5.595083237725772,  1.387192709177805, 97.349373700605938,  3.805701329829076
 6.917946902384365,  4.882838492578622, 107.764100926674317,  4.174769732556245
17.374162973274817,  9.127415075732657, 102.819772634224492,  4.155970782997509
10.979448101441386,  5.651374604146200, 78.553028399698277,  3.965605879616570
18.671653154495221,  4.102711542092599, 91.145993217018258,  4.173736985255954
 3.840694760621145,  8.614858330121699, 50.217391444906454,  4.397279039634154
14.381170704768387, 15.776096769041514,  9.506145676100550,  3.930436674313127
16.609316607382279, 12.956496330715375, 21.503429424481538,  4.077100969969642
14.302466907027258, 13.616970703756907, 83.026969827203033,  3.936786975824508
12.100950771351073,  2.691932164682270, 44.602884302833679,  4.059378436925982
 3.107258501551700,  2.688995073863339, 10.489454677388450,  3.971085824836976
 5.255126854837319,  2.678886188602860, 73.313293127385961,  4.088116764297327
 7.167132363439278, 18.533393183398111, 28.713411184387265,  3.726262786569047
17.848296364118500,  5.173554234879208, 110.379024623340399,  4.166742621046877
 0.960136285039082, 13.398607067485493, 64.822717901771469,  4.012766602602555
14.288411079694891, 18.565442781731360, 94.077772619345396,  3.541323479957286
12.320593567653248, 17.287835440209438, 91.090593880392120,  4.039451575888377
 2.407650940634515,  9.774711432360409, 58.167575646258697,  4.000767977092345
14.449796464926344, 12.247267842802620, 36.971258595767686,  3.819744914111904
15.178150054282588,  5.024976999812894, 107.381222524003419,  3.743142936252914
 9.562567912109785,  6.485220145996919, 62.133316665834222,  4.176466262933489
10.074029926013914,  4.529569635730933, 89.235623061686397,  4.341243739111580
14.144947817879467,  1.583552919162080,  5.018942243348492,  4.033750745974279
 8.629967238180489,  8.642024906480247, 46.984212274803355,  3.993278754631723
11.314356576381885, 14.976128752398694, 15.981720797013347,  4.483778898915303
15.378132855331163, 12.753252289017166, 117.771032343293513,  4.013799112716480
15.131981088593772,  6.147452330186201,  0.954474615326424,  3.996213835442922
 3.322922087238477,  3.665580188539664, 59.898079705138784,  3.941814866338706
 5.170617299296076, 16.965695952022376, 75.083111341412391,  4.073643867930944
 2.733438704741761, 17.096538259474496, 80.237504426179399,  3.725197411842514
 0.582174016216254, 17.028131476591568, 103.190525468867420,  4.055638685117178
10.584053822392219, 17.663582627238338, 112.014279119064938,  3.893306498639617
 6.962514204802263, 12.289704390471515, 109.674297824167496,  4.122236968897973
14.221723797897544, 16.423697952187176, 98.203731660558461,  3.940208489690814
16.220186926128562,  8.834810807274236, 109.757177881149559,  3.922569646801200
 9.037914991394221, 18.636392262493892, 15.057375455512222,  4.304126396771815
17.472092963321554, 17.911299601983718, 19.349546650984095,  4.025691626429277
 6.685404601984891,  9.387852757886359, 100.601542687573129,  4.282032317349349
 9.142227185306997, 11.214602519782824, 12.651418698968813,  4.202335173298883
 4.028826571526987,  3.443666493318633, 44.722189103316353,  4.327825010733243
10.335842771837610, 10.135349749810578, 115.141880161363972,  3.863315895528067
10.538079075290957,  1.219803356033468, 104.366185499573831,  3.904149763543438
14.981603872453732,  0.815078408868514, 36.304391172906804,  3.916815115303051
18.737930596549234,  9.481810621711574, 49.487607512022485,  3.955809459992257
 5.157048941419411, 16.720420417583163, 31.393793780109789,  3.856761715698649
18.372668566003881,  8.056831022047581, 18.632081022694141,  3.854103002071979
11.728531365897767,  8.035885103858933, 74.780649553877680,  3.930838357936038
 1.200006424270978,  0.535647988812971, 89.780154166608924,  4.014692098452762
 4.132504061118485, 13.119776030940885, 59.534153514771198,  3.948042447771290
 6.509348435581972,  0.955566258075625, 101.064113464154048,  3.885625240872643
18.791332929211503,  2.024603596138153, 103.147841516733024,  3.946852784584859
13.277328297033598,  8.986872648827118, 78.367576130695895,  4.096659827287631
 6.172823757945786, 10.856040321197296, 56.610492754272286,  4.373586442618103
17.236387411276191, 15.027572407543433, 54.159226551089553,  4.379123611362536
 2.207315105197700, 18.535682022479836, 59.095392114198511,  4.108674103277471
 7.263892599576844,  8.767888246279796, 117.121974075814833,  3.735096274202805
 1.912708405476845, 12.453513082512009, 88.064999809485954,  4.040744536739968
 1.203449343262415,  4.160950078923189, 13.797674453160591,  4.175256871525907
 5.310895620043487,  6.731509182997845, 103.218164935276178,  3.645021640006314
16.061044246219453,  6.398172196598174, 113.545534765965428,  3.474132962482101
 4.544088627603714, 17.505772042559748, 83.816529104339011,  3.996251329813032
 4.777414123278906, 15.561144631746544,  6.530233147754971,  3.929233342963492
 4.023767760211946, 18.122757350130744, 44.459603906315259,  4.016632196322463
10.637785925842410, 14.838889013296079, 88.074950377913709,  4.197202884453642
 4.501803174424905, 11.741655471930359, 66.934178646381000,  4.008177235208245
 3.219798609731159,  7.838716709837160, 79.450300223988307,  4.040664938807527
15.342578005948756, 18.570460681560302, 69.147450770598567,  4.005664102792347
 1.431985674081768,  3.216743562333540, 74.388078614738291,  3.924231341971332
17.032521245732735,  6.482039077196351, 66.236071976012241,  4.044147849515877
15.873933653742702, 14.963782623441329, 24.839768425814157,  3.844764294865594
 0.005319599737437, 10.401265106880279, 99.400121513204382,  3.789131148976866
13.519707401903212,  4.441060840422208, 26.304545873002493,  4.051000639579680
12.217159133714476, 11.602174064869532, 58.675702454849045,  4.338207336923524
18.057726438141472,  8.706738583995053, 62.923711826500046,  4.185605469176522
18.254256542958505,  8.490966151614090, 53.745081032580892,  3.949340660601287
 0.377286551104226, 14.962937854832820, 58.406148199342340,  4.032214679956346
 4.415066527650655, 18.911671358716760, 50.619697812568347,  3.713956733891326
12.315989000518725, 16.290052269860098, 24.608523016441989,  3.717502249309581
13.276925664377956,  3.684076209537708, 48.525914110605861,  4.306028153572629
 2.678233103818411,  3.633398548779134, 117.430525981643925,  3.890310419392872
10.163850166746093,  7.113817044293859, 100.621419513744740,  4.007042474357792
13.119749136616113, 16.396449896108305, 66.496644906066621,  4.153309088481508
16.246711903103513, 12.011639561167980, 64.464488793273162,  3.851788818669616
 1.648582526964741, 18.212143040206236, 76.489063004124901,  3.898440494513585
 9.184460299324467, 16.850884344416173, 70.771386951927155,  3.757552128274508
 0.616548834210489,  7.473042887549473, 35.548881378289146,  4.229481637522150
 5.324385785062698, 17.081512086050520, 103.443083635102539,  3.870211841512393
 9.563062581875252, 14.591037050661154, 40.526794451228461,  3.927597751971129
12.609866403681448,  1.847557679465467, 110.819944078594020,  3.690531713827407
 9.237842310912919, 14.569285486767779, 73.938199043577910,  4.049107562758585
12.237084728058232, 10.660121691449568, 51.790698949005375,  3.863490063472544
12.695690511315552,  5.004668079350026, 22.264934113861344,  4.250246475436349
 2.873689351045289,  6.263803940809444, 92.804141151758074,  4.021802092659443
16.915005074233633, 15.373033173514807, 71.051408297985176,  3.951415258714003
16.439061262898143,  0.747864793505052, 96.929575162852814,  3.933841524628651
18.723877997362912,  8.206142865155059, 85.746235290637983,  3.906789731375197
 6.966168394638154,  6.127366246057855, 79.268487230344192,  3.972337922347355
 7.762913107012895,  1.283111474459488,  0.487985886739811,  3.965196397959422
13.065255588964536, 15.368929333185866, 38.859578822390624,  3.975730465167273
11.296891474184886, 15.649311330753212, 31.831184322056913,  3.909876388025842
 6.570469081725692, 12.976362853874624,  4.428204019545989,  3.604667971814178
 9.418568837099816,  5.558565648299113, 25.263405797194778,  4.166702534558040
16.002372790658736, 18.586495209407918, 52.621005068483072,  3.715828913306762
 1.420527583008435,  4.594056694275802, 30.064469337550040,  3.705057948523605
 0.334522279957099, 14.328962353780199, 18.838241858310870,  3.965507135832895
 0.248798235010398,  5.500760179153481, 81.493358083721091,  4.138459357266504
 9.114331014370027,  9.278378716068781, 77.710387534258984,  4.264961781521659
 2.384889560061501,  7.231780858122557, 61.132854286423751,  3.791152086220885
10.757358336446636,  2.683367286358698, 40.856264381876557,  3.893360715902137
 6.494372310716014,  5.669830070727980, 70.621449990873572,  4.326430506040858
 5.526423616437094, 18.941772712939262, 66.283281776749533,  3.842373314884076
 1.790716747791076,  0.166519516374687, 13.274213542551085,  3.812329184853154
 0.445616952207488,  5.965488710680672, 51.044080255049103,  3.784275263871408
 4.547502909790407, 10.577571299367035, 82.171221948374210,  4.010135290053437
13.100228951001180, 16.380755044042044, 116.183420207186245,  4.237061630850429
13.571659408765354, 18.136876242730864, 46.071158568561998,  4.033167172370391
10.450375620143525, 15.843459747562578, 47.790367748517646,  3.993440694136926
14.713903431323638,  3.371088847862960, 94.474103727022069,  4.032936550812112
 0.779767977443842,  5.169401727445192, 23.178526124208144,  3.663285496996916
