BANDS
8 8
NANOPARTICLES
cell(1), 18.960
cell(2), 18.960
cell(3), 118.498
14.531367570665745,  6.867832089285268, 70.376500319625649,  3.667525040661980
 6.709488562252991, 12.822340731618864,  3.506169081372670,  3.801056382485449
16.255689412994929,  1.070186253913811, 104.409658741056305,  3.888702628387557
12.639074114657873, 15.717960831381420, 92.414133624682194,  3.879039439063843
17.415876245865945,  8.818791622058610, 63.938107898252888,  4.236163360615186
 4.684451874990895,  7.553235630906218, 12.070256984651502,  4.429226545778668
17.731097511566784, 11.249177627627949, 26.096509593942649,  4.424464803841934
 5.743038015814564, 12.730414001535284, 24.814726380114795,  4.077541331354703
12.148679431451452,  5.938179032250263,  2.941829281931124,  3.873583114947237
18.930216573423476, 12.075603964131272,  4.786391000852741,  3.946922428031642
 9.897646212006707,  5.031413917483603, 78.874265469260138,  4.139551714696025
 3.763384584109428,  0.185349317516135, 76.577260955734431,  4.067845260719302
 5.419726713372717,  9.460963672613776,  4.232577625910960,  3.543550751177168
12.809690881034076,  7.638038908181911, 12.884895396918441,  4.140490608553507
 1.032231699021132,  7.804426072144306, 100.587164057805211,  3.639941550566596
10.905969034922025,  7.765856076403700, 54.507928602764501,  4.148802379651159
 9.965382627483985,  8.774809851008866, 114.968192783146350,  4.071276864587844
12.155695337088375, 17.186067142187319, 38.467908219030505,  4.270800636815329
12.564601914292973, 17.477911769763836, 52.404139508430923,  4.144718469167501
 7.393456571973129, 11.066844580945817, 90.976205255611816,  3.860314229493481
12.345672364236860,  0.003154910914678, 66.752807933582702,  4.013836722033253
 1.200403849730722, 11.771989956694680, 86.308573364928051,  4.052659800370106
 4.847729137027579,  1.120208839123448, 45.268791016075212,  3.983579066381108
10.172946389046041,  5.395934677349917, 74.786947123391073,  4.003876009569279
 7.831996178947586, 13.582118348745702, 79.497450224941076,  3.971681269324094
 9.599595887976980,  1.717960204178964, 52.170350982996617,  4.183227669523737
 7.597745850926602,  7.667461436104038, 76.696527273114825,  3.846039934963676
16.228441199278969, 14.883551749648436, 16.970404130545521,  3.933955568438115
 3.668300405108118, 14.274805947193094, 29.272601564684773,  3.918719425352160
10.171651755071244,  0.854888908972749, 31.759978221724769,  4.281390359604197
 6.488648813167480, 15.660104259967087, 95.023857809718919,  3.992869636690063
 0.059030582674739,  3.846856075425848, 14.546188537632611,  3.720351432367202
 2.777192669367680,  4.818319926981946, 70.270473695901529,  3.802580391398445
 5.314185160795923, 18.900530719534270, 11.821508346407636,  4.001699985937674
14.706186193376462,  1.211566224629485, 74.819218865966647,  3.720518812607604
 6.206358466463406,  2.247016098021359,  4.181656586134443,  3.926034624140271
 0.670169723023224, 11.838967391457834,  8.870806040428823,  4.047600317244672
18.538726248116021, 14.461784324980480, 28.927939557305340,  4.288629329415008
15.784145689308097,  2.145620541152284, 87.625828096378285,  4.288701601002644
17.127838855470188, 11.948446472408017, 41.170205013473705,  3.947358539030926
17.845179976744372, 10.008568949033730, 106.519596105299328,  3.655774951041421
14.153624041340880,  3.916090349570781, 80.891541356116960,  4.037679696478770
14.540855387351801,  4.949635030073719, 110.675325217481827,  4.709886882341454
11.556051147574717,  1.684969605077369, 115.357604858117810,  4.222431746207573
17.362903011462141, 10.430131192068439, 100.399201896893189,  3.765531104511349
17.929231472320815, 17.359932686773625, 58.860959609932678,  4.163126388116917
12.051494587362347,  4.432139405241545, 32.448625411859538,  3.893453472973678
 6.159678481036212, 13.149740232550846, 102.336901431696461,  3.991542306051099
 5.736390148510726, 14.933968821041349, 60.030516883882946,  4.030873334082764
12.380689976731226,  8.750120829933609, 111.657872516584050,  4.109200005144261
 5.452353750713844,  0.800085682203518,  7.854248470707985,  4.098507982194840
 1.062764679744302,  8.955218266110354, 43.624576187335329,  3.742397633636055
13.483452737915222, 10.930324285791443, 51.874662817336940,  3.782929857351938
15.853454689430372,  2.675409007178372,  8.263144217614997,  3.910299347623619
18.336665586483576,  6.757628162790794, 60.341054303339860,  4.251204133966690
 8.486065375395661,  6.438743960927328, 41.869052035856342,  3.607222290020629
 0.114679322127091,  1.381798366534916, 74.718591562109850,  4.050827074581473
12.109935450942526, 18.578156841282020, 87.390847073205222,  3.902158259358771
 4.514266837950363, 15.875450405085255, 50.416863067461165,  4.418732237056944
14.864330395218563,  6.272331125029036, 106.494790842653799,  3.954028928595974
15.165364231089203,  6.774177923226912,  9.600720139548725,  4.052383042763704
18.632528643583832,  2.452459986251020, 59.820066423876789,  4.221706407739982
11.540256490275196, 15.792739824654065, 116.481759138062770,  4.076470752430448
 8.163084337560258, 16.227664790741684, 39.416672359975983,  3.839248945870298
18.614846854356902, 17.810734845040034, 111.824565756267475,  3.811469182905192
10.565927652663678,  2.225046134490498,  3.901204583847138,  4.093560387243745
 8.285065991983993, 11.771551355470931, 60.257127886300694,  4.058324125578620
17.999074828209444, 14.463309490540404, 101.046119188310399,  4.138820712491895
10.317294673472095, 13.406707543781968, 33.073363987969792,  4.095176892344194
10.964109223705774,  3.570063995459366, 28.539646068792067,  4.224897904683326
 1.799427706851566,  3.290178003135676, 94.624572187325441,  4.047094388107297
 5.931336104299499, 16.882448302907545, 15.229366202156347,  3.880900099164095
 2.937283493422818,  0.465815698902930,  4.845012847238373,  3.593058363627728
 5.210577612072578,  3.875444974381947, 92.494351978412752,  3.983971007644204
 9.319553528929008,  1.863991349121816, 85.673202662979520,  3.766872556092800
13.203099298198266, 10.367048406203747, 70.456253162444270,  3.813807990464740
14.243457976180478, 12.318934452309604, 32.050114936366484,  4.058625044962358
13.431983748313641,  9.153353163222244,  5.273538488542791,  4.218210979507640
18.574951600361612, 10.150783128691231, 15.899332005188118,  4.233228323873949
18.757846883140704,  6.492888356693379, 77.679659374856584,  4.258428261799030
11.482672256627575,  5.720132980390927, 43.948603823794834,  3.802847507503306
 4.101342511565451,  9.143538041636816, 102.283194434768745,  3.836429182935909
12.114589746327983,  9.139786765318462, 61.263510608163166,  4.192069080565164
 1.061419476868441, 15.477139787435670, 21.805433823891967,  3.828546404525076
 1.038835695388261, 14.226980714439346, 38.032478646098021,  3.901793954808970
13.067795977450780, 16.377803406087256,  1.986473313926487,  3.728188776721002
 0.555994789914910,  2.155477820873629, 45.287789549818932,  4.122821688521947
 8.908682511767706, 18.446044927703966,  6.298002716333862,  3.900887410036488
 6.506772840008153, 14.972357402650804, 35.925847576026300,  4.166196434461719
 6.552678232458111,  3.990285211197860, 69.435367732584382,  4.081590291733307
15.585399115364776,  2.924969777729223, 99.150205060180994,  3.945708393444582
14.102880760413479,  8.018937243624217, 84.690910800447085,  3.963213415977184
 8.558084205035335, 18.606827350205620, 45.545312170783447,  4.019223303707573
 0.354953890736762,  3.690052471941055, 52.774566971153064,  4.000047743258164
10.465905850763621, 13.306339649786663, 40.898680275925152,  3.758883056193474
 3.417000169804030,  7.871293367897958, 61.880758497410262,  3.854253507726223
12.665748060334531, 13.484824448657557, 16.045132636892653,  3.936457712418640
 9.167984376917495,  3.369042786203365, 103.450896586569598,  4.050025217242769
 2.365407023116259,  9.158171560248759, 107.625672988297495,  3.840923481006604
 7.626144282414457,  5.193775656013838, 86.645251755695611,  3.848909235907475
15.644385091509069,  0.503175982301633, 62.106185949948888,  4.212148278707353
 0.394798261007647,  5.685843729615662, 84.749589496417883,  3.902109334131900
 5.491725669053545, 16.531582573597529, 26.537557799321430,  3.970232939279233
15.532135901950868, 12.233252462649904, 44.816523683788873,  4.025584691847987
11.844608997650829,  3.395879842105384, 87.989400933343191,  3.719834282708792
 5.467657668936170,  3.344391381434185, 104.206662404549391,  3.399525919692720
16.552191760523506, 13.465422203523929, 58.537812842324634,  4.114341625336839
 3.939024002480879, 15.251168695748337, 12.338140389964364,  3.860723064601918
14.763704385494082,  6.147705188389248, 88.168645776760613,  4.037628239740049
17.374944555342424, 16.291981313908867, 24.814022518967668,  3.942763308892562
12.730265969889061,  3.102210070231573, 63.840446497099457,  4.317852963177231
 6.971263532595880,  6.410417853996478, 15.597226630919074,  4.033501252389767
11.968385737816458,  1.789648409890185, 44.731295138761844,  4.190239616777473
 0.169754170070965,  7.143608729759122, 22.319060596319979,  4.153761431712414
 2.484013698453940,  7.083819143323717, 95.617085077141283,  3.876724300365426
 5.419004871042505, 11.308934421220806, 77.010043915471400,  4.314820709130704
 6.780109868262905, 10.005263129496349, 65.932266619056676,  4.121674331262624
15.170684926725384, 14.380270266896433, 80.482498893434368,  4.140267095958392
 2.075843431998322, 14.489631922281013, 25.531261467279393,  4.142513379698785
 5.955347726690749,  5.990082550886936,  5.059195706661290,  3.668634132768302
10.239930754937467, 13.419947078148633, 95.000176847598553,  3.863960551203744
 5.907958010485324,  0.179506233479722, 84.234961078301978,  4.134007875607501
15.550937693628500,  9.544095403889216, 29.387220542589517,  4.051475665143812
 2.218672984613789, 10.937921178142595, 50.187428406246319,  3.950704844560704
13.291506560950106, 10.107535532076671, 101.524718517603219,  3.757395679125807
 8.326230957431035, 16.475519054453418, 12.271288101848896,  3.771307746848561
 3.132397640089767, 13.163479711830442, 53.300297337913470,  3.861111990536001
 5.734439116506140,  1.877583089471757, 59.458607619363320,  3.778914939141723
 4.948495647338904, 12.603425984026753, 47.821246216793469,  3.958319523066166
12.500402194670722, 11.031458574294250, 35.514809817811525,  3.987098837064660
14.298240137129520, 18.547468542084413, 101.300872142302552,  4.029613436530115
 4.321417081621447, 14.008986475508941, 97.776643847291140,  3.717148584565416
17.777457783805055,  6.772281773158872, 36.519630128694928,  3.864383941581876
 0.316319425192357, 12.271656557961046, 62.692865116151800,  3.993744604009946
 3.632626951870205, 12.810881997542285,  6.265368921507307,  3.952465648622174
 6.309814572917231,  9.381089979461780, 29.103182391351694,  4.062720122071287
15.086555189546866,  1.227641626426422, 58.107786150565126,  3.989289990871033
15.886790464292256,  5.547886452365940, 66.740180705735014,  3.862254162593415
 8.995975108903753, 15.133154294246053, 47.246040909811263,  3.750296792287202
13.859572977956475,  1.049052858212036, 83.947944248583127,  4.173828847083583
12.310376272355894, 12.165195999717684, 108.547474325850615,  3.869616634470615
 1.841125848938937,  4.636797183025632, 48.381193133954596,  4.152117264938807
17.870598720433733,  4.140496889006351, 63.568290184309042,  4.107480872198097
 8.840060579837603, 14.388273284320311,  6.876709547468772,  3.755720040382855
 0.426047603763974,  6.320267922118158, 17.574282144855360,  3.746107387885141
 9.944307310191146, 18.101623803838294, 90.723298993001421,  4.068798618823520
 6.024951525916314,  4.739823581180680, 62.002591019223175,  3.889189519352914
 6.346275154771383,  2.750875016967395, 100.419817841117663,  4.277867974221791
 8.200491567188127, 13.314402473688467, 67.486120094609234,  3.704987722238619
18.951443754841410, 17.217151913890497, 48.934856538119476,  3.633196520263393
10.895112396802711,  7.562850030704819, 87.309838436869228,  4.332946598526496
 8.443673241863090,  6.050694823055102, 51.567921796362356,  3.696244628064415
 5.965677618382535,  4.935309598499966, 48.268933422190109,  4.004528635359899
 6.802286061479487,  7.740446867917261, 45.104183682887445,  4.040218861905824
18.292031869054792, 18.845619071012372,  5.580848239800845,  3.819223181865359
 8.636129788639813,  1.054204053019693, 78.075527295192146,  3.770380358198811
15.347839866114729, 11.791352806532284, 91.068416748707492,  4.026909827033125
 8.531430082343080,  6.861988204965686, 97.751816858838822,  4.242574384050391
12.831581029161445,  8.420228761622857, 32.344949241010347,  4.232379854944002
17.408400054581637, 13.484512062589786, 35.052374555698528,  4.033932199010706
 8.513578116319975,  3.778471316057302,  7.238887696006157,  4.321709929027341
14.432208629918726,  0.639290279337737, 19.917425422040903,  4.288331342039413
 1.528262988681919, 14.187747044983089, 59.382934315664038,  4.008045123582384
 6.892143521584035, 10.209149179620328, 17.160990440051883,  4.161365341863842
 9.275014745383270,  2.738301562917807, 97.327356555723824,  4.149496456300868
 5.961458979240584,  9.652642899261167, 114.728394836972726,  4.109182589042772
 6.402044118851109,  7.266040842551998, 94.217283386382732,  3.927510782443862
 4.125229801717883,  7.846895401672100, 68.171149008823505,  4.043110791399084
16.530945837172411,  9.014891590356571, 12.627311058777448,  3.805974138624102
16.753332534032133,  2.412122422034772, 77.989151185924655,  4.194261657189921
14.038510783344531,  1.307248857678569, 30.161866266804065,  4.065429719813451
15.534846963532685, 11.308168175689344, 73.732987536122295,  3.784780652964909
13.499723394068230,  2.396631167945621, 51.094691024897578,  3.897510627030481
15.412248807124001,  0.724336555359264, 38.405346261808091,  3.919454718621920
 0.397523581160656, 12.403399548913628, 55.900968468227383,  3.836468648638165
 1.759913251202807, 14.404110303222501, 94.630291276320520,  4.133000943910059
 2.513961530929420,  5.975571864762476, 65.039911642210825,  3.700817813177132
 3.635132972615156,  8.838883290124134,  7.838094280308743,  4.583619848591817
 9.047131246652160, 17.740497271290796, 24.520529846857933,  3.516267162475534
 8.825364003163751,  1.473490676974311, 41.405938544433269,  3.830916056343036
 3.326975857247530, 12.527845805638716, 115.428105178307902,  3.778916887430677
 6.176605014001299, 11.852262748407295, 118.192290390375192,  4.087714786994163
 0.784207567443310, 18.688550091615145, 66.943918540292344,  3.999850432441105
 3.396752542268331,  8.578383148422269, 15.916205402014251,  3.921988465089244
18.233224112918567,  0.821849843084374, 96.570618581899112,  4.014823999761647
18.350709011883097, 11.415744009451299, 31.687226773337489,  3.937337154454368
13.461789081121623, 12.862606322668032, 38.640480524952473,  3.456878935765911
 9.463724069251128,  6.161167752923021, 110.437808955165195,  4.053518636392966
 8.955563171977921,  0.627177951414222, 37.644316816612736,  3.880649890149721
 5.378484904959999,  3.606161065451646, 96.478480124221235,  3.997515280134919
15.468569453114863, 11.778797444276242, 55.058112580768508,  3.863353294169182
 3.465895396394642,  4.652514732326041, 15.981886242207132,  3.839099437049510
 1.479849449619467, 15.917017141402443,  3.528661829008814,  4.321350121545260
 5.113063314431916, 16.187118605523935, 22.370291247861569,  4.426687147423862
11.756891858449093, 11.308038805438386, 56.321160833338524,  3.963860923326046
14.179390043150832, 14.714799630903649, 41.885657339199284,  4.108733692210176
 6.981969059594378, 14.760547181900510, 63.977474378024048,  4.240356825567158
11.738310634925616, 11.113942115589701, 74.211107950116087,  3.874535255668382
13.260867160724860,  2.791831770948892,  0.850695698629663,  3.999488155134498
 0.180447744379363, 15.120930150154209, 11.171731704382161,  3.968947904467346
17.654097274423744,  2.491021567988606, 91.803540610821699,  4.388357834763310
16.084574425670166, 15.749071593034451, 90.306006218641542,  4.145800911448712
 8.202085625807779, 14.319937964903177, 98.563248550830409,  4.223377865636715
 3.198309274928780, 12.782821936453596, 108.989823692160556,  4.050965789333562
13.425321648824800,  4.194900495519283, 72.865285474338862,  3.855661088453827
 0.324076792673992, 15.230539834491386, 69.305188577698161,  3.957267326498613
 8.155651458735099,  2.901549799969330, 117.346855729436641,  3.997575551555796
 9.868903812459671,  9.078274236417013, 107.576997671304028,  4.153469561387475
12.061142183016667, 15.868991726273460, 69.395754891513633,  4.143968742642774
 3.891366249198255,  5.947222665867283, 77.272879379810078,  3.930904476704774
 8.530167671244964, 11.336481938727541, 46.580889238707236,  3.970839408499594
13.712209735668768,  5.011080006447020, 76.978965963137256,  4.040928391816818
17.634282363786671, 18.391460537550056,  9.360067568583240,  3.697429811489171
 8.707555878567629, 16.659938755048287, 50.908521111527122,  4.148436593452153
 4.816657953639043,  1.329845621521264, 25.846251904168508,  3.703891220480275
18.057147577292266,  4.181302807641012, 29.167352655104370,  4.214944184198307
 8.468547912223762, 14.632744419711164, 91.827807465449737,  3.780661094836494
 2.476843934090099,  7.783986910634469, 87.468908892231298,  4.085826404881616
13.544467448008749, 18.772924426238035, 33.789296822670224,  3.840414423218890
 7.280184626110159,  8.446238726415736, 62.242106613256290,  3.930412813237958
11.057308214756766,  0.862629707140891, 13.586537625487619,  4.117461495761939
11.357181355856557, 10.624245468766324, 83.474337610249151,  3.978921501106552
12.458932293956476, 16.753607176373539, 23.134283518665725,  4.096559985681072
18.561731980029816, 13.752693946372260, 115.534742392933182,  4.043172914010260
14.563188303357190, 12.920011752077203, 98.976689980580730,  4.233879953087737
 0.692922955413602, 10.279909531031585, 113.872477761633206,  3.769919774904272
 8.748949868421352, 16.660488788292003, 106.206429978265703,  3.642005080262605
15.738263782976903, 15.982170775621110, 31.915783419848651,  3.851754633301498
 7.613752212042027, 14.107171569936781, 43.658794987125098,  4.191622497149354
 3.337282279408835,  6.575619909940801, 31.802534181938178,  3.803817888110246
 2.778349054188715,  0.746604361629066, 48.617386166284675,  3.864093042685090
18.249255107216136, 15.237636298830402,  7.149954583019997,  4.045965418614284
16.267098445155963,  5.196292996678297, 50.617417827633076,  4.025031821914103
 6.906738056279666,  6.314371855860053, 102.231236602790830,  3.761869400642539
11.207439645726954,  8.835622007954157,  9.122114645592434,  4.223843243074214
15.122475684739234, 12.241783478395567, 112.361463474617139,  4.153680227351074
16.663970967873066, 13.278535820467871, 76.880107177573194,  3.946549412651238
16.103855931763530,  1.480203139101005, 66.199727864514131,  4.134819546847222
 2.795261442141096,  9.118147645115060, 79.431189623548974,  4.039937155247908
17.661829638692943, 12.295316388316930, 21.758855465963851,  3.817775472445649
 6.555941582400783, 11.079040064911384, 13.144479508530599,  3.782244223086665
12.600435414704823,  2.561979150588545, 40.656163237603522,  4.158280770630273
 3.311332212901014, 18.343558758589836, 94.932967767328520,  4.313595587839171
 7.990064707768879, 16.312273665915964, 31.511041830429939,  3.942919496114401
12.731247872908053, 17.545435216440623, 80.767986642780841,  3.674936211839165
 6.031360559416214,  4.184143242589688, 18.917617410432282,  4.000929273640152
 1.550874560678756,  5.399652474103709, 74.098034220497979,  3.960792956085339
 5.865669933317703, 11.205034387652958, 69.887056387552519,  4.199593624592714
12.505089031851867, 15.100718286327591,  5.519384337921073,  3.783124338563877
 6.719672688205605, 14.779956691673119, 54.011569563110505,  4.121930772735479
 9.044743574007020,  3.245738314527735, 90.881738987203065,  4.325430932572758
 6.386140927245672,  0.212879476138751, 18.434689742032461,  4.010002192819782
14.471547756356765,  5.805151293157725, 29.832138391001070,  3.718473293956196
10.293504546819117,  7.724298252260748, 47.255167916641362,  4.143172039678891
 3.922555378085195, 11.114594832432147, 89.170146525959950,  3.921151719945181
 3.980718429122297, 14.741669757813483, 79.190443001401803,  4.075225951224091
10.398928634200495, 10.254084551107796, 67.736460872309806,  3.847458365484739
 2.231625876719326, 10.795520215517273, 23.325660735594276,  4.466515913672614
 5.178543795526990, 18.384006392716440, 80.298374221260431,  3.905616962991887
 1.596394290905397,  6.214512561561154, 91.909131747232991,  3.937590233007194
 2.564565564154969,  0.571516763555473, 86.592989305171102,  4.005715285544887
 2.964559487157343, 17.115393105217848, 36.118818522350487,  3.986255018411117
 4.300231392430664, 13.002233544970453, 66.395697776581116,  3.711463580621964
17.665687464175150,  8.163521643734756, 74.041393379993949,  3.764571877141836
16.541909558861892, 15.389230018728066, 62.175780768158752,  4.016501982672531
16.720050134273649,  9.586506429249978,  2.516695403625477,  4.052308520190315
15.151840183993489, 17.021729864953876, 49.276837773156430,  3.993291971274569
 6.275062095817087, 17.533147925159302, 56.999484085457375,  4.019422664843165
 3.676646751932407,  7.241752270412638, 51.160459220679392,  4.164819042292793
17.959367216892328,  0.295356580643630, 30.784561586179908,  4.104525828664365
 2.426425857361356, 12.825537876443683, 34.544644740426463,  4.080254972485350
 7.513474019489569,  2.439859005102997, 72.900917568607227,  3.742507171974069
 7.438762756079830,  7.352244460999668,  8.928598834849385,  3.867811318482865
 2.986930047156827,  0.428105974441195, 20.722796527228809,  3.873384803440338
 7.806223882442551, 16.175613422626384, 69.784389741559679,  3.665479566980590
10.223296670860590, 13.817120782029757, 37.112197770185389,  3.877400302774472
 1.004171377423806,  8.706072012521721, 33.987429152176183,  3.856038273499288
11.081831595541292, 16.670921738881617, 77.193482494308412,  4.326077767652880
 0.463913506297616,  8.157114950413765, 29.490789869135142,  4.177221349349231
 4.654630181588387,  3.844617813068055,  0.770527713131132,  4.115526832497727
14.636177593115518, 13.250886003289427, 28.136867319666582,  3.970770155058267
 5.673623067784414,  6.296697147330421, 73.071487394674023,  4.707266338617154
 2.081993189472005, 17.559707042432066, 28.053791037099472,  3.768462759848213
17.505695296530529,  4.221240545329258, 102.434399425780796,  3.954534555894207
 6.891062016012969, 16.669816489745411, 77.197593482453698,  3.954105039959529
 3.163862987493629,  3.489118697508771, 12.053344577016752,  4.249102362754535
 1.607085282692996,  7.758230928467863, 25.833498268724554,  3.509070295007498
 1.459534737710570, 17.201528340631391, 115.131605463513210,  3.724002801889326
 6.000058044916732, 15.274903652327293, 82.734420558662876,  4.132548256247321
 3.469281155997725,  6.517768668615785, 115.884424645561879,  4.182969444682739
11.815220556673818, 17.487502510368337, 112.915493265758016,  3.738680301669587
 4.677898846866650, 12.476762253283072, 20.031615265657297,  4.380545916759314
 4.660143749854805,  6.834670574598285, 105.425672626068831,  4.031366274264096
 3.221961392956357, 12.010897777638137, 72.992522415326363,  4.048909530390553
 9.807151443692433,  3.227348963285743, 66.938763318336271,  4.198715011366536
 2.705945064930816, 10.840032297154254, 96.482675073958660,  3.806542640989317
18.195945076917983,  3.524923681373916, 81.631858538514777,  3.943879769328853
10.461637670621830, 17.348481926552225, 109.372451587232703,  3.669979424225785
13.260151603204555, 10.106202965352542, 26.093782180066096,  4.009412960886418
 8.547731144883130, 18.458970372043265, 28.203007521438117,  3.976616735541036
 2.544394696624005,  5.684740769808326, 81.442072275270419,  3.930448458804353
 0.387442004713050,  3.726956675021024, 67.360061868987742,  4.024417789217626
16.109073654985608,  9.688711366490487, 34.485325170981319,  3.984083021527810
14.485393622153040,  9.984593526268881, 15.782088416203946,  3.954919492727943
13.491258587043491, 14.728924188414046, 74.166992766361133,  4.150499921239784
17.445261238143633,  6.257378381713815, 46.487055019336182,  4.180152259644886
10.944839629762216, 17.070181162767952, 84.020598649737693,  3.783487857412533
 6.419461184080266, 18.812039393036667, 34.677135365783116,  3.807133300052472
12.361528186578383,  1.507170995161395, 55.193454710143534,  4.005980342961572
 8.801320193440462,  7.969874660237888, 12.484783740175359,  3.821601715083427
 9.754501862699829, 17.403311026376436, 96.383974736048941,  3.888264302779702
 6.846259481190905,  3.665076063494982, 54.409608827723474,  3.868792177611396
 0.783644998263656,  4.576264565341381, 98.366340403992311,  4.120548643825005
16.105678662884376, 17.673117290265441, 69.220012262171480,  4.040935578927085
 9.634791759495430,  3.316012723638177, 17.785384547193619,  3.727369017077482
16.924263766352396,  0.938982305856269, 15.887638712486169,  3.913805645599163
11.292566632272926,  1.316981580100309, 94.005912357652107,  4.109915354212216
 9.111765710076433,  1.473654856907897, 106.922897789019871,  3.856471839715688
17.965803447382598, 15.039317481153557, 83.287616478297522,  3.873661577615116
 2.507457177086463, 16.210559835877817, 55.874833656048871,  4.209129578547753
 0.562246345859287, 17.809446135740426, 104.743745129165802,  4.005713595148053
 4.785592608443036, 11.106137692018807, 44.147881309519789,  3.980628097076478
15.724523569604203,  4.536096099897707, 84.394839842836575,  3.740399837270247
12.648513437848841,  4.287874594497965, 20.063832719012140,  3.838622516597509
 5.298366964047070, 18.874336003475822, 63.055705837339787,  4.255062748272429
16.306723359598191,  8.388531380637609, 19.069853368585015,  4.207557714177502
12.276195952298549,  0.037180256442697, 26.623008186401929,  4.189660438126681
 4.028686624612202,  4.137044819492059, 85.278152762519852,  4.035165307629062
14.143355127200664,  6.034785692805976, 35.379449988485788,  3.892460480761452
 1.943093536827588, 14.518164811601114, 112.383231945341393,  3.954499468774839
 6.685128853053375, 11.654120848547093, 40.085229309976235,  4.477333826986990
 2.417859310612099,  0.193314334125176, 42.028126907975498,  4.299369214055817
 8.032894005845005, 12.880160364005718, 50.052491759197657,  3.671825420865102
 5.442273991037157, 16.820662759791787, 100.459495606644737,  4.074296534268265
15.586852681911717,  3.620519991479162, 54.227425569773480,  3.944111981519235
16.648528495214823, 18.395082682108338, 81.139865448081537,  4.366772168443845
12.890044736225882,  8.526147335511745, 90.906949830988623,  4.081719034853390
 7.667944075801021, 10.842946790313949, 35.773333987185858,  4.408667079787561
11.530670810434275,  5.309770819092598, 113.657982168424780,  3.778703384818021
10.714857336611090, 16.982791006353722, 42.453220150063331,  4.188557677533531
12.145853837818022, 15.917787580564573, 12.918040305771072,  4.054454619589921
 0.815353206543312,  7.434375412328557, 39.817468205463385,  3.955908161824615
13.998848571427191,  8.447386801222070, 45.453006389101127,  4.199305189805259
12.055876627682865,  1.551209046249157,  7.664312942311558,  4.087471243659826
 1.021849026231113,  3.294916117377059, 115.895259449591563,  3.905064757381530
10.009595097150395, 17.026961806944840, 34.850849067339766,  3.979774937846359
10.374897402553648, 14.884792387080763, 61.587002719702134,  3.898320864098824
 8.316868494431951,  5.108489492309385,  2.187293901855137,  3.970924291949820
 0.070637786777645, 14.911660315829518, 79.626115472783837,  3.750917364217014
11.199809109480668, 11.727722460790044, 29.462549843774379,  3.971713238511662
 1.323731636987039,  1.430217633967555, 70.277016447302586,  3.560167773810894
 0.892595114338694,  3.674388574851193, 32.865829574577766,  4.062128412380480
 4.211521723957787, 11.569383552806263, 62.075226517521635,  3.690926067997699
 5.205610798318615, 12.225729695460476, 85.495724160653765,  4.170888333510828
 8.884321229688327,  0.755966073367023, 10.121562466448832,  4.059228848886989
 7.311772618524830,  6.782890060079867, 117.239841672231464,  3.931991682947145
 8.480284198550661, 10.032219561300803, 111.355009806111411,  4.112038097397257
 9.954136784148751, 12.639486904605661, 70.940173085729256,  4.158081510864267
15.621265809972289,  9.202658229105902, 23.012590221313179,  3.955323041084005
18.333358380325485,  1.916050688643313, 21.726738634532154,  4.167762980824743
15.709596693296955,  0.895529912206470, 46.374622663996099,  4.162453270522887
18.274107273476996, 16.914533318502311, 118.405118460321916,  3.986496880731249
 1.725217155827679,  2.972173721756880, 78.487394028623171,  3.798255106321583
 5.030676007085944,  7.510034201815879, 90.528135382876243,  3.888443886361827
 1.025828074640196, 15.899624102818853, 15.084906345555156,  4.175523049492159
15.165486997418121, 14.409926439263561, 117.853022521786571,  4.060754013955313
14.531359774012561, 12.155347462742348, 19.358385448397293,  4.061799444629717
15.223204153705327,  4.192983435726939, 43.507127518943086,  4.205839168183781
 9.445264695671233,  4.360864570749586, 38.780847359100690,  3.982515297906386
13.918269886413075,  7.909512565413507, 115.356706586251903,  4.053105891750481
18.585833958056035, 18.521270038187151, 88.922818067813154,  3.755582711990050
 9.550871763010310, 17.602688803260737, 16.584040080424860,  3.925567860489207
 4.840250192357774,  0.530017164577994, 106.677969481686929,  4.151316698867291
13.914012042485844,  0.296740922513222, 90.954620790694648,  4.187165966595467
 2.658990906958838, 15.026540647721262, 102.773958005340376,  3.936919726940038
 9.589744751088570,  9.988756792770161, 42.950369005201203,  4.042027393410033
10.535681396524220, 10.989511012173383, 98.043875067361469,  3.931267376828763
13.536448613046725, 17.782781158542210, 16.245990463379261,  4.056321553475873
13.556396147017638, 14.973066000977058, 35.143461137999815,  4.192025071356402
13.144617650505150,  3.414339340509157, 104.134472284238598,  3.917632526486814
 5.978070519772526, 10.675552393755201, 52.347282746322421,  3.883754732298754
 2.631601924423338,  2.947213066293107, 62.553302865896839,  3.820172619631722
 2.890470917345564,  9.920428604041769, 92.759552641277949,  3.870948076995569
11.425144299045954,  6.622287597032323, 68.367911303584876,  3.746156150501725
13.328661086252001,  9.872756080800519, 105.449633418157475,  4.091992644865491
 6.035824450452003,  7.092259405120036, 34.616903664996478,  4.029427486909049
13.474552399758030,  3.269648835252792, 68.976474173188478,  4.138423681564368
14.779215714764756, 10.683757322269626,  9.679065259567967,  3.797606187412990
11.964697877194986, 14.808097052047625, 49.535618737388120,  3.770334100169623
16.135274391820559, 16.734183952306363, 98.179796167105408,  4.051430660825357
11.067732345570313,  7.769518297135495, 28.615150639649013,  4.110974435660973
 3.605771966856338,  9.709048815015366, 111.377670943907532,  3.764924033956059
15.238837500586396,  3.903730703099085, 115.054823356784865,  4.390112397144149
 9.092611164309183, 13.674812639975377, 84.991760799171914,  4.160700560933359
 8.241349182611792,  5.740681963518758, 31.214143438113670,  4.516604542911439
 8.696933103979161,  7.618499326066437, 83.720511611379351,  4.042470350441990
11.371779688511085, 12.159170967279779, 91.515054098316583,  3.870984424784324
 1.002253448171757,  9.276500689393282, 83.097065979795261,  4.067800485101077
 8.856338417530226,  1.646840341013971, 57.132901082944130,  4.009194149903787
 4.008441756506481,  5.773716271097747, 27.966898183818550,  4.024541010409535
13.040014868952547,  0.184855118361298, 71.535800146425672,  3.911581728674951
10.348639119352837,  5.364373733185595, 94.291967357099452,  4.115420306064919
 0.556230284137842,  6.669415789250816, 105.022224130797099,  4.217381831086501
 4.368883767658000, 15.994680889478767, 86.760272763938502,  3.940968775446803
 3.634555914401420,  9.594261988829112, 37.062019453234996,  4.418173654755870
 5.340250239501557,  3.194402707075988, 79.619030922525809,  3.758107568902374
 0.576997017037686, 15.758613977376088, 32.631580845041547,  3.797700286906251
15.064076829432288, 14.812434261823421,  9.985788411795065,  4.496085841738741
 5.081445729103474,  3.011501599160781, 32.533766423518600,  4.234000804886924
15.443482958870907,  6.228234789260829,  0.473453513153201,  4.176423687645827
 3.923227438846400, 15.116477071224798, 75.278524629742691,  3.755946824331694
13.407484431834716, 15.173983690889992, 55.791299627870217,  4.141606046994877
15.097265678477163,  9.592926576416014, 108.950951110056465,  3.727650508160542
11.388995199694369,  4.791459131972378, 57.285090357300291,  4.018002550311652
14.043462931757421,  9.055452265335799, 66.861718561661164,  4.006465158207048
 4.248579480445343,  2.569774019551831, 66.220784559259158,  4.202703807611192
 5.815240620643935, 17.171786208121670, 90.349333959123456,  4.028479887758869
13.172559564109998, 12.722981054240311, 67.419618630450529,  3.592065937496975
10.147301485212679, 12.749685943100694,  0.478498113612306,  4.188064789061579
18.036843659066935,  0.839671890773113, 26.752787819733502,  4.021017991491727
16.645891489124850,  2.139544736679970, 71.456649570973724,  4.212287516741156
 1.511579592487623, 10.167691152228787, 59.303041765147576,  4.031392910729996
18.272449110601844,  2.975313571606270, 112.181658275392209,  4.166128270359772
13.237266615136754,  6.221556572381306, 101.416036368081848,  3.837982566060251
 5.946142581058961,  7.603333954723021, 109.150437971516126,  3.944775625433725
 8.746043492125585, 13.888045331162129, 108.941402853692324,  4.025385413312053
 2.731884057581316,  5.444973512912791, 108.572595483626557,  3.830910839076539
11.499069002286445, 14.859461617357567, 88.642101371553792,  3.980445403482851
12.363663511108534,  8.236900422201826, 20.915469894137122,  4.017828559143328
18.738172492236174,  8.856510812045341, 97.424555528163609,  3.449598285365136
14.459721738934393,  4.846430933917493, 60.235632920508507,  4.392836227107630
11.943789088736182, 16.053052035525415, 30.094427419240493,  4.427074070204061
 8.445473682855944,  9.163559932562702,  1.865619228682645,  4.161656610159854
 4.162217622022277,  3.131300280235542, 51.515761805479066,  4.072604060580732
15.373614378900964,  8.820628164205491, 49.254504276229689,  3.886998467634730
11.272815037132917, 16.560307119960445,  9.000121898180375,  4.027348065712266
 5.120570213863914, 18.639063704136312, 30.125559518270386,  3.885020337409806
 3.549638839291383, 14.834100920585460, 43.223212785668672,  4.048502394503881
 2.587835096128368,  2.246689083964559, 28.869017397549403,  3.746839319418815
13.868334231870174, 15.539341479156905, 110.160112843644782,  4.154945146317658
 7.487862640776947, 15.358895954604037, 18.994425855207638,  3.821081423123853
 1.482567359723233,  2.013807396134303,  8.263657289225703,  4.237023067831561
15.341076753445174, 12.612473066484393,  6.366452006841999,  3.939900339550976
 2.950311944506541, 10.813078848486803, 27.450737467165105,  3.906043553188280
18.020173098586600,  6.955925800345532, 108.891150062939900,  4.074345965623364
 2.430550209088841,  9.862374895302272, 65.147300246971525,  3.855043158425111
18.386321042446017, 12.682511146762520, 97.430096750472970,  3.920007283993661
14.570711958112380,  3.802421876559853, 12.399803080187130,  4.184641907128393
 6.477237210306854,  1.175249405511742, 22.274595065788873,  3.907781253804963
 8.028568858934298,  5.215280400360900, 106.805411399998178,  3.930468671989705
17.588434558648800, 10.712632936007058, 51.915465924951135,  4.000806022241127
18.838208040209405, 14.467985622755785, 51.543712199938099,  3.945578725599657
 9.311858278116306, 15.854649902781304,  3.197306597121726,  4.211991851106611
 7.216030466184987,  5.317463919043708, 58.085627373855601,  4.175704108623824
18.316381891960095,  2.816091427567987, 36.563307704422030,  4.120103957149786
10.109259378211920,  5.392154922445481, 61.166951651598012,  4.242028101910037
 1.941459234581072, 16.663990329649504, 108.432145380844943,  4.178861208308430
15.591979948664459,  4.988211868497685, 39.341522074116334,  3.953187816648633
18.242641992092075,  1.107288861107866, 55.835981592897213,  3.766245417849649
 4.425347508507900, 15.454486511122658, 39.430998291095094,  3.785515299100647
 2.214723546136536,  9.046737410985239, 75.480115193455433,  3.943992447837786
18.031295220736908,  2.993791680713767,  3.573935592044718,  3.594162152036525
 0.604814562212151, 15.785891666091763, 86.598992040906595,  3.512234781177499
 5.651219734982742, 10.952060746094961, 81.605367052838886,  4.015229010331787
 8.301195696066376, 17.220479223903684, 87.025971311290704,  4.155870345830743
12.479610428944406, 15.805229004213999, 106.315845568779125,  4.006144722180940
15.313939980038707, 18.038111850704603, 94.530299290192403,  3.867538691555322
12.441800524563515,  9.177816373177313,  0.527212861885413,  4.225743805552625
 3.685501500206207,  2.186180014066650, 73.106650960634639,  3.935256532537851
17.113351016238838,  9.782887032497877, 70.472259265179687,  4.062828187132198
16.303811950314614, 11.298816555721853, 83.629020135651487,  4.205074465332646
12.066294052664917,  2.836277493082227, 23.645872816678938,  3.947265773463874
15.474923265248700, 16.146010207316372, 114.036597868212013,  4.322173346943382
 5.963946464936329, 18.823972148047915, 53.167862719335979,  4.082695169068872
13.914653754704005,  9.055384353259583, 97.824244684408470,  3.866371197472737
 2.716696927449150,  0.967805848450635, 91.022831966926489,  4.197103429288476
 7.313535920879454,  3.845476425110800, 82.930266841835206,  4.057055248247430
 4.654571567230699,  7.905742845379735, 84.081100563592784,  3.967424501670318
 1.565053876866132, 12.625732588940041, 76.821633813157376,  3.762454317030223
17.267173223864308,  9.106092679035662,  6.964097893883419,  4.117684614867645
 9.525787682208643,  7.527508099526072,  5.522122604963684,  4.129801705636912
 7.650386131396623,  9.757028266197636, 104.045286004945069,  4.160152564633691
 7.139073017147716, 13.813484222468842, 88.467662305845238,  3.588786648404066
16.413447585788578,  4.144509836730197, 18.914772386256235,  3.962557071971222
16.767187703474857, 17.912109918173815, 107.995559463873533,  4.495650240933665
16.752406096087178,  7.376686660537235, 91.488826088072756,  4.049785268287534
10.115483115026978,  0.178144695025216, 20.440710422718894,  4.447752652008027
12.534338376942106, 12.765329645945624, 77.655630443242288,  3.901820625739639
14.862908836831986, 17.760168054541175,  6.893513767810214,  3.821920686695005
12.902278132718401, 12.707598934506105, 59.738398484909425,  3.718246135832223
16.417441655196956,  7.985361019288308, 42.056423652697369,  4.173664322978197
 2.278953515228001,  3.555731098647266, 39.298689223871278,  4.011677235793841
16.457053332018823, 13.002031121882988, 87.348387465733111,  3.952426279963998
12.481652798165440,  6.367153135045811, 25.209656321220386,  3.774050032280041
 3.638214834005628, 18.131454108886018, 111.906055826472084,  4.078274878469071
 7.861166935625467,  5.992129079826539, 26.969445628073142,  3.903086932494760
 3.057132081532709,  4.951773138795034, 59.006147535771454,  4.339584453056205
 5.511742239311205, 15.751204989921696, 109.594010323629149,  3.540042571310794
 6.159564250485546,  6.076272971457140, 112.815490509548326,  3.972925256637664
18.117184820041533,  5.877379294981830, 71.010349637637049,  3.870453656349417
 9.145552835240075,  7.322279879682458, 23.429989119590594,  3.941413230277597
 1.394427049367772, 18.394641014145638, 79.620144054002523,  3.637615393885156
17.306388572347746, 18.048808873932991, 35.023656636778327,  4.183624456576225
 8.994543054595885, 13.428112768290069, 75.735765696768695,  3.893983751082738
 3.105822613449841, 11.836870345418703,  2.344161884219103,  4.011617504486908
 6.519714960099818,  2.908120576587892, 28.753419933268432,  3.648164764048040
14.064454738513181, 18.919656833480406, 10.877469107762444,  4.119001893770245
 4.378390473502302,  0.945546709269624, 116.213328782794719,  4.269477350257339
10.537389507819643, 10.062492829781913, 15.304959121805132,  3.999411773209150
14.936104570476125,  3.083527377479806, 95.109790489785752,  4.234411220256798
 1.783877743341047, 18.351264636691255, 24.270236476235716,  3.873040935076263
 9.550664656333572,  8.609243476502748, 58.195838798490627,  3.867255587528973
 4.784466910673803, 12.287710448660045, 10.016600713089518,  3.773693468216798
 3.751645675234449,  4.995229468158045, 44.698606747647680,  4.141304041197470
 0.632207231979697, 18.518814136941852, 62.925385325405344,  4.048256445844327
 5.167347147713806, 15.973356261964829, 115.044408555277599,  4.066704562433474
13.303033612060728, 16.762252219625385, 45.525204126570749,  3.852736646325046
10.824062408694783, 15.387762728422972, 65.503680449889714,  4.034386240660240
18.312823171754758,  4.496105670732526, 10.793569982510995,  4.024561804129644
 5.118018230060462, 15.471915148399498, 105.850607899018627,  3.976885087441312
 9.704585527583058, 11.953816842348242, 101.596369951191605,  3.580304840142044
10.129288008591528,  4.308685925449804, 70.996375585228179,  3.719535399778660
10.870530510970484,  2.122666246750762, 111.037922654499113,  4.539763194046204
16.184058260071808, 15.664552797369046, 38.357793382449785,  4.219766638107425
11.649320303493415, 18.261283768386914, 62.926673158079311,  3.771317172379590
15.557339341904683, 13.700928371844331, 70.439142589863465,  4.315553566525534
12.291801277822881,  6.516787063769776, 50.734947670152842,  4.181017520200438
13.895813596571491, 10.613203006091313, 80.543789931965733,  3.729878351698667
 1.471479270017949,  9.902125239559863, 117.694825324879034,  4.046009941636012
 9.045768438165457, 14.444126671575132, 22.549321826582233,  4.145525410216382
 2.493312090910045, 17.049229971115651,  8.625922890782419,  3.877204597529561
 7.272243880439587,  2.242014107192931, 113.450300761872484,  4.094039294495205
16.789071934554233,  7.060214803460824, 26.349461439588179,  4.171222087753100
 8.455539406889718, 18.091413056665477, 115.579491194480028,  3.798454661167388
 1.291870701203011,  6.648380034408515, 112.330062920019969,  4.140959923236774
 0.703597346462175, 13.314844601399136, 18.448339035626134,  4.169832306049737
 5.589787385472278,  4.742132775831341, 23.899426600746402,  4.096391806413011
 3.002238836353399, 17.976499156472631, 59.624331991689786,  4.136535366601216
17.968065825840981, 10.387105921754655, 94.007640594531750,  4.102501233516662
17.123560893040636,  3.182013820249019, 107.644781529572398,  3.998063844965990
 3.014188778384589, 15.265869192287013, 62.973339342980964,  3.997924531360589
 2.158746273085552, 11.920077889891665, 100.249079585635954,  4.066526037805726
18.188972649810079,  0.969622428576123, 84.594367344059236,  3.784457809962644
17.121149818712091,  2.350801032703624, 118.460749778108337,  3.964734258956391
12.577249943339185,  5.301056949891962, 97.673802418619587,  3.977127738694560
18.116456904530665,  7.037848872351525, 115.876815673058061,  4.156728061574798
 3.451740844271038,  4.352996543603430, 89.104261596644150,  3.709349310832289
 1.490033676947655,  8.297226855718320,  3.955211639692362,  4.302188749025877
 0.160228614554041,  7.494288869638575, 53.529935208207959,  3.762160021294785
 7.197495197550730,  0.458712408838242, 93.557658953828735,  4.194387460193726
10.388370270175368, 18.860040638720360,  0.485969132106663,  4.164592053263154
14.510233679938993, 18.482677705441027, 117.416181968782752,  3.986141450546536
13.236422549991635,  4.372426192268520, 91.508060923848717,  4.092870199171577
15.034415423690325, 14.372521883553754, 52.262012398067654,  3.791024711942275
 9.421654911228199,  0.657599027523511, 70.083844111217829,  3.936876972083704
15.839339003465435,  3.039170837814056, 33.343943651915204,  3.952912320230117
10.265047872689980,  9.482657943410851, 94.322213462254183,  4.100266677468241
 6.418863455029785, 11.082149935828618, 107.564849144294698,  3.752302397355082
16.609698845694609, 14.272447187916470, 94.163139914897570,  4.120941810353407
 5.718222507527972,  3.903866342342510, 41.311358397723836,  3.981516532199128
 9.888155837484002, 11.403866039433140, 88.139736488627250,  3.613590289082981
18.395511470483651, 10.283292325700494, 46.880547703502423,  4.005875952838154
 1.121135025441083, 14.478232047335599, 90.254521904821686,  4.238044589608163
 3.352201085715682, 14.993516247702523, 118.460732795374582,  3.901194836709711
11.633978974908791,  1.790526409216369, 59.973220141568987,  3.928735220662765
 0.242022600102136, 18.459750334956730, 38.622355123554875,  3.876247251674226
 0.274979696437857, 13.709718351332270, 105.918744301756831,  3.728885132360433
 5.103965304414970,  0.389095952163702, 38.768443526815396,  4.125807495379529
 8.874450595056519,  7.218346710522824, 19.213136970748138,  3.881341562026537
 3.295394132734498,  5.478462112045849, 54.839229835001071,  4.012222296768485
 8.306184045990024, 16.077160097406228, 112.259696852735118,  3.934380466294374
16.261369765433855, 11.988209355373598, 103.721652091247378,  3.890528444797930
 7.332469471571568, 10.861760102331981,  7.182745296955170,  3.927550267185349
11.795229703215998,  2.633291571674816, 100.511563258390154,  3.965007383937242
 2.375425629546107, 11.536074092492946, 40.766421463436096,  4.215569706133904
 7.725900212639822, 10.235661086632232, 73.562265969806532,  4.220247848996030
15.819954766232133, 15.770395950072412, 20.952097379898113,  4.107848997477972
16.566955179631680,  8.414959440495977, 112.367782391496291,  3.993957803440089
11.123962137433452,  4.851749868989584, 10.364147991220324,  4.083651497024403
 0.549447038065508, 12.603127201245918, 44.104145076395454,  3.551058623530816
18.629103493743703,  5.046467281604991, 88.601113290849142,  4.030446063999495
 1.531553658661410,  3.845827188700676, 24.987420201589561,  4.494027697567174
10.226483279611362, 11.531074273258184,  4.584524676341668,  3.874271744805250
12.813686901424422,  5.361830456233726,  6.725310406629704,  3.890158355698422
16.277361049331642, 13.177615468600704, 48.757367885114917,  4.018049991434023
14.627327350143933, 13.391761647503342, 24.090998906441790,  4.117456387632887
 2.529888840574993,  5.690484391186700, 35.929710669833092,  3.925684861545686
10.142544981602692, 12.723040946767584, 105.317882907937616,  3.969880372946193
13.232842821905370, 13.849776061607484, 85.074995712719172,  4.078717513633175
 0.946924210669316,  2.494438562148680, 18.027631639198255,  3.947920934378764
12.923469327050922, 13.864102096660472, 102.664684303829759,  4.044607434138375
 2.082410924957558, 10.935119690333218, 12.607161337561342,  4.142838291278241
 7.129235774323908,  0.120967767656444, 110.001860028406227,  3.903823702002033
 3.212835897458108, 10.540592798807175, 31.350671960254644,  3.917941399056412
13.375076070118268, 10.709704373815107, 87.339202749949692,  3.656114081746783
15.322664053919814, 17.103302834643191, 77.271314855896875,  4.194785842765044
13.396197799788826, 10.731896724014637, 41.779796288145320,  3.972807841784740
17.159826694521776, 15.847707090488694, 45.784712624632903,  4.081350699210745
13.740622482993228,  8.086817096000775, 57.616801784517584,  4.026179658758946
16.545707960493871,  6.726828312951663, 99.481757477099151,  3.888888298044566
 0.364587678685159,  5.855920297301136,  7.368549433970241,  3.616468542931308
 1.750732358580601,  0.930134275752517,  1.185765073388151,  4.112135123743607
 6.783784455271202,  8.754401586954556, 49.023131990577305,  3.943336900813366
18.824546803547044, 17.536048548034117, 92.756444093183291,  3.994797689574706
 0.138080700192918,  7.755125708890295, 67.574061507600518,  4.021250062984842
 9.034453046626872,  4.024955095193304, 21.416477951961966,  3.766530234521699
 4.227591989493102, 14.934192914392229, 69.745800812777063,  3.898024023183106
 3.336834700031053,  1.479067494139444, 56.139995044501546,  4.396861325689790
12.135348471880679, 15.627637981423591, 19.297276574968873,  3.922232452766149
13.668868642159344, 12.545495447841605,  2.689236812744098,  4.137411600975664
 1.159733216053368, 13.815222635165918, 47.655381594893065,  3.980457096252702
 8.607238341498707, 12.968932261037525, 10.447723441748344,  3.864585930547452
 9.513460109559949, 14.757785389281826, 57.510541938264353,  4.408170971261860
18.652727456616716, 15.796452574083334, 41.844273736126503,  4.309915234164050
 4.011260621141123, 12.955002084324903, 15.787230973902343,  4.258736153292127
 9.917236955417463, 16.619129261597482, 72.972943857953837,  3.945774534286234
 2.386076260680760,  0.087058726904553, 32.728784393928578,  3.689102075888565
 4.206791621172719, 16.788987849177616, 66.344668306646270,  3.758117247555635
15.933839734137477, 16.067792011095548, 104.224318157403459,  4.037582953252115
16.331842449371312, 16.804526164972312, 13.502903944896079,  3.973488813090998
 3.620764367443972, 16.221284925676816, 18.391612523406717,  4.049420493808017
12.686567980796163, 11.840633513495773, 115.740621790396290,  4.211776531643876
18.582294780157760,  5.014810594999114, 56.543590514383034,  4.080704765861681
 0.629149117830547, 10.214081066638613, 103.334246257699448,  3.604964128281053
 2.377041269382740, 13.085482350420623, 82.568276982113119,  4.027817096819111
11.853336730476764, 15.973980355565255, 99.423799636539485,  3.971376750634316
15.816353809947994, 16.992577716674244, 86.236446597241425,  4.349099319802429
15.753431605046424, 13.257825741329521, 107.259194618575577,  3.685609352901336
 9.255535712655940,  9.861680937878853, 80.112975969047000,  4.085829064156778
17.782105494326121,  5.981910918446339, 95.076776320391872,  3.827345136386155
 4.594646073312078,  4.710741602529792,  8.386905064065870,  3.959520380098276
 6.950117238226068,  3.877388601203119, 76.294013011895728,  3.702244272330006
 6.954997692658216,  9.022349885726941, 87.392600454339529,  4.055294486836974
 8.037081064963191,  3.713340336470675, 44.738158259215851,  4.301949507585074
 1.501740575598999,  2.688453488851977, 105.437219153986192,  4.001152180651227
10.035048819813728, 11.663644247211881, 63.965560575230562,  4.129842825028867
 7.783716772661101, 10.698128237374430, 22.096010529239397,  3.800680375819965
 3.177843270292621,  8.510053552959340, 47.041969735758087,  4.189904229173121
 1.733868531799672, 11.412365189169039, 68.876586875140731,  4.069283205706557
 8.972478017244084,  7.443484283348210, 91.038724914631658,  4.045324002862877
 1.891302347235132,  1.695186864657517, 109.285896206639421,  3.982394573398343
 6.139027455454748, 15.802202355543303,  9.194203115316249,  3.892248136530617
10.594321244271399,  1.830903669470922, 81.457605468104177,  4.175336772671065
10.685484451646275,  7.964949084725512, 71.919170593608399,  3.717321529561140
16.738282678210314, 17.368916668192327, 73.159317483325211,  3.925739980091409
13.809433357560904,  4.479829617026942, 47.431356878787511,  4.113941725271084
 7.491127592996699, 15.563395443729458, 118.183602163767418,  3.704193383384534
 2.523818635412202,  4.261151744803973,  4.614767958516623,  4.049687764027872
16.401449750592274, 12.799588609809318, 13.594599051166673,  4.001662853480163
11.546869480311582, 13.268914149889993, 44.692803937029339,  4.111536371264423
 1.671775148556774,  9.485409815731192, 19.362856704142040,  3.929100885311821
 5.488398247996338,  9.161127446233774, 58.564708418752979,  4.298424646649363
 0.031685866781796,  7.814447437144748, 49.808433419919552,  3.690476520087406
17.581636310832550,  8.914746446905646, 56.811513656105312,  3.978932184966783
17.150930672972986,  6.553291497725403, 32.361633101314588,  3.779793793053090
13.360037296820243, 15.204498250331390, 96.037067177423907,  3.579502737122161
18.454994406794345, 10.551718160658893, 37.647581424436268,  4.072228908855960
 6.611763874637065, 14.040554672248836, 72.682626999442320,  3.866841939820999
 3.361765058643292,  0.814478722599792, 15.446254332575117,  3.854172822990805
16.420337090128509, 10.614820865232993, 117.054370035945411,  4.061238484996419
10.352871652667799,  4.759542076639089, 14.299983946159674,  3.920736260341270
 1.843031038868456, 17.381838408175543, 45.702152355139525,  3.812547065113311
 9.090021555417636, 10.484613801509692, 26.084137778352549,  4.277371895158306
 4.983839495548002,  0.083770313497199, 69.612653231378403,  4.328458774104150
 6.637304734834088, 10.383710261039317, 99.275905856265211,  4.308281970516188
16.031503782629969,  6.245112169421716, 15.447622062657430,  4.147232564451161
 0.770252997791570,  5.400359314148564,  0.904024156865585,  4.229602961072801
15.113950505433166,  7.721610129965925, 53.686383347457600,  4.249790461212924
14.480523842738666,  2.518854653266358,  4.619506308326197,  3.845835423256005
12.207381126984901,  6.533840592689920, 40.373734800270604,  3.624105174405335
 2.088655079537057,  8.416011724668600, 71.556377397665244,  3.936304945356340
 2.731786309040835,  1.800516178218482, 82.296834462873775,  3.960282410569326
 6.525567888942538, 11.421900994631864, 95.020184782090482,  4.432780031556506
12.130120911318398,  7.335261420634037, 81.242279555725105,  3.815892423297201
13.378546455095279,  2.953684652151336, 16.337944516245742,  4.205675168119808
10.583501503779955, 13.503467094203254, 53.058579739022115,  4.229581317331815
10.321701362263461, 11.891040892057696, 19.097397034310966,  4.383862965628360
11.104134146438334,  5.608096500878463, 117.509454222216391,  3.973997252951138
 7.117508316637470,  7.634365916595102, 38.488211187573491,  4.066937935914712
18.741452680281935, 17.627658553033882, 18.678431783557748,  4.143132273122880
10.781811676719515,  1.221725018370368, 74.712265298297368,  4.116837261812861
 3.112854053137224,  1.952965007988297, 35.818884100537403,  3.637547476459793
13.491568953901455, 16.723471755966223, 59.703215605108284,  4.252236427887309
15.930393045724141,  9.994877170188841, 60.343295200378527,  3.795176874422970
17.439357227584477,  0.512120212215499, 115.126098658199780,  3.668435119053560
11.082698343028232, 14.276752647492650, 26.223276477637242,  4.257776065475945
 6.188744629327885,  1.667204694385747, 88.164075885459027,  4.166474070882535
 6.269363577456218,  6.987624443999182, 80.442144448039841,  4.203806637547617
15.505265902720975,  5.049796797090243, 22.842539948725179,  4.273830222214372
14.683141053367834,  8.873037386986070, 38.295777390734571,  4.280340880692757
 5.535690172421257, 18.415164316582594,  1.418424581620837,  4.007595937645336
 2.697477067032624,  4.325401191947165, 21.000257266102750,  3.849727064165843
17.101183047505469, 11.848014683257938, 66.913280744671866,  4.163701075175908
16.786909986440236,  4.558899698232266, 74.614222344221560,  3.737600975202394
 0.055825271476093, 10.444514571252833, 90.014476493755694,  4.059062764553462
11.843008142201464, 12.764630159571858,  8.421990655636026,  3.734262579594747
12.361853366747924, 11.177707761294336, 48.112508015479150,  4.062322014406905
11.250116458335182, 18.856880120403446, 103.961071364008433,  4.078085712637241
 6.413825704423306, 12.648361675186418, 32.213196213045705,  3.934080303895245
 8.785574056134116,  2.054382297724549, 63.130989177777856,  3.918465331861284
 4.363364650255734, 12.795191888829562, 57.002699780727653,  3.873168247591258
 2.405491929150182, 16.985466710551727, 83.457530242049202,  3.951642262085365
 7.982514612583966, 18.343665326192760, 66.408917446596604,  4.355246428395882
 7.175128619091985,  2.160875468211860, 14.929186748445943,  4.154190237010493
 8.636648493915414,  3.326320714497052, 34.748856344113477,  4.059417950962436
 6.244277091282762, 17.703434416577064, 42.494979605875109,  3.802062840404854
 9.362833440788556, 17.645114062949606, 54.674759371114625,  3.689354324034006
10.577367412532608,  9.840417841606396, 38.928192699803510,  4.184692180703126
11.466422694056716, 11.386311240515646, 22.933836244662864,  3.669726257763494
 4.732499028612902, 13.718077421685555, 91.999797286164366,  3.917479904551172
 8.518397938959028,  2.389976699068400, 25.443541372092380,  4.005175533973238
 0.800389190277439,  7.266127055483603, 13.616805156241147,  3.418340289781649
 2.059380712511896, 17.222043924055914, 72.455922007020973,  4.212499120132763
14.861382915483208, 15.801055540449047, 65.837142402046624,  4.071238034146456
 3.390316678334115,  3.153770954627470, 112.694729548276314,  4.016265242413066
10.380888224872784,  7.618853048876342, 64.715326191074226,  4.108389472477690
 8.897128859103073, 17.194267920131690, 80.687266849884253,  3.924716452292286
18.866552295400705, 15.157437416479908, 65.402103864184085,  3.892099787845953
 4.452055576286904,  7.817547971495723, 41.678980251455293,  4.234422253375685
 5.504994804973244, 16.384597108211757,  5.136391620572510,  4.385699443872282
14.892629890056254,  0.575748245577928, 111.553572683984001,  4.135250386488053
 4.357020376883133,  7.877781439382785,  1.063591077046935,  3.844172123616384
11.116965941909278, 13.214509932355448, 112.173707660781346,  4.040712249448180
16.513670040462916,  7.417510653220207, 81.298251349171522,  4.437461280633160
18.535691569788401, 13.014961270155949,  0.972531439964703,  3.901099168427722
 0.227630902093436,  5.332539579724013, 42.989421564220905,  3.718706657442425
11.471407525558870, 18.839870548901832, 48.540822869136335,  4.329573865098110
14.037113840473660,  6.843491942231227, 63.762572811890628,  3.596504472290428
 1.248168400639613, 16.503705861329351, 98.152420199104654,  4.089718316286860
 6.816142348135504,  0.953007103594765, 49.060670880141529,  4.231048820621873
 4.533022747458259,  6.678154353904855, 99.069666620235409,  4.171976228245946
 5.462037972773541, 16.272380033297210, 46.384273640315186,  3.866142804936353
 7.803737028297078, 11.286301371693916, 55.824810139563446,  4.000206859382492
16.148542904368174,  8.088356974475946, 103.219431744176362,  3.929183768257922
 3.178435472994380,  9.535080714731874, 55.021507331616938,  4.110473452758630
18.199652575144235, 11.078458469465666, 79.887858019159864,  4.070016088691069
12.330670221164352,  2.580187674401563, 36.470295975398145,  4.208903169554116
 6.072529784750119, 17.854918362532317, 73.465270191804549,  3.991092846911937
18.487736526656764,  0.385529061578393, 100.901416508276640,  4.516207388988187
 0.482820034920923, 16.653309101352026, 76.217079291407799,  3.907317461325959
11.698311412323150,  4.315580151073140, 107.588355971780587,  3.777090738283704
 8.547220151666565, 13.304150307859089, 115.256713087931033,  3.978068423573443
15.503296959938346, 17.116943081597274, 28.196864773142796,  3.902159868896360
 0.449009019882990,  0.365559546109936, 12.737353249616747,  4.116643402138084
18.571224054901180, 13.827297932445815, 73.400469971131685,  4.057224278234593
12.275258683923230,  6.883905620846219, 17.098540205820466,  4.068378182627750
16.001739939682338, 18.652938931728546,  2.554343263898273,  3.776814391169834
15.618834475134690,  9.233401721025245, 77.271764862422572,  4.102233790539532
 3.446940521139615,  0.645706786636542, 102.596205134840488,  3.990514031798936
 0.320616661804239,  8.172142098672893, 10.199360228911523,  3.652098549629474
 7.581172574333439, 13.622763619650661, 28.464737010552874,  4.152297610902130
 2.989982420480589,  1.208890405508715, 98.632594447492522,  3.917006417341759
 7.232465148429567, 18.815844345523594, 103.481555474766111,  3.929137180357541
17.407942354169112, 15.824229303974970, 55.059467496875421,  4.090716694174415
 9.304112840751189, 15.593095859555332, 102.526619587838383,  3.966310256492839
14.343133150176584, 12.035687511787705, 63.586304087603011,  4.463700747056798
13.859484712535940,  7.860562580591551, 73.969933240800643,  3.842298660489138
12.929700386828774,  0.649539329774015, 107.536210570099769,  3.943175280554991
 2.645681305800714,  4.556024521704427, 102.049321781898229,  4.047398521438867
 8.469333813273275, 18.160234994567393, 60.343740821073212,  4.074732203119489
17.533844464009327,  8.702268050372384, 86.661075203588879,  4.049095273351699
 9.882829677259016,  3.814975218786928, 48.580098145533519,  4.150417393369994
 9.889161562852959,  9.761749519378125, 51.179312163642614,  3.844602753206900
 1.638314071272274, 18.582865648381500, 52.410235938435719,  4.352955068907480
14.750492958982370,  3.419455409569998, 26.677767201709631,  4.185267550116883
 5.700352336070487, 12.970876306192896, 112.258710628333660,  4.170986740413010
18.102490166970938,  1.861699045213755, 49.508948911746586,  3.860444028574543
 7.892918249569193,  7.743868731078384, 69.322066493888514,  3.821712921612489
17.712386966247813, 14.536053746810722, 110.162116952006954,  3.740831754597370
13.062840785901681,  0.311265103226625, 97.522518724498582,  4.014078572599643
15.259283047812710,  0.523767686137447, 23.915235265058637,  3.871982317078875
15.049953826612613, 18.703950307428634, 42.453915756988160,  4.101316070437480
 6.767521736705860,  7.604053048323779, 54.686084850440437,  3.969128646723898
16.527488219181979, 15.051828325505403,  3.681611978880007,  3.664676660882527
11.244059895860708, 14.090933737189891, 81.504019712568606,  3.981193935446948
 8.591291033847458, 13.750188748406444, 15.419158060209964,  4.313642934350777
 5.434874448242899,  8.657813313947754, 25.183948524748573,  4.076084218418718
16.072328648302147,  6.093154926937476,  4.537952581916082,  3.971683188884167
10.167860238738546,  7.211809342632741, 35.544886245305108,  4.399428158884110
11.084934625627014,  6.694920557003869, 104.575699080263576,  3.861474070263109
 7.241865594435147,  4.238448048477980, 11.382569921105560,  4.035661770193626
11.551313339234468,  8.417063016062423, 77.102537191872969,  4.012872200574484
 4.356171958895676, 15.873753234661592, 32.718429772148426,  3.763232509543514
14.095200866135645,  7.054410920139383, 94.466570757411134,  3.933008566043974
11.757978453474161,  4.721172810049260, 84.261810511767692,  4.170353196366780
 6.387166743009748,  0.018296252422276, 97.380021380162077,  3.631928841582214
17.888348942587612,  2.251905722150024, 41.074766611768403,  3.942281874871765
 5.134817424254642,  7.769406262002348, 20.950158539889614,  4.396527199534368
12.867992732628618,  1.311283585897268, 78.148731306770614,  3.887269262503791
 6.790535178573280,  5.870955421526475, 65.778136907169923,  4.137147952351265
 3.544124678196193, 11.885354802595741, 105.052592402897091,  3.933554780003810
10.005913610909902,  8.250448435178990, 101.210019088877857,  3.760726092463978
 5.769121786574043,  4.080780823564223, 37.394211017968082,  3.838652543567996
 9.023245702152360,  9.750143054091824, 32.029068567841136,  3.808290716530724
 9.083290734656522, 18.702304676222699, 100.023108523893953,  3.889339428707304
13.724055319781948, 11.501686396205473, 94.783888798686561,  3.946156628540803
18.836723885319234, 10.836753589048362, 110.136264169301100,  3.949608383347817
 5.944326898040589,  3.766469822301291, 109.711423121296889,  3.765841409076977
16.361170212456688,  0.043879987646597, 52.580713534599823,  4.033891361550084
12.074202341206574, 11.959972533080938, 12.171657800548230,  3.930841399463644
