BANDS
8 8
NANOPARTICLES
cell(1), 18.960
cell(2), 18.960
cell(3), 118.500
16.034790435490034,  4.792284676776654, 105.571434251778498,  4.077447844456989
14.643657826718323,  5.250925545738324, 33.466681758954287,  4.112149209379890
 3.570199408302432, 17.376159942243920,  8.400750622064139,  4.294691348253346
 5.216398549464229, 11.345454884246449, 67.361275024606954,  3.789957120186435
 8.021612946160733,  1.894104906659796, 97.197284474343078,  4.319481278047582
14.524201654198412,  9.656810861101809,  7.572809211995859,  4.111988258900713
16.381614621744529,  6.225784793264205,  8.560366524264435,  3.896792983530611
 7.086768793536574, 14.931267980151491, 24.879465369176820,  4.149010368012174
 0.811926258954352,  9.589297014268963, 57.208483662069163,  4.090739337406807
 7.428445163064249, 11.730121244427256, 110.053823158299593,  4.205711074631250
18.423709472914666, 13.516401030736240, 79.731128670080764,  3.791351586464365
15.500540166034801, 17.561745643321679, 35.109459934243027,  3.940262605532109
 3.667095895649001, 16.174211993033062, 70.480832619497036,  3.939867250455581
13.388264224965535,  1.966948578382014, 75.036193914483775,  3.797111511148024
10.156796966860163, 14.615224188882603, 45.556685390579375,  3.954444878368319
13.822552023958048, 12.035493806181702, 87.337799914084144,  3.985801747452448
14.699432165864085,  2.173685327343841, 16.500320461515070,  4.134006362301665
10.521396811732194,  4.625675563564071, 99.115605945176242,  4.017203221352159
 1.531600237737167,  5.809610396428316, 58.029812665896962,  3.776008595475207
12.879248683168200, 16.959573923174926, 117.258744374666051,  4.374475383306394
14.559209803883974, 15.151819308032737, 112.803271452368591,  3.568736521912868
 8.125842833476973, 17.430154937512281, 43.416180800857312,  4.159082755248517
14.096775367654621, 10.164686815533486, 70.634189560506812,  4.196922923878488
13.890959788435863, 17.750985073562767, 45.928750965165946,  4.124709312923498
10.766628731866170,  1.566973402877579, 50.151623899920942,  3.869295279686887
10.420492349565160,  9.106682760960828, 73.147292118971180,  4.254507717759298
15.465842929871105, 17.137936688244210,  8.895480296199448,  4.124672439043570
 2.547673711316957, 14.242238270995616, 24.000272717780870,  4.005417096799779
12.512202180818781, 16.180947618928524, 53.417053819750109,  3.946056729141178
11.347763442165673,  0.672910240292758, 42.131100051384259,  4.046415927518474
17.748725381675989,  1.808040217528665, 57.958224092988161,  4.087951524199871
 4.467272797919725,  8.611538062019816, 27.976204413277273,  4.130784395074619
 5.189547334228343,  5.794830880936414, 83.039268265984816,  3.819219535958602
 2.185688662617464, 10.484815686568382, 117.864054715049988,  4.160112000079415
16.582995855232525, 11.701223358842972, 15.548531480779372,  4.098077303726066
12.902825884772973, 17.536159789483658, 110.053404329382900,  4.415698055769166
18.784669136561192, 11.890224230998847,  5.274253255594570,  3.983899083251079
 6.512383543215964,  9.440447678192561,  4.522627792930906,  4.078936776850070
 2.938943380036381,  8.399503909182576, 49.320462292946928,  3.882775371604386
 6.120113739568947,  1.886713984615275, 106.098134358217479,  3.904294240965760
12.114061761293133, 13.192995466857997,  3.918324502423493,  3.995241372397710
 2.330697346743078, 14.894139204281453, 95.097030706985123,  3.932651276994358
15.474535030347708, 17.082947743954342, 69.210993833150582,  4.362003444433711
 0.116861067160846, 15.569060346384090,  7.154121996634583,  3.887877948218736
 9.566406505493386,  0.298695265056918, 107.994540279875082,  4.146090392213839
10.630679710813057, 17.105317408241294, 15.069529915988184,  4.048028414287419
11.921204049891983,  1.089336327760058,  1.347852240177333,  3.887549733874304
 6.930316269680761,  2.960462951575794,  6.044579117550333,  3.953683254635545
 4.930945810594551, 10.365173852821782, 91.351548789627216,  4.129550519318432
17.772897678974129,  9.907240633870501, 50.912385573771957,  3.833886260093793
 7.147298354778032, 11.738307601766449, 88.250681575465975,  3.962073993955597
11.933456380156670, 18.425190654966659, 98.024359669481200,  3.935183602484058
17.174451128199642,  7.567166091817339, 71.822263687674123,  4.141977631619043
11.156863582684371, 16.609681969823090, 80.463999680434497,  4.348153645451879
17.685820515031406, 18.601296924417298, 18.641182044780937,  4.110468999901279
12.217070636727938, 10.444791611131874, 94.414960375430681,  3.989666760990571
13.185363760184304,  6.663666197090534, 58.880647079080127,  3.890872088340000
18.683130196535227,  0.407087679979945, 53.625879620376018,  4.169480271457870
12.883119155635047,  5.972245112034703, 54.975229741684799,  4.059443331097959
13.847760366464914,  2.949667170327752, 57.482838751352467,  4.027715289590724
10.067621318113682, 13.656797473010176, 58.607821217580209,  3.826476803370717
 0.495863296127881, 17.688750432656040, 50.130181044187466,  3.660854216365768
 2.401533574939932,  8.786163963239764, 45.294423260439928,  4.081690545307028
 3.375380831646420,  7.369651470514859, 41.749352065509477,  3.748898688433776
 8.848309051944469, 15.473292106802631, 77.353535450771247,  3.678204821440569
 7.779895059482082,  5.064012663569381, 74.104273073823222,  3.790247761131035
 9.846405272061972,  0.583107414537185,  4.693405350565552,  4.026665195794140
 1.329742885135595, 10.343914889142393, 105.806378296236019,  4.385903556343896
14.056308876476649,  2.622556742596887, 98.929715500875318,  3.878317367933369
17.873617633760290, 16.481290774820920, 63.087044678317248,  3.964837423886571
12.180654385650369,  9.129311622314363, 77.584526222553080,  3.832782629499500
 2.030769950792694,  2.747757596405133, 116.311611118139581,  3.884727756479388
15.265466838065318, 13.064220884294155, 68.178647677339555,  3.735836340397191
 3.523238645771979,  8.371215106682302, 20.594146522595981,  3.945264544703156
10.556453107900552,  4.879245839549498, 47.413121362381290,  4.088150246461643
10.028364625788535,  4.176212773250615, 58.181693239696195,  4.040639238032066
13.115220925082095,  9.758621852208487, 14.670437421533480,  4.035904519508584
 9.729147725328426, 11.894563527454602, 76.158144684153299,  4.029343970338323
10.252266259884966,  0.894615362936104, 46.162732808555035,  4.280855760381331
 9.147836479753842, 11.217752809973836,  1.974026737963924,  4.069553547438292
10.801146031934197,  5.739325139420252, 61.973521287015316,  4.101749572554955
11.382580699042293, 18.860208550940140, 57.552208615036946,  3.810087193902425
 9.821556260112962, 14.297093420430899, 34.984976972177847,  3.659544128936561
 3.382423761594303, 18.723074225363316, 77.652841243839788,  3.923657391412569
15.281316284366893,  4.937230122649503, 95.337179397473463,  3.958194873086381
13.000302791324556, 11.605127795824430, 63.407492087505965,  4.014091184029620
16.902520664737285, 16.624532151935743, 116.508002206134748,  3.838055270228810
 3.770604305351152,  1.466166340652685,  1.197016937174977,  4.075269847721910
13.565028342254754, 12.623133304486785, 55.004667633601073,  4.003335490756584
13.796212612730701,  6.911160337566509, 99.547464602951891,  3.951933602560091
15.892075380519708,  6.462442027016214, 116.451854237700175,  3.635721440294597
18.671850395546020, 15.833551352508806,  3.265820232520437,  3.920999402305953
 0.386653526234503,  8.500558990790500, 27.259796585531486,  4.045638359698221
10.106017586110108,  4.298174688228903, 70.923569533844869,  4.158129686525543
 3.556245252979484, 13.965458027444145, 115.334315992663932,  4.160435292622922
18.786345374533127, 18.265429371550592, 94.121218729338125,  4.137100062893222
10.681647579655010,  5.914599047500343, 27.724159719840284,  3.579577272484495
13.902207210672827,  9.671776548050119, 21.830885518065685,  4.057062580810233
 5.520677629815016, 10.956659092635693, 77.113441136268747,  3.986114038981481
 9.008272952140338, 15.317742151807431, 90.963175050097917,  4.106501639535177
 6.144572094109106,  3.865372718054448, 90.341413562146187,  4.107662345247208
 4.016757664660536, 12.134716299216294, 60.114861437814739,  3.863492446241533
15.889290113094106, 15.527400621511489, 99.709973075049021,  4.005425685235820
18.576460858509094,  6.568703340904402, 67.355559136581334,  4.206065377689773
 3.665039369314075,  9.219508477440488, 62.687999609315170,  3.941050708938867
14.352129171025030,  9.749723945953574, 117.941157244766686,  4.098357058700684
15.011909463250751,  2.298262716898002,  8.630661927183144,  4.175229427482761
 2.240433560176624, 11.535129759598094, 78.629118896068590,  3.297038040431798
 7.210916688439545,  7.262173745384443, 41.507361621910661,  3.931821591050647
 0.237240155882708, 12.338990463538412, 21.361852471570600,  3.967801605302500
 4.514477833558954,  3.932210168246409, 31.475045231242330,  4.293257194697912
 8.363038977916039, 13.646623676624049, 66.621193252810372,  4.097440434538056
 2.432831021006217,  2.644536633261760, 107.134649881055282,  3.844972922399958
12.524012002530110, 16.702032563973745, 37.356044481645085,  3.710284454404243
 7.271363645372911, 12.343256079338575, 32.706900498956905,  4.050675820497114
11.901590212456425, 15.397787862871089, 67.940371082575624,  3.915527182435023
10.901449882132720, 12.693186159865618, 71.052056120654342,  3.889359639788059
14.875088179779990,  7.692979658296566, 103.200937857919243,  3.758563376223179
16.852889627087599, 10.817136981305257, 11.849117551084873,  3.500997499672660
 5.845033164802394, 10.690493343325835, 98.911731794592043,  4.020037246226382
 4.457699390360483,  1.260415214261971, 27.256548710435069,  4.231981498996969
18.159746485400863,  2.975028914873349, 21.084697587008627,  4.174793619600631
17.658822473719194,  7.628843787225807, 83.499870972949907,  4.005257319285350
17.210425656586104, 11.387584124626995, 72.738506996835810,  3.705005503591430
17.250338027490908, 14.141234361560695, 75.381085430031746,  3.924166497226803
17.161990292781166, 14.603881442569904, 95.562638698432266,  4.376481727953458
 6.868937153196203,  0.777249834671761, 88.044052460247798,  3.694318353613299
11.350685500822935,  4.180817940243839, 18.395123146344616,  4.501113537662984
18.274197278631778, 15.101885897014032, 28.518056680263673,  4.077070238452595
 3.051835717070534, 15.238239698092555, 31.638732720517986,  4.358726332421131
17.156301249123796, 13.105205278885213, 89.678038977576918,  4.402559010040365
10.164778938506158, 17.858678783377748, 88.130398305505992,  3.812933531105842
13.983113890330113,  2.018673771708612, 21.269777997478045,  4.360978085037576
11.794131885468472, 11.425276284699956, 67.329272250834791,  4.115917918541380
18.900612185238664, 13.492628638116841, 116.653652701482571,  3.591031734498869
15.030858086257416,  7.763581625109997, 80.285931530122483,  4.117789007596150
 8.215125171811474,  3.877552437132897,  9.998063594807967,  4.324727012427658
 4.763279836142901, 17.952403431105861, 46.920672311613920,  3.606468959631858
16.413945221682074, 16.549131523864226, 42.919327579384003,  4.070711249110531
 1.079897963465041, 15.243611271726499, 35.338602851596455,  3.995139530561950
 5.584951626083221, 14.857576596223334, 11.140675013292729,  4.089661995965524
11.505691407393083, 11.101784493334701, 32.450847372305383,  3.874849572652663
17.493775341409624, 12.332433253188901, 34.738960906723030,  3.826506189547204
16.973546662214787,  3.334848835557299, 85.522561381259550,  4.008021623049307
15.484662221167042,  1.540411254933737, 43.357057912903230,  4.044787352202393
 9.375641708911711,  1.309248140970026, 84.922976214778103,  4.358530701074143
17.855641623370555, 12.969452510518918, 25.095244854200281,  4.031553274337303
15.307687829157082,  1.441118355363648, 103.765750715801246,  3.663536429417329
16.863032355137641, 15.066397323127685, 54.065006862767028,  3.956770798117557
16.529817229152883,  6.139853466258715, 51.148915608644351,  4.113961204544386
 7.678843002923771,  7.713146090472785, 37.816004069851488,  3.525438958528354
 0.732616166124447, 14.649465588108050, 41.446305555034044,  4.022825083809047
 4.403867404089669,  4.746850527243176, 76.265683616814215,  4.220155870926587
16.776890639151844, 14.619442092290738, 18.424633637766100,  4.044804472213927
 1.889099475168270,  6.475858428069854, 80.788484166133998,  4.277352257901263
 2.474633946401531, 13.367794797781686, 56.562609098078894,  4.249234957222146
 6.905930875438110, 16.866126093814856, 64.312519430558055,  4.195924391483730
13.463472499386208, 17.961267333856593, 101.590786769276491,  3.817256312849934
18.552385310566024,  9.735591761666910, 80.147721749274879,  3.784503868617942
11.682527508101165,  3.630913552999245, 30.524530064972605,  3.836451441934920
13.516138608528674,  7.081538356200427, 92.467603810100243,  4.015320346109152
10.537057560868748,  7.533275527874258, 33.595757917949982,  3.858544699387819
 9.772232301464303,  7.788700030378082, 93.077468359078850,  3.701223264998065
17.999812523635114,  3.553917833475179,  5.718057571295207,  4.520603552381123
11.305682252973554, 15.306867747374090, 106.820672875158834,  4.003514121911301
 0.536719235724461, 10.811617774775691, 60.940745158540047,  3.739593785715711
14.472058646646147, 14.003778823051162, 71.766010593537686,  3.822119417543142
 8.743375519754471, 11.471638118314839, 92.356733791060549,  4.053415608667525
 3.226251221088751,  6.410406797022651, 34.561790887347748,  4.031845470320647
 6.365079404591578, 13.969199997484727, 57.585208408704752,  3.874658472672649
13.965360835789760,  9.199217674352610, 35.163062604514600,  4.342709267284208
16.927849160536919, 15.592757449775343, 38.446951793164601,  4.315055842751040
 5.507389969379471,  7.523959535001591, 52.046084214716579,  3.795402053582249
15.216682098636861, 13.133340076691105, 115.943802213040485,  3.940411687546701
 6.092694600792028,  5.792794971250894, 107.376495367066440,  4.276046263990943
 4.897409428827301,  5.317806434229338, 38.034292813632021,  3.821002425514296
 3.588285133362180,  6.382656584125622, 65.335467791069249,  3.764869184557906
 4.351019478552600, 18.110658472616652, 34.874640693746827,  4.240144981186289
 7.000181841209368, 18.351258211473240, 14.455254473928830,  3.706379639509918
 2.512356629515677,  3.357381296948412, 67.521916922304470,  3.981620485223509
 9.928843806567993,  4.435023355798765, 108.032927474182372,  3.915365076511327
 4.853507871669573,  5.003003686172809, 48.893813801429282,  3.848264229356042
 2.244134025798775, 12.902612515380595, 44.807702687775901,  4.104459463558674
 6.092371396565363, 14.302952720818405, 93.712544832105451,  4.146336834866144
 5.402325615114705, 12.651526745520874, 63.804505219680756,  3.771944950601515
 7.475346900069194, 14.780438863242415, 70.485324211747113,  4.141570123202754
13.269857108464926, 16.094371364612879, 95.080261619156957,  3.978332186217427
 5.457592657628489, 14.713373406542191, 97.876137331223049,  4.313751597053347
 6.665874076454825,  8.332008085933317, 48.372317930837418,  3.787784209674135
 3.947784057288669, 15.072486739166774, 66.639780814121920,  4.070822987820398
 2.106021564951745,  1.585553873624545, 96.547290534586651,  3.914410746757774
11.176281787470007,  8.685116276321358, 102.325493267411900,  3.978094074078516
 9.611190487366192, 15.692124814230418,  5.709570361396263,  3.922587372433010
 2.560521939878525,  2.320768752575565, 56.713701569245927,  3.916988162306306
18.029272644783457,  6.752475680758113, 77.920144472446154,  3.734524434517114
15.925222190182904,  9.273525181955431, 54.441568583738366,  4.039669199557677
 9.491494047124252, 17.627668154051314, 94.950220924731198,  4.061204260202222
 2.281536725067914, 12.712283025843726, 69.339397441214956,  3.791927368457169
 6.542600428261457, 11.024008785487760,  8.545028093644920,  3.908970670771228
 2.044646136306839, 12.177327254164855, 27.477029993101748,  3.999155236715713
17.338037118164717,  4.013058731380394, 81.395854410875529,  4.355585994350642
 0.230916688100018, 12.076888992333105, 31.124083468464594,  4.097739447942569
 0.880749913206311, 14.588942541823158, 60.184355236425432,  3.995250411063858
 5.895561441460850,  3.655095010234721, 58.517657196411633,  3.983498161505583
16.035590743718227, 16.816126620702189, 59.513596380032041,  4.091027038005095
 1.916479121832870, 16.926208341073689, 44.634983197531668,  3.972133159146460
 2.492524475591325,  7.786248427924249, 93.466996346362265,  3.996014106121165
 4.423096561605637,  4.609192639911626, 11.320534663333465,  3.775749195610005
14.721421531476203,  8.362597497724977, 66.799545313918827,  4.353611275223715
 6.696523823349648, 16.825891666838288, 106.128793836465704,  4.195497717472040
 1.238082352121323,  3.081566262012776, 78.408629660640401,  4.107994629281277
 4.928870579099982, 14.097847771869743, 35.441896856894004,  3.946569031061098
 6.039868404619788, 14.479173920402218, 45.578515237333818,  4.253738111283879
18.431119142337344, 13.873623213169003, 50.470166036375836,  4.241223045199850
12.568157203797737,  4.485398015110715, 102.691573379276207,  4.199691049888364
13.870499377723959,  9.398632565827228, 50.957163553559177,  4.006875988401482
 6.054187939749291, 10.430129696459989, 35.963890030331996,  3.794220215140160
 2.940903702151634,  8.990767190001113,  6.241789766194801,  3.883923860089395
 0.433587078151261,  0.133196438329736, 85.256362658930271,  4.024419126786945
 1.363048279988090, 14.167861729650198, 86.654441552477820,  4.117680873369906
 4.351956903200899, 16.859503695639223, 74.293911763205145,  3.919542272774727
 5.830251080725787, 16.953785799210998,  0.525132419418665,  4.101539683759641
13.751790868338411, 13.522355487383063, 35.407053620976548,  4.137519768463928
 3.800161267092493, 16.929572808166185, 84.309845474590844,  4.078994785063242
13.739699546112622, 11.431828789718494, 101.209376698920678,  3.848579404165343
 9.308048559046231,  4.171214104607172, 43.392889737934247,  4.436115338690110
 1.554316178870891,  2.256644635737700, 24.406421290579349,  4.080899866026369
11.334431161064225,  7.259434486788467, 41.342723689798795,  3.988673197545579
 7.322353979936433, 11.026905520056697, 51.629257199679735,  4.066657840422658
16.525822472972514,  4.352089702763807, 101.513900669265183,  4.016095345493437
 4.406220178300901,  2.412756763381123, 14.762450014705953,  4.280760836247727
14.933752815993849,  0.948886983881535, 89.327019660082883,  4.064875367982954
 7.614202746617639,  0.659125483722380, 111.576655015685560,  4.028334632788205
 9.616900671285688,  0.097461422984663, 11.528597753658536,  4.248372573802396
 8.674189143445146,  9.272885762834143, 22.907569685006273,  3.715738973270356
18.188108556149384, 16.265239798430724, 22.035995132096001,  4.186672017178254
17.787972799728777,  4.910922312611142, 60.630717617995778,  3.935998444341532
 4.432799961429093, 11.510112939885072, 47.728653512706231,  3.707502848159749
 6.587016476870082, 15.847337676774220, 87.267155945434425,  4.201219585271090
 8.852217611234170, 11.845134358194937, 11.912161157857595,  4.154229525467462
16.909080168344428, 11.707550721857695, 98.842889315332442,  4.053649947035447
 2.616991801713290,  8.268549517215542, 77.196525467681312,  3.874310949951357
 1.454036486109385,  2.535784997052998, 17.721557799123680,  3.962020413429287
 5.834717455255981,  1.597967703627086, 73.993767911571339,  4.051104997239884
11.149366132741845,  6.223922040677784, 112.175578182899244,  3.945417330007802
 7.562311029982490, 10.429055081411414, 58.657120769494647,  3.895058386605556
 9.141396868571258, 15.087208272017710, 51.738401393302880,  3.729018346817743
14.643935347488458,  4.343442781083837, 113.337186142529418,  4.300354947479976
 9.759969473615545,  1.847222187561253, 74.026529935045048,  3.731107075143310
 4.360777049035122, 17.731149272460502, 24.041698321710125,  3.836540725509002
16.763884878317469,  8.455802600108251, 107.396416045588666,  4.212461651099648
 7.620439487776284, 18.420994000900404,  7.914233566336936,  4.092718092042719
17.757945477520984, 17.113670181792276, 88.402028235163101,  4.084991717148884
 0.419843520001229, 18.818930551049093, 41.288871643135671,  4.069530314847872
 5.286699183086765,  1.798727833433733, 83.850499731049112,  4.134853345979676
15.167068957246709,  7.655906583487540, 75.416182404071748,  4.070748910260415
 4.996373185851049,  6.452381423897319, 101.080169622950649,  3.615537653831823
14.273115920186193,  1.722432804780396, 71.160039231728604,  4.163277215016135
 5.583451500667463,  8.189923222586671, 111.541173024890909,  3.858883101412468
 1.209459301429507,  8.637546268562076, 109.633239086880636,  3.936337721529508
 2.988096084791572,  1.933204522836865, 38.863820360771292,  4.113781473692687
 5.103713839920575,  3.908678266431588, 41.691972147369249,  3.969535701436958
13.012542753663450,  2.176338663866591, 106.795698149379845,  4.055615238914063
 8.186422823049261, 16.915610616849584, 47.996413976042930,  3.784356124185281
 4.064549199829703, 11.404758589774712, 30.709522073642940,  3.723249018475249
 2.973921393850241, 16.893493011014421, 62.844441402862856,  4.173642703624383
18.051893478694961, 10.415517199049130, 68.985566051895646,  4.078690239831610
 4.641263052000974,  3.779285282858492, 98.503349236836357,  3.835621294909215
 4.243246751373587,  3.291697411186956, 102.938129106735005,  3.869160636261109
18.154366257181049, 10.389547923672378, 86.504096573086045,  4.172639044940201
 6.465856600618677,  4.027306637688168, 68.557418446642799,  4.289170617438653
 7.155644430493882, 12.284775753877819, 114.171069458978593,  4.115512938308048
18.198287840877278,  4.923217594399168, 109.004906347492266,  3.956908472024071
 3.323646738097448, 15.979449629266046, 101.408631727789199,  3.904059144445831
15.858344709248620, 11.770754565042129, 48.101874351714208,  3.906888099605003
17.816925565636961,  2.811198017306493, 98.176414504054478,  3.723231108082391
11.218043756500611, 12.026477757802384, 52.040443842605974,  3.639671391605943
 3.213135886436560, 11.649204060479308, 111.765256833903038,  4.373519935278107
12.151796301544156,  3.354817061234654, 91.280454593149614,  4.263684477827312
 7.026162336412797,  7.872210173135564, 66.842425908240671,  4.047719109871537
16.987251789853410,  0.195719967494937, 100.714836148575330,  3.724281167967138
10.858390026547983,  2.088772246817233, 14.835923790822203,  3.802019132918099
17.776425265996966, 11.517820641155632, 38.598244356545138,  4.015042788434143
13.625071467005696, 11.375607483647766, 74.634471561155081,  4.081800194028111
17.260087340908118,  4.092344818377761, 46.054014502944824,  3.927024494084177
 4.752199515786832, 18.377273639194694, 54.804667342628349,  4.284945678509603
 8.422504314363270,  4.205189080320546, 82.489900209676719,  3.417947779708511
 0.132075231076421, 10.022664825371532,  8.863415305602301,  4.043270556320314
 4.191707915374392, 18.264155183532466, 17.438498827547630,  3.925715294506302
12.529362287462824,  2.550851691310135, 116.322495976180718,  3.795407053971057
 1.531967090549809, 18.296705428109203, 29.312904113090632,  3.842905138545565
 8.076116147963118,  7.202092287661786, 56.251790534323696,  4.084790333178198
 1.752444859057676,  6.280921864339753, 24.282959669366413,  3.813682532959338
 0.517430351032089,  3.237414719799284, 103.908709004838755,  3.748889229866668
 1.625947591808131,  1.815164921077497, 11.418720645196949,  4.024457554673741
10.301251433442674, 14.030562620769118, 87.237316658583993,  4.023004514122192
 4.639500557480573, 14.900788860017832, 41.801399510966988,  3.806529091667274
13.095736443664444,  7.640657196378166, 30.339040568249981,  4.315561733010022
16.222345535950584,  4.577201048809656, 90.744658744085086,  4.108440994187062
17.098423184412646,  4.667794462951678, 24.741724432344064,  4.147474850235708
 0.423552053993715, 18.039837921906905, 69.507921402746263,  3.651195662586859
16.307401047278418, 11.822032729370246, 111.826355388049635,  4.125594052447558
10.401963326556627, 10.007751314498535, 86.253796722111304,  4.203995077335454
13.488358721566891, 12.009493207589337, 58.862863819710419,  3.778826682083286
 7.041798855145197,  5.131767423791026, 63.715895808121957,  4.254500576393178
 1.717948707837244,  1.052803826522775, 101.031861723815524,  3.789366619900292
 8.531557141527838, 10.551121581133108, 79.573886568972512,  3.629613876545648
13.836508177480582,  9.621008826632620, 39.309712066818328,  3.966126184651056
 0.789908878442400,  4.190495931297236, 41.779544988320410,  4.420512538496588
14.072877709104926, 11.787160992229968, 25.220177990307537,  3.897075657866196
 2.526862592153551,  8.446259765614194, 84.375357641178454,  3.980000163177309
18.175585106942112, 11.976869208875934,  1.466141681481429,  3.685794319282707
12.139815373611318,  6.326616437652694, 115.925162560947626,  3.799218280465966
 3.559532546103508,  5.317410168216750, 61.391856573406955,  4.121409807750927
 6.440624895486560,  8.732204778564251, 85.495225769297917,  4.179271001696161
 2.167073963135237,  4.812170330180034, 90.738293935532411,  4.093745366476854
 7.705142590685118,  9.474027674660723, 63.111524592323434,  4.134471054817048
17.590731071816609,  5.772648455835520, 29.635164653847468,  3.950847132377326
15.027283269267162,  0.401677885515614, 12.305989129533305,  3.941803656983858
 5.996049290594200, 14.295060619915597, 49.751325060095375,  3.836952329634848
18.074692809133349,  8.601328288351862, 35.835191056429771,  4.032005972200019
11.113255197061299, 14.711055037701293, 18.676677725149631,  4.116617928358424
 5.668736421278814,  7.082450413760147, 79.342111287665858,  3.894686793150313
 3.441269355347510,  7.560286100610790, 97.542277576114316,  4.315252565151483
10.505793392952183, 17.553239424462269, 113.647628567794854,  4.187133402793046
 7.264335714250187, 13.879477432611619, 80.335881373579141,  3.635183575825097
 2.750649310973083,  0.806865116148999, 91.652008697624083,  4.084772301108521
 1.690816775813113,  9.501303406554882, 72.825075343699112,  4.052599413975256
 5.149106068641394, 18.850684874982754, 67.822613980296680,  4.106916748329572
 6.840986193296836, 13.007758950706474, 28.490827758318389,  4.039974762200086
 3.349041227906048,  7.641666282723491, 69.269093708121545,  4.450295451206068
15.504407070205261, 14.716298607837002,  1.169349765158100,  3.984002414962628
17.748528584388755,  9.874080720460272, 115.333687001884343,  4.393251546164497
 6.183865958513602,  6.921289885981119, 92.783197265566926,  3.698144035723733
13.742407327011064, 16.029479888827243, 88.374414357159310,  4.232031846303550
13.892730870949819,  2.474699718396996, 47.805768985617391,  4.135208688008540
12.082993192427230, 13.047812632452009, 118.440039980521078,  3.939702120210286
13.142487623634326,  5.542786563151298, 14.731440250475046,  4.047217385485057
11.924438970039700, 12.877060755639519, 83.776245030434623,  3.911389018418760
15.414334864850513, 13.339991456336271, 21.918439400598096,  3.876940201871788
12.971975167909751,  4.697042837560073, 24.362242318153605,  3.933540933743727
 7.653089763301350,  2.020981629727362,  1.754581153622483,  3.815968628083624
 0.181784751899570, 15.044910520319887, 15.206505041330418,  3.929826143573469
11.237513491799284,  6.019412939365924, 79.953595206925357,  4.192001943331909
 1.736190962020648,  8.142244442480827, 31.138517546726980,  4.162176501698569
12.031670140841584, 11.240850133453662, 28.552010786975053,  3.982682416643784
12.030137429843265,  2.591273041628224, 64.206526244631988,  3.966765302755120
 2.548011494374191, 15.157516769032044, 48.129876874429428,  3.894663915289678
18.721998023813860, 10.634290640435342, 76.148933158830303,  3.828831676352672
 3.321331354309359, 15.277920619957282,  4.856311976133162,  3.867802831378594
 3.401673464673945, 17.960432213350398, 115.965708950638899,  3.906104985899672
 5.918964589312357,  8.551409888620771, 32.537245129941063,  3.945912176915299
15.383942767779823, 14.343918668741567, 108.685016127192895,  4.105713034215371
 8.814678129862948,  7.100113815617637, 89.187665786783839,  4.360027285431817
11.723298290183219, 11.454675621062979, 42.696766084604747,  3.959684713806032
18.130421333725373, 17.332840811003187, 103.951351775721520,  4.044758207700633
 6.803185955059227,  8.496597228605994,  0.102659822496277,  4.008818409536801
15.266679497864310, 17.177417644584057, 15.653393623006442,  4.033253399458526
 5.945751241388311, 15.111392633779964, 61.043198278547450,  3.452649049844185
 8.283638196342928,  5.758086581357108, 30.803599245765213,  4.142826069325547
 6.870181522708651,  7.742688655507438, 10.638417650056709,  3.900949808292530
10.983794890466367,  2.170056009040204, 26.822830464414743,  4.138068110158742
15.838451914296835, 18.560379412138335, 97.001855569587306,  4.111679981492268
 2.514881003810655, 14.616566042707618,  0.738369589236543,  4.004580849454532
11.425242261994461, 13.507548900909185, 114.437898950617637,  4.213090056996741
10.116812111742471, 14.305163786878621, 30.531923206383635,  4.092811701331300
 6.678029094936333,  4.831861566062808, 86.509257626791708,  3.831771365069138
18.291941849158217, 14.849122099672345, 71.356815108010252,  4.002679243015276
 4.717334214596990,  9.605560843872301, 108.004311288668035,  3.806898755942395
 5.323175179726531, 11.302852258868828, 40.372839355453273,  4.054750830605760
 6.124084389705668, 17.784244610265731, 80.773809070373403,  4.537571616292425
17.148577129668208,  2.561945175214807, 68.378709234208529,  3.963195477293858
16.744599895774119,  8.878180903800702, 32.003308457615319,  4.031071958151072
 1.243408286679075,  7.780414551437549, 17.320023527538527,  4.084184645086605
 2.799770485598807, 17.665496288561975, 88.172293323310697,  4.003523459934310
 4.779603355718835,  9.190431093938335, 115.143153792587555,  3.780601017302159
10.288965269468823,  7.636045251987907, 16.389848787277256,  3.754311825865753
 1.619761573752539, 13.133257820647987, 63.770366738546855,  3.854497691730273
11.609941425074011,  9.470384822004910, 56.572826551643438,  4.020744334303009
14.545566547795328, 18.554266017400273, 40.017916898601719,  3.908967432137892
13.097427449291443,  9.926296809059744, 46.055127404955215,  3.878194355026707
 7.736378390640406,  2.043737047833088, 17.312481426947077,  4.137094950339764
 9.094134644401560, 17.026035978938225, 21.844415651422782,  4.215550267132253
 0.618683355890520,  1.548215473678490, 110.276497614195677,  3.733162138086263
12.655010151067120,  4.946497492806984, 51.017000149204186,  3.993869337486135
 6.908790814873321,  5.679767430648982,  3.000893970719511,  4.054478481233553
15.119400945062539, 18.424872898677052, 55.660493124610070,  4.233659061637018
15.667603568038324,  9.281361133210394, 90.014713573336920,  3.825117844136194
17.771551780985909, 13.657444801198480, 105.508150791235920,  3.958482631916563
12.929746900440266,  2.905598146477842, 86.423454547135449,  3.990222645464261
15.957482350197212, 11.281005982336868, 93.337294088971873,  3.900111307622914
14.502074327765140,  0.079341030884396, 113.801277465723004,  4.268079660283373
 0.187716620200335,  9.940124965145497, 95.982859095373684,  4.013661259451238
16.070950745018035,  4.337313224620181, 12.108477363952954,  4.159898119948036
 9.997239992717972, 17.137433832752603, 103.507473980597069,  3.999530771048502
 7.810716765700463, 13.409722262908229, 38.100784169252002,  3.827004588865119
 0.087133124090870,  0.399014397733289,  8.165753527735891,  3.701654916013000
13.617453256068632, 12.835047419086640, 97.096096335667653,  3.713373357332605
 6.668455162894707,  0.184501175565630, 102.572709471223433,  3.989573270030946
14.060854210006861, 13.703031049657259, 45.096971668942430,  4.090264433221665
 6.903491817293438, 14.772921677763717, 102.591540154919571,  3.987085784351760
 3.377529630682010, 14.421112081501072, 80.667287038818458,  4.096031063431226
15.628982947144211,  3.181098129937258, 53.844726528079285,  4.084745770128817
 8.366804568677212,  8.116051447156845, 76.619142028633831,  4.019765602751684
 8.160963594872218, 18.783569677872130, 52.535055148333626,  3.943417911178579
11.162274500679546,  6.754192576766961, 21.639249036324092,  3.783266641353898
14.166161501694054,  3.834657577776888, 61.243555686103058,  3.718557903193106
 8.238152767797482,  0.655308480186825, 91.674745086140675,  3.994326905727155
15.445603665234142, 11.338215303187155, 78.298506944561211,  4.099063129387114
 7.627693317856957,  3.168855346103368, 54.883599171800128,  4.125641498122750
 0.100372018834120, 12.632018968750105, 109.036754769308970,  3.792465425690423
17.104709241752825,  2.387383264702554, 39.151739111556282,  3.856749116511194
11.154253539477942, 17.472773821504404, 64.430046545964359,  4.321128039876137
 9.724989140546063, 11.676991162581697, 15.873834059542727,  3.954985417079299
10.591158928317096,  9.943692896652280,  8.708561732179927,  4.057407637112122
 4.801703740418465,  9.766174309313698, 16.981212986035228,  4.087461282304523
15.174621205458722,  0.256226917519569, 65.466101564055251,  4.245182889746138
 7.849917180279973,  1.968535081751254, 29.327651018284424,  3.828918011168975
 7.763405678863480, 16.939075997390677, 36.638768011916063,  3.738677350150247
 1.426998861498051, 10.708918784494541, 41.513572474231843,  3.975378053485307
 4.026398751360540, 11.085254873039839, 95.291451946052632,  4.073582230327015
14.285143281777399, 16.890261963665022, 20.576768695536849,  3.937356692588820
15.192479264360575, 15.719193306114230, 24.761944383035164,  3.435390763048837
 5.002621523043705, 15.929959787321737, 20.606711886406227,  3.969989815521136
11.084501383592951,  8.416688506798611, 64.857569516874833,  3.759831991406561
17.135352221429098, 11.411881660654812, 65.100890801656107,  4.126893060705668
15.661823878567990, 11.402638915390659, 82.574775326285305,  4.464579599976820
18.852361896076687, 11.767389406706785, 54.006395573048792,  3.690824127151239
 2.999196474789421, 12.636894224304415,  7.728353902883788,  3.961989603673369
10.238161493438961,  0.875122183960060, 38.031333587694640,  4.160996110052264
13.242527874322155,  4.616814055990880, 44.440982982619296,  3.748904813373174
15.845803591880360, 18.873532629734591,  1.512371378647680,  4.288324062549965
11.066037070194209, 18.571926479902029, 30.136974023586031,  4.198844663265181
17.062111012406234,  5.306798059352400, 17.909834580299901,  3.952202716275596
 6.266257912671049, 14.626773824566920,  7.294704802107964,  3.686290068031083
 6.858830208978860, 14.273852895871897,  3.306837108153305,  3.889556173616323
 8.349327202323082, 11.819830500999201, 47.783191572396653,  4.045390634084152
 8.627117899396547,  4.938986573378165, 117.711338366256598,  4.161909828146896
 5.277150683204434,  5.490806852196341, 17.482809070162990,  4.072762222094052
 8.104211577785920,  4.359320751218135, 77.929120677263654,  3.929001965271112
14.521176124730356,  0.055255491488430, 78.896774194157032,  4.270509171448570
12.070549010600148, 14.767058282893659, 99.989399734927161,  3.799738596506678
 2.221123201883682,  1.772233165027794, 44.650314116490513,  3.603785085039859
17.191731632886889,  2.119841783140457, 34.226505886368116,  3.984062133575949
17.605502045993202,  7.899824874083017, 99.902454591604339,  3.949679806032710
14.149543145783692,  8.522284388352961, 85.333293755605069,  4.063885979322175
15.205008693811168, 10.522942062088696,  3.583448634420206,  4.127400672271917
 4.671963074942351, 12.060337934054390, 21.441518004590385,  3.948257652370527
16.037693494425788,  4.258588808320032, 73.626617955844750,  3.710047792852751
 1.106329182596501,  5.022264291070748,  9.125136152640206,  3.922528201954958
11.894502189990213,  6.827812992575438, 96.099863124701713,  3.924350316536691
15.082465545753356, 12.428787298778566, 31.749178456617798,  3.820841833424506
 8.979100275038038,  2.161507301582014, 61.627526526346401,  3.939243717953658
 1.812792359924271, 15.830375689034483, 53.280171732048501,  4.050274196381768
16.153000048359374, 14.574125009502323, 12.618852511595755,  4.028659230301948
14.691191411625704,  8.458436007290665, 42.895122940117531,  3.759934157186455
 0.804654680156641, 17.453433627499304, 25.576666785330310,  3.919635185856590
 5.284631765588407, 18.350291302741290, 94.741323559080755,  4.330368459834528
 2.434366398567758, 13.007807475754438, 38.269191684065298,  3.837215524187114
14.519390328394016, 14.649798384114101, 103.405584885065863,  4.008543387963245
 4.349345770382170,  1.778725905864632, 64.158623671752551,  4.285533733877432
 4.057347615841334, 12.220801365297982, 101.973759747793522,  3.700348898834620
15.199305603238200, 15.585660422643020, 81.517310927992440,  4.200117838822659
 2.237531339618575,  4.781699951804636, 27.981848460603828,  4.213421639489570
11.596664701584348,  2.015727582083725, 54.118369346656031,  4.259775953921387
 0.793015782459958,  4.832339389364087, 14.263267187387118,  4.425665415435627
11.779772868304782,  9.932268925304674, 90.148997850126264,  4.060427610326742
 2.275552948025383, 10.158088135935333, 24.003084295489483,  3.994330898155607
 0.822443999688470,  5.863003483475146, 74.542672994578112,  4.034269316621639
17.356085229140003, 11.207714117723437, 44.305534653444504,  4.318768896173287
 5.098381766911040, 10.169928776529641, 55.191451054008866,  4.420706571171343
 8.115951814604957,  6.117545390232541, 103.626840997623063,  4.257250728996915
 3.236607247735001, 16.842581308922064, 38.716774156010679,  4.001649658918424
 9.861554321012333, 10.250658593411012, 116.530232738131787,  4.113626621059783
 9.667378355418506,  2.504684521713908, 104.664942796042482,  3.838431288351166
18.798282321442638,  1.986439947378085, 89.041327340396307,  3.939078359805269
 4.393008878254684,  5.637986672310424, 55.345837764520020,  4.061589102942319
 8.438415107466721, 15.863957773578200, 110.123769556249286,  4.166214664056105
 9.011777682402419, 11.990831583657323,  5.910389655525140,  3.561715272040565
15.909258058174704, 16.777060726241164, 49.250843298146471,  3.743091914119552
 4.776256395648727, 13.000271505318262, 84.751473738952768,  4.031600764939251
 5.954157778989737, 11.082960157844955, 25.102057648172849,  3.878975966641786
 3.046776262412977,  8.025092078333413, 10.493618798538453,  3.722713344279954
10.568748003441931,  8.653257757406861, 48.845335769334319,  3.970834453809463
10.637624185154724,  7.615188949080747, 12.150988003889273,  4.220456400632187
16.734793048086733,  0.563506373146478, 24.066371365068935,  3.985748180367902
 8.365609291043389,  7.820010070774402, 82.099153170098873,  3.814565160314904
11.602515830603865, 14.840545613932113, 74.248917006772103,  3.927379496470847
 9.162083194508387, 13.364620929527611, 62.532469202075802,  4.236199202156929
 0.734281036804657,  0.112903867677044, 65.709186876434728,  4.240985899496185
10.933390172129034, 15.950311141186255, 26.762954027390339,  4.158146936660958
 3.098921888995546, 18.601093573749630, 104.527277327052374,  4.216902751148643
 2.538728842025083, 11.052718751646918, 34.314853058351858,  3.932975846231221
10.051393715752543,  2.014315269845078, 22.678175833397699,  3.978965815158790
11.908662998509808, 16.726697436802528, 49.433740803606490,  4.165208924451139
13.120019925330679, 17.123674756074308,  4.266439425812261,  4.148140850148303
 9.072247353708859, 16.176836411939469, 55.589738193329090,  4.165050699801800
 7.483112691178799, 10.430937422407304, 102.637783368428870,  4.117232194213490
 9.192457526577828, 17.112284884175693, 60.518422011023880,  4.200306600591210
 7.727561294928273,  1.343778830023571, 40.904728956831512,  3.487428551426400
 9.926646753914136,  5.188992060331499, 66.567463288567552,  3.857908234196253
 7.256954291503848,  6.136141263043037, 96.481333774317690,  4.096383418036873
 5.617506261391100, 18.487774186570523,  4.325895234498486,  4.086617809649993
17.405668381174838, 15.417204655390229, 32.428428138467901,  3.863015168649224
14.562089134192302, 15.048583572458051, 64.876037142490588,  4.087626976293144
 5.463575151678189, 17.007195847398595, 90.909986500070545,  3.741712624839030
18.396974163092658,  7.875596865857029, 63.365916584772435,  4.140562378359448
 3.154025894014155, 10.663617778746348, 87.609079721050904,  3.956210022534950
 6.511879951591001,  1.960068534741072, 37.051504288405589,  3.800842757572677
 8.430656469987740, 10.679474315814357, 69.075929178075938,  3.604660445270417
 8.512384680363708, 17.025188444891249, 99.633642773795899,  4.108934526138735
18.751612814720158,  7.036780310114770, 103.601521105669519,  3.979115492824625
18.894276376021875,  6.905745067837608, 20.951003654023566,  3.813070911589422
 3.473539747299229,  2.639071357582393, 87.455242840678878,  4.094048436502258
14.098141829232043, 11.062401935190053, 105.362399238258504,  4.206384908514348
 0.142894278989685, 16.842325388368216, 56.836156392673708,  4.001977006386091
 0.425209500026359,  4.325841443768771, 54.206654342329543,  3.773767312480909
 6.380235063268975, 10.276903726051733, 44.348421274765322,  4.421513558604580
 3.974853549883274, 15.731025577959350, 27.481124053652053,  4.083153309822445
 4.947590669476867, 18.806113023110598, 30.969807353422823,  3.768472679183745
 8.768472988650844,  4.462236863965175, 39.227695910880989,  3.890268660509290
 7.507600374262136,  6.809739573571720, 60.112859650648268,  3.748105369572765
10.985359533785626,  7.883437425923204, 69.214449177588236,  3.968821639262764
16.293103393996063, 13.075018562154082, 61.425433325111889,  4.102547858836175
18.927412319578583,  4.395705041909411, 113.145437938952270,  4.224364971733204
 4.804591971207007, 18.743621423076309, 98.913127159295399,  4.102968598159404
 3.717852893066231,  1.614671805993618, 112.788107964404361,  4.208963622696406
16.563292438963831,  7.700067159584163, 14.780505348148543,  3.939510937872458
 2.310749185246992,  5.024075071341833, 46.182049400853359,  3.586519189657083
18.551660189448210, 17.491942412878874, 78.781736571508688,  4.314336618791550
 0.870064945137953,  6.519876016605896, 116.862496168595243,  4.068472468060496
12.541788933931624, 15.868513803837665, 42.126623096628975,  3.846342497241128
 6.521665233140965, 16.358626713328185, 113.741051499027080,  4.076955784561123
11.499141567100532, 17.982159044144947, 76.454344013935952,  3.725509939299569
12.744044599037879, 14.342078162512740,  7.669902081633729,  3.933247898318345
14.146678253588380,  4.647984361895447,  1.050176503403716,  4.306681327855656
18.185044363987398,  1.475379996223530, 72.153992051576793,  3.873466359052511
 5.935508009384730,  3.054583211923161, 23.941826287332315,  3.809665232552825
16.748978160720164, 18.353577443060622,  5.388202109487390,  3.697587972816250
 6.176580581923624,  0.740873375653144, 20.796720322891748,  3.912076115639368
12.779431341622928, 13.643947254580207, 91.781758218794764,  4.285635653875760
11.771464249053357,  0.931730985612461, 67.899685538399112,  4.099963452455048
 7.285059741968705,  4.660813896159716, 111.180157630758458,  4.006432720450111
 9.122440804557385, 18.817184612512055, 117.301123964992485,  3.984306979186856
 7.886036272477075, 17.067289988100121, 17.950588166225813,  3.839233017241686
16.266808089663058,  9.269457859795581, 59.339515004490899,  4.079598717101535
15.670776462432107, 14.214333927217945,  5.114372648525923,  3.769193678243951
 8.539635454148863, 14.821429190960487, 116.952985697626829,  3.873563494759821
11.278564875309364,  3.024082819098909,  7.402347675895265,  3.788903823922718
18.564446725320508,  5.637594532863758, 33.360913127014221,  3.750186566174314
 8.747566480409265,  4.169511271978076, 93.340835479708446,  3.836732101961522
11.745165316641984, 16.789567442740839, 84.636200658656094,  4.080387896212098
 3.143802496154518, 17.414255948229055, 13.496756516029771,  4.386313328568486
12.499435619057344, 18.116029750004643, 23.794550300600914,  3.804344271316348
14.178959511505028,  0.351293755662780, 51.478214328813387,  3.838310057237061
 2.908345170125127, 14.353366964036821, 105.166239567433564,  4.306582153077280
 3.271239319247575,  4.255535744853352, 21.056722862865985,  4.353197259447896
16.888390755132448,  6.707093237537651, 87.481484078900763,  3.784714357969514
17.668352028012105,  1.263575502411038, 106.859484796656375,  4.101678193602573
16.901201173321095,  1.150810664412818, 61.836098298201108,  3.951406523133005
17.281896915700099,  1.446923107429494, 76.036818459584467,  4.080153267557830
10.566927763882665, 10.096507404644393, 19.497917910775971,  4.127174596511376
16.928982738129861,  0.106027105549273, 82.022868741774957,  3.571791356774605
13.854427083966801,  9.391076335341968, 113.976956054804461,  3.909185495047371
14.888707096983048,  4.324886490870256, 77.898325367841153,  4.195762171572862
 9.366304194128320,  3.103539197352987, 114.171769712149924,  3.914223295093993
 1.933902278510305,  1.407419610770018, 60.671701818008955,  4.226243084564839
17.172788544825409, 12.760759324565475, 57.410803903405295,  4.067985320116608
13.986701155923383,  5.487999649140601, 109.205635698324912,  4.357056412316343
14.709275840192731, 17.504064352400412, 106.219230744085777,  4.012635095793351
 7.891303387975221, 18.911854643750520, 25.340906754429319,  4.023297579319823
11.833456143695273,  8.506935450887703, 25.116296875797882,  4.047856429690922
 5.795985579420076, 12.394793026797013, 118.471670696850566,  4.028369776588521
 0.609251871864247,  8.500472516559585, 89.917044079282931,  4.055871352131814
14.649258110951717,  7.962763740783823, 11.474922044277404,  3.710938846122282
 9.989352829078513, 16.325216731439134,  1.789529523496614,  3.972667241793904
 5.198643845752313,  8.165215022512534, 74.205185074285225,  3.905019949309795
 5.822784273306140, 14.504108754117780, 53.689412131499175,  4.053956057374029
11.772688835593719,  7.430003732647006, 106.112126589889016,  4.084526081922000
 8.143425303755119, 15.462491717061059, 83.592449725899883,  3.792649309767773
18.321905659186559,  0.786200830036685, 14.678387868295440,  4.134647071881505
16.655578588451732,  5.938369528951389, 56.815789847713610,  4.272110871696326
16.394264570989275, 11.050780454149510, 28.337670167245143,  3.989643901641640
 7.960106824781325,  0.465524165591460, 77.267509034626926,  3.973274979185252
 1.704232614903832,  3.780829505943308, 83.972132856439131,  4.043013603586529
 7.383514001963448, 16.341113553477154, 32.733906631739856,  3.914815130330052
16.797717292497463, 18.858895895518387, 30.700828078792977,  3.928532082415900
 0.656345470075374, 17.023746130175770, 98.348026322872158,  4.461815258449708
 5.971252712970482,  2.136441415240161, 116.226646116145545,  4.070376794028737
 1.578622726095508, 15.684568891567674, 18.770456347726196,  3.783807110848591
 4.435972954723709,  5.252491705770458, 118.323495964108901,  4.039635625353649
15.322366668127080, 18.581848747226811, 85.466466886886963,  4.087550747596801
 4.135902347668409, 13.785772626769882, 89.615733416873255,  3.675720495159610
15.682248574335084,  4.540452221651413, 64.926272087576621,  4.359963311488020
10.349831966786574,  5.952818619414439, 85.383783083091913,  4.085277508214188
18.517956175208084, 17.461763180378675, 11.399595947824025,  3.780110114620553
 2.793856638861697,  8.898252007545471, 37.958502311715442,  4.427799043968262
 8.473651467556861,  4.894166522773723, 51.098087149727135,  4.353356242471698
 4.650667925206307, 10.465744504480792, 81.419111383394551,  4.297353898000137
14.336680650984498, 18.502995178092615, 27.402915176625534,  4.328000054557440
 8.571305459216090, 12.920849695762771, 21.633955485670946,  3.999405068730562
 1.659045559940546,  8.137415526410592, 53.305671761815148,  4.394408966190439
14.619749178210007,  3.742719615623376, 27.879325855510142,  4.055170933351797
 9.400515618209337,  1.215372824420478, 80.959217153915304,  3.567378676680750
11.404939332611757,  2.454582678448064, 78.178019498744177,  3.697121587111313
 7.706979123599814, 14.638445576805237, 14.472605274003733,  3.684472523996049
11.157662712863511,  7.685542039061745,  1.066319872596702,  4.170707673153308
 1.017935164333245, 12.022370901828774, 83.100510366162354,  4.181546485990753
12.518140671022516,  3.766615083427175, 39.974040561171272,  3.843831718554608
14.366827803527375,  6.548808014168808, 47.707951826882976,  4.047863061088934
 3.684197699248776,  2.408510639565422,  8.035169052515249,  3.619452070353871
 8.011921184867115,  9.873837173957758, 95.864982109193363,  3.593889446954953
 9.067366639538479,  5.314250302697543, 24.432473531258179,  3.747526741578926
 1.280184836415138, 13.701335800618075, 11.422620034146336,  4.378578126871939
 2.148824768704554,  0.506398420127009, 81.501673503507220,  4.115548442672447
 5.550094922625960,  0.878997378798243, 11.080523991160193,  3.978451935084242
 9.536744919764208, 16.419298079188696, 39.881982315673532,  3.710373832675256
 4.267705770687756,  8.354631252876802, 58.835674799828389,  3.868588919409108
 1.843809107283421, 14.637440637454946, 76.903743664734662,  3.843791131465932
17.444428737678624,  7.560326267184784, 93.221181056812199,  4.021709683378552
12.728200018255107, 15.076299773374211, 61.221921847754757,  4.078197936829806
11.109182149984166, 10.052059730303013, 98.446446663829661,  4.180233095318830
 7.333321965521800,  7.415655907332934, 70.886412046944884,  4.106249124760403
 8.860032228659964,  6.613359107622840,  6.666114897708506,  4.391353065316196
 3.261904662212824,  4.144986612872917,  4.457489613855149,  4.359274854086137
11.731729704387655, 13.211205628354591, 39.022677299935417,  4.151998320561352
16.393025087576355, 13.100125877362508,  8.828109523549667,  4.114029933379996
11.795020457299172, 13.464506331651066, 110.347472524937203,  3.997079890822445
 8.682910334466454, 17.315418119981764, 67.742313301542339,  3.578038603387208
11.489633833527337,  9.328463534411139,  4.814785148597802,  4.024823645751671
 7.487137593290122,  8.940095271948197, 14.232552730075527,  3.756581318546598
 4.671974050141273,  7.266319595453252, 88.834263988112269,  3.869873545098369
18.724396733275153,  6.121472356731506, 96.643867061681803,  3.776716350349226
13.102251796625429, 12.152983292814438, 11.227991755621675,  4.239223660387247
 1.440605068001611,  5.040745893181017, 100.522320888594876,  3.973321935866956
13.429560452762804, 15.926738629197269, 32.159106562621787,  3.956003323756265
13.041660099186828, 13.830260307791391, 15.117827593174734,  4.073899075651716
10.945453755315020,  3.675203529881442, 34.433468458216353,  4.069603023877794
11.862485193667480,  2.674829348110415, 95.468242234852980,  4.232563377387907
17.349900272299180, 10.731458469017293, 102.777730223345145,  4.081282740347807
12.896191252998870,  1.180681754970853, 82.572777452374680,  4.074840839813798
18.772136602928441,  3.408266723365968, 93.793515926515823,  4.089075306296394
13.817000676801131,  7.746291571502464, 18.163259951430419,  4.121580273533041
 0.711493304541989, 18.093597734790343,  0.258406267176858,  3.841001278482701
10.374984261550059,  1.247249221713650, 101.105368959039581,  3.818637749005179
 4.049646856089772, 13.596952203848568, 14.973922658482934,  3.970735272398668
 0.606265096121225,  2.676403854786919, 31.092315668345485,  3.944465085232599
 4.620001965886346, 14.614537631531539, 109.018504670874151,  4.105281131829230
 0.119691571294492, 18.793564963776795, 36.900797177191237,  3.989846753393796
18.360468571039487,  7.509499204413463, 47.771734097963005,  3.993663705659487
 9.850513233688799,  8.018535082358172, 44.962462742379856,  3.936084806117842
15.243999645855094,  7.527373332692157, 26.843135716807087,  3.844575532752154
 0.711753600183377, 11.114099616412078, 47.903248364049929,  3.658571528048789
 1.150116505874817, 11.691485639520870, 92.414505446701170,  4.115375403095037
11.326260160018235, 18.869178738600144, 18.751169067074848,  4.061482083176686
11.786905792618695, 12.526211169746199, 79.793569385080133,  3.988410080358294
 2.137207068880752,  2.581150949953700, 34.727333065693536,  3.927349338308098
11.684130920375335,  2.485883180772658, 111.000076502891019,  3.961291822021402
16.855524531861832, 17.331866048395405, 111.047471924279961,  3.640601996030023
 0.711296104070857, 16.641586437635308, 108.207432363788769,  4.466534560590580
 6.589519396674169, 13.538243484553995, 74.260678035051583,  3.973198792005054
17.867203174655387,  0.069811598092782, 46.398403789504968,  4.171242819178475
 2.332965249874360,  7.769155697709864,  2.469939116751203,  4.093797820853637
 1.355042675197081,  5.064125012916542, 50.543259894381443,  3.846782436076600
 6.686567290302415, 13.264393987783272, 18.045799711736528,  4.134891286657437
 0.750857018857495,  3.858202160126833, 63.957742544349820,  4.025873773374865
 7.212995534322689,  5.368892193486569, 34.790747285459794,  4.139999717503419
12.632433115248503, 16.263789152314814, 11.693940661006121,  3.974267101250791
 8.352418093525499,  1.607696251303427, 65.640482528881336,  4.160583617471635
 0.417281214660907, 17.355313231907605, 74.366799484709588,  4.011247864000915
11.891403370137709, 14.400035591125469, 23.165693457390827,  3.781603966099263
11.507661579992583,  5.552629493620720, 75.634467299877954,  4.304485294314443
 1.744596795169704,  7.949966788093370, 113.361268500482879,  3.680911687554231
13.932147463919208, 11.932473595102470, 18.445424033539894,  3.759671165052143
10.028537323631994, 10.578220770883407, 36.137568514591919,  4.135467283092097
 2.095209100793223,  6.406840661012725, 106.666602788500896,  3.688173717223771
 5.300667016767067, 15.524597122323394, 77.592344005399752,  3.424673187476885
 4.983586504996473,  3.065484114363422, 79.992985464038696,  3.971546039606506
15.214121437805947,  5.953240180499273, 21.446244410487427,  3.840330896842535
12.465751968764971,  6.433602961055433,  8.731743271538621,  3.877409228844924
15.342378108553950,  5.872126987071741, 37.642249488687057,  4.374480486780988
 1.601647309641872,  5.978003724864439, 87.108369989653454,  3.591418273432398
 5.604115169931651,  7.054352750054206, 23.813964974611160,  4.052929363140820
 7.414112742447589,  3.451320872238909, 100.884561452404881,  3.500491500557170
 7.577168655573391, 16.931100468591481, 28.831559516887939,  3.932045983462003
 5.258388213049964, 10.951251820843584, 71.304323944056605,  4.128574878452403
18.190690847296846,  7.841876471438736,  5.423494395902451,  3.985837276657494
 9.377220026175221, 15.202166547646890,  9.636289265954534,  4.004780382050548
 1.315226398025586, 11.900398730123431, 17.473997450546783,  4.141233378789526
15.725851336195561,  5.052208191349179, 41.627838889397601,  3.795709315440844
 3.139485105945675,  5.098115322843394, 110.394417166657973,  4.266622543838478
 4.447897187975807, 18.848959873011967, 42.129907025555298,  4.091720013860878
 0.172847163955713, 16.019176319058403, 82.662320134130880,  4.034712756609343
 8.220894380918699, 11.573065050461437, 83.204119239661310,  3.911700272785832
15.228590976599916,  1.403006306369551, 93.370568748373131,  4.082695209478332
 1.532205478459944,  0.234893333550698,  4.523169456357392,  4.108181634672056
17.994605878529409,  7.850702609361465, 40.162729656714895,  3.939452175255164
18.107137238731958,  1.882287543163090, 27.558606429274242,  3.864741129857516
 7.605759691482370,  0.313940032645317, 57.575460499526152,  3.721011490055051
 4.492828461569801, 18.776476918611440, 109.117943671326131,  4.090624654624157
13.929397570670677, 15.095966485829615, 77.511224432974970,  4.101945491945216
 7.590851494314977,  4.458654130449452, 20.662616135267662,  4.041572212126748
 7.190934987970050,  8.136363878876216, 19.572263811749536,  3.665963090590496
 1.241526601086623, 10.013683797328925, 13.715881771056429,  4.261759112812528
 8.330446907862544, 17.151952506813206, 73.877354541448838,  4.063976842559336
 8.188885054814552,  8.326979968439549, 26.521143772214153,  3.762004797603174
 8.277585484859074,  7.682881701085081, 99.943698241833019,  3.741197819473443
18.339385294635193,  7.397214099338630, 11.498771934079587,  3.515820977290393
13.058109431395840, 15.535544304108651, 57.406124649819262,  3.605924220542242
13.385570327990722,  4.717034793660393, 68.464521951032282,  4.078192645985160
 2.622219558969875, 16.541590865501696, 112.134975146089729,  4.226432636923873
 3.304064508236922, 11.638687980753998,  3.305987384190164,  4.016039788921750
 8.072849030688634,  7.281974372913272, 114.421795999891273,  3.960941137528847
 6.075998135039526,  2.085941060087740, 45.139134557225134,  4.000528174514119
12.938368084886923,  6.383329937411146, 88.547756743861385,  4.028590016413418
 9.865193200019821, 11.957720866445952, 25.330025524161858,  3.882830328911393
13.964379233728447,  1.994561421906686, 36.659711348278009,  4.077220451111137
10.253742807948043, 10.094596297004792, 112.509079380707263,  3.963041574228596
 8.305726669644311, 13.504606659196314, 42.167976199431209,  4.071056368760609
 4.452217960347164,  4.916566527032077, 72.234468218337994,  3.836332745315336
10.950995487195733,  9.554008745137660, 60.560730325668722,  4.039482095598806
12.121338951762279, 12.817259233139499, 48.462155682526905,  3.870800100335466
18.648972196105827, 14.984694544298236, 66.935142802694742,  4.421910085680454
10.412376782370943, 11.353704860053368, 107.227308454218658,  4.026187351992409
 0.646627918473412,  5.137578046946648, 37.544422318976594,  4.241963001504692
11.515713435082821, 17.582342951058884, 71.296717755741156,  4.118038894357133
 8.016882803435758,  0.756005917336671, 70.660367727221896,  4.079454080805474
 2.618988788781639, 13.433980673760255, 73.213932480761272,  4.052066472308551
18.195094883840017, 14.890914074686320, 113.396054556327755,  3.621838702352342
11.648602234846651, 18.177338264030350,  8.028775583431498,  3.895399767832721
 0.801217070078720, 18.354244406173699, 33.072080845162176,  3.720566358665997
 1.198470533647517, 15.619248560344861, 91.343192744935962,  4.010015156889716
17.324005531761479,  9.025557549766901, 23.834751420778524,  3.977703557304496
 7.617231413396992,  1.571064665935713, 33.280046948206000,  4.049184919883252
11.876768127871530,  9.343312011971825, 82.145803327842174,  3.821717935840525
 0.156710327773604,  3.671812289808956,  1.404602952385949,  4.384231103251175
 5.803449204434256,  0.169890553721048, 60.814910783976771,  3.684437926724780
 4.621579547300469,  8.190143982913305, 104.399663258397183,  3.912008754236846
15.587047373518661,  1.822495980182750, 110.261154981497825,  3.858493822718574
13.664248810749335,  1.182939954350136, 32.785430583239410,  3.853805138882934
15.197647524210261, 17.448621167675800, 73.851918299263346,  4.357800280840892
 4.141460995004948,  7.203572157524798, 14.069048955265320,  3.779877243200088
 8.808721789132459, 12.967015924117341, 99.816742080522260,  3.636985508168516
18.922272665448766, 14.150433860726464, 101.699336795107442,  3.744037797325680
18.057482020774721,  7.252556935958553, 43.944187691337390,  3.686332935668108
 4.239039404704928,  2.788872530998634, 52.242987729172853,  4.202254100135177
 8.896380560433391, 12.102261450114698, 55.202654906775635,  4.007443587866509
16.389340516451973, 14.587907378449348, 85.408896371600179,  4.176089305211269
 0.803911874362872,  4.711348113923140, 70.768258304697483,  3.837493944195030
15.161076957019642, 13.057540332413311, 41.245702569926564,  4.021968191519028
 7.757857881675681,  9.008981838083033, 106.104547990885536,  3.390377474991713
16.501578881151708,  2.505397581473686, 116.691147630926366,  4.183684319318272
13.318272449068891,  6.441792570669048, 72.051822830451172,  3.883327823872132
13.353802089145805,  9.719990763611262, 109.644611458092868,  4.225289573248127
 3.100991795958213,  1.395672396811711, 70.997417020018332,  4.026211568244037
 4.911683870680930, 10.952484249066753, 12.148234859211401,  3.922102774156815
18.782565997701258,  0.199020264219679, 113.971454743038947,  4.256984959452907
 4.910411057233900,  5.986011386346233,  7.762361576958717,  3.893404179915522
 9.135885511685851, 10.283884800445840, 40.011280628216561,  3.832821884173271
14.517421145438409, 13.595420577374897, 51.354740946726032,  3.787332039515400
14.381134165644635,  6.364457910001408,  4.992540504404733,  4.222666529848289
10.736212469801442,  4.414324392047556,  3.551896433825405,  4.075889984030502
17.134355525164150,  9.862030431893961, 19.080544303147015,  3.928719151857224
12.055641958359956, 18.070221420370530, 91.675085541456951,  4.220832496754699
 2.188203333688977,  0.055261068976613, 20.919680623565270,  4.184777983867781
12.139004923095854,  3.421968257402860, 11.376891758032277,  4.031707961300762
17.876587380037979, 14.842587173161254, 46.422658912625174,  4.147326625452337
14.282664587982419,  7.814223892267749, 62.617000284458619,  4.104322433981557
13.684566658600136,  5.126860131831322, 83.154458600835937,  4.049370983551025
 3.169786330223698, 11.923574498266495, 51.616727786558783,  4.421135528177904
 2.169166403820774,  9.040084919383800, 101.201570081793591,  3.854885135100595
17.286887341283588,  7.529855166806629,  1.445224626985728,  4.139307452701178
 6.295428179701712,  5.003709903964055, 27.316401144629673,  4.016729589533492
 1.956938437200243, 12.471529865875203, 98.628560632064122,  4.113184379449261
 6.674705489673088, 12.631179422008469, 106.038817363199215,  4.142062663094974
 3.785022176284204, 16.798793063333022, 58.516838754894863,  4.002835969004859
 2.012441800541326,  1.914981823067771, 74.726598792428888,  3.744554789434657
16.775884161914984,  7.679234514431803, 111.646183974079733,  4.174994902877565
15.888292050434263, 16.429534720006046, 91.931957895128193,  3.998799072732365
 8.708449694626040,  9.737317125302704, 30.047062916634378,  3.894955041749229
 8.899650363118193,  7.970872581149377, 109.444186675657065,  3.937812142341106
14.048939062932760,  2.193298069070959,  4.579956726422725,  4.138358506608864
15.293480046487714,  8.878137335397357, 96.423776388572080,  3.986789852597050
 5.794858271243915,  6.093513221854263, 45.041584256604864,  4.020418241965133
 6.826516663443812,  1.525100614313322, 49.102797131588339,  4.112707218830510
13.063839602582885,  0.148728469073664, 61.106025958639407,  3.973858737811538
 4.287745078592732, 17.694580098470301, 50.690309942354304,  3.998931080372049
14.285363951299503, 14.510424917452994, 28.561711211906925,  3.945011689225091
11.294038061806532,  6.831219611621115, 37.374472569446120,  3.953976414134902
10.661056681530871, 18.030518160206150, 34.233676034439718,  4.031631979459704
10.182157512534719,  8.356476940918947, 52.898524308888476,  4.159124210912824
 2.497879184593550,  1.760572719227761, 48.553137501183343,  4.190157706671259
 4.557777801259594,  5.395558197238678, 114.281097012689060,  4.012517031329430
10.695325673970254, 13.039170214033934, 103.379121421959383,  4.284923707124960
 1.838383307828405,  9.957015619330846, 66.105742236513649,  3.922760554302732
 4.811085197114317,  3.590981971701119, 94.338146987296042,  4.086993672051690
 9.516781047086001,  3.273930100318184, 88.369091393264299,  3.571800537881625
 7.936111202908825,  4.919571442685278, 14.192700842078191,  4.334696220789057
17.465472429060885,  2.224794992097852, 49.994874705987471,  4.248296085555527
 9.765698519683871, 13.500707885878892, 95.938252279472621,  4.409938276374554
