BANDS
8 8
NANOPARTICLES
cell(1), 18.961
cell(2), 18.961
cell(3), 118.504
14.840108290031342,  1.459530709600718, 51.883089910770096,  4.284159877929741
 8.989878819593683, 10.398026479911989, 23.317268170930578,  3.982371721541063
 8.662428255595586,  3.148187986612550, 21.661694060941930,  4.087539415012367
 1.972570484487741, 17.031485936689556, 47.658562851155231,  3.848854727258885
14.174040928415151, 12.168492990683690, 76.997313561006735,  3.793092530204254
13.884603501050684,  6.255407076044699, 82.104571948690079,  4.008649028967702
12.646095677709912, 15.943714218002819,  8.111419077330435,  4.047345742188432
 0.608651968888866, 16.616364467444768, 76.384552654419565,  3.844798932734063
18.531339308464855,  3.099814334727995, 15.926288074310959,  3.805588588534662
14.893037766156047, 15.038353840723149, 48.823327082797569,  3.678816654761366
 2.151034035938008,  7.484576678347312, 33.169078612666098,  3.975814910836147
 6.645165027550886, 18.724284935329376, 15.476580793133346,  4.089193484227984
18.369806897297742,  8.067998085079887, 115.802625737254374,  4.171278433588951
 7.476328874217048, 17.321492628702039, 11.048028350233221,  3.887161503867591
 2.705252464992363,  4.067201532867974, 97.782597018695725,  4.055839321768407
13.199423620623309, 12.290539664470586,  9.948117131184970,  4.023804990716709
 3.838824694003617, 17.776957256641140, 18.157222953900764,  3.889580488421883
10.947765472360702, 11.876750671783748, 63.926039161623855,  3.914279643607046
 5.750768420018858,  4.682603022819491,  4.722106780264183,  3.909938244065648
11.084039368727465, 15.592683376827672, 48.882262615878233,  3.977876837382261
11.647970143709596,  6.952607033624892,  9.706959300775761,  3.666614503595254
 3.492098703510535,  1.120643915799224, 108.216077740918138,  3.925816260285016
 0.250913612108717,  1.134243754078279, 111.244953221685677,  4.000841888147910
17.889807595818915,  7.246593682712687, 109.181912410929442,  4.336665054130980
13.548182324036741, 18.685348751005673, 26.162308665669205,  3.961209271225832
10.650231555615843, 12.533341190745990, 28.988394052656790,  3.732801210833764
13.565690476991431,  4.476204364107808, 113.199159353231721,  4.112146981100727
 4.717211680649825,  5.847939673445448, 39.018501017369893,  4.114742381125243
15.107020595052353, 13.909431913704038, 109.995166978865043,  3.953878915337912
 6.789087302799923, 14.251585038319126, 91.137382157264256,  4.082798388844733
12.765505053790211,  2.483817985850832, 116.829099714525157,  3.909188795180613
 5.953917279243119, 14.196273553241108, 76.507823722432605,  4.164988358503995
 1.389352148893288, 17.128471606037543, 114.028277360594387,  4.198953693649886
 2.104923013146728,  4.652145413506599, 45.390490160257549,  3.962132726799830
 0.676155296446023,  3.571768295906017, 80.575531586947960,  4.194159663900455
 0.428264592426741,  5.011646525732887, 61.150935820374990,  3.792082935787527
 8.948038499548545,  1.121448266734375, 56.982239492219549,  3.940526115451861
 9.638510348688442, 12.570463747498373, 103.843101347823037,  4.026526505993062
 5.361216831739839, 15.059069467768948,  8.682991605681545,  3.859551809699730
11.823657868386485, 10.526726370108126, 42.233259400678634,  3.964528260415958
15.092728033245049, 11.823117910118651, 90.145307165364073,  3.735046644142687
 2.597604237802724, 18.654029458591442, 85.675888864508508,  3.830031683002139
14.816999737939701,  0.253939504482894, 22.339786759119157,  4.086185882299705
11.152469634537375,  7.052673277747139, 30.517157224326876,  3.586366816792582
15.093954270597603, 14.481646337923461, 36.731583341143661,  3.635564719325037
11.972103353512002, 16.869250870409438, 56.784795091929617,  4.226875827697165
 9.282999440315136,  3.857140653803285, 10.991208250732244,  4.210526174590520
 1.742097907336090,  5.055902014849896, 88.079435289536804,  4.089520086306980
 7.227289487846595,  7.435979916372413, 21.070332900769017,  4.220174722672316
16.987503633779003,  1.307600431846415, 40.195011834744179,  4.120122409384820
15.963616393498295,  1.377015560365779, 113.567695452820374,  3.755933766747781
12.653363208531179, 17.151447722508312, 15.845298511877790,  4.012967279664686
18.033775724147283,  8.533542223581504, 80.688622098108411,  3.930414871948710
14.548543356383744,  8.045569089456073, 32.077639441857080,  4.113383078266087
 4.173879264418549,  5.431341280763712, 13.715637839457429,  4.258214038147211
 0.170684391324556, 14.813129107205659, 65.988432407989649,  3.863534446713117
 7.071705449585544, 17.000018737828572, 98.961648287232578,  3.879418486315405
15.179125928182421,  8.136281646919294, 41.994391361276818,  4.274619925513994
13.768336289036036,  6.710321282995763, 18.362028357749395,  3.988442762499702
 9.956481772294554, 17.128048151048574,  3.269497498928453,  3.793731862105715
 7.522758156888020,  9.615007695674805, 105.956052389656335,  3.971888610514129
12.821645036287121,  4.436166923959170, 88.813811396050738,  4.055296972914753
 4.875915433000004,  3.252728348325477, 28.537125577271414,  3.849886262876585
15.560951337076336,  5.558355561568264, 10.566307869681518,  4.111553658420672
11.398115516028916,  9.950704148977337, 118.145940385504943,  4.275626200300464
 7.815966100005848,  1.499423987862318, 82.290173444968516,  3.815400457007638
16.575895811899379, 16.565796195252766, 70.068780923661393,  3.973130183549093
 5.238550958404073, 10.326864913719882, 33.253995315343403,  3.798002645364884
15.230026741879650,  4.305560017524313, 99.244717234725698,  4.026688120780771
15.447527415265156,  0.365730572028623, 57.906271819338791,  3.877547042577155
 2.586655027564367, 14.901387129459600, 50.991355746762920,  3.935358730561146
15.281618516290205, 10.059052742442798, 83.352685581353256,  4.222453265702232
14.691227278155033,  0.338487259262033, 10.000412196807547,  3.887582508758735
 6.275222088317787,  3.863471490693253, 114.812430826031829,  4.049971602615080
10.325287434188752, 14.670811447633096, 117.540988697856207,  3.553746905222073
 3.232005558019862, 17.123542281918162, 117.833710265783068,  4.094124345964427
12.131616830092828, 13.342898345661865, 96.345028722400244,  3.592281426261341
10.343862306661935,  6.062941819654544, 73.681369071850980,  4.209624356812901
15.004434816397582, 13.245971935418813, 86.052622999018865,  4.084167974197537
 7.999534158774048, 10.183483655970523, 30.521614106407014,  3.975538056153779
 1.419192642082520, 12.804116751293730, 41.002398913792796,  3.844306292932127
 7.473647247049249,  7.980174812862360,  0.986758501908505,  3.864210641680362
 9.931472191728318,  6.996120742060740, 51.833666836516450,  3.865043013206859
 4.910389324050281, 13.215479347256563, 30.515094811558750,  3.795336794707777
 1.223689063296058,  1.551006040814898, 104.407270640264187,  4.148102749281805
 1.608011449566296,  9.145362464080700, 97.949153422768816,  4.042796998542838
 5.446838524177243,  1.551910667521499, 104.599630926177554,  4.294251464178588
 5.526929556828948, 17.662675786340372, 61.816496715431903,  4.097230566407635
17.646840431974880,  2.936925464204430, 36.331329532198090,  4.322477061347723
 3.382314322470441,  4.158723178759833, 101.892999267966303,  4.276370760454903
17.857612611547385,  6.957680581287915, 44.982199005019602,  3.886503659214794
 7.190815950583229,  7.032547453092305, 92.245641246378383,  4.328927454093527
 7.318731593148522,  8.214441160395154,  4.983879688783143,  3.794043677785842
 4.846056859219454,  7.700606367877503, 46.623079918417204,  3.904082578250880
 4.875052855630152, 18.089825723564839, 27.231264845445118,  3.615467680040940
 8.175535460997628,  9.157801362053497, 43.150084411381862,  3.892887975453577
14.681683963557179,  3.676980738502604, 92.531123785624501,  4.320219142826070
12.210444618827049, 16.708153023026544, 90.569834350981637,  3.657294795396847
 5.808491317080617, 16.769622191816872, 51.580046243885391,  3.548295338572057
11.256175578212815,  5.379515631034038, 48.328828501440810,  4.129718411905341
 1.680810390330248, 10.979818849569359, 50.307982294742772,  4.157764302545423
18.150480090662715,  8.695651653851121, 30.266994792488084,  4.042547575796920
16.762528233944696, 14.776100827953037, 96.972824095183185,  3.763721286010889
 6.441089850033680, 15.844221692968091, 24.414076519646834,  4.234942373905897
17.196098005795562, 11.120049667167416, 59.129764045090951,  3.911217058125906
 8.890510599305683,  4.157935122604147, 27.440020741262163,  3.804436979433518
 7.303737764908163,  4.329708865173766, 107.086511752959254,  4.026804270266389
 7.482846940616994, 11.443445495446886, 117.859269004837969,  3.779639425261927
 8.041810438902713,  7.602121004132045, 33.605476946526188,  3.961126948885396
15.183844967254450,  3.354048672194120, 48.272323760881072,  3.881687698199920
 0.884774672382542, 18.724138220486090, 12.726795130001090,  3.446341839586100
 7.418602030720344, 10.247504017986751, 36.453203739027103,  3.889612444464162
16.495297649743268, 14.682599685219852,  9.074082174788188,  4.222835382155472
14.302293344274236, 12.511745436363858,  6.013621656289629,  4.151732966061713
 6.576898907514036,  8.351998406743533, 82.498109502299130,  3.739724111123215
13.794159276644644, 18.628816332662115, 80.463660571623819,  4.005212979022445
13.023259947248489, 11.091217849684705, 58.463420137647901,  3.968257559517347
 2.068553228623520,  7.865537867205203, 102.714963011762123,  3.755065043889494
 3.357351731986965,  1.308980393340617, 54.902429117347168,  3.793057183785335
 5.172281212572702, 15.576963193652631, 113.818315836971905,  3.913609027297114
 0.076871244254876, 17.519899404149324, 108.012546828098422,  4.183965291672668
 8.481199721499998, 12.012073105106783, 14.292912949542062,  3.771400134160547
16.182239609837119,  2.504634716174492, 19.112922548036426,  4.139421139453063
16.068479324306189, 12.235656487812243, 41.173521120318455,  4.253852402672864
12.863167831381563, 12.614312070011627, 106.743980526683330,  4.297026233794618
12.026748798998096,  0.291877215081851, 103.821292162775038,  4.200312395508948
 3.034311810214355,  9.835523744009818, 30.087064868646742,  3.962721314904313
 4.060961294902891, 17.902063378744618, 35.238852739627006,  4.210846420382675
 8.690773680888922,  5.261165178448204, 81.526638801377402,  3.983604298691588
 4.974341911578902, 14.128678882860841, 54.287238580750973,  4.102093175658514
 8.178755427004360,  4.109661968942098, 54.443527415821883,  3.999357801535405
 4.494548496168400,  5.887183803092252, 60.970426682608398,  3.801124189914761
 3.386688871717415, 16.669084753834760, 14.466374728290278,  3.844519139552829
11.269447705678745,  8.716067672625075, 45.704269967816892,  3.937434183372333
 0.435569100464593,  8.717596332416196,  1.248475940174525,  4.062401236403836
12.312985629287841, 13.841349580170743, 32.335996140596848,  4.175516161668008
18.171993480036814,  9.558352482132484, 11.040542001150055,  4.003777723242987
10.194602367454475,  7.525383591531142, 87.802067666417358,  4.300242502884085
17.528325994369954, 14.636472306895078,  5.191891135958445,  3.689503887164599
12.658823540155542, 16.599974941182161, 86.553148964805786,  4.069108517578548
 4.682424642748738,  4.188340813188239, 21.889703522851647,  4.052586474913737
17.937542935445691, 11.981733849868361, 37.058427129711163,  3.814098785024261
11.462804797335350,  6.401196424681372, 14.524024708055364,  4.300484715712306
18.947697162175793, 14.602485137182255, 111.032823861243713,  4.119142122058149
15.935589578484809, 13.561879311413623, 45.083296857409849,  3.958623843128883
17.905300523023094,  1.171613328084087, 91.162782836676286,  4.290877007457493
 5.242956580446287, 11.924035997706209, 23.310964714649110,  4.091737632423099
 5.306049955701956, 12.806908219420007, 104.582687733581253,  4.235662956317064
10.110172103032626, 10.095088827496864, 11.310495206605069,  3.978455077982646
 5.004128288578188,  0.730601664649752, 96.592855729686420,  4.386150511201904
 3.753092341400636,  7.071249232970501, 84.976861625240034,  4.117817773733053
 7.886220560333733, 15.425755186687025, 28.745536981546099,  4.184456273895895
17.659817485398690,  4.572402795486197, 112.356969456100998,  3.862900446338534
10.301656850320896,  0.250502798357572, 87.887630974292804,  3.415044188075835
18.292065899243212, 11.584096821623257, 17.883130451457532,  4.097639504695645
18.622843737678433,  6.215419537185239, 105.230923376972427,  3.949059692059789
 1.334396191932099,  5.988671963766126, 36.655186044739409,  3.718857252660186
 2.481926168418867,  5.117436630378642, 17.409710615003601,  3.865707204159439
 4.995491123684418,  3.393805557317524, 86.160208263297932,  3.997135609398179
 1.971536177709942, 17.166555812458572, 68.737484444675005,  4.196482408814375
12.003476155282444,  1.259328561702724, 59.294552163255737,  3.718623374448383
12.845125184209220, 10.461620361365215, 87.572302185718030,  3.586537772925410
 7.651428628541608, 10.224044575843717, 85.831266405991414,  4.091415337173872
 9.899735357541253,  0.196667492438997, 79.012489595388757,  4.330001293587742
 7.490948722984217,  0.639865284135005, 64.838493063450258,  4.073633964468696
14.956035281496591,  4.868392426019038, 106.172621453041486,  4.081273835324737
15.715971751829636, 18.782497398333774, 117.143083498836987,  4.047462423316118
17.137354234370715, 11.073017019708125,  3.513731240071204,  3.875968216632769
16.775144354642265,  1.431862320760364, 69.518650705043541,  3.765694081073849
 9.166503768657366, 15.822269255866145, 14.263825629663581,  3.971169705261304
 9.156399471377567, 18.237221086961707, 118.099787536692759,  4.023366500922049
12.732807800254523,  3.059240432474897, 16.793889097858578,  4.164969430889376
18.423899486219668, 15.937580186647924, 117.335798759130938,  3.811144059756464
 5.944514125490092, 11.106536485400392,  2.828179994265913,  3.793343771047511
13.468978206418173,  9.692625914913386,  3.205807136310038,  3.964674090690372
11.589968792934430,  1.149635559010648, 29.519864489038099,  4.291677249633717
 6.745275258784211,  0.865811365671663, 44.321532651019282,  3.787446633533521
17.775206945840697,  6.549708349091225, 17.943438610535992,  4.034467107668334
 1.328187873869357, 16.276724344716079,  2.913715117273312,  4.149724656085095
 5.643111057998185,  9.576083677242988, 15.072203668209216,  3.868826097264405
11.476141060184453,  1.466412367961309, 91.136272795498726,  3.908155266349201
15.001208757878775,  9.818083509355505, 45.677473808855758,  3.824014871204989
12.556083199731846, 16.751236377854500, 11.955127434985489,  3.795236406342792
 5.563554105164554,  5.045545665466774,  9.894263960823990,  3.862107623521365
10.928736682493421,  5.722417381734526, 106.079845516051023,  3.980737631661719
 2.559776197815136,  2.704510463545581, 34.942499757144439,  3.902337265197539
14.719963402507867, 10.313181569207631, 19.853289826195706,  4.024355225587196
11.643407245276348,  2.066200050151402, 107.486864138237209,  3.953310550070688
17.327754432099102,  4.764858021436685, 28.134799319013403,  3.965402461724624
18.875470910075368,  5.763448590224968, 100.226150958420476,  4.021622361855855
 4.047018708667576,  7.509259661162875,  7.106041213771350,  4.118282136995536
16.610704364084768, 17.861627887397763, 35.483792993221286,  4.164019765841969
12.293870854513099,  0.588950189966540,  5.679847926771395,  4.244898728367719
16.800754999429319,  9.649849053434592, 87.276292670244956,  4.221357465181306
10.057181285318014, 15.486882983109457, 39.075785320428956,  4.211633627066364
 6.996858989672786,  7.881317224072403, 54.266635879604813,  3.913035122972676
 8.635740091689488,  5.864756218427743, 45.314958673525751,  3.856474421952086
 3.421349203844639, 10.625625105826542, 44.005312205025305,  4.429425687355564
 5.698961705670500,  3.383225340297084, 110.714225711766488,  4.119443473037114
14.383736795671824,  7.754652753602647, 56.705971133855037,  4.049378530281461
13.441887857980786, 18.213115404400465, 76.582634978119998,  3.831663850883742
 8.919933871890011,  4.641046005264041, 64.378424328904813,  3.776264841491702
12.281249058343604, 15.522111316744759, 64.171345124341769,  3.850454814247821
12.957847427602022,  6.658789198543994, 76.811094820205000,  3.983199370287420
17.415953574854303, 11.337843103115517, 27.376512116242321,  3.926184202642688
17.344479217088217,  5.951324349115758, 39.173525507174801,  3.959648832093370
16.678473892449933, 14.226574777530875, 106.383549034154200,  3.877410225582309
15.721274419490831, 11.262506900916554, 49.300101843933618,  4.090410243967402
 4.171016872798878, 17.734040778737345, 75.217181360839433,  3.953690823204819
 4.834490803877632, 12.481101562860996, 87.750790156400768,  4.075150223466644
 6.085387423793676, 18.838581021407670, 21.395770667868259,  4.229298424540482
 0.063688358787944,  1.487383409953424, 115.552149296968196,  3.540302067995066
 8.340387162291583, 15.042428660162976, 56.934852282955319,  3.876918219340094
 0.215802239269136, 18.159842491664993, 16.375964782164797,  4.053101554479874
 6.030424678974994,  2.860894236728361, 78.291756990024567,  4.397151835384813
18.637682679998584,  7.094514354289164, 66.420920235357201,  3.883401751172488
 1.702837887751270, 10.410192050533352, 94.084133208795066,  3.763478895667572
15.221478306564888,  3.620694058355898, 74.973186413205568,  4.412020845985172
 8.524625763361820,  2.279236915515602, 85.772366466359514,  3.416906917513938
 9.020054637369164,  7.078050018110893, 100.338704886466658,  3.842809226692429
 1.440067072797064,  7.848514988203335, 52.771424774400664,  3.823396999921170
 6.031354900814905, 17.920764289896390,  2.311396963169568,  4.236709670070097
14.167012245649005, 15.714760619679780, 99.751874262322247,  4.031236044436334
 4.178776259833734,  9.469175155413437, 26.338316081499539,  3.905598121868826
14.021472051818384,  6.466700145039100,  1.117869821046749,  3.789481143554937
 3.409836437945775,  2.081859777158299,  2.885457731341420,  3.989041858038787
10.541869842084500, 13.691508987808225,  5.443201893012579,  3.777409562643968
 5.132143940397377,  4.760949432716867, 32.612047005537249,  4.164057658374774
 6.800688805129011, 11.839969375082815, 69.046016197552916,  4.102174419573601
 5.330143869733378,  2.478384005339606, 18.288989729406950,  4.011687125098260
13.961425554787072, 14.246862420211652, 116.585586009833179,  3.995355505622787
16.041808865922846,  7.278854154671057, 48.498806764937875,  4.030091824179006
13.155901683155816, 10.083942343160228, 16.083537655190721,  4.137350882396619
12.349911880774222,  9.082766446629812, 49.507828079780559,  3.932849570414073
10.095251392883355, 17.482118819752060, 22.204222443868140,  4.249084000742855
14.611796402533370,  5.516472250267005, 35.197580049457848,  3.904896911293861
18.481047631249591,  1.290507885526417, 53.934193155014874,  4.074697862062195
 4.800276086455399,  4.201869933392955, 82.164308531697088,  4.151065814809169
 9.507190761734106,  2.794526696011340, 67.727759116354576,  3.959424713334525
14.048157679417177,  4.390389444902250, 30.357110983442997,  3.984450301877038
 6.761101079410975, 18.614228200357303, 111.872138431716422,  3.953917241866389
 1.128737978282383, 18.672585207565053, 58.362282490139691,  4.353933546344297
18.787535873384705,  2.925768362327174, 76.764854649400846,  3.669681102474668
16.317071615116046, 15.652004683716521, 73.987365681796163,  4.075106678443484
17.770160035510433,  4.968335456709632, 32.366180127475253,  4.541321328650191
18.425607785290378, 17.521305931706301, 21.884775631099330,  3.937634252250988
 7.306816020598516,  1.078455753545674, 33.742597601544716,  3.933135612776702
 9.144768964488943, 13.641142529894552, 20.983831167662984,  3.995784516016854
 2.295674130493880, 13.546830298990979, 77.675578108962597,  3.615503975791828
10.239794362790615,  8.100304989219232, 63.473946886609788,  3.750938960317832
15.345125518900268, 18.608550133636705, 84.418431643825869,  3.660220753562206
13.381301353665865,  2.983092012708817, 40.928715420389523,  3.855454461782686
 6.440824343674965,  4.673089273590312, 57.927367812771571,  3.813285500611537
12.187676035981282, 13.234682858157845,  1.908047388319019,  3.849326073868782
 9.467103419116512, 17.575213298426906, 45.794837655532469,  3.863402113678238
16.499560953730263, 16.841171991370814, 12.729124432885669,  4.220427919621086
16.403206104088859,  4.344426972651671, 116.298635477002449,  4.296024408265795
16.348933164146167,  5.407391295854853, 78.720307094531137,  4.187511820253804
12.569851396345202, 16.227275894136575, 70.359972546761384,  4.078859789903370
 0.433489210455132,  1.723060643546415, 100.218340060121960,  4.072889939897006
13.941476226684394, 15.603691640183085, 103.864140890141883,  4.034494533878440
 6.715672538063370,  0.959374074435022, 88.746033551013795,  3.882609916297460
18.809722152305596, 18.076847996369732,  9.234056632022227,  3.950478877899138
 3.779794272310336, 18.181787088388127,  6.073823703391031,  4.524195229184929
17.627132107158477, 14.720101379783749, 24.958735297177029,  4.128044890863254
 2.083305886219177,  9.318085859539897, 88.254652539717156,  4.352200739572782
18.934135769635571, 13.273307363628618, 71.091991671344573,  4.360310442468224
14.299896977772075,  7.224472869359026, 22.358931641785915,  3.925365592251564
17.956162881651167,  3.568716374000986, 96.047678614407573,  3.936239973519347
14.588947579480930, 11.673536103594609, 62.136342105514721,  4.092745960604366
18.235045773404810, 16.820815882506004, 86.202325442980964,  3.829961405349329
13.040272646497606, 10.383575771928935, 93.151564583449598,  3.987123208460927
 3.107137607504415,  1.683442569919227, 15.060019621923917,  3.985612338088849
18.599074567159455,  6.217259593301142, 74.214875578401148,  4.216312662292434
13.178964798403211,  1.417138047617993, 68.163718395326541,  3.917093313741273
 9.271466901247940,  5.398845664567214, 77.566436129477964,  3.943817555513384
10.890444286294306,  8.864870839253165, 83.455970921409673,  4.371653611978205
14.099870943598052,  7.999713726011879, 63.867902708250703,  3.974578291131804
12.609793821573760,  0.238644610385497, 112.085436281317214,  3.893549056746214
 1.924692385442256,  8.450568601679043, 15.467339578342214,  3.925305300984129
15.878250723640608, 15.695520469709839, 89.351957505679906,  4.315272366190990
 0.071122258832573,  5.981038197041674, 12.824765887813092,  4.170173508585505
 4.246437732458299,  3.197592616918159, 42.094133536166609,  3.971342428582980
14.279335283232967, 14.386880267835874, 93.167833271865220,  4.347129228124578
15.811915886181835,  7.365042039910398, 93.704437192163837,  3.741561707350401
 2.181072885952917,  9.404803152538271, 106.507328321205549,  4.330775967420752
 5.210165278507197, 11.633673516153680, 108.638331874857556,  4.162139426691065
 7.821521218846205, 13.779896178273999, 96.614509276835165,  4.206322475847192
 8.122298989232961,  6.855120800421372, 60.517939736299695,  3.687898755864129
10.310546697181914,  8.899419077971409, 79.222083059251091,  4.067387358525159
17.513038691328422,  8.397300184444443, 35.106498482016207,  4.242857653897790
 5.183890980508031,  0.910438420425266, 58.376684280044820,  4.090978008907020
 2.659456713742387,  1.125383609579147, 89.342998256876214,  3.982420956911854
 3.890320173325122,  8.724165201161100, 36.411422134073376,  3.779041735932216
 2.999401924783317, 14.835638503666869, 85.038691031705682,  3.917980780396707
 9.104889762533640, 14.939525214857825, 52.372219622387476,  3.863558657044376
 3.504312185391252, 11.277286428443043, 71.661624492127359,  3.662452641120814
 3.403319729010834,  2.288610819517848, 117.307429115396744,  4.171659946107214
11.099697140534651,  4.708815444101722, 84.666843203910034,  4.000616092610261
 1.180666286100340,  7.357369843344070, 48.304271466320358,  4.175291069820316
 2.163753470868585,  2.890172370490792, 11.318037694960331,  3.801250472743076
17.486236041726269,  6.291196676693072, 84.050209775369751,  4.124081874982272
 5.907447998722796, 16.636234998164710, 31.955325308786968,  3.719186138732572
 3.752691327798516,  7.569845782200138, 56.842562471568741,  4.219254114446907
17.853212892808443,  9.317802623476634, 63.255425243825016,  4.004243203367676
 4.098515106468648,  0.102264433191369, 82.048676810938247,  4.048211238069469
 8.323769018365187, 15.496136614962031, 64.171563445968800,  4.034212138620022
 7.744192315920485,  9.959732608142589, 98.041384661667536,  3.942301410462980
10.162512168292867, 13.034351003795276, 35.819562232214686,  3.914747923693672
 9.214130843753781,  3.021820392683214, 94.027116572236508,  4.057159757330354
10.213655582730649,  8.527248106580618, 56.781804029570374,  4.339543137483616
 2.502832361148185, 12.233077471336060,  4.575340641519336,  4.243305565320935
17.860259351357556, 12.837173377337805, 76.295050421308872,  3.808291675439496
 9.849545310347533,  9.619414192772066, 67.179931910868447,  4.287698042496030
 6.834372583482843,  1.437054715075622,  8.377131649994880,  4.303528019122628
10.395572881065204, 17.591789119506931, 67.073344577894332,  4.210879341372366
 9.647599487462195, 18.550499376290524, 53.571965305683712,  3.660431115061324
 5.833613452003535, 11.871689032597507, 114.480202383175893,  3.689758605729993
13.217795045951613,  6.083813985098615, 96.286454152045138,  3.942198180924315
10.640803438333965, 12.239442943308907, 99.836126435299548,  4.196786112741072
 6.224455622117428, 14.338591859030785, 16.512946555847080,  3.994149811248723
16.966744505662970, 10.504578660052506, 104.881934054285324,  4.117703177832489
 9.921240173587043, 17.132642495795029, 31.891674196039137,  3.994524326947919
 9.570308578380605,  1.421315644596225, 114.658576228068981,  4.075325269179663
13.973781743915573, 17.072435321888239, 96.115143717405189,  3.645445094327224
18.718494006382493,  9.737585437930353, 42.630542969658634,  3.590829534823633
12.913120537545664,  7.530993922470502, 99.977617065245084,  3.972414892198712
 1.229177382355912, 11.351932560408477, 33.862877571838652,  4.087230626882502
 7.573379076282162,  6.080285236682920, 85.216350448488370,  3.600146866617230
 4.411530963534448, 11.891220960661490, 97.654115340207966,  3.793144787595335
18.433203493499107, 16.698573667854152, 99.862175245254633,  3.928795265577221
16.157118453818999, 15.827883787978495, 78.079968046867549,  3.922532508613414
 9.316000796765069,  5.430075312450731,  3.236615298197282,  3.858831487845464
 2.455476369882221,  0.560286066216202, 78.368086263454060,  4.059547462251639
 4.149728673646091, 14.921820500400178, 64.783975584044740,  4.436020303782952
11.230431505761265,  0.294105336809900, 63.264700932931596,  4.028770764199389
 8.624306715689038,  6.315490635886043, 110.285470236508672,  3.950157891858724
 8.971606905774840,  4.665265309359521,  7.026132487797981,  3.884748330738149
11.299191645792773,  2.590193463960478, 71.495407684941824,  4.076870028503810
 8.330295541916767, 11.978027446051536, 81.505324477554183,  4.524377726332372
18.855894238391851, 10.654872815421601, 46.333491192124761,  3.917616939687330
10.676842375374223, 16.442682247767788, 97.749185002916576,  3.807811370920515
 8.761633555635516, 18.640986429313319, 49.859694819387293,  3.926773020250167
15.932197193044930, 17.360148477764156, 18.737288837997855,  4.083345483465190
 3.576210771290727,  8.390731845960449, 18.852735466777528,  3.596683516004220
18.339499237502043, 13.740567720548462, 83.717713616300330,  4.082722885187504
 8.726607166610430, 17.780353552165174, 91.181609933836810,  3.705112430402831
16.074728334635637,  1.119515371180168, 29.242506645085523,  3.981096158708230
 1.607245135062370, 16.786267236099118, 62.045172233206273,  3.905973396149061
14.969782390373160,  7.539269655252498, 67.691265543576833,  3.911661277021167
16.689897931901722,  5.552107886238979, 87.996927981994276,  3.989245929240727
 1.719471392485908, 12.058844128300764, 81.021539303371455,  3.795657736666219
 8.928928841024376,  4.070814112501250, 89.682083001940867,  3.902758358427996
12.931399259261536, 15.404271501320183, 112.904843953643919,  3.897773149068397
 3.234383541296262, 13.339595658486230, 61.094993927368883,  3.790005278792397
15.498101571796047,  5.366098892737147, 14.824414916875039,  4.027813487006580
12.714411868521250, 12.334711203148446, 38.781510884949569,  3.972577098543205
13.011992296083749, 16.638705155433051, 52.642662858090745,  4.249656253272022
 2.751512944960235,  3.958159115904219, 58.167050769814857,  3.714755648927026
 8.188499477426308,  0.137957682539220, 70.443720534670106,  4.069470721798343
 0.860974542591636,  5.157564552525781, 118.231497236728629,  3.694486711704286
 1.401549565725916,  1.774987102584412, 19.319580337272210,  4.117209962769079
 3.110774634760763,  7.227039136460265, 91.683214977938249,  3.907028550694221
12.677072716055980,  3.598776773367265, 20.945670085890871,  4.066572918885861
 3.041806453750871, 12.052974045294730, 16.528636174324834,  3.826113660821368
14.343175145624167, 16.956329013492073, 66.982942532324074,  3.681523918066307
 4.439285371081617, 11.315452242891020, 83.689515461726145,  3.928288732313914
 5.322005521009423, 14.842885370536598, 20.417361690277779,  4.079546631163879
14.676421684792590,  3.245241908763245, 85.497007661512228,  3.903890911943123
 3.279739614177610,  5.646823985190852, 67.373839177353290,  4.058376949982155
 0.933589047144165,  3.555300262435170, 64.776900316400727,  4.085111531135987
 3.971727096544764,  7.678456128661286,  2.854658451274543,  3.963337301700630
13.523137536593657, 10.724950913230321, 66.401770490095359,  3.531861457943328
 1.018016493715351,  8.658911920816205,  5.019108200759128,  3.539936973303654
 0.388215551743630, 14.573613858957525, 58.577445250418570,  3.971558455213398
12.489684246681495,  6.458625248550583,  5.676622785324244,  4.394508609319620
 4.252857516988042,  4.947398494968420, 53.335266528991092,  4.327379248962114
15.259725954964550, 14.523663656022164, 58.028192846881133,  4.220914164949432
13.942342253770398,  1.584200315636792, 44.782966429600663,  4.306161493005286
 7.493106926040915, 14.037809734231571, 111.045734139573042,  3.899285953971425
 9.587192655737180, 10.501569497358959, 60.439093272420166,  4.044721832440464
17.524150239015245, 18.871406223029165, 25.639532112227688,  4.060236041406642
 0.700663354740157,  5.045931299179393, 55.230621921355450,  3.715193891821872
16.126936939694478, 12.646851253193349, 12.816964633334127,  4.199790321096185
 0.920292961714171,  9.107270354630982, 38.996253107379438,  4.116723731157164
 0.173681268880517, 14.352619795391526, 15.042998464964914,  4.010969483155625
 0.548226446574969, 10.194535737279400, 73.843448220095453,  3.965617597209905
12.170312261186240, 13.264396969857343, 13.707949115901107,  3.996208869826757
 0.954494480476601, 18.744988402925831, 37.822804983211775,  3.981645790842788
17.986463906810300, 11.049872683425704, 66.945617733942569,  4.143781703754633
18.904338539421559,  1.623602242769808, 48.001372705127125,  4.332517832756813
15.631482211228246,  7.956155126829641, 26.608756338009428,  3.872757165358911
17.954783149531441, 15.426596194516231, 39.195690352557214,  4.133508389331814
11.175485398529414,  8.714641347050092, 20.523296882935398,  3.861814167136236
14.523544216247254,  0.689103823869129, 88.606949869395379,  4.150699363150082
17.135882723969338, 15.061794172309838, 32.743639857242151,  3.739649106263196
16.137306996590429, 17.623207568620394, 110.853986051356742,  3.911966644343051
15.247997240799412, 12.956732489640977, 69.214104802763913,  3.899649014027150
 2.393039460276111, 15.148095483441297, 23.278630332240276,  4.074597280519325
 1.390427244576126, 15.366535873783493, 11.491452289532731,  3.742681481554041
 4.541922093654260, 13.726974616246501, 94.359124785773218,  3.750741834107190
17.422378456754139, 12.444408542317204, 116.110191863831062,  3.856940020550172
 0.133828516347442,  0.691146109034757,  0.815617271132239,  4.136787431513710
18.387569101556320,  0.148909158790471, 66.272447286668239,  3.882388089369808
12.587156537825511,  4.784160966232757, 65.913477449847377,  4.175758119664637
13.252471959740399, 16.477658181702083, 45.641052345206795,  4.017042392582720
18.809368267171539,  0.487920102561528, 83.066911252316174,  3.904834566323327
10.747162239200069, 12.954096674581539, 71.862593817379590,  3.980299633356027
18.506267352783539,  5.341815203294269, 91.637316901329825,  4.153947713924969
14.113109396000182, 17.608543600759745, 31.868778073278683,  4.226793124041244
16.888725852710209,  3.976372618568130,  1.864811374656471,  3.933112522133119
 5.039366850552524,  4.178386704831930, 90.176210055654280,  3.911568793362589
 2.283258044625232, 11.738136725534554, 12.649177524385960,  4.060354202839399
 7.097821136390190, 10.056501961036485, 102.008594382765594,  3.992974445288964
 8.378398797514201,  7.718066986511960, 39.430995144133533,  4.069027795823668
15.196327640100106,  3.212551733895317, 25.105656816651958,  4.037104854125810
 8.699086077164969, 11.699471465588809, 40.074824945974370,  3.979966697535131
 2.704264544442490,  0.778288662805575, 44.880077078620396,  3.916117921423162
 1.543762505735272,  2.299555465957650, 68.820716673207443,  4.013790712377804
 7.898510411145470,  7.959212997836477,  8.846393275862480,  3.889912629823913
 7.461124539874391,  0.510545720356597, 29.713999311961608,  4.045116505069946
15.811556031498496,  4.477592199423028, 62.803325064326955,  4.112252062707895
17.150453769897602,  2.306285270126255, 12.366722584845641,  3.935772458958765
 8.893727274858792,  0.596429619094029, 101.228143713431876,  3.832171594225791
15.153292516855368,  2.550425980250246, 109.731974606923060,  4.416874640388238
11.057122343347416, 10.048615574467906,  7.362136171041332,  4.039012487984295
 0.841548955234908, 14.677229340286724, 44.484348094009292,  4.094927420915356
11.562474926056051,  0.708169920212528, 83.919007876752659,  4.190631862199522
 2.812942647797092, 12.276743549804294, 37.421318620619573,  3.906635932085330
 7.714549932647855,  4.753293309491188, 41.829793841625794,  3.627714925380226
 0.667097053995707, 12.996247922936359, 98.952964356126884,  4.039345604975209
 4.576409370580603,  6.580905701870119, 117.242765596236268,  3.975500382891035
13.434667996180844, 15.967744441627676,  4.269808582652987,  3.780855861841297
 9.080383396546441, 16.663322880362607, 18.248636019978999,  3.933868720551566
 3.408767423086829, 11.410458974596159,  8.626163450337733,  4.078572585729745
 6.847688832562437, 11.309292906320302, 46.259112016556912,  3.806727630335434
 9.055100885188269,  3.931643890862712, 31.457333866121761,  4.151203947417029
12.626289100714526,  3.455095085381625, 79.374580155652069,  4.193015561883247
 8.829691487535253, 15.677431987770778, 87.850838429744854,  4.115354058678734
 2.978397018824342,  8.326640267947214, 81.190847402701820,  3.906529428586396
 6.326014077034920, 17.808570367285313, 55.143198728574106,  3.834944894902948
 3.309164176979657,  4.769153243085207, 106.305712881062050,  4.145933400932905
16.399395477283790, 16.951909010482147, 54.938513694092073,  3.958032499050524
18.052170535803331,  9.447056377903692, 91.244101944939999,  4.087053098587133
12.385290627115642, 18.950205531491907, 19.277222671415114,  3.742532894361385
 5.719096887670101,  4.557347713226813, 95.181313774224165,  3.893029377054976
 8.355482344721391, 13.930174006655163,  2.054429299768230,  3.699183846312196
15.057596527152951,  8.918687486477191,  8.149056009004939,  4.185846876351920
 5.331406947742509,  7.902515118157731, 70.707863065336937,  3.954931633052123
 2.350789637819587, 13.356529113738807, 115.698572901216934,  4.173025468960723
 0.640596537198724, 12.756977582024929,  0.895449950355122,  4.057060887212025
10.841517490381182, 12.993832788344520, 85.125335218634618,  4.443689436085918
13.583624457750419,  8.598419427777323, 105.883132062453356,  3.846650405946320
 8.416787546686377,  1.653588612760905,  4.434798192294816,  4.109658830972788
 3.339624105133783,  0.189563908567574, 65.183941523650631,  4.211346304353087
 9.379057376024658,  8.151944671716977, 27.278992911971006,  4.116517392831800
12.726388464908160, 15.172525732129417, 19.919879249159671,  3.928974025908471
 5.113937578444196, 10.662106167940378, 91.997835289206165,  4.015056809422919
15.732847784932275,  9.759451603942781, 118.429615906096259,  3.997520374835350
 3.708800246775418, 13.508783653308706, 26.781759312059801,  4.066262804259087
 6.366763972143990,  6.297044148596289, 25.042773408967829,  4.214844741085238
14.510769849139148, 18.644094012771031, 92.701018153977898,  3.646770541008699
15.780258119034377,  4.314241886436172, 54.891110211336837,  4.210451727730039
 3.490556080232469,  1.473684772335217, 113.372312318808611,  3.736261393487216
 3.363388009151307, 11.219770134274711, 101.329647899722104,  3.938787369093538
 3.271635534572245,  4.647478622701414, 71.506062415656857,  3.903023554484370
13.748207177139227,  7.456626728193696, 115.889114628203643,  3.919777842743081
 4.067108340607371, 10.963742473444633, 75.383986385703224,  3.641883638521878
 2.059256551397793, 13.992419553843199, 107.632806930134379,  3.936573640794329
 9.890876615839023, 12.022174203955091, 114.617539052450297,  4.366509482795456
14.821107025186748, 11.602731160702820, 98.822525800582895,  4.457389489461236
 3.305936749230771, 15.802406360528307, 39.165285133021357,  3.998985375356710
 6.382842276947978, 13.794003923292870, 37.629757578560231,  3.856699173393557
 4.361774463465580, 15.769633428174146, 58.082129589898180,  4.254643443681512
10.125875149895251,  4.057785267513482, 38.816349666284658,  4.135016711653401
13.928774110217775,  5.489063803453029, 51.396580769595637,  3.985378853744049
17.708321005280787,  6.060144410045663, 23.919312510645401,  3.899738566251816
11.685170259175869,  9.640791361388953, 96.892843270175987,  3.883496557564979
17.861595179662501,  2.792267569541896,  8.576989312250534,  3.724740671451576
 3.523359778962512, 16.669883160056084, 110.326672965914881,  4.095117426196632
 5.526048834184984,  2.299795096209601, 68.017827356726414,  4.072394124322102
 2.052239267723522, 16.474808884997923, 31.995361428902395,  3.889314214561739
11.196317537680022, 10.021574903647851, 32.734554944754095,  3.771915384579965
12.435733434684739, 12.673744239000705, 51.370977473667232,  4.136364007349370
10.644025517236242,  0.194729023968053,  9.528737788406815,  4.030433358357076
 7.296278435106256,  6.299298372305886, 67.560622070053853,  4.073262366972768
 2.881978257825780, 11.539257465650289, 57.664915669937983,  3.987493258118451
10.369447725624884,  2.865516187468203, 43.519548325400535,  3.690083787699278
 7.503427329106446,  9.147368311694102, 75.319686321868119,  4.105309980616639
 7.316271780064846,  3.001963269690459,  0.500920322606392,  4.475955787553910
 4.709204252813262, 14.865052750392511, 70.632308304110595,  3.897237742886768
11.411641140450250, 13.005896247246248, 55.331994491160906,  4.047895003448059
 6.210088015700109, 15.479703890581233, 107.599238739377896,  3.919013203632283
 1.236898430714702, 12.547953866472650, 104.195157040249413,  3.647452757037680
 3.485767718163946, 13.309905725857226, 47.370086055303538,  4.160514877765784
 9.166063199108430, 16.244087670671917, 114.181456305143939,  4.189127946935135
10.741548145065224,  5.069597507723289, 34.946927765007864,  3.892621306073696
15.620798610602646, 18.708980447809658, 101.979778796092418,  3.945234047804793
16.488479972601436,  7.186932177454503,  4.307370269710691,  4.159651951844493
10.831905309002538, 18.065259916033110, 73.421409623555149,  3.795864744662043
16.460469907230046,  8.560133690494778, 52.401984295448372,  4.169213503976031
11.248380216022708, 13.551947584570591, 67.563162367460322,  4.085518555815050
 2.780661379370776, 14.252712330910425, 73.988101061954438,  3.933694399627935
 5.264043881421283,  0.303883855166819, 47.959230786724191,  4.128635015079552
14.325958378741378,  7.326938161411375, 73.034870572737304,  4.142573145543045
18.693207684113851,  2.240717064060281, 72.881360012225414,  4.141110927557833
10.459011550946288,  5.773267856394729, 117.730226618796607,  4.281975653245322
13.743184126379722, 16.944422896661614, 107.704213067600918,  4.106668612667972
 9.217019987570971, 13.185221320150109, 43.784861628770571,  3.994300767494302
 2.828392124531694,  9.604736772023127, 114.473997634940616,  3.773027920098988
 2.529148888726910,  7.292981188799639, 63.864038196640450,  3.737283788166025
 2.340673564724530, 11.135286364601479, 64.259078937600094,  3.959376891841806
10.256389420481401,  6.326596913849991, 23.630879001086047,  4.002317984941881
 9.687778436907575,  2.580858735363017, 110.847884777149432,  3.886409105425727
 2.558368349898768,  0.373529330556874, 24.063825089888528,  4.444454998724622
18.137310012839524,  9.813937004901030, 101.063302754814842,  3.955867706789484
 0.211652797190913, 13.199268610429607, 87.808689121018986,  4.298464287388074
 9.530548211767861, 12.444700067515464, 77.433056000488975,  4.000456074626473
 3.741090727034963, 10.438196872388298, 118.186067184866815,  3.982860479818070
 6.093650814534540, 18.837917201619945, 115.670013214161855,  3.757583765668938
11.267612313110035,  2.628827391896606, 24.635311641666330,  3.883956786784116
 2.195293260359846,  5.214318088699802, 110.498775682343663,  3.766278175744736
16.583241103639317, 15.517774446480601, 114.046640680158191,  3.729131862006548
18.410268843268558, 13.287298923377540, 62.345305766075043,  4.161806101435603
 1.188061443069705,  6.334884392566168, 41.908625857857871,  3.878592320415891
14.376421243412686, 11.193371308765705, 34.782859534076508,  4.131718825394040
17.527044959172645,  0.353904839353577, 79.260756060946349,  3.913007659085799
 1.256720627329047, 16.676480332006381, 27.967743552448102,  4.284993619494965
 7.441076800218553, 11.766384639490891, 26.816635660748755,  4.130784621073953
15.640333300260991,  0.667449473101793, 15.528104140983451,  3.770785364492158
15.872952193121352,  7.875289519977458, 112.763049972751517,  3.681485067132480
 0.854325195075225, 15.230847687131371, 35.570159377573624,  4.019617655553828
 6.014821347868240, 17.631987449135735, 78.763496493600655,  4.025633236395842
10.353906540259551,  4.621178482679348, 58.296730570285582,  4.006881383151387
17.827482846319992,  1.111825404711064, 61.589433296921825,  3.971237208015784
 5.920232171698534,  2.060220913806307, 12.280679698602931,  3.787267634874308
 9.339916949114295, 12.135277024701198, 48.976452653310488,  3.746853382234205
12.468690564212070, 11.980081175230474, 81.326182111696610,  3.628292244086543
 3.268285675118658, 17.102492168896365, 105.496987455574228,  3.979378418643991
11.224215711711517,  1.406537002762717, 33.713524719024043,  3.871954808030908
 3.318732089503889,  7.988337044708435, 22.705422435640710,  4.120317262325508
15.458182645034480, 13.726516450089525, 65.414230344128399,  3.825258327014109
 4.142950044901663,  0.520527900638268, 71.510501906497339,  4.230983595202490
11.388685329160316,  6.381191333578773, 92.628558700504044,  4.199379378397806
13.482533588685195, 11.225498761350641, 102.872751658635408,  3.992027807503085
12.015289995583503, 16.688847457597763, 35.482589023605797,  4.301326728920603
16.346783317556255,  9.198803104396735, 76.065343709817455,  3.768549481965774
 6.459241505675451,  2.037019519232379, 25.016375985387860,  4.231842930160883
 8.069319709067448,  2.437565757190507, 61.060515405941921,  4.359918851394317
 5.055817749428294,  7.003953541905261, 112.520747994448698,  4.074355572099014
14.320639428498033,  4.307848474667853, 58.798456044998645,  4.001431335706648
16.483319151786326,  4.393848964282402, 42.565127014291527,  3.671321793618133
 6.733675371048068,  3.860551749026680, 99.151253397377928,  4.392098541063769
18.489105094968679, 10.784596500257001, 112.627844116036201,  4.138229860223127
 0.835969770876790, 18.869777545435618, 96.524974453294519,  4.071782834013900
 2.374360414986690,  4.608065117557653, 25.466056573473445,  4.466745467236665
11.887124019829937,  4.018228711489503, 61.962963214106637,  3.937052700168147
12.370047940354020, 17.942102225353462, 115.582575369025832,  3.520195419648995
14.974179542576186, 13.826743734633105, 16.733722812028901,  4.233903558169404
13.062134029747000,  9.685039721994512, 28.823678425056528,  3.731040496796087
16.776005658686298, 16.605709501127706, 81.724362466775929,  3.555382192191091
16.214368650007305, 15.454961516307090, 28.883272159900304,  4.227271763382116
 8.497723247813186, 15.297345797083212, 69.710001588330840,  3.695998331473520
 1.093434415424537,  5.124091643303663,  3.872014130712757,  3.873795350103243
 6.719311911723183, 16.817329877790193, 94.223604416402225,  3.814086204370419
 4.773273847520323, 18.461708708869757, 41.510145242712120,  3.583486175391217
11.313154507917723,  8.913262730922089, 36.633533676160184,  4.326348435586064
 6.311901433425102, 11.056236849577681, 19.277405155599201,  4.056915415986054
18.124714882090672, 13.326088407257616, 91.705103948346064,  3.709791280272115
 7.907492748143131,  0.268180970347874, 107.928264873005105,  4.327835826711893
16.953751227618525, 13.576892011398849, 101.983283797306825,  4.124773690394992
16.198490139262269,  0.842567397716546, 105.887606479286859,  4.241335121283489
 6.659222392442944, 15.150671402868928, 117.410279769774604,  3.840898614805145
 4.927967904129956, 11.241912165529707, 79.050738790886655,  3.856443169976452
 6.438809778785172,  7.536151359039176, 63.874274850401044,  3.883759300757063
11.493888108356801, 13.987355881052070, 60.675894660784159,  3.905550257354811
14.307691795100776, 17.556250479702790, 38.835455355939260,  3.973105763968153
10.146864327448759, 14.531502548628138, 93.330318848180028,  3.929052814084000
 8.045756967506504,  1.163177159135020, 40.700896264952050,  3.926120977306541
18.403323452322152, 11.331745616185797,  7.335144065014426,  4.188017817164716
 7.099892707081267,  4.474601104808405, 36.096725350427221,  3.790749199782808
12.474177262266826, 14.894312252920468, 74.854320266862217,  3.892647542424940
 5.847068988569963,  7.061058639488112, 29.162884340703403,  4.081052414507538
 0.657908165662590, 13.170859460485238, 30.206449946340257,  4.112721132444872
 7.731693100496452,  8.333236508341271, 115.387949765056774,  4.135034693881712
16.129451481007830, 14.016013505325745, 52.289341859139959,  3.899869621504799
13.848895712422935, 15.540777986202167, 23.700178486816863,  3.927885432244830
 6.877418111913391, 11.249769375178808, 56.674108202541298,  4.265678327033071
 6.903479960433622, 12.358539806646151, 73.006459579222920,  3.859965746269578
 4.902203839514005,  1.781363883436654, 38.211572264778013,  4.168868906681928
 8.920851757503600, 12.770971587175110, 107.646737162278484,  3.712752452749678
 5.680190678320951,  3.806894872410807, 46.318077930518598,  3.614613388939301
 0.547357535104064,  8.115288427022380, 26.625046659860224,  3.764217959915718
13.357463779616248,  2.060798695860364, 37.004156238865242,  4.059988930329214
 1.384709420942716,  3.339263036244831, 39.400397912913043,  3.842303399701596
 2.322176323945111,  2.672746746652303, 93.612223065718823,  4.485499224830474
12.712819990723128, 14.419801856943723, 42.219727355113271,  4.009586857389658
 2.050687812383213,  5.069015862267603, 114.465964332122269,  4.063947828876791
 2.006180341765145,  5.764263381455281, 29.543652730473564,  4.034734463780875
 1.032280596115147,  5.326438372788241, 20.947305833984938,  3.723373688757284
 0.793418277179348, 16.723212897371926, 89.871354909790568,  3.770555783211368
 4.888355769912964,  8.516127968206952, 95.523241290346377,  4.182263964505117
10.950597572174237,  6.228030556077426, 69.512122164187844,  4.207885165392998
 9.326487768237667, 16.119330496491283, 76.502863036320107,  3.572876506547123
12.748041927474009,  1.649240184021076, 55.389601551557014,  3.888495815241748
 2.317252958281661,  8.983788319205404, 110.517833595458470,  3.718392454271829
16.973052201526123,  9.143662315118139, 14.879667589458959,  4.078047304449108
 3.864024392611274,  1.004416932269986, 31.610586538976360,  4.006796499377922
 0.739088474643071, 17.267998021384916, 72.581923032101656,  3.872983509693457
16.909687364904954,  9.536535531433673, 70.663569115949045,  4.146831286526085
 4.919106700022955,  9.847244980876717, 40.067722043132385,  4.133247028677428
 2.503793949284774, 11.699986504992726, 20.375244613753161,  3.949125645626829
11.166029718884069,  2.404893721090115, 75.608138160498115,  4.146956795362686
18.575816396012357, 14.011584556918473, 48.498403858375731,  3.994982320634260
 6.206216699700429,  1.461606301884792, 52.278237143987830,  3.881900195634057
18.434813958140975,  5.541504744481969, 70.099756485836764,  4.089014024058865
 9.869640556668831,  0.584150056750418, 13.351715798735141,  3.803077634203833
 6.695263131384919, 17.348408778663050, 38.598942643684730,  3.518239497201989
10.272046391430157, 14.202344926087665, 25.019657286176137,  4.144916783274913
14.501790346318460, 11.685209857181569, 113.419355460482407,  4.175910883253427
 9.763083003635513,  5.277465454459375, 113.812439789737795,  3.734061216515908
 4.407772966558188, 13.966447448918355, 34.262885859871595,  3.912873581109613
18.266650511773044,  1.848928635370968, 86.946390918746758,  4.273583401328889
 5.890974243740483, 17.300880556659489, 67.737307960730433,  3.885888850964454
 7.714327199557089, 10.048594395736488, 111.548937450683752,  4.129483914085836
 0.054928752320705,  6.624422385822430,  8.229007892871969,  4.285037035371926
 7.289404864384986, 11.633718984638143,  7.276849653039505,  4.131338577399505
 7.057619063810962, 15.347195097084324, 48.161616164253360,  4.214049188044445
 7.964252895109972, 16.608755756823442, 42.359958635773332,  3.832282589918970
 9.010077609556804,  9.329693957158646, 71.487155588576215,  4.081937204570962
11.607730911245833,  8.623990764491538, 112.499437808355040,  4.346017396206821
 6.324331106118389,  5.316103359940096, 74.997053890521187,  3.833026790317215
15.646545234818444,  7.271763400606087, 102.841071601721382,  3.951136600336141
 3.252804521519577,  3.899374286005050, 49.355207871911958,  4.140369706515806
 8.943756293910436, 10.618281219519222, 93.954301152201509,  4.353088390948193
 1.596747700205172,  3.845557992235039, 84.383584389714201,  3.658119964286430
 9.225943391624767,  2.229783289577268, 47.016533089257464,  3.757165528271682
 2.503503945720472,  0.164094428913940, 51.134756476769766,  4.249510739089987
12.426642003964671,  3.100945139984508,  2.338432611248546,  4.034709408206787
 9.055911133352389,  0.921400907909504, 97.356561705801596,  3.812911818347384
 4.214827448765132,  0.182790366157771, 100.781428918500836,  4.128541468322370
15.655933647322160, 11.830715325865368, 30.937222900277209,  4.072727040016392
16.854783795473125,  3.494495819004217, 102.832523205012137,  3.954246622740290
 6.281367429736654,  6.260279116231447, 17.192833325160073,  4.037683895460312
 3.725107015319341, 18.334331756272995, 10.344284777200359,  4.007999764785771
 9.268562426788989, 16.280163701478703, 82.269704796662182,  4.409538817742951
12.489633010571991,  0.417683766633652, 48.559543437169872,  4.105812786647421
13.028724248085354,  2.926654672756992, 12.633704818114524,  4.174106792030039
 2.856013221477859,  1.982511249618827, 61.490100721554548,  3.973194843057891
14.529019990512118,  9.871147233572863, 109.598190570692964,  4.228893802282727
12.487990366687518,  5.584434317634468, 26.904933975442347,  3.939004203008914
 3.450357613989521, 15.789555060300955, 97.597539130048474,  4.221689800665385
17.107685229914594, 17.138046067809320, 46.498812394534227,  3.986672573021738
 8.223312543199912, 13.607499697192553, 32.469892071516917,  3.909684135783567
 9.686455462555614, 10.619186268482068,  3.243880570753563,  3.799128591306804
10.836565970622663,  2.799707724007566, 51.607441692577787,  4.162830547532224
 2.303536156197313,  5.948151411133495, 77.513881812669808,  4.205734049863606
 5.383047727445113,  9.880873991066213, 60.602416252823652,  4.406007905950693
 5.843826808652862, 14.656517627636704,  4.839409644711179,  3.928069490815608
 1.333285033785132,  8.699513622710423, 60.085191470696280,  4.088050215551185
 1.299027631734260,  6.536869268185309, 95.026338721307312,  3.816568776406593
 5.664909755636684, 14.085933970817521, 12.516294042831699,  4.068897585869791
 6.319266000054733, 13.587990784625902, 100.551418928537288,  3.786305448595654
 6.001503888540292,  7.425620315089227, 78.732218168187359,  4.083443819001014
15.449708864843018,  3.405870773665602,  5.554640324276854,  4.067437491073544
 7.388486152324091,  4.239766960867089, 71.224862041639994,  4.287080856166355
 5.074035760065307,  3.833539868095020, 64.235242556371404,  3.985757666339599
18.182520559445823,  2.422221923746368, 22.620764775733054,  3.883056471419768
18.150834834068576,  4.670157181496449, 51.216009972935446,  4.557513676627742
11.595085337139119, 18.402167289602051, 41.861005340766290,  4.289986398227736
17.921375061498225,  1.278292071278603, 44.069477271894819,  3.800864679113559
 4.771068757467667, 16.285346268907450, 44.768518333653859,  4.120168306789608
16.514160196077984,  7.368554286041906, 60.063612529346763,  3.926428717531127
16.905105542495338, 16.805114193501076, 63.539800793138305,  3.845261199991998
 9.171005293900187,  1.600951288937149, 17.971789223077199,  3.882327565363016
14.290037025197901,  7.994552092600301, 90.146077679366158,  4.087051908771925
12.760017919719349,  4.315238688159850, 102.630618506543129,  4.318521102056757
11.575582660363025, 10.027919544832077, 74.743881904559160,  4.289147868384208
 1.042285854038245, 17.747801068690933, 41.846379101006882,  3.997346625998832
 8.495205373820454, 10.816727892762351, 89.783023195597650,  4.039497500151287
 1.241995436472758, 16.145904616352947, 80.227322091657101,  3.965059478042445
12.463681659885813, 12.210026700206637, 22.397340535428679,  3.734047094033030
13.402156057431588, 15.363650301955309, 82.793515912867491,  3.928879444080760
14.010833223259965,  5.769667031111947, 45.278970378686097,  4.124248675350120
 4.536165036119538, 16.511136251828329, 88.533523135667750,  4.150146783246997
10.981045039428153,  4.000344891345324, 98.849300467520749,  4.032874218603459
12.759314870402791, 17.001461193266451,  0.635317951805261,  3.861890794317851
16.913553442006933,  0.082664420624863, 75.593597747327436,  3.505124434967581
 3.312569632716697,  2.704348025532534, 74.998051833677934,  4.087500116724215
15.970354402145420, 14.490774778268168,  1.596578232841035,  4.099693073452314
 8.358234039061513,  3.803002144565590, 14.895894310714189,  3.792493611841915
16.436381391781435,  3.950456447114482, 66.692665870134604,  3.809889293494182
 9.001583663476373, 10.971251665633178, 52.771916354091815,  4.023260108770592
12.416832084264779,  9.416743521231753, 24.996249431566390,  3.882671716817609
 5.487221039837446, 13.584163179684198, 41.739914090199157,  4.068963416049384
11.188613314055448,  6.515743375692384, 42.287036682776055,  4.153757067788804
 9.194253913685442,  9.164006787690770, 17.001559671322664,  4.190577957463501
18.009127461441203,  3.225306424673942, 58.078197727109121,  3.794763927489378
18.437674857271524,  9.036799186255418, 21.206195090700660,  4.276677258627996
 4.888002287083509,  6.960941054767278, 42.831575179688116,  3.802184020812640
16.526269874104688, 13.865186237719989, 20.998507006534290,  4.261112079524195
 9.963588833348924,  5.462027041313525, 18.595220133733413,  4.002221783031190
 7.340102796626462, 16.290572065158138, 73.262174558906366,  4.032730847009900
 2.819250580667196, 15.305742048761877, 101.801396107481111,  4.273583156837483
16.778418369257682, 12.368663763587543, 80.127216826299104,  4.208806091623917
 3.103153661051329, 12.347479504834741, 111.910962662624044,  3.729286851801507
 3.407041476979065,  7.576774349952951, 74.040015188020519,  3.758283729149830
 2.933123977238744,  8.168881284123746, 10.930297367674164,  3.929794808987090
10.382079776488968, 16.578677090217507, 110.043521387418579,  4.045681982448789
 6.875313654172169, 14.096667151110807, 84.821025282247021,  3.744129594367993
 6.070033152249261,  1.204626867750627, 92.529743735694254,  3.784971005101904
 1.159825932234373,  1.856275981304295, 28.671508453243266,  4.091152827277885
14.553205555838412,  0.137321394528146, 72.536586933634851,  4.120115513223778
13.813678482610564, 12.877901537875703, 26.699405736788428,  4.012633439374642
 1.169492259591451, 11.337959062345593, 24.341124936246793,  4.205588037480967
 8.551454880315704, 16.746817381056172,  6.974020611688554,  4.121882809820086
10.492904095079812,  8.707295481422447, 103.534537222225666,  3.891032745424947
13.084642170409690,  2.060348393617320, 96.052035654595940,  3.946781272970333
10.520977877804272, 15.957718127163472, 101.684342752564604,  4.107806112541448
12.935465455464259,  6.102063019286236, 109.480671359816256,  3.949360083373630
 0.927246063877153, 13.851253346356453, 95.188426255393537,  3.619898698315832
18.509765461461033,  8.705653994346550, 56.189414388187458,  4.132408524767882
14.568835462834365,  4.503273042882091, 70.174315331861891,  3.906374371753695
14.287548076234495,  9.214066637113550, 79.504717617531298,  3.894930956619858
12.468256545538344,  0.372257994170903, 99.638104860754055,  3.955697573558981
 8.357492675507389,  8.363074596967481, 48.444343764443225,  4.083164133195945
 6.658263239097446, 16.638853638922495, 103.169149861267329,  4.267389286364530
18.653862956320001,  0.678980821823747, 32.368248236461085,  4.003132461093831
 6.521069691647060, 18.016086189183802, 85.204842035466825,  4.161188905670739
 6.113699458183619, 10.348237405878674, 11.321074630098561,  3.810047297896854
15.958099519507728, 16.948392580893035, 42.550990878672415,  4.236415859309790
16.145363806693609,  0.567374873769824, 98.107397732569410,  3.994151579458927
13.469920699573485,  6.240536728638586, 38.842623714660888,  3.835568892433319
10.637896704467895,  9.176195049017315, 108.409013643116637,  3.986174160462083
 5.616995698246941,  6.928757332159142, 103.849733368374459,  3.845331459259486
10.094227628776141, 16.128161457422067, 105.876406973849996,  4.216502564790787
15.288569231404017,  9.514924301291270, 38.235611467944381,  3.724057626601237
 9.385687073908054,  0.499444746751821, 37.056332025022805,  3.936235310407528
 7.782032549758413,  7.183234321088609, 12.815819783853440,  3.931204611809876
 0.541047842285547, 12.431000204222663, 54.218710208088979,  4.485893583332897
12.735110561854183,  3.466616733955760,  8.583678891456138,  3.957055735105368
15.907429796727461, 17.852259698463648,  6.570563756126405,  3.935991383356948
18.200400773683583, 11.412551218675038, 108.634127888353234,  3.942258854061876
 7.401806688855194,  4.513351276622892, 49.810062084111870,  4.293780203777328
13.894330612632199,  8.940075005307520, 12.197946311740370,  4.089819443551002
 0.687111201975426,  9.847645358442263, 84.183662458009991,  4.180996786089684
 4.875919397935659, 14.671394880657910, 81.410646461530533,  4.225089548242935
18.513649689551052, 16.794299530418769, 103.966963380452015,  4.048808846096344
17.600287392061226, 17.422480017625048, 50.593836461661958,  4.237979661536618
 0.977306279510517, 15.145773337362682, 19.002077205756116,  4.046608225635796
12.213230205260745, 15.181796482244987, 78.916063066031967,  4.173000001879752
 4.739995763541124,  9.253292873145130, 66.866481069644450,  3.788916298634558
12.249308265578867, 12.592629671648814, 46.399396053337640,  4.076182406585446
17.783550251334621, 16.724268573664812, 93.632922414334530,  4.126672374629641
 1.582151844268918, 16.662892707485447, 54.567341522599548,  4.257715190602140
 2.857899790688929, 13.715213232652932, 90.954482121136436,  3.837870010432528
18.951334256110908,  1.074695884702957,  5.001868143449312,  4.167724291933273
 8.498772701212779,  4.184002211330696, 103.122689394726450,  4.245218719832762
 6.896675906339586, 11.626996752624828, 64.458671900939621,  4.000097634842510
 4.061238227276463, 10.316462149354683, 53.934271444070959,  3.740457164646172
10.637470970771044, 13.050906788660258, 17.358097460901302,  3.918872967865628
 4.808177938189121,  7.573945451052952, 99.845510888215117,  4.010399994052954
 4.188631614700535, 14.079534840783285,  1.466134599046554,  3.572769602746333
11.606388211870039, 13.137867248302390, 89.822270210208899,  3.723794897504982
 1.570790784345955, 14.876913478876855,  7.616863833942849,  4.001970877611046
14.917616000638873,  1.016753404151015, 64.658640263668744,  3.939008114587685
16.768001943841732, 11.250678192479183, 94.880756234662897,  4.347947246403539
11.400269629768554, 12.452470940316616, 110.680723716995175,  4.088148765345105
 1.280782843260240,  9.896608536418455, 77.735619674572689,  3.926976836426415
12.837563801024150,  9.902199788406174, 70.130475568812344,  4.093436138980933
 2.892733501867275, 17.278796043063618, 93.177783384472718,  4.000493834093059
 9.415166639763008, 13.987776852787082, 10.032314230933189,  4.058309398969738
12.387553958698062,  7.586454451770051, 60.271599410721848,  4.015732988330036
 1.719172083651428,  8.816516947376472, 69.327512316675183,  3.970981898718299
 5.282687464074871,  7.528360629390097, 108.540078734496703,  3.964635019134760
 9.319208744498480, 17.389054110816602, 60.096455829468191,  4.232070417319876
 7.893865274542224, 16.373723445748588, 35.183326338273460,  3.865697178885681
 9.491743546350438, 18.385094774167165, 26.285438882040559,  4.151891881825957
12.031607493014318, 16.092398165322628, 28.703354543599637,  3.874381863871730
15.406890942043137,  0.260851892149450,  2.754732500020157,  4.232268556159847
 5.761267711060476, 12.289220865544495, 50.665261152816527,  4.100817642780414
14.949295972114999,  2.174898067710847, 33.459446464119736,  3.652907711250940
 5.912636336606679,  7.596011474670569, 88.345712451836775,  3.945206969090974
 7.158741708525061, 13.817240005044109, 60.608362886440254,  4.174530805238309
14.845244376195287, 12.038990919909034, 73.073466142372283,  3.933825875969451
 7.281216361361672,  1.328224517860896, 74.368218548457207,  4.257314412536047
16.661879494479891,  7.913762774063227, 97.531353398006388,  4.170198163078504
13.901827177653564, 17.199791189134324, 60.935772974384967,  4.126519244684722
15.833693401209203, 10.914177427392326, 23.788887029991415,  3.958297748473239
10.850671269741730, 18.260163797401834, 94.336379742380487,  3.921128671292931
18.856227673363101,  3.246360249635562, 107.874691005110691,  3.924161533952450
13.817886465360974,  7.259102391899826, 85.931874186963043,  3.860546931190293
 9.097946789121748,  6.576440312122298, 96.170105810788698,  4.223580057188033
 4.851525548200858,  8.212301911416517, 50.655414821251505,  4.202812136209803
 2.782941063291724, 12.510822193725547, 68.026080391519585,  4.087678262020493
12.628128781443930,  9.256997562896087, 53.474176345391271,  3.895898520078693
 2.760080739714630,  3.383803017779005,  7.284692216389400,  4.364727404086103
15.822642590049675,  2.816765446764694, 81.785606567556755,  3.903427169284017
11.888090355569632,  5.373382446819719, 54.755186081481945,  3.857249342352150
15.471821940611814, 11.409264289770350, 55.275409445203991,  4.092450902573643
