BANDS
8 8
NANOPARTICLES
cell(1), 18.956
cell(2), 18.956
cell(3), 118.472
 0.999280655046806, 12.090530564080082, 72.053577038911058,  3.698725094173266
 4.844984429664616,  0.555841923139627, 97.282849991558550,  3.792086512413391
 4.663384149668188, 16.130435065654343, 23.046848468800420,  4.208193558481857
13.396124158234505, 10.243108357200587, 115.780991411068257,  4.115044850628013
18.067700028772862,  7.023715800462915, 102.543503955778661,  4.306197757524302
 4.750890857934227,  7.911136465226139, 100.347314537604305,  4.082881851761556
 7.676523207316691, 18.446124126966204, 44.067337295801302,  4.383285876856503
13.675689607602878, 13.352939431463506, 19.083661025821907,  4.042405351508084
11.542237649681342,  6.543678756619360, 32.969599114994871,  4.027089907738715
14.056304516057592,  8.981254862217902, 53.474609220773608,  3.911997773482930
10.740730922865472,  5.059053338181166, 61.659113622371315,  3.971081662875548
 9.229150010624329,  6.321775158608602, 106.050645941874791,  4.245798836565553
10.736143537003272,  7.530562444834123,  7.639389519259739,  3.971464409430876
11.407245989636431, 17.401029059500807, 112.722315951205957,  3.886756253506515
 8.206339690346406,  8.206376595628727, 36.413749745945083,  4.017941937781751
 2.837874976622246, 13.719869410536937, 84.419929782470888,  4.266279377888577
10.280429769776985,  5.151084001002199, 110.327137314223293,  3.971419326568391
 0.370317431145785, 16.150731832883295,  7.240575811731652,  4.111775663234098
17.635064591155547, 16.863254066478778, 62.007145013804887,  3.804003571492594
 0.731089055017228, 15.772212755360432, 88.454403685281960,  4.120889740120818
18.782519999624437, 10.915729153644946, 110.622483401511914,  3.977496959954782
11.394719027833506, 17.544704801481288, 45.991431901156666,  4.172797505891888
18.221692788218093,  2.504695580391581, 108.125134802444308,  4.223187259164709
12.228923650925207,  0.350167243285003, 93.379699783938108,  3.391070320538249
 5.523081303053280, 14.556222909370556, 81.354839169445555,  3.763659438184142
 6.608640507500939,  8.398215520622358, 113.378979158853113,  4.416607089873440
 6.724063517124229, 14.723600874801178, 70.552428361509627,  4.032240459449662
 5.571935688395281,  1.974591073042786, 85.005611165169185,  3.871509702492324
 1.158127535759849,  7.006057956654124, 31.095014093181675,  3.712338444254219
15.901979143242665, 14.078349648607825, 112.318383383698702,  3.974419719449671
14.074069553242209, 17.084469897287672, 52.101724900199052,  3.833997221274095
 3.298163034548145, 11.393363815130233,  4.506347235423489,  3.836833630933863
16.554457012039549,  7.039340057247427, 43.023512924278293,  4.086679197384186
18.331207858663287, 16.699734053256975, 34.993678463713977,  4.329119812617053
 3.636566514952003,  7.454136332008328, 38.199460813962574,  3.811853529640767
12.285694131543389, 10.842888999019126, 71.185779946279609,  3.967045232720788
 6.298997672864189, 15.462497596704694, 92.519700629139379,  4.096114589422484
17.908580298533181,  9.096911224739367, 86.119956796459547,  4.417431602213729
 7.498014988989599, 17.873028631634771, 86.979052948067647,  4.281189293771137
13.567271809474406, 14.678752526754559, 48.897209235239636,  4.238543379999623
17.133258686718314,  7.813804479702414, 28.625774545948047,  4.192612699834886
 8.340564335958867,  1.224657446238796, 118.034044678051671,  3.995197307923031
13.708551304625933,  5.625517973662548, 50.537552890255014,  3.940619330900002
 8.042895990080165, 12.093967464633906, 95.513896369013295,  3.670526558298055
 4.431803402611685, 12.897512712938081, 94.819964318626688,  3.709475515213909
11.562863863703445,  6.402334857614894, 37.214532014029608,  3.749371418663240
16.111136453005830,  1.863371039348455, 18.534464918432889,  3.990471465296014
16.514181835281224,  9.004759943696467, 38.420026966759984,  3.719176989838691
 9.996476486672055,  2.063997841892369, 88.696633215975680,  4.157316241893304
 0.085444074510248,  9.396634291691614, 79.232325467618097,  4.257888686324955
17.583111926096493, 10.653757292538039,  7.890038277466724,  3.835663108400284
17.054352059986584,  3.442053294313453, 89.621889437438753,  3.670978483547262
 1.132060328440383, 10.770235408135441, 28.499993747406400,  3.863134288525516
11.859167706105092,  1.709499677760274, 48.994419536830058,  4.485313242488775
 5.596187544190711, 10.016983294292300, 15.705391747886948,  4.185785458987422
 3.354035573997470, 17.024524335704395, 113.464711400316389,  4.010780267969848
 2.810825218762375,  4.165843909143888, 86.889586978812900,  4.111264722189082
16.777694006333874,  4.268232212044191, 11.560936916143639,  4.287925093171701
13.020365241629836, 18.004831583900099, 96.810009213117084,  3.989111495807409
 9.492231025476663, 16.618157526592803, 53.875107564580269,  3.861718424485793
14.011363911312220, 18.737754241173537, 80.181984178165152,  3.825684393525536
16.045208928284449,  1.573670228453052, 62.008936142247933,  4.177269079470522
18.426555180372922,  3.666683751683263, 36.171334237811983,  3.973961336674147
14.302210994364033, 10.552073344549319, 111.913565596460771,  3.802467266240236
17.420211049603893,  4.782437105106032, 85.913085293434435,  4.226000550177758
 9.453328451267906, 15.977459822106429, 109.694585612730179,  3.625292527294143
 0.862550343348215,  5.908084598240581, 109.477619684788849,  3.692147509035448
14.480246319642390,  3.704394367206159, 15.166483114576247,  4.276300699429674
 3.423192836416151,  0.335079332826000, 25.522411129196513,  4.187053153160108
 7.083636320068545,  2.233317345282775, 104.282736707177634,  4.063927092455052
 3.726442894655622,  5.164865839682454, 41.646511429292779,  4.055843756419077
 8.066084854999362, 12.078942129125760, 36.287552049991525,  3.720888440667428
 8.867129604699297, 13.368622022304764, 29.214009149319342,  4.276942964082331
 2.760370888703367, 15.343532197762762, 70.928120051367756,  4.004419135135444
 9.434958377549560,  1.020265603647850, 52.177645512441934,  3.631618150174244
17.721651518534188,  6.983169678020644, 72.777230707767743,  4.095172388776247
14.893269066353934, 16.613408216486881,  1.606239143156727,  4.007786043300345
10.033982935003026,  4.623333870052924, 51.329417366134493,  3.818399404608245
12.733904868675234, 10.137602848465775,  1.486291676031996,  4.253808484164129
16.270283350585760, 18.186407698239748, 41.056328411788627,  4.042172550588472
10.543084245102447, 18.637260545318416, 30.254750578220790,  4.001235560995966
10.617908012359504, 10.690493462769213,  5.083960916401067,  4.139792111374186
12.790042660000926, 16.008044663336985, 91.464081168348983,  4.289265954299030
13.453398642181703,  4.189379416120338,  5.110824029146738,  3.893202545063392
17.798366403581596,  9.025635016960573, 65.977988782163919,  4.116618890959515
 7.889421127588163, 13.569005392379092, 99.648386903146005,  4.044295669097553
14.964342546714404, 16.744076873296720, 15.854611023754126,  3.935390959616770
17.013791756176936, 13.545743020417820, 108.120904345007574,  4.096130466081877
12.299789402060481,  0.409172726901741, 42.174343769901348,  4.399799905337364
 9.123197348357944, 11.458010489819833, 85.425971722039861,  3.565934558751136
 0.150168642499370, 13.714782994038883,  3.979079795598195,  4.041572807287084
 2.948990776043821, 16.314384539386225, 32.550071139382048,  4.195944248519089
 6.270582513561730,  9.276657121534440, 74.445847435168290,  3.870341078430179
 2.331345145966590,  7.728408746564191, 44.332672076092230,  3.862188163018682
 0.256877842626847, 11.497053489387611, 14.474755489655172,  3.711617290601544
10.265088899318766,  5.779853604815409, 84.349525162833601,  4.248797125936237
 8.602263561178146,  0.138859101217539, 16.313034646958556,  4.096816658135551
15.645385956076721, 18.015355864642970, 72.701015365781927,  3.879468584639040
 5.030925357272502,  9.051064943954135, 41.649598720659029,  4.123060438348825
 5.060593140463330, 17.227952945845740, 15.656250636413588,  3.884255421353218
17.606689192049327, 10.477602142444885, 62.315428186633604,  3.765193170478496
15.833770532181823,  3.292566664610951, 78.973093996453770,  4.412117329517979
10.002064831462702, 16.577863901757617, 94.612445054489669,  3.984298574701540
16.463663206165190, 14.517108004924872, 21.511323921104466,  3.652078929029568
14.084269011985599,  9.326052178063847, 104.762178861289939,  3.599928903387806
15.869945485843726, 13.459190196465910, 13.604152742585958,  4.208732680400214
11.402675090714094, 10.718943487110323, 56.040866676446157,  4.223625761656518
 0.798530017011451,  3.291859751908827, 117.589797639108696,  4.119893106672465
 0.527047026687137, 17.011283917668063, 48.201642233699950,  3.712719354672082
 3.201478121153987, 10.407365767508713, 23.052831188422690,  3.834938107234795
 3.444233516597454, 18.571828437706223, 87.282667482266504,  3.932323564711997
18.829166635307764,  1.201786875608534, 87.146499133024975,  3.821612843052168
14.272142072362495,  6.579546334505189, 95.959593610497180,  4.051768817125716
14.701746739840555,  6.631927640018443,  2.414774792253807,  3.799102596679346
11.771612784286306, 18.127361524685746, 14.168681969736541,  3.795945091298483
13.602264900567633,  7.734287244891044, 80.791961268955788,  3.877344706328636
 1.530233514955732, 11.889332101430533, 87.823447686562503,  3.879646288361235
 0.208172900821072, 17.055010335257695, 84.526881226089969,  4.201192299299945
 4.815809732355171, 14.963487595515719, 88.536164497164066,  4.181589459684639
10.670924782027249,  7.938963509439622, 69.040652846138173,  3.924115113180192
 2.990105130873221,  4.801700015293080,  2.569952272021752,  4.100225803576995
 6.056204310776955, 18.509158895582040, 107.209091425401624,  3.962291028795714
11.667293140875877, 16.823896324962519,  5.620037755093425,  4.060736918614781
13.819898470655227,  4.292016355441154, 64.089567964115517,  3.963006150896269
10.896179816108621,  8.360717952363714, 102.897823218535777,  3.930409300314619
 2.761893454289081, 16.933984286650020, 79.652043782001286,  4.225055638522406
13.152934325868758,  3.244655500318431, 35.152657115285997,  4.423714179253404
13.952201346656288, 14.792267230919544, 99.690484684504611,  4.021071366848576
 5.464958300667161, 18.783510156585884, 12.340875749410367,  3.476151600174139
10.611308047894390, 10.870793080760787, 66.409158513182376,  3.890650834429975
12.992365745804568, 13.584389438681987, 88.326578564384306,  3.547198130157615
16.339790080869001, 10.161465597455077, 82.319774115609604,  4.051285599804745
 5.310862243719789,  5.749442744135083, 84.395864754728279,  3.611592044097296
 5.567219409619260, 15.753367811701391, 39.833523351112724,  4.028032470779023
 4.075969597838185,  4.221854283167541, 80.901898608824467,  3.631538369509522
 6.092829900787936,  3.436662872317345, 44.549126533680251,  4.172441672190315
 5.035500728809541, 11.707110155315883, 101.728046896820672,  3.937102953614135
 8.199022921489059,  4.827005313572399, 68.808415424865942,  4.002852426030358
10.506933608476773,  1.541164838592917, 80.796727414424765,  4.093548239656839
 0.886874391246024,  7.411952533839528, 21.233888180338067,  3.773246607795491
 1.377249669376899, 17.545502279696560, 98.538105317128881,  4.187104965517181
12.746909328066488,  5.373758422327128, 54.283294038933875,  3.807086588195108
18.907111604007650,  7.146055951408902,  9.242034346743834,  4.122835374356654
17.022674329304774, 15.344809544704585, 104.429476630046253,  4.114831972291915
 5.459142663078626, 10.962182917109267, 97.958402350741309,  3.792612567484552
18.495784277038187,  9.604852744505024,  4.122673901491015,  4.184875713288694
 7.075112562952450,  7.520406713878464, 97.041727889278874,  4.022388148814062
 6.264752459439078,  2.602033585345954, 18.700912440036657,  4.155767537867325
 3.017435526661544,  5.476376155335499, 60.153659853866408,  4.427948718541998
 4.734422384768659,  1.586678713236578, 114.489459837474925,  3.784555251785233
 7.839058135395084,  4.575541744357348, 48.056872902946687,  3.976897300696580
 9.752989766266287, 18.401870953466396, 58.935028738531578,  4.173370028251997
 3.107975353703411,  0.799518785305457, 21.114006298732996,  4.550630411044446
 5.958382457296000,  1.235932018394537, 32.918026816342696,  3.985076538546211
16.240465719864194,  8.474062238849184, 50.404426311165132,  3.676149106011759
14.056801475689449,  2.913224718593808,  1.464732091221107,  3.924244357270096
15.824722775495429, 18.065707642949640, 48.402815187014092,  3.909674194924297
15.554729450078479,  6.824908301880315, 46.975967408312748,  4.008564263960656
 9.635036134770505,  1.122744708850790, 69.487389327304683,  3.969374919231637
12.002985372059545,  8.054357699969547, 108.396155148287818,  3.782573079306524
16.207244748290712,  7.972790083781281, 22.775227112887066,  4.127628479825991
17.994297126335773, 10.774544788477293, 20.277796723261844,  4.112632682595210
 3.616289427096070,  7.945881072951368, 80.678481586404558,  3.819749715593845
 8.264254361977349, 16.217085118557403, 13.271723331665777,  4.301025494251265
16.071277454237769,  6.712236461016086, 92.413683586361458,  3.890504000336634
16.456321353043634, 15.711528284682155, 28.989757408099806,  3.816414811625249
15.560002787168916, 15.036619970238453, 32.589796425171826,  3.712127474923059
15.497902897096532,  1.732464872751472, 115.452185162195207,  4.120745716969329
15.140553590941717, 10.336747549404324, 78.433058435511811,  3.770655788914611
 6.838180372160504, 14.375746491593363, 84.953947468546446,  3.897573197701524
12.039932014831344, 13.510790190831687, 113.500770616739629,  4.121939604725331
 6.393839349913493,  1.501000812890657, 66.384961938889148,  3.871071794951704
 3.009014705755527,  7.011146473222738, 27.796728137540221,  3.830630311690634
 0.621313976680113,  5.906332244143440, 56.355505480011345,  4.230848830619742
 3.547704241893594, 15.869725058684635, 11.215145580806860,  3.814545821744577
12.909391601480678,  5.580976130656254, 23.868848067813946,  4.295614451481163
10.954003402305327,  9.095312641209366, 22.541197307540639,  4.162084081362003
 6.506736320627475,  0.441724603501308, 100.696509082495140,  3.764379807949918
13.746904226992848, 17.342035214244195, 106.057302646629310,  4.213461291930427
10.304600029952253, 13.658099046869541, 69.179949097345045,  3.916285757406357
 3.998915947791595, 10.758354647615917, 70.102787108098894,  3.915894502507965
 8.006811996190745, 13.685583745950446, 64.512054754203717,  4.049982071727889
17.723521094675522, 18.874019687524019, 51.810654340215471,  4.040580132900657
 1.469515790279792,  7.987204756964942, 63.111105024599674,  3.916555079234991
 9.329871964796983,  8.160538868179254, 14.765257298256671,  4.329836930616996
13.248053693311972,  7.572813481847411, 16.037234257709880,  3.986966733142524
17.542633157617885, 10.305856811917604, 90.516838829971832,  4.694878556016612
 2.818145077109675,  1.332673548992385, 16.843905468481577,  4.058122616210740
 6.793304096979814, 11.962118921247070, 32.594393328737006,  4.095021697844427
 5.283235133625205,  5.481662869905714, 73.713882640555170,  3.945382540218919
 1.192159418144947, 12.370990917855808, 52.578524901334603,  3.983550411409038
13.287351290504130,  3.437496678151574, 86.375935124273241,  4.333663535559170
14.426647292769001, 18.454843887541966, 31.218888415095019,  3.944215719055653
 9.768040102093003, 18.298668428822360, 105.509091064470638,  3.985699362390795
11.880568928859118,  1.347347257486235, 61.885290449495493,  3.795396150135288
 5.627089727346894, 17.513023939694346, 116.829931242605298,  3.972640509754797
14.294212318893388,  1.380235429159364, 45.638955466326060,  3.816935424852692
18.462800915616558, 11.126388740227226, 105.095142779731432,  4.134925399772517
18.208706977035995, 17.523961241130149,  3.503786133331209,  3.838898710268384
 6.571561264487120, 14.467776557555833, 50.341100324328124,  4.079131990724459
 4.734242279291994, 15.993460830742611, 100.232259997274085,  3.935270642832790
15.875786117076867, 10.173258496694281, 94.660043552943620,  4.225893194410884
 8.076070612338636,  5.574072576751333, 102.090117585125441,  4.090717234428595
 0.910178191565960,  2.293081857216391, 42.320948707317079,  4.049759310384008
18.520895543471493, 18.436576632532944, 31.082746761025188,  4.200394241431233
13.488862731094249, 11.523646762642212, 59.313411271182069,  3.702411496501099
14.198795699947677,  7.344550011053776, 84.780003332983611,  4.209954157004778
12.787532933949594, 15.440601306316182, 40.721438923048396,  3.894903057861498
 7.112388540094565,  9.001469808239994, 103.686774986682707,  3.700330735994101
 3.711272824493660,  7.502226661108976,  5.396199070426380,  3.800599565680076
 6.169313018175389,  2.789521561641814, 58.582826649614042,  4.214568084651461
13.258423545019603, 15.590250572528559, 109.741626869921646,  4.001872722779932
11.714329084052340,  3.953497203923265, 92.029012177942207,  4.207709734262639
 1.296069074018605, 10.224991634521857, 33.132151148228289,  3.901749283853435
17.216051632228247, 12.841089797772369, 65.307736608831689,  3.689884875240005
 7.754815226301197,  6.952236300746674, 10.989080506760040,  4.054959692769941
 3.878969952536270, 17.174046326474866,  5.479387997005943,  3.904305429906882
 5.953509042913263,  2.668241072662644, 14.666890434408225,  3.907750117584200
 9.753034464193577, 14.545719906538153, 106.342268211683191,  3.686985627585701
 2.331458187868352, 17.343179254601747, 56.032358138738125,  3.765011349424257
15.212564782485032, 12.532280347274281, 39.304177367873777,  3.990670764900782
 2.961364940423484,  5.289301010651404, 16.997900217721131,  3.798039373865168
 5.629455672447219, 10.757380760447010, 83.700965716654125,  3.985987653578880
12.355901592678693,  8.086490983839415, 91.428497198353298,  4.213025022739592
 4.024227570179430, 17.677983750883431, 75.747794420733811,  4.080565250797266
 9.750866961544755,  4.003043680736455, 16.954291115032571,  3.985466412657360
 2.623562682979289, 12.148299839767473, 17.253095356266630,  3.681595397576056
 5.978961437084251, 17.335098768894380, 63.994082671205291,  4.035348486952782
 1.857819754067088, 17.451671556439276, 41.736394470150273,  3.503437229574423
13.393568000509479, 12.715157485278519, 81.057756283836284,  3.965595726983839
13.927161378585048,  0.943115246317039, 89.933885445686812,  4.357731410888102
15.673786431392154, 18.242739814328012,  8.323121990750746,  4.048177022586758
 3.207518546912555,  3.334162015817911, 108.054523236069969,  3.813415221769000
 7.936815652373055,  0.672270680942992, 47.991593100856250,  3.821353815056169
18.466656507094847,  1.876838160083032, 76.031714978552486,  3.956632929286681
14.224202013282094,  6.004116344606194, 113.862383572148829,  4.341492348476603
11.220581768072808, 10.543690594896974, 78.446212424229202,  4.071018101319998
 8.300297048366984, 12.635067185106768, 103.473619351121670,  3.673881638977947
13.865419871122711,  7.214885828234376, 12.037822045757668,  4.027445471331637
 8.241624138117061,  7.165085027073289, 71.900807315723640,  3.723658175075954
18.116252673451108,  2.765549496677821, 101.490726122761259,  4.057448437742870
15.679401032706593,  5.052323593952628, 99.331200036157810,  3.862475534371343
12.106740203834425, 13.761909744321407, 117.705698533760994,  4.170646662662895
17.502200331102532, 12.350125968159825, 34.821619834854317,  3.825413361027285
 4.881233063695932, 13.670139827242163, 14.157209731601947,  3.838801625907514
 0.032091693997582, 13.591284245341324, 31.253952660501994,  4.190959960509407
13.044680919012425, 17.050416079354150, 34.632405151499817,  3.909945599911558
10.022070877579983,  4.293170981497157, 21.178159772703232,  3.991844584285265
 3.600189820233660, 10.583310091398166, 115.540340968276894,  4.182109826372272
13.482420728951084,  4.765839459464965, 44.083914544961438,  3.807947253224808
17.849462200039163,  9.767444647150553, 54.522053411545897,  3.951493180017239
 2.984998719488160, 17.386316088200324, 91.391205456984821,  3.871059483460553
12.026348843206513, 13.804562577400052, 11.062237652356476,  3.966853561513614
 1.138750881849265,  8.409606434757110, 51.356782132498530,  4.254952528628629
 4.660054804957917, 12.824190819229679, 73.505165432245263,  4.111982970941161
 0.494099475492460,  0.411297929788787, 38.626127012748093,  4.284399195556548
13.688746719530991, 11.979449996149482, 91.660644041257086,  3.970672401024960
10.306666405032445, 14.395570095346276, 33.094335490056721,  4.188621939319486
11.980204932058767, 14.558342587010099, 65.620971026505359,  4.114790906015984
 6.002705875848904, 11.726832996193515, 91.313625220034012,  3.774611819475327
12.716033568548069, 10.767890896807788, 13.604142394510360,  4.046603647271208
 1.014975089466096, 12.417846674768505, 68.031750192590096,  4.049363176133383
17.317906744750445,  3.736663453759185, 67.389561159602323,  4.304542981340998
14.014183297571572,  8.982020048355350, 26.111026188315922,  4.078261658827616
 0.209454090119640, 12.621337386689284, 114.266391321788632,  4.050579473821572
 2.833508859084307,  9.468033818168475, 90.647311822372302,  3.957868299031063
 3.983134885849500, 13.287147508525507, 29.858103272032594,  4.140580760653063
13.799598760820897, 13.285781880629761, 35.508297043676123,  3.934122209065329
 7.658813790073263,  4.989873093030399, 117.612713430779380,  3.699795225179640
13.235048120250065,  8.095474282831487, 40.435849088221744,  4.152682758582454
 9.911385131931194, 16.937738659027346, 62.866050632307683,  4.173008583170852
 1.418699060534614,  5.361233264938858, 75.255959458860502,  3.810953365837653
11.361611026157886,  2.305712064704644, 27.142952804486423,  4.237810525540813
 5.039490703972120,  6.607361135972613, 106.633595579590917,  4.196782801760262
18.565507382258748,  4.468848880093637, 63.489797819846068,  4.010302415559087
 7.692745251587321,  8.901581757723873, 56.116566850193642,  4.025774835168619
 4.774928145809611, 14.102127410454923, 77.456509404647960,  3.972494206617350
17.461422936950576, 12.557532108126754, 97.421774689296655,  3.707813407296761
10.433927485212003, 16.166437489239474, 26.453116794267874,  4.160619348351727
 0.772808620419676, 11.664574689039251,  0.050282163869663,  4.277481673843844
 2.120957840676877,  0.019114135898073, 110.051546560285601,  4.221122024781907
11.127813566185441,  8.763089097316342, 86.864751336094741,  3.736953405638046
 4.180683286411930,  6.226612224453965, 49.192735225426759,  4.361900218779105
 6.647124339489917,  6.469047833946770, 17.468087760660175,  3.985411885507702
 9.279712469661812, 14.159896819984009, 56.986248333763868,  4.078389422123408
12.561802362119566,  7.012376894585763, 77.107091279750534,  3.911380660537636
 7.093224549962785,  4.507127348497099, 87.452622823536430,  3.769948806409311
 1.387337651713114, 17.042519160313066, 106.383148617949601,  4.184694472793650
11.812235711318909, 18.753038331078375,  0.579631492997999,  3.766530493992152
 0.350869273514569,  5.561742560910482,  5.535128270408374,  3.959887938584965
 2.116594505301122,  5.097601532461335, 24.145759562013989,  4.059787394956920
15.524314939784105, 15.215368705788748,  5.458993898638354,  4.248175869884954
 4.908412628091712, 17.697005100361423, 68.522751481552532,  3.708093153659673
 0.682441232434570, 15.103821003760840, 110.954054783290616,  4.221429752141308
 1.088867899555986,  7.594750679662297, 116.954613303269070,  4.116959191903977
 5.065291749390631,  5.123900775810762, 66.610081881228567,  3.519344660782677
 5.866959842886336, 11.014880587629095, 79.723542533090949,  3.985818676855273
 9.986096257152282, 12.588306581131908, 49.151068570510198,  4.068733151958254
13.387300481803063,  4.095168671870168, 82.274819566108448,  3.950394511068112
17.884767319576675, 18.630460199266100, 44.889029282296264,  4.262766523081311
11.595334576681214, 11.992494133614265, 109.428447584694510,  3.940533913494751
17.546660117800439, 14.995166523396286, 70.519278566544429,  4.366934161372486
 6.814710952395224, 13.314658079067968, 10.929085736155669,  3.668315699634437
 7.193168359863863, 10.701562567122563, 23.094147012267122,  4.090012482102265
 0.847197059532795, 12.811417437877711, 10.649574181817627,  4.413697098886280
11.635104341850887, 10.367132861451021, 94.938683316272559,  4.232252455960745
 0.567497880998992, 17.560992353599229, 73.519066120347787,  4.096152522334618
14.402077788388940,  8.267143852118705, 67.898769636940798,  3.831277422778661
 9.033234903191710, 12.173017589927509,  1.551581510250883,  4.148342068011723
18.037458101207324,  1.981609283352666, 72.224409363705888,  3.699561950178865
 6.976767250326121, 16.724439044353037, 30.983617647370313,  4.165411058088443
13.285569313621590,  1.725665475571130, 11.393405777846837,  4.329143704621007
16.011667632397927,  3.311409549239320, 41.357498247979940,  4.135523009324247
 0.354913704252681, 14.696179359590252, 94.931821185865530,  3.605437624145891
 6.266159205107309, 11.592243052244967, 47.334914196576783,  3.925024774363087
11.907306291004517,  1.440070502697718,  7.466422456805962,  3.977083139017431
11.697761366881160,  0.555843806795778, 55.106255562817282,  3.783638399605924
16.441245818518574,  1.540244268608549, 97.348314927587253,  4.323202946535291
 7.527668099167891,  0.353825461582691, 26.729689505630223,  4.363617418878603
 0.392870640367531,  6.534872956821355, 89.204248521234476,  4.065534015509948
13.356381621112490, 12.034387595637551, 31.829949367651821,  3.856050367238266
 5.620000947226665,  0.804999591301992, 80.529892035329098,  3.901144893941954
11.344450682717126, 16.210206478902219, 80.675474517473788,  3.557554240667080
 6.323378973109376, 15.388065627646911, 34.926738720233914,  4.237490777212860
 3.662880821821386,  5.303844831155795, 91.492733713816961,  4.260669455671242
 2.760138629494707,  3.948075709026024,  8.157989876012545,  3.829445431915598
 0.106493764170869,  3.431720847537469, 32.204015348744534,  4.049956205001521
 8.215253723950148,  9.189377018035829, 93.107179741981867,  3.854277261205564
 4.397540972609827,  2.127631372138395, 54.966892885631992,  3.918726328223333
15.312585896063000, 18.032981543311372, 112.381385545079624,  4.006037184569098
17.017041730151327,  7.587377984347324, 106.551460141197666,  4.031164557317743
18.205615382890176,  7.512672257037819, 59.918226047125870,  3.903775055034470
13.448665239815183, 11.501598630034907, 84.992025659141092,  4.237051617050906
 5.693250017026750, 14.681193879280404, 105.694271856587164,  4.295781788735638
 8.230300221556236, 11.178950450075845, 71.633068731712768,  3.932570295688053
18.183184657734767, 15.244639876241807, 54.655567952568965,  4.118362979625807
 7.611981223803730,  0.587832146166034, 75.866504625364840,  3.938308824855077
10.298795754202231,  9.279719413041191, 74.623423991249311,  4.143978168314826
10.327204378262548,  6.446638024728087, 94.970484446653899,  3.977761227554967
11.533461017157977,  3.065248414598917, 58.151796383613586,  4.017631905999322
12.328425435522815, 18.351675064032815, 83.656592711936682,  3.926950429368322
10.343178229986147,  2.669594744969192, 45.179020758769724,  3.930507970806859
10.486317024764004,  4.352485827196062,  1.508691973803413,  3.715013053223150
12.984005850598422,  5.781367275380581, 104.868094627080438,  3.699738791461733
16.674048184892907,  3.006027163613249,  7.084688305110575,  4.003450354939894
 2.861712273562930,  1.529994810201767, 100.863439485186461,  3.845560981029167
 2.216071970574289,  0.800929914926502,  2.098204931026564,  4.087673717104246
 1.394012361484705, 15.246251734108675, 44.795712132494991,  4.093515785904353
 9.888079907698055, 10.044528644530843, 46.003114346847198,  4.003457332692662
 2.975821370413027, 16.554138857003238, 36.956396362714855,  3.874177880403954
12.810539970797874, 16.430943441199560, 74.654530878925058,  3.677854517066642
 0.252668384608882, 10.167711434012988, 41.415560569159162,  4.627681414091167
 3.953037360618122,  5.172288606588298, 20.671802157862704,  3.783189091098925
 4.225600240022345, 10.622989931012338, 11.806600114390490,  3.951219201319618
 1.533590021358525,  6.148067966367273, 66.544866219359918,  3.830308105574126
 7.990900720819083, 12.028665932323758, 76.577053594823468,  3.864662132135125
 6.718194834204706,  4.253775028793181, 112.309728917737701,  4.014129830542504
11.464404406821812, 11.965692077258183, 101.218288099941148,  4.103603530990690
18.924002883481872, 13.684903063222826, 60.690319216636873,  3.539838116960056
 7.451801584905787, 15.605409235445597, 74.845918547012047,  4.086997805736295
 4.164262693093160, 17.540960679131132, 83.508500605285903,  4.019771789609769
18.324264368960101, 11.473774985199521, 49.139687723050628,  4.003334017826058
18.942335533355962,  1.326536455820082,  9.777191595232622,  3.768307237485318
17.734781614091652, 13.199138810519285, 78.603765982105401,  3.855328993818785
12.258939050835766, 18.884769219586701, 38.016919270740864,  3.931187564655530
 2.964488545522932,  2.069044454959650, 73.446258131528140,  4.311428388633690
13.201067608384843,  8.666896400329296, 44.396203848067103,  3.850145598903448
 7.707019439614690, 10.395622675199654, 19.125028771732417,  3.691974594464247
 2.411118857779526, 13.834002945356088, 41.226718061841026,  3.845588318478956
 2.358080629028000,  1.774662226326288, 58.169491088278967,  3.698156778185779
14.166142271119986,  5.411699757434390, 27.661115181362916,  3.652192113817227
 9.784148179433293, 16.841069051166183, 116.288324286154307,  4.021634652134626
13.422456115255780,  8.539013746273790, 30.076407132498254,  3.906564659462150
 4.148128299124038, 10.766101501136884, 110.435625355192840,  4.155118205838331
 9.421169103497212, 16.191675312638782,  2.298597682860639,  4.031488538862173
 8.317734619773606, 11.902957063821335, 53.240237148757657,  4.380466637169485
10.529931921605829, 16.153051348029642, 18.707678280909178,  4.398445628119446
 7.734626036304631, 17.310061207257519,  5.672285837401381,  3.818488364242185
 4.735926758057446, 15.639903973186659, 109.822689377532953,  4.233606024804810
15.251625851798327, 16.177061626319109, 37.754779635673771,  3.926821496112914
11.526834667019399, 13.538337089287444, 45.675598271426473,  3.717930188308419
15.111486886209390, 11.897115136233131, 51.264110124774710,  3.685427639787408
18.151894059110756, 17.031441512909822, 77.321644532850001,  4.031013451839335
16.040522165919189, 10.417383891638805, 16.377323053735619,  3.977014435051829
 5.248974287565738,  3.932762752568264, 26.528352753916273,  4.124120795109627
16.921559340990342, 17.578299643432544, 108.705415301389010,  4.034048255853234
 1.338157322893301, 16.060585578711493, 28.220260775624865,  4.039987671395184
 7.024376096485760,  3.746670422798633, 95.296120622478952,  4.046128833545929
 9.043202082731227,  1.320908883448867, 12.085658689195780,  4.293697825941603
 2.321897632941505,  4.126925640461202, 45.710674237960838,  3.829689735627081
 0.760119641508322, 16.454317609912234, 24.235167770457696,  3.967722846780563
 9.102630250286243,  8.120266992421090,  0.880316514898120,  4.018099713728319
12.267751831785361, 11.621188092558871, 28.281438777235600,  3.579185458767600
14.396032562152397, 15.375433969415889, 78.075645383457115,  4.145952276762030
 5.090544388311534, 16.293909813134107, 27.613170691127376,  3.576192117287285
 9.607609915340282, 10.589780202312012, 10.173498529971852,  4.265435383349445
 8.753514812431108,  2.661696343688858, 41.511778331109142,  4.031280826820778
 7.799172466857132,  1.535374898202866,  8.036931150055215,  4.102643264536867
12.219896169934463,  4.158793868411448, 40.269447962378131,  3.908438243460483
 7.590950498168847,  3.216836696799121, 29.813781386243523,  4.036545188778953
 8.987648821516064,  8.606037606445657, 62.494747723712464,  4.031995940006278
 3.360135782000440, 11.622069301099476, 44.471154699986577,  4.147264824188508
15.807652160956927, 18.455404034167728, 55.297939243222459,  3.928159130749020
18.129044027606867, 17.956224973195255, 20.728113967170668,  4.122980545379606
 8.365113051500906,  9.650057176447547, 100.151502736722335,  3.910588925350484
 9.394411857528279,  5.309251598844384, 75.147206928448256,  3.907468550793010
 3.182328699442972, 13.321972397436342, 25.793152990890622,  4.121234169423717
 4.971669835806175,  6.412717997378404, 13.849756437458817,  3.964212652585629
 8.355160270715237, 12.958952601117192, 39.967420249443869,  3.852230710765396
18.066246308019213, 16.377792417097027, 114.607452960426372,  3.787636367584377
 9.809616780353258, 13.316913416627578, 92.369373033756403,  3.936460559102491
17.405440262001107,  3.758422078455010, 45.208479248266769,  3.977569094280162
 1.192356094934448, 15.389767693850063, 14.475930159185298,  4.282718183111896
15.983423689389788, 12.739937695730845,  1.560422119376287,  4.040453205376310
 3.415731255998926,  8.431487044935363, 86.665407690683409,  4.304383590020565
16.916878515738475, 14.650373719967542, 91.716826514890911,  4.403066057602597
 0.447634188192152,  8.610123605958309, 25.266731467909775,  4.032036365365030
 0.260604620690270,  3.603527743709575, 92.598363542598221,  3.624904102636721
 1.067960440912435, 10.275960477308022, 37.127097607096928,  4.101060623673316
 3.544954928595441, 16.610712040704790, 95.163834437301418,  3.840197447757587
16.986575093304122,  0.293895176675303, 104.789905657078322,  3.685434926490313
 8.053824981000512, 15.081061244155542, 46.557233455080492,  4.005879017817628
10.172344086224923, 12.663828344584037, 20.890434778247734,  3.833567869765814
 7.056710523559584,  5.658588090779906, 39.353509481064187,  4.089107211673127
17.130143138495399,  8.536931829367427, 98.224079763525452,  4.001698440530435
13.790797740320503,  4.928453628454401,  8.873243510211163,  3.769984769816241
 3.943089887857471,  4.343460229410503, 31.055846989312677,  3.974378421256564
13.317145735071019,  4.876396902592962, 18.979692171603499,  3.992577493196939
 6.298255539051009,  5.462084593526326,  7.481375965470706,  3.967002487250249
15.737973540201217,  7.300666625149708,  6.370807221363066,  4.146419104717361
10.754630131331959, 12.394488757509997, 24.888080739849421,  3.934416642627664
11.512029285882672,  8.008176449825886, 98.493147252472113,  3.916714839522978
14.161827745881977,  0.958940894911548, 66.459489616995498,  4.218757569071593
 7.332054518914525, 11.734687125352433, 43.541410227941626,  3.848947478319115
 1.448040847142062,  2.232187581947323, 97.062576823531103,  3.661345581672633
 8.764411543852789,  4.820151571910692, 55.396731306500421,  4.533043944274198
 6.692370283252052,  6.909251790850622, 28.664143982811968,  3.735249232140918
15.329607891085930, 13.653213620310041, 62.011293798563905,  4.072564439854056
15.182197284732979,  5.463099284026018, 38.023085913650355,  3.873144485470544
10.290132374581081,  7.525905114769775, 18.799595496279064,  4.040380514202393
10.633773285618384,  9.162352896907933, 112.078217389712975,  4.038705414590281
11.004128823806711,  4.706450468559546, 13.280199357360013,  3.877639140634451
 6.275855920454568,  3.335614159024990, 51.609687045382124,  4.138460495396691
17.264896194521562, 15.026841059803580, 50.703543619105673,  3.988206687674030
16.116397692150532, 15.188329650199504, 58.294773097040967,  4.109289264639511
 0.377362320767334,  6.661606395263585, 47.698025835213478,  3.679727158114848
 6.115163352085477, 11.331950176095066, 87.536007764808204,  3.774170695756598
 2.089617593888748, 14.036980284734371, 103.417766909799624,  4.293253850289397
16.168339540134195,  5.203557210472277, 117.463307922943486,  3.961518211528486
10.170819449269446,  4.242965736788636,  9.578858648858308,  3.722115898153618
14.187315131505354, 14.092246930934275, 94.918599362232882,  3.809273155178154
 2.867913789019776, 13.700379836133678, 48.458909738911657,  4.364865108692225
 8.979531768929514, 17.866170143331839, 40.066128338052209,  4.011669977100999
 7.205780755716222,  7.117435919754577, 21.321496979396169,  3.896839635470161
 7.214623932632648,  3.330316331051344, 108.278520868489210,  4.195788116060000
15.496023568811021,  2.840344225650831, 93.399943009808098,  4.128219743369390
 5.328130246806600,  7.141871802781492, 63.231524968862587,  3.954920637846324
 4.668376800182327,  9.540097443068886, 35.049937984892651,  3.974773251843166
 6.912973513179838, 16.792473931890338,  9.416975167421372,  3.905513736210220
 8.920916664709370, 10.939113690098297, 59.286553292164555,  3.867091336389319
 1.212603148507425,  3.241967285900136, 27.920821230506625,  4.517507221626618
12.609011321770893, 15.414700844833730, 22.462976237311121,  4.150248711258321
14.419321452390042,  8.340970790163977, 101.126851957648341,  3.951174255623821
14.690091457257056,  0.414572364104740,  4.540485172440471,  4.049464723812894
16.380783968402746,  4.065717150075884, 104.838354828761098,  3.902943204226878
 7.692311727423707,  8.106264597819047, 66.340678821776805,  4.087493558802205
16.457095304620260, 10.601275007743611, 71.450846209748690,  3.981276661591764
 8.518230207916876, 16.766114836460947, 67.207268848532664,  4.195098778691345
14.870863900952266,  3.768793041276484, 74.262432192973648,  4.633409217639501
 2.312866282556238, 13.454927085363853, 98.137451635256284,  4.235558459873006
 1.555846075031097,  5.434321446525061, 99.423750316739003,  4.205242966534009
14.748831300730782, 11.114403256098068,  5.095844086716808,  4.115798687283106
 3.728368998688109,  0.201019664005719,  9.013641935264522,  4.061658467893905
 4.710145767683390, 10.779661283510510, 51.082532629567012,  4.283313408221629
 7.891177532632327,  6.442105854228600, 59.261164026561687,  3.968445199745728
11.094058530423647,  2.807039759837787, 106.923014862996553,  3.896174816893924
 0.400487230946685,  3.807480353739931, 19.817513447869100,  3.943438323363600
18.445919441699576, 18.203101710828538, 16.809502241615359,  3.751898074689470
13.866488392092537, 18.060147463424041, 27.365695432838795,  3.879244245214691
 5.243924660622824, 15.117182050356993, 43.757929809640963,  3.852428111928737
17.979706515906319, 18.751894966770539, 90.824041785500654,  4.220887256973346
 2.933616976134264, 15.754307874048019,  1.866998983699624,  4.044706211477399
 1.723193351577549,  9.118991726577576, 107.736201587356959,  3.806158836199751
 3.860994058635920,  7.092271512475727, 10.098915224745495,  3.879668379818931
18.236685209247039, 16.717197234626735, 11.086092424369740,  3.909624751815406
 4.959526173155750, 11.652383018752269,  0.794284367555432,  4.030340089229285
10.857608510169177, 14.661588729853335, 84.311854405415360,  4.046710627369730
13.652720869304069,  1.742796753227495, 70.525735068466716,  4.093180324377246
 7.661087602306859,  8.716705001721744, 109.189186545046695,  4.238244988243681
 8.299013672007099, 12.301296971563053, 112.700767761857279,  3.873915476718902
 3.787433850685736,  9.509212771308267, 66.246866290964178,  4.167337065445685
 2.884113898822955,  5.100858640994431, 52.994791886653296,  3.784571727772576
15.910578536662264,  7.280390587428782, 63.052719817755538,  3.613155722737346
 5.275337905098382,  7.502545457577862, 24.690224348293924,  3.899158903180231
18.340489947564127,  3.658817040629469, 59.497703603354609,  3.798446471085017
14.009383577875203,  8.949661555918928, 35.294607743565621,  4.275430848102556
12.791268750708033, 15.883982550956159, 55.983555538613487,  3.990030231519062
 6.786723096374421,  9.551136699348975,  3.934717375004387,  4.133255474250216
 4.218521563581777, 13.760360328845369,  7.754846855268144,  4.323566841393458
 0.914958228962436, 11.029391746060863, 94.413499440409325,  3.857226658489000
17.277144255069071, 11.141490049448077, 58.302614152599524,  4.171037665440602
 7.025582660646785,  5.392987971842201,  3.115692256306548,  4.125514749935974
11.481455746181940, 11.029455139886087, 37.952690804558912,  4.151283963484211
 2.744963445842575,  8.804229321071981, 103.871747111224380,  4.189297124877580
11.449369986270082,  4.952085896528299, 71.759218673026851,  4.036294527658515
15.751791663055748,  3.518145937666687, 56.336759251409418,  4.355735320970965
12.271109542511830,  5.053519799474531, 101.204528856724934,  3.888733077741473
10.674292295386993, 13.296681300638209, 73.955042632008769,  4.029249976102296
13.906018749926551,  9.315943937403118, 19.629274181307398,  4.106001266484876
 4.600573001217509,  3.251265862592968, 63.350036647365613,  3.962591146013234
 0.134918019668543,  1.065669568214826, 113.556638396176709,  4.067143919926045
 7.155447059847391,  0.136244415293201, 93.785521125554723,  3.775848668463057
16.428973912230575, 14.757371771083935, 74.623259285913988,  3.634612386915041
18.046277208912290,  0.033047834096230, 65.295380948335904,  4.068758448440331
15.712673825836433,  1.486781549304257, 37.804490332773817,  3.655952183703819
 2.552902785689870,  8.547532559980640, 73.155502987806912,  4.132060363519847
11.678880322809093, 17.174178308724731, 87.500727136908409,  4.214598299966890
10.680212203200902,  9.672589444878842, 82.526816862952202,  3.918086208318931
 4.170536551132506,  5.437478311480954, 115.270030650056981,  4.120611426839917
12.332315429893837,  9.352139134537898, 49.914774998663660,  4.002554107560397
16.948859628801188,  9.844880349587454, 11.736060911510828,  4.092953390896598
12.594416602043626, 15.250579065816970, 29.772506815338623,  3.912634958855712
 1.395704646098645, 13.550907887960360, 21.792778183926124,  3.665430220409163
 9.479046592768682,  0.790679318693843, 19.971852587472394,  3.479769017672838
16.893313869176346,  6.032219374041754, 82.025093715122438,  3.926721562175487
 9.936789334689893,  5.804095186696310, 114.435375202410142,  4.282435679786822
 3.473299826146769,  1.687100263175337, 93.706240494286106,  4.170923869361074
 0.362699877636332, 10.849470774727731, 100.952138618868361,  4.342623202770316
16.711281060347723,  6.237297159051989, 53.504982493004746,  3.706764087774172
13.443566238278226, 13.082455940733368, 105.918554795125644,  4.262136240357480
10.942068295660285, 11.177659070596736, 17.207788065993693,  3.875452143638403
 6.819823556639163,  2.349744715397869, 22.954736632386368,  4.289684395752461
 1.728226113359981, 13.265047391350988, 57.257971871419073,  4.091211170501319
 1.594784118696956,  6.255608927789920, 83.612788000964699,  4.027555643413340
11.047945661608100, 13.738273247320066, 97.171244256417140,  3.937899797917145
 4.357328699007886, 18.012828245677159, 103.626154466760042,  3.977666822866089
 2.436635325472865, 10.025750848198145,  8.009882472163868,  3.860911478353984
12.167816907680884, 15.145344959432649, 59.907057868919338,  4.081790117671558
 6.257516731435793,  0.217900935156497, 37.000427375950082,  4.383036606938843
 2.231421435584527,  1.935830691333599, 90.012686057531610,  3.631835718988655
 4.064366960853646,  8.961525154087525, 19.436692528294639,  4.140087309538303
 7.411420817021323, 13.789067583702458, 17.238901412266799,  3.955877738874602
 0.711723460930675,  5.221149827754714, 79.184131918580206,  4.175264526226677
10.517379169779973,  5.998941054991369, 28.933409461476888,  4.138943798279075
17.297016656640714,  5.187420930064657, 25.491566729964774,  3.950417398104532
 4.911525835909182,  6.874240742238568, 69.931791124646807,  3.982072688524535
 3.179674750905251,  2.241378297417871, 77.679579805036056,  4.104924031145734
16.618545522145830,  6.939150338540704, 76.796320248132233,  4.189396763482040
 4.980497239264634,  2.724501082130967, 69.871509383994635,  3.972370677363187
 7.051210721650001, 13.677766243083171, 116.336027581231562,  4.229676376361430
11.306057955965127,  7.044766078888506,  3.881994311591725,  3.639753865910785
 3.242278643956346,  0.098339490207761, 45.104597809915568,  4.379093042413457
 8.837794155178594,  9.115986965649087, 40.343477554745029,  3.924230483618987
 4.020279555636876,  4.775542110876160, 102.956869100825230,  4.202248988560541
 1.373328088384984,  4.729662411596793, 70.361877405672047,  4.319067669775823
14.560780760384583,  5.029442901744777, 60.150979212070688,  4.183717343011390
 2.201732774007893, 13.102832150929597, 107.575229969263376,  4.184303364324063
 0.404520904202515,  2.126312985925356, 54.744516124597922,  3.961491064042864
 9.824832075060472,  2.085139562276950, 101.442081924073520,  3.787015970485618
13.317103976967877,  1.699931895366903, 21.309687076697880,  3.871552245260232
 5.917012649069844, 10.553887910961764, 27.347325506272320,  4.135081097445495
 7.622560756927478, 14.469003725244740, 60.618455039813959,  3.909865081654058
 5.508345086608339,  4.027064128382891, 99.101215187046620,  4.146301603777019
 3.092703250506587,  9.629152367657182, 55.139410052951916,  4.415913920314575
 2.052781386854964,  9.098030195358609, 97.601248729331985,  3.927784272531591
17.386942727967437,  0.323541163900126,  0.126811886019516,  3.654236820493029
 1.830224262346463,  8.117266563504733, 112.705986350464570,  4.048193290521567
10.194836401127610,  1.178483641154194, 65.393801906960917,  3.992424352083904
 0.096269581259757,  0.923244493434236, 79.786525450247751,  3.677988524791237
14.209437834428501, 11.628400497096894, 22.993834675011094,  4.062739126397557
14.659647785669486, 12.291515475047190, 68.216734950947171,  4.131808705586613
 6.015798921707246, 18.356679751911511,  2.279476964487749,  4.018340041536427
 5.065568364066796,  2.261385576502827,  5.040228774592562,  4.062458273820008
17.886000511569343,  7.487289643035266, 35.138552245052182,  3.967110131663041
 4.702777811703370,  2.714295059448138, 118.127232206059134,  3.822549138489157
17.188150907385147, 16.906970162903800, 81.092393932191882,  3.690134589802240
16.062555166551093, 11.805515003938305, 28.757511625407627,  4.041379631834583
15.834021489226231,  2.937558993122813, 48.732128738393790,  3.747608413829854
 6.986897379587510,  3.927279013063682, 78.196104475689665,  4.279830673718604
12.339937180549841,  1.032352167006014, 17.540807834049776,  3.970631348288156
15.748946996059368, 13.845793511923528,  9.439925221376731,  4.151264890954545
 2.915861779766627, 13.185170753178177, 35.062704884061048,  3.797098085514011
13.969478081497853, 17.245655942753007, 63.308034544318289,  4.011511895100861
 4.610617446459294,  2.390449681469805, 48.103554160516019,  3.634200933862888
12.353574993631728,  2.970211320084863, 96.060414759363127,  4.086158447857488
14.327978539039149,  2.132334600018954, 52.543521794966082,  4.195018456550938
17.553220762979592, 14.071779997273110, 17.659253444090020,  4.319209301374477
 6.315735053879700,  9.438379731036894,  8.094835880504572,  3.818840295521774
 1.317822003349508,  5.643665570884802, 105.753200389180364,  3.689628321359814
 1.701326250302040,  2.028512477191863, 83.364870855181493,  4.422723359028672
 4.394385437562847,  9.150904273151514, 30.879748291600183,  4.049935283824199
18.704679258008472,  3.616508844619865, 15.428136712775272,  4.095114690487115
 6.328165169912772,  7.727800871652081, 45.582143943407587,  4.509413636182393
 1.779872479973312, 18.401482358774288, 116.830054326846877,  3.901145097254929
 1.201926629378469, 13.998397015062872, 75.478626636957998,  4.101573393309168
16.203325991495234,  4.141995555503124, 21.956985717683796,  3.704828139326680
 2.551224952951247,  1.497053870718654, 51.336623868712579,  4.151116860740744
 1.470338073953671, 10.150708364081764, 83.003730128117184,  3.854810704335822
 5.651041135681321, 11.144373111268839, 62.106055417696261,  4.373062673897270
14.174378685614506, 10.456963566798391, 64.531258433470029,  4.156630788731719
 2.677507028334171,  5.989947005560827, 34.589609861176513,  4.162921898805509
16.013261997174155, 17.307543579658777, 87.267947920349400,  4.134784363976857
11.794928939494181,  2.864257832348010, 116.674425483562075,  3.986149611012282
 7.517896607653174, 16.734153498749961, 78.763399103595887,  4.057695935601790
16.208949456455368,  1.209936641101093, 83.616466477830812,  4.545525825204639
 7.164628377433345, 13.953796127364702, 25.498779785888150,  3.961782441531207
10.452253167587221, 16.822939531492839, 99.612651400963472,  3.969728782361990
17.980434124162880, 18.810956692607444, 58.608786397475484,  4.022657924776063
17.637573164804284, 14.553691554565512, 41.932098735519190,  3.872975178726811
 1.991373385984484,  4.188070979996990, 12.061963071370680,  4.046578280289008
 6.440917407194206, 17.450554483127011, 19.449611747363143,  4.169143951073275
 8.945830949745046, 12.196239345404265, 13.895015648536740,  3.946327624271154
14.870808013400113,  0.084085630790846, 76.433842988614430,  3.859917920841788
 8.607748958877217,  1.105415308380272, 114.008604642194527,  4.054110867554443
 7.363123692014890, 16.268168764417311, 113.082713957184382,  4.075123390327215
 6.009161589831526, 16.552958263087138, 57.049154106188368,  4.021213126538501
 3.652936416883930, 14.562700032781180, 60.651892374258523,  4.029518861927017
 2.301023979356688, 13.437428829103398, 91.519812950486994,  4.134156091268425
11.649905023303726, 15.485101842072643, 103.109411989688226,  3.891495461622017
11.443977266004589,  6.359455795962341, 47.215105946047615,  4.228116840426134
10.035599158703693, 16.774387245120590, 71.840865173086669,  4.166792319607184
 2.716199619457709,  8.671260237662574,  1.921873255864546,  3.747555540457307
 9.608554799609962, 10.461325241391931, 89.815818261696748,  3.719670211524158
14.402344150561438, 17.429389233575769, 19.587692541761282,  3.734284868460649
 7.530492027225837, 12.807895207969507, 108.905267359029807,  3.930751415234967
12.415408599357487, 13.786010553389994,  3.225632446797954,  3.818458498688830
 4.713912864366415, 18.371215263428134, 60.372373584242595,  3.893101850165672
10.871256573901585, 17.353431044103196,  9.776699076361286,  3.906268105518317
17.937907396782961, 14.741435920225832, 100.537282576683523,  3.949142077061952
 9.275011724362729, 18.257510177531532, 34.167912319585767,  4.043145261768633
 8.166635394392349,  4.507329061277709, 64.617294604975939,  3.947796203278407
15.058211781780043,  5.412389805221146, 70.327771302295915,  3.764039704215725
13.231997341555282,  1.783321754889308, 103.579595874177670,  4.252438204218810
 2.069132837826903, 16.387981141037947, 63.773051338646205,  3.864819329273917
14.097298666325516, 14.247182997079928, 26.136654808269029,  4.106505034491067
18.793868135727468, 14.011037162020497, 38.186055308971852,  4.036429769083471
 2.302202328197220, 12.724180686742182, 80.209064043979282,  3.921212855431510
 7.097073021250853, 11.764313686039184, 67.899469175195804,  3.943884513571050
 5.253520654964833, 10.665829917754102, 106.546568673491663,  3.886652698389858
 2.262904986414061,  0.956293376364599, 34.774310065514378,  4.260622500264275
18.432982957601336,  6.360395830959375,  1.868842198825558,  3.712244428021958
14.855765781481830,  2.062761570117113, 24.933780026007021,  4.018662957242109
17.142657784676267,  9.046225545386788, 114.369109275026560,  4.148361119169567
16.442312611519480,  7.507425610284302, 110.589325870662051,  4.097048671552328
 6.534610514897842,  7.874926450474714, 89.629120159975074,  4.298990319459050
 9.491590911339332,  4.583195517535705, 98.428888540274627,  4.006125240782861
 6.867269767864626, 16.308715456723856, 97.021577026929833,  3.789658204286727
16.698490003083535, 13.160925278001356, 87.156014843780113,  4.220052470985884
 9.145971087050135, 13.020770765258417, 80.964503282396620,  4.082411634762660
16.187985697633081,  2.626543347147739, 29.428713149440121,  4.075114129094954
10.184548267851365,  5.932667904419651, 88.998747206924108,  3.598073220415824
 7.409370142027109,  6.750158345018336, 32.608350026622382,  4.246170877239066
 8.928940835374183, 14.114737195285414, 88.421547429233527,  4.212835323119961
14.749895464581195, 11.085761363610688, 47.148748829827696,  4.093106432783586
 8.261717744210621, 17.530019050550969, 82.794015376293629,  4.251476678421127
 4.892428323307788,  8.868376979838263, 58.813864015835243,  3.750302499738190
11.086024244919860, 12.085224003103820, 62.370450080059541,  4.003836256137220
12.767833640086993,  8.417364407848547, 61.377833526300755,  3.839356893775631
 7.524685653616588,  3.737557936680288, 82.198930320887072,  3.799382813116946
 8.300062693378594,  8.447685307522997, 49.458987121596415,  4.230817728272251
 1.797812027694446,  0.286493831839998, 13.063490354239832,  4.011512842187373
 0.767115218923261,  7.475165476058767, 93.152432817998204,  3.652708778288846
12.195780952076699,  2.494484371258585, 112.670130145038712,  4.069268058511065
15.579033075718497,  5.738763004601935, 32.183757857158412,  4.295994756157254
15.033860653170587, 12.608401617907830, 55.128270658829450,  4.125868759723213
13.810741770396149,  7.816003711491205, 73.238584295402731,  3.949917153282074
17.021050686413787, 18.910480121045783, 69.165759296411352,  3.899141160852001
14.728044496180043, 16.070173766498524, 44.113365804275233,  3.984537317062314
 7.968583859368213,  8.026164183500358, 77.873660852968840,  4.173716975432413
 0.578150852158784,  8.762181079063499, 69.624280484753285,  3.970235761417416
18.749754475702897,  1.745941917701922, 23.756871955216187,  4.132400742090278
16.815987409587336,  6.662999016190773, 19.054199013006915,  3.823068339395669
 6.157574969440464, 14.136985490593737,  3.827688773019147,  4.157303411210443
 4.496729727209677,  6.651802958088332, 110.435024824175102,  3.476430217649704
12.014956167972814, 13.787585966935451, 52.613696515358924,  4.005100312524770
 7.966946188337627,  3.143493429204064, 72.289394340538820,  3.693996860427747
15.461425024506916, 17.884882381868781, 93.780577575310502,  3.696450684829483
15.843142977248133, 17.243139315649866, 24.074664132866420,  3.912370483131662
 2.386924066588075,  2.188525161744514, 66.679841464897976,  4.273112057827165
18.238546715181716, 10.379289458170510, 75.111805101128397,  4.100976742410278
 1.104402696730786,  1.057686548807644,  6.019333031503378,  4.078085287615727
 3.045526827987630, 14.517157576372961, 116.538052091884154,  3.945761537593818
 7.548634011341345,  8.229239301055241, 85.802081769717688,  3.618191428926862
12.510942499583697, 13.435475327440773,  7.286854183245658,  3.644369318750211
14.048451908828282, 10.038900093644015, 88.477154015089951,  3.399916553839546
13.916342289802948, 18.730648238665513, 58.866245445776322,  4.120872912373557
18.365789632754947, 15.582981671211238, 118.403139403998395,  3.972544239239227
 2.047489846636527, 16.318128232925869, 51.787204384665394,  4.195045480824022
15.610972639597527, 16.036817329240780, 66.789530732443197,  4.048176891192778
12.116915339476428,  4.377576508455073, 67.766107846270089,  4.130936155370799
13.569336305375327,  0.889518341504310, 109.265140179370050,  3.917665810695531
14.015747224240485, 11.048204014167169, 98.210446721367887,  3.966671572701285
 0.616845015540343, 17.714648480239447, 102.479027333527554,  3.843290229198881
 9.487340358424099,  1.122551020645822,  3.454556572729002,  4.077377731170465
 8.980934680826328,  5.133760521234707, 25.217516788133057,  4.026861279136142
11.552172964041237, 11.644864750569653, 42.131769737056828,  4.283618366259958
 3.721488774983873,  0.240572937307861, 29.689842008701440,  4.067625459054201
 4.637458809310665, 13.975717878909970, 54.134413714831389,  4.199545244245727
 2.551612116314730,  9.681903408347003, 47.817334066109389,  3.751226015325956
14.428289248200986,  4.704454680286273, 108.335183664649875,  4.091951784960021
18.267771584248912, 13.576324295803847, 82.489298983948629,  3.776547958655333
18.207217560266475,  9.773079698822770, 45.554087287202208,  3.917666317552279
 6.040820409034134,  0.430235833799708, 111.014781401685028,  3.841297517155898
 1.333799093145492,  1.046404558129870, 61.944511888165216,  4.244015829551846
18.745337270178364,  4.411254237591571, 50.775911904355787,  3.952532537411440
 5.728860907662610,  3.510710838641125, 10.851050347077486,  3.901293534757569
 9.553598949480719,  1.822638462735941, 84.762112547760694,  3.761400916913916
 8.632549599546914, 15.845802094160407, 22.413216799569152,  3.843192427710235
 4.616143423468232, 17.428481478527431, 48.576098953108868,  3.758919271033054
 5.613306768233464, 12.492743529254410, 57.806380069978083,  3.895279025596002
 4.412352301564024, 14.412719578223070, 66.409422702874039,  4.161690046023741
 0.034619076617487,  5.984054823729999, 39.654618376155689,  4.460750993120779
 0.414649129282109,  1.786116423686559, 48.002454031475672,  3.731808869644772
 4.734561357611686,  5.906978170568198, 56.328599644252058,  3.987933432472425
16.511293954550197,  9.726976984742628, 32.156361695855509,  3.890802067780503
12.269531691514310, 17.125796921375024, 68.593840406780458,  3.746927649051714
15.386360611650169,  7.672426750330253, 57.059401387499371,  4.104195405799026
14.434446623092249, 16.786721626432616, 11.794587531948496,  3.825817280668581
 2.428375563451556, 15.995400487237747, 18.684009411052962,  4.494516536526204
 9.760358207481820,  0.742513644871562, 110.045509462304494,  3.859721327258759
15.806394050985487, 13.501370307469340, 116.173599257664435,  3.820945963234764
 9.355010060428272,  3.238003237357468, 33.392779570016948,  3.935261684732939
 4.712675937251886, 11.870951836287857, 38.494396721706330,  4.301131871195935
10.537474110238271, 15.118113618584129, 37.270318205800613,  4.284071252400507
14.265033199076283, 11.538910875871473, 74.776628616614119,  4.123061864528075
17.051282717025487, 14.377592932507891, 46.828272038466856,  3.842218150098339
10.642353386616984, 14.510724794359104, 77.600911644275243,  3.595145958064613
 2.813019684830593,  3.675589294465397, 111.896494192935194,  3.878780552155837
15.515820538145853, 11.562061093215327, 43.215972596998263,  3.891515667595405
 9.578716225450089,  2.889108560341146, 37.501175057676051,  4.115480145028474
 1.794962519042667,  0.120318015962193, 70.092051392752012,  3.787188294621144
16.729457393981296,  0.569074810418167, 13.533520430055399,  4.090779721708972
 1.046838804720436, 16.351139252751874, 67.517330973426070,  3.841019253542158
16.480439004546042,  9.085971793334492, 118.407336756390123,  4.015799495695132
17.722347977975534,  2.741979401502716,  3.124014812368543,  4.072877015434285
 9.663147923032135,  4.245131693943781,  5.848797728453991,  3.796819993683370
 5.919046358110885, 18.087582368171670, 52.427852328298464,  4.352559498839820
 1.798321872670017, 10.530008681281123, 60.201963918151272,  3.801413565254043
13.930221436075117, 16.995708869011345, 116.044565351577120,  3.919204360976000
16.850605587288051,  7.025509800618615, 14.599494556754724,  3.838944698405472
14.945864178321612, 10.294817039475427, 108.262808486285621,  3.586373674406580
18.149425301242434,  5.237185531522586, 95.976188487925086,  4.151470509856694
11.981616762631447,  3.143320765435610, 77.434978538123559,  3.885409227010690
 4.318359981081549,  6.703306212025461, 77.214387556167921,  3.665868802897274
 5.829719477231206,  0.809264380760156, 90.233464322507345,  3.892312534784580
16.646713109174613, 16.336861800789169, 97.122396844693782,  4.000845009813819
13.704374867317407, 10.075931664315025,  9.032387451851271,  4.274045030887200
 6.138870928221355,  7.250731369639741, 52.785305590273779,  4.024133982911982
10.987825455582296, 18.262975043725184, 77.465922432979966,  3.925581894892733
 9.104437391666718, 17.662330049492912, 90.729752001157948,  3.856944378229335
10.006833427087173, 16.740462178674136, 49.866974717553340,  4.205220716372458
 9.053129106977671,  0.761778349468924, 97.180822075854010,  4.081220175845648
10.384802320592778, 10.315019874221129, 33.748575456149624,  4.007332458716085
 9.886941072292085, 10.429945542823614, 106.177675983443450,  3.945841702695539
17.705644720197622, 18.784810106441082, 27.090645559125527,  3.799670684965731
 5.485100020408826,  8.035044161234001, 117.931297112453763,  3.746289641083666
 9.502337106943928,  8.940717259695141, 26.345652445993299,  3.940439478635885
10.406814101197726,  0.232381502597309, 23.631669403090783,  4.098003009354917
11.914771561984615, 14.380408889095085, 15.222814303935918,  3.878380502262254
14.920548195874506, 15.258837028992819, 83.836119505585515,  4.150846209672051
16.460613183139529,  1.158569634859962, 33.999290194429300,  3.674401241903021
11.530841120418078,  7.097557520552772, 57.914773713386509,  3.876323447393683
 4.429768047807145,  9.018490228387867, 94.335438764256409,  4.095868421932649
 5.004176450011378, 12.922984185398500, 20.399342585006526,  4.127458088460298
 9.602545850818512, 15.075292557521159, 42.876503051739071,  3.736895530764235
 4.824581599172210,  1.083009891168436, 41.091037465607961,  4.449109812988596
17.933966414390046, 12.631223776528847, 24.975203332073789,  4.536256809465094
 3.092297880969900,  3.568326424349112, 38.022903809150776,  3.949065951252163
12.458405447221491,  6.727050683232394, 117.607189466021595,  4.024187055149531
15.772969837005743, 18.268884416583159, 101.097485243170979,  4.315529919106746
 9.818838790179614,  6.332555796164042, 43.231043495088080,  4.318022377177085
 3.229422503249044, 10.449244609649226, 76.708425685652088,  4.026259419551250
 1.879258379247610, 12.325611070259310, 63.797532860303839,  4.197525882166440
13.470429199289123, 14.634314780255213, 71.334076605168818,  3.977135176269073
15.501060621047598, 12.066009337996036, 102.352209017247560,  4.138355371262382
 1.400305931801214,  8.055700653566772, 13.090119378619006,  4.039366758332982
 6.184411218561552, 18.520000752984085, 72.182006220960062,  4.204726050208753
 6.221687386104700,  4.208079507645505, 35.637210254906762,  3.993697838429925
 0.692775452028866,  8.598789929164733, 17.081780658088764,  4.088679428722156
 7.942639935665821,  1.466394651147036, 62.039659693577065,  3.991989190429108
 3.292935607543872,  5.324646249946031, 95.668892083281847,  4.060434660243605
11.626134702160480,  7.352468538133944, 65.144444681104048,  3.850714073360136
 7.938741435459423,  0.707567249513336, 55.600291565851371,  3.789461632756086
 1.599146621791727,  1.888817111949973, 104.721421361249668,  4.102978788540995
 8.529696671720590, 13.617802962654913,  7.329382552316495,  4.310409079474790
13.035061383305150,  1.758551586665547, 99.633426416764536,  3.566038536731354
 7.865995651270085, 16.301278206425962, 102.588801743924591,  3.906725376693993
 4.721926822977347, 13.465740106912605, 113.172028577604877,  3.592761478607158
14.927984093501443,  6.445620104027301, 88.695744737865212,  3.905558104019213
 9.045668316677595,  9.465205293500038, 30.181553772677866,  3.721639280938223
16.059246443291340,  2.935447606966894, 111.599673944320941,  3.994277454701146
 7.388653782847640,  7.643602067169613, 81.895751274443654,  3.912319179930803
 0.156699260019988, 18.466740807453430, 94.732335538787225,  3.933004405820845
 9.331743960900198, 10.265240332796512, 115.969742215050573,  3.931260904500530
10.341674978278382,  5.579162462063302, 80.162537696985666,  4.034144416328552
 7.661696991700191,  4.204409181795354, 91.324722538388002,  4.034087110906841
10.213890426053638,  8.120402865704873, 53.085302044605790,  3.994594875581749
18.435106123999393,  5.075544456016219, 114.111259629077068,  4.124492456503530
11.154372343774069,  1.348685425244587, 73.862547924830167,  4.268428497045125
12.516050131965921,  3.162927947878398, 31.021127964418127,  3.926334015000638
