BANDS
8 8
NANOPARTICLES
cell(1), 18.958
cell(2), 18.958
cell(3), 118.490
18.380582273394833, 10.168548290602013, 41.685297139806181,  3.886616338611893
15.136244605472710,  3.101960986642010, 30.719104104803467,  4.102664053581910
 0.673981126056659,  2.483699748161405, 88.379254300568547,  4.296424335693266
12.198954460355928, 18.563237115745107, 96.507776551950599,  4.051782029257452
14.555374399978588,  2.821788319016331, 73.809947957109003,  3.979528606325850
 5.126928630694467, 15.237800681156829, 46.409289660011886,  3.920976879834877
 0.690850806677473,  6.643879676325978, 85.025014757672807,  3.885969287832884
 2.785036721204948, 14.450147086404831, 16.431332728638402,  3.762816618314800
 6.759532872501059, 10.915243156772421, 65.017640296350990,  4.080193459505795
 3.410121635956954, 10.622009944340249, 111.387177394714428,  3.990389510619734
12.998956266264502,  7.143118796587187, 109.728908838661724,  4.351096717505912
12.674801283315489,  0.286547881010860, 47.594861108897717,  4.008001106604583
 6.527281036104192,  3.883188759232902, 31.690332458202548,  3.986584403501230
 3.742081859483905, 10.144848593147911, 48.467853355553757,  3.884929005374899
17.145569794704038,  7.535451325690686, 44.624625419758701,  4.146601109287202
 5.301041044845985,  9.178339136662197, 97.889119448537727,  3.823012661428462
 4.643730652753837,  1.889114825658397, 98.726152766832854,  4.021996392843618
 9.614168354577592,  7.537234619180171, 112.079412509312078,  3.919003571941315
 5.513476788890308,  2.690601771052828,  3.775514910217002,  4.272482462790046
 8.170595054029620,  8.157437562657007, 81.659101483139878,  3.887711703623181
17.865427853142080, 17.180379555476161, 79.038214265444495,  3.823263796432061
10.939383464276551,  9.786066610882910, 65.501558873502901,  3.682449867860651
 6.511328870412087, 16.773416918506776, 31.027758175841743,  4.019718609928572
 6.367961152022805, 13.800542065160149,  2.808715190014851,  4.077078678553750
 5.442400554603991, 14.854944684213834, 71.636086439347537,  4.389242991097262
 2.215070190355758, 18.269912842621164, 17.759558941090013,  4.404020019045873
13.572319099687384, 11.914601035654824,  0.862915450513662,  4.004014162885280
 4.368188743451888, 13.810846117102573, 29.278817114190630,  3.966607710684839
16.377537720810334,  1.175910514057067, 27.468017266533934,  3.838075953818004
 0.273927243267159, 10.755687128607098, 59.780119025215065,  4.328463826259260
13.148028938940069,  4.942416006715757, 46.356565273740976,  4.206542604340811
 7.598248138634628, 10.436562354235216, 10.083222898443529,  3.951004146526937
14.023251061399803, 16.677982875315902, 80.120378375939566,  4.183532549378379
 8.528905021312116, 13.176499807577228, 75.137510841760786,  4.287175020548184
 6.225209684079880,  0.572199111586526, 90.934825991678096,  3.867385583336217
 4.095662567475505,  9.931671611948714,  7.715592749991604,  4.506468920087461
17.951150801504941,  2.067075548422715, 61.460170260888376,  4.214045993639755
13.832456115303165, 14.485047752904224, 110.789732990959678,  4.298074301574441
 1.218886108220147, 12.448449126736952, 106.269848928489623,  3.925221808003111
10.176605844842639, 12.331440571372838, 49.852581394380813,  3.888820759059266
10.684885664388212, 12.804511529230959, 14.654226891209403,  4.007501142521504
 1.075460357733073,  8.810332731887414, 103.645813594996000,  4.580032644599045
15.514548877704838,  9.893016626781753, 50.958673996009082,  3.869201520035991
 8.240272190490362,  3.873302656043266, 113.163987481984478,  4.061869127024748
 7.179343934085265, 17.722471955950571, 112.954474538226904,  3.891344797361160
17.244606518596303,  9.728622376456929,  1.412252787437308,  4.122922048238684
 9.034647174611120, 18.512023306601989, 93.746103076035936,  4.337103778046068
14.235523008565275,  0.350603815447112, 116.792732366817958,  3.911349399812137
11.450154931853243,  1.999176318852826, 99.975013072842557,  4.050378090324966
11.471570197022503,  8.470610331750898, 50.077541501023376,  4.263130904209213
13.166950248422300,  8.159706908237402, 114.201314841399821,  4.333974744048004
 5.497016173652192,  6.602759210295033,  5.378668704413023,  4.022589810943908
10.269279517783179, 16.761848314258842, 58.249366997498647,  4.003407155172206
 1.233086732607873,  5.993327170089218, 29.719594256374261,  4.214086859074284
17.718931945913898,  9.092442017014500, 16.345612444207479,  3.945770696307466
 8.506812722520763, 14.449719373351231, 92.997109852335768,  3.868901903238716
16.488715680890664,  0.952309406780292, 23.299416533618881,  4.396337118427091
10.154138222077041,  2.743262525938970, 53.415194074679981,  3.910784722538117
17.916770397032540, 13.095208446266891, 15.707526454440158,  3.814723528653805
 4.973075425822512, 16.020659629251558, 93.227632096138578,  3.864407361691788
12.605882182490657,  3.773889134056213,  3.548991341033178,  4.150316619468743
 5.099153185405642,  8.390119930163602, 105.154278045238101,  4.054085661508444
 2.986730499992170,  8.462822745165173, 72.189146395130109,  3.619026474073488
18.847647131242759, 16.051189418242892, 50.528164944335487,  3.295421147946675
12.371132519721661,  0.683693301108544, 64.854635140790307,  3.868904636392695
13.860817675788406,  3.160317681977509, 97.091573231452799,  3.765123363136699
18.289280216490596,  4.024222146506149, 46.286803519751679,  3.952066611904034
15.839893261245408,  1.091429241069412, 45.387927175452241,  3.869512142921423
18.527111145931080, 15.173911039463050, 104.111130268988560,  3.770341946636357
11.892107487507014,  1.118392248857808, 10.705084366914473,  3.807068945415350
 4.950973592173920,  7.028574894063046, 51.708484495102148,  4.162561516253652
13.920115015405885,  6.790763584437379, 81.383780871942150,  3.888359579869334
11.844582620474284,  9.116691032188923, 91.662067107373673,  3.889809208543191
 9.013676126042826,  5.025100072583765, 10.732975975135073,  3.744404860504192
14.843610795931770,  7.874237733262335, 57.363433313050813,  3.826985340539671
 9.438724513108610, 13.923928058025632, 45.128502912060313,  4.006272946438700
 7.715807671760383,  9.858205430455740, 35.233143495906596,  4.174097631997584
16.807503643726001, 16.279697599381947, 37.264757733951306,  3.942598232195600
 9.854275359095450,  8.210743906859422, 107.062803810662373,  4.152104311980480
 6.751314784366262, 17.092996674542388, 60.287648124250474,  4.096764120196940
 1.835472306312258,  5.185485387416819, 105.969532059154801,  4.102466251059158
16.722040759717821, 13.466075626031140, 40.135140208005460,  3.886742603075186
18.567916172613039,  7.358361715626741, 57.762649446509734,  3.682075396357106
15.577340301229290,  2.818005202847600, 49.101037560912260,  4.209519096420164
 1.105882661109108, 10.807382996278761, 25.592668622142824,  3.996633431354314
 2.685132704241792,  1.997205264214883, 109.321102933345941,  3.927960961402342
 1.619691830654270, 12.600344722117081, 38.614682389536313,  3.859149526007014
 5.769572225114417,  5.774126912655780, 72.579194045936191,  4.020056330538726
 4.085158317128805,  0.567438088451188, 24.488999838967626,  4.529891165014607
 6.120679007759732, 10.766433843824839, 72.665891971311822,  4.111670248202666
16.761590245619608, 15.753496171567944, 22.888952541438371,  3.968433088681558
11.478501540928498, 11.093850660447218,  8.106218767918060,  4.206658672176174
 8.858326772220186,  4.815781292789887,  4.487766716145309,  3.772049352755277
12.384048692095545,  4.540326333999226, 38.363859883199815,  3.894149026394189
 4.584157191176937,  1.447249580147993, 87.474177834729971,  3.987797733564763
 2.342356355943684, 10.786294749247821, 99.975190469028149,  4.089230298916496
14.612012746993720,  9.662426814837504, 75.956391068608497,  3.973232863887603
18.862432780946833,  3.410934162923418, 20.949206159147383,  3.867549863128680
18.746509989690487, 12.924170326970467, 117.786731803867980,  3.973803408111698
15.517308632140695, 16.061950011360050, 52.165774735094423,  4.087224626562507
16.510196104450852,  0.532972836882131, 86.493673903322971,  3.964894638373138
10.197812125533018,  9.916208563488571,  0.098266395973623,  3.981989348738556
 8.286248287504995,  6.186322310564122, 78.367723011279296,  3.788579829227900
 7.252602041295409, 16.613616978235676, 43.539294366367329,  3.596505507801012
12.056107144130273,  0.799698459608574, 56.276632384449321,  3.877098881148712
 4.780686176100703, 17.932124804463871, 49.336622679658355,  4.024652176021839
 0.498456310410324,  1.558036587326983, 98.649826731588746,  4.041234696955599
16.281414699307824, 17.759393034855201, 48.570582327075698,  4.005019967228359
12.673229591306566,  0.072967379554551, 51.774029723930333,  4.047041439384822
11.683930043885621, 13.437821527253057, 60.139750269825960,  3.653692457529151
 9.939005794996485, 17.073282830247134, 66.552591080752237,  3.972562364795128
15.562962993938458, 12.984743443094294,  8.231621625828508,  3.987557314573813
14.139466938376756, 14.716313851874000, 88.112492010955762,  4.352404987158097
17.416660544874730,  2.617604352900432, 76.590220863996677,  3.772321540333970
16.404132027015184, 13.612828356160360, 48.814625053729749,  4.269613162928474
 4.229287937632773, 12.265991339832670, 103.445152758847016,  4.335884472792181
10.557618798671076,  7.484407240979011, 19.595412994047336,  4.308718816199953
 4.457296708341745,  7.268859688205622, 90.768300387386887,  4.017122924698688
16.360621149095522, 13.463486109700691, 29.119194604453952,  3.689019011914844
 6.216540895226303,  4.265866679987550, 25.264628915997214,  4.092711834106367
10.778563764195654,  4.213987187804055, 80.991145083738431,  4.264316327117331
14.858220491316954, 10.954277919960328, 14.395514475232805,  3.902186674230828
16.490899610717129, 10.712384557028511, 32.024436355222178,  4.315283382396689
17.959561748283903, 16.494842349995928, 88.842765989133795,  4.139783432167042
15.404672047632586, 18.264400821097983, 71.814612681143558,  4.237177927249431
12.677810094411635,  4.786150290395431, 70.576718793155834,  4.447153257632036
 0.192907668262133,  1.940709393105131, 30.333955559535681,  4.230628099011322
 1.226071959232378, 17.634071137985732, 21.869217253697606,  4.059413634133518
12.418170062665666, 15.638399474932088, 49.475717600495699,  4.106814044715906
 3.310647928434811, 10.113737894517788, 62.834395605079372,  3.860543822070366
15.703959948680151,  0.875750226348766, 10.087138664819172,  3.885781394189915
 6.875540219479165, 14.013650764603236, 15.705636402873397,  3.920685634914621
 8.515811561039175,  7.318320064811856, 32.139321671647046,  3.957503722565454
11.167501746871054, 13.267433108004541, 35.221825982749358,  4.042784635305177
 0.010669966889085, 17.046129409041505, 54.060887220250265,  3.976515323474641
18.111071919275446,  9.694650755312894, 70.984433774613862,  4.487173604329048
10.341489323775638, 17.187138348736408, 89.944896907932872,  4.061695157259140
 2.109343088685355,  6.340349471092298, 48.550401531733286,  4.393926304144980
 2.988699150378409, 16.057388878975342,  3.108588089918721,  4.056706287630973
 5.171786360531905,  0.549642312898510, 45.400511398649876,  4.376538485775748
18.813239436218115,  2.813230188279815, 73.032077110577177,  3.878521650132632
11.750352482370566,  8.108303418049349, 40.027497802038944,  3.762660545433548
15.914136142841826, 14.761564055015381, 91.989321575776600,  4.116470588485421
 6.392135185776287, 17.259596635021868, 85.342473003762223,  4.282966967183244
18.454213909698609,  2.464709535185722, 17.105691659669731,  3.978798158207411
 8.103281280611625,  7.177608289914180, 38.542518244751506,  4.233211822036974
11.631481944275878,  4.395203906614854, 106.851616632831849,  4.059848400686976
 7.012678024171889, 15.240897252268972, 26.564840090285799,  4.098874110764100
15.959870972785414,  6.715314551612440, 68.633718478279846,  3.843674806960340
10.964541961788237,  1.129113474049372, 74.133121225095422,  3.975196429774294
 0.030915977406687, 14.106699303417621, 43.318841761336792,  3.935205670731488
13.137973775278285,  6.411051836247055, 74.359409172118703,  3.806102382141741
 2.260537120933815,  5.494349163061288, 74.180875365542107,  3.668772104130101
 6.594395210748852, 12.195150488084876, 68.742411509159254,  3.789275031517219
 6.313879402654829,  8.636509659690550, 117.986541413981371,  4.281128873108194
13.511926570127544,  0.433878638472584, 20.360208263028873,  3.995390155825433
 8.940730647623031, 17.999223739730191, 54.515543652910026,  4.087925398144209
 5.844882760592853, 13.465822008879632, 86.250962701021905,  3.590819839602590
16.809594199969194,  8.779409054846127, 95.736763001506546,  3.869254712144061
15.473931464156259, 11.607728622026752, 58.318478525014704,  3.818414206600189
11.098631748714299, 10.110531091212364, 87.790160489753390,  4.176489535482904
 1.390806018039663, 15.249283273784631, 114.155543643135530,  3.685518040824097
 1.740350512393282,  6.525294760772010,  8.263583565881714,  3.834440447663426
 4.797333696889314,  7.970090152242468, 31.993789150910409,  3.587179350358844
 4.314194301376278,  3.942422649047210, 102.880297247793521,  4.018514151659693
16.556241794091839,  6.024947810136736, 72.477472657188017,  4.022586587706399
17.378352662383229, 14.879554102614296, 33.240460018371984,  4.113938934176727
 3.399174533690400,  0.886371251563804, 59.771296431932782,  4.303723161296352
 0.068339714117684,  6.049874597326474,  1.535002121718086,  4.026328811189201
11.227405759399176, 16.677276837502326, 76.270351606285303,  3.835197415535692
10.540527331503288, 18.822065813582078,  6.160837730612086,  4.068495532740642
 0.918433920805267, 10.593813790693957, 89.937216564167414,  3.953666971624188
 5.946849060148851,  7.814416113990548, 55.792519942949077,  4.137991474534116
10.487519371369315,  2.230886525114722, 103.794200794846930,  3.760922139737721
10.288117806310060,  1.118295003731117, 14.654951445850468,  4.015495233296098
16.966385677140270,  8.376840666664389, 108.213206439221409,  4.061241352427654
13.666505908844734,  3.065627470487640, 88.727351469214327,  4.082474707281503
10.624620298784240,  5.993779393586428, 88.824894562014123,  4.303652982145866
16.688966667814881,  4.990512410063985, 86.994881985640433,  3.867261001989475
 0.818817768310641,  4.225532911920793, 116.711223117748247,  3.679546832577603
10.105889678078276, 17.965365227927837, 79.825277980005438,  4.034683159418758
10.231628415655694, 16.924798655569319, 27.962204756537606,  3.684443129537959
 5.981906737342373, 15.840766896791104, 89.330729529405005,  4.168832622013559
13.091638010332975,  5.212598270645015, 66.471687068255477,  3.844100983692235
17.656116617366433, 12.359593836027798, 101.336445644568272,  4.195728884741942
 9.824085147112763, 10.694610715614695, 78.841374775499830,  3.974921080538449
 3.090482890448185,  4.454905774282528, 44.855479496639560,  4.114465034126988
13.829796340608615, 11.052425878563733, 108.358169102368180,  4.055057919825729
17.620086264865154, 11.531976092220667, 67.123648531958551,  4.097976894600435
 2.020254015109824, 11.839472642834286, 13.837959030004889,  3.754100279536110
12.474647769867476, 18.562763299403723, 86.585853851095607,  4.313000423186023
13.475850954755057, 15.222640077392404, 65.256384655402940,  3.849790710382578
18.593380695458428,  8.113490872450344, 75.346784578143840,  4.074606586480850
18.868089907363998, 10.066299419609900,  8.396620476975341,  3.948994145978019
 3.320028063063200, 17.696629887864344, 28.649518820737526,  4.104634201168059
16.490882089871644, 18.866880658643577, 32.907682070615621,  4.054334945181639
 8.125262864422956,  6.736224527261879, 100.437155040607365,  3.926535103815175
 0.406141625012797, 13.745604044131262, 81.015346489526678,  4.101379663233664
 4.815826888293866, 10.030864700474575,  3.177045665737251,  4.106870959896328
12.256579936688970, 13.120494105190264, 100.881649577725739,  3.962646893497934
 3.654495960658148, 17.915621618862865, 73.893079138055981,  4.001559751693048
 5.905735132604272, 18.913065039585980, 40.920817925848091,  3.857270512714695
 8.276208284359765, 14.399051121363621, 79.129118618305782,  4.060324092472405
 4.693205387270235, 12.838386087841377, 36.118950798246459,  4.020501420497983
10.263712626576236,  0.003018276935276, 70.277650446006831,  3.951960020031394
 3.771844435172336, 13.889409512642464, 20.320984857384694,  4.305179027314865
 1.251599525514170, 10.173457655591919, 19.338635887190645,  3.915987269611957
 3.789539524080357, 11.075482834000065, 52.489218318385447,  4.363076224331616
 5.232174788991117, 14.141075137203426, 113.200594783147139,  3.987436572579672
 7.207800550027483,  8.569516527273095, 88.052180912435333,  4.133992221657405
18.131545980476169, 15.396618393779947, 84.799295673105803,  3.983501802074101
 7.243926655822002, 12.999378259431813, 23.167697109059702,  4.006013092551294
 0.118330147443674, 13.513431917471245,  6.370986184620057,  3.983489460518109
 3.309077128836464,  3.365984056229113, 51.836595755891949,  3.841941905504702
12.384574623479335,  7.216971013175169, 62.741110563799637,  4.337364361935879
 8.723533561391559,  3.518734620074468, 71.172673294399445,  3.914618348194999
16.440676029804418, 14.336541441542360, 107.478906115885778,  4.109641472535149
 1.973123316495234,  4.660237654058499,  4.793560395214971,  3.899355588574835
 8.656317419073286,  2.307744105932843, 77.973590277258751,  4.025749917690403
 4.118062621410133, 16.864875083071038, 13.790461624489598,  3.873353197021855
13.277532754666446, 15.912703935357072,  3.018641373015272,  4.077894610635805
 8.970366022911055, 18.780536735133314, 63.145917608243707,  3.886223351925687
 2.065001210819703,  8.766530694773756, 45.111567518859680,  3.979216648574693
 3.582651270851367,  5.676352512207728, 97.998098797582259,  3.977625653372226
 6.918811543362792,  1.540697183498994, 110.150924691624695,  3.945813056261511
 0.684981865862073,  1.765623759723286, 79.846456972291946,  4.248085170651093
17.636764653217124, 12.095986016500962, 74.595279790957335,  4.235051343760969
 1.712589127135394,  0.769166277002236, 115.277446375026983,  3.753424403139710
 0.065627057628465, 12.576693463445924, 22.223908291481830,  3.892142803906006
15.112933644231143,  3.656475073402372, 83.651364934295103,  3.969736742652550
 1.117453473728857, 13.344072736327835, 62.821509094509885,  3.816407622188281
 6.134030371647443, 11.855969080179499, 55.827585178501913,  3.934456307263543
 3.206243874483791, 18.106989686036496, 56.071826865223947,  3.832533884674518
 2.087524230859228,  8.849055766677862, 107.924987422230444,  4.171927020268043
 7.510208286943155,  0.656334796985972, 33.926833473403562,  3.890377404570354
12.555032005951647,  0.454186988080520, 106.588088249358194,  4.024473126830610
 4.630332279225439,  7.910054410203800, 42.362115120009435,  3.622881412967224
 2.557706940473385,  5.851598208797451, 11.993223403072170,  3.840824494059005
14.843085719634546,  3.125360882632058, 109.405183429970990,  4.499710635543349
16.595637847065969,  9.535959609331474, 23.628376508729826,  4.234680771448526
15.467087060568776,  6.962089113970066, 38.983239419151900,  3.975252441570637
 3.842719043488036, 17.213237592578636, 68.587625445886147,  3.886440204011095
 4.344445727560078, 17.142183587986828, 115.327861023028191,  3.554983819892006
18.042724103887295, 15.875553340107665,  9.430855325754184,  3.975112207384422
10.341902444966959, 16.417216799123459, 16.551261871325124,  3.978703778690056
 2.558445241147417, 13.784348606846235, 49.570101601076516,  3.960213926929520
13.996030989698946,  3.074562858283408, 62.143770693153975,  4.041895143925790
 0.711810165524792, 14.788684293407577, 68.453833497251736,  4.022496048783855
 2.274706993279971, 16.302348913726195, 65.085035171190043,  3.980806930735615
11.613244586503926,  3.468282099684864, 49.832621644186204,  3.938995906264778
 6.272603827179835, 14.599646888435053,  8.320215694917367,  4.214666921919751
17.640009092134559,  6.049557632314190,  6.272774890378812,  3.476626833501666
 2.567788863083941, 18.112682542098948, 90.166232111828975,  4.081483061095604
 1.464769956725246, 17.814325346444015, 94.537206513521326,  4.232326237039892
 6.816297414710446,  3.468320621446028, 93.686087936088668,  4.152321810309197
12.125493827382028, 14.397688898434788, 96.798330772168441,  4.287386008685007
17.661360815585002, 12.757025478087121, 87.630216441872918,  3.739500236313654
 3.974857183137038,  2.914143811738393, 28.557742053978384,  4.316141458235661
16.245771980234682, 13.906382745453596, 70.864926485502536,  4.501199535528875
10.472042968952660,  6.329547766949010,  1.498701233712422,  3.664855885117974
 9.008290303083049, 13.969216074522318, 54.095003322604597,  3.991275023754704
 8.231427888562592,  1.458858964674324, 11.407789595016393,  3.655889173808677
13.302712021492617, 13.370219812241087, 11.586417603711411,  4.134182872223012
10.457831629038061,  6.189092325709519, 35.368395408995191,  3.893452362389601
10.267587491969151, 16.459231705657825, 83.639157392255285,  4.137908930001634
 0.304452547767145, 17.934736548801332, 25.842729718446904,  4.102891142296315
15.939837453408016, 13.968430786051865, 114.283654677110533,  3.894873659933911
11.966445186684995,  7.420643473622470, 77.964790204080245,  4.013406969492668
 5.576812751109365, 13.158190624555779, 12.095746922020725,  3.928723489704011
14.234131397892403, 15.761481639714903, 84.096480379153562,  3.947821606354259
14.835009223558798,  9.035445903967579, 65.581882570110096,  3.987074243554374
 3.351098569208359,  3.428062827576153, 91.454965670685823,  4.056790980204021
 1.643763327922365,  3.393334786990523, 39.110286754383147,  3.777284695635930
 7.450545248619735,  4.276029433511646,  0.559594351460741,  3.869973455461186
 6.748206459248504,  4.520506680309788, 81.469244234264337,  3.867627745881227
15.414344064337948, 10.792907145807021, 112.003309884935305,  3.851597442709878
18.800750800626897,  0.663751752500233, 51.021333848049522,  3.898141977575715
18.187666228329434,  0.960412307051334, 111.415082153396526,  4.360349033530379
18.366556905610860,  0.519552228544496,  7.253239255261623,  3.912834805304267
 5.123512899618257, 10.769028147158755, 82.107283305375091,  4.153686480061385
18.410520226084429, 18.038447006115987, 43.151572231911899,  4.017187005402039
 6.804507061513351,  8.397092987493336, 24.725466738592445,  3.804547444723220
16.090876890513538, 14.342760390692005, 95.941087731085673,  3.797349030728477
 2.773952550576835, 18.811632675664097, 38.851118459098295,  3.645760409289392
 3.064703782883629, 12.342863987896884, 66.180536394276004,  4.130802029187572
10.027419518041523, 10.129838501083558, 46.488620263329935,  4.137090413692698
13.509714232987379,  7.239214959940415, 85.670821419675676,  4.346321692293640
10.187552627612295,  5.168188088261335, 14.489366282763225,  4.079982510547212
14.202706819429167,  0.475337157464273, 36.766395964330933,  4.067376732012693
 2.506538378963365,  8.949841731287950, 39.367110749976625,  3.787651071808135
10.429486452181459,  8.544543799087952, 103.112542422434529,  3.821940239805870
14.551028715462690,  6.969315189075967, 89.715186164712250,  3.975794656213054
10.249185424245006, 17.264022498856161, 103.830952332257141,  3.968221511386754
 1.781646817992158, 15.843961407547294, 36.216103500401843,  4.201537616229689
 5.026667635779577,  4.273424717471123, 41.292619959943949,  3.967939022124057
18.720608722291985, 12.781487204872757, 52.442004463735771,  4.285008097301149
 6.462554420028188, 18.015818597241843, 16.916907050675732,  4.240597495562264
 6.294980073057116, 15.288960721815171, 66.001241310617374,  4.182534043588420
16.748184992498228,  6.816141013232265, 48.678911676662629,  4.017642490926297
 0.544378393298600, 18.542038355133865, 70.652089533712484,  4.261560221151698
 9.387941817501126,  6.375375081195174, 116.201867558686942,  4.126415474080954
 8.617789785656997, 10.224415525982575, 114.900820337412497,  4.049671496463774
14.134573192583058,  0.180562499588258, 112.685628755518977,  4.272953186900757
 7.810184069766855, 11.428998673944042,  6.136474111923009,  4.066719031156650
15.521864196271277,  6.505084691355441,  3.310611290294408,  3.848943803382805
 7.983211385120009, 15.716841565617706, 96.775107849212318,  4.151053362770407
14.987426463392881, 15.474344277241400, 19.109247209133358,  3.903570221293493
11.740254952544527,  7.779709771375202, 43.834661028488711,  3.722840887107040
14.870825284714920,  0.057819183420907, 59.483595020732174,  4.132936923521111
 3.676424962658560,  4.131141421084859, 22.084577076721484,  4.045110059605077
13.519246210314487, 13.038192894339460, 42.529066565701086,  4.080152650530186
16.166053478153810,  6.037156046088785, 112.221812791646016,  3.981503666548728
 0.107839822621107,  5.219801469683785, 66.372090737911179,  4.154811092311768
12.110024075578080,  3.287612091326988, 17.591704626948069,  4.119679298257892
 6.344338863978907,  3.519671655550010, 64.889061503113837,  4.037013311181102
 1.158902695191540,  5.464014514431040, 101.065222624506106,  3.845356813760312
 1.678264045061650, 18.770039473166690, 11.038019491792545,  4.396328873759138
 9.155911575438289, 15.082363345110299, 69.859729501963301,  3.847744412185609
 1.242606866152292, 14.823313880280923, 72.554567345609186,  4.200665933853635
 9.193269050543137,  9.756242313180032, 57.035240879406231,  3.790223056733330
 2.892349044591027, 17.999829783870862, 111.962030535366154,  3.964379410525744
 0.210930474745806, 11.430031059313190, 113.918355077257985,  4.319879168290419
 7.188102099011812, 15.128168077698485, 105.739704023573793,  4.239260959113061
 7.206535670695052, 14.065270134417865, 82.882779778827015,  3.772693155861038
 9.478864365968384,  7.472637379003320, 71.658777024147000,  4.173564596892569
 3.953951977288052, 12.054285570929824, 58.932549266685683,  3.652250560607089
13.564958071296989,  1.988575658868045, 93.283350012236056,  3.844442080938801
10.241874871625447, 12.567623481535991,  3.119526462416544,  4.008199598030719
18.591910016027676,  4.572133353536515, 51.403596480648133,  3.939316538938028
13.346363148987635, 12.822931441357857,  5.214012002705640,  3.494355243341126
14.047975964804618,  8.902173266029180, 17.466865377161803,  3.657801176370175
 6.344635747335531,  6.217636604828733, 13.407389884368961,  4.135786698910952
 7.084548334711439,  4.375453181046248, 44.668207781683329,  3.840786994362855
10.745029994521754, 14.256351880149866, 24.566667925412784,  3.926197652653056
11.584739473481012, 16.001988719073815, 20.947154471260145,  3.887686601802353
10.505017340483317,  9.444529800013822, 23.409201707734066,  3.902042873661797
18.703909151097484, 18.788688822563110, 57.937071450125124,  4.139316690323220
 9.410810578165778,  0.471943438891167, 30.603486802304801,  3.765887543467066
 9.737620882694381,  6.430750610364075, 54.997637956149660,  4.017899646228511
 2.363236460314932,  2.112269267006714, 76.056028977719677,  4.061727203685421
 0.871430424649308,  3.751153329190763, 58.189052691712909,  3.941593062332638
 0.702262117349809, 16.000771827199749, 40.052553166924525,  3.734392795328434
13.776997077643497, 18.681291123734471, 16.299870962059330,  4.158286916221374
13.402486727240730, 11.496495159651234, 25.120753184971353,  3.812374302287572
15.596692398354872,  5.270244215623773, 16.931380206689077,  3.999879900192154
 8.408638261932190,  8.474221599995941,  3.668546483573414,  3.692867713142471
 6.758597956322200,  0.293160335441681, 67.080033383325329,  3.802380948040441
 5.552327345985861,  4.236178192170084, 68.825807995641711,  4.102501434721637
 0.710550340540763, 14.717482267298211, 76.771077745575894,  3.682182208590424
 6.994723162492185, 10.529064686036564, 30.158442212117897,  3.680157200979254
12.668777774442157,  5.832346684082164, 10.819598165578197,  3.735784666542686
 3.055954535552641,  1.805782730032555,  0.412363906761293,  4.224104332756098
 8.617644358546642,  4.960728187547733, 109.380918207510817,  3.791247139961943
12.113576073863879, 11.806068731851664, 104.718881515578474,  4.118746728101746
 5.105162764087323,  4.911670596305714, 76.652669827365187,  3.856458223107731
12.569921799550730, 18.166600810138082, 24.374507572191686,  4.443495408385853
 9.295658926796536, 13.822121652016154, 87.903923693680682,  4.067832115591552
 7.229544459494935,  4.503936718818915, 97.458460935196896,  3.709341658339238
12.467007015701636,  2.015262949103127, 43.548773660567157,  4.014762739269521
 9.578474859324640, 10.982612478022551, 62.138070163501446,  3.942875663368170
10.108800767745004,  3.677600364054662, 63.289572413035629,  4.149237097131674
 9.216296095439191, 17.868623077181017, 107.951530692574522,  3.809814763667248
10.783674062002316,  8.762153209772775, 15.815679068909933,  3.662603243525072
12.474873826836435,  3.454825598898302, 77.241382190979749,  4.079573943024504
 6.158714437049438, 17.460051923431575, 81.040162435445566,  4.217805678101954
 9.326607012628854, 16.445362809308985,  3.202170068053428,  3.861763874318793
 1.230567396617700, 16.892523926243584, 46.904707189749239,  4.595755857850283
 5.022641055059643, 11.535380490054147, 26.127945425435207,  3.888124843456772
13.588258457275925, 12.166946093244006, 67.889689716017074,  4.180622821466162
15.780653481128695,  0.000817580557408, 98.303772049168799,  3.959276627251918
 6.020282928375774, 11.127320943818084, 77.755261347378081,  3.959877767913743
 6.616587599342532,  1.936866593360741, 74.319961038587934,  4.280383227410569
15.665129377006783, 15.621638633280147, 45.114062273582640,  4.201941320288094
16.046072193790327, 18.029952202531437, 105.106924504809655,  3.974552988213747
 2.555828386898841,  2.796364253120762, 95.384172636291936,  4.057972938661178
15.043884678476104, 15.327227259003537, 74.721311907196252,  4.041162191273210
 1.202475449911369,  6.199437189311585, 93.624190872833097,  4.036915087445164
 0.210483784193917,  2.643835588006375, 84.062459885415450,  4.384913540075374
11.794861796977356, 13.984254715821649, 72.648657750087281,  4.066809733759532
 1.271992399900343,  5.478612980179143, 70.361458269172701,  4.171880032950894
12.475417461360969,  8.415728175089319, 68.611594566880328,  3.769674673965935
 7.855153993918057, 16.261939103715104, 116.703943137780925,  4.093313476721837
13.584334798099414, 10.567899285837720, 79.527417506799907,  3.671213667990159
 8.059852457117577, 14.634936642261060, 37.521473803070030,  4.101793437654237
11.966338409770408,  5.390227800798512, 92.609059850059921,  3.790928534202747
16.863207044759388,  5.793934876888748, 54.735748464942446,  3.923930307125731
16.161924772604664,  3.429657891978500, 100.116433287765531,  3.792318951939631
 0.607347521595281,  0.994207270582843, 35.629723038689626,  4.423572981328825
 0.806026422033662, 12.848759174023922, 30.721730774421864,  3.914598934542161
12.732234432781217, 14.073919329757004, 27.937708957822469,  3.895473287436590
 7.277463723658770,  5.799562253535040, 21.700051921871001,  3.896520034651155
13.817584273900668, 18.231275231947070, 101.801776866360427,  3.995407482368503
12.277201916837848, 16.897584363545153, 61.862747445403123,  4.076392266651165
18.506979166501335, 18.064323720907979, 74.831239753724333,  4.379510493844287
18.899023033099812,  8.794713560599671, 64.426736580637353,  3.961501016817151
16.705704948163046,  9.911011352306671, 54.673313748802002,  3.874715802876511
13.972560149705851, 13.420354710151567, 22.083633588512864,  3.467482913819834
14.979158406115261, 10.981200715315648, 89.874202178804367,  4.070832918776540
11.694485722156767, 13.041845475856150, 91.083410307961444,  4.035638012088571
 8.012001675724415,  5.425032342828595, 104.392266071093800,  4.380873570604294
14.268464072731847, 14.759180546144457, 15.294221519082178,  3.986131974761587
 9.505306970301737,  2.377379324515453, 46.804861559227760,  3.743974087885754
12.276459572116103,  9.066176371971654,  3.640627958812687,  4.123285949975478
 6.883249118927055,  4.239324868441294, 89.560256243934234,  4.065908472341425
 2.588546838830054, 11.490846968719675, 74.195957306561624,  3.687153766916355
 8.065800073473429, 16.971759912307345, 13.218541065501482,  4.073586498033223
12.180786955315035,  9.734329843217571, 59.468333775848897,  3.912275292707097
13.839237479741833,  4.029827692039133, 34.586725936972194,  4.262230522480960
17.250539397227190,  8.344403573071016, 92.029668689558164,  3.636023752628121
 5.261795951347822, 13.663640732241486, 99.221345186565173,  4.225727542750768
16.748318404501386,  3.522460928336155, 37.470698985882649,  3.958259552497386
 6.527568663946875,  0.573087717334059, 57.215164892287802,  3.738110062958688
 3.105144634678345, 15.755472391697214, 59.219133844081242,  3.958537154180956
 8.779236464755328,  9.966145049281936, 53.033717044717079,  4.197688229986499
 7.253284017495461, 12.509902884833306, 117.729601774797842,  3.687742678095733
17.951671954739414,  1.088666008195596, 118.144796884530010,  4.116841805993960
 6.560383831791646,  2.421756403039648, 14.664685904768408,  3.841131642031433
 0.484306818346136,  6.578178265081037, 36.811064127682670,  4.266229983356001
 6.545730135392812,  1.307671924481907, 116.315793881784586,  4.327173011009802
 7.702410966411833,  2.877283120549031, 101.073616189601680,  3.922622616245863
 9.458455101196774,  1.925991407059288, 24.995726626636955,  3.907878199075034
10.562427913319965, 16.844089228245004, 99.830395081435526,  4.082820326991288
16.607782559880675,  5.559088278279202, 23.609573565369711,  3.690151701175889
13.659287165284860,  1.166579624116014, 68.553323996314475,  4.001926616311104
16.223567544455115,  5.269471829593644, 59.797989588657579,  3.774739160879020
15.346481884767554, 15.257885563322573, 99.638660470376180,  3.924995811539987
 7.387610779555803,  9.173753066931706, 49.348069645619560,  3.831258165512031
15.854330482359062,  2.243269502648713, 53.204683003332960,  4.067215669569559
16.487196910213669,  2.953340503001198, 114.781581902236667,  4.053619425333936
 0.954498344135165, 11.899747664045634, 34.696182156127747,  4.195315607973717
 2.582318109169977,  2.075911414693454, 14.553498290940603,  4.036363933759068
 0.663840392988560,  8.219562973404258, 33.077945344526910,  3.863471088236463
 8.405598128768105,  6.971365521370338, 92.238033438538181,  4.023222468604206
 8.506638486575680,  2.299237077228216, 106.846280599643208,  3.455151088156963
13.484620745526469,  9.981104795806671, 20.997994310553196,  3.794161513019807
15.718637780016726, 17.920753651081117, 94.479467904472543,  3.924484019874835
10.530692270156642,  3.881019432760664, 32.111307382337628,  4.004311134788290
10.150718247119153, 11.236463000277906, 70.085506047583863,  4.048090916603297
17.220637623209349,  9.202479397804787, 28.011374373609545,  4.129698119184308
13.938437782491427,  8.973143310497806, 46.781570778663649,  4.002217512737662
 5.681029369569461,  7.710449807653128, 113.305245367049949,  4.294130621806310
 6.787973578818611,  5.111223054425175, 35.368458538327573,  3.749702569483524
17.350434581809587,  8.874562212119523, 87.352492931239837,  4.021934681690221
14.506650579116030, 11.228511249898768, 85.931591492904005,  3.881069066389740
 1.055608248024065,  6.423564111299226, 41.954329409011756,  3.982756909023334
 8.985404507763180,  6.781049390191699, 67.308479682146469,  4.280054760837658
 7.334537961303361,  7.695379066148610, 17.024834299660451,  3.924111626545038
 6.456859906777702, 17.622675431294248, 100.790734754319644,  4.434923058281480
16.363708144397975,  7.499620455680387, 20.101714029050498,  3.897473658198458
 5.589373889242440, 18.332649859312397,  9.740474200283023,  3.854243816839278
 5.095611516536374, 13.750143995516062, 62.287186275496651,  4.196325869541177
15.472068620129784, 17.930274754790997, 109.007801448889765,  3.903994577834509
12.361745821023622, 15.982377737484965, 54.602947082624425,  3.837607189528777
 9.343791772624463, 13.889596333418309, 10.968371427337740,  3.944859099694200
10.846309449125327,  1.844147474317545, 109.929514942779008,  3.941138314811631
 4.741830214164757, 17.533145803911307, 108.265037846213488,  4.277212660081334
10.464438631587406,  3.058591917684790, 95.267121373067681,  3.802225432259231
 6.714033655550190, 13.389724980443356, 42.031438336744763,  3.566946379971056
 9.275976305162835, 14.030008502117923, 113.543226274497599,  4.115901033981634
13.975030327524157, 15.455238275228892, 58.009852479037917,  3.771318846261377
17.354366311272123, 17.622848969037054, 114.831057614890199,  4.005263463725226
 1.643343791097593,  8.818604207218977, 96.569905956158536,  3.893946068790632
 5.627886179771584,  8.326138587689270, 69.337190001779547,  4.134326421505287
17.244058223363446, 12.605103723782362, 11.784640709528711,  3.880555829694608
 8.410828431770520, 17.330239407937505, 23.156793278810373,  4.271107590049731
 8.951222943878443, 11.319417850982763, 26.607149791340984,  4.034659799265166
 1.399961511985001, 16.681993938995042, 117.801657867540129,  4.144850452461778
16.614218269676105, 13.455542098682276,  3.119119172577907,  4.168295376197070
16.920732829789070, 12.993767567587717, 25.515850772341448,  3.654113619915542
11.302742815011262,  9.010063682767512, 99.273755241345086,  4.101342861174859
10.199334326543678,  8.266183685547130, 28.784932560334799,  3.776184607248076
 7.698041123463097,  3.086902546385129, 38.593717929088726,  3.988333750551889
17.933766488200469,  8.729288635810748, 99.570807359391665,  3.717684599965370
12.476789091815773,  1.172693019799989, 28.236359805316791,  4.102782030065881
 3.071172707353953,  4.891894656279823, 33.795544094549491,  4.323874933372005
 7.480745366247927, 13.447286522810677, 33.377617991562339,  3.878114652195033
 2.995438102647659,  2.234959574295468,  7.805990764754342,  4.081164997243014
 4.408762920062487,  1.666395039967091, 83.327906385351497,  4.317801628792682
16.791227547171680, 18.400099490992556, 82.576767977498889,  3.953126563094870
 8.706618687438135,  5.649347503981934, 51.260664138332579,  3.868165293967418
11.437900712867966,  3.134036110449865, 117.899561801496347,  4.201621293281709
18.245901266212837,  1.696443350799791, 107.223235975648436,  4.071820334169777
13.887457195946483,  3.150871567672747, 13.688901607328583,  4.422775646603963
 4.270712624665125,  9.348296059363756, 11.906168217215212,  3.935912027587884
14.723206455352118, 14.663673872566273, 103.541384168281510,  3.898843647011362
 2.514060718857879,  1.423156450463227, 42.283438100690276,  3.885453442513623
 4.759111671412988,  2.130447738980132, 19.021007623851016,  3.580290194793778
 8.991134825596728, 14.825042702640419, 62.950098379313381,  3.990900210345162
18.648589113378090,  5.447034764356601, 14.505074046997372,  3.791462378934613
 4.995936340034378, 18.869319517368385, 63.540759841714042,  4.102802516847408
 9.924598053460810,  4.831707668055353, 41.698579106950191,  4.407086013012806
 4.399697251476321,  7.641073848200899, 101.312650987608492,  3.860085560135939
16.185677423676726, 13.575768411670515, 78.284715635281245,  4.213966724909439
16.940695234640717,  6.738113656573989, 116.064895000769752,  3.975255445973647
13.232802211857367,  6.573365803476392, 22.386640220330257,  3.555294609110741
 2.632621394974884, 14.358586208539778, 110.150922852673048,  3.953639700424963
14.454647803917556,  1.162761377275398,  6.256153621080476,  4.170102335847836
12.461860902958074,  9.529389702675518, 35.741517617421799,  3.923426401794499
15.628086024720112, 16.404203374693417, 26.638217505138396,  3.942436506767668
 4.827687931180665,  2.013276754811587, 79.180515540491896,  3.723082487238689
 0.104445592333741,  0.398817589680646, 64.807059042291641,  3.507364227550470
14.673819328596760,  9.317191360079974, 42.094850825154793,  3.729524714090398
17.786530039917821, 17.966307963862171, 101.548446997772913,  3.921712066073763
14.741536458925133, 17.314372304606405, 41.330773833992666,  4.281703263701505
 1.444765797220293,  8.750418679255734, 81.601090725255233,  4.288375458039284
 2.802437156516655, 15.872889827283004, 32.263964568918752,  3.936152803685854
 8.246720988114401,  7.331626384595366, 63.259813465026333,  4.000469587551458
18.749959970973219, 10.268684946825529, 48.061087934811873,  4.034059597306163
 2.637196093656383,  0.183572194431883, 101.790626826422013,  4.026121783359104
 1.898589594278069,  0.787845287806545,  4.200383799004322,  3.931333835023413
13.745069222792019,  7.867709148498207, 118.421399448082909,  4.201145792095803
 8.920332493123128, 13.715101511269932, 29.684331032557303,  3.758809222855110
 6.264370674625298, 15.745269041117151, 56.373082983154660,  3.817862978546703
16.275835000504308,  2.761943749196906, 57.025397269167271,  3.678919523211244
 5.081209572526194, 17.774221699444158, 20.765027308115748,  3.937024630128674
 2.661911762506576, 16.745011384474640,  7.258660238858053,  4.332440233736107
 2.195908745200449,  9.537163825703184,  0.131381820698562,  3.969599657509201
 7.058777923467360, 10.403334223760163, 101.093143847851550,  3.786230550254019
 5.119944809548579,  7.019196175071878, 94.645690778980708,  3.850377224830386
13.210941167335854,  7.457030744343757,  7.264795053121151,  4.004579108948684
 7.094684033622560,  4.128779025534319, 85.387673190077550,  3.943209742061744
17.424653448590341, 15.042124080345676, 65.129019269550540,  3.984941305317621
15.738328591493172,  9.027297463248837, 61.178915763922660,  3.894677739141908
 4.132883884942519, 10.989586858512958, 115.387091467068430,  3.971205461229351
13.468188785171812, 10.373159832782891, 29.173562106770881,  4.017004283747164
11.658575513799583, 13.479109377869960, 81.106628382665562,  3.967461002040233
13.102333310993250, 16.646085249996744,  8.983087349606494,  4.239221548586459
12.282317284763717,  5.139423906249919, 58.924065235611437,  4.239442963276196
 8.799266440980885,  3.583231033430665, 28.460884212366942,  3.882580013389967
16.435980216088364, 11.544733161716930, 44.973991103824048,  4.017387653308683
 7.584179368687384, 10.323125772955446, 14.058556630720645,  3.992738234120820
 0.713687318650934, 16.854443751248599, 107.539087296841302,  3.963683497338185
15.659268123232485, 12.428707675547624, 82.274553593007099,  4.153020440041208
 1.631928265903211, 18.094453870392865, 86.246312757198240,  3.869239395509283
11.060561630464315,  9.343216355285515, 11.914626616192223,  4.180429939732186
 3.807350163733647, 13.340578912523840,  5.633364432381367,  3.494376500776987
 7.060054986184740,  1.965403801116434, 21.912585143632963,  3.795125798509867
14.244523188593334, 11.465183086964812, 93.900439410661136,  4.165837070208974
12.955682578710752, 16.140609413909583, 69.135460837120561,  4.165207387740661
 2.860857851232293, 11.790934018582858, 70.238993842334750,  4.065098405022906
12.666798591313363, 12.484654251241942, 18.126702257831599,  3.915705090990765
 3.799872290949421,  8.411189487766547, 75.904586301713280,  3.759828133447956
16.350138437394612,  6.807465593252663, 30.996547448939221,  3.698705516082737
17.406508811176071,  2.996637538594653,  4.031645841399811,  3.958376248604436
12.286070154433190,  5.118507733258944, 28.840393478153416,  3.773544882491817
 3.504087460558803, 15.211215846184936, 24.354187569553972,  4.167220049528128
 8.453342834811002, 14.008566929686021, 101.907310473576686,  4.103857599510206
10.306399236854281, 16.099067771988246, 32.452621819219537,  4.053894764898542
18.011894212183972,  0.500520781185316, 91.636205690752789,  3.988418355266534
14.141079810364280, 17.054283860411896, 30.224115517805689,  3.928173442253937
 8.281003821009518,  6.515767917511885, 59.217209119841279,  4.226391736124084
 1.858370991340708,  8.673866190852641, 67.902714050682263,  3.961487186417068
 0.719535472116651, 15.298858269864661, 12.991936775699665,  3.766297055589462
10.433893038749906,  2.257612461317017, 35.894056349267224,  3.847336021255547
15.753835244860893, 16.803175731291006, 12.363125076999507,  3.680626165323837
 2.144251797691462, 13.164649478157113,  9.917747977917747,  4.198867891500377
15.988632438557865,  9.956532943901742,  5.433946769339221,  4.301023814304334
18.219631752368947, 14.606141946602314, 58.118052177114215,  4.270137219078745
 9.875192166456451, 12.473256765953913, 108.219054914274707,  4.026157448761789
 3.008830191763493,  6.957517701081205, 25.912755737640119,  4.374225720751946
14.409083671851617,  9.809738547561176, 101.898538604839118,  3.891459052709650
 9.955632154371237,  5.996632719514303, 25.442636207028084,  4.154615999200252
13.838998261015469, 10.341432654455790, 71.898154921597126,  4.281222850345425
18.680081941590849, 16.379669071028289, 97.822017836518313,  3.730862520101953
 1.917336798102488, 11.160137756161538, 78.112607712146684,  4.229028593110419
10.636010637853889, 17.353923656814811, 36.184520100811966,  3.843955100837241
15.691245866111624, 14.652810168747651, 61.479549290143886,  4.110411666922813
17.663212181185784,  1.414039917182056, 13.422808272311340,  3.836149599674016
 4.804280695723558,  4.318463305290877, 57.770307020670039,  3.895426841841368
13.765892784773108,  7.631821293740145, 26.117456098407448,  4.199013384653514
13.092648178660225, 15.057950985358067, 38.273760713870729,  3.994525048058018
17.568150908706041, 17.075939555644521, 15.833261613448457,  4.111786084411305
 6.506202269245748, 17.904751315334618,  5.685611369360593,  4.199508054610779
11.893236342510578, 16.997979630256189, 44.434137257948883,  3.897368232198676
 9.047008665831283,  7.508407353423892,  7.529021817976666,  4.338983137675337
10.933480990589926, 18.082776910246952, 118.325985322399262,  3.743043855893245
18.377749734084993, 11.810541342862054, 93.510918389497974,  4.140928130728283
 2.937447100743768,  9.795600347247520, 29.113804087043594,  4.180792087276809
18.485237244180642,  5.414918907688216, 97.333116527600126,  4.248278822698173
18.834221573641475,  3.537560196520457, 10.102593299448845,  4.089357489280028
 2.737429669250062,  4.926274220567453, 81.520673724135662,  3.784939144622195
 4.984189538654720,  7.107220459199257, 83.801512897672140,  3.900886116206753
 4.862184571061136, 10.979236328121313, 17.473171688814482,  4.121169061141412
15.793686024869990, 13.548527300171001, 55.114178867166920,  3.672186665796410
 8.648211424183531,  1.087013301297747, 87.552226935655156,  4.118380108142006
17.679601158693536,  2.132103316182064, 95.257390646107837,  3.685001215333049
17.733032469545815,  5.443113521890576, 81.010916743235242,  4.227012590397049
 6.966515041212380,  0.186482222532211, 27.608564779085601,  3.964898475876477
 8.092074164137001,  3.858305034845064, 18.168882083975223,  4.038819014354223
12.503033027642370,  0.480707494715313, 32.948995173326168,  3.995862435489969
 3.650106410489197, 13.467286326754891, 118.319967423319895,  3.688672412932498
 7.465084733384559,  8.104548946982886, 75.215253941469342,  3.710120300367607
14.311201129823905, 18.304181659213043, 90.384890719941126,  4.134688890856196
16.834375079148714,  4.060587582357603, 90.765679090808192,  3.694623419162137
 6.320404809871919,  9.723036270344506, 60.522432383071148,  3.712055051967976
15.345878474877805,  2.294475124775197, 79.872450261712402,  3.991503465364711
16.899724313094563, 11.709464300386035, 63.455033945292513,  3.360548125966465
 1.803353452427141,  7.675097564679783, 115.041787306437840,  4.137886850412802
17.935670787452239,  0.357297800121130, 39.459858468329095,  3.829935658278071
 9.383836881038393,  1.424972345519531,  2.576099741571122,  4.053126274721140
 3.013676177651067, 17.576201983870028, 78.226567064713549,  4.206659398592830
 7.394272334166567, 11.273225863438146, 111.176404455938936,  4.058607019065581
16.563262334821083, 10.978314073160444, 105.088209369151627,  4.086735793069384
 5.581630785204054, 16.447575516485262, 34.846925396328665,  3.738659968717308
10.242355512259982, 11.360327860753166, 94.710732661188715,  3.990152003781461
 4.277025704930145, 14.038153538412230, 79.900595462904576,  3.911192676854236
 3.366945040155547, 10.407234760967640, 93.230373536023492,  4.233299821918886
 7.151501689112897,  2.627265010158441,  7.721343510712760,  4.261961360638417
 1.801559396297415, 15.186270489084356, 100.901751471782688,  4.040924457602297
14.992389900047213,  9.506473999589106, 10.411464384868127,  4.217866694431116
15.316988819825387,  4.080174034339840,  0.281266317003685,  3.905055547647640
10.128737985325090, 15.180618333618327, 41.196247216583515,  4.313133428005237
15.072456989126970,  3.952453543129683, 20.550684279106214,  3.703339539099169
 0.216782061487844, 11.526213028549344, 84.366153207348816,  3.845326691381360
18.927013473134032, 14.935825898569458, 19.049386030915024,  3.978114708617378
 5.404571651637881,  0.177850230634615, 95.317256228207754,  3.661229967168564
 9.480747995961424,  7.193396023183189, 85.125587442581065,  3.769810197759185
14.253358831605158,  5.823635577839993, 51.703107232862571,  4.061051898357759
14.451930699396241,  5.350859324103237, 42.482830123347675,  3.984114015355072
 8.367011618504936,  0.807840058240607, 97.669785114414722,  3.999986308178793
14.607828546663436,  2.203908234884495, 40.336536550708409,  3.638260339100336
16.280648897766987,  5.980166249582264, 63.569671149433631,  3.874377344676040
 8.222100332088155,  1.101739118073975, 50.295589644674244,  4.066043327446526
18.090533670800113, 17.279023023748763,  2.688307893117804,  4.072135124595008
 1.467904365851360,  5.669142230172693, 77.943671083753813,  3.944224687567953
12.094422874266751, 12.374838119051473, 56.350115167823958,  4.138161410146357
 2.514018047260569, 13.824736960427073, 95.640428984252637,  4.293487727149992
17.851588828257761, 15.582099900981994, 111.145207075953763,  4.030390753626180
10.835849780185665,  5.333939470165053, 98.177297780431417,  3.616305590321444
16.856181651612332,  5.144799517504302, 106.039066338280904,  3.709154296665853
 8.295782676143824, 10.893851605229948, 84.871724033538257,  4.017446610550060
 9.934703899645273, 11.162091671330172, 38.389538775810308,  3.936512552467799
 6.283731419645183,  8.110585931993016, 108.973375207840817,  3.946289230104676
 9.062285350343275, 12.178385440135356, 98.359836412164356,  3.839370687967766
 6.135725404725450, 18.127467044025288,  1.472055626169953,  4.138086110576770
 9.912310282628427,  2.685417532327997, 67.291984589772682,  4.094318691929110
 3.493362891755278,  2.260351327059354, 71.665544760988340,  3.941583338955510
 8.665208336844310,  1.089772582943588, 43.339840642253165,  3.804725303602977
17.212666799334595, 18.580867626837147, 19.491677805675234,  3.770481105438781
11.319454330534699,  3.745734298790466,  7.626909972930064,  4.352889408449625
 4.647165239004206,  5.042274514094245, 116.353748683081591,  4.038062937540160
 0.731140735903394,  3.404698463751773, 24.951566081290846,  4.275689040478505
11.452384209835660, 13.020937374834318, 84.858920767280537,  3.518414618609051
 8.690102692137957, 16.912736712319568, 73.299152780665381,  3.985973746439390
10.779550752944786, 17.168272531432823, 111.415488707750214,  3.901098643864624
 1.084595717282860,  8.678408116884034,  4.674530801734269,  4.321659009527714
12.398407237135775,  4.103583608910040, 112.981522139061624,  4.259894040381996
 5.402240785771007,  0.306471711349139, 53.052340706714112,  3.942458145444773
 9.579534160633536,  0.224423882398248, 19.428337607963012,  4.088637679963542
 2.318264822526256,  2.033718121481377, 48.175626456366196,  4.118984820299421
13.188190933963069, 12.748634640828859, 52.369256816137920,  4.001508808953588
 7.336020616618831, 18.435940706545686, 37.500511400886225,  3.569173866522978
 1.484055361102009, 10.067110640055947, 55.817944640500428,  3.946124756176610
 5.592115592999313,  7.459152472504905, 46.372388006948988,  3.745834339565346
13.759988579985654,  7.267782752104396, 14.128482657024415,  3.797435908960731
 3.148682216416850,  9.585979658590539, 86.494811293341641,  4.271471095768585
 9.237801243016898, 17.415739347809268,  9.529250179319577,  3.672052884088728
 1.534816828725611, 12.344121712735765,  2.836355114415456,  3.921291242659954
10.425881248033578, 12.450395998088004, 21.193339212198861,  3.562012788646952
 5.530526821393511,  6.231730588400874,  9.408184170633172,  4.021527418406341
 3.386416342833611, 16.243373573595832, 104.515591845974370,  4.051012161988308
18.287832122448261, 16.852801023966467, 29.728504754077637,  4.125639618756450
10.864986795892756, 14.373763439649510, 118.287142167895624,  3.614963277327787
15.648895409812614, 15.656581597678745, 118.067980855597867,  4.294374538324425
 8.893470050736966, 11.342239726293782, 17.917364897937240,  3.976583146059949
 2.610860534229050, 14.071453120542884, 55.442246358365196,  4.370591520856099
16.516989682170053, 11.674707534075109, 19.165149934730014,  4.060155411245367
16.693763497630322,  8.664077448318567, 83.426969188945066,  3.945619146596772
12.547127793710425, 16.034937530438814, 115.110312118427302,  4.167181429178592
13.898946088142354, 16.168728267751124, 34.599741030670749,  3.779773253165779
16.901012550703644, 18.097862444649959, 67.552637200629789,  3.868271475237069
12.828618262444005,  8.970575036810455, 54.048722808493849,  4.188514230682270
 6.139033687688475, 11.368321985764272, 45.368250602626759,  4.318872217646883
16.225345283653454,  5.922927814220122, 11.727232812595860,  3.591647960308355
 0.972816989271495, 14.334052099327735, 27.229605663725764,  3.670281227492190
12.450559132301258, 16.248444434348091, 93.230737297134539,  3.774496554288904
 1.795982066849746, 17.448717802237024, 82.254535307046893,  4.180027292679886
18.584789816195570,  4.970613993450875, 109.367916397409928,  3.783279271843897
 4.761943044868861,  7.279429165248520, 65.433344730224192,  4.130790381841202
12.608050589621152,  7.497512990918306, 32.118091371632261,  4.215572367324223
 6.419681104203569,  6.895836693988337, 28.576519451873569,  4.272583660730910
13.389602965359099,  3.572929648823374, 24.910947524590171,  4.292947692907743
17.428360547299739, 10.291549208277511, 37.658833891133938,  4.173191037681213
 4.259487946963739,  7.488603819608763, 19.628164725139694,  4.132145583415959
11.247235858634111,  3.554576496431846, 85.317890268217042,  4.317970286285561
13.799156408931736,  7.765883254503119, 105.462127544840811,  4.406092181579275
 0.208593788652714, 17.050282380128724, 61.693415058025174,  4.074014105598923
 7.038013325560289, 17.637696573939529, 76.948782656355604,  4.125356273527023
17.174619810208295,  2.879531614750001, 69.438108863717119,  4.014842543991238
 2.203225049616059, 12.521136013855678, 46.000513955918557,  3.625073676162104
15.499792036345889, 18.043804052789142, 55.628658411054609,  3.889195676556240
 3.709604555638310,  8.936371127155333, 35.583458682156206,  4.074510264530224
14.527132419278589, 18.889580823151363, 76.642341535964974,  4.110645213407278
 6.348763422127854, 12.147124543242668, 95.503728279729046,  4.030941424589400
13.177682109139830,  4.306062951049396, 55.116363988035019,  3.685462138396620
 5.181489100614396, 15.210738194447384, 52.293729258264896,  4.037119725210566
 0.678290351050865,  4.452035024628241, 112.980509880346517,  3.795104747741609
 9.232753070559907,  3.219425107483699, 57.134601107145649,  3.754959614017654
15.732616926583420,  6.064336798308964, 77.417451335491137,  4.065258025281735
 6.446576238106160, 18.884666477323719, 70.836139552679555,  3.748957048825496
14.797474661125738,  0.608818934570083,  2.210690070276774,  3.992078791014017
11.020381377299012,  1.326995017389451, 60.061502315804553,  3.995650897030237
 7.361462127422760,  9.635230573920930, 21.108627343268491,  3.864199246094442
14.984634354263294, 12.429806047627306, 35.384699449977155,  3.735700699574402
 2.454956709981460,  3.201664859820514, 63.562557264358539,  4.198172165243464
17.208540584013516,  9.475982085330550, 78.978874356947316,  3.974449934122569
 9.266937750489182,  6.211674968117523, 47.383723704471905,  4.025647071965342
 8.065098977079824,  7.868419137525230, 43.681995658144274,  3.604632890414684
 0.287766955272539,  8.238507565780107, 111.416590366514683,  3.756311317885335
12.603309380445237,  0.729955401261613, 82.545552872529811,  4.046842302993049
 8.284343238535646, 10.878578375204361, 91.243605911683431,  4.018176881674861
10.746787618830769,  3.682228908875192, 21.539218055732714,  4.230991545522679
17.792605495232618,  3.043143507131005, 42.397319532677486,  4.129113183196494
 9.933911179776576, 10.999988454513090, 42.393302711558832,  4.048792817926699
 7.188519413476143,  2.627045654748896, 60.527160961053916,  4.132214327391185
 3.503294439799780, 17.084266142084370, 97.922496488917290,  3.796094562095421
 0.304764936777057,  8.591034050978010, 51.815428793346548,  4.219586118635488
 8.589630079171771,  1.263430438051484, 82.984168418538999,  4.093759147493579
 6.417618916858277,  4.072359818320145, 54.169122487489730,  3.980200438122358
15.980782663954759, 16.309845557745330,  6.024184130729808,  4.030193682803604
 9.675262797969561, 13.178713543034943, 66.585707349471633,  3.793764420360633
 2.600878377745433,  8.244363412942311, 15.392283951437927,  4.098366828537193
 4.466475878032769, 15.280140688956248, 39.332027821712551,  4.001133651686289
 2.341656985277108,  1.884716557132417, 67.575659906010884,  4.206324297908174
 4.374755857415514,  4.908012890624115, 16.606194517313586,  3.814094331603576
 6.039058806158207, 10.731184615721300, 39.332963701931639,  4.122826801609763
13.016791845727747, 12.883065067461672, 46.588910034916104,  3.956311486062175
 0.670217912062011,  6.469509713116803, 89.628743049267115,  4.008334349481971
 4.721943909708608,  2.756170280426647, 11.318723663704953,  3.805323135784333
18.549832406517808, 11.750650777873838, 109.817429144075021,  3.997793974793806
10.857525193040974,  9.797101404054610, 74.685439798029194,  3.939345541374341
 3.302967878727087, 13.990123306825993, 83.655244013366612,  3.748862460056257
 2.309919567695267, 14.375813641619892, 87.457611429202927,  4.049241701458863
13.356408401232233, 13.475961494454060, 31.814529272700756,  4.037900982066415
 7.867019362225429, 14.989191340392580, 19.576917915502541,  4.287403591364302
 6.370544628208414, 12.907562226843014, 49.286690111957370,  3.881503350292054
12.737029688470507,  7.959528667620416, 95.532517492137018,  4.116944098581546
 0.669568099020381,  6.110411385202752, 18.214617982397868,  3.957546303150353
10.414388826788002,  0.668569165278151, 114.649050522443247,  4.194033796554443
10.115511238253955, 14.795265495443893,  6.731721473791574,  4.077841866789806
11.643973218882333,  9.778240367541166, 82.817879356911135,  4.092779277646946
 3.738655266485003, 10.329428334614381, 22.557176012651972,  4.055866897114869
 5.069710061947632, 11.896772117277582, 107.710841699544872,  4.360819145919567
 3.738331481496057,  0.898706249474576, 32.376997690623952,  4.210625694167312
 3.302578876370252, 16.498388083993856, 43.046865215239485,  4.128842050923062
10.414253938089518,  2.252704591997961, 90.971770601272425,  3.849465584433232
 7.511138929136407, 15.107598715814040, 110.067396161571850,  3.909000910533109
18.496506108952843, 11.863256660667993, 97.478578168359789,  3.721306912509896
 4.240257185687757, 11.576321173292465, 32.455996569156937,  3.764939336417672
 4.281051442865294,  2.734688801832011, 112.988241672663179,  4.148966928213939
17.876778895308725,  4.295541078623200, 33.549781976904313,  4.078160182707276
12.657209883701587,  5.600591325511733, 101.606835434361429,  4.149398447630203
 3.332650717804905,  5.795460314394695, 110.403356228869328,  4.070586459801200
 4.852810366915973,  5.907265293124155, 61.508693784794502,  4.107366620036182
15.578966588264979,  5.289756898313396, 94.244826142696283,  4.094232474963836
12.486746767627329, 15.328962572620583, 106.853347438956220,  4.136775648273070
13.776122741727857, 11.253072217289299, 38.974335660869748,  3.822562644094400
16.575779233022008,  6.532260584953469, 102.451571926112535,  3.985133022193766
 8.066342038388155, 11.175111826816639, 104.845979298043730,  4.049370084181101
 2.818462630725795,  1.319873445478737, 105.526297355084466,  3.785228776306856
12.426848325027343, 12.939012512387961, 76.684167820032798,  4.027551940340790
 4.235571402210436,  5.910977615093223, 37.929514404018256,  3.652640780719127
 1.895446425370716, 14.333648094423106, 91.462821805117400,  3.990250996507529
 6.407349154413778,  0.077982686705518, 104.742189064240080,  3.948899525582442
 5.383627520301843,  4.120317509810700, 107.442111933972399,  3.853524720172497
11.456509522834198, 11.087191912684425, 111.698072964282687,  4.058593558107699
 2.147008742355430,  6.014318949702985, 54.859797778049341,  4.467744031999909
 4.073516939227742,  5.961972252659979,  1.710762390872393,  3.938805559377243
 8.635787327307288, 17.453482292368726, 47.078827071269217,  4.184843085036281
 0.858725120444976,  1.957253937099311, 54.630287289465251,  4.023359166626087
15.261636367933722,  4.357604472662176,  8.509751578021579,  3.809578596000681
16.031689895547817,  2.577151595168333, 65.600698508662234,  4.010576719468141
15.851106905127484, 10.561127875658395, 116.222195543730066,  3.917722427434460
18.772176199114092,  8.852493175926881, 12.319588221912866,  4.257414978242332
 8.680169995261423,  7.911720936991705, 96.196766365003967,  4.100396357249232
 0.765356265001324,  6.288841226827796, 61.348422180903029,  4.108580022486456
 3.754938382599235,  5.393931215449577, 87.229368607466867,  4.063960430262215
 9.551398177448039,  4.872121183315673, 74.831587045799935,  3.995328452048742
 4.848204672539825,  7.561910405352006, 79.569885252998290,  3.978542916430812
 4.741934082909792, 11.910333251167199, 89.583502489505491,  4.071506629425222
15.901261356359109,  7.662393153750513, 34.857323045236583,  4.092641427901386
 4.647500146394788,  1.964450383448462, 36.286817279350338,  3.974929307239561
 3.266448360212129,  8.218878091001868, 58.730844940317112,  3.774763925001135
10.897654278404216,  0.510493892184360, 39.838335438736323,  4.555290242894187
12.030124103968847, 16.946391659667619, 12.931847661499186,  3.852383879832812
 4.560576876467631, 14.462678393754070, 75.893190858687902,  4.158480572139082
 7.885416359502122, 13.243371757747088, 59.212987657045907,  4.167314562012673
13.245110312308547, 11.856635923352655, 63.275274315130211,  3.925739134581046
10.290832448399454, 10.881628692335070, 32.099189640953689,  3.984672440114053
15.735538266497718, 18.207678355289293, 63.420462040405496,  3.936632550446928
18.720326454858146,  2.556523665938146, 103.302300338604852,  4.001604591528911
12.179180527994827, 11.988946550133806, 115.591722880239246,  4.013282199970857
 3.179331573749889, 11.680216949869006, 42.263319614119830,  4.280558587807313
14.633909900795487, 11.218823868630690, 98.108243321774097,  4.203662143470763
 5.881103864382654,  4.166245346753845, 48.658229529213152,  4.238399252618962
14.906745432629901,  6.720477651115291, 98.550290643644146,  3.704497213611054
 8.726470210765804, 16.156903727563385, 50.868594687654031,  3.824021448395568
 0.930767513986198,  7.246153509690553, 22.157544473670832,  4.222190459200288
14.669035075410726,  2.707188618478660, 103.844497194706037,  4.171119841175226
16.785828404572420,  5.138560236212330, 27.498294530115846,  4.095069621268065
