BANDS
8 8
NANOPARTICLES
cell(1), 18.944
cell(2), 18.944
cell(3), 118.399
12.182709225738144,  7.820345865825701,  9.748837979681811,  3.797220911394458
 8.152309154006273, 14.380317005598190, 79.194202890355442,  4.015039609643940
11.571177938629255,  5.563561280022038,  6.516681684311323,  4.138065348270582
 8.584208384487797,  9.568881109307792, 65.323304912400573,  3.870772279454424
14.441435370865143,  1.985163504622433, 12.352185553672390,  3.943951443982656
 6.982939176002581, 17.467395456911188,  5.944098985148091,  4.173387078959237
 0.664464032650766, 13.860880838015788, 31.123397014150953,  3.586459059845335
 5.391663066202518,  3.698405944529122, 20.447260259062254,  4.248527319398412
 2.686701430556670, 11.458061840996882, 89.138439587802523,  4.026689561795058
 6.947647370766795,  5.841463127633126, 65.428936477857334,  4.252604188136218
 6.631010396628753, 17.850261820858108, 29.821529492814943,  3.960532302784304
11.505195422994127, 13.666892438484718, 12.469434726329398,  4.024550290610538
 8.133196004400682,  7.394800940883023, 44.878440662509362,  3.921783739554929
13.983427618233774,  8.917264296801038, 68.541959226883932,  4.338719480034252
 3.484755856391133, 14.373677635499641, 46.317261371131806,  3.903162778532261
15.212647616964031, 18.070854263191954, 64.440829640091437,  4.201590034849812
17.262570634092604,  3.943121054130313, 93.010189755617162,  3.904083795214467
17.517589323572800,  0.048958096468870, 103.046283658529390,  4.294004973368559
 8.160032729519616,  7.796034366741583, 81.770957398686392,  3.991392018421364
 7.715298434206784, 14.698893889775983, 60.183866225281399,  4.201112806678802
 5.121210797089026,  9.081616966463132, 72.007048316427671,  3.832040455251384
 6.654720870336971,  4.600558801504103, 54.503498762264329,  4.400190104082235
10.992789392931408, 13.714052785966112, 101.022016517250933,  4.260247855945947
16.484510461502378, 16.663678214843227, 114.715533425807308,  4.097380284243822
 3.035642020672443,  2.104626253675117, 60.139004350342745,  3.812386520256678
 4.259627147645362, 13.713702305622308, 100.983833565534241,  4.178179588594196
 7.455909572592909, 10.784522554472357, 14.006340493061757,  3.563066248505704
 0.258230160674488,  9.983179747395177, 12.031466769657778,  4.195670401908669
16.925890143492431, 16.942609160277630, 80.576610251370127,  4.220163100316880
16.880763302320073, 13.773710133404187, 51.713353682687455,  4.399936447379769
10.384645644056457,  0.158827340832390, 116.298757644545461,  3.977314239416922
15.452161135518903,  7.928152056988876, 28.543070790753937,  3.988278099183124
 8.116066100958220,  8.423423127204773, 74.264241228833171,  3.773077714167598
14.065441819965807,  6.946909307043492, 18.284634404427038,  3.855915663913641
 4.063417346693035, 11.377841587028989, 104.195162427770512,  3.603889851856243
12.057749671657652,  6.694354916893138, 58.168179176786253,  4.046700853893794
 6.060251105461021,  8.933309871098876, 17.000822263950347,  3.976569319433252
 2.114590548433471,  7.895773883890246,  8.010905145889852,  4.236899550437267
 0.472163728243916, 10.284561994552167, 36.201763417100842,  3.930927678888024
18.412478705448777,  3.117808513738327, 99.963484587258392,  4.115446004052622
 6.693221212126523, 13.345298481171740, 92.192622585491037,  4.022994273468855
 2.754241581616951,  1.179504938842147, 14.782529116076240,  3.965610248162970
 9.162544916141366, 13.803156248326804, 64.189753234533981,  4.187397810597768
 5.054820675903847, 13.754284644638469, 85.165663936584551,  3.954477595002056
14.127159647828321, 14.153786532728390, 94.551362902991585,  4.008399253251334
 0.311623636967466, 16.440590729163826, 68.863733584801437,  3.843192610421036
 3.992669467264135,  5.688314263110968, 77.939824798020624,  4.408341659300248
 6.483862093886940,  7.101781758024636, 109.179808487623262,  3.639413251780243
 5.827456461898133, 16.897101588791752, 24.591227094207916,  3.833727607713446
18.418473968259214, 10.730567961878590, 25.536345601075592,  3.959765266038268
 6.058881649509008,  4.120524464083951, 31.062708680906447,  3.844522510570355
 0.071505561969509, 11.262290645580501, 40.177697099578630,  4.273917369918552
16.883536801628278,  2.016158093021879, 51.876958406801513,  3.895535289230505
13.013863626197082,  4.234214441493092, 32.451548600211879,  3.939776787539905
10.685682928341176, 17.149838933911578, 87.308862986097481,  4.288671652834557
 9.925989339260328,  8.179815407596154, 16.965654014075415,  3.708306098611001
15.763751172484641,  2.482332596849847, 61.268535444931899,  3.919480192950631
 9.658002848013036, 13.535529262343097, 73.182333861327166,  4.081887511744370
 2.299558965779688,  3.590525964167572, 29.802570982806248,  4.138506762499405
17.010639958818913,  7.547088538452631, 40.786917851337506,  4.062388041939556
 4.768232490067137,  4.818408946700115, 50.547264604372756,  4.074662927779663
14.468953138740696, 12.488462700061364, 46.193703091577596,  4.007245394939276
18.161321895310010,  3.698798031045420, 64.137374218991411,  3.895673415993852
13.792192217357835, 14.304248786891941, 54.515790422257837,  3.830060234704632
14.682856790212076,  6.191480170885621, 94.971447419118846,  3.966232723125400
11.180126290749831, 16.154376045986577, 39.808846211471696,  4.279098339172148
 7.040920901783968, 17.139167906611618, 85.377575687138403,  3.892588166080665
 8.597764608896759,  2.090682749556124, 113.307076779973940,  3.965079012570426
10.094415399682630, 14.932090817230446, 53.231084199683984,  4.095841920802262
18.579270889229065, 13.255005142783022, 58.866119615953295,  4.178828325269346
 5.736390320245468, 18.302839700940641, 12.716043299457132,  3.824359741072260
10.021592622274932,  1.430887151652607, 47.412424264475661,  4.121037075079117
12.080887602020319, 13.716822898356993, 32.734420157401786,  3.884775608116404
 7.670336132040460,  5.772765226216167, 71.118998245889941,  4.423655876427052
10.661683858291715,  0.458635488836955, 65.675083225958858,  3.538271410631021
 0.536798353347984,  0.596640671278450, 54.862247268158988,  4.122329027347796
 4.405071129390500,  8.977230714032761, 111.512187999528933,  3.637274603081456
 0.506603952212515, 13.900512799021417, 115.254353830539316,  4.036992434745366
13.575739484193685,  4.846999069649994, 68.659361849171034,  3.812219575664165
17.046727343546593, 17.215719608366928, 72.004408007240613,  3.856520915570031
 4.617458847297616, 14.204693935269528, 11.164967736268366,  4.150533925904931
16.217102234479508, 10.485921289621496, 85.172101914135126,  4.250317755727989
12.063044394568172, 11.017039592450276, 64.428936094190078,  3.811562298501523
 7.470081667027155, 17.159660007563922, 51.152029141879112,  3.938548636109683
14.416306899744932,  4.582859538385105,  9.252872427202707,  3.994193882778127
 4.937017255474992,  0.246645064649709, 44.032712963620568,  3.806266800120078
 2.722487754759473,  9.948767535488219, 60.561863193699047,  4.158092783323352
13.475254108579051,  2.530062955281231, 117.993592203767406,  4.257152088531031
 4.065024250037972, 17.969030059487459,  9.005736945121193,  4.316121316874872
 3.645717307086572,  9.674340939772074, 38.695970899063944,  4.089701855410481
18.123423051888860, 16.736235115982222, 33.659512318307165,  4.066327129762808
17.169611062237536,  6.359114608589911, 70.396746313072185,  4.001050622715038
 5.996244292549654,  2.375535062914350, 85.190500349524285,  3.705119323862325
15.597390852009120, 13.301686801927540, 82.129238947510956,  4.101988504559265
 7.367634893519022, 18.565149848668582, 110.498438040096389,  3.771163205795413
15.764413404144509, 18.164819395070392, 58.920724980919914,  4.106799226963770
 0.487976974956944,  6.277545675293254,  4.072795549161143,  3.787183296469780
14.300610750199530,  3.606958018863939, 26.444144500361546,  3.998798238195221
17.954133492871030, 11.176463776802683, 48.688342657807503,  3.810027323836315
14.352889430795251, 16.139905060726186, 34.674711240775849,  3.805412622346257
17.452629794243332, 10.625507761257257, 75.279403357680124,  3.844417893067192
 0.370495540006246,  4.200749771376284, 15.018182027371155,  3.672789006893189
 2.547157186669206, 10.544426825691374, 47.011258246448101,  4.094411720852612
11.480089218282492, 14.084436450012189, 76.840556864578886,  4.129352543743912
16.885820565976388,  0.950433480437793, 112.147761745706205,  4.185721215488118
12.680288778434864,  4.752985549610661, 61.485720037157584,  3.735755265132152
12.531672528470276, 16.578833048208757, 60.628168153965092,  3.808017414698821
 0.098301415976953, 13.224176738706056,  5.394543978707520,  4.080678707730428
15.485467484691821, 14.711285671561573, 77.398913559345587,  4.045151901934057
 1.813021393726205,  9.341074010847771, 78.327294652540758,  3.981851338247732
 6.245964512194132,  4.367365526203047, 95.377829185275800,  3.949141941908646
15.641730016697601,  0.473705796601928, 91.538132888629406,  4.112682114328203
 9.768962551328968,  4.479481063648706, 10.055225406485311,  4.093165246094129
 2.896397142675533,  9.966461223407347, 23.743447869235911,  3.886460279876005
 6.590411063735497, 10.304676958744938, 27.515019246390128,  4.277445577315452
 5.836756802078737, 15.723641695083169, 35.736547932806104,  4.240823450010564
12.383229045118359,  1.153099659888278, 62.507218508857989,  3.740284122619261
 5.283652167878384,  7.703673830637679, 47.614223136626229,  3.880952720340724
 9.022424499959689, 11.494207575017809, 51.276882557061512,  3.941273210358090
13.701018945412622,  4.379497988568690, 55.365374364309581,  3.902764761272570
11.107431090097615, 18.163234442615767, 112.053500555751540,  4.047657867973782
11.342320588219696, 15.958346732692398, 16.646656118678365,  3.825854084730283
 6.241237370499901,  9.660250704960811,  2.371858123805197,  3.677485055512677
 7.123564732070885,  0.100685667382880, 69.534640817943853,  3.945487651844700
16.684879090896278, 11.729120310511950, 55.456884939553021,  4.139723259445882
 8.213248022168830, 14.930382689452930, 32.255973424968190,  4.249920894656409
 0.306527134566374, 15.717028492210607,  8.944665750006966,  4.080283712961294
16.687380992982344, 16.405379617555184, 45.035794479687439,  3.962365810415072
 7.425644331763717,  4.265236399138653,  4.190933735725594,  3.984903573511540
 6.430482005573894, 14.472884628720635, 21.211128768204350,  3.927692319792295
12.007955558073986,  2.498397189905148, 44.264408384847783,  3.620935902721088
11.682087670577079,  2.973926636470992, 35.933442798609391,  3.923878212481152
12.303277392599766, 11.377641605264484, 71.270303848945119,  3.740880964399028
 3.833463236532430,  7.697662951413351, 81.792481312922831,  4.208870736387781
 3.784183236372658,  3.703310723129287,  2.406174830754130,  4.178550780809056
 8.342576069772388,  2.098571154921144, 74.032295653730756,  4.259243489126683
 6.425525822873380,  8.252862196128838, 105.203867408435599,  4.351443349050503
14.620035593192963,  6.866705909463803, 35.803769243177285,  4.251606979654990
15.631111366249817,  3.983838858234158, 114.699245863956392,  4.098783705923618
 9.447907584850860,  7.028709494551264, 62.081098090792480,  4.209406669788402
 4.883840990702765,  0.564753656892764, 95.448959241740155,  4.125393737391152
16.910438017676434, 11.694795325750741, 90.982300211575236,  4.243545956094764
 7.865246933378359,  6.569185721869998,  7.183848534803264,  3.609717988954457
14.955129773124169,  1.201968165051482, 34.119981181324313,  3.984330079105849
11.719589528928466,  7.762374798888488, 26.805408808517665,  4.202966244620859
13.513242347544770, 14.611021171241335, 63.663145307624013,  3.635703633654046
12.904618464305845, 12.600748218867913, 86.323792999571964,  3.878882524857340
 6.814555014293020,  5.493502250948996, 101.992381222484994,  4.055124508174250
 7.127574611810871, 14.210846209329699, 48.560810835756733,  3.895852991558935
 9.867536272114021,  2.641538811713745, 56.348214162765856,  3.848389530386724
 5.635926363988105, 15.805332457681910, 81.886213756371276,  3.840894835116720
 0.127660664476571, 15.709860687317283, 15.801202516409987,  4.042075819334372
12.929669694250048,  0.652940362907865, 15.904156900653469,  4.091654224072943
13.089104171443813, 10.396200710138034,  0.196375087073787,  4.307396414908159
 6.691574959205393,  6.083330957959546,  0.608448746839577,  4.130410011431713
 5.265792048190845,  1.987146884244631, 36.424114180015344,  4.030612341857140
16.625325679351139,  8.366807065849438,  1.056474063696160,  3.847078901493466
12.384186607603358, 12.110060086587952, 97.476460287989340,  3.925476254209280
 9.789529594132050, 13.702249528555791, 89.559496509536103,  4.103186764687477
17.940714133155659,  3.635303059304682, 40.785618780796462,  3.961205478273470
 3.576361721286971, 16.781700563715336, 54.024785994065454,  4.214217133112644
12.954020601899112, 15.103827066751993, 113.745822986684004,  3.859125617752254
 4.093864411529739,  5.723911721131791, 37.603191130795480,  4.094851264829355
 3.244361754730127,  2.649293502270405, 11.023416051379204,  4.100527974372032
18.449891537044397,  9.813967582902240, 107.460767924871575,  4.123178119388665
18.077496600400849,  6.891481941739171, 18.731615069041496,  4.173358341452853
10.038155316852327, 10.686645276319096, 78.985048100287528,  4.261452493110068
 8.688882338522237, 13.659676734177104, 24.382442800926626,  4.024426333664860
 3.210202876983788, 12.356569346361599, 94.166163364728760,  4.180585728256983
12.066038000664550, 14.869176981711457, 110.050790905740342,  3.755761710436235
17.055888817510102,  9.536756247806316, 103.564882394524972,  4.147910506564484
13.463004036014324, 10.531994636900963, 57.785355571683823,  4.153361216780204
 8.738921556960685, 11.350282592299191, 20.668825839823352,  3.876424487998517
 5.480720505835663, 18.324117781495673, 20.946659703159291,  4.022888478356874
 5.226862951849405, 18.041437011700758, 61.829495922172654,  4.251454913639989
 6.773506334638467,  5.213371118889593, 34.695964235767143,  3.850707321445602
 7.553489493000583,  5.289533079017504, 17.427134865685918,  3.826794963743634
 3.644302582476907,  5.410835116046153, 57.885843347636843,  4.149227733930873
 7.782118948461175, 14.957545448683804, 13.915823971955300,  4.355450676352285
 4.470442018839634,  6.247753623928003, 23.678699204418351,  4.187022072741153
 0.166804688716851,  9.248323961954558, 43.873690473740972,  4.142581128245035
 0.159357946533698,  9.802966215330214, 82.102737081022340,  4.271439491657302
13.033648546987228,  3.099273732048692,  3.648212479978789,  3.963345413065281
15.532554594074943, 18.923797151391032, 99.566285608780689,  3.695988777181449
10.610570466011445,  4.312412528468207, 52.863492476342401,  4.019650870154451
13.967308416967715,  0.470436116054571, 71.105937779404741,  3.737592072626168
 1.771182855465950, 16.344597724095589, 63.379104358323239,  4.032205962092136
18.229575115577155, 16.775962765867039, 118.310154396891676,  3.886188825602018
 9.331909179860126,  3.061436901596143, 32.774239764517077,  3.814534754934217
 0.021311122356963, 18.673607389224614, 41.543554582056800,  4.228014345258022
17.864559342349761,  2.804668260286471, 89.030262595883684,  4.045748367820652
 9.898217510815941,  8.485416959255209, 107.643823552875972,  4.123129235996767
 2.312865471005218, 18.580739769790714, 18.480418855244434,  4.011548533484434
11.195111563348505, 16.246279684572521, 92.547578131793429,  4.233099388663679
18.509125270455801, 13.873541477366031, 12.318983346050087,  3.720124024416686
14.356052458984710, 16.037339185799897, 107.101663741564820,  3.999582616157032
13.633341275801573, 10.568041520175226, 16.186211808975237,  3.630141700385614
13.942071272081208,  0.292600324449264, 109.416110780252367,  3.925362916701880
 0.220243692825359,  0.845744514968422, 82.488334638898564,  3.965566507740097
15.519258668063117, 12.014483132272684, 61.488940355723791,  4.183567826084825
 0.760516083326764, 17.227982122621622, 59.068698886186077,  3.979616796184605
 9.361119514314815,  7.788000019702827,  3.833410889406314,  4.084923367656563
17.787390782072638, 11.883614448896656, 78.885865045740573,  3.817208753933331
12.781506935019809, 10.010998795733798, 33.876690685630308,  3.956205244620076
17.402562026582771,  5.468689980986423, 103.152873975199952,  4.057991714244888
 0.356756758533863, 10.124283462391841,  3.041572062346109,  3.675249631886932
10.443269896702130, 12.028518999621854, 67.864895716708276,  4.016726120124222
 8.791889181038909,  0.795065487950439, 10.974297912342493,  3.743139303151698
 7.239361621591778,  0.484208388737893, 82.091154012303519,  3.939992823718095
10.335062226382130,  0.359705115072552, 30.150123275548580,  3.945796935434115
14.978382915110851, 11.058383668490164, 12.586678674700707,  4.086111916018110
11.382877522123986,  9.556226836264031, 37.639582514055682,  4.011812007495713
17.485942470109080, 14.596106977956934, 88.052762557325096,  4.076890519426911
 2.157739037081831,  1.536248559903320, 22.169136891888275,  4.232245835153156
18.591542140049285,  3.966940261286276, 48.975070013476710,  3.878558063845737
16.655869672965640, 17.220878928680381, 25.116081029106269,  4.216691760768660
13.938575635245837,  6.522989973115486, 117.327699673292500,  3.891041045052440
 0.527927218998357, 13.968956089269518, 81.626315809093825,  3.802253417130019
10.843025427993155,  2.741733214356055, 13.374096249619127,  3.668596277323878
 2.112052547421537, 16.157913261806026, 95.504130966574166,  4.133876557303087
 3.298188779857376, 10.994700990351760, 69.098110574377714,  3.952097723269221
 0.121237902363986, 13.806036496974633, 108.458728056136295,  4.161044527255473
 0.292542663646601,  6.749247979441024, 37.679859219475190,  3.718831917219298
11.242935932720437, 15.493881312822998, 29.370048784318325,  3.873067221597199
13.510628931499097,  5.292705471675303, 105.265844289545896,  4.192535630579311
 9.932133768161918,  1.379146650186533,  5.527323418318819,  4.060610554984648
 0.221346690293558,  2.136454058011316,  3.786925250125504,  4.028718013892874
16.550968416771337, 15.608806502488100, 91.884788704271330,  3.746227869082569
 4.408922026513736,  2.095800734745676, 47.760344852628407,  3.724408351728344
15.499533605920501,  3.948414062391497, 15.991539983579035,  4.210851626591321
15.143349919989015, 12.500174649654355, 109.069880411566217,  4.174012669927943
17.434657491053830,  2.309376827566460, 24.091684924596741,  4.163121134452512
 1.359763321649482,  0.881910609955701, 97.441765786100717,  3.512003613896632
11.572504358409645,  6.224305522957994, 88.037770228854583,  3.809871672386548
 9.203411808058940, 11.621092613295007, 34.592551755192773,  4.015904300419508
 4.718817972595257,  9.092796390012685, 75.766707822801237,  3.721434059435861
 2.081225848159082, 10.852175337122484, 56.790451414796514,  3.693258846545605
18.513054199828101,  8.116283958643514, 55.630336843766692,  3.961518051903823
 3.618631751797808,  5.434016009233444, 106.959933981886664,  4.306326151401903
15.975566465754557,  5.471128548471280, 58.602971318512985,  4.095214930043634
14.354002422217354,  3.674018248610071, 64.682462931442132,  3.796616157589889
 3.823612393249154, 15.567432737140221, 28.043481892569218,  4.083539922158033
 4.169044003542828, 16.150307357541323, 69.421878672307457,  3.926809369462320
15.632209545663081,  2.085677099349248, 30.132645902997453,  4.260775142169646
16.700139659616312, 17.067276507979685, 29.004640853844485,  3.517151535107045
 2.170310660031918,  0.402793052035638,  0.695036786601262,  3.903777714034689
 1.213553184629275,  7.062821393062680, 110.114001938867986,  4.239473418309820
 7.720215252114869, 16.637689909996737, 114.117890107156555,  4.424850998385156
17.463871340277930, 17.954896104292033, 75.902623353276141,  4.101309904968187
 6.331721288627273,  8.611147023133460, 68.362465489898142,  3.884217944711916
 3.549488639104882,  6.147915862767772, 69.890735655619807,  4.053405847353637
 5.882893318510755, 12.884250177169241, 16.961433437746244,  3.912342005077492
10.021346593397288,  3.898321834691309,  1.276671357879626,  3.848586298206441
14.148784820505886,  5.062566133614415, 72.630856982727465,  3.943460616759738
 6.464143193842459, 15.604185777950020, 44.044521628358780,  3.974437818478755
 2.681721416421959,  7.171486821677012, 98.889194673173549,  3.973913706070439
 4.022151013743891, 10.845359468630893, 97.835272755648930,  3.897005616484591
 6.834448871746589, 16.116025637337465, 39.911220322721235,  4.355540498552815
 3.832693031546663, 18.700126567556072, 39.239686512893826,  3.650344630030071
13.252793687980111,  2.532382322271319, 87.200979084152763,  3.928092590344289
 6.100603670014612, 15.199669672979228, 88.701314372609005,  3.963820265456869
17.846158641414124,  4.791622323808236, 27.926880576829554,  3.983979474479161
15.439763326547022, 10.266974976430390, 38.147834038574111,  4.136938136589854
17.587958238023550, 13.971159489875795, 19.179204249646649,  4.095559605339001
 1.512087359072387,  0.157702907336768, 73.177108641519681,  4.279119913405249
 1.430759805361801,  7.226502697340407, 85.138121564132788,  4.070786499354625
15.126354362503244,  4.884833774041961, 80.268233026807124,  3.901798345892810
 4.714919559130868,  2.665580090937911, 71.852844444528870,  4.268653635785085
 2.867715394788483, 15.602925057819586, 74.767537864993571,  3.869531599265347
 3.763818336976783,  2.289451985829570, 55.703373515732252,  3.353487386965345
 2.609200909479879, 12.553951521885107, 14.517025988597066,  4.238853919533336
18.172592109795680, 14.341691275730165, 74.356602411831574,  3.863384012401114
16.895397504485267, 13.351714126987138, 35.733741250198428,  4.018213819330523
17.173827484375462,  1.829824202251705, 69.241551493400792,  4.135141296321513
 2.125410984744453, 18.528656067267328, 77.076140975044694,  3.563399303402554
 0.180026030864396,  0.453850729274415, 93.790796910214269,  4.140728301189694
 7.741859994437819, 11.818535422244555, 82.130387842552935,  3.784705722216607
 3.045716460260380,  2.021788142065980, 79.876979806291260,  4.022259409211478
14.574767656701173, 16.073349249953040, 103.076645526747200,  3.975970802406627
10.104484488130968,  7.021059000439537, 67.927372535774026,  3.967147142955818
 9.074444819195474,  3.552399846767289, 21.823699919276844,  3.483418465032193
11.140946732354541,  9.610630133007200, 13.196027738894868,  4.205504942036195
 4.294317359920458, 14.604023860915003, 116.893237315636497,  4.321830894180875
11.282748605917529, 16.868737222208605, 49.767360226098276,  4.175225344776963
17.774319949029000,  7.239148588229532, 113.505456424266796,  4.036580315494395
13.133134246644714, 17.712462899686528,  5.106918988150490,  4.183690048892747
 4.985838959308593,  2.603944332836473, 104.168278390742614,  4.040076274098410
 4.542074753457841,  8.621746411993334, 43.802794883277464,  3.957516971100397
12.253015160627850, 15.124281862273206, 70.556253111893355,  3.868728706147320
 5.460385745179932, 11.923986003102295, 31.257541558743000,  4.025420022506728
 4.293472436023177,  4.466654446387217, 110.923860247411255,  3.963847450597758
 2.333841805541729,  0.958410220265405, 101.717407963991377,  3.861619098398577
18.486968285845954,  9.162864024873839, 21.988958924920617,  3.767542900452079
13.270502849275053,  7.039452952362974,  2.816162010841913,  4.061843746068112
18.202909197489003, 16.332512727319831, 84.461746892231815,  4.000105663951292
 0.103038974835299,  8.592952528302709, 63.286126796317994,  3.847965255720736
15.880029113653618, 10.295624528415562, 19.328253203147302,  4.011572206386706
16.808454071868301, 10.206716079436514, 33.044274409856939,  4.258615629304901
 9.808105200430941,  9.876739851585466,  7.240859358631081,  3.914604724834776
 1.105703612981113, 13.431501616811422, 98.323632959470444,  3.929951701051535
10.438648311972242,  3.499430151822866, 102.187686723327303,  4.219472712703028
14.653149922392496,  8.123273607112056, 54.790353091872291,  3.866776256458377
 8.044791327080324,  7.272106052678390, 93.372470352953371,  3.973364450510083
 2.486615912245044,  3.652709360246854, 94.545350177079101,  3.876837441252577
13.709065728554211, 17.188902060632898, 117.884118602079525,  4.300775793399610
12.145263668161164,  7.719138348237369, 92.028805287618809,  4.249156627353708
10.841688762569923, 18.788922856791224, 69.143029417780483,  3.489117273952157
 0.609703359050747,  5.482723832072789, 60.760915456716035,  4.211939417759826
 9.956645398818022,  8.626404938612779, 23.088709110424464,  3.717627601306674
 8.028513318559096, 11.345886577817721, 55.059836339492215,  3.853507133308170
 1.018181570521750, 10.658118145683579, 18.675195226901369,  4.067835819949190
11.768728477607606,  7.043950125838537, 80.096370575098575,  4.088811060187825
 0.049977243797674,  1.480571814408488, 32.397402461814927,  3.900975328822608
 4.849094146880790,  7.199410347796971,  5.001058541253887,  3.939832139807299
10.518118618809741,  6.724098136078617, 34.754329198912686,  4.202738860422265
13.574965847207377, 16.702595922067118, 74.171118222614481,  4.389856983200764
 5.370010015268925,  6.095760142322419, 85.164911700980241,  3.834836732896727
 5.316238277538219, 11.522306175510256, 35.149759838753297,  3.803731959337165
 6.940241937257177, 10.599881856027839, 95.221369292523207,  3.886402960610004
12.705388324055887, 11.776041932608909, 91.660146829784139,  3.973634916758143
17.699077800308316,  4.042686635683118, 35.239441428421713,  4.160984351316713
 1.410080792963039, 13.652401395495879, 71.248519520098085,  3.793917560307105
 8.276704372624977,  3.736988508260158, 98.702699263434909,  3.938134657615647
13.059013654981337,  9.145591622355798, 48.046179777221901,  4.133816150761858
 4.377021322192797, 10.153091068440061, 11.709591403883781,  3.945545451055752
 6.615774122904084,  1.006726940769702, 100.932533399980727,  3.840868184860774
 3.523562817163451, 12.491027730182607, 110.300476174157893,  3.982086079198809
10.314322001632709,  4.692552593730284, 95.402553203865978,  4.007432838961388
 5.361284260635032, 15.004633026730257, 64.302196436524483,  3.573578803628129
 6.861365661574549,  0.608905854988056,  2.142656558374516,  4.471980263130881
 0.570123712751787, 12.471954034697724, 104.728680049295988,  3.788995522654824
13.062309732456596, 15.824529943203700, 80.314073170801947,  3.813078928648707
10.809966512259036,  6.429204566683731, 20.186019674228110,  3.748647755315659
 6.069526561633051,  7.808292520183137, 60.010221078907612,  3.835537466984831
13.102147014532934,  5.917988290552272, 13.176348815632057,  4.119483957978709
 2.966069098228541,  6.734405167027235, 54.100662864239510,  3.981573536952614
 3.117704467491564, 14.573105044807511, 57.372862492849421,  3.843683064648641
16.408454346359580,  4.476023131593489,  1.899733856810633,  4.118722784464590
11.326896914013410, 18.504851467417463, 33.959865355475152,  3.983184142808924
12.038259993767376,  9.977059920461237, 19.429439811797369,  3.687644612915967
13.782897638815372,  0.553971821167168, 114.530472163220850,  3.673946899534435
 7.532395071538708,  2.725827540922674, 116.992230616202519,  3.807515791442708
18.486740325643790,  2.153622932294262, 58.456852559916513,  3.921243984301829
15.617402288895036,  5.920425714305941, 87.479260756837476,  4.233258721429612
15.313092680853142,  9.879746893727711, 51.342373845655608,  3.949128700831805
12.741164491321062,  7.211027519088569, 64.953832305029110,  3.981290947362562
 3.673644689112070,  3.464553058078497, 116.639756913575681,  4.074735527580310
15.825881026160083,  1.743768948478894,  6.321621222695756,  4.196732631803930
12.241506527518535,  1.153603874483600,  8.914028605894485,  4.141520865600216
 8.902276247655704,  9.057469047082380, 41.114713388022757,  4.428282688567008
13.621212850401408,  9.101607984270451,  6.333449766875860,  4.041110371493093
14.659409916001247, 14.352163214415540, 58.307013079593695,  3.891272675290401
 7.634792389360652, 16.328741334347978, 17.907942051704996,  4.015782374533766
 7.865090733888543,  7.354660548074855, 89.221951191264139,  4.181572390798995
10.847476129006667,  8.824138053800548, 95.808633258453924,  4.027163648822393
14.369209269260827, 12.896496615488335, 67.102209772599991,  4.104080095647730
18.832779851117138,  0.923113533553982, 27.671789426615053,  3.977289464007013
 2.135998472763764,  3.554572603355982, 25.731084443189481,  3.941564823598735
12.229557156798570,  8.725998027423241, 84.794262700473809,  4.313773814189064
 0.783666955486488,  3.236981878627615, 18.772407586444309,  3.825250401376132
13.921688900271610,  8.402147270522008, 22.281912526787902,  3.822224782017234
 4.676676705745898,  4.756687618121753, 45.006147814954723,  3.933564078567143
 1.805200724044169, 17.975220660506576, 105.956259289456170,  3.862349694261670
 2.484941059427897, 16.004356877103692, 87.260875505756360,  3.961207240778683
 9.724311502329629, 15.014288875464345, 97.343167244383466,  3.938225055996917
 3.809148884565704,  4.476363167906385, 16.661721098105630,  3.908804106438262
 9.210343109640432,  9.080823883721273, 114.740778826013937,  4.636240065155908
 3.799801776338266, 10.843958615060854, 64.454387601316256,  3.954638684526765
16.753246106149991,  2.085778735089390, 73.312028254148132,  4.061174064705185
12.791906813778262,  0.550582455173140, 104.932775795713312,  3.945088266956851
12.858233990500128, 11.292362628282548, 114.512487760042745,  3.898749557429853
14.711713450817372, 17.505992729057471, 52.176842602171789,  4.272831582092636
13.690958817715218,  0.640147546732894, 23.288115601853878,  4.183160051189015
 6.042493467200101,  4.207003076672940, 61.509037543351226,  3.936438847511520
 3.752368728404524,  7.563076154157772, 88.501638939961552,  4.104800190218255
 0.132994243952905, 17.402499163483796,  5.287126453179057,  3.916046482302915
 6.824135089123324, 11.481481104731374, 45.537285945552817,  4.033055426139119
 7.501709382684275, 11.941760056774260, 117.697403694916161,  4.159933118669777
 5.684840691088000, 18.077883436371572, 78.604666822518823,  4.141150178563946
 4.224385695701486, 17.112509176290029, 91.921885798786661,  4.399730257113017
12.354718586203843, 13.025538151636757,  5.602739119914749,  4.047715524802386
17.417173020573575, 11.484280159692631, 29.239539847650974,  3.849222131544804
13.036035512842016, 14.016627725861689,  1.910854998059192,  3.674378378424946
 0.666805480579070, 15.841340323419441, 38.506864135242203,  4.140512075847296
 5.275251225790242,  6.005031556631939,  9.930616277456789,  4.019306148081157
16.884553919818543,  5.029101053694474, 12.266688779363603,  3.845286668546476
 3.928443454788431, 13.594961250439580, 38.565714605005141,  3.766129871216183
10.864214899450674,  1.026618354221255, 84.156934397916288,  4.140285720760537
14.613084509956655, 18.402338892267320, 41.165508100525464,  4.125855840547379
15.235292622305462, 10.210257518405149, 94.500686324103697,  4.082355279455487
10.966202068398577,  0.183863109176708, 53.285998535077496,  4.176526881506834
 1.593940764089842,  6.574605590295837, 46.754857155157246,  3.999658985848284
10.404849329750167, 14.929948560737621, 20.608238665664942,  3.998751833764488
 9.659108942031402, 13.053715095532203, 112.943955588208439,  4.043641876324659
 8.137732235823046, 18.097127136743044, 90.501331299862073,  3.954350915939206
 9.005887366065146,  2.095182612294189, 87.751782481056210,  4.204698776104676
10.255873135600586, 18.011621102681460, 76.406197410801582,  3.921919934980034
15.837820514377796, 18.355989505593381, 87.498806406963709,  4.176024892933041
13.912136595993973, 17.607195077110308, 31.248037155915462,  3.672161819832138
11.929751812693015, 17.747750810623412, 12.343666101221885,  4.160645687537441
 8.390822454932962, 10.963174842588682, 102.895795913788064,  3.763876848169107
13.646927616094599, 15.049627033777700, 89.346003721939454,  4.036262139338715
15.345141254389679, 16.911572691361378, 17.621634234993341,  3.853196517600500
 2.763378863184426,  3.991407614596091,  6.483344350071532,  4.245480298114449
11.011862975999378,  0.191906285457056,  1.871747431624029,  3.886829362017151
 6.432736322282725, 12.541331613186939, 67.059880994409994,  4.123084574143530
 3.277293545165862, 16.167898920686888, 109.032371192829487,  3.801644469337085
13.667844040070943,  1.300921085959007, 67.477235963866519,  3.662394236848246
 3.271257196746204, 11.679531246713436,  1.124430293238069,  3.799556829531674
12.498836533202034,  6.126566813804685, 45.263881931358874,  3.923065985617681
 6.116449196323144, 12.252961973079563, 107.277288274347484,  3.994868227950676
14.285697907407721, 12.636015034114495, 74.264317821534831,  3.819095231489888
 3.698635770896399, 18.566909997078834, 83.892244186299664,  3.920967488927992
 4.095632898379211,  3.292037182789215, 98.789474629344895,  4.200245581396396
15.583755063260377, 11.424923909664091,  3.516769527174222,  4.242091272313303
 7.590135109710012, 16.107577933531918, 100.553844325143075,  4.068894732645130
 5.728212221753518, 11.965161328848113, 113.777146029907499,  4.277367480986585
 0.823502519839998,  3.443470620789240, 75.864187082513098,  4.186424708464633
 1.522865515862837, 17.569705255713810, 45.191379356096846,  3.922977946298029
12.634731151718007, 17.506630545740361, 96.218819356902074,  4.032988559782355
12.191985855425909,  2.018704727824952, 98.536635982885997,  4.334391816999625
 1.443996907963140,  3.561463975260507, 52.369901403423661,  3.824024224526109
 0.022767786111567, 15.842934867187541, 111.816560107000242,  3.692907357279379
17.530492582378102, 13.734538732123234, 101.507200142502796,  4.177877695575351
18.870099017978184, 17.122843835953606, 21.363627483429596,  3.974988217151095
16.187357559855904, 12.465934363623026, 22.749687168870135,  3.973411555254988
12.432635503393932,  3.218460132789146, 111.893348973281050,  4.275169828004869
 2.664190034940552,  5.171549297223645, 102.262188774552783,  3.817367681134902
13.546793154381401, 13.425899962692284, 18.837371241996898,  3.790093727070483
13.975258226580715, 18.758930760434218, 77.840210174710805,  4.019969663996494
 1.392053608734567, 10.650457207739445, 101.265039483701585,  4.164978667082565
15.767774146175769,  0.432266286574509,  2.415656354445864,  4.044579399817518
 2.326783703574315, 17.167697365190605, 80.521410125796436,  3.803178563002252
11.920595275815325, 11.240774839804775, 104.488454976173927,  3.993411704554545
18.554669917087310, 12.957836947568390,  0.644267559495563,  3.876072609486708
 0.121718659045585,  0.673226366306340, 62.019840795784880,  3.677009204741233
18.906860271143668, 17.055997799786560, 99.554951030216117,  3.979369087663806
 9.863189233890466, 15.673653921400973,  3.562999876200131,  4.116640895347727
11.573796680158795,  2.009319235706491, 40.199546877873900,  3.993698367284955
 1.599871929550307,  8.032662232545166, 15.555261088966652,  4.146186135683401
11.431750136548469,  6.031196012668799, 98.962404583688667,  3.876897804927034
 0.639623763809528,  5.408214670143638, 22.345047314789781,  4.075279733102096
 1.265066545230820, 13.467614371427670, 54.163925796529426,  3.844996988350341
 6.547966231657429,  5.555041740419439, 114.194876504546656,  4.256551172997899
 7.170918735626018, 14.364459964241657, 104.130211227909328,  3.871637372865516
 3.801319691497762, 15.562399049069667, 112.868193572163321,  4.010626127295928
 9.907266467458435, 12.171820328319729, 16.778591228427860,  4.258048831635022
 1.222739049719418,  2.640746585409937, 45.531460314647632,  4.125977767216044
10.019819982585279, 12.537557976247893, 107.799204715783844,  3.897570610781575
 8.966047799815899,  0.143896687151347, 37.431172373859319,  4.472991211950718
15.672249191620677, 14.898401093234813, 39.287645080035880,  4.087950560423917
16.212211749068139,  8.111762913108210,  9.888025002461294,  4.011062780476842
 3.822304243531789, 11.919566101775427, 81.846359215726650,  3.961948298605894
10.770109885763986,  2.213372269315516, 25.519494111982020,  3.792184389141647
 7.054703317563916, 15.698345688574408, 75.502424439587060,  4.120294461800980
 5.723476142428528,  1.994818686750893, 24.221304708305365,  3.990023706795129
18.196298010846011, 12.826458422494699, 45.292948606429448,  3.681698071140361
12.171167180087545, 15.835805900828412, 24.463717951942190,  4.173922051491556
11.449056084105813, 12.723068662074784, 60.867525277791444,  4.159981321586049
 0.451180008868639,  9.570474697269907, 96.254440720439248,  4.316643979731716
 4.217826798082068, 15.696244529857784, 32.018648544855310,  3.859741378245943
11.902358155752886, 10.485297480435262, 110.697226900581256,  4.119838921276456
 6.895383036855683, 14.676658231893036, 110.417853545010331,  4.055291148681301
12.756055116523317, 11.607802263547239,  9.304397410870124,  3.914003132729250
10.451652170581308, 10.156637781450229, 88.078915551992566,  3.667777608611903
 0.770639669317040,  3.265284430659907, 108.914754245008680,  3.767206657879232
 5.453777354231555, 10.990828252175055, 49.501060895099180,  3.595397942508587
18.537147402354332,  8.950236408402247, 88.334263780843713,  4.025429449569674
 9.344993093201502,  9.822515775145444, 58.680985680079523,  4.228287033032087
13.228299433361837, 15.124845771850106, 43.344239461469598,  4.138776497746197
 4.079483419367723,  8.003579108351859, 34.395626365715437,  3.745198343098244
13.307187444976666,  7.308323812938029, 113.253867116135453,  4.500997014755767
 2.211799994872269, 12.626982900820968, 50.482032152188694,  3.913457692729135
 4.770953525629237, 10.910293962347062, 20.327881141513174,  4.123100012703174
 7.193496488704549,  1.713628635792074, 64.505121853390804,  4.190445556712603
 6.599984263159006,  8.248477793616072, 52.131810673524271,  4.302039332461606
 5.006553080840564,  6.875922893732377, 13.784459371561434,  3.868580275020086
14.520423715133164,  2.829250167148582, 102.067530127754054,  4.051877944639132
 4.655594816937388,  5.714186227307750, 91.884680124408803,  3.756097462133670
10.006007654042266, 12.682643257076327, 94.282745329871545,  3.758932065218402
 9.289437985522097, 17.660103413786604, 62.591797987954578,  4.046634578995499
10.396820334090739, 17.855596430496952, 108.009825424749835,  4.184785265723916
 3.182525257909316,  7.140786415679130, 19.588315737041359,  4.092493654535882
11.046423570788644, 15.159292396897694, 104.941697765260500,  4.081813043951202
 3.752447613077140, 16.261039473691739, 49.822777255979105,  4.075145075997490
 7.865998750052891, 17.022788265493407, 66.240510438296553,  3.869801566437444
 7.546932858069606, 16.558020950102406, 94.393016781508138,  3.923909404464820
15.047899874227372,  8.959644838853386, 72.626051095139232,  4.053786925507981
 4.243431608472979, 13.462652007931123, 78.004776959611476,  4.336276920595386
18.444637005158338,  5.453475240894041, 96.550067558295211,  4.141729389256943
17.689467195191039,  1.697748575979717, 117.424748966513334,  4.114124947646897
14.989085407171622, 16.102303215692839, 21.479912673163359,  4.050096803907070
10.852699990032169,  9.695599530761990, 100.204795651334720,  3.945894863838999
15.928065509154125, 18.232333255189548,  9.700012451949188,  4.131213799137702
 8.896042809530677,  3.265130198998442, 67.950120933316427,  3.817605881008368
 3.880630521276276,  0.598485458950016, 27.594681267019517,  3.863212574209612
 7.952474702228024, 16.065103509342535, 118.345912975220330,  4.037086005336508
 2.458081743678386, 18.151161948366898, 35.587668527444791,  4.039599635219342
14.310373017721551,  4.967633578851284, 51.500315486508811,  3.952288499858402
 8.930767588825367,  6.106348086510871, 13.790940310676103,  4.114525013310930
 1.073036798789265, 12.497686424845716, 85.399879868114837,  4.359595489391727
11.611724431537448, 15.892902556503222, 66.742647425399937,  3.997195462395524
 9.155402724163851, 17.619292870748286, 26.686425991539014,  4.098638397640461
15.447273956753842, 12.821674866488463, 105.108613951633515,  3.788426654725964
 0.797132640214944,  0.507238827218271, 86.367525943583317,  3.905280676140765
 7.435234003780034, 11.751241366314522, 76.038895150526386,  3.871503685808087
 6.224842678247240,  3.098031645009748, 13.734289807923259,  3.962076848842494
 9.530432816747400,  1.530420472497540, 18.612417462115420,  3.590532350796019
 4.724649473425025,  1.312701394038155, 113.315943333489301,  3.929164906857017
 0.472391145223457,  7.294375186924603, 33.771344748344788,  3.679240941482063
13.030538831652519, 12.970568655234642, 36.428130432464584,  3.861318751856035
10.727268257616512,  5.467723445214736, 74.861384517156353,  4.160916402973132
12.356028300362299, 17.278366422306444, 56.728365339971269,  4.115157275966268
13.063087423493215,  4.664304307320178, 83.759964377609094,  4.163937852007777
 2.953469875228036,  2.880493236260428, 41.720036312927768,  4.229049338996759
 4.992479100696471,  3.003006633403073, 67.723720659634949,  4.018776736698127
 8.010592843632370, 16.100461073466075,  9.720149202628054,  4.110501123505715
 4.085387714496952, 18.322598136363865, 66.061337886065530,  4.076595866668714
12.118876304223477, 11.951807341068950, 22.861775540547036,  4.216396549605962
17.619820656729839,  9.306412102048389,  6.337605143343302,  3.894213544059826
16.324147817761229, 13.348577814502008, 70.811127432924565,  4.315172612130064
11.716303180705975,  7.883529971049423, 51.599668162417920,  3.839066219542667
 8.011483952628520,  2.587010297197645, 78.212162842856998,  4.174035993083277
 7.890461814770995,  3.362802756662533, 109.606595446752749,  3.987629244498347
 9.030109962266135, 13.219626877760270, 85.571932060509042,  4.069581717971862
 6.842918123873769,  1.629182929195388, 40.853575165826506,  4.101667278721952
15.938533168975523,  8.775099594470634, 110.387830171826707,  3.815150958588668
 8.476686580219052,  8.178099594234782, 10.463113030411067,  3.773358265344481
 0.097879777558187,  5.722023900827580, 117.209917212331760,  4.357606523738359
13.728846778667409, 16.440924269408228, 84.310725913631117,  4.371614962055753
 4.170783144228829,  7.734027991170694, 95.261290209563199,  3.939940784317638
 6.264863209314242, 13.630584362806804,  3.041290921899040,  4.218257633077262
14.126751988248454,  8.656624134789903, 98.014436291145799,  3.883116317807011
11.373874563912022,  4.389860992984596, 16.841086920029380,  4.068836159029713
 4.287586228464260,  8.012073774023193, 30.388025191346554,  4.038790296685479
 5.956063094638775,  1.053839050087343, 17.248217907880363,  4.119961012734711
 9.698956489384029,  0.970844463373997, 93.859012134095252,  4.102233648127369
15.834366353710200,  5.796983554312918,  5.699511531997232,  4.000111102418808
 2.470165662799483, 11.224989486748873, 28.379325012823081,  4.330773250180105
 9.520827917508706, 13.139377432775463, 42.715296398346013,  4.307444932198206
16.153532563686852,  2.158562079839638, 106.569310873446128,  4.166691148599366
 3.488953396256611,  9.424091416094114, 107.798686577164190,  3.784544009874562
 8.399526218832928,  5.536716933418047, 25.196745023281128,  4.347085340483165
 7.691211879694589, 11.961029419147238, 99.088988848778257,  4.144412501707335
 5.663094306403695, 11.668784040348971, 58.234829342722733,  4.057048728511271
 6.583482395712764,  2.473166505757412,  7.942097054446831,  4.468871673950407
 1.176665528030512,  0.344007510473135, 48.871443604377163,  3.905440821232917
 4.507638793522493,  1.359320448816397, 108.143492243039930,  4.339480628800416
14.951529357989243, 15.654151910586281, 48.533420461494842,  3.890436264048561
 7.428309361923814, 18.737919015979866, 33.575100805903574,  3.831026217568023
 0.241888765770518,  8.100150608513642, 30.005375933829168,  3.934582042444581
 6.027367549986459,  9.953855884068538, 79.243593189255762,  3.890092880860311
 2.479038325453183, 13.952608962733759, 66.588299879515247,  3.975448431056163
 1.758307699621025,  0.196055004149188, 110.996231824958826,  3.906711590752538
 5.424088795289907, 14.375513422865801, 96.843556021035980,  3.850684640185365
 2.923109447962239,  7.721060912314052,  1.287876211694909,  4.152943924150103
15.595021475073105,  4.453824892445990, 76.369834002521088,  3.989646514660702
10.312039298079162, 12.094164755185060, 47.560930090076141,  3.979057013138100
17.335808622330305,  5.498760580086069, 44.434432269927456,  4.194264637584530
13.274346927447766, 18.290821478453584, 46.065558801036744,  4.039788550930462
 3.993397883421259, 17.454732398524598, 98.984307953842261,  4.173259412199519
11.277363639556825, 11.861893093118445, 26.869805432140261,  3.927131023853716
 3.574640870139747,  0.185447731210033,  4.651054528879951,  3.826639950425255
 2.462766580501583,  8.261771300540467, 50.404883841574545,  4.071606040670025
 5.241701659836612, 17.753788716217311, 72.710406321756807,  3.695668743460675
 9.817477097169352, 17.507842330989515, 72.505093922722949,  3.978425084852364
 2.307968794006046,  4.013800341847731, 87.336281463316439,  3.895349501832413
 3.574846875661015, 10.931751952507733,  4.928408381068075,  3.945730769031628
 8.444159823598005, 18.807909379083672, 97.608386742176123,  4.076530850100887
18.446097520263727, 14.706587862763719, 42.094040541774234,  3.685855812879168
12.706304510950481, 12.407114476620409, 40.242025273395939,  3.841943138756482
11.278890899446811, 17.937416115548828, 101.437984672850789,  4.244801805741299
 5.789385518749227,  4.058675280360005, 88.769066648490522,  3.591941684974646
10.756997500305948, 13.593131443656286, 56.957284276336871,  3.918880032991396
18.395102188761143, 11.311420172651420, 67.631878037562856,  4.294042110590834
11.777185312939855,  0.730847053677206, 90.403650596269443,  3.936111157107819
11.752075202055323,  7.641545034912566, 30.882329676454010,  3.952225335032691
 1.927233382065001, 10.610610286372651, 32.521263162877034,  3.924042822736672
 0.491932952527896, 15.172660688309719, 77.871864279421445,  3.758661762050284
 1.178846180020104, 13.629103405809936, 23.150682386236905,  4.254771878096100
17.750560158346996,  9.113350342692989, 59.465645565192418,  4.106870044457306
 2.562992402380682,  2.113878577824575, 90.854280526105086,  4.115000309102522
15.159788482292218,  8.913228635397720, 44.572890594197141,  3.901571220223608
15.001817559040367, 14.667826809602442, 11.071442305066972,  3.726045397911828
 2.826859202195344,  3.606657131382297, 83.504876695198533,  3.869564833873566
 6.075632839402626,  5.748663496417336, 41.290633170806153,  4.249095187802658
13.033835866404827,  8.799782534160597, 61.383022434308025,  3.855486174099318
 1.634172076115352,  6.187444374623195, 11.928445835822279,  3.772313666747556
13.502607395728322,  2.343808128826715, 94.493972433865736,  4.084396477150841
18.336524897124260,  4.897304779389033,  8.642885050867147,  3.925580351409582
15.626199992569694, 15.063504048509587,  7.089841140157207,  4.094559108197727
 5.454299104902258, 13.260322722197195, 72.257200011791411,  4.542095096589906
 9.761623277055353, 18.586976548530036, 42.945905138764395,  4.088931236201748
 1.208418534393279,  9.920814263691712, 116.473879893536150,  4.353806993935033
 6.677174205992243, 10.141628245978632, 23.589342977768222,  3.576601634249776
 6.371287213407887,  5.311421260968872, 74.842587080282243,  3.400537708639702
16.864443653421709,  7.992045665522534, 78.283778326052001,  4.213131522572700
11.268242631432704,  9.807008371686509, 44.479171352871177,  3.930236359889113
 3.893983141856974,  0.654452645071900, 32.120772094753143,  3.964350781850392
12.377391441775774,  3.022628828782391, 20.373983067297797,  3.736981938333488
 9.190663418891688,  5.135080849256163, 84.995619171615630,  4.001708454070888
 2.038531073825944, 11.996463629509810,  8.805941454044644,  4.112436564271238
14.144350057935858,  4.694344364631688, 41.864819605829034,  4.152465176458390
 2.146207813942224,  0.823050714424970, 69.246632609475242,  3.679698098358250
 2.809114110047147, 14.503552757933706, 19.253519027866979,  4.302093594640975
14.563840572329639, 10.282859441579040, 25.551334731735253,  3.781322671897264
 0.060072078742771,  0.175651629128454, 65.901226459619025,  4.128147101909656
16.101581222790017,  9.801013842364821, 115.950506028903618,  3.791066840176411
 9.753295899352057, 16.003930017890021, 82.606030301381765,  4.180120034835157
 1.091199675188675,  3.297662755078636, 113.470854941443406,  4.094995211743526
11.952470720229613, 15.656787248030550,  8.740692681484404,  3.967885065874214
 4.913799384145057, 17.563715891640090, 103.546120867324746,  3.997085796690836
10.009350839441112,  3.733445961395128, 81.435294227801194,  3.671473364571657
 1.846562480826917, 17.357046506194887, 24.925735044787103,  4.063823702134524
 8.658107366677216, 18.238897197749193, 58.315960376755250,  4.012839931062964
 2.706346530401407,  6.897968825222698, 114.095211597218480,  3.777982650817187
 0.934712662621164,  5.782119590765971, 90.742661800732577,  3.911949155212059
 1.129158204482695, 14.318669012443355, 91.336258008414660,  3.826751290384403
16.242294494583494, 12.827124907503869, 113.027106937234990,  4.060799885686473
17.348920798040901, 15.991764210683602, 55.624347551756898,  4.290473072954577
11.813499069254373, 10.962240795179833, 54.086103281042135,  3.982526076481228
 9.650366226558582,  7.653404905112711, 55.002734147290184,  4.126866258633603
 6.991969154718451,  0.289505907916695, 54.668159146066891,  4.231334868536194
 0.454190443944898,  1.060199524074036,  8.283283553406219,  4.039841658919962
17.743294051716141, 17.810416527158601, 108.615361825390224,  4.125449710410835
 4.145875413217572, 16.283500602590621, 15.711309193815801,  4.063067752226843
 8.324931796795514,  4.458640131424215, 105.693415761077190,  4.177386598309366
11.078850366227377,  3.078055050611469, 71.128760120210728,  3.879444749350708
14.331119034098629, 14.080829930888640, 15.178648566285572,  3.799976584939678
16.644646406724494,  2.694008784768667, 85.054455415151637,  4.083348372689687
15.539777822362325,  0.963141077121999, 55.351982930554406,  3.842748221867761
15.783770654525735, 12.127686519879591, 42.523844199058615,  3.756343711761178
16.392130203861953, 15.445059661526466,  3.136609298010967,  3.991951994325076
13.584144541018375, 11.116150700909396, 30.110494389194486,  4.029635340011325
13.952999065727994,  4.109013305861609, 90.818540654181263,  4.030423599993446
17.626917086028676,  7.858990958796826, 99.820571744169627,  4.131756833262258
 3.192206831915261,  2.861128703475562, 64.050415785439810,  4.160750651180298
 1.235154678158519, 17.411791636974325, 30.353759906705676,  3.753942074073485
 8.160731990546116,  8.822943834141677, 85.491007450585826,  3.696647408870181
 0.077501325042995,  9.867679489305917, 71.601190575730016,  4.218772354357645
 5.177803463025278,  9.607018524145548, 91.754440356855199,  4.088956686886196
15.402273143491112, 16.014485081723656, 111.060095053559465,  3.537699627567093
10.734619961520133,  4.719133295158445, 115.627068515871869,  4.201371908282580
 6.567563082824506, 16.870452137303282, 107.089135505547432,  3.933980429790662
 8.195202709714160, 12.083840119801243, 10.441467551967101,  4.051788783211592
15.290001618729585, 13.485124401879286, 116.912388969290888,  3.982846121930653
11.276935724344545,  5.017953687071318, 48.881439037709548,  4.026437490024418
 0.963359623731914,  2.852644058700084, 105.014091653687558,  4.056664496116170
 1.113791241100420,  4.074485044278588, 67.525269735321572,  3.903224306794939
11.425986836049811,  7.658608645625439, 71.573522422001830,  3.861533949968976
17.411366123152106,  1.832098749918771, 78.930908509903276,  4.173400763497921
18.121269400086554, 13.299076368510656, 94.683236314964390,  4.160953856895821
16.428615006456173, 11.809899946989535, 98.013424182845341,  3.866984887064890
 2.193323552993706, 11.741337965428656, 74.570745074311048,  3.976911623149706
 9.968174327331761, 15.304326365995919, 35.920209523146518,  3.880415429869723
 9.138583677938144, 10.406025744387000, 91.490318492608083,  3.643383360523856
13.112024387009432,  8.600589448103246, 41.163011721766672,  4.031661347349017
17.766511257928549, 15.722972171801128, 105.295810509968291,  3.635903602752453
16.669230806135783,  7.026042751197056, 24.777673995662099,  4.070718675839425
16.269158942661111,  0.303058468732840, 48.463275222023491,  3.737337604570669
 7.556875782714138,  2.321523602056868, 27.835174412430646,  4.128667568960543
 5.752311135959578, 13.637662619087147, 52.325565822819414,  4.151970597818530
 4.978768764808619,  0.109088383427136, 88.200753385886514,  4.076649756034686
 0.028209169105091, 14.407759027961921, 27.103572801575588,  4.023399824722853
12.069753822476322,  3.413778054965269, 78.166706320012281,  4.061572800438594
16.805578353746817,  7.447297797115659, 48.057334850414115,  4.086655685540313
 2.959033511261115,  6.273404352075933, 73.855749247412021,  3.932635066500309
16.761439800299410,  1.888442361854694, 96.612098900194113,  3.742100507648116
 6.675756058880727, 11.206972480812718, 88.256016049935155,  4.109289472863670
 8.365834763947289, 15.061853653981046, 69.647542783210710,  4.039814717885735
 7.527486676503985,  4.570883023557045, 47.705201927631052,  3.808780557888758
10.520768209975540,  3.996960613917194, 64.534772362825819,  3.862675476042717
 8.373862179039481,  5.618587573324044, 58.036757465519202,  3.570155979924220
 5.684092679892784, 11.792706602577367, 41.581590180044792,  4.061995104802863
 8.106526327283181,  6.781760263273638, 77.831941746307891,  4.029286634731597
 3.569044700673972, 14.630245351946234, 105.670224955499208,  3.598802163152670
14.065988440338350,  7.410379284492777, 101.794393206926060,  3.991646052762887
 1.149891142881156,  9.416078744065350, 92.175834001973740,  3.897232419015822
17.950997465461331,  6.650995116491528, 51.910650078575998,  4.099099993582730
 5.032865265252539,  5.342832901313804, 27.535200712292866,  3.763558853539011
12.319789396889941, 18.237501375578393, 19.561538949337681,  3.780616598022837
 9.623735113466992,  6.523368039980302, 111.305494496077372,  3.967303719850689
15.785899378124995, 14.265541248616717, 31.477760977083808,  3.993315123591729
 5.268771256679491,  9.194699826843417, 101.252718060802209,  4.091324073471378
 2.014828975616874, 13.926554727531782, 34.972962620688882,  4.314159637616665
 0.240547861212899, 17.099776590676115, 51.830601977949335,  3.674379204585174
 8.208801699129484,  6.859601596441322, 29.184898336608843,  4.008101623287747
12.765432272681219,  1.861539355554797, 74.527113174981750,  3.966639830345709
16.347125906113376,  1.447147110974343, 44.353283383885937,  4.147478840859212
 4.185551649836792,  0.955023226568234, 51.462001592239432,  3.946872778896723
 5.903380425302204,  8.287388846610728, 56.202250728298679,  3.837360540250180
14.299971916001153, 11.329170331570557, 101.231220231870623,  3.868373742482810
15.789080246748812, 17.415832521604457, 13.711172437248168,  4.040296647838323
10.097368226602304,  5.149609844833509, 42.250259040854644,  4.021525004603614
12.763845380487176, 13.026757762583538, 50.670274333284453,  4.155920289678166
 7.617442804397357, 14.238212171461505, 28.233497940981380,  3.946676461138321
14.474806742479984,  9.075360569989297, 106.731600803812128,  4.066189824540605
15.255246173422112, 16.788839107361710, 68.433162703638985,  4.178618416823878
 4.694539429092078,  2.076392726930058, 75.916562887270970,  3.932297070677621
 8.328688299875376,  4.264948378231431, 38.172977678878901,  3.978423711792797
 5.239428981120519, 18.599957557287514, 116.816230119722320,  3.862261680994206
 4.803113533183598, 13.148157951660304, 25.003411612598523,  3.909151044706122
16.320616435068946,  7.521392820529855, 91.515713490637381,  4.053598454196917
 8.625409038357770, 10.367817676495035, 70.973976299235105,  3.899340514608380
11.251585479042523, 10.432030376172582, 75.102766524829633,  3.857481883163232
 9.857209129602767,  4.241405908465074, 91.275263274948060,  4.209912369077639
 4.388133651614551, 18.256869002377154, 57.775685304772011,  3.980451856199761
12.154128735683683,  5.163115203662103, 23.528649963585519,  3.842915398086588
12.937915619285205,  6.291809662492434, 109.162573146996436,  3.928532289802476
 9.469847576157948, 11.271720173755673, 30.491946035041131,  4.222267594273745
 2.759481343064937,  4.110421450842503, 33.928745186697739,  4.153257088146330
14.208823481336410,  9.608323450483669, 88.673418152361947,  3.992979801733136
 0.870214691714032,  3.817923295509465, 71.628767298468432,  3.716982256292697
17.284176117532809,  0.047979493318500, 37.225946473496109,  4.094534962328969
17.692146763928715,  4.228905923718021, 55.153838959438531,  3.974694574501364
 5.825235945570000,  9.728242860912019,  7.992093975617988,  4.025899895017520
14.012658772679293, 11.010096857196990, 77.939152457013734,  3.965039099043983
 7.908714341233163,  2.176441051542181, 50.800413124171854,  4.000251862531965
13.040560597286719,  2.130586177087069, 58.483094471608702,  3.860900065519677
 6.740282016594551, 17.952125467723263, 47.296025266238424,  4.039506526428853
 0.160727329186186, 17.882408316642692, 89.982704911494167,  4.031528912635037
 1.994119568418183,  8.066949001704275, 66.701847659612227,  4.007197673390097
 1.528309637432167,  2.495301974206043, 37.848769731967828,  4.029910869974493
11.128279656689648,  4.097711691807940, 28.935985396326387,  4.042177467749564
17.827264504188516,  5.931524192552398, 107.014569790847730,  3.759746180069472
13.348092610850337, 18.631696533115043, 27.430459638762002,  4.277683651045825
 2.080594062443700,  6.863920562607761, 41.180317823453393,  3.995785621799557
17.588946656707101, 11.925523563453389, 15.577520269483795,  4.036347762689112
 7.087702215318835,  7.502430919879600, 20.722546820481554,  4.050417489547662
16.292133115217311,  1.046796520496510, 20.035434417990853,  4.163318915019384
 1.847659423681642,  8.227316362688864, 104.546325266062325,  3.870080492876104
16.423484024447859,  4.770298908004579, 110.529172166318844,  4.152350164887175
14.951505959905973,  3.223799089502084, 38.152294541364675,  3.987801164446048
 7.005431346968560, 15.180440409442125, 56.032506098016398,  4.233336897709376
 8.726226623547197, 12.542046002046737, 38.574464915765667,  4.149558615186878
 3.849986481266628, 13.848000306853020, 61.097881724217828,  3.857209720286212
15.096907522214975,  4.900732706228325, 98.644717839110172,  3.804937371547450
11.939346709992318,  5.759418521141726, 38.660694895164816,  3.879653406351758
15.626742137118194,  4.934910479393419, 21.426385889346307,  4.091216532355660
17.608312743909114, 14.910776863499875, 65.616578116637143,  4.053299679174973
 4.458911663269331,  9.849819944617980, 85.203373629386292,  3.889890894814327
 9.578512628519674,  2.722880700588253, 60.305456015257796,  4.037324823142156
 9.428030002406883, 18.600217376573681, 22.527831893473572,  4.447904429042386
 6.961113004505988, 11.082267425523865, 62.024736595789626,  4.026006497210263
15.904154323290641,  6.481355443015802, 62.564105568062153,  3.855327056965599
 7.381349792634083,  8.524983830431623, 37.030911065861439,  4.340734645540652
16.485236612244705,  6.333065156057494, 66.504106255633573,  3.902832826076016
14.966756119622531,  3.844890460766078, 47.404476072546153,  3.978785813867586
14.371955928340579,  1.114300272415174, 81.854326807882941,  4.228102477238610
16.982924669765929, 11.953444852991751,  9.227801425292730,  3.925761200227087
11.645659744054027, 12.348187203513726, 82.573544438677970,  4.043245714308815
11.415586509961479,  2.900657175733834, 107.839323217454236,  3.951461529278712
 5.215141162129612,  8.805706727522866, 116.388588943940874,  3.965505675122774
18.025309785451721,  6.848838772026407, 74.326673539043838,  3.949245455756623
17.160989294622759, 15.697887651929936, 61.743823469643907,  3.864637270105757
10.736401134556528,  0.188579494584677, 80.170325731443185,  3.983798765087012
14.444023058291631, 15.180149851318316, 99.112129423154244,  4.151835745834949
16.558853700034369,  5.743179796056019, 31.737474466703841,  3.896632238797519
 3.658969264318385,  6.937479753984147, 63.158887994727088,  3.974676978931308
 2.441734083634640, 15.531281404742794,  2.353742978658575,  4.430358510178105
 7.774135998943966, 10.496450882026739, 110.489450769701818,  3.970528054937867
 7.566970108002093,  7.752059082406607, 98.063664738259675,  4.203744754555529
16.660750406251065,  6.686658561952621, 83.499661954836711,  4.085012434028628
13.309080247051531, 18.671389156657458, 37.386095589659902,  3.882856879255896
13.680321805940515,  7.727975501746490, 76.017393638639362,  3.619266891716629
 9.098293552145496, 18.726068743161800, 15.067328968070781,  3.936071404232914
 6.479747242513792,  2.525348457148669, 58.024810174839502,  3.666528362810375
15.712502526094010,  9.817359578320758, 64.891096470434050,  3.922076251798800
11.066584068243646, 13.870108487282792, 116.983118514617956,  4.017922736392819
 2.297473832119761, 12.482552568817571, 43.253502211650314,  3.609962763440686
10.330701475848805,  7.484932512439219, 103.589498353146752,  4.205912207043431
 0.468533881383027, 12.529348498348643, 62.853753905474740,  4.084232384001153
 0.449176527881665,  5.329788326424428, 80.546153613112992,  4.407117553982438
18.460505955773019,  1.336539612402968, 12.290196506386778,  4.181966565002184
 9.061863645622433,  8.414556605022455, 48.692447802068671,  4.087645250164561
18.904956587186504, 10.346343906112603, 52.535950755104984,  3.633868118995109
 3.888947277290130, 14.718317613971868,  6.308038970141480,  4.135568383891743
 6.380709427147983,  2.304605296882321, 92.045999930334318,  3.891560219248078
 7.485181297846583,  8.458396233661828, 32.735589600185229,  3.861718535777544
 8.194921415885847, 13.457118009331854,  6.668967884735887,  3.913410808469034
13.034952797917025,  1.524715085490640, 50.007832092130798,  3.785187905103800
 1.927286229703457, 16.986286390928299, 12.426586056812646,  3.979836537082916
 9.909592440963696, 11.660098371984001,  2.645796286910830,  4.087597721567324
14.792942871807904, 14.018860652124118, 27.312949268289717,  4.365515092641831
10.036082443535534, 15.799377321638783, 45.947593007485743,  4.119572177088715
10.321899511879090,  7.490054385333129,  0.044406753882829,  3.723590762860482
14.612888866785516,  9.472804576612944, 81.489552695545839,  3.853073179451085
 0.032803705362503, 15.309352181216340, 48.270242688934964,  4.202714190640386
 1.495257068680473,  7.406594026501508, 26.344570861435383,  3.927558386945547
 1.469105358077692, 18.307506179330936, 115.088558026282755,  4.442511443735658
 0.689523248250224, 10.616105754604730, 112.385476111286380,  3.983388330479576
 3.123881682991883, 15.978943532298358, 41.880930245281718,  4.000356216830242
 8.567596516554497,  0.409418181045533, 104.461301367643529,  4.295002412208928
 3.527902014631649, 10.523956717661177, 53.388569019420920,  3.689518353225067
 6.179520810935996,  4.302515651479525, 81.487574112851121,  4.058670292170119
 1.587108844462616, 15.856224925707648, 102.846293089740442,  3.592090776113984
17.999919967123532,  0.625231744421169, 16.327816333127437,  4.035639705626322
16.684350838105896, 16.927432885995493, 96.066470860583834,  4.111078768667684
16.372453632228293,  7.964367403259775, 15.002340463462058,  4.242106195180918
 7.939709006337504,  2.804168688227579, 44.409611835924004,  3.647974163392742
