BANDS
8 8
NANOPARTICLES
cell(1), 18.934
cell(2), 18.934
cell(3), 118.337
11.155989170606125,  4.924876389070248, 115.997494459275217,  4.005324363436571
11.202893247088856, 14.685177520177659, 14.179621300646824,  4.176050694506571
 4.001692706436579, 12.468847408169912, 107.655065520966247,  4.107682388109513
13.747184596015050, 14.746067745440053, 22.694290744045684,  3.854279296087578
 6.482801356969866,  7.289509342566825, 44.734824111004201,  3.871234303714873
12.835258964153283, 15.466948268531805, 97.008626707834395,  4.272138149298488
 0.671055976041596, 15.305759424435740, 61.756040174002713,  4.146389078618187
15.347801434214441, 14.652714736896058, 14.905529489630053,  4.055565967255788
13.937109254698713,  3.791377781693488, 89.354951058674558,  4.344235355172200
11.586462973833402,  6.326074932497728, 50.254485458165270,  3.809612322467690
17.475063095023526,  6.410464514067578,  3.788727323228433,  3.903801090201876
 4.693779481702906, 11.014669382776221, 67.386656820621170,  3.876467199348749
 4.129295095095757, 17.054795986625390, 63.090211510530054,  3.858979644399006
15.417394162919457,  5.692950666814093, 30.539999418556754,  3.800331855122934
14.919616599753409,  6.200176786021006, 47.774572730369485,  4.229325383371737
15.333712926179812, 14.746494084434635, 19.015150535008335,  4.133505598591553
 1.433984628769159, 18.295723196292283, 71.984497480421012,  4.114879334886268
13.494131879186693,  2.217519791942404, 64.646566064515810,  3.926129642212880
 0.691948981883327, 17.575030094999288,  6.459596565284623,  3.887424431499857
 6.362712854045363, 16.345743036673831, 54.180058253529104,  3.971411286756860
 7.864367628400140,  6.810447958701299, 35.226650336591014,  4.032678559655208
 5.158309208540883,  9.073788243717855, 15.971271962980738,  3.659500014946203
 2.062617913729772,  1.075949707418652, 32.619543873789780,  4.132674982375922
11.221749760168189,  3.829840481830326, 53.204567597690946,  3.766268535712917
 2.383511837616433,  5.170367706814743, 76.082993554693303,  3.808594229722593
11.755445016362122, 12.871996453809796, 112.469488393716176,  4.127476384607448
12.539918331106538,  4.271956150152789, 104.850244647251330,  4.066730822132384
17.704362557003773, 18.380700796025558, 26.652691669086959,  3.982970470600192
 6.167764572065129, 11.486401397842055, 45.380785017016727,  4.109650437667592
11.839380363764882,  4.247578920387848, 30.358575868475953,  3.804759297036077
12.443052437469790,  2.980082603724746, 94.245556212144407,  4.195274375272597
13.354478983172514, 11.095543454901984, 20.862311116978841,  4.164676811830698
10.205217374110438, 13.977527985145709, 101.974372874490498,  3.893894159420279
 0.115568787380371, 16.490919050961271,  2.907128063540136,  3.626783226242854
 9.782782785269665,  3.295900295329694, 35.615373849323511,  3.947813307575433
 5.833104866473426,  7.273628186131586, 26.608166950282580,  3.805013646292003
 7.116598206314118,  6.560034092260750, 11.744152001010448,  4.194032320650198
 2.947234102170893,  8.340819049857474, 69.934569284754247,  4.108959411840305
12.292374873543807,  5.994547366196866, 36.799272084171513,  3.762542048016111
 0.732696476579143,  5.337192720400787, 79.819165722393251,  4.349550403020867
16.884175665751606,  1.678671693043350, 14.550113240104301,  3.971429900285205
16.166036099584044, 12.484081225756018, 88.292399792452045,  3.777881021927717
16.180680263932469, 16.680308186476370, 63.072405994664472,  3.686807543805851
 6.083300104000327, 16.253707407310397, 77.376327527472910,  3.956207074823183
 4.876824311106354,  2.584497533031542,  3.314102745984574,  3.633799146374425
11.332345845156681, 17.200246528475972, 100.268402417973931,  3.697943932260911
 2.672120460227801, 11.081226721460325, 83.915692641105039,  4.334672036252016
 3.099906157485059, 18.922973997186663, 107.696635800694963,  4.087606685297714
 9.099034110028246,  9.819391735761510, 43.011106934196199,  4.127106957878069
 5.975976121959919,  6.076414997559966, 105.781549973081340,  3.597399901986640
 0.065113612084899, 11.345318551837625, 26.097733781599715,  4.001990817235494
 8.153049755797229, 17.928666124090928, 69.067586114856752,  4.004631594947034
 8.781523783441639, 18.165947935915867, 87.510888968624997,  3.800274302303542
12.467181425799568,  8.402423631099953, 113.539644757255800,  3.976993972599443
 7.288509917046881, 13.968227372393571, 68.426247671719111,  4.129808712618623
 8.506474169070950, 13.648017340536654, 105.481846620817365,  3.917340531738203
10.235205433053874, 10.667288415170058, 13.099872843210447,  4.331159061975814
13.187652751211278, 13.972977034665984,  1.474818222692027,  3.944262020084923
 0.103861702737689,  8.370187478349738, 76.868388376782974,  4.199939715652460
 3.584103317982041,  8.946716341375359, 105.901034271346390,  3.803332042333801
15.561541759409305,  6.334936590626574, 11.892428072042236,  4.064055243698434
 4.808325549065481, 17.182278597607223, 11.522271212531670,  3.851834740233434
17.145929902550964, 13.474447735279558,  1.574786239624828,  3.985321520735241
15.916702897185814, 17.358600093597211,  0.977059742059992,  3.920545297842419
 5.669873019116867, 14.361479909271917, 80.914286765162743,  4.035981848679548
 5.567148602560302,  1.352370636869463, 40.527272973933691,  4.009370982632929
 9.463984044192252,  2.605824311074358, 39.902946680013272,  4.132091852083282
17.550583334227216, 17.190887932878933, 47.015303421349721,  4.086444281779527
 9.210242475602257,  2.365491632022240, 113.286001663152007,  4.040391108269533
 6.947287371597581, 17.590113579702052, 95.835025246521397,  4.255672441518781
13.551017631545461,  4.669578522123699, 59.349307643822101,  3.976998975402557
14.776857161135785,  8.224647419412960, 77.471021266274391,  4.138838640142625
 8.043601387277061, 11.934783612547969, 53.562400504152222,  4.527912601419970
 1.526346935529690,  2.881358854534863, 116.325007199875643,  3.845907690367520
14.839012515093806,  2.897732519303580, 44.109340945614733,  4.450658859805440
 5.715109529976959,  7.496185824297456,  1.899882625833129,  4.089785605327538
 9.324955909439133, 17.047484317216071, 17.045238603667045,  4.035835815345915
 5.434352874041928, 15.831991660467958, 29.458064305138624,  4.293472304751728
 7.299885514146629,  9.243892984527129, 32.000488081738759,  4.052802100784833
17.493555970297766, 13.758562356098707, 32.674717099811552,  4.050894447892571
 0.216160380084288,  2.774075442813897, 106.634483934479789,  4.206807681937521
 0.813456394992988,  8.722968288337160, 42.128909887982864,  3.869987875093749
 1.944483423859735, 13.123873022939273, 22.901061328883660,  4.171174041819325
18.371071650986039, 14.591372770911528, 72.395475962818068,  4.318502346627524
16.198215025251805,  2.573827175811063, 53.136914957271429,  4.024679475305449
16.288471815784117, 12.883435035286556, 69.210483999208250,  3.933686965421653
 1.844847019668131, 14.756381339131510, 69.021093367269103,  3.938194003165664
 8.847747823441631, 17.803636157301117, 56.789490979028656,  3.725608667374291
 2.765455790398140,  6.783007701835369, 99.111804340693965,  4.094450644546515
10.582003309528547,  7.992120843806140, 99.994384434843866,  4.156780095595253
15.216787035311764, 15.610540445448239,  4.503013019915296,  4.047215794615473
 6.543776064968912, 14.600437500363560,  3.401964434110112,  4.088049676697675
15.814001799934687,  2.424815226082090, 28.403003656060086,  3.767036024596420
 9.015604860888327, 10.101828780744160, 26.763340340864517,  3.849798460186464
 8.305804314421113,  4.346759873715167, 32.094392245116822,  3.952651290690912
15.358899424729229, 15.766582834294727, 86.086057356489505,  3.719116842392046
10.292904471172477, 13.645471428990550,  4.897940106920751,  4.143295564973294
11.874113104370817, 18.491550150065457, 67.877187288168713,  3.838931665991886
 3.202755569513207,  6.921777821457074, 13.297128304671878,  4.222058254215677
10.852035232235155, 12.714370421806924,  8.946492208225544,  4.191240942736743
10.023937771958625,  2.852385418770102, 75.116285591541740,  4.567281711489047
14.938186493414831,  3.220177224352504, 101.736145756365602,  3.757904467641312
 6.496949157103973, 14.913940988067324, 101.546791254791472,  3.753141691633644
 4.389705856588895, 16.388915154173251, 39.866398211400977,  4.231924290988324
15.389106348526628,  7.796691292632153, 73.177880323385068,  4.228387401543418
10.459369340702178, 15.720224083430171, 53.715918581560075,  4.359023203989296
 8.076135555959699, 14.836848934191375, 117.529910018544470,  4.340491197645678
 9.516686948412321,  5.695872384539643, 64.693696110581428,  4.287253623772420
10.817716596705990,  9.755355892276286,  6.073929714626727,  3.959026851530826
14.479779878306768,  8.738775374282900, 32.932668950237463,  3.988104210499159
 9.768966208867424,  5.998516334641897, 93.289837502544756,  3.931808963730749
 6.326367761102363,  0.865545717533714, 85.240468866932005,  3.627034857466264
18.731767217797255,  4.938940710045554, 65.331424827486941,  4.239450556546268
 0.892245600369384,  0.170147321455617, 18.653939055655353,  3.796305879281230
 4.107254707886955,  3.642649982409558, 86.452988228684390,  3.883210866879729
11.217545444176011,  9.263663189975327, 17.945925441499888,  3.813533112325487
 0.873524512490405, 10.320222385233315, 94.470478468699298,  3.810210576354784
 0.084606711610296,  8.044906078412165, 10.764690323126095,  3.968491070951430
10.850209082971421,  9.620006304380494, 83.945022694395249,  4.275030768952276
13.280618234281810, 11.441909969412277, 15.605656824087861,  3.698725206428979
11.910611319519928,  7.924019340291193, 67.282646245418050,  3.795077913796119
10.830553446027867, 17.974500781448985, 94.174769872131165,  4.221394636735764
 4.024560737617528, 16.292393884018217, 21.260919724516061,  4.071329826657657
 0.301391034280689,  4.773681161326185, 58.584459234414389,  3.909552407024094
 5.666997839286743, 16.687513367014759, 25.133794477350573,  3.964140652186728
16.828258654296640,  1.092749277049353, 116.470028861274358,  4.088078940924431
 8.187448681360854, 12.913981497479982, 34.861496295841725,  4.307321162330638
 9.728154313940754, 17.509898863791452, 76.068366494165971,  4.162726325211036
12.015788075692601,  1.536768018577444, 57.375911170917142,  3.970117455658241
10.089871223331391, 17.589664942912886,  4.834774170064892,  3.648269100942581
 8.774774306903517,  4.355024732238030, 79.821370078755066,  3.952852695355565
 9.867312060584936, 11.757867335845084,  1.329325822036963,  3.935986941665968
 6.862591958223213,  9.167887560179468, 70.909664449755738,  4.020831780431558
 0.259701024253319, 13.355364515599288, 81.174837745933559,  4.257544352879108
13.996371820034506,  5.429998273925549, 27.016533078220029,  3.705988167284412
12.614768599447830,  2.104923101106106, 37.759027185183740,  3.529831763541453
13.922997009977998,  9.336270116751406, 50.230375712950448,  3.800633552099933
11.808179836174666, 11.504132207431029, 68.973881858009278,  3.814622787856692
12.624176979374354, 11.752269735075842, 43.026410326024831,  3.854566250093729
11.901978006856837,  0.148505456855512, 27.852503229261167,  3.764562088978859
14.955175010675784,  3.530253610815397,  5.298048226537392,  4.041119172193554
 1.955530740851618, 15.930461444503379, 31.837187890925197,  4.120195645739637
 3.978638196061759, 16.216365551240003, 49.998651540108504,  4.100703550691313
16.039272311846496, 11.589272455255429, 83.661586875120008,  4.235111559186903
10.320613375844289, 10.387904086818819, 92.150575005942571,  4.089035278259384
15.387391062801763, 11.623390993335393, 98.546378058756602,  4.101318526245681
17.305160495137955, 16.737179963643754, 68.789039338508573,  4.050862979511789
 5.848996972438273,  7.327560871487521, 67.402615870189251,  3.849802760310256
 8.106265447957892, 14.872516519451095, 11.295876814436532,  4.181101861466138
11.225563965208954,  4.129413114725380, 101.056773634905923,  3.919264346474599
 7.242884178189707, 18.519856080164718,  2.177611335252094,  4.226738296668673
 4.502458429688361,  1.524670022166479, 18.719273065571482,  3.876785143520568
10.091765821240861, 12.513136136906125, 40.035286202777748,  4.127717752295430
12.540745559286076, 13.228122414698406, 85.109624531463524,  4.016511993439475
 5.353894194401578, 15.890323450398146, 35.295142849937633,  3.853273966337654
11.127835342446764,  8.001136548522641, 22.223826399141750,  3.908339553354563
12.862742375885896,  3.387323197877619, 82.701245871975530,  4.215324053987609
 8.632711655847810, 10.343699919477908, 102.924608691747224,  4.238815365077932
 9.988039764974465, 11.384840240216969, 115.764421200651000,  3.904463250439917
 6.642639983119733,  0.940298768886603,  9.578061003915757,  3.669126966503217
 3.209556160745040, 11.484522808147204, 100.183384103380817,  4.062060140408224
 7.143015750163668,  3.938715533552791, 54.755211004621223,  4.148655006895394
 6.391228035267810,  1.232263400228449, 62.311848237194312,  3.977782069768094
 3.685668298883190, 17.618571574239969, 86.897490060487073,  3.929120663714201
13.698646150515483,  6.130284351823295,  2.317278314125544,  4.158076817274508
 6.136246811520125,  7.536661920048426, 48.701265488673783,  4.105252647059731
 8.942073563299347,  2.555524361014735, 103.629268575528826,  3.629782178982416
 5.123385342265311, 15.906932374016487, 105.508371669662097,  4.216890756503564
 6.201087314513637,  9.208231264962404, 77.739329276029807,  4.011148397013791
10.693308507320941, 17.666149202307743, 114.223098720208668,  3.751882108000590
16.264736494330851,  8.823584436301935, 95.222144293478351,  3.985297921715761
17.843549739771230, 13.484217418007285, 11.956528173434103,  3.960537342397338
 0.241553035637490, 16.104956956859528, 39.115776483624231,  4.131641801623530
 4.600038567683369,  1.014468831056291, 22.970683661764280,  4.067403515349103
16.817740614155159, 11.974627725198333, 107.925939561036117,  4.040501240798233
14.057890544808167, 12.346552888020765, 34.387393723428239,  3.820914890136307
 9.432351648346296, 16.419499103713836, 80.178342156160056,  4.347291419836340
18.487785769530252,  9.892969457358442, 86.478423133668443,  3.959276736259890
 3.055079261734014, 15.042537377421221, 74.197097298338889,  3.791679754270037
 9.484299612968323,  9.623033616136803, 50.257527785785015,  4.009355979260369
 0.653903118453579,  8.472077521666249,  6.684522881533347,  4.253764685265697
 9.783869762785690,  0.993531538247086, 49.711645685413671,  4.014532973081105
 8.101961725744314,  4.535783272582798, 50.738749660527482,  4.078978389034317
 0.217776586371146,  7.039628637372672, 38.575685824570932,  4.063872802208249
 9.665546486182938, 17.708562498824922,  8.728143762264770,  3.949488496229142
 9.107877056642002, 14.275595774449974, 86.928087939790927,  3.962321561280735
18.918744019264814, 10.547470060234906, 55.613087761546460,  4.070664267515748
17.089149419583446, 13.966639436824405, 45.000351991337418,  3.556100846440780
13.965004416099443, 11.726707945404549, 72.360847410188484,  4.226319030268447
14.983469550549826,  3.856116379025797, 17.260816326198793,  3.888310028849534
 4.000533123258584,  3.806170522179450, 58.746480210094923,  3.713507830826821
 7.060304875900562,  3.221469514868265, 109.956724823638325,  4.065395585778566
13.395456734698847,  0.093592466062240,  3.496160431656024,  3.938343800125319
12.747924794700173,  1.771641819470588, 71.151425602668184,  3.982401721456854
 4.887628659188670,  3.159455708492781, 82.615029850269494,  3.894193166216762
 6.467326262998166,  3.859049698470137, 25.026444783594386,  3.785546993750866
12.753397149476418, 14.216779859705948, 81.275133739075272,  3.911792768692854
 3.150354039854100,  5.927310270979222, 55.811410725925469,  3.721848539760727
16.997359838785403, 15.767252979602503, 97.897126762061916,  4.188133170663316
11.531239312075478, 12.995062706393501, 27.879066151465096,  4.122832070854203
 3.633819133137641, 10.002865657066398, 24.897978716290329,  3.950720910307875
 3.817336684674457,  1.108135607860951, 94.230399045764926,  4.225222539342369
12.046787600198872,  6.035732271758607, 86.103540969492045,  4.409318317768457
10.563792752514319, 13.660084020051769, 65.812744437807041,  4.221143542475179
16.348736580985790,  4.749708477612102, 85.677951344146507,  4.557573220686584
 0.818435006716396, 18.428246243491969, 22.639453596352098,  4.088736847070608
16.902435289209674,  4.962312434685732, 76.894938518375454,  3.713775800292917
 4.807071771209021,  5.968369342565333, 116.511000812060800,  3.875184922189275
10.536819440029660, 14.430996715384842, 57.678257355673395,  3.960926432246625
 6.600100733895562,  8.731178569422106, 63.567878795244283,  4.427006141803543
10.548809707924542,  5.196243294591365, 56.837214847563843,  3.908510311135287
18.742203979912087, 12.715404690068436, 15.728792709665219,  3.921851624106834
 7.558969784930327, 10.749952938760339,  4.250454467077168,  3.765292304167329
16.186644480118478,  2.503106651404250, 10.677147665665347,  4.006640521427501
11.241733384577220, 11.898034494163364, 98.656031793974151,  4.204749178138634
13.413440242332964,  3.171589596410675, 13.522291304226384,  3.834202195707521
10.302266558502032,  9.037668188085725, 108.680400853076790,  3.671453921696925
 6.730282224397018, 12.835237292343328, 64.541116753371085,  3.999732429866940
 8.175724708976107, 16.484594526260761, 63.550412493229935,  4.031347974612098
 3.486596537062645,  3.298325187233943, 48.882139253373040,  4.030023337267972
12.073052005627636, 12.855000664686681, 50.894905136076787,  4.224762516770481
14.791667489032127, 16.715260258272647, 38.220895455073332,  4.185677011183851
 2.315370448835024, 18.569388694142262, 47.071335818239334,  3.786650793542318
 1.974899221139819,  8.495868987035770, 58.500474292735447,  3.975250187876715
 0.717018348795759, 11.610060400412467, 104.885974847156731,  4.277313967384400
 4.288738839163941, 15.105423893294860, 113.910479295968813,  3.981097561571135
15.803609848583978, 17.984393836222477, 21.558707945419144,  4.140609711597834
 6.205661640041507,  0.344071688620634, 14.981827378544699,  4.652787252298503
12.326343019470675, 15.441273127456476, 41.668962964027678,  3.877994708051278
 0.278549791972776,  0.072839409982721, 91.855874295248753,  3.987118111376943
11.377810230740316, 14.551050044522851, 32.773363941308205,  3.821754154117403
17.915735248113876,  5.994111906109590, 100.532738972475570,  3.920027652678236
 5.916104385747150,  0.574030916837939, 33.477607327084343,  3.812981229309330
15.802288616687289, 12.610557642006741, 112.837631517189280,  4.008797235374174
 2.509141308744038,  8.187453012491318, 65.290909333474517,  4.195525066575260
 5.492797494366556, 12.012009986715192, 111.452221377567895,  4.094778948743276
11.172182673405461,  1.964019263925464, 86.199918391705907,  3.915299180755307
17.061250142631771,  2.326664428619130, 47.784773168047032,  4.189623203984552
13.948774336034901, 15.316721341089542, 67.257513805136412,  3.844136165357087
 0.965357961507017,  3.538765760326269,  4.521630829748383,  3.749247175039465
14.028061029414145, 14.456444478796270, 100.917142902636058,  3.766679507555639
16.124586132653029,  2.373503138780036, 57.473298818148862,  3.736986681430894
 5.192000865690300, 10.714078083463491, 19.574767490205755,  4.240131972124903
17.886271159680120,  6.185922708198776, 15.190796501157898,  4.008857183566763
 1.916661190843232,  2.849546292429518, 53.733438217044039,  3.947852759583822
16.119528108823747, 14.225850685786282, 41.300348206263507,  4.111007969645425
11.911986379899904,  1.274482826463085, 16.781049845604077,  4.150305315354157
11.606982118336074, 14.508449213376608, 36.756503055790887,  4.081378282519976
13.916280024043814, 18.258541606617072, 108.661588190095074,  4.293439517288303
 2.232759929567702,  5.147125187715685, 43.054555220019566,  4.001182324300039
13.726214841504808, 18.284640213000323, 81.767470216079346,  4.208390823484115
 3.840208799759511,  8.759798353468366,  9.624001256433642,  3.983376226115023
15.020957878699797,  9.178798110674096, 61.301736906153067,  4.205506320253061
 1.675186833322866,  0.995321923147127,  1.584596606004756,  4.111263294770533
 3.456680133526604,  2.957111643904808, 100.797282130346630,  4.355598768844438
11.120505285431397,  3.202412616457818, 46.423922532833515,  4.321412906928032
11.155301425894613, 18.255197305045211, 34.677326222062668,  4.502254063804158
 4.907726556835049,  9.586593958171200, 55.767777869423526,  4.306654620416317
16.420443219911501,  8.887498472906119, 114.364309809859009,  4.111786121043970
12.587415234284942, 18.053613415871762, 88.258696114079143,  3.655000977237987
14.913888265367193,  7.740627634216369, 98.621282769309772,  3.600687360222363
 9.670695951633910,  4.214445665316584, 22.037821307378927,  4.084077734263235
 6.287657050569509, 10.394568983553778, 59.656107822211986,  4.092133386932529
17.286667372068475,  0.729881127287086,  3.779871014150538,  3.824884613321875
 4.431704237701682, 13.562832924840672, 10.384577576432635,  3.725270607937209
11.063537852247610, 12.280348664464494, 23.967509233246176,  3.857534149046724
 6.433621489095201,  5.060466798243825, 76.556002260364735,  4.171993144609014
15.752753100837262, 15.462063336717492, 115.970631521491654,  3.681456647125650
 3.092864361569466, 10.052155028819353, 61.874517364252867,  3.639692446270832
 7.582777978152980,  1.516435271090705,  5.848458105331272,  4.059686896689151
15.378129944910802,  1.305174389521764, 68.178268705861939,  4.008485223623731
 2.561934805445765, 16.365133757141969, 79.210555437775710,  3.979246229841564
15.203514468649240,  9.043922486377967, 105.556330616496226,  4.141767465905563
14.871118715952104,  0.669601568098148, 85.510239758979040,  4.042298775476497
 0.976702520538155,  1.037117094996408, 57.103703288376117,  3.926732437874559
13.070253321993025,  4.703636111227015,  8.948477530208031,  4.029615244574371
16.890250270825305, 10.437314792237990,  4.360105253715223,  3.879286704147420
 2.163674766577450,  9.209145740141617, 80.258421050213670,  3.901310273592618
 9.664425261597037, 15.399064372763474, 21.865813326933413,  4.148326184795283
 6.820589440639663, 13.070806065555741,  7.178333921579107,  3.819893273594434
 5.166948177877737,  2.229205684957502, 104.737563236240049,  4.249960888961909
 9.322266190262074,  1.015935251228775, 82.655251127998866,  4.274730568603237
12.036664854947201, 11.846144093780763, 106.277213109318936,  4.133724080852626
14.991757150380446, 12.289827965582484, 25.672141200127633,  4.199521827485436
 3.596908168950269,  0.565154928722047, 26.673100587914028,  3.652473976749381
 6.944070957188909, 11.838157259871986, 89.629871658710513,  4.415063092646433
11.388258593084137, 13.700525133773317, 18.235189511079721,  4.177691701229645
 8.013047474587133,  7.263881641314326, 82.281671036184235,  3.794221635168137
14.687665340860388,  0.289157596339587, 96.683837375295752,  3.990347722442684
18.895015265179211, 14.664044160983932, 91.611635586963487,  4.126176259646434
 9.255068478932571,  9.241462321243180, 56.479107967830174,  3.578459658484911
 1.808210823147002,  0.282546428207626, 14.521361450332863,  4.190699688501016
11.851013162541491, 12.856817171056223, 77.584244972492840,  4.142087355583989
 0.544255093839113,  6.893654565852293, 116.569306722949960,  4.409166580366606
 0.312557157382406,  1.639708161992742, 78.081859371249564,  3.859741768439317
14.080386621840509, 16.248092107329406, 112.573071121120677,  4.008053217866827
 2.419522269526945, 14.789158818464523, 46.653380580190920,  3.801693849571898
16.978640045833323,  6.543199635020528, 44.222910354817138,  3.994103420325727
 8.737637394342885,  2.634082782004115, 70.905973195916175,  4.231881575816069
 2.750123667498765, 18.730867499942725, 114.304917100191872,  3.892603158197431
 4.973724179450711, 12.946189590928967, 37.877756414056037,  3.793940643076202
 3.422601319810396,  9.800705737357980, 87.972366610175399,  4.285513502032730
 9.487851335662226,  5.403073965003915, 89.348565203968462,  3.941701669331024
 7.193718613376578, 10.183086263629329, 106.786512961076681,  3.932569492227794
16.736568836799961,  9.926533177658701, 13.554617386576115,  4.133579189343474
 5.164458990623097,  3.052264482866337, 113.736309701809731,  4.178225952101982
17.423886332098846, 14.584967429690806, 28.213888136957991,  4.167733218665473
 9.116970687765155, 12.375710862297650, 71.605208052860164,  3.855452303483054
16.807809931901673,  3.952780707243583, 61.720963374318146,  4.167946673323821
17.392373313822894, 15.936879262716941, 102.754973401790039,  3.723408577143969
 3.575394642323992,  1.483327052828610, 89.852680217680827,  4.204388232413431
 3.294498947797547, 14.308075705140183,  6.952765595677004,  3.649583438895388
 5.953909774652078,  6.673832872960765, 94.759050258533662,  4.248049517595679
 9.176080020200464,  6.502608364487394, 38.964555101569722,  3.893867904933872
17.754436707843883,  3.995378384219120, 41.117775451744002,  4.172497563739019
 7.450942015407878,  3.619722734505479, 100.392231298073114,  3.776192367735065
 7.570251941288571,  0.225378014123827, 37.054266649089307,  4.097453350221434
18.410523937915332,  6.619130771465174, 19.272460065500763,  4.210761675172769
 1.581422152089218,  9.180107854632062,  2.245472180977960,  4.851484689037302
10.243412485470703, 16.248104660309416, 29.570893991558545,  3.625002127216131
 6.282111585498053, 15.831409034435517, 89.105109226784819,  3.743836333263570
15.680000697810481, 12.802612845964061, 104.141317789740100,  3.916247584155934
 4.196295254385399,  2.320597947662341, 45.038416251410261,  3.922156263486427
10.206144938790439,  2.594002401951263,  2.775227676599017,  4.261893667721647
 3.593914678109807, 15.429800720827370, 99.220626235240204,  3.725493095714460
13.845694731114012,  6.934405565943910, 102.155711851045169,  3.942361668362276
16.312496884413370, 10.362227074558698, 17.985426788580003,  4.209606570371072
 5.495673132818807,  3.397283932580280, 97.117232075910621,  3.865240950897737
 5.835460147603505, 13.677709805516919, 96.332202265968817,  3.818834907964320
 0.665450040056216, 11.115554154379609, 67.657621162304366,  4.181318153719737
 8.090710468186227, 17.169675227428701, 41.940118277663558,  4.373989658072033
 4.977627124141452, 12.024482548406827, 103.750997464333210,  3.969229115556685
16.521368024901090,  5.331465169809813, 104.594703131537855,  3.932364184307142
12.860962325215873,  5.748036982366752, 70.665304366826703,  3.992527571739184
 1.225951592623725,  4.103982923693487, 83.787075822922361,  4.018460140458900
 6.349652370042464, 15.483539691147811, 46.286456760515904,  4.086510252368943
14.381520946036298,  7.834019695461186,  6.005138427814212,  4.060243403036808
13.763144390786204,  0.166681459608515, 91.657108847570953,  3.824721512806215
 5.312299230174647, 12.027766206968339, 75.122762435422615,  3.836194131736134
17.630166597958400, 14.155226365254432, 65.671306951268306,  4.049740015971882
 6.830095659676650, 18.857522199405288, 73.439110963267382,  4.108513356535575
 9.835221811413527, 18.297462999223136, 12.809774885563218,  3.958218567005868
12.110544919414458, 12.623065978257522, 89.142817257946504,  4.181644370113641
14.518365664666431, 15.506207990608404, 52.960777042560494,  3.907130297553630
15.169301819850130,  5.741195362612529, 116.775522094203012,  4.160389547187338
 1.080102070703627, 18.421245990492899, 104.301838527924303,  3.801089145227385
 3.716241912320868,  6.777113447853566, 18.917343401506240,  4.207520513375216
 1.833119156092667,  8.155940714490752, 53.175967104688134,  3.654449298479019
 5.301823383907847,  9.913396051270768, 35.436729637491716,  4.005099428850665
10.319150037698119, 10.789453888731039, 59.580391387910055,  3.671172453407884
13.942438206450682, 12.218652260340749,  6.290931583555821,  3.996254346680757
15.908833938561855,  8.818130492222586, 23.403497148401314,  4.277042457630636
 1.196914303759802, 11.875433987145765, 51.819944413081544,  4.237901346696422
 4.204511795008706, 10.018424597552013, 96.535380929054128,  4.016308870460695
 5.144704313129802,  0.628960889362718, 56.529897795535653,  4.346478559191129
18.683034024843533,  7.751722063690647, 83.095743448380134,  3.965479310691915
 0.122750500590334,  1.375708749498690, 44.225119294258612,  4.134286715493926
15.966034869831125, 13.119243812738544, 55.627905814217243,  3.748283285567254
 0.355161409695056, 16.363784335515479, 43.162563841013927,  3.899045777206058
 4.159311555475009,  7.085077456258607, 84.076706355302349,  4.098683950142189
 2.600038154809243, 17.773778491257744, 53.592524765530172,  4.152534157912217
17.468636486732574, 17.106948318035819, 79.441040191716255,  4.222273913046733
 8.858733476163955,  9.775016778604627, 112.240830835113073,  4.091305047109709
14.643835936087722, 11.771536508290417, 116.766605893560438,  4.100128120001576
15.768624796462531, 13.356802747302943, 78.808656992495372,  4.042941096202819
 1.385295543785828,  9.056800403069982, 16.380186610909547,  3.877646720065271
14.104351417961993,  0.914953021741059, 60.877655861151645,  4.137028271891040
 1.837363629524127,  0.507043456964636, 10.486262326141947,  3.882101613275782
17.751891211147800, 10.963325291718835, 39.665732567257990,  3.879063962561857
14.226304446055194, 16.348124419555365, 26.285549933272534,  4.063534615984340
 6.799830107358397, 14.662003167109676, 18.947820259127553,  3.853015756314536
12.204655722094353,  8.540084855438398, 117.600192755265311,  4.157636040763436
 7.939640386744942,  7.377917400838936, 19.616702430443215,  4.378675082782832
 2.137577501632571, 15.169731439619447, 13.613879124526521,  4.020863540031598
 3.404991737258141,  9.407435921880792, 31.643371347085218,  3.711053316566441
 4.450573440224379,  3.011727486965336, 73.781743242419267,  3.712511766084981
 7.150416491614361,  2.506791934967951, 88.424881749407930,  3.709239404563099
10.800576147338690,  1.114498410390242, 106.626641344399090,  3.954570693236283
 3.403358851582363, 13.058955480147079, 93.281406101001068,  3.937634892530288
 9.579603894101044,  0.755381613732428, 31.021727607921154,  3.957565429826241
13.918955240572782,  9.767495411578588, 86.677843787190440,  3.924431168601200
10.303300349836491,  6.874901127325042, 60.489112510354694,  4.105231423123141
 3.548401689728418, 16.531280289039294, 17.190434674533066,  4.133964727497468
16.396532885857372,  8.764542789941075,  0.918750201119468,  3.801367098644263
 6.831352580202468,  1.152428774451277, 77.214212154016778,  3.782224614914050
10.295780496538736, 16.307308853379261, 25.753107252202586,  3.864378420809849
 5.918121727592148, 10.410191189584726, 81.495981655883853,  3.872145759929067
17.349996394317063, 15.755752911775334, 58.269524741574848,  4.178784399950115
15.261511426121741, 14.699959733304739, 49.212058068331743,  3.838606920043231
 7.597609273248756,  5.139408207703916,  4.412529624693931,  3.723804919220867
16.057334635601400, 12.055653968281133, 51.960776109063261,  3.888600635737457
10.981861905181665, 10.928256788601448, 46.654771694491849,  4.164451239505805
12.998982653462736,  8.380554199855235, 57.692298035850321,  4.210273136955548
13.843334462676129, 12.393156935590035, 58.883704439807389,  4.148896854889640
 7.146679299642196, 18.824930708798092, 107.662018865729522,  4.006491037221315
 0.073597464853061, 15.788579146310893, 51.048371399928961,  4.014874397290930
16.513645163609148,  8.470174373204451, 65.089708951919604,  4.054114997264560
 4.653105782826011,  4.415597211821229, 34.028004175711338,  4.242195920797407
 8.202165627347901, 11.524748798940761, 16.716830558425080,  4.103592609787790
17.244078852441181,  9.931183979691268, 80.149952469806763,  3.882865959763155
14.605490084498275, 16.068083501015199, 34.041451878971046,  3.607512356296956
 4.032113439251639, 17.556371454115350, 43.754185855742193,  3.913471468622153
 0.725405083485433,  2.543191888638469, 25.108614007280885,  3.759701085402118
14.363245350515678, 15.719010171099585, 71.319300115908177,  3.935800186025178
16.298630883415132,  1.577605929222173, 111.143650023320049,  3.929828420415942
 9.699520329393703, 13.186102633004554, 95.064461073464329,  4.023920126663612
 3.142259836618292, 11.117686679629896, 48.172917786262133,  4.097401752712352
 4.347611951817384, 13.625377962633472, 61.184558794342273,  3.987567866980152
13.896910273965972,  4.210408011291314, 33.750821778381905,  3.847018704935112
 5.859710404984310,  4.229156581055217, 21.142096235643521,  3.742169787259122
 8.497943513139818,  6.258995175599726, 102.985787069523056,  3.911114659326802
 6.866637125045726,  6.529947712689458, 58.084657180207550,  4.302018640452542
17.034349064929280,  7.956930825203425, 57.991779711910169,  3.902546574013955
 1.261611670650388, 15.690111538644729,  9.765433445456674,  3.805935778475298
18.388913603535936,  3.968876754904656, 89.969715719519954,  4.066068855721396
16.422102529170722,  2.160480543958851, 93.692559833766680,  3.834261455318541
 6.448343953874353,  3.994028787686777, 37.630894122761298,  3.847048832626498
18.031422645442774, 17.855921089467881, 75.350949206849762,  4.111748339201196
11.262802537296272,  5.488820893591146,  5.417084329569404,  3.826069416517494
 1.793058348933060, 16.586461158837324, 28.034175278722685,  3.562320125795469
16.536648214438166, 11.256193985595647, 75.493422502920779,  3.907265276809120
17.291705424708248,  5.090769591518456, 96.123212027964399,  3.956690998753781
 7.209679750171860,  9.052224006534763, 23.401790483046554,  4.024888180903496
 4.819442746804039,  9.955483681530412, 51.644234665483651,  3.953408010382061
15.904268817337458, 18.370121260120520, 50.548773596349768,  4.055670631865257
 6.168780043444080, 11.534975513866522, 13.271171744157408,  3.889547845930486
10.371826353174018, 17.871899249608628, 72.199935607916046,  3.637391903773988
 3.488028418404669, 13.706282920160625, 26.513979822569549,  3.747402066194163
18.237293533552553, 10.227047658279480, 71.368001631638577,  3.920827158474502
 0.535815204121552, 16.835630758606989, 117.294329953297506,  4.316109602632809
 0.058174974706120,  7.511964559483888, 61.923772923058308,  4.112559919695345
11.896397554147304,  2.648969439861030, 110.177145394560213,  4.019222552660331
 3.721119483666452,  9.334069375596076, 92.048465197782591,  3.917090068360314
 4.019091233579295, 12.139159330276964, 71.302182460844250,  4.232620360982225
17.516351967683885, 15.234897382429036, 24.109406677533652,  4.100616056551076
 6.752269003612516, 18.284452180741113, 114.933416144376949,  4.222603850448056
12.608968263554898, 16.045640180216378, 10.688256210183530,  3.797199532950090
12.545484468744279,  7.535441349183261, 90.499716607993435,  3.859761956842539
 0.690785917690908,  1.614811851646041, 86.916642336059269,  4.018128299188520
17.637322026241570,  4.182495911217370, 113.869052888602667,  4.070975764151976
 2.856530444081481,  8.909383451745965, 109.767726431706961,  4.055228333985332
11.201435162594741,  9.842833953984222, 63.585082333661290,  4.654807949249090
 6.383501155766384, 13.206052638883236, 41.610310926675183,  4.041455113451800
 9.048020490879452, 13.069263516514416, 82.599410045522561,  3.943410749784498
 9.808487354367589,  7.370796257478625, 77.278785174375628,  4.131796131870929
11.556497915808857,  1.742404549194605,  6.638456226826045,  4.049101000767276
 5.555206105557198,  5.307504474511370, 70.818080897675372,  4.081891694518600
 4.833973050549999,  6.256859044439969, 80.142186298575311,  4.033256773211631
 0.658523602947336,  3.769215845426010, 12.434603024018603,  4.060264429415431
 6.726784956592357,  4.149886360188884, 91.748820334784881,  3.752678583950295
 6.168742400888116, 11.946226905040474, 115.363318238782298,  3.820815471183684
18.840352825122089,  7.080415157189504, 92.275985098612935,  3.642662139740113
10.032430209570164, 14.504007760686164, 47.956535604080926,  3.640987219905417
12.552230239798963,  9.136362432135186, 25.609536990481718,  3.775180495938715
 7.856248759907564, 12.789795489814180, 77.940475430918937,  3.870907466242438
13.941275023055288, 11.753402518184254, 38.724939412001774,  4.109506000634427
 2.512637393487918,  3.717782043767571, 39.234084162529193,  4.115968416994197
11.378471910847642,  6.538409027002920, 12.344481936407218,  4.345573648830108
 1.981233074674140,  3.593541979551613, 21.029422249489514,  4.105049930828501
12.244224588530674, 16.905609165374514, 50.147113132558893,  3.819505137132676
 5.054396014705515,  8.208100554381621, 102.298615666270962,  4.114775510952728
 3.615453354351325,  9.554316056433462, 116.836995120978756,  3.679276056991925
13.264761215857691,  6.625223048968409, 108.219631366830058,  4.012487205421515
 7.492400340055417, 16.468068826325709, 83.869027024688734,  3.939944592393740
15.262872247694281,  5.836066055995798, 92.780794832978216,  3.979581190582009
 3.180753363419598, 18.743942809916792, 75.830947308297866,  4.289634793677014
11.558139152067760,  7.677418992103026, 53.941532522092821,  3.941507778089242
11.314020910562608,  8.079319722479095, 105.026735064033375,  3.934124773203348
 7.947741402589544, 16.469957527137929, 50.511472364949810,  3.916842012188244
 6.116269210719671, 15.434360781125477, 109.408431447597778,  3.878215580639394
14.409118147625028,  3.491545563864831, 74.352329873473408,  3.978956747710077
13.073548776879949, 14.240378339370400, 92.919520192653025,  4.234570245483738
18.169910348129562,  7.385714123459707, 68.601553438146027,  4.004521536236061
12.836256551143476,  7.038363011543032, 95.627012113329897,  3.783961251686391
13.289320168306899,  8.099506440609019, 44.299847842204912,  3.943788792318219
14.957340497558931,  5.291019637277883, 67.184787802574874,  4.171491567070922
15.179986370247542,  0.756083410784985, 35.292975062558583,  4.074508325232938
 5.997749384317331, 11.333421231259853,  0.819156035889321,  3.859402839542605
 8.033888221793465, 16.442280790483693, 32.573918104424237,  3.832122936405588
 2.732603946761940, 13.656328931704111, 65.015850013973846,  4.183655593339626
18.206056067867426,  0.158497528558923, 60.714860890159123,  4.161356334599484
 5.209284827704399,  6.207154826867022, 30.332199130598454,  4.037132244088169
16.274185704811380, 15.642610230147326, 106.669384076776993,  3.755265266981383
 7.950827403993376, 15.351742090576090, 38.198441003397306,  3.868860942697453
 4.714417031996153,  1.155807881785448, 70.006081627355456,  4.321835199220516
12.027834565748778, 14.630332871839631, 116.004368516504201,  3.764197284061732
10.238213466291791,  6.141330928502340, 111.155045272863063,  3.935601245287178
 7.621811857253663, 18.631402548245092, 99.864902311403910,  4.137545039701708
15.209833886493771, 14.956899455062258, 75.115038493385399,  3.982475667539096
10.054220109688639, 15.948170776443428, 90.572380401314163,  4.139324091942062
 3.288839131917327,  0.307106981635504, 36.714779896948940,  4.493421242059369
15.819372690563362,  8.587541330148539, 36.768682188686057,  4.108005414621151
 6.127268218291616,  0.307176407482850, 47.988832526213869,  4.146797853491870
17.296654620710783, 17.609171108387613, 11.718244480154512,  4.099484110267842
13.410260256871100, 18.515841593028522, 74.527630015730082,  4.058821161632234
15.371003684384913,  8.894243917545801, 54.308254489150102,  4.093062918468767
 9.457656704317785, 13.855829239272914, 44.186230608548406,  4.064956701379936
18.928522392255097, 13.883013286670169, 85.705650375157276,  4.189769525440181
 8.623483231520071,  0.644235901395697, 23.963461241009050,  4.190248165751767
18.220413924494881,  5.484640180128915, 27.729559359391899,  4.119876685134635
 6.868747251785142, 14.829352755709333, 92.776027604413812,  3.907737858276351
13.340767741657727,  1.856539597953162, 114.092007092717424,  4.422682675420583
 0.941908138357010,  3.786983795765104, 93.565508722990870,  3.723762890945626
 1.292134774275861, 11.715349746738781, 19.168948947482168,  3.828941625748348
15.006328822047264,  1.138902847658041, 40.380045491922544,  3.794096026823337
 8.105603779962324,  4.331358324525554, 84.982667364574439,  4.156928593634900
17.368413754979947,  2.268736634855904, 98.902069256046957,  3.943462858883253
13.694507068202649,  0.764285603908391, 31.392843505996677,  4.253196703071716
15.460838109820461,  2.023250729659346, 24.444907313936785,  4.123924141885080
 9.512135676180684,  6.357756649977882, 25.510834583608258,  4.078030485164708
18.598223997527121, 10.694678005635636, 34.631489587775683,  3.547384814299440
15.290157444669966, 18.718736214826119,  7.468059136182403,  4.483254216457651
12.236654751368706, 11.645210515742640, 55.013386386367529,  4.362946344397151
16.853747726452511,  2.143694277530609, 82.214953104624627,  4.162103127931827
 2.863558186339890, 13.915506134045794, 88.730067985544366,  4.116509139671370
12.456807332503868, 15.952369088394700,  7.032083196056473,  3.463270613714757
13.404160838081351, 10.410821377865474, 80.625535807270452,  3.914444167751725
12.313696559350166, 17.179156100802295, 64.002276920487446,  4.324685925153099
17.658738494030082,  8.581492455739731, 51.028220605486148,  3.920754019902493
 9.703112981757137,  6.958504196187554,  8.615679615383396,  3.864243696135121
 5.237182050029259,  8.537071262670777, 113.476386132178959,  3.944562336985535
 4.835369081857796,  5.110177496562989, 64.333831288140132,  3.741040762309422
 6.696153114223780, 11.116495326817926, 93.679819556362915,  3.742115346582886
 2.248933397778556, 12.847024936071545, 40.956283843419499,  4.293274857524642
 1.398556207845898,  9.827612398787096, 113.524168873635659,  4.089057496374692
 1.431056390189707, 11.726146428987924,  8.900073245802588,  3.756363908331021
 7.907355977204302,  5.895357790321511, 114.182026907147900,  3.677075858032754
 5.077368788817464, 16.104364027404213, 71.065880272943076,  3.955584001146098
18.191689592486693,  5.713479059200711, 54.821266796316095,  4.121539353505877
13.266677424312638, 14.893464900173569, 45.646580437950824,  4.340359263968937
 8.734856822250892, 15.048201845385590, 98.465408977157765,  3.850882516653067
 2.030465344433950,  6.861657903761052, 95.302700749426833,  3.655952961648935
 1.452344388132335,  1.878350151349193, 111.065786762473962,  4.228436171364110
12.341973026352521, 17.392413786823262, 19.618436730541756,  3.866691956631343
 3.747415520373125,  6.126125268901085,  5.109905658193278,  3.917586467533268
 9.067123894412877,  6.335739172511346, 69.295949236832755,  3.843129490671375
14.564711456233686,  7.836017206125057, 83.345495970714936,  3.853535663648060
 7.655170688584705,  7.710959817188352, 53.288264327209326,  3.972115256616554
 8.233872927580945, 13.637460425997723, 60.834158367776503,  3.811977200503879
18.265597011921930,  8.987687252628536, 47.128792199634802,  4.011157467771097
18.656773197300804,  2.700211328558588, 102.593497457125522,  3.922835104274858
17.003777025308651,  5.578817909444227,  8.167565507212620,  4.049482197896559
 3.270736870918289,  4.464541791476878, 27.199356765789428,  3.860969599925910
 4.291714900562652,  7.211533993832520, 38.202116708624175,  3.971421741452671
 3.101227320306060,  4.582520327329311, 67.719168546381965,  3.899360117016020
 7.615466959190105, 13.761657952388950, 26.777393671417954,  3.755501036862629
 9.173094398701370, 11.254661916214912, 20.668119595730683,  4.002852464364035
11.222906766515587,  1.134160550223055, 78.937082674420921,  4.074008882869677
 1.075961298376544, 17.281950336143723, 65.425687729240920,  3.781734107554534
 3.187286779009033,  5.562631279476880, 90.693191796203962,  4.150354208778592
 0.060349263882472, 10.617576350504262, 90.511203101384709,  4.243516354077391
17.904896482863951, 17.512259711759015, 113.346864038878152,  4.174365650164161
 1.661277212578989, 12.352459875166998, 29.720917424886050,  4.107928723948630
14.283259888506809, 11.645137779207051, 66.004825611011526,  3.901812727692669
 8.971057032187893, 18.238106225258829, 110.962259206547088,  3.604971980002812
17.930272926390575,  4.963582775527690, 109.920173142656353,  3.822670660805805
 3.488973144119230, 16.664519566985884, 91.634372494813860,  3.956092673598841
 2.631114825433510,  4.937796428164862,  1.309898532645858,  3.991490262388987
17.209078539744976,  2.610116434299068, 32.383165471296955,  3.905115810476468
 9.450947270131401,  3.430162616279841, 10.333584998177741,  3.983769995208172
10.992683235851876, 10.637623857464472, 32.697988997676049,  3.963588978241928
 8.012670844832323,  4.757998299494785,  0.062992379312843,  3.912258594165709
12.862526969352380,  9.186276666364501,  9.481723680487420,  3.991672219806559
12.734331747469078, 10.797155835649649, 102.344061965657872,  4.047829235580793
14.921000633865320, 11.708633832146669, 30.070977405806836,  4.287860345681316
10.922058540594511, 17.870589171365694, 38.899733706102168,  3.972913387783161
10.906877994346582, 15.165596174633492, 69.625114062680069,  3.838003299603407
15.744706657683054, 14.662556330666950,  8.833936755452831,  3.920231750141662
12.923110672758444, 10.856739988434539, 95.143364037839532,  3.838470305521344
 0.168150447390795, 16.932709153339932, 88.347548425729315,  3.792773612515316
 3.037461093460371, 13.395893661924765, 117.384301108500537,  4.154654823552432
15.526430946408480, 17.676418612865497, 43.442743554295454,  4.028531749910048
18.477095389355149, 12.882004889632823, 100.717278372667948,  3.854598164761752
 6.908035016188605, 10.001758214777851, 85.313650711432217,  3.960600792062665
 2.829186127714276, 15.858749199069040, 83.403679776785921,  4.046540617615592
 2.247851597596328,  7.517030011465947, 49.519179165982294,  3.795672603654442
14.226000639391435,  5.186766950015646, 55.429370493660940,  3.938718421407141
18.035206096329976, 11.686504440446978, 59.528350819919915,  4.259958504914426
 0.788696283200173,  0.759894403696381, 50.485268866983361,  3.993581494771341
 1.758876961859859,  8.886033970365881, 21.675131237473103,  3.759037576079887
13.159007725136878,  2.324739031691598, 20.682968514023905,  4.288539403865740
 3.555824055854184,  1.560729229078321,  6.865273323800294,  4.208733071239418
 6.646624649714823,  8.041799627005394,  6.664379178521653,  3.688574804777758
 6.238921585266888,  4.518120038482381,  8.204979903922386,  4.022606527643213
 5.742380205235024, 18.548405747357869, 80.786008858177311,  4.253446989799916
 3.422704951795209,  4.819432204484688, 108.587177316946921,  4.335500380740442
17.185407085810120,  2.530280428129378, 20.144909147912589,  3.834781490483242
16.484729063017927,  9.759582287937430, 101.850023025315139,  3.795520727790559
15.875108704275551,  7.728353085327237, 40.660281437566418,  3.821168415006172
 1.157418165679981,  8.731136747844197, 102.113914900323124,  3.722938481127704
 1.177212566038632,  6.308646751628642, 87.168410717672259,  4.001566858879030
 2.582987059612941, 13.468962570553630,  3.200824618137767,  4.156732805057313
14.887635488032684, 10.644535822675001, 91.626056297663510,  4.222747320157875
 9.439164802609312,  5.272098367459307, 107.317118395442520,  4.094789875604675
15.943432942501220,  0.284107347654800, 104.679963187320794,  4.415290474373808
 0.168233732684325, 18.907294684334619, 95.990916098782094,  4.174061777005388
12.817360030107633, 15.960356598861067, 104.524390269921042,  4.399785257346535
15.218182753822765,  1.358952599181399, 77.821494440374465,  4.222544506139379
13.221902232521003, 17.953605170284433, 116.829223977290624,  3.456079588840484
 9.084915552257224, 12.665598275481162, 109.357967512933826,  4.082094565569430
 1.833981400671660,  3.707816362014193, 71.215823397980230,  3.735960246290337
 2.359007145356398,  8.116793795679310, 28.210283991768595,  3.896608625539621
16.358379402852385,  7.548468371939346, 89.107396453271733,  4.257857952316481
 4.200302845210306,  6.675129615167667, 61.043532927968975,  3.642306563427697
13.794118490423351, 18.197144676352089, 13.761731159666033,  4.010038239161967
 6.547701145428193, 13.696766242107715, 57.231520268472778,  4.114973790504106
14.989460781045436, 11.389321113019703, 47.112794364109163,  3.948446087490878
18.847064860462620, 11.170114609592412, 63.441005861040225,  3.779566763866246
18.637454243892805, 11.038180977471544, 117.007689106419377,  3.991254204277758
11.167677612034149,  5.230769278701211, 17.822092069013170,  4.165541771960273
 1.950042858938092,  3.639931370210981, 62.049295328313605,  4.027903105057650
 2.802861153829581,  8.245222812804188, 45.457339945921269,  3.833525793951387
14.991245084605639,  5.991853868482815, 51.756714849942469,  3.629160024111580
 4.536909714285127, 17.006580552775066, 117.976421805811427,  3.723262303540930
14.437089285352011,  5.377828706085952, 111.809415155966704,  3.881191584988267
 4.646458784570279,  9.583908086163877, 42.128451780205843,  3.978322387637691
16.498580183580252,  0.649478051396450, 89.065436973805276,  3.768250741123162
 5.424634293543419, 13.628760862910021, 85.651739617558974,  3.889832294552023
 7.799487616929207,  8.425965099899944, 116.998449497219795,  3.829919921899863
18.714251509359340,  2.772855093859556, 74.330432092208795,  3.934206083655325
18.893871187767530,  7.612873800474054, 107.025978404032031,  4.240219669023809
 5.410828987791129, 10.820222697243768, 28.490554700435165,  4.226261675910891
 1.688711684114961,  3.405963291304646, 97.189059183786583,  3.706168596296135
 2.744666747447069, 12.379856993999359, 57.816458044626543,  3.822891781813043
 9.726816385069281,  7.069807850421018, 46.921354639455799,  3.954397749775004
 9.501813459838212, 10.103021237062100, 80.149318986851000,  3.798393925757147
 6.356133547161831, 16.991875939057618, 59.744236430524786,  4.157553959472816
17.013711742938078, 13.569298947715522, 36.717267547365424,  4.074805403326961
 3.125168635029948, 16.247811794893089, 95.488465791479669,  3.827391402300226
 0.300899648129945, 15.435829218936998, 19.951008399650767,  4.006969764551695
13.508555643441797,  2.790613788264874, 50.007739871952197,  4.237673933249111
13.996687327246597,  7.505383368935439, 15.613460250844028,  4.247440383015663
11.298142885148085,  3.468708875493377, 67.744509241243080,  4.047801339015733
11.300425657208162, 16.995365019466018, 84.778562735325409,  3.937210022721448
 7.637020346879059, 10.183562454964425,  9.774481386714664,  4.109902342312456
 2.119464360151228, 11.008249579521189, 12.788892507109319,  4.265307495565734
16.424691721909408, 10.503376670560534, 43.462900765281432,  4.090399338341193
 0.604165213617470, 14.485290797003060, 54.964912579216985,  4.005724854420977
12.207260340309052,  0.829259665330436, 102.910281075398913,  3.861873077643204
13.788251288357854, 18.851283935826650, 46.997550773641457,  4.079569731543319
 4.017339745121338, 10.719916071026070,  5.831224873397673,  3.968692720144059
 1.966020771549210,  7.568464014926593, 34.853501621227103,  4.203862672894038
15.978651238794184,  8.776110136230686, 27.491495427232458,  3.800937047283669
 1.995795892142998, 16.375330620812470, 110.744023999985544,  4.123248844135820
 2.408647951455283,  5.473319019721224, 104.166149845419199,  4.306543178439130
 0.586444719268991,  7.789813102334613, 24.952266020916660,  3.538350981426087
 9.873123214438520,  5.092565287573110, 97.245084430635501,  3.957187238797790
 6.942287726054722,  3.498036043252509, 67.231148270431959,  4.115631999664854
 0.658965640926359,  1.272702824508749, 68.216678125290485,  4.333223394861420
15.106738180231112, 18.280622964790322, 100.607924675323332,  4.105147573209231
 7.882480204321377, 18.528738091603714, 27.731335994703844,  3.764883529346078
17.811509495514180,  3.784192005258660,  0.918510177559970,  3.890809445320339
 0.102980530855660, 14.322674121724207, 76.832296098696744,  3.801219024471395
11.644335547157290,  6.898486808681465, 80.921742714684257,  3.961744832844476
 2.269763777019360,  5.871926848729278, 112.576150088812568,  4.221846935103132
17.236026375275944, 15.121887979476181, 110.295492913922843,  3.690946692460689
 6.196153215619925,  6.762652773793454, 87.625626711687900,  3.960638241844694
 8.690436274644808,  7.529221752989515, 15.450932299439836,  4.089300414440318
13.495291740410977,  2.404112656955420,  0.204829512531865,  4.093769832006217
18.496880135382597, 13.708287529392974,  6.057638188896335,  4.113710078127871
13.861640541143641,  4.059930053168679, 98.023333556879834,  4.107578520148073
12.837353217376826,  0.245705109170312, 53.331279561814512,  4.016899452382086
 9.423581130844367,  1.137331594838603, 64.976148446260879,  4.077329984816377
13.468838799279157, 16.846160193787156, 56.527901339416928,  3.966673901580057
13.703898028356944, 14.170554561731212, 109.174745850102781,  3.955364323038861
 7.253667417274743,  4.853480823105882, 61.602742551805612,  3.517288401155335
18.591354650945057, 17.261475838804689, 35.092748892116319,  4.278381033003265
10.890526559767904,  1.213364907425125, 97.743389999273617,  4.098424802454462
 9.755685284157082, 18.004258363526489, 45.960945878331664,  4.405809842335707
18.205698788221437, 18.313279148906165, 108.560872866789339,  3.812653878088454
13.815949833951313,  5.405148350280405, 23.283197560486876,  3.722504731387889
11.943878551988975,  6.328590724140053, 74.269696720061702,  3.526885715136275
13.991258328407145, 16.034642801759233, 60.231520893096004,  3.584975864177826
 0.539997371156947,  6.849482330042786, 73.077294578331788,  4.000590515248337
10.699539364535052,  9.779469153381587, 36.784267271718932,  4.395545228852404
 6.084558306899789, 16.924689715794720,  7.173092663516321,  4.009426160304024
11.134799337340525,  6.787394924345240, 33.068936159629729,  3.745005446324135
 7.374940068990409, 18.324894374308617, 20.264269433791590,  3.911003781840593
 9.308574450253976,  9.070954348711744, 96.058276044958845,  4.380064713453210
13.919620992849101, 12.399585871113565, 11.771997579687154,  4.161180376594169
 3.712326977301548, 12.590381640929253, 16.242931916224585,  3.948923504153058
 8.580393768395490, 10.195550540468984, 67.091214562826309,  4.067510267427156
16.371186975046658,  0.152440187670863, 71.872969273197711,  3.916720985411720
 8.371593088790160,  9.848762919858645, 74.553104296858322,  3.751803507420321
17.477229323789672, 17.934017444332522, 30.686938394311426,  4.086847532329761
16.604886010457651, 10.640275962255290,  8.861018322012320,  4.046400326070678
 1.688343670900103,  3.751644138373534, 16.947679283347842,  4.048199612975599
 9.751795039765087,  1.195002594675633, 117.177717960239974,  4.123715524298929
10.469658737642082,  1.652604598338894, 90.172760976117829,  3.962039092381503
 4.701388235698431, 12.976299978978131, 32.413645842592445,  4.000332021260030
17.711525675464930,  9.196005354031463, 110.593410443744673,  3.843463184414766
 3.568030621231912,  1.512193864765263, 65.186514609335475,  4.068037586773897
 9.913950602794438,  9.240290098860006, 88.017895114767015,  4.086436988793045
12.539701014679924,  0.973800992402815, 10.418225983640051,  3.907985693312241
 8.931978726169563,  0.630082835298861, 53.490653782560230,  3.735077079493692
11.448544685669757, 14.579660810999268, 73.851445417276381,  3.944397718864437
 6.788733821089489,  7.107441988308898, 98.779228370728333,  4.003599723646274
10.848279924146725,  8.938390269748226, 71.752644796085676,  3.842007975519265
15.395397529672861, 15.945308670406163, 89.955728552148031,  4.016854914757869
 7.880640495776396,  1.993477332744427, 43.672832882168883,  3.899148075722391
 7.136722839598105,  9.888363108052426, 39.008532328695267,  3.996916563715447
13.266819369792094,  4.716998843976504, 40.533538800760795,  4.143084591297176
18.872400119965643,  9.553838183559080, 98.191377934861308,  4.005395784801523
 4.418313718559912,  5.514625152316416, 52.120396924426778,  4.027741912067563
17.266264700620855,  6.176945449892221, 33.879220709599110,  3.812018015365752
18.666957348099604,  2.084440603371295,  7.748564970546760,  3.699385862397187
17.192583985674041, 12.208275817367699, 21.511431796081187,  3.895451939735287
11.763181133065904,  0.456228911061425, 42.510896024257484,  4.024914350347209
15.960383709755316,  4.388526466264416, 37.293363560736317,  4.304262338126686
 3.664113436853067, 17.341155504970093,  3.918372240511837,  3.912191964311762
 8.178047292205976, 14.875375228157786, 112.813458293645994,  4.088588576141686
10.830922518569668,  3.110279307359463, 61.793786641256126,  3.911444392976551
 5.342521522794521,  2.106127111924851, 29.816707120306035,  4.160434407266131
 0.733897018153723, 18.073853888661169, 100.251489762407147,  4.275591497875957
 7.488983160172088, 14.963118817310484, 73.952977723321197,  3.829217369288663
 8.843611905178415,  3.320370399347697, 28.072174180832718,  3.947586036081477
10.869608145113595, 17.096323504017459,  1.224422733647211,  3.794984114229074
 1.046865134017816, 12.443244720784966, 110.434875462383857,  3.979393997499058
15.600515513933392,  5.517293208291323, 80.427463010483237,  3.859483600812819
 3.837999224182275,  2.648319493593636, 78.994082323706493,  3.665520315540859
11.652630692384150,  2.978230049386734, 25.277461060221583,  3.895009867180925
 2.205560656651746, 14.861810925255186, 102.827105458445558,  3.962434715413870
13.828970648447113, 10.186041506741192, 110.122829260907636,  4.121522128134257
 0.831398434961307,  3.658364535707360, 35.525091425305483,  4.001455538026324
 8.431255229181890,  2.375921200728656, 94.737182444090834,  3.955452809007233
 1.221831363336547, 13.210788869803247, 97.096107349004754,  4.021324062131121
18.304512518364355,  1.081722116163493, 38.237436337415907,  4.015677828588695
 4.155193630907432, 13.196048520414907, 54.150660190312252,  3.719159199284674
 2.078616047102732, 10.444150709417265, 37.671933969237031,  3.825916978903891
10.298769255074024, 16.271314883576000, 107.907892054567270,  4.057071743729462
 6.228408909080922, 13.126936101383208, 22.999014969471308,  4.383477845470351
12.455953106161152, 18.544370529216476, 23.558617006715565,  3.733481376552680
 5.419152725031061,  1.313174073529912, 51.931846221888023,  4.046612081885488
 9.266677229096581,  3.507077095587389, 14.448143862891387,  4.146281099991808
 6.577325618187894, 14.995697108830861, 15.039651031433900,  3.896431148400469
16.743654386145487,  4.184834102030492, 70.916313559199054,  4.382408750843418
 1.348455124266646,  5.130538624471692, 31.404721636063506,  4.246807911941833
 3.939217388788693,  0.034574968404359, 98.046305161210384,  3.698492162948774
13.215724454683322, 10.185819594228525,  2.894050568392221,  4.046272948097370
 8.388035977322732, 12.963746783292992, 30.604909038138896,  4.176853768954374
 6.809996965970139, 12.723295457486797, 49.372875476918487,  4.238655090460326
13.393871642618041,  5.966699154796715, 63.263336033958332,  3.992608320571030
17.340794571755428, 17.895307636078275, 54.703450465308379,  4.116091393738056
 4.691358415332535, 16.943501958027099, 67.095035873401443,  4.183520841558379
 6.672170949975956,  7.348776999879127, 109.655254313856133,  4.164030963995275
14.287269096236487,  7.184690620834939, 19.793145165199750,  4.144532362623397
 5.140589878805073,  1.987543544104859, 117.801737640441772,  4.146668953179025
 8.920157584820538,  6.967362682220564, 29.311424622729184,  3.696667977831939
 1.976648957712248, 13.711842419471685, 35.367114076115058,  4.159358529574949
18.268941763654642, 17.715404661679209, 84.430140990560460,  3.990453608047916
14.120788723421713, 15.749892132256821, 30.286153809976280,  3.956310779196284
 7.141107973857232,  4.117639665300718, 46.895637675138182,  3.883019717718169
16.280401558463602, 16.945660766256065, 93.750611086845709,  3.996420255565483
 8.277210048681143,  2.443287082926883, 18.146599047884141,  3.732002263950789
 5.193125408476539, 18.811881724260108, 111.175972641295530,  3.959176993876631
 9.775597256484453,  7.899319342447937,  2.592073744310168,  4.167556260785389
12.591087262570110,  8.189982258850355, 29.422772640479433,  4.038700567747545
 3.208845251111306,  0.436213930805493, 60.189283246711092,  3.778540072853565
 0.770433901066413,  5.223865412511544, 46.739148982197875,  3.874320311107138
15.482777978327066, 18.517808436105987, 17.581534910949298,  3.909940778571938
 1.237811262047736, 15.365127003814715, 106.841543390549489,  4.055897769950232
 1.455633690997016, 11.469339026206326, 74.493053612406754,  4.051351926875810
 8.225602294627732,  2.525124105250495, 58.727948707316550,  4.094320687299149
11.812516364123164, 13.696678282833080, 62.032005365087166,  3.733631410637693
18.516622203427804, 16.487612534993744, 16.306774197620843,  3.703206665839353
 4.435315080352500,  8.108718470666057, 74.116337318096441,  4.284535796419038
18.238486013879125,  8.979001762812377, 30.967366277157755,  4.478639672555681
15.564158663139876, 13.000791478524203, 62.497430642653718,  3.861917821794900
 3.694020298933799,  6.210357522010939, 23.590232761978296,  3.851986644534664
 5.536569831006744,  4.600439663857432, 15.863383110332821,  4.122728641881706
 4.360106752993880, 18.089853206723419, 102.165312112161260,  3.910653265071249
14.803308738694728,  9.199139558655210, 69.350632128922655,  3.759507031288664
 0.466218330625706, 13.785026964170616, 114.182578297131741,  4.014793218246399
 5.886695686492833,  5.292009845458753, 41.354987542867015,  4.063512962772764
 2.169477592810669,  5.079613483270646,  8.781203433791928,  4.269646758674563
17.701547436137471,  5.130521862470048, 23.015405239487510,  3.959261658221505
 7.125108567640840, 11.186697816745651, 99.107950540880111,  4.073564989630284
 1.751592887980369,  0.599409438905067, 81.678408750113846,  4.153684225082110
 8.443841703185999,  6.329340658231364, 73.262548644017954,  3.707574449586096
16.694456651082103, 12.917863396192839, 94.754338884468297,  4.294727655810218
12.794506380548608,  4.669050256455517, 77.814807578438192,  3.978464473028518
 1.129785620798858, 11.682833227749388, 44.738271142730206,  3.905931869547955
12.090572220802144,  8.623746400922666, 40.567341894118385,  3.956140841659242
10.255353587271504, 18.265250050084529, 60.450809702547147,  4.160773941986221
 8.749407587875112, 17.446200320542438, 103.801459994380338,  4.357074047327586
 9.849701115220702,  5.602753530582993, 42.978935311857839,  4.435303587183593
13.166530108534445, 16.664932187869159, 78.062127892474805,  3.934405677542876
16.070291309585681, 15.307547573984653, 82.566945322957253,  3.509235279648473
 3.186409466651662, 12.519226759977128, 78.363823689648854,  3.965483673406590
18.719614694596824,  4.693531296381101, 50.738015786655026,  4.074458841005317
18.461875559799093, 12.789496378713556, 48.245228947816095,  3.859679559015177
 2.773314462945589, 16.301673672780240, 57.802971785179473,  4.006700027176519
 7.243136169526140,  8.018766743595078, 91.169909777906838,  3.792563131061325
 4.671961502398146,  3.205718465342793, 12.041392579356327,  4.082209592252496
 0.847077133902475,  1.951234598769396, 28.877883930585682,  3.863836427202313
15.192551157372506,  3.151332050969585, 107.671635942568471,  3.995325976595656
 7.061354219216591, 18.807561214951491, 91.721768609876932,  4.320247338554791
17.327374333168724,  1.097517695623255, 64.652858030919234,  4.051630185768994
 1.892123779999478,  0.297588357155139, 40.987967558989411,  3.541115724456004
12.025877073785743,  9.788520832544670, 75.199167837313240,  3.635886134508502
