BANDS
8 8
NANOPARTICLES
cell(1), 18.958
cell(2), 18.958
cell(3), 118.489
10.467629126822866, 13.152152035242199, 94.314187881591820,  3.913764371462791
 2.896602850783003, 10.578879229638753, 117.466057572317510,  3.678342962928679
 7.664924562209925,  5.578083940388895, 19.314490220698286,  4.026331278232806
14.414243194866966,  5.289051284382193, 75.445787116190786,  3.846108425537530
 5.301984202552180, 18.877855189649406, 92.791468288101868,  3.628593142968620
 1.698000254280588, 17.615648028770661, 100.699350768703979,  4.408538625755821
 9.091101272941795, 13.096580633084621, 31.742082853051404,  3.831796585539426
12.144991205127424,  0.405606277510330, 81.142528447448996,  4.374636809060409
14.657932122181448,  6.136672150323536, 31.343741154708205,  4.068062716750277
14.179583267484121, 10.868587301724169, 91.477579756909577,  4.176349170267523
 0.177174572951222, 13.286016768189375, 94.114034065953277,  4.089696818334826
10.305220154126001,  3.194496879508034, 117.099554772019999,  4.174814774900036
 4.109682767197136, 11.251532293752559, 101.430849110999830,  4.325209629655810
 5.983707698116709, 14.101787352951298,  4.353466754951292,  4.067358756282307
10.323300418849520,  9.958302499747040, 29.327180489447620,  3.999462307910412
14.642574566777544, 17.669162093181971, 103.539460913786101,  3.743772626579912
16.766442283806754,  2.545765056328729, 15.505607669506286,  4.207531432137777
 1.823381832954495, 18.485497999926931,  3.191970079744071,  4.129865520644960
14.752111067296314, 13.806731457728583,  5.207343700766372,  4.094040015029512
11.904763657329427, 17.658398773643484, 61.629430944919626,  3.839224358213769
10.809379613991505,  5.324933349354554, 39.294558308095887,  3.887554970202051
12.797039795417652, 10.730730447904559, 59.563746756375565,  3.772052758319697
 0.394859431985819, 11.209671015443485, 40.999167772174275,  4.288615791036496
 9.156093655363485, 17.624385772096058, 53.854875467117047,  4.085018632029429
 4.187850916035429,  1.224919573139181, 84.925857409236713,  4.074383252772057
11.007572670460895,  6.461100732474603, 112.686224971236626,  3.810460779687296
 2.771459709631298,  2.037821905117390, 22.241672790435967,  3.770355482320354
 2.066269336421120,  0.011410296348690, 43.882731745717912,  3.832526641134640
18.336613770773006, 12.655408685554045, 116.543659589028934,  4.207020102596129
 0.811274319955602, 10.230986219187145, 45.367360136077977,  4.132908718372480
10.755379919289716,  8.392827806892743, 67.106227947781989,  4.175572260491368
 6.187959995539392, 12.221442364257527, 56.104758383622631,  3.928431282446442
 8.749275369282710,  0.532492493246089, 78.756459015777253,  3.921056657262619
18.622977141969088,  0.383116048242997, 67.711198827143960,  3.536082919909616
15.234016619039311, 18.018858011910382, 113.400799665443358,  3.982467392314893
 7.094006892537226, 13.073623649450054, 78.704661361397982,  3.928467358537199
 5.329048728082271, 11.963552703273182, 73.865496506094090,  3.811311526183991
 6.472864343971519,  5.751880787851585,  6.444829232801150,  4.124948389144127
13.750478464693229,  0.222251318353506, 25.474256244067611,  3.982808441046076
 9.766582905769475, 15.842639069708826, 64.467007847251281,  3.808455802091785
14.196449234288892,  5.975163738230011, 66.994622928097129,  4.216301023249249
10.171899527777761,  9.341138183163949, 45.822964577749637,  3.584292991830371
 2.003292889531143, 13.355520549044135, 47.739974831922929,  4.054340019000487
 5.582185249968193,  6.917234834394754, 16.084218947653508,  4.078361740460481
15.844776587251321, 15.839229944917509, 30.484250315256176,  3.773442228329130
11.022290563058037, 11.738706773670165, 103.573087244996287,  4.092980498688534
 8.982261632272701,  0.005918861894851, 91.709384685863114,  4.022174540000758
15.909083581038947,  9.867601032811097, 114.892252963191410,  3.740176311620416
 9.888062463424189,  1.293695851429905, 45.819329704127028,  3.776406163128693
16.583462146058014,  6.455016657510096, 14.015294892440355,  4.159066590025772
12.731418770286144, 18.662466163722044, 106.850546705322785,  4.129944485751811
12.919550393136927,  2.957862644506397, 22.569075703440294,  4.166414389131042
 8.469810674939335, 15.049163815437883,  1.452205833662331,  3.781540773260771
 0.922271220605384,  0.044225811106949, 72.636105911096735,  4.165268831633417
12.489256205262322,  3.941556885794973, 57.085149803272969,  3.915647262119497
17.640962156144376,  4.431510652391019, 63.074199008976677,  3.968316402708488
15.863265765652038, 12.694949070712061, 83.677043534549227,  4.184061422119258
 0.720878300737055, 10.085608651808808, 91.900253876282790,  3.750051564736518
 5.703773589984080, 11.105106636852623, 21.736059726960384,  3.979614490398084
17.207060075070913, 13.601315331353671, 90.522412300096960,  4.078567080761204
15.050746602757993, 11.840541349956442, 87.596985916943396,  3.996948077819332
 5.275746140293565,  3.906970606974533, 113.883813825057985,  3.499311806810395
 0.782078904772942, 11.777622725529701, 11.668428079741609,  3.981898763076598
17.378964342231118, 12.766539177806216, 97.765553498827884,  3.937742607518645
 5.420009343426997,  9.700489843560989, 97.822235845609470,  3.951518434677573
13.491666738977106,  0.334717172233766, 14.744802856152598,  3.795861848515210
12.113834465653584,  6.626994606733838, 108.195470924385560,  3.925259720512804
18.800998448968418,  6.295278028128537, 46.161325982289107,  4.098622985419755
16.984173501363813,  7.491722186273884, 92.830146072462725,  3.954299792890874
17.140337729754325, 10.154722002159129, 103.600722118198846,  3.824627966106823
11.620307723174784, 10.063440550465312, 63.358915533411306,  4.006119575230597
 0.260629261767488,  1.166229169804608, 40.679285596546102,  3.763864252429965
 0.136329791915729, 16.448844312550442, 96.832545691794024,  4.251378187076775
14.460175575552011,  1.780899648421419, 61.959145784073719,  4.084569962964380
 8.540082023240851,  5.557458219133651, 109.741655516958957,  4.055468599271166
 7.433711338564944, 17.596323837490139, 18.032341047418267,  4.115558455652895
18.699151601703967,  2.578361144282396,  4.906522768591682,  3.870040830907555
 0.084751910666038, 16.788688514417554, 46.226193226457582,  3.669076075379520
11.951885849188869,  4.973263720988151, 104.166026457948803,  4.110056059177890
 5.036214224436439, 11.062106281826807, 30.998727188701722,  3.949089877176463
 3.070769445581774, 14.399408824738728, 115.494031744150121,  4.217237390694895
 9.139073254633896, 18.657349982564149,  0.284871244215945,  3.902070307482529
 0.350702586274448,  1.919536966854460, 85.563239680543148,  3.799169118544196
12.491139545398516,  1.193811856681521, 54.053296048486324,  4.257161741762520
10.222676682336949,  6.426159487303216, 54.927019994456266,  4.073474229932016
 2.042383739639719,  3.056707715125023, 61.023640382685436,  4.012500040840862
13.568307706809737,  8.712811671631714, 104.685283472228022,  4.090187842204413
12.266043797917147,  8.778790477650672, 88.406878457881135,  4.007085156482017
 5.430800762974873, 18.211968533398014, 52.750829177172740,  3.754597814583732
 6.889386035503163,  3.104188245213535, 89.066424455224578,  4.040782670964827
 5.888723196034737,  6.783670523434579, 83.696919687309489,  3.969282989600351
 3.613719822697782, 13.869564972219610, 76.874125381364323,  4.072154318554553
 7.136118104456712,  6.546766398153855, 10.370883642518921,  3.593215504893287
 3.004145456474565,  3.316476520480366, 95.653158222263031,  3.905227978010500
10.567486711416763,  2.288824904162808, 87.398712700774581,  4.153858409432796
 1.256411038184029, 10.109292418407323, 31.508840048547967,  3.870561447501531
 1.514247908802195,  5.695522273750877, 15.252451942015414,  4.137533091889224
11.824466854035935,  8.428254767880709, 100.818478687565161,  4.230168921134875
10.673034812086334, 16.270579246667921, 96.974882079878157,  4.267917091739289
15.453519839162194,  3.733671750756324, 117.883715314486295,  4.091816899434560
15.081844262938652,  8.711133382749704, 19.093480760450959,  3.713154742111167
17.274494491837650,  7.506482583140292, 112.160010710628299,  3.979151704502456
18.171148638222888,  6.482007296226777, 116.683077049397355,  3.946440321504695
12.799083273621639, 16.114595934810637, 54.391847758896368,  3.805758642442153
 2.918546071665931, 13.770893540750201, 66.562422986877053,  4.210718941410294
 9.430578867011816,  2.620802013081217, 35.927986319272115,  4.186664784708893
 5.688821799724177,  6.947172532860399, 91.831324502105446,  4.224717672035408
 4.036811629531003,  0.254341302804138, 88.915858375635423,  4.018836426390023
17.196222730342168,  5.096413620228644, 86.611076573087573,  4.044328999482727
 5.945058783331509, 17.900673772743357,  2.686291777154826,  4.201690780529717
 1.587097862581238,  2.721774660506774, 65.301227174261570,  4.071539808279989
 7.452958971382616,  1.716683531836166, 109.329730356364209,  3.963998107079035
 8.591505510956511, 18.500940628246276, 67.958949511104223,  4.164784884944332
13.960805399033390, 16.712990172633116, 110.049779198473743,  3.617060950197333
 3.661700330939068,  0.787237430262436, 118.272890155967261,  3.998205063141248
 0.860544587086471, 16.539321487851812, 107.458560372874231,  3.827504098042969
17.948888146105830,  4.837927496838347, 77.015082647578723,  3.869041686826360
15.474434696846581,  5.193743548965083, 59.582299012238003,  4.166966139262223
 5.600233924960911, 15.210461201349098, 48.796571812941714,  3.878894041237745
 4.430292769194140,  7.773188391227320, 19.811900271303418,  3.829037468950051
11.845715214240245,  6.916733610507939, 60.347946549313122,  3.986889688856499
 5.684856822457136, 12.102192675576354, 46.155718677965126,  4.171763014714365
13.310399538271609,  5.109311849346076, 87.706086568594515,  3.735298092526978
 0.265204531905944, 10.141172362931030, 26.192189762747731,  3.845641612135706
11.050490845621894,  1.132232920838434, 32.254274022100141,  4.236756928162640
 9.537108224445955, 15.100538102741911, 90.908104220383905,  3.878271996944195
 4.014170090396053, 12.916337909939120, 70.368906988139813,  3.885222624500447
 1.580936468740237, 13.069541735177809, 109.004341494293001,  3.898297770548683
11.298461602670741, 15.913641372277361, 24.934779336900494,  4.203244063893750
12.932040583028735, 13.314256033655507, 42.293643937728966,  4.165503151332405
 5.203719451512355,  5.017992586924337, 22.422075029584121,  3.912107797596724
12.396364766562270,  1.040000452558860, 95.108048512852207,  4.297264134451568
 0.196313678916052, 11.447277581584542, 71.106291293987965,  4.091329625146392
12.442997940625423, 18.340673855997647, 89.751956645414140,  4.013549907599299
13.060783081011968,  2.226575938677561, 48.015127660709943,  4.138362671928485
 9.097354635352813, 18.039377457422830, 84.217584717149421,  4.020365515513095
 5.461214975163264, 14.633045713486506, 29.217679782511937,  3.942566236109140
15.804574604990993,  1.654434747477172,  7.525161236311551,  4.085690896875448
14.679907730653879, 10.042120957891898, 66.378453993153116,  4.054633224251010
13.419060465612924,  2.454448116327975, 28.993675903490765,  4.213920926396261
 0.819396946262117, 18.747770631502043, 16.390835715281096,  3.956188744467894
 5.139980750321531, 10.271297658405429, 85.522508286705602,  4.041315019897264
14.983413427284287, 10.989740705017581, 100.452799078191006,  3.921110684711957
10.410815176961876,  4.443066209263500,  5.255006992147346,  4.379766714727537
 0.040424991951801, 18.850685582070415, 56.359634101885817,  3.854996607317183
18.137994503661758,  0.006010848071430, 63.167432375964069,  4.331004456306931
18.326062420989508, 13.084861783667895,  8.211311558457421,  3.921594763766129
 8.686620233955901, 17.116600257511003, 100.380201572400793,  3.791386195142649
 0.731338532797426,  2.024190285222429, 102.922267546346362,  3.849438020268293
17.777311899964946,  6.011297405316018,  6.479821082436363,  3.852190476620132
17.977352240819968,  7.927700459879341, 38.894937659580123,  3.924712308382463
 2.557405492487358,  5.484603668702952, 25.541517582406126,  4.309167131768631
13.287616103479095, 15.719595787759157, 14.037959716123572,  3.491981305130484
16.325322307685251,  9.768319998458766, 32.567024830981197,  4.213374097224309
12.059498582643460,  4.597269789699856, 63.705262259501637,  4.073587755236837
 4.460729727160398, 13.169133402367654, 13.089044049342252,  4.336561159525456
 9.495630961885052,  5.892774557590172, 85.726032077565208,  3.908564676235911
10.158710818796333, 11.873618686014618, 48.664130404671610,  4.017691337548799
17.106907792433503, 12.166183468974145, 47.742673315051348,  3.983830419635933
 4.268005130131555,  0.336571315266843, 14.599260013193526,  3.855363140870646
 2.029828390784453,  9.435437772671637, 110.725395765746640,  4.185048500563696
13.945096747794661, 17.355753358052603, 40.237124549719972,  4.264911475385204
15.953158988008555, 15.925828428225753, 106.825852894868021,  4.100873309737055
 1.431556331286863,  1.388041575903557, 81.321916108758415,  4.154180829011823
10.358727196984651, 14.108984905157271, 35.224839872295739,  3.804702137708468
12.205459353787436,  1.146856409117398, 77.114753583416743,  3.786357825171533
 3.592321698232928,  3.916537390386055, 18.543386672417597,  4.397897994457561
11.845388089780492, 15.243498363365159, 83.357820410285584,  3.962001849872902
15.293359056653932, 13.771916234683461, 103.347854432732689,  4.129562552391042
 6.430299577206712,  0.520516290478039, 81.798609780693923,  3.715272971451498
 9.646424207775429,  4.186682987158610, 77.229559799597880,  4.144873157509551
 8.245136571375468, 14.478915113871155, 75.034187492848829,  4.219610020966715
15.503245094053364, 10.334280021838987,  3.253190671508641,  3.992477533169900
 8.054738805473473, 11.449625108312878,  2.393341801382568,  3.699090282112631
 2.658553975081032,  4.568347985910849, 83.393998830832629,  3.817299977971529
17.798312968215836,  9.829004839244389, 15.923866632826059,  3.943247990919319
 3.467066630494694, 16.019671655840416, 26.043510153319197,  3.986843051676047
10.096818761558186, 18.238056831443267, 58.221076277327711,  3.962254776420278
 5.187478139823125,  4.079439309941077, 29.569273084454029,  4.237632308042548
 6.722746076120053,  1.380883494666404, 32.479574810178853,  4.203119440861149
10.084393627575714,  8.844955173091495, 12.633061070931991,  3.755806968277224
13.730087186414844,  0.468026610360679, 100.184427322410968,  4.010663684188172
15.340017323653276, 15.840659762846165, 62.607812504066473,  4.078517547290131
 2.667932432654527,  6.707950306278254, 107.711272973476582,  3.998683633522513
 2.340277812863856,  9.733643278043541, 67.855212476286027,  4.340616353359087
17.415639235452463,  7.428283417416029, 28.410395117806178,  3.950053462052993
12.881711234916327,  7.967537873765273, 71.277742040157904,  4.093257567406787
17.328597626382813,  6.280303934866303, 55.832838129121768,  4.459264417902944
 5.634414599525445, 16.183127886838012, 10.608459079954573,  3.723830415869581
 3.428607253121323, 17.476098976165748, 75.378733508189072,  3.721193789851461
 2.660668009608372, 15.732298910735381, 31.543071777698625,  3.657631767312739
13.102860421229135, 14.659009584721714, 71.996416045094904,  3.816260040926513
15.012756830962326, 16.528066337500356, 69.026129475270011,  4.128872969591540
 5.267951789751692, 11.415443305585454, 60.076755638837675,  4.076713817189518
 8.236567244478929, 10.084909671001613, 42.795082441796310,  3.725637983754612
 2.528232218885169,  6.649988374774972,  5.187833092515781,  4.103877494237550
 7.954509705182255,  4.939301548361744, 26.765199771433789,  3.822774465668307
18.893072139352693,  9.515693001096441, 95.784246802284358,  4.156155597355931
11.333521618614988,  1.313709809164083,  2.909575829404313,  3.640781355616820
10.755543450563174,  2.679252190134810, 60.356234376802988,  3.868490669833852
11.288736259046718,  7.940517487878517, 116.545222723711845,  4.403339510335116
 8.803285044904285,  1.822886318176431, 71.314168858048049,  3.900676845329335
 4.915342287060204, 12.829365126269293,  9.088547805945163,  3.723973039981867
13.467755948405514,  9.125242037706228, 22.708699932292053,  4.035029230615574
 8.234335238426022, 13.468695846737043, 84.931632545604543,  4.210663673695250
 8.716041032684011,  1.682800509979497, 28.862538853735952,  4.053602406690947
 0.035667546749481,  3.117826407779807, 53.404913731651362,  4.148796996385014
 3.362450207613727,  4.690618073873524, 103.607339255901806,  3.711316666596419
10.696947546121109, 14.046885704815672,  4.571924765871891,  4.117022382636868
 0.643721817170844,  9.625446682083805, 99.796689346779246,  3.989219454617815
12.037334341183930, 14.611153081799394, 106.310838608250592,  4.070150143078467
10.494220134696072,  2.501434545349591, 19.212538935349723,  4.125281915933746
 4.355191454742450, 10.782264404009691, 113.851463000177731,  3.987390408601220
13.066400514720886,  9.139015037113925,  9.964763115929298,  4.263740415571199
 5.839786545052883,  1.676338495892849, 103.733525767141231,  3.906490071385102
18.265958373912785, 16.707829456076176, 75.715840390893575,  4.148160785358235
11.648143118951941, 10.811582282696969, 107.359084005224773,  3.666642599634704
16.949937428056909, 14.806016306346269, 11.530005451676793,  4.045720163531767
15.740320242986137,  5.867812464081938, 21.703981428486642,  4.114994453470064
 2.163939503367978,  7.669505509462564, 42.520375189788382,  3.706767492597785
 2.675157594927603,  8.390504191683755, 49.848556082194847,  4.039775040196836
 6.651268735008855, 14.519417307360658, 52.858991619148512,  4.004231746292812
11.903534925373814, 13.073049148754297, 52.062406730215642,  3.964825431129980
 8.528320146101345, 11.079294355381251, 52.241757334557953,  3.879947241249786
16.426063337669646,  0.891121207176252, 70.736539227224583,  3.836005893303584
16.647082190764905,  8.585220118746008, 69.685352130602837,  4.009243048640756
15.830998685046183, 13.147090041065079, 15.006293782684459,  3.969960368716758
12.293446973380087, 14.873231135183664, 58.107420519371836,  4.045206195229385
 1.500063552589002, 12.198871065867873, 80.130584667573231,  4.278388619763090
18.510335502598995, 16.045737559810505, 114.390092169298427,  3.807493120174659
 4.026405161027552, 18.662909916612428, 108.602585504688918,  4.090393014741396
15.905712855235635, 10.491241207743505, 36.646853766900776,  4.034663330387095
10.286257389672491,  7.218199902104886, 16.578421206328663,  4.182019963876371
 3.848178088990842, 18.887802715064144, 40.474572933725561,  3.824627440721944
 5.660200165796712,  2.640566040161676, 46.695997166664917,  3.711913012036959
14.070275524804128,  9.788493879097054, 75.819746013712418,  3.732836774233641
 8.281705760540101, 11.256363196219844,  6.256305049898863,  3.986360717809741
 6.874296912878796, 16.139473981417947, 56.937421379298989,  4.139547912681677
 8.812762953148065,  2.301162412036732, 55.805983932071854,  4.185156719991843
 4.030602800266903, 18.920315377377641, 29.433225154751305,  4.303492305364608
 0.434156813279945,  5.147840811473363, 49.985203289200250,  3.831527785651647
14.873660397323762, 13.862408648152845, 75.676153421925505,  4.345777843750430
 0.575189549934038,  6.487360320998866, 89.861872275421476,  4.113090225604048
 1.801374940003728,  8.336263686739226, 103.511596120119989,  4.191328424336334
13.779324614469774, 13.585656442588764, 80.364909900371146,  3.833504637981921
11.369480862310578,  4.560601602784979, 51.429244955850763,  4.126294000574442
 2.452152880302523, 12.465769338637539, 97.478254338475764,  4.167108372275310
 3.738600129057245,  3.172040481836182,  3.076035773580097,  4.101851043179705
 9.071123640165675,  4.772035758572087, 66.203397123272921,  3.716694784637665
 0.815175192764681, 13.203664421470600, 15.413880152977233,  3.937744861665851
 7.584023669085769,  3.408911738747583, 43.293639257889694,  4.249140515862094
 9.708939847166562,  0.903553530206646, 24.866756970543598,  4.293563445974717
 6.178103970017987, 16.768676172049034, 103.215130795556078,  3.810396852283537
 3.057935408124012,  2.483487369734481,  6.977912554387606,  3.935185152086609
18.679582163807257, 15.524291701817754, 53.483307966344441,  3.548604936552114
13.907608256244732,  9.801622778575792, 81.394987237304377,  3.959853645345411
 5.487710370998574, 16.092887933441052, 72.315979626333259,  4.126611649514937
 8.947773511702911, 13.165974047129346, 100.318006161920394,  4.127820001232120
 9.872569943942816,  6.700674004668378, 42.861418752499588,  3.778492462311584
12.647231137846417, 12.221856891548743, 12.705352180030767,  4.018604174768682
 7.132272020199881,  0.849395732734133, 96.100402028660326,  4.014963599072185
 1.007874839325468, 16.133459469586551, 69.501971424458006,  4.226640958600762
 0.103529884724818, 13.846981140353027, 25.033218219585631,  3.921853622749677
16.671629778347906,  0.348930371527782, 37.736057027037738,  4.074714350891129
 5.953229408685581,  5.983855100915633, 95.834676653864591,  4.008187884593022
10.183792055982041, 11.211362489499354, 15.713366071846956,  3.928864312785084
17.373097071960839, 10.603383455202927, 55.430858876991593,  4.143991885364916
 4.637164665823856, 18.070394939051035, 68.875500011587789,  3.978215406774184
 9.625537986313752, 12.276081552508375, 66.203776158346599,  4.105339578766925
16.060175605576571,  4.680463665365129, 90.342480048764273,  3.770324190954029
13.842312428106512, 13.321269885369661, 22.647472732926477,  4.348543211411814
 8.360200342954732,  6.753838123057106, 36.318595177542157,  4.322740675077245
 4.428939335424586, 11.130885300083978, 42.288881750860909,  4.170636036533592
12.378195486871435, 15.555091560688748, 100.907025465089262,  4.268397323098268
 2.945797392488537, 18.026747526048631, 48.361865243167692,  3.875838085503048
15.437454825985022,  1.119816390402926, 91.963421627008202,  4.150874651541710
 1.784964705432230,  5.948720312139959, 112.723433145127728,  3.626193460098278
18.335263269547166,  4.516537934127035, 96.982871785487404,  4.074038379889736
16.799190343763144, 18.642649738954223, 53.282190067084898,  3.679858095256880
16.218844646720509, 17.184471823849929, 89.333006902309307,  3.720868317433898
 9.322234641246961, 17.862018178739248,  5.107895506512830,  4.021842315501318
 0.177868386949977,  2.588625732182281,  0.910323294564916,  4.162278467444373
18.946000511033219,  8.733314957172366, 77.573509689641369,  3.902360964029295
 1.942656461372277,  0.995883457491225, 37.097291589491860,  4.149030553823152
 1.770586187046214,  7.706566202049308, 85.926013943523429,  4.439759712778009
 2.861284061790180,  4.072436943685085, 39.778515726466701,  4.179383839467462
16.910918198833890, 17.846100596521353, 13.979976426541215,  3.718175560839382
 1.607202248114383,  0.121378148732646, 93.637065380368668,  3.919911190332182
11.975871274946165,  9.313463622308163, 52.933535527052598,  3.749368134366559
10.784447103785670,  8.043875448656284, 49.504411256329220,  3.852214568335858
 8.217221976715813, 15.016883945191784,  7.845010977653430,  4.169614209342270
13.468871711682052,  2.475284990932178, 114.565107476994029,  4.008124514219785
 9.082159516136588,  1.461598477926804, 101.931283589989519,  3.516249119652032
 0.274459796620697,  3.921563928275309,  9.606484840608051,  4.194791379273115
 8.106276470767147, 18.728487906916207, 74.813159585115486,  4.195986124907819
12.207402911419971,  1.308277753200424, 103.471107087071701,  3.358748699975573
 7.047946308279094,  7.723338561380760, 29.370366036699878,  3.929513780396910
 6.595804397780113, 15.537590312594221, 111.279061041988356,  3.871620212743029
 7.104616932035495,  7.203409910133083, 68.357778594220150,  3.861306579032960
 2.247710437480285, 15.595860803973626,  8.984972255653174,  3.862855329243791
 5.696496459355451, 17.984187018210495, 23.227896611288038,  4.174809025720222
 0.992269376069878,  1.448260680632543, 76.500186889119973,  4.040797055937691
16.281137762943700,  9.697421433992272,  7.251845853577384,  4.218285807918204
17.905110056553678,  6.926699310545878, 24.711030786363761,  3.541434503799199
18.368933168310836, 16.890856362446414, 103.913600751003230,  3.608822416036957
 7.058511539231016, 17.533992787420019, 26.999765320303080,  3.884744083698294
17.424704358450004, 16.846118396934301, 93.179987516566044,  3.810166931147148
 4.899280530773575,  9.427052981462795,  7.055030580873124,  3.858777767729723
17.405148187641814, 14.687635026194293, 21.851654885056206,  3.437614473998929
 3.545785004215119, 17.222125822613805, 82.460637884845326,  3.721775445078634
 2.533876970092552, 15.391583804459311, 51.122065950905764,  3.798054623098795
13.931722056104906,  5.452523965396312, 54.026987296714644,  3.379538372007854
12.430120678123226,  7.022246944994280, 96.822550105516299,  4.303412161725496
 3.430375209912357, 10.434449097789807, 63.711192259373071,  4.237064365468729
 6.888557501458852,  1.399201855931606, 116.081805885059737,  3.802247348925876
11.093812532121870, 15.637600665065021, 117.061888093841276,  4.059405984509155
13.878365408695123, 16.869621723119341, 78.353332715717599,  3.842998429720470
10.178487851944498, 17.247948482985475, 103.950605209685818,  3.919280823009072
 9.487899607016038, 16.377302533166866, 71.564467257324011,  4.025657100498553
15.938260270469680,  2.313808917077909, 55.965593893321198,  3.927940753240725
 3.258090114078610, 15.581680117188721, 36.728584629935057,  3.566984183221510
 7.203757959950511,  2.606158412579252, 16.379023111381471,  4.364747328499594
10.158626749243231, 17.001358776206384, 11.446075675206929,  4.268459582251060
18.708155226555249, 15.286744344983875,  4.832231917141139,  4.147595071201002
 4.530771511014055,  4.770221283361540, 58.556191871369030,  3.778661931108508
 2.549255243980930,  4.184795237339589, 74.009419022365734,  3.955101085407370
 9.578809499322011, 11.831143027298783, 117.268585453419902,  4.143809304385289
 7.400116241243415, 14.120325046655221, 24.206255917413237,  4.493735056597241
14.038631689061178,  5.384262832610149, 17.168122077099415,  4.188306735647061
 6.824467150992559, 12.248130287963649, 88.598123479331832,  3.973367947049344
12.908293748928992, 13.080394162597287, 30.143907870576864,  4.263934677520239
 3.176724715103513,  5.595747320633847, 52.674394142718889,  3.803652295373707
17.494193597135538,  4.164485708562133, 72.988915233448253,  4.326647491745233
13.201421544443805,  6.864773854908787, 91.799483719033248,  3.949280112842338
 8.197211601072192,  9.346451326041182, 32.923100669343569,  4.194314498482911
 3.402085112170859, 15.740946880651380, 54.916390905244519,  3.932112877364085
 6.106869345345946, 15.258801382109748, 33.027010616005292,  3.881737199689752
 8.055327957761760, 10.183513256655319, 76.100349390143677,  4.084444261070221
 9.631349061379208,  5.768151915253263, 89.502438618125865,  3.630119121407996
10.767579579299170, 15.847950276929245, 87.131360359100029,  3.955248799765982
15.734109992650867,  8.801150727196204, 46.341629430963046,  3.774355253200476
12.315793646326821, 10.464504681369720,  5.983109458308517,  4.236206131570154
11.954688192742946, 13.773099790945844, 61.970610561099214,  3.932653012203979
 8.064521268935131,  6.689813599046878, 51.720302783448723,  3.659391594306304
 0.948352160460151, 16.787519466779301, 118.098677618105810,  3.950654944975129
17.782110028842101,  8.520876555404735, 49.436441519633561,  3.655938635444690
15.830618924990734,  1.156066813015258, 109.988571297546002,  4.107297151291164
11.597756846235530,  5.707543577411031, 46.292299762512684,  4.154203195876091
16.655903258730426, 13.824313985874234,  1.617995711432527,  3.999889856826386
10.150052630406661,  5.213373313464764, 69.868761876596608,  3.942908751975836
 3.932511676592117,  2.300440304214803, 54.682155746208927,  4.040389313943955
 5.365919377273237,  2.240965038605419, 63.419822816249237,  4.314147229536159
 8.293464062904469,  9.619459757924947, 113.925210746785964,  4.208769419055977
 7.682661724507414, 16.139707018147149, 94.169930568970614,  3.900922730404048
 2.023981326036457,  6.754229103611574, 93.661212046896026,  3.966557035569605
10.274502565667806,  1.004832780007530, 98.511655182169704,  3.722072729124122
16.811349690994113,  3.377517652113037, 47.852961087288165,  3.696335932875556
12.693333995754561,  3.591285004487327, 84.029601477773852,  4.218539991002225
 3.264458880175780,  2.238543664917307, 50.697249321359138,  3.863318512992962
13.145453592231107,  0.185266142700598, 118.055499227908072,  4.278151411204765
16.042118342850305, 13.057185370194960, 58.723729349170128,  4.356852872033072
15.260104217248632,  4.949080522207300, 44.427916034057318,  4.203486865767511
10.345461584544571, 10.623840500345548, 97.409552350000354,  4.079632635075406
 4.300291337784020,  9.911217226172356, 77.793092005019176,  4.108912996755203
 2.029564969071942,  9.956192329586534, 74.429479235202933,  3.962600149843412
10.213585417734951, 11.405410238384100, 22.734174877236804,  3.859268578533621
12.292536783059893, 15.788118659129907,  8.041342187843579,  4.079692087146443
 2.091699801982343, 18.806581386386341, 114.860300851710733,  3.738502310747711
 9.477147911942545,  8.108199651185583, 105.478222819964429,  4.202992908913454
 0.029088171954609,  5.018256430051497, 80.725595911479147,  3.716649130813219
13.966048881849321, 10.374759188610906, 49.668364285804429,  4.023099709093756
 0.278191498239313,  6.109586686436069, 31.886732626946909,  4.288383392001756
17.980404157792286, 14.350569377032697, 86.675430996244586,  3.868036188399875
 2.743801019563584,  9.668335681700018, 14.789018966939462,  4.163571456875209
 0.330977205674617, 10.004352895824786,  4.582747070746810,  3.817593398908785
18.228248000156007, 18.894015332913074, 10.417494658231019,  4.111014373040587
18.615027987770695,  0.727036653556806, 49.955866931531148,  3.955102104839828
 5.345114862459230,  0.231994425744435, 112.551616194305538,  4.244563459873195
 4.885127821590357, 15.113606977884483, 20.509996762574914,  3.862954992267090
 5.527672923443604,  3.913630113959446, 35.376280743112289,  3.853224137463101
 9.862393586334131, 18.778397469837625, 15.206693192133059,  3.564573607045641
 4.724721748705281, 14.879514430950948, 107.646113992334904,  3.757867320160276
 4.081251303687973, 11.197156937299155, 106.393932059554217,  4.097889001633367
 2.759127378629690,  7.994598034778939, 81.590921573454295,  3.884697117850633
 1.710627914044389, 17.243151073959396, 86.166590481989687,  4.004131602879674
14.681377668346153,  6.233828877763706, 114.854176977143879,  3.902729474074436
 6.112946825506777, 16.661230128120700, 117.149228859566477,  4.018572002596905
 9.776761158227977,  7.724093349359173,  7.841899044244105,  4.061521905332723
 6.508865440359069,  9.220078522891388, 117.975388878803244,  4.039109951617400
11.546667123555727,  1.086765027295306,  7.692068413908701,  3.988927772214495
 9.567169423306641,  1.116886374847089, 64.050371554796669,  4.425148440442213
16.979194851155381, 11.107352353139659, 110.596486729020398,  3.870067252620396
 2.922626050502767,  5.626471654391922, 67.744016257591838,  3.946957398262843
 8.851087327834167,  8.539728446738200, 71.621749352964585,  3.983333420598754
16.385830191446722,  1.801764811632394, 82.709229221681710,  4.211718159326429
 3.848235431002260,  3.593248322701643, 110.244934002323262,  4.341652514403930
11.729515160726839,  3.077467040999564, 91.428964021878841,  4.200897659466103
 3.502476829832962, 14.834245121369346, 58.816187496786888,  3.982628106107441
 7.855551513573540, 18.891396839058654, 40.837512236708186,  4.185008111543064
 1.238275653082905,  9.639906280920897,  8.366635911890517,  3.919376445379283
 8.162464371169866, 16.765965536256925, 46.208567608789878,  4.039260275054638
15.523683413224001, 16.547648250063094, 17.426017646978423,  4.142399358721392
 6.794310310116273, 10.038770764160628, 14.061338597822290,  3.698752764860468
 7.981715571270918,  9.521877837532957, 101.889050618694299,  4.038501368021944
 1.141516559264786,  2.200619533545463, 13.191803455929294,  3.934942748746923
 2.025944748879840,  3.656916389632707, 115.853001359524910,  4.112312739582364
 0.820418239215438,  0.816342097739309, 111.256062676000511,  4.097363980342123
11.611655966585372,  4.303282474358610, 26.014794753381711,  3.668324251497984
 2.494136854048962,  9.022659164152556, 23.087167647193830,  4.113131055894423
 8.797222847588733,  9.469061217945924, 60.320681979767272,  3.951557632782008
12.208949806136717, 15.430848366616546, 113.200291159980694,  3.987617379677438
 6.179674823800424,  6.895491102434153, 87.713620300171883,  4.063572465529467
 8.452607875098510,  5.447129456912244, 58.540196831437235,  4.180436783585662
 7.792789513334411,  2.839760683808251,  2.108435948821894,  3.651059886836927
16.809300512633101, 17.918800264353024, 85.628305195680539,  3.890776769376896
 0.205018830753967,  9.846511277645236, 107.025734999574183,  4.092118062593854
12.624214462946750, 16.226805543975676, 32.827367329855861,  4.022238558731440
14.121867819652403, 18.589994693402119, 58.446112032788406,  4.124505463365724
 0.762391604548129, 13.910732533291934, 43.954026590655118,  3.720366577561156
 2.170420116713824,  6.330293907872666, 63.504916455212282,  4.014462398979799
 5.952658795433020,  7.036413748891518, 42.231401397734025,  3.963631093759697
 8.305284123998765,  4.926994263835587, 62.510605423577388,  3.828570319967735
 3.034930034798258, 18.133433195384526, 61.645087436337207,  4.063135672261980
17.484633959813056, 10.197037926349205, 22.435915323442497,  4.177947318016462
16.673714163413862,  8.942360385384260, 85.265409726832203,  4.113765158944429
11.036897920791287,  9.337150708602159, 40.081017870020027,  4.209125702577807
 2.331905534471122, 17.716423645492128, 65.599807609157509,  3.993700696872496
15.698372474699751,  2.202551254501103, 65.896284477927523,  4.196176586069916
 3.850130535356460,  7.289594360175682, 115.690318405468304,  3.937051021026381
11.665933836665348,  9.953135525502816,  1.866667244009938,  4.159494042508815
 4.240084621859046,  7.288843259410713, 32.141243348191651,  3.979390245823365
 3.412456021530191, 18.759832430445073, 97.012469600547462,  3.662798887748723
 4.772480923104209, 17.449816948391511,  6.599199759473592,  3.921049194557870
 5.957417435114079,  3.508217822133839, 75.847510276152960,  3.848245449981170
17.131150292955631, 17.290008712906062, 24.457777001207674,  3.924127557274360
 5.042915169973565,  8.936716387482004, 35.549614360784460,  3.727584315901788
 7.711329165744466,  9.341976605072443, 94.658755376889431,  3.893195230620050
 0.448397595460732, 16.648342149035063, 38.936438229560558,  3.875865955589824
 9.556117118275278, 13.182959040776097, 44.816546430300633,  4.125708936226881
 7.046770355517378,  2.871067304948319, 52.009687788812840,  4.242825348907822
17.297890312389381,  8.130658650575585, 42.849041454273880,  3.984764790960490
17.555325595429046,  1.590005835154778, 44.575238342705532,  3.912891551565718
 3.883399223570144, 10.258444195164346, 94.179440693136399,  4.031537546279400
 6.951368271656488, 13.183093119788973, 16.158388126302384,  3.556414233031458
 2.236981363400420,  6.656804237010117,  0.821025001598053,  4.037206422160057
 0.797692929169415,  9.368285536714454, 35.483793693428630,  4.266200289786543
 6.762421663669580, 14.758245450923420, 67.862683277395860,  4.139863752529823
15.890840347580783, 18.569451882899003, 33.295847565005921,  4.063176607086235
13.962820548370891, 14.279540095092919, 48.917860750499912,  3.925822814869260
16.892492301514210,  0.204348756592215, 28.024040408510228,  4.105093130084766
 9.746499362240584, 13.914916936426129, 55.219907839696177,  3.863800985826583
 6.704856313937500, 18.902081456219442, 49.194201343824247,  3.860084891475252
10.382682650849059, 16.024025767256393, 79.700454062346736,  3.707665471757560
11.307274705475855,  1.398184177447059, 39.332677174621423,  3.884505440002228
 7.819801778883414, 18.341456620151341, 87.970248048370792,  3.896632341196609
 9.654455825183696,  6.327523043934058, 93.113986692093249,  3.648533912600415
 9.491782138461097, 12.874049166647481, 111.699286939209571,  4.030677420661786
12.282569535649690, 11.664889314784091, 69.389369446435879,  4.279834293164249
17.924475057503152,  4.426609525543330, 68.726211079898135,  4.237430097567567
 7.258384895488134,  7.191929301254887, 78.897292821617526,  4.216095273219216
 5.688314524528222, 15.852053732284016, 90.282017662666135,  3.940837910103188
 2.518431908849918,  6.935019530068397, 97.570608734377075,  3.918267468421655
15.948827538127892,  7.665691993895263, 108.188662881555331,  3.996748374430701
16.637717612915800, 12.352788343876052, 18.931851022574271,  4.188109009358164
 7.603847200825093, 16.617044074207083, 61.066103207091189,  4.221964918845830
 0.944333381621031,  5.499041171910941, 21.599688774240629,  4.133381093383738
17.207201864395739,  8.197235842977156, 74.059201381401891,  4.010406328240303
 1.697318479177453, 16.923143933603807, 22.343400043698260,  4.272100214041854
 5.697100297092269,  5.877536971916737, 65.098519050112287,  3.716062766314571
 4.015222958494173, 15.756781370988909, 45.169702297799375,  4.045485417374693
 3.833749996445441, 18.119503302312019, 34.129765311485876,  3.711213611192286
13.085016369478959,  8.689211514500860, 43.553266118049173,  3.900714818932784
 1.272414857761403, 10.898813115468281, 58.670213441957380,  4.374650600315370
10.291551117858894,  8.161202478326851, 25.450316583232699,  4.534397773867521
 5.976160579484495,  3.171613202230160,  9.412510504599835,  3.782302042441907
 6.450167556242964, 15.643299225401636, 38.766944780433903,  3.993751348954246
 1.742621178977832, 12.757115820030217, 21.421447018206106,  4.198763253654118
 9.484615875343369,  8.105983078340053, 82.386434606264828,  4.095761041303721
18.664806334649423,  9.623086752374869, 62.361812951370297,  3.724686486206149
16.145553197537645, 12.746681800274269, 68.838722631430244,  3.771180814296055
 1.361738829012668,  7.195034518929339, 71.318299326745731,  4.457131041877492
 9.452927285044359, 15.727215952061790, 50.027545118132515,  4.268512618917566
15.057150295838483,  8.297386033627223, 118.342831992115748,  3.971338634795655
14.921573587069766, 15.397772991932236, 45.196102246450792,  4.005750507372968
 6.819052562630199,  9.640935367784238, 39.099989044375327,  4.224404083711892
11.492768183912428, 10.084677737876191, 19.272964656930167,  3.978027642351563
 9.770069805723661, 10.175147780581030, 56.495929820424088,  4.028567566052021
 1.693936836613255,  2.672131651523180, 47.004830543217480,  4.202444556730224
 4.828720891703395,  7.103364349134021, 100.873400015553187,  4.143182272731486
12.029184680201395, 17.308963319742087, 47.215347473103527,  3.981935056149209
 8.483349142357353,  5.375577173424929, 13.573018822033001,  3.734080124425724
 7.554017165228146,  9.784080773757900, 18.386871030719686,  4.092343639348680
 5.377362481539306,  7.493070054764509, 61.290352447970093,  4.114127662951976
 3.000420855787626,  5.771917029296946, 77.934326540880733,  4.553122888817416
 3.980675632785752,  9.723354607342712, 11.045618588574010,  3.694751096335894
 9.240982061870012, 14.510046530101979, 28.137983510984913,  3.902153777303007
 7.459868544365714, 17.652603417147436, 106.765966200237344,  3.937399496600136
 4.412100622058057, 11.942152598156946, 50.715384809125823,  4.051794525433661
 5.313748448951090,  7.419304332547059, 74.566284524664283,  4.255539330644505
 5.566397056149555, 13.018053912607305,  0.016404281246201,  3.799861057293415
15.431707440287937, 10.748834457528254, 25.848891177042205,  3.835383053071900
12.951609021762939, 18.619116620046100, 85.205075823215225,  3.994268758601776
13.945828820400937,  4.028482543767939, 70.683549490141601,  4.138010256950161
14.665043416431891,  4.026406463790691, 98.622588061392236,  3.964187920255851
12.300657301573294,  9.238608470435778, 32.676548000607902,  3.905061121719439
18.019292544347156,  4.040959329750746, 38.440652787490166,  3.875784924968242
 0.936418348320337,  9.388122478109974, 19.252966169903182,  3.938369940146199
12.486878400435913,  5.645119037376280,  1.460231019149811,  4.078710127904646
11.737493912535736, 17.840377543584598, 18.217013505415483,  3.731996700690801
 7.595839091949144, 10.273288545641838, 10.017599957984894,  3.901204067335984
17.222963816810740, 18.860344832119448, 79.120743729783896,  4.069170803712335
 7.045256978491155, 16.562798135848318, 14.132874450140131,  3.904533486241927
 1.176161283397819,  3.562648681844554, 57.189563446064774,  3.798555002144470
13.500216209533916,  7.958902374433013, 56.808466952613244,  4.074648896799604
16.909273154370439,  2.885301771522566, 30.985359371323376,  3.860927746674872
 2.890418045529730, 18.234176373762175, 104.638424809514760,  3.903135747031905
 3.276203905569480, 14.987484761485067, 41.178700568860179,  4.060029624464725
 8.305580934079952, 12.950532391753192, 107.713978934941281,  4.286018141197616
14.328312250625416,  4.842859458481446, 111.085952868920245,  4.147551718534784
14.960408757910297, 10.300901147791341, 40.510677468250819,  3.915398391022813
14.159335100512310,  9.371881814770381, 29.193993248459037,  3.759798334440871
14.937959050866692, 14.728830551472507, 26.747822547043238,  4.227704694162018
13.912718734145454, 12.163717440933269, 117.793624683743360,  3.807039377539100
 7.732368671993050,  9.149334862802455, 64.266312348557335,  4.165300828602652
 0.253023267829228, 16.892341055693400, 34.854005066198681,  3.982422092864819
15.174126488849204, 13.831649972871935, 94.045522474974533,  3.904722702437124
18.299153442688162, 11.818930381263399, 65.626190943998566,  4.147745748431284
 4.128149226311621, 10.372803683028991,  2.913951220942042,  4.509127976685705
18.896039023162633,  4.572267090124096, 42.485733310513083,  3.836833351563681
 3.664603339372882,  9.692134771798104, 89.299951951815899,  4.098653385412622
 5.598732862948893,  8.027637184222888, 104.626890544107852,  3.737854824078554
 8.645241934443792, 17.147354432270859, 30.844633203170758,  3.741512690374940
12.499049302801872,  0.162616623785017, 71.098118572279134,  4.147484835333503
 2.313674058503277,  2.208035360107599, 69.529559996499501,  3.847483639637865
14.739091225834375, 16.898199011980573, 96.548290098373528,  3.985830750647506
11.169014018523566, 11.423505362146949, 73.543883930500741,  4.332359333848147
 6.224860888334534, 17.419480888288806, 64.843931296995706,  3.936338088141651
10.179665238243269, 15.123026417742762, 15.977250083787776,  3.911111762310530
 6.694428073698028,  1.874425657184987, 20.484215019367813,  3.963412095251197
17.426099457047965,  0.739729104965016, 106.288378141993988,  3.971744209831547
12.860345788169035, 12.864298654676340, 38.118455467231684,  4.216611403349187
 3.610348953049079, 18.767626028837434, 19.227381659801882,  3.872780060656397
17.834769666331351, 13.628132924696320, 33.014849134467568,  3.972508848261810
 6.243019549151724, 16.723065448119545, 77.823295931404544,  3.762107687494639
 7.952109812315212,  5.093185225292814, 102.881624483807073,  4.291873047517181
15.513061596848148, 15.591882671964045, 36.219301679385971,  4.272226831560207
 5.156985032113571, 15.087712639839342, 99.569403159665256,  4.441494322163273
 3.112081712548175,  4.052733398687637, 87.725173316866346,  4.114569284854737
 8.736893008951439, 13.164433394756626, 58.796827337180666,  3.695704636300638
17.642373897438656, 16.981674317553637, 42.550170622294779,  4.190291084317153
18.042544356625552,  2.686231846568772, 34.725915355784579,  3.962539681671314
17.687224688301740, 15.665470771779336, 49.757475491797543,  4.156934186094269
 8.811651688745684, 17.450694876885674, 114.170736878398131,  4.142425459698076
13.921523716414212,  0.136342994719245, 44.189629320660728,  3.879204561655865
 6.588675309495863,  3.828387265662252, 99.151007678562578,  3.945769095950822
17.713336268745451, 15.880559458547987, 66.000520034323017,  4.075104293372711
17.425406892023076,  6.153673016846118,  2.436237912258475,  4.218023030309949
 5.477982390537670, 16.311109277589882, 85.647320320048195,  3.813830505363639
14.928313135069059,  7.560986191440374, 63.033497842658953,  4.268809514165358
15.640853854551164,  8.328230242091841, 52.618003206972183,  3.866321092039664
16.524766127368206, 16.352394841820598, 100.252466290142124,  4.271047872542153
 0.793704690768243,  7.672401745217975, 11.740882984796240,  3.925775490492137
 2.020086024008947,  2.610567674127860, 106.600507168319126,  4.023119660126194
 8.510392354616361,  7.252095046535637, 98.623472478153417,  3.962622354499467
10.817540837963810, 12.366177027252412,  9.268945413782044,  3.725060875441274
 1.874971095178591, 16.934607638595029, 78.944522801163615,  4.074877885355018
17.845509987744784,  6.206097629165055, 18.236729142068004,  3.876019739888386
12.680537552665953,  5.821041386737047, 12.583140707503834,  4.208664519009439
16.263433169602894,  7.740359407276059, 98.449565423020630,  4.124817226538309
 3.486874041943444, 12.028129056485703, 38.421917010707446,  3.908984561088537
 0.346222502942477, 13.513770042907820, 61.946496938675821,  4.160466894483245
16.186102424633567, 16.174819276166691, 56.099291076509111,  3.773472644567274
 6.966559967491062, 13.025230124682489, 103.818693889585319,  3.921793165300840
10.273490565821083,  0.759960404050469, 50.577123074380467,  3.953157554308540
 2.969810824020390, 12.716108771300235, 34.086029192095424,  4.179514454740570
 1.735486870529903, 18.551423896660602, 52.959451099268207,  3.677909851319978
 5.425263937872538,  7.242344307626200, 111.915119591512621,  4.239080336567438
10.770907142939599,  5.792642133876215, 29.670493714016622,  4.392622094763857
 8.732684655886775, 13.744450719780064, 19.683626692126445,  4.366891685291290
 0.530431533413286,  8.291713440844298, 53.052493666106919,  3.648782527275055
 0.748878485235622,  9.402338069122820, 114.585357882840668,  3.863680492336480
17.347341073893467,  2.297681350594309, 23.137923219510196,  4.220648924187524
15.211935828833463,  1.739130423663866, 87.936489833851198,  4.001963333120639
13.649514398613862,  8.909858539642169, 111.200036047402733,  3.959099252255919
 6.016251779995008,  0.365185149591711, 37.127564268987818,  4.080651353023020
13.460338243262532, 11.873698464098840, 55.577257649365791,  4.085375305495529
16.623293971795679, 17.996882007480345,  1.776245725100169,  4.254867688248739
15.355786678103469, 16.779650305158565, 82.091642956797855,  4.074948705425918
17.116682782760691, 14.688462010984871, 71.890648482048775,  3.713192364301883
 0.775184578645708, 11.459267160917710, 84.236594964523363,  3.997695990563230
11.774394617156080, 12.078016762988803, 26.270512053730567,  3.974599582706703
 4.121880649842088, 13.460035000064757, 83.247525359884335,  4.046542996593411
14.487613616045543,  6.320802445667711, 40.581931010810713,  4.084333405371101
11.560838106884976,  3.080703183974269, 73.817398509295828,  3.961197720347589
16.270346652351698, 16.443572626345524,  7.861512731259866,  3.964541538265656
 1.638531822379874, 16.491088253328346, 12.981312255938187,  4.352715315816413
 3.002387813459825,  8.077462043842942, 38.756547295925692,  4.034507642047529
14.895607165077049,  3.379536865289485, 79.147304757816698,  4.095373391439605
14.190805431891732,  6.859233270626646,  4.999358587921664,  4.081257743901002
15.185453533656430,  6.136466475947055, 102.015980928647721,  3.974915905802569
16.179040049681269, 11.193574681187364, 78.589615115906497,  3.775147796348173
18.052096725397227,  5.324716268738480, 105.053508012507535,  4.472565052215736
18.889408583467855,  1.424101141784327, 89.589078399155241,  4.077173950697800
15.410003660715248,  7.397948766528757, 78.561272580901587,  3.910326639252287
 1.355144117437167,  0.584416292959279, 25.675006524212176,  4.205190360743478
 9.871456534513012,  9.281474700988117, 110.257758399471129,  3.738785837761216
13.765326972712559,  9.277095352005087, 15.381367077235300,  4.237437023790208
 5.578941396871451,  6.571655842131302,  2.739292790262220,  3.632805687090710
 5.479476185280873,  0.224065293950915, 100.139259781156014,  3.844245522872133
17.619413769144543,  1.439807349671869, 99.570858418402139,  4.075638632055183
 7.078685153632543, 15.696351416522861, 81.651827496451261,  3.961848910524119
12.699607176307699, 18.890310112657616, 35.887246290221583,  4.089644996228301
17.597732013964837,  1.752749776066748, 59.472361525684065,  3.907665751079227
 6.111778375826946, 10.295513261737421, 81.489725771661313,  4.139312363893908
 7.778660528566941,  2.673530038271378, 84.668250149673071,  3.685346813236212
 5.178853516783658, 12.000058096370347, 110.181316589308764,  3.902391926837754
16.816096763676494,  4.007264640563986, 26.755668826243557,  3.711139912355574
14.855256095077396, 10.126835421419987, 95.454462484562953,  4.016243209049766
12.314443643168154, 11.337589336815638, 114.193560387244119,  4.094744654596242
10.673231883368466, 12.298817761412600, 88.580484566219852,  3.709238314096258
15.207717721354399, 11.264185025965554, 72.344275020994360,  4.058774320736526
 5.397211858512353,  5.513245081902327, 49.303715194730465,  3.911527785038301
14.548441720224456,  1.587818208231074, 18.950969600059278,  4.197830395301519
 6.739676712936944, 12.519202311304026, 35.986301563567906,  4.241296101377883
17.162053654034505, 18.097325427707275, 20.700679523299598,  3.757693715097494
 8.115217805360892, 12.782267851860912, 62.526981252257926,  3.905917974265907
14.252611381673656, 17.929951984152858, 11.066298448084957,  4.153573446447899
 5.966769606211717,  7.985271017052193, 25.093416006194147,  4.129573371137789
16.183314991420907,  9.083442818455882, 59.459622914217839,  3.705952258779865
13.200644110399772, 15.616326171699768,  1.882364814776539,  3.782062827523627
15.918293193442890, 18.469304138745994, 47.430367325491169,  3.821586432528823
 8.992942863474688,  2.972471186123923, 112.969721487492592,  4.250335856892042
 2.283993833575869, 12.431914838336393, 28.617334493501701,  3.713309962174911
 6.935365407035995, 12.614156716790060, 92.575220782581582,  3.975352010241044
17.424433808650100,  3.403207151741496, 113.591399613374122,  4.313726753942132
12.350016094078583, 16.367245725403091, 93.240551948593108,  3.834268720201182
 8.678643803056536,  6.182700273508302,  0.666130059387316,  3.771331196990808
10.053459145890601, 12.105447791901906, 81.359952320624629,  4.239209995461754
11.199291971366220, 12.904723994338275, 77.460593475055219,  4.042633834506244
 8.791958611204697,  3.749255960471812, 48.484107305919629,  3.787412990897749
12.169583162827578, 17.334662315624342, 28.847126882941776,  4.290161499636923
13.385801621702329, 14.527193273137682, 90.003614524304581,  3.851851950012595
15.328382529030382,  2.810532787818401, 51.429888450738311,  4.118731201132257
15.782714721422405,  2.356741821595087, 103.056507524598516,  3.954170230711127
 9.158943398699046,  4.606811010863153, 22.995492716914228,  4.071671880504165
 3.227035747334396,  8.568209425290792, 28.373538208867860,  4.145493966255439
 3.902501020895639, 15.680636981961287, 16.594724795901822,  4.244260936985784
15.816374894349918,  1.486447048426377, 75.697022563586941,  3.977936797105497
 0.863156141157211, 18.384740664296736,  6.944188290890470,  3.573777526472728
 7.013329564182990, 13.647887782878906, 114.730802448298448,  3.890221395233092
 9.354886201718207, 17.391827713453846, 21.586330276911017,  3.919034283583545
 3.764339381679736, 18.653848973047030, 57.735895836092858,  3.945786986686690
 3.690863298208669, 15.427862841848750, 94.730946690681094,  4.226647921120989
 3.359351341373554,  0.390880026538412, 10.382199432416337,  4.077549714840142
 6.949035556420869, 11.269193206964212, 27.429181684679477,  4.157763258447314
10.201478128356500, 10.417859246416855, 36.274156893707122,  3.874650424317720
 0.265274226538926, 15.822625588316573, 28.489295239017260,  4.036161127840082
 9.468910772212546,  3.671689358029566, 81.315305541875290,  4.077068364163832
18.012200135782638, 16.715139873600943, 59.586432998727147,  4.124889825853307
 5.982844735481689,  4.517855435787856, 106.641508426039650,  4.230019934130413
 8.850684452089164, 17.684358839064689, 34.766082682692129,  3.992660075926581
 7.867228722504631, 18.896111387772496,  8.696150242607461,  3.797240622361589
17.307438926542016, 12.175831440041790, 29.166188686671788,  4.246558521108956
 8.273973953782367,  8.307778120189365, 21.917305641294639,  3.601300070036162
 5.208424964565837,  2.224382645062895, 25.818566643116615,  4.105554654262793
 7.200867051383400, 13.017879063850014, 96.523320571524692,  3.973081710781533
18.631684932911369,  2.435405954357698, 19.199354055192920,  4.055003959304258
 0.454022483734468, 13.403674901815609, 101.313263290087534,  4.158682981953473
 0.327962129464762, 15.489669225748806, 18.679586642842803,  4.037817857744376
 3.524142934527976,  3.155996165244661, 91.688877602428548,  4.041107980758831
 7.575580405906721,  1.169311726834457, 12.416476538824984,  4.061565392423503
 1.860477351803941,  5.354096076202516, 35.905314353980273,  4.077299562610384
11.832143822351322,  2.267965152034612, 67.545101019398786,  4.199885694919296
 1.239030229403257, 16.488022878176878, 90.254059816700618,  4.234292023502529
 5.297227924207682,  8.947879274964464, 53.414847398437701,  4.197733434898645
 4.461040126962128, 14.438815194449534, 62.745595266532554,  4.123237751441923
14.324549312331833, 15.245219611575008, 86.183147490173681,  3.490599397433056
 8.941976801100900,  9.451096549187614, 90.769501596782945,  4.249120682380306
17.406106411220527, 14.826659427393512, 79.211444148435632,  3.950791251141969
14.082110927556780,  3.682552216707221, 37.314479582753329,  4.340117849059365
18.624160175524903,  9.681643001401614,  0.795427235698807,  3.863770111979823
 2.706684637587166,  2.701118045631393, 32.711458764444473,  4.229111279255805
11.039761225013505,  7.401932943750349, 74.939831768395621,  4.177598362177280
 2.607258283954222, 16.044928125536277, 111.646851474779055,  4.202428652093810
17.379513609910678,  0.412449191457292, 116.453373048337724,  3.938622145879842
 3.520997843807639,  6.389293290497989,  9.165460896388566,  3.999486544093289
11.751889096437337, 16.811024909792515, 75.013224568261535,  4.034681010974547
16.358850632467323,  6.737790626836170, 10.017980203743335,  3.860904361851980
18.043444772447625,  7.631443777899590, 65.923524641349971,  4.229900571276262
12.570323672412856,  6.108858317926043, 80.873975732144672,  3.840109499793325
14.974166863383960,  4.409673305027600, 94.572714103544627,  4.183057318233432
 7.295574154986781,  3.364183627158275, 93.020160452407055,  3.908090974071417
14.881462963407143,  2.936632036628985,  3.554967861908711,  4.255755757588514
 6.619819022914288,  8.766454775559886, 108.312352856488232,  3.908674369543983
18.923292905817245, 13.241243736893331, 36.899247805538685,  4.115541625672297
 3.792182885769559, 12.204794039281072, 25.119774175714628,  3.864874415508239
11.999523468591727, 11.598949552266452, 85.000045549940154,  4.026497654285092
15.432560548317548,  2.320552361799602, 41.147290990932198,  4.185579989516064
 9.535925934897676,  4.120589895347722,  9.139322684545606,  3.605568027491093
13.124068014644708, 11.727705026848877, 46.023255404199325,  3.925997730828685
15.939329689802170,  5.823616609304085, 82.849488652330336,  3.876665978532070
 6.090216096085545,  8.528186884579474, 57.422366384867139,  3.891007088985677
 8.807058955159942,  8.061690004687579,  4.000496780243839,  3.882039543318939
10.996552255003470,  4.433561365405933, 100.140967387608839,  4.005571013549638
11.771407454883262,  6.284916578165659, 20.428029425693246,  3.941435274355873
 7.010683977336281,  9.293735107340593, 48.980291273944090,  4.131060559889794
 5.526132572118906,  4.089160219028559, 80.861910025995442,  3.877709505780609
 1.812659713690659, 14.532630945297754, 73.271349743618472,  4.080510834078175
15.582945782421074,  2.987581753871920, 11.463715480974567,  4.203534504758736
 5.771690777592213,  0.031902804691479, 44.126874197815937,  3.588211722390609
11.510243310497872,  1.972070666566169, 11.652909072623267,  4.043079575188348
 3.291344009526068, 14.345448899193610, 104.052907668373052,  3.898927338520386
 2.701193096125312,  2.912367935367738, 99.496823375169427,  3.673400408777682
 7.987010434807811, 12.429034770860200, 71.005483719160637,  4.051278603749837
 5.364879678762668,  4.436673532135535, 118.044776207357017,  4.026358258092365
14.048471660048016, 13.911053651750573, 65.863718646190165,  3.848748755782254
 2.629771177441167, 12.755505021735559,  6.040017610302979,  3.860198483642848
 6.332882385912082,  5.421794128189064, 55.100000914708275,  3.878323794378081
14.636821739316073,  3.614671105030670, 106.953240643971412,  4.019818426619417
16.275180475829014, 10.069776507868841, 12.312573276634630,  3.846362570438793
14.206635340885127,  2.988672115907411, 33.456638190991477,  3.466023138732969
16.396747127255189, 13.988717393543467, 40.013086466473318,  4.038387094298830
 7.740909158465898,  5.318719284192125, 32.502136959399330,  3.924230985931018
18.483802359640542,  4.481526866235414, 109.471034906664812,  4.452372929432105
10.765427159167842, 16.817601813925421, 43.020612328103333,  4.164691599712552
 3.598137174996419,  4.202967919480425, 43.732940679842109,  3.869703827598063
14.346659245995289,  6.990212904785291, 25.967061625807723,  3.942202068231713
15.902108742065700, 13.132551554212174, 52.496235140251976,  4.017858111257121
 9.340385859202406,  2.136482596506325, 105.739403694811671,  4.124310860087038
 7.012002602308708,  3.853533562493375, 39.132354529626909,  4.191756302879210
11.780333799117757,  0.142243419271074, 111.894188132540762,  3.824059731490437
11.227885607699447, 15.422565325203129, 68.117137228145452,  3.925147633637902
17.194610661261709,  0.916430961759879, 95.610074876613311,  3.954851242391404
13.274232888118156,  4.776463638634806,  8.411997111321151,  4.121743129375959
 7.020110849954122, 15.477424041434865, 42.692244504049789,  3.742672786457077
 3.982464185886069, 11.790876059766946, 18.086465183519550,  4.048960301393656
11.117195971895319,  3.311606227999679, 15.351199551586708,  3.843998465522726
18.881218365528863, 10.798425433169111, 88.126162004963092,  3.998923973857918
10.392803614090514, 16.535030480571258, 38.282887380494984,  3.982571927967377
 0.655404262086080, 12.770398358421613, 112.774673602521133,  3.726537470778494
 9.217955516115152, 13.104766859391031, 40.381985757350144,  4.177191584698721
 0.132938646756334, 15.263530531498228, 82.922611641640700,  4.145125194832532
13.867467666441380, 18.047941766503548,  4.955901592815171,  4.141622030133877
13.301206580660383, 12.862756310475785, 110.261933442677673,  4.111564863043228
 3.715356410842586,  7.475315012754010, 46.079584147807537,  3.982008906527164
 4.958013856414724,  1.261162804536896, 72.450480326255118,  4.193297147186623
16.431082229557155, 11.928963382971389, 43.833764024271552,  3.959751892215940
11.394053962196747,  9.496040840838905, 93.867212115200815,  3.642041999028912
 9.478735629306982,  4.113007388844704, 96.332851108374228,  4.025901916838705
11.027584520110885,  9.030872034963245, 78.729357476493931,  4.036547150476159
14.517110161768407,  6.291002383021371, 49.240693520295082,  4.221177697663761
15.459433059610046, 11.665542678644059, 106.915635846279898,  4.162713232455836
 1.637139144132714, 13.424955173938480,  1.510096565047103,  3.848497764444298
 8.892941260979507,  9.630369506931165, 86.540137750679094,  3.835931258780987
 7.610416838889559,  6.547276932200204, 46.037911777751674,  4.005435800634997
 1.209681702944341,  3.275912963986708, 28.805685461457852,  4.018181289438966
15.690731017583746, 13.479952521521421, 113.498610159942075,  4.005794487028525
17.905725670880582,  9.075189974992677, 81.383396291516789,  4.016561078883440
 5.916363155478895,  2.798746418664469, 67.619405015340590,  4.166937813378878
13.716821705995143, 12.595240370451089, 34.107640712284891,  3.879374308279186
11.483819864734908,  5.535951436506655, 33.832690607554866,  4.017724422498460
15.355174535110995, 15.801449129751397, 116.811063264366851,  4.107286789843777
11.747557684616153,  3.236199435611241, 42.928928848769196,  4.101284356968841
10.123491454183519, 16.325815344895375, 109.526274970045506,  4.149716336215627
 8.674188766396060, 13.219134115815507, 12.550237357668435,  4.143333985928184
 0.506393657080684,  6.709390984303321, 59.686140476643409,  4.344468779262344
16.607233727598590,  6.500679093000053, 35.239515877087875,  4.246902414083255
 2.581862035803437,  7.304064159122118, 56.126681739944509,  3.965758334946116
17.593335744410716, 15.530016634027643, 110.573151881883859,  4.086820901134478
 3.053205205646301, 13.462345845787175, 87.329065218233026,  4.341282274643008
 2.364834401328173, 11.773179284670679, 54.589565266460703,  4.251308594205798
 6.629040494622276,  1.767786412753211,  5.544367138870276,  3.872005165413296
13.874938762454716, 17.833966507955655, 50.817782227554254,  4.128876424834591
13.010055310442576,  7.706745851552272, 36.864898697947751,  4.005753882821137
14.566945469590292, 12.804530722073062,  9.175933091623188,  3.753217879896713
 5.095835508877066,  5.168521706916292, 71.085046962204430,  4.017079726553452
18.670208405100599,  3.566253150592019, 93.015370353793642,  4.001225261764660
 0.328893693205172, 14.304970182257227, 56.793512603030258,  3.594756581660016
12.866036142447156,  7.666431194516887, 84.599306548764631,  4.016585011722915
13.429459164006746, 13.242763930290284, 97.573814870260023,  4.007738806214245
 6.935574090613104,  1.570750658149707, 59.531213891244263,  4.170098136168336
 7.875037598785030,  5.936476079357284, 115.439006754373395,  3.776692976827777
 6.221314600208856, 10.844466208145567, 67.603915418997858,  3.730780405011738
 0.098581785826374,  5.489289405146737, 100.866741779982377,  4.046295328105148
 5.012703035234123,  9.213179565500640, 70.933523054580789,  3.868248201866109
18.722976892822803, 13.441507503161937, 105.399010586400237,  3.847204594950099
 0.308292227550383, 18.719949391740709, 31.203688804788250,  3.877226386003479
12.805905533782006, 13.776220926618373, 18.629477181142903,  3.959019488912232
11.401095801428909,  2.840958924243524, 109.120360792131152,  3.917352047737310
13.154857604539199, 17.832408827185567, 65.483056584965340,  4.168896558848732
 4.424990373630739,  1.089298085099088, 78.568565123344555,  3.955217257699805
 3.154163801537151, 13.054159374987083, 91.440950939065232,  3.919410561787224
 4.739032723096998,  4.116772279900403, 13.112621240975345,  4.218132427649404
15.187431088333842, 17.432166204726752, 73.406517383987179,  3.646699660237303
 8.295380792120454,  5.070260613548935, 73.279687049302041,  3.735402321811254
 0.387244166473653, 11.643044707726062, 50.990144462417128,  3.955308712354543
18.813964675043167, 12.702123742084501, 76.227315880539237,  3.894495725261123
16.072814332656808,  8.265985668530346, 89.117795720070973,  3.792486268555491
15.367762193742166, 11.727552494934303, 62.706736592859450,  4.125949635106813
13.427320012116606, 17.471924694406901, 21.729644072876791,  4.090281701945194
