BANDS
8 8
NANOPARTICLES
cell(1), 18.969
cell(2), 18.969
cell(3), 118.556
11.846141244014831,  1.573183041849283, 112.870708077151974,  4.128028644971649
14.353930001531154, 17.070469228594089, 82.612574488282377,  4.125755935736540
12.185171721101655,  5.718088593165829, 105.898277503978136,  4.415529267026617
15.495443299044791, 16.736535033222697, 61.087330008454238,  4.230714625399526
10.969304128544087,  4.366880577380106, 78.890424160902867,  4.245109754362462
 7.798133697029561,  4.990863598649954, 35.752661822843699,  3.719014216940495
 5.567937697119519,  0.063900676936248,  1.503942346810106,  3.823256927027244
13.786986987281040,  3.677037574388851, 76.046343588309526,  3.822789502503472
10.395276426853659,  3.709194435986070, 74.009138559488676,  4.086297229622039
 8.323288137136169,  0.238637926934338, 69.090055859906428,  4.272181560058045
 3.543870231461672, 13.400737611978583, 28.064590511398777,  3.895478206584653
 3.244148616452158, 14.200041249797687,  6.593321035051228,  3.898666392498912
13.612679202858622, 13.757744086809399, 105.066387415585254,  3.894418458004959
 1.879746804904215, 17.578674367515404, 113.229962066940914,  3.887713002704698
 5.563674956871461,  9.655994962430194, 41.542471142362011,  4.086198405104154
 3.609578266975672,  4.948966737733721, 90.420351543477764,  4.007177093123622
 4.183701393612246,  3.920333950066335, 37.638032889122144,  4.526754378656136
 7.967381303433457,  2.975493969201092, 14.161936818394137,  3.940228932653632
 7.109991494423156,  1.679092970489490, 72.823165745884140,  3.977986595440709
 1.524764274559541,  1.674617058220349, 45.127710995388945,  3.711278762919302
 7.582096802397626, 10.475704036922025, 108.480416718240463,  4.121542602112652
11.724927350616536,  8.340370493887049, 110.320072056873173,  4.006016214831227
 3.198297852322531, 11.119133823791264, 24.694581604273637,  4.121706228688558
18.517060541082607,  5.422767779638179, 114.313114553045878,  3.929491580966660
18.809394292147921,  4.535365017481401, 118.169068648023710,  3.977016273855491
16.241646880987751,  7.543139457711687, 11.875521468283115,  4.179118475476902
 4.499791192153630,  5.956663639318857, 58.139827565148089,  3.917548394233330
 4.775933657422805, 17.617263694637096, 70.599687925692834,  4.035797119732694
16.552524695922205,  2.225602691887691, 45.813746492500897,  4.259042254484768
 7.225872297420173, 10.038972343805245, 23.796054196422645,  4.186747243371311
18.708579247637271,  2.263180189116175, 30.316191033728920,  3.889742646747504
 2.759515485342843,  2.367121204360017, 105.732969865900898,  3.792683566810267
 6.866317318402352,  9.068463889009347, 65.594894179943495,  3.728094031485693
10.369977444699870,  2.331603110966383, 11.226424826367872,  3.744099865608069
16.260815769432458, 16.398455940946569, 75.964821993430917,  4.043425563143221
18.951055833578163,  8.212846174219161, 110.893166702241871,  3.664909434324343
10.765840291938717, 14.297736034225077, 27.730354348653538,  3.705407876844726
 7.212346353687992, 18.817318151515313, 11.526007067244086,  4.298030283825899
 8.747910799206700, 10.863560662366726, 62.363054517488536,  4.462904204074061
 6.744419725816574,  6.531784047815890, 79.059402085998528,  3.765471545960495
 4.737911538870920,  9.174084144683581, 74.997076037562138,  4.491362056053782
 8.961319559573930, 13.502377154866755, 49.058594827122576,  3.928463384112859
 4.531716463464311,  1.363024807048619, 75.782698812962423,  3.880146583074708
11.660507385072236,  6.147276250034202, 40.271395197584262,  3.901670660161304
 0.324174345708568, 11.861385432957869, 89.002160765959729,  4.011809355330699
10.262358499236353, 12.629883987127881, 74.853868695185227,  4.071520554567131
16.833483624900250, 16.094353810469421,  9.411203783003142,  3.926607218887423
 8.116603816594509, 13.835179499199160, 87.484409140496453,  3.980895396928436
11.730046633281255,  9.431276224085829, 23.833924791142689,  3.745223912562655
 3.963853881330841, 13.549112360318896, 69.544674923175478,  3.982210209988864
12.303856752444126,  8.021999014592181, 118.237732837456335,  3.924238616834478
 1.028609162781913,  9.712348796363216,  1.094545000898804,  4.014898817945499
11.931520846127578,  6.540889766849176, 68.538482191078302,  4.054458019677740
15.463446671006920, 11.061692836072533, 32.332400798780029,  4.182089524819510
15.964388502328397,  9.236575271588087,  1.071040748313396,  4.091135806547557
 2.221640270409130,  4.930993516350841, 23.196588233449610,  4.277493726139708
 5.175849197685820, 11.511510376544203, 31.433248475752094,  4.240441950971444
18.297387768403787,  2.361220198802689, 26.166192927111162,  4.116636958568874
 2.650460497086300, 11.410274777781058, 43.722933324293933,  3.981019196713836
 4.165821171266771, 11.155462768493644, 53.330484115854908,  3.986695806871136
15.925335745547795,  2.527045154754472, 66.341613958261746,  4.078421035914665
 2.322762800843223,  0.280860355328372, 28.019087989522689,  4.052312458756699
 0.535218156490198, 13.087029189291945, 51.353102117643047,  4.121850134587918
10.034191213226093,  6.418902850982827, 32.563033289962284,  3.779324071754648
 8.107572057144115,  7.623776351958377, 38.813526744731433,  4.224904704868026
13.426287902453954,  0.610951004763619, 21.176888358532945,  3.919388616046288
16.974453601735615,  2.863114970142680, 90.137648699078696,  4.181874274232840
 8.466565569358703, 14.163909784882369, 95.677498596444153,  3.894246950394931
 6.138470321389746, 18.109006338287234, 46.479214005207552,  4.015120091615680
 5.520333977072515, 12.209719012701303, 112.059763834969772,  3.939081430011712
 7.630302036726626,  8.941701769007194, 34.699057462518240,  4.354385662413558
16.613038989962313,  2.668313478442673, 52.394372118218755,  3.881147198014647
11.644698062307029, 12.957423634977905, 101.669231719949238,  4.087957475608905
18.782353829878236, 16.578977110327280, 43.757346330659111,  4.272109718686584
 1.412477342818291, 10.012561293695709,  5.051217696565954,  3.952014528216104
 2.583673120602951,  9.204860462469696, 96.643950003162701,  3.876307798466777
 6.886534958950666, 16.768163371295490, 18.016632077060194,  4.110436229790488
 6.279497000194779,  6.043394974164303, 43.054023498603563,  3.854076877132487
 8.814837693166572,  6.967882523084809, 95.439216725703645,  3.932858254276409
 4.723286134985083, 10.083223353459205, 99.847727428111838,  3.929092381117298
 1.644236891090129, 15.954885244588631, 67.203838764400430,  4.129738624260899
17.961358016186683,  0.690400614105405, 55.508186123072548,  3.970337887175453
 0.768101435640623, 15.888241541886511, 108.339484658114827,  4.096065727389819
 4.846219949367407,  0.577837775137193,  5.730545195037594,  3.995365822142057
13.866388072085407,  9.713146346716984, 20.651179544915696,  3.907494720428668
 4.898709548495198, 18.160575768130325, 89.170688192221192,  3.787783556166458
18.174661637274173, 18.494337787785643, 87.857358632746070,  4.249314146605130
 4.116029921114368,  0.260085365556227, 96.719846529891484,  3.835862045878747
12.502229278916559, 12.669263598777652, 63.027621050692510,  3.960519020977610
10.595364281605692,  1.508292815942184, 29.282458728823801,  4.084199729618872
13.858391957416400, 13.623634653356158, 66.731463175985894,  4.130834764406589
 0.647271624128260,  7.322474343522940, 65.722871878081492,  4.005098166129183
 5.141728275274971, 11.022459414523146,  5.490027041676315,  3.823868268788811
 8.164037753290117, 14.751782912664563, 78.040310637376294,  3.981728536837517
15.180193562990970,  0.235919792044577, 24.730282711120687,  3.948834434591772
11.082571494948189, 17.771366481813043, 12.809113758259496,  4.117866924344560
 5.703613576367788,  2.371066211432140, 23.115140321834847,  3.903938898896094
13.672626327546494,  2.526821856514631, 87.512291755546485,  4.101481137912001
11.581206286984475, 12.947047053498126, 115.040585315647547,  4.126171852574889
 0.995331718620223, 16.879447787150404, 21.094594776001170,  3.940369648216879
 3.272231415967762, 16.054380087023763, 14.407847775867438,  4.007409308356289
 5.775174115440603,  3.154520332433151, 108.035359403579974,  3.941056936817511
18.653959896855202,  8.214431406988606, 69.550298616820143,  4.084139710731191
 9.684677140109494, 10.486983743959186, 27.039997727828275,  3.996549056739246
 7.811905849071156, 10.516786774159486, 72.306928090917992,  4.106718621545605
 1.317724590383097, 12.717201501620700, 105.431250929670099,  3.591430743761243
 1.555086275065668, 10.182572695140282, 40.146712470887536,  3.880718758879759
10.517456681250424, 11.576646692395611,  0.219932034908290,  4.076304594870849
16.774150941990172, 12.214032038788202, 92.918966627383199,  3.902685564907035
 7.843973259254145, 11.077282979920792, 115.666941303175335,  4.099782894001943
 9.714394590818159,  0.081866568241933, 88.864587674838162,  3.951681088006060
15.053405716958519,  8.947651687333602, 60.476911230905770,  3.833077517399570
18.280566676937710,  9.631489901650175, 21.296773231248409,  3.758689921622844
 8.061500858269419, 13.709186911989983,  5.135963856360326,  4.063265445311910
11.894441014961407,  0.032643921129970, 92.472767601442754,  4.122229302473870
13.032499768001788, 17.482000086333095, 27.694178857435688,  4.106006913044923
12.785772349655726,  9.508597739849378, 88.236495702507611,  3.730009031486027
14.254560510123261, 15.517286552812310, 49.852267882808519,  4.127690982742512
16.449807757563132,  7.411670933708815, 33.823855373390124,  3.937401423689262
11.167443138072871,  2.631496823323717, 67.174544832066530,  4.081893014533060
15.375302243673886,  0.700958598488116,  3.141810305434006,  3.833684278613043
 2.429747495616430, 18.107389358850323, 56.892218555036280,  3.944647623643990
11.060875833572773, 13.354501034136728, 13.186950123863124,  4.027225973238436
 0.013206179805764,  3.566563686150935, 38.815213260682441,  4.164903843634550
 2.696519053699319,  5.411194300293340, 108.007023601214883,  3.678320946048165
 4.365832339030887,  5.402561777242429, 76.467338949901517,  3.580865277729903
11.410605665559284, 17.134817492883332, 33.905411123542244,  3.890721448513871
 1.877158543645473,  1.326950016433705, 90.450510728857651,  4.022370804685825
14.660222599688575, 10.152993843012231, 115.947111572383704,  3.906918284663404
 0.549027731062751,  4.389457702592673, 93.243890215565557,  4.391070594599054
 3.900100811158045, 14.860664973039984, 19.561444993664985,  3.620685092706185
 1.053160883062188, 15.895174985299128, 30.032156621165910,  4.162973451038650
17.097068247562568,  5.359126555683885, 77.585367846374552,  4.211352324380695
17.666428291204046,  7.415124879296737, 55.044227351219938,  3.914262196840401
 3.680607077962131,  9.014881046900133, 109.477132270558798,  4.286035089959419
 4.745234899154178,  5.635591187152797, 82.275698955061173,  3.921632720479650
 4.780052485239257, 12.868070142240404, 16.393897163740764,  4.065885115302834
16.547968098212802, 11.760068338390104, 18.412149687946844,  4.189307588709663
14.242315645915506, 14.747443830974643, 79.400360226879371,  3.692226336664921
11.660601020795465,  0.635787663316814, 108.561583808307532,  4.144944071949040
 1.450066441221957, 17.503554146696001,  2.928555151629280,  3.765380365144297
 9.906392323023809,  0.940872008282045, 57.553654488582886,  3.913661547469519
 5.064551639518768,  8.344247863942282, 17.380066529018052,  4.050341252243434
 8.781900340611417,  5.936149391526991, 108.610965320105166,  4.294668564594943
11.358054505352683, 15.796622438492909, 16.241749263929304,  3.814820772617902
13.736891909566273, 18.204097115168352, 39.722692429162464,  4.108598435756710
 0.205974474540799, 12.213906109797859, 70.200965240350556,  4.083604502550542
 1.705182346581821,  2.750106255887894, 50.567106108764747,  3.955215762681469
15.207857514806440,  6.211492020306655,  7.956144228069618,  4.163638123347274
 7.464456228021243,  5.123805355084216, 55.628931879406558,  3.995854819476801
13.178685544738556, 18.286584816033109,  0.107344510537452,  4.066507144081256
 8.127237052090122, 11.531493022726911, 38.063010271571002,  3.671297039250538
 7.877161842364832,  1.038470688994302, 92.369754418159587,  4.113850034251850
 8.939071868162078,  0.843426153740107,  7.870395207080256,  4.028746475532408
17.511082825116628,  0.475680783055606, 33.651652460320989,  4.005018229846937
 5.100104506811391, 12.417313026234311, 65.471350907034008,  3.726277491114047
 8.809124605661646,  1.674511598411118, 53.517359092641563,  4.506763495436275
16.637661485767453,  1.494266323113445, 14.152328256622312,  4.145104877116352
14.466394267947237,  2.620984286602721, 27.890722186150072,  4.024118899730666
11.557857987451273,  1.463272631098630, 25.321993723144434,  3.764506150121750
14.667976469697507, 10.193740674322171,  6.518072428259816,  3.921296366624415
16.154933781685497, 10.125257023003963, 82.809111393964542,  4.221855100809790
 6.989472898637256,  9.666734343191589, 81.059158581441622,  3.681885415991659
 8.751818531891253,  1.347275387053766, 102.128024325179496,  4.256430246735371
 4.106891316944742, 13.139231460643959, 95.844381041375243,  3.667716117261620
 5.054454200683179, 18.878660258079357, 103.250734220181641,  3.943769102957182
 1.856656802684234,  6.892987079854823, 61.018779732350119,  3.983653196117445
14.658497253944262,  6.448560434098686, 52.686679772066356,  3.845029700524435
 2.005459001662377,  9.690583770933893, 28.371090354174449,  4.099798912722867
11.198011504152557,  5.447024674102011, 29.000716005357869,  3.894546733644613
13.341601770415561, 15.110122142726205, 111.581074996586196,  3.957664763718902
 7.144367768342433, 17.956970621116188, 85.855207359707464,  4.124703224904806
 5.904976925992760,  4.050560359793176,  7.347592933315187,  3.833625918830491
 6.177522614296896, 10.016060395562818, 45.663598338287926,  4.131079467858595
 5.436676558887619,  3.287898752040960, 69.482854911011771,  4.115546631417116
 9.096697131757718,  8.184768444361280, 59.056744153226333,  4.061127348789060
 4.843767348324418,  7.338048045445784, 30.398143726444204,  4.313431633151321
15.209290101682813,  3.706891409528385, 11.116851935668077,  3.875287848570252
 2.188284101884713, 14.045793922255150, 33.624059656208665,  4.083547753549022
 9.672124754794698, 11.635880630438729, 98.432708635533231,  3.898135242958000
 9.438099322608942,  1.533024187904290, 49.161400720922700,  4.296257034715281
 3.354360576555244, 14.748242022010066, 23.172412805105743,  3.653143306264376
18.353524771994135, 13.047328173643793,  7.062211627578947,  4.181119833649456
 9.997585993212260,  6.796095930733966, 52.748488547750910,  4.357258520405765
17.213178210270332, 10.172931691406678, 37.965142144300778,  4.029072214874334
15.394071217410401,  9.474077100622425, 108.995591989676768,  4.033732326212652
 2.828801751065233, 13.075016502593314, 118.344236638754978,  3.876812996101369
 4.665139370011075, 18.155846106682414, 21.184197300023438,  3.825558801274775
13.991100029943544,  4.837365777196234, 97.089989507737144,  4.195604024555344
11.597587074081751, 15.889138493232057, 72.881277493160425,  3.985446447590668
 2.776040204162167, 18.420855120706875, 81.598713188741812,  3.895434057061384
 3.791681956887884, 17.338660752456811, 63.978196627810590,  4.086456827925613
 2.865877852288156, 18.142057368436102, 85.775203121123866,  4.079136600740928
16.187354608180431,  9.600581035045074, 90.048198359857622,  3.944188540378064
15.438284602867670, 17.457931793005734, 108.712640179920598,  4.013820332691823
 1.424589916911172,  6.606519377844963, 19.412140731211675,  4.147333668960436
17.593176527925074,  5.377147639133028, 58.959628942184409,  4.163272918804431
 5.020830972239918, 17.273441621642476, 78.402846365496302,  4.094117699275309
12.924121757675211,  5.421670288733856, 64.732876843150379,  4.101239339387410
11.238985335801578, 15.516790554296136, 88.963318212392920,  3.694572672243788
 0.738227927443758,  3.232870769447107, 61.892467837397348,  3.783089742170656
14.703766994162153, 11.794562702662761, 99.521931055209478,  3.662028305392406
16.147791262487775,  1.681437442369492, 62.376717686510766,  3.971285366569266
 6.463792303728503,  2.081487360988413, 43.654398141708853,  4.093655029821590
15.599003068145290,  6.433216234760503, 116.753781244903664,  3.922424104175962
15.167076115771659,  1.787407673109533, 115.915249753832526,  3.908267162059097
 8.362379982559837,  2.000631727027714, 110.817495175758992,  3.986209574012588
 7.588485762476108, 11.364586991668387, 13.829136291758248,  4.076505133634130
16.476144251617090, 15.541478740644061, 32.460345857522199,  4.373949823607320
 2.051589995483017,  9.728864920993248, 102.908522939211366,  4.205611635826664
15.259583488840285,  9.684359711648348, 102.486304136698649,  3.543844384367068
 8.121892111599426,  8.071444580079906, 99.238341802685397,  4.032346949941116
 5.750039475791924,  5.158593353305929, 111.558027841873610,  4.086090169474463
11.058034647619376, 16.880590545422688, 95.598476204677510,  3.560966070060822
 4.258791652200213,  2.490682567990560, 93.504703964046513,  3.939399328657805
15.269258791460354,  9.298437041336470, 15.261761000086189,  3.638132361943645
11.913972780038536, 11.929135740697202, 108.686968349027424,  3.861606165594683
 4.847749018455869, 15.296889169714364,  2.970053988201458,  4.312782835317766
 2.159632915704845, 16.396811467239907, 104.561558622843762,  3.998727980046977
 9.319567934234376,  8.561843721151392, 42.688732741332032,  4.062074046083919
 5.924764149189750,  4.104375411216099, 61.477458965739118,  4.216393628967681
10.687793006728903, 16.254212094094513,  6.745478417826892,  3.844832037275468
 7.620990775314999,  4.171261604805720, 30.397660988772891,  4.084964108422324
13.612776564483077, 16.169278628341829,  3.559521538899562,  4.046379108731196
18.072192438536575,  4.227379085035301, 70.156632119933732,  4.063348644436116
18.441012902303253, 16.866865949281038, 13.140183602045195,  4.132118282661180
 7.516591557655478, 17.876228386461335, 95.670836203824777,  3.763957008697504
 3.802724482223400, 16.557632744134661, 74.491307499064646,  4.221871956070251
 7.427625423184961,  1.367974978294786, 37.109915343006520,  3.698138069069013
12.693867253157439,  4.400204372524249, 109.958567820227429,  4.135697069736021
17.094003082717375,  1.003365685019121, 41.667454134495138,  4.377128531561756
 5.103187242313705,  5.099355926619458, 20.321534951054289,  3.856820599507368
 5.192920131246111, 15.810084459049696, 31.209934962545507,  4.364383178594983
 1.875354883835582,  5.027961474513225, 79.429438532646074,  4.167308750090350
14.528821145741791, 17.878074462868788, 104.747088630585978,  4.129002785886624
17.277778194760796, 16.805078249076519,  5.369166626759543,  4.222183056009437
12.400913287760572, 11.893870954012066, 17.359914726635861,  4.365510664955417
15.502544357304021, 13.476102586423012, 108.514227891072949,  3.934662585909625
14.837911975965987, 15.421660052841839, 94.107293584897306,  3.898609051320162
18.355993335332368,  8.702825558281956, 79.629706765698117,  3.998180796675495
10.154435846750536, 10.727037793916658, 56.158080599660941,  3.922048868659190
 9.097337731852061,  9.593360706561011, 86.706648800792976,  4.205885201791565
10.716098646482521,  9.281630371144933, 65.834029935516483,  3.985865232347045
15.747736389506587, 17.829333994152741, 52.672076471640487,  3.743318464583301
15.611028620103102, 11.534120220544894, 86.592343382140626,  3.917041264925012
11.876876744992133,  6.031177385849668, 10.571787622719127,  4.305834007874307
 3.468614741377783, 10.951083886024644, 86.685311995793015,  3.997411801381105
 1.844042123761308,  2.968652557032553, 58.032261927448225,  4.067442371270462
 6.825195007938173,  2.875567340625258, 88.941393559003387,  3.921852509888765
 7.071900860938299,  5.987289907083575, 23.709291911214098,  3.885302824592176
 0.082197893201931, 15.668557365559844, 54.453801395979887,  3.996438324018821
15.673420030153682,  9.554099632088432, 24.252363542073553,  4.114620808544531
 4.573076681393363,  2.905481848116844, 53.759605826667844,  4.138899614841208
17.183317951287815,  4.066600229611148,  3.154119187314039,  3.778387168641618
 4.683138297354931,  8.468645864660498,  2.472477415613534,  4.128361617962748
13.937165785892574,  0.402426640888985, 17.384981354296684,  3.683674926208345
14.107315167749389,  3.396625958303679, 69.846586792609912,  4.006513434601801
 7.330096318001668, 11.652856816839813, 58.576715763487769,  3.737514175675800
14.906312407102957,  7.185582200645970, 85.780730967874959,  4.209336773949341
12.533133153610404, 11.971634979263236, 49.343454260247469,  3.818806423517918
10.101588614471650,  4.679222501908372, 98.407442816017777,  3.980669251619392
 1.734920792121762,  9.281798813836875, 50.916666757696440,  3.811432392160465
 1.295292120298569,  7.371028967571102, 76.311294136351378,  3.700525171937245
17.320634971988490, 17.197353957379224, 79.786771756458066,  4.044480830180036
 8.508763256455826,  9.954846242089758,  3.757815516554639,  3.933390040024577
 1.786409957485625,  0.558448266001862, 36.531594263608646,  3.961928936993460
 7.423752554136798,  6.393866387867222,  4.388150440235901,  3.580219004784976
18.284574503101641,  0.693613571100867,  0.548533313043148,  3.948314913325086
 9.904254060490558, 18.764930819842117, 19.691895533039865,  3.812416684836104
 9.629885920642314, 14.570803531885707, 36.302973261342032,  3.967821507313909
 9.624763785589684,  4.248635649408535, 59.699467010029650,  3.962864113116798
 0.955782580675374, 12.899700158893584, 37.268826298686115,  3.776077574629852
 6.339765184931281,  0.418404386138126, 29.183772335256801,  4.163804235594935
 4.972312645866085, 14.320248772649583, 42.152703152109794,  3.685830191540724
 9.149455641702028,  7.253388699543462, 83.041939113485228,  3.869220533676205
16.430038740726410,  7.528918101924763, 18.524119381548854,  4.053830634048851
 6.427753296151103,  6.418111407325202, 115.373103578668747,  4.054838514371998
 8.149017800881785,  3.673213209947162, 81.793739067084573,  3.966275872945193
15.552162193668272, 15.210689648810730, 25.087185824777173,  4.105353052528523
 1.149394054219159, 15.979707362427456, 71.390805275283412,  4.020491149657160
 4.780549035840861, 12.386737453615822, 61.524657872034716,  4.191606376516869
 8.019702544607961,  0.434834030459622, 61.138536025909936,  4.247858404688078
17.833469736384121, 13.521048565574528, 22.009904798046019,  4.199303373208270
 1.043370197175860,  5.647050273190925, 28.085372952903750,  4.226073200172510
13.865680234702351, 14.088477577136123, 118.511255083037213,  4.287162160585089
 7.791278373403467,  6.975387550931858, 27.474879575970800,  4.016110866397099
 6.460376090587637,  8.859533514920903, 92.587961814910713,  3.663080140718768
 2.690680278614511,  2.388616683052016,  8.564376932804786,  3.787726550405093
 3.072626292019031, 18.365539669798611, 11.089446824502124,  4.028708236339301
 2.588814464299449, 10.294949180761035, 67.452002238386598,  3.887343465687624
15.242262656951693,  1.194365783765368, 58.454302408236053,  4.107294253160251
18.685182274700104,  4.650820814375635, 43.209299848411447,  4.020275666138737
 6.263892523351047,  8.187791002377507, 52.040518023894755,  3.721551596569094
 7.520502100499867,  2.709173682442991, 114.619953610171891,  3.808979199698438
12.515775516661149,  3.261759073877734, 46.167237566381914,  3.973019414449009
 3.510475923305982,  3.697347088395765, 114.703591017426163,  3.986207804214740
 3.373425452831943,  7.064758254395984, 13.822415695498076,  3.984240008638527
 3.099948287495519, 14.890542201781434, 45.520892016840904,  3.884340152542376
 5.436055137962055,  0.231701120587600, 15.172816641906900,  3.750258441657407
 9.427328665232773,  0.526844691868113,  1.037198764402223,  3.960895907425927
13.718689650509923, 11.239917519641848, 112.106262845492779,  3.849860464326863
 5.422667494688689, 15.222517173895557, 11.286023518413511,  3.744794800316614
 4.317456738763198,  3.479959268413518,  2.954240030811603,  3.968974935378188
 2.107233493381891, 14.057362652252717, 111.607583420747318,  3.853248311251022
 7.764814662050635, 16.016782674748299, 51.939549055041084,  4.067306629572498
 2.871262027859651,  1.841388379152901, 118.081556610813948,  3.751407107710731
13.620275489662358,  0.605082791725831, 49.092578101433595,  4.181899623333685
11.581670269281743,  0.842663055452504, 71.479158474509646,  3.875828380589634
 8.020693179099178, 17.624234886852509,  4.241963375939442,  3.947274339621703
16.224901100422105, 18.850879902115036, 92.797525366268630,  3.945460592897218
18.510634394762395,  9.056099375085413, 115.958724917528713,  4.044811496105008
 3.240786016634673, 15.979219654016697, 60.178192594841569,  4.043880291750785
17.359188475889464, 15.061185527323261, 105.228095859024407,  3.908156738000813
10.964213829054817, 14.866879108241090, 20.171333424620723,  4.280716339025095
 8.074944692793563,  8.244436310624977,  0.105380161989917,  4.152605721761627
 6.834310597729846, 13.611668056580257, 55.190306087802746,  4.143286975586226
 7.170832862123699,  5.072221480352897, 92.313511699291254,  4.051182084101003
14.185997840161416, 13.521912812922386, 70.818871345849331,  4.058819869113993
 5.124189664798124, 18.883593044832597, 39.741987437242479,  3.869726056919614
 5.510640448670534,  9.049267705173913, 11.246238161718326,  3.787059317584041
14.803380503814374, 15.612650264126085, 18.388907643649187,  4.267116118321222
 4.471981164210152, 12.434602913839708, 38.839371108400158,  3.886173781071630
11.636355376089858,  8.885978446906794, 101.200540165833303,  4.051370865376110
 6.329172224786117, 15.945414079125076, 67.067904729119633,  4.370428945513855
 7.908518010240056, 15.621906620262614, 14.244717729701753,  4.014790529943038
 0.594878871240628, 14.902613711042763, 86.457033904638450,  3.937490134410625
11.338436424060021, 17.767151000632865, 51.826759348808075,  3.797169195820606
18.330443557604646,  0.215438656537247, 106.109896058552366,  4.256509777349585
 8.459908307471407,  6.676926656751233, 63.218314171105213,  3.682050923904146
 5.249278121330623, 17.649654027027108, 25.296555957299898,  4.447597464171886
13.249184628876634, 12.130934358497640, 25.977616927562384,  3.754686336859242
10.089244621178377, 10.851355007421370, 20.651500363973451,  3.936327360304331
15.552751238549309,  1.869393730693630, 83.945144401496606,  4.067178255467967
17.048585490079336, 15.568790492554637, 39.409399563658305,  4.073735798768721
17.139096062391296, 15.031588907790267, 89.922955339820703,  3.793011857180073
 9.089172031352795,  8.767557315498829, 48.979293857044986,  4.267744268503754
 0.292607517179999, 13.029260056123039, 14.308916430267745,  4.056275389025195
 9.602143124458191, 13.301950948233912, 65.931428291148222,  4.338455434134071
 8.491096637572701, 12.469796022893879, 41.923456051759082,  4.067594381784629
11.429379051973752,  2.301550165041823, 116.768860974520379,  3.808014812315182
 7.922494490374481,  5.363925189654280, 17.461520577768933,  4.189995639228059
 8.030760281684127, 17.047463758571865, 74.594596396902261,  4.187472095292299
 2.722878403634652,  5.974430965451949, 104.263750777833906,  3.877830197655412
14.660070094739373,  8.406163619161175, 42.110866036052101,  4.438739704948915
18.684013102841558,  0.384070241536685, 110.327534223318821,  4.159541125158111
 8.762824612661678, 11.224292466425878, 52.392812200118719,  4.156823436366601
14.459820995468524,  6.951486343270439, 71.793766279841250,  4.108005782202153
 5.979886120604202,  3.755633092496478, 104.073444323249575,  3.962239492747744
 0.757740627484117, 12.617822469547331, 60.841541799684101,  3.969069042340134
15.142023542787495,  4.536739851459383, 49.093243298608208,  4.243006151742938
 0.986146860830997,  0.278658633679890, 94.271065200382822,  4.095041954103007
 2.541791193836721,  6.422470987653615, 100.046027557336515,  4.578504148289312
10.978161899305768,  8.680426883062770,  7.028118256717832,  4.086979085430898
 2.326217496491547, 11.834055218451494, 20.931042212572514,  3.725704736937095
 4.512403086682863,  1.251287662966392, 111.747938231153867,  3.931958998300789
 3.586524965227424, 10.185811638229788, 58.242347050258722,  4.003230865820083
13.957777576052358, 13.038159256200782, 38.423804975468649,  3.981528409684155
13.960852851952495,  5.658404938740308, 102.056744412060482,  4.035312581925350
16.606350574181061,  5.565261577088477, 109.137600053906269,  4.126984235880959
13.837728020791678, 16.109475880820479, 98.061614207881007,  4.020710482055809
 7.023111535289332, 11.465509200616866, 68.505731578002013,  3.678304101174481
15.553531724082980,  0.403498701479504, 99.469956395503715,  3.805556334908704
 4.921766719852714,  7.305637598702251, 48.485497073149148,  4.070180742529378
15.680855449932945, 17.204565382051047, 46.444122057210556,  3.995327909866350
14.737160988075651,  3.178929411334514, 80.190928721174728,  4.031265978761785
14.270294709620302,  7.667763050329008, 79.880482188489523,  4.285209787836315
 1.208156100953222,  3.758879069912802, 33.892042521144241,  4.337835467689216
17.856431138845217,  6.862106879554611, 102.370358494612987,  4.125942947103105
 2.684369748275647,  7.800211432346402, 55.092604987204709,  4.075760720518766
 6.305173419545255, 13.329877281863192, 74.800785332529287,  3.964567450011217
 3.855357134021674, 10.732973917277098, 35.284654328662640,  4.039084548558180
10.162547140003609, 11.616546869983672, 90.019093295330720,  3.832261873444831
18.061684609619849, 17.705168410518507, 102.130409293846213,  4.225499437134141
 3.920587672601004, 11.433566022434688, 82.491680194666429,  3.945049074246014
13.955642745535338, 18.449395268576176, 68.441304890042133,  4.262478140404997
 2.047378143193356, 11.699620279213040, 47.753440270678027,  4.143253545861214
 2.025251616700446,  4.043017409180659, 67.438396591886004,  3.877730568806806
 0.148962351399551, 11.692316851447556, 108.994077346057409,  4.171680103995758
18.250640714770949,  0.082425150463364, 69.074241077229587,  4.499470928883937
 3.591662658477588,  3.331491051581937, 30.432624519705506,  4.080227842017232
13.630284103376759, 18.528715221797526, 78.921658728373373,  3.908134335043308
15.608422806334369, 16.537001761481484, 56.338497871291345,  4.021027334363752
 5.267469418242001,  6.456814078477125, 96.870285634511347,  3.775956020625365
15.978126708169629, 12.692480260286963,  3.460578640498954,  4.170812323793223
10.990051327041842,  5.746114591519659, 86.802967556965356,  4.363874781961334
12.922094957528241,  7.619956757113620, 75.742012178339010,  4.271365804843223
 5.594973094044415,  8.296839263134386, 61.154434498158565,  4.003395062801620
 2.774965777650782, 18.073286923281557, 17.790972113610209,  3.929069656956158
12.997145332373469,  4.867314567149039, 114.573545431735297,  3.542156138798586
11.533018243573350,  9.870455557896110, 38.991573342089573,  3.941964911296215
14.024034664855373,  3.900741875230283, 23.432553487352962,  4.107444393473098
 7.305020920136243,  7.444810285524245, 14.161155045456486,  3.658639658677683
16.568577133746309, 13.020735216937588, 63.482219885006302,  4.235884757249942
15.560827360070030, 13.827139015685734, 114.691199727121955,  4.042621533474963
14.632460584575744, 16.918450835377175, 14.502905778543424,  3.926475951892967
 9.991672208972568,  5.669298073366368, 116.443946855829424,  3.534590063432269
 9.190954802670323, 13.184029019804818, 32.356614559115336,  4.393822708483564
 1.422905450997990, 10.364434466922170, 17.312645968381858,  4.279496716909979
11.446548512386371,  4.240922475793434, 55.822793123218680,  4.144455156867355
 1.917799656988276, 16.912932013198940, 117.568253313215294,  4.158468994670175
16.189634784417141,  2.094022859679163, 73.159440080911807,  4.202495882733019
 8.816239250054540,  7.204553697355252, 75.862284612942318,  3.962303719075335
16.122252321946274,  2.249982237573159, 103.027553020911185,  3.980518982689092
 2.745590323794248,  6.718126573840015, 41.563610806157278,  3.899161586276192
15.628882644761754, 13.705974372216064, 53.336514402050035,  4.191735782157999
12.603946982959167, 12.066781479977566, 42.098964825969588,  3.926303351322103
 5.826759346794638, 10.345522972152587, 27.590183774323879,  3.788410283344790
 1.037187293702115,  9.311165187220865, 73.099070980056936,  3.811954230239756
12.684584763647745, 15.121907216655126, 30.867235062561750,  3.815595841631986
 1.684958918886665,  1.086519037005477, 14.542065988905902,  3.960596267573251
 1.378874801094424, 13.986677455808284, 40.998751541883735,  3.878259489616638
10.853325941500636,  3.162480067180747, 37.698043699038109,  4.104554400678962
 6.992394563058119,  4.528359202687413, 50.815214408837981,  4.099080130316064
14.818518619588700, 15.395840820564999, 42.875720391486524,  4.155235185365175
 4.145121462333727,  8.067488997116318, 38.174217149546266,  3.832350997334390
 6.737551079814079, 15.802829583120547, 117.853579804118382,  4.005688121915660
18.328582149170558,  4.381704867953395, 105.629809751129358,  4.034039863033482
 1.588152434863222, 14.574915780152368, 10.323373574572832,  4.255525796473879
18.582840404235125,  6.512193997989802, 96.830065434135321,  4.118946724044893
 5.070654886526770, 15.115871225576718, 48.992185773155619,  4.074471272625137
 0.550428950301569, 11.722455335765709, 84.261824506399805,  3.680925774277120
15.446739056565169,  4.201272693256617, 55.767544512703665,  3.833020141307728
17.050661954194560, 17.607297055224063, 96.396098187330878,  3.809873661358673
 0.141182153530201,  1.551294739205165, 115.276353008037617,  4.057341744618594
 1.696004289338320, 17.735233290522586,  7.405000299852270,  3.874353307763205
 9.782073203195907, 17.149351658866880, 111.403004429858683,  4.242803138459095
 8.639328477541657,  9.390623451233223, 30.715959238168516,  3.651588807326888
13.376374150807406,  4.518022115392342,  4.647169874090215,  4.116949218020679
 7.613690272870723,  7.936817504754257, 20.471080712463014,  3.718284492955259
 9.766970279311561,  0.279232488646290, 77.825697607007456,  4.228329840300132
 0.500182811588285, 11.222934639081686, 54.992963676656721,  4.036500455038778
 9.704006478058249, 10.669435945762144, 93.953858309337491,  4.209093314953390
 9.611182263016246,  5.491618079247143, 102.405721753188104,  4.198913311327047
 5.604093043233150, 16.269587870539016, 111.320375840254115,  4.297990111827194
11.530170919469100,  1.234390816430434, 82.076228612474054,  4.361179769697497
11.249063194681405,  3.056249016965718, 17.951440065659675,  3.951984490162792
18.944218633594993, 10.473266307276909, 34.380776302592125,  3.942570334273729
 9.725880850505245,  5.324214675198423, 112.650164798120798,  4.079012652700722
 3.174448339472214,  9.095107356842783, 90.366009857957863,  4.264589545003397
 7.808548515914883, 18.396372558692995, 107.956463960892293,  3.758392905631320
18.004477998792488,  8.782108094797014, 48.136451259185030,  3.996546010321412
13.459795710069523,  7.700140881826972, 31.218364783192794,  3.876651349046645
 3.566769006775114,  0.864543376183799, 60.891452574816981,  3.801274094229670
17.146205370029872,  3.955127580212551, 99.595435177377382,  3.941343667187914
10.806321277702207,  5.852171842329230, 25.046767399825978,  4.031960146560826
 4.744539951331091, 14.551625109434452, 85.428734688129992,  4.041087575499864
 6.513160779632111, 12.028069916199261,  0.912046131470669,  4.094597269943988
13.879746874250282, 12.900529853603603, 89.953456347841524,  3.992114028301126
 6.383840347028955, 16.382182127203148,  7.676703197200673,  4.030329142698599
14.577103707144202,  3.024497257430368, 38.936466137961403,  3.724995544271476
 0.780193264232197,  9.638264920867263, 12.179677069245175,  4.008654120022852
10.390604861307709, 17.787207282018890, 105.046275591577924,  4.096834032881175
 9.821019507929304,  3.186185491482623, 63.488817382441724,  3.822753928832487
 4.987081843613974,  2.299940671069581, 79.670324896247010,  4.110353697470819
18.690540957567645,  9.716219607281870, 99.403834591344847,  4.093359178616138
11.734155540902368,  7.239488514182229, 45.723176414915528,  4.121046718771448
18.834193260880333, 18.919525547748041, 59.936023031893136,  4.050968525664312
 6.607811812897263,  1.746028128717566, 18.932386203047422,  3.996014884456892
15.079070096911675,  5.268758547300635, 15.273744562137621,  4.311398472295378
 3.292977018989963,  5.997756312890735, 51.733292242344156,  3.635984760312701
10.010805694456876, 12.220802700510900, 80.669992535790712,  4.194745559900640
10.839334159752411, 16.794209113273578, 48.062981194620932,  3.880592241066808
 2.946687016516341,  2.706413902563747, 41.621629081292184,  4.121461405767659
 3.658741293054229,  6.859677386513580,  5.969190625800608,  3.830097942192457
 8.110842026353128,  5.481388555134105, 46.550613192704127,  4.097436189225258
14.515729036099401, 18.871790204872557, 11.127005433543273,  3.835015678799782
16.763532468216823,  9.243481597892851, 75.909780467918623,  4.070445387793646
 6.353746589496478, 12.674186459523339, 92.723522881451473,  3.952886763036236
14.450738073547797,  4.157689381662654, 42.752724669348638,  4.030994589721485
18.302076351635268,  0.844326339119375, 10.150190864498599,  4.199571752006089
 9.205598305182169, 15.347024007113248, 10.259980199572352,  3.846118438978429
 7.658095357032849,  3.744719180446739, 40.149615618009229,  4.022266246224365
12.701999130923110,  2.110109136138111, 14.283448171976000,  3.813877213732954
 9.093899058191553, 18.314320705469278, 115.813566212663304,  3.961332505694870
12.515155768652694, 17.290350257224027, 58.533918207013464,  3.693710629437845
17.753546331661205, 12.614724397267747, 117.919760940979174,  4.095882198592061
 6.527421460410515,  5.947449182130552, 72.625627391479370,  4.257649134891571
15.887080682723255,  7.426194292963844, 105.758780963892633,  3.687764613262270
 0.063504839417975, 12.107716638903725, 30.845602459979947,  3.825511878669669
12.829370066756933, 10.116605084751590, 53.030692658296374,  4.358976848511507
15.008345722860078, 15.095181527499051, 101.696995780037398,  3.852769030647192
 6.781181272505429, 16.651586179267053, 58.178559978392144,  4.185782079222846
15.244381989635242, 13.020169667665757, 14.489186807328155,  3.959864189200981
18.748422775953323, 15.362417048483017, 58.308353170441102,  3.751721199633893
10.115711464075606, 15.454590389513230,  1.551397012446889,  4.123160841672637
 9.868257230499076,  2.213527535948773, 33.518860433328982,  4.522171905636800
 0.060228238184670, 14.893429330636684, 17.818588984818611,  3.888272902796542
16.227493358798746,  7.208629144817435, 93.409583737833501,  4.280708811959472
 0.744445286179950,  4.057581146707515, 54.333738387274352,  3.927486982139743
 5.032205102145235,  1.940091830178028, 83.725911526909584,  4.031392981961784
17.775108222021494, 18.943548767073597, 18.291116483761293,  4.180024354788897
10.944497332404977, 15.157098286587740, 40.077875830071385,  4.090685733167971
14.468207814258793,  9.889521470055680, 68.812531349859199,  4.256673110919631
16.110428908112233,  6.390364964646635, 45.629131702090859,  3.844989672944788
 6.398393888051484, 10.113627992992567, 96.276809259935391,  3.925709392356761
11.054691388045020,  5.253181995065336, 49.149809561350551,  3.752789209539308
16.778517127427826,  1.261242444200769, 77.161928731196411,  4.043817760623607
10.897842467227800, 12.589852345902180,  8.068097929198236,  3.938978503908611
10.464992839291410, 18.182631037835673, 37.471593883438430,  3.779531121031512
13.494317806030956,  8.240733983113794, 49.411942822171625,  3.881351672790724
16.220536168470385, 17.101947997721158, 21.757293107809314,  3.621701336226743
 2.788386630775264, 12.716778165562319, 73.202164891301521,  3.844283057465486
 9.057287536183978,  8.512487091163548, 105.193122242625734,  4.074170389090341
 4.085290109924302,  6.711349011260162, 34.426522004671511,  3.969529450803486
10.890210017540854, 16.226312995845547, 80.500755086900440,  3.914609423449106
18.225640859973812, 12.661068039467889, 102.168075263623749,  4.023260760702629
14.093250043836951, 13.401614753733147, 74.760693332961438,  3.734486308315952
 1.072602453150786,  1.928173026522753,  4.949009502370288,  4.165635741328687
 8.601623190710548, 18.766106440607903, 23.233297951556864,  3.721741747125920
 2.573980933345291,  3.771328251548808, 96.781149167097880,  3.825672431629559
 7.960857474563038,  2.632417378713777,  4.332132177719556,  3.973359388493832
 3.256114568580265,  6.170236536451585,  9.836861813420658,  4.049345298128124
18.015622337659480,  9.175855840163482,  8.485716673047783,  4.070636338664454
 1.518464483115411,  3.867542823968152, 111.263862318496820,  3.894523085210487
 3.578325231069275,  2.534508739012392, 64.156227405571471,  3.515871630944179
 7.569737936556012,  8.763852854425631, 112.209697847848460,  4.080914568100813
17.096592535296427, 14.125025514888064, 82.436280478856219,  3.904828682596909
 2.140037350790556, 18.718826217550706, 53.024512435920691,  3.842037099803612
13.321383502633733, 13.222074414311946, 82.723719977400734,  3.840180852541308
16.263969154784675,  2.323256031876336,  6.758763114368105,  4.235737604086228
12.221578823424524, 18.029139974274273, 85.928653934121655,  3.969059896888204
 5.459549852911429, 10.615511601341577, 105.107850138319620,  3.848019080777856
13.618793130450738,  5.050620269487601, 60.325981274449532,  4.258205629005351
13.555817992498627,  1.141404008579637, 35.415194683812963,  4.039693296891926
 0.210906324896073, 16.058793283695682, 62.740915721164804,  3.890373062139044
17.049535456630625, 12.392344575645986, 10.941369850643063,  4.088744177883045
 4.074316615756552,  3.469620588814506, 26.497404584160702,  3.817504487680122
18.496230245669047,  8.912437561981859, 43.687540824511053,  3.880150711271795
14.371567767077147,  3.370622681664521, 93.261574834557138,  3.980037568939212
 1.095994121936196, 15.200179666556933, 77.432790991412531,  4.206078411937270
16.013545218951172, 10.214184605857357, 96.281124873852207,  3.970062900677565
 2.844634840482799,  7.839618181013780, 45.209616079257195,  3.721433604100088
16.522824569573128, 12.106583169628520, 41.334654955519298,  3.853817624193436
10.950085912224331,  5.623991236744315, 14.636753047172970,  4.057036519932843
 9.128749186191623, 17.608954037800562, 26.831948772132446,  3.885097035714654
 8.254820734610556, 14.522922168220804, 108.552920604900763,  4.079117954601569
 6.914954344029935,  0.967072396964408, 65.194265444450679,  4.132780456614145
 5.998516637440741, 14.047184920900301, 34.857169968821815,  3.889671283321870
10.637945660927249,  3.646775464773255, 90.616477569690886,  4.172746340678605
10.079185772647261, 16.353717355740571, 55.445560725939686,  4.356182667844593
15.386052804459510, 18.406786454116776, 112.683543477460560,  4.083369567291474
10.285758147391205,  4.990117024160604,  1.777384237541639,  4.369708175030773
11.649366090021230, 14.001995905062484, 52.465186508955199,  3.832881121399507
10.842489403150628, 15.489886957828430, 44.201215128853818,  4.185320183549754
 1.865222566310685, 14.925454445301606, 82.830831845064480,  3.736614249241319
18.637981461854327, 15.589457197255332, 93.405151891164365,  3.835658066871077
18.541774560922811,  1.965195041814517, 81.051037856314196,  4.134932020221168
 9.970425421119543, 15.618760256772571, 98.948102314765791,  3.812093799718650
18.420275972165157,  8.933786200609740, 86.517039128778677,  3.734525316569388
10.431195750582802,  7.347465884009249, 72.205980863898972,  4.025190706942851
 4.081601260848913,  8.553079160152169, 21.738416769346927,  3.875232920764467
 4.166770306383915, 14.685571326724697, 114.938011437100627,  4.062554755106335
 0.668487434279880,  5.043194767907411, 47.268199432807194,  4.340545579722062
 5.882914797630322,  1.850716289665797, 57.673518723842548,  4.335764465378869
 2.106375048542800,  2.427758356864327, 19.884799269421400,  4.025835476675119
 9.200700404209018, 16.984661248247672, 30.701948319561264,  3.892015390932117
17.172954308405320,  5.734355599900862, 82.428528487526535,  4.318698472247268
11.912183250082876, 10.951811588817632, 59.584631606282123,  3.789464899835490
 3.516365691221065,  8.974305955564322, 79.220095019810003,  4.276091752355697
 6.494675301697259,  4.577237349744646, 100.039003575324713,  3.811249421511666
 6.988431638929962,  8.262118558666916,  7.670005747677409,  4.008290832664059
16.820151837483319, 11.141625963804440, 105.601221468290134,  3.977909292706168
13.196738073058309, 18.902306333943393, 74.987191254231291,  4.030079811781990
 7.525822713991819, 17.283834350331343, 42.564860279859687,  4.013801998667876
12.700367499075888,  2.568220063789270, 100.269614032303267,  3.533275271316824
 7.618062823146381,  5.338549391687020, 10.810239731175212,  4.266509663893711
12.953705406110661, 13.509824864617201, 56.522458487219829,  4.005453598860484
18.126305267828496,  7.170601613559299, 40.290320469510320,  3.768301932155790
 0.320182200201153,  0.558938012739229, 64.847904245910726,  4.226609731178488
 2.043651821405238,  0.824206880724684, 23.586955675986601,  3.976566106452156
17.426125049558483, 14.464536419134561, 98.671675635099703,  3.965098902583545
18.710905497218587,  3.804497760540301, 16.875167516970244,  4.107172532351457
 5.887233340511416, 15.980155097269249, 105.727704197165892,  3.847084957197390
11.691657586267187,  9.522492238143009, 14.044479089004914,  3.896238111822276
 0.210735013013583,  5.273325308770966,  7.255548451643548,  4.110775907335843
 4.145816554434951,  9.927178014167154, 70.966151106950150,  3.784101574211928
10.175752864645926,  7.729669737778754, 90.535864698069020,  4.000439515843669
 7.615536419500380, 18.507340826700389, 81.485313185601171,  4.245137838659203
 1.567840107815214,  3.902698152743701, 83.999946985051267,  3.941708429467176
 4.361189005376046,  6.184064135002791, 64.683312748582082,  4.016383330679609
14.398890428770123, 14.136928830890955,  6.959741338537011,  4.014988674288651
 8.103450076441865,  7.828819270868614, 69.004598992777659,  3.936982466510685
15.377005768808727,  7.540592432646080, 112.670622597632402,  4.146106896894772
 9.203276733140738,  2.675864441845574, 106.085713882640576,  3.929692205228068
 7.420318628664244, 17.709059015438687, 34.249332829428020,  4.056341429475312
13.822887886916309, 13.105577799100244, 22.286094312814676,  3.614343437382859
11.167907947373550, 15.541686277765303, 69.003162781048118,  3.839155569439227
 0.634032792368496, 16.203532589500703, 25.686508153077099,  4.286332382503321
16.518250368066642,  5.485418483731841, 30.278893274455800,  3.870861871426276
12.624361459470352,  7.797041508637633, 17.482997269770010,  3.836637453787070
 7.980013758149588, 11.063519124417462, 102.039829410895621,  4.141003738947833
13.734449152120233,  4.168159574078688, 32.711692177018342,  3.809426534465021
16.265361559816949,  5.955224117404483, 26.223349942271682,  4.136787751736651
14.644380810660435,  9.317065547878746, 64.523490441726523,  4.289333301002747
17.291433889155677,  5.969847484926145, 22.143823917182498,  4.013126655225912
11.593975386316453,  0.685167594060371,  4.647865867555326,  4.293389014912960
 0.363128947093742, 12.375461843236133, 95.890429055666161,  3.942124741358089
 6.240336573185619, 13.628079735903972, 25.281217296354839,  3.798390190600074
 5.072042380198543, 18.674783121492066, 115.466172012775544,  4.106998351630534
 2.329955890224014, 12.814263809482561, 92.399765208095062,  4.083796893218962
18.804657300735062,  6.558911996833525, 89.634639440308590,  4.103404385210093
 0.258823808852937, 18.467977908979897, 74.408756212702144,  3.825728119423383
 1.664183122336610, 16.428105553796094, 90.256493259098860,  3.731180021235368
18.549453277258785,  9.419295564151545, 58.576587394860624,  4.166640530403201
 4.113848070955468,  1.730824619166689, 100.125686436173112,  3.518472510063454
 1.405066652191312,  6.183952004484477,  2.875081665002137,  3.893408157457508
16.481435169715219, 12.369159620336641, 48.836550574283585,  3.831200532304208
 9.640665510907825,  2.087097858608834, 85.561136130656791,  3.701897824565854
16.918071215586156,  9.923043827732647, 51.966314079320433,  4.099072296743979
15.835155143551125, 12.908972587286005, 59.354292544661057,  4.133749103970695
 4.121215271043817,  7.311756173394845, 25.933984732176519,  3.896850081719844
 2.857899876520332, 10.793747103659353,  8.812847244410950,  4.209551961861816
10.065073139851153,  0.604797396099022, 98.193613828763162,  4.169384559840137
13.110887338985432,  0.377713336166173, 64.517717703577489,  3.888315037265860
 1.445386241321056, 12.936736233907704, 64.643982819483412,  3.783275814421005
 1.066355526147839,  2.936393358894073, 102.212734192113601,  4.098770865537703
 1.024648946707525, 13.606131655945971,  3.299249888420940,  4.070405536347526
 2.912963233065079,  7.596064003100437, 113.485933984458669,  4.244963220942280
15.595448344014933, 15.525938639560051, 86.238667685046934,  4.084992598514064
 9.738863476508712,  0.317722217116928, 45.213864943864927,  3.967486544317314
 2.102333490249259, 11.399479930637462, 114.273223753553836,  3.669972260895231
 1.553701117250165,  0.281273259468930, 78.004212433111846,  3.832484044192828
14.145162980566500,  3.669257690645924,  0.717450617224194,  4.039963853327806
13.193348252330567, 15.291993129021311, 10.513003582593637,  3.819603214815422
10.675402163891704,  3.195501586420678, 94.687080444074368,  3.937906027475260
17.140406506276015,  7.690093569878904,  4.648964487600052,  4.046796945007394
14.059089076626332,  0.250744754183381, 31.376015251541272,  4.262350574063152
10.510575100340411, 11.396470068914772, 45.724202680668398,  4.533476979034183
 1.078522179120431,  3.330071571435369, 75.476012772427225,  4.071601352410213
14.928605663711942,  6.819427047808853, 38.052396243663502,  4.044388090326055
13.719886595483784, 13.901741642564209, 46.357372494740908,  3.644063623863985
 0.574606548398515,  7.065195373574748, 36.550056651368017,  4.218233763940678
 6.263152675638597, 13.621868947622113, 98.986882547269403,  3.978391333688843
 1.666643928899910,  8.184178326212436, 82.869380925051630,  3.972471897221934
11.987601969213735, 15.694092147438839, 107.986833706044195,  3.786461515147502
15.674220320509322, 10.651735321218023, 56.024520288391159,  3.907082053393819
12.185121047083989, 17.890407340836163, 101.337961328272300,  4.107460741777206
 4.228779635234657,  9.517443235269464, 117.010935241566784,  4.203859074412621
 0.916286040136462,  7.519515149259447, 31.800160571070307,  4.029853415879126
 9.220206730665902,  3.212384465033185, 21.574727024849558,  3.955867825086288
16.123086796473853, 16.810416051158292, 65.207002248620313,  4.104739737917008
 6.944333370272266,  3.383305724240859, 118.440302382399608,  3.918380076235849
11.593642185244468,  6.457127247785955, 21.089904719803776,  4.071242978316407
14.340429983107562, 17.847790612828412, 89.375932723260988,  4.098922176153395
 3.769116340639379, 12.115801264382050, 12.667975831330061,  3.792475293865776
16.417596325602858,  3.926420264521801, 35.684402141490459,  3.956823433464698
 3.684860792268429,  5.634884532917483, 118.216464166549514,  3.993431516935415
 5.724876593733146, 11.148430553864866, 49.583512035014074,  4.041169461727983
 1.363976536377411, 17.820683031203099, 40.120871867653818,  3.981423006047597
 2.625843653471474, 18.380038084517899, 48.339788414881070,  3.890655016382704
18.272634570481163,  9.430937698397891, 62.628646961612397,  3.884279272688292
18.415760408138830, 11.991844247155369, 25.968755967335010,  3.978792527153833
17.896092084683758,  6.138497722861222, 73.640732573029950,  3.849744359957591
 7.547808611640503, 12.134391672062652, 83.923678596769349,  3.933487808697597
11.772772898681843, 15.713580240520406, 76.761550673767218,  3.783246111996938
18.282195818094952, 17.785372183211010, 83.726869390673130,  4.131000837214754
12.584851967250774,  3.203302678957587, 52.069294230088929,  3.951861187864203
 2.364452359199005,  1.752142658967478, 71.866274835625575,  4.145013744422211
 4.384153195040811,  3.092206874694628, 12.338555519832193,  4.075215648366915
14.932146678214773,  2.524622216536093, 106.904184921313572,  4.102759496487015
 7.013419356539201,  4.991759011907709, 85.540476913090032,  4.097850599416855
 0.820217561009230, 12.324777906884147, 80.257652280995600,  3.872514118340776
 3.565605300804829,  0.499404256678373, 67.336791480796478,  3.847266158895525
 7.073852570292794, 14.089662780570903, 45.480991739943889,  4.187102478288940
 6.874653593666799, 12.238583069668191,  8.981470089335039,  4.330016566035439
13.426420636586554, 10.354865117370190, 10.430403754185777,  4.279618315671503
 4.267802052354593, 16.549621609754016, 93.464026883253396,  4.525380052636422
 2.892507366766419,  6.785233156227387, 86.696782401611273,  4.383194500931491
17.929420557610342, 13.308251569085506, 73.951612554526221,  4.044979233052588
13.060449956943655, 11.246148588898462, 77.923641468061760,  4.189925569782575
16.986847539978307, 18.170735997620653, 28.450467116766411,  4.049348113847359
14.101418648207796,  6.024235150117653, 89.849914039318591,  4.338685972851847
 4.595661793829501, 14.150872629106910, 89.373461179312912,  3.884743729961357
16.901327189111655, 12.738589043369108, 77.718394261014325,  3.742090554230297
 9.968914691773103, 17.406222348958394, 65.788275691550467,  3.878371127713476
 5.579167715042274,  2.420370294615346, 33.859945503521139,  4.044628217681080
 3.477204984162753,  7.059154940385786, 93.710596462773466,  3.579297496119435
10.327099122160746,  0.864395659290627, 41.189135163026762,  3.994117023638661
 4.018248954075316,  3.929409364830737, 16.485005885565752,  4.331887416660158
 9.789205156722561, 15.398644401155186, 84.190643032874249,  3.921453267213993
10.040266294308584, 14.352537194416289, 59.155829198432954,  3.998378392368161
17.799297037784150, 10.796396651819320, 66.624759741220984,  3.845550889755830
17.036704699950928, 15.129450669708980, 68.644811992111585,  3.756019495228653
12.869724607371188,  8.328692453545862,  3.534579000942361,  3.883730754068821
12.233034025115444,  6.637791316051520, 93.667508405024734,  3.795157843849731
 0.424930063456815,  8.206525102101280, 24.836598700393001,  3.871668037510288
13.458545517953361,  0.228914905025577, 43.685190154028000,  4.077348943768562
17.858970445246978, 12.678178892725352, 45.077146144911310,  4.159706265239274
 2.106651283149558, 13.018559675023358, 99.401961023650500,  3.928924955352264
13.876390041418304,  9.954852601990106, 35.872061251809455,  3.858400744032224
 6.573573092299485,  7.168669242196074, 88.915259169470090,  3.970112839365342
 0.629920336225857,  0.715815629793842, 98.715051759487196,  4.222734757666601
11.844116596357036, 12.288071578431440,  4.099474561199194,  4.233841373869659
 0.002930666757004, 15.394983487158052, 47.985455922881542,  4.082356040803723
 9.494956493139767, 12.292906764496768, 111.704310620590647,  3.844559789894015
 0.575819825139210,  8.382658138888269, 106.593432745139950,  4.019114582511737
 4.655246921351161,  3.041486872268188, 47.473058999409048,  4.561319071763563
 6.547940734985429, 17.693206500004020, 99.578186896009385,  4.266627695973426
 2.748096992861557, 16.680281900948611, 100.688605863400483,  3.856352825439370
 0.300821101407282,  4.434745105529943, 12.375354393975195,  4.467037029210442
 8.103952500373468, 14.816774758869510, 114.282623226903397,  3.886230230968127
 7.362380364887880, 13.481420103087908, 28.805723249709306,  3.604776201940057
 7.567342810676069,  3.533099496577830, 76.828419558491703,  3.864926319429030
17.536067062748792,  1.949870131987424, 21.950038940343180,  4.028279017513747
 9.844417840319135, 12.565475070797270, 105.346115744121391,  4.010525039789290
17.527472739996394,  4.205196580905374, 86.420075233477803,  3.789736997859127
15.326039567631623,  7.851669513157831, 99.147155987377076,  3.531440183681404
16.911478632604418,  9.319464588933188, 28.746780536648419,  4.065133259591360
11.505310473301332, 16.523314582429069, 62.219985587176190,  4.057640573684109
17.701446501150059, 11.187281274683325, 112.718347268402397,  3.726739415624016
 6.020140807719259,  7.523739688649584, 102.645997229253496,  3.979117174349388
 8.566799823525642, 13.271475911364330, 17.329699800218279,  3.768987361046568
 5.842205391907650,  8.665586567711774, 84.511879231669269,  3.856298659904656
 8.058628583042518,  3.043767839412917, 26.330625028683485,  4.173537006759394
 7.474929116952744, 15.438659194968809, 62.792875511729910,  4.335123890428326
 9.993673523174333, 13.190895618057167, 23.971958783428011,  4.176918834816438
17.068848290864448,  2.489295797868293, 95.978851852874740,  3.857314986723807
 1.294579504185375, 11.216393948303233, 76.493223739798069,  3.979388135374326
14.021365687944765, 18.002217097899454,  7.433133013360319,  3.797476322820736
 3.726615350107999, 15.111670223545307, 52.872601308696652,  4.024596253696886
13.197559543094128,  8.454514151967182, 27.322502394610225,  4.057813140885935
 9.223397588017894,  4.125135041011026, 70.257881051523697,  3.776509326835375
 5.630512323191558, 18.095455088478499, 54.604187826544084,  3.855079849084536
 3.022733858377558, 13.913727877688371, 56.683881726887897,  4.057394995017717
 8.990806712262890,  9.351643552909970, 17.095524613072865,  4.073107764585418
13.020920723261311,  0.462844817992080, 55.034028520349295,  4.149592763027358
 6.557214963229160,  9.027270636280702, 55.809189115375077,  4.012825938179163
 2.460155879711433,  5.864477391616917, 71.852785374321925,  4.015594039233588
16.511344531503831, 10.234381571693600, 72.172234556468069,  3.600008884746104
12.860717648595982,  9.885826971488211, 105.408044563702575,  4.017817576052363
15.031246969992257,  3.753935149095746, 19.255061043378802,  4.099598307059169
16.975755428677857, 17.256545143435709, 116.242198971434917,  3.972620974939231
 9.580732170777907,  5.011640412617389,  7.133453097049990,  3.763302139936598
12.821320640867748, 10.420798524764500, 72.817980795920221,  3.807313560850863
11.996323838318732, 16.828382347852166, 23.754978912578160,  4.135596920668740
11.223211810409724,  9.884987147980807, 33.253023704085876,  3.555559358977554
14.642702336655178, 16.320487343018790, 36.222846367783120,  4.004978811682671
 1.691745986726133, 16.095915247007781, 96.876200950767611,  4.056724175103607
 3.384332263015462,  2.792096912871862, 87.200379419797528,  3.715613217709043
12.770607479760127, 12.671710761524608, 96.126128460773216,  4.063570514101777
 0.343564688659541, 14.585690049482638, 114.856373203996625,  3.584312300792609
12.636254173904891, 16.801226535507801, 115.033644021722083,  3.831690026535067
12.213291643289368,  9.615726645689699, 83.833124983032292,  3.984698952288412
 5.814622591562397, 14.814356009963356, 81.558235957482580,  3.973256507461441
 2.539520855604597, 18.890095039760048, 32.568709278400348,  4.205466216127937
 0.588008124578475,  9.449815354269921, 93.405556604012475,  3.722871487009143
 3.711700020742162, 18.087713672049428, 43.318761387248735,  3.922985844301309
 6.968034175723194, 15.429910404365971, 39.091968383623261,  3.912815734779716
11.298211969589131,  6.981387643291596, 36.221523011974512,  4.038596335504566
 5.599753758307001,  7.096039013759663, 106.473352856909756,  3.701265711997768
 6.153694311925619, 11.573346279032158, 20.052472330992362,  4.145437006812029
16.450148286563127, 13.038596394429200, 35.552808924825612,  3.580563808618665
 7.142143642843338, 15.161882480555246, 21.771510001405996,  4.019353571119934
12.015452216440179,  1.310033758349409, 60.863313540112962,  3.945806275666855
13.585285508438595,  0.684659905899715, 96.107443220215814,  3.989762740919068
 4.212100058974720, 13.138027860067201, 108.183222064859720,  4.372347274787483
15.990746553068441,  6.443595535440644, 67.138553781452217,  3.912407878668138
11.124958511141472,  8.822684148341697, 114.411925420789132,  4.238841553308488
16.963455110863517,  0.278249128782178, 37.580307130900827,  3.910331721773306
 7.789532818560160,  4.735870378926414, 66.465952976475023,  4.001658338973463
12.211690530824663, 11.401403343039984, 29.942492493909480,  3.887076385494878
12.933754181630603,  7.885727345533041, 57.225138954595231,  4.212476092171563
15.779747944839199, 13.353123184850984, 28.816903179041656,  4.232641381041879
18.317823808931298,  6.147931670027441, 51.233455731608615,  4.047932522267987
 9.384671266106448,  9.389249064525229, 10.755562682147154,  4.051400968386488
 4.453755630758732, 13.585730073826312, 102.594152649569949,  4.052867608949112
 7.842571396704589, 16.065492802789073, 90.962939952433317,  4.248278011177583
15.741803245327706,  3.401281458170600, 112.406398022460905,  3.894223499795810
11.235217314590727, 14.342336839452605, 92.715027544538302,  4.120200362050094
18.709613250700926, 16.250776151266834, 35.834838076878427,  3.835042222898282
12.341344626570857,  2.141226133703609, 103.903667191917677,  3.773635026160845
13.509919792903132, 10.155162371705226, 92.817048335762294,  3.800566946552359
18.565377600288794,  7.409623027107637, 15.198791811373377,  3.846668436792332
10.229204107719095,  8.357816885918298, 79.425404977529013,  3.921291174429083
17.264530303480765, 15.980933658668679,  1.401311007740309,  3.832902679775295
12.585225497017227,  5.269614692090586, 82.928867246690857,  4.067363054821521
 4.288632047374902,  6.984449584919071, 68.546101293049986,  3.836921079367142
10.013471014713332,  4.206601052519668, 43.281704494799790,  3.867324984485401
17.383909097789733, 15.189573548053408, 111.465320292760509,  3.840999925575921
 5.678382426155413,  0.370621825679093, 50.701090684549889,  4.058790191427303
12.144910122827287,  8.681221080370637, 97.099887741210722,  4.187663615803037
10.746290502994498, 11.631745147813062, 69.652554871906602,  4.108887667299729
11.822614669384160, 12.748492266454623, 86.341031605111596,  4.018171031977880
 3.456981449576045, 15.934008765222847, 37.256557741761625,  4.043446108091768
 9.360988513550465,  0.026226838298599, 16.039333410492610,  3.583988946643692
12.465090389968800,  2.656755037180537,  8.086722785064161,  3.794900352899451
15.752523727614886, 17.096727361862154, 71.936540066825188,  4.042122825551654
16.813852356927960,  5.686595448286550, 63.175037194037323,  4.223814828947926
17.770579907453516,  0.114509631948436, 49.479770555941798,  4.182328943699840
 2.970368130884195,  9.646621593830176, 63.712310385464164,  3.691370996276422
12.818531169490662, 13.360458533656278, 34.339536600806071,  3.881565261440795
 7.034249031132726,  2.954195400097442, 96.388098310098073,  4.113374819533893
11.721947617005240,  8.075902076562889, 62.091787346828596,  3.705271488878289
 7.779754803578463, 10.783817963768369, 77.472817475544076,  3.982341266902527
 3.909035904701758, 18.505483640849615, 108.183582837119829,  4.035573414929154
 6.542393854142980, 10.940549044909885, 89.365589851248359,  3.606851790336068
 7.709086597671636, 14.588001215032893, 71.049421449224283,  4.347369243159529
 4.458028203011039, 12.903038553969182, 78.327723830650797,  3.991126564891518
 8.268589734294295, 15.203680027622674, 102.564961147438765,  4.211037829356209
14.701391835057240, 10.112031698354818, 46.058184718540410,  4.159007292061045
