BANDS
8 8
NANOPARTICLES
cell(1), 18.962
cell(2), 18.962
cell(3), 118.513
18.219656216457604, 18.903130203314436, 24.012143474244461,  3.950737310935722
15.737615108398826,  4.821846318898801,  0.070905077262312,  4.194859733728049
12.433434263343010, 17.161843800669143, 40.915896839498856,  4.398322240997745
13.094416593231823, 15.836015270806145, 99.973218461205860,  3.854821016692107
15.256671561462863, 12.833562562592231,  6.948707744569182,  4.071534854808661
14.634477425266684, 14.798489173949324, 26.260481505019900,  4.062231438039877
14.268877527615512, 10.669343719739372, 113.471316276202998,  3.670275693562176
 6.828827824895646,  6.345568581474774,  5.122604518725547,  4.173337911376737
13.764491812516525,  4.392500661071058, 101.087683036640371,  4.205044285162736
 5.823032351525309,  6.119282491561383, 49.180298356687743,  3.821304135169874
 8.680158588613738, 15.304308134527702, 66.565100190154297,  4.155066825986568
 6.683160637553666, 14.331893013293662, 63.209167687713467,  3.757262579289843
 0.094387818536614,  5.266535913797733, 19.516904892727101,  3.811259916015505
10.264468337300038, 17.868504442987909, 63.599951050885963,  4.288364525847383
 3.233349852504515,  1.962460033910184, 97.821252842526036,  4.010836849801295
 2.175131363900006, 12.590932788381584, 113.851449712535299,  3.917275582522392
11.605384812882530,  0.930560379404271, 78.571085758603417,  4.353717846542480
14.629879904061402, 10.396378997331842, 15.092703788307448,  4.121015267172491
11.286588959257273,  3.950011936212130, 13.785994151424250,  3.831218727331766
12.593786028132243,  2.069995851940350, 24.740560700505547,  4.022309810965888
 5.542837973940062,  5.791991386504809, 18.406466827629391,  4.021604729204352
 8.416865596413491, 17.504673193880134,  9.547438703584472,  4.222478079480280
 6.010693424888923, 18.295692617292602, 19.933909621106796,  3.629566607205886
16.318730510409402,  6.140642475069165, 31.539336060224432,  3.949880950868549
 9.032027078233456, 15.858750352671711, 98.905597880594939,  4.535337808583562
 3.050014939686017,  9.091818304221926, 13.704502155244503,  4.046962398407913
 4.656555083360633, 16.955708879156639,  7.142658782521715,  4.032011238778023
14.987989632802892, 14.647800766090759, 14.366291303740322,  4.357689454627788
 0.451346594077824,  8.591549040051943, 30.695132060445513,  4.116384361189002
 8.373539559200902,  0.528747167992131, 116.613810064962621,  3.914413245569218
17.652447460956456,  0.601504391592248, 106.058236735054493,  3.734205332102400
 7.454914140688520,  4.421590196109840, 27.352414784443102,  3.517491121372816
11.188454561407720,  5.785825933086380, 81.178210741244001,  3.916089197200102
12.634810814766450,  1.518133601517508, 108.623294667716578,  4.067396675675065
12.649725149388562,  2.128627062611313, 37.002418984663386,  4.352962657255405
17.867194840154689,  7.624542940585325, 27.034444179499260,  3.949324388158923
 3.270232898851899,  7.748718634882161, 83.931414982067082,  4.252690855341130
 8.682863305383195, 15.460691884654457, 82.340304382779195,  3.960206720583546
 1.231150184772282, 10.743665545974421, 96.358392752574332,  3.819327676996914
 9.622920972004652, 13.909093836894881, 35.876012541094362,  3.954691348424137
15.029967721278577,  1.753496083366491,  6.402170422116123,  3.869558323949367
 0.556888972644409, 12.135528079602086,  1.137149158008546,  4.172163870119713
 9.289938826979082,  6.060925673869977, 88.746571070387475,  4.015871528338701
 2.055914283483021, 12.325254779449182, 55.879934132646824,  4.150747209942164
 4.191826280423794, 13.553892756285459, 43.660582220814241,  4.146375488043403
 1.899055283562317,  1.312877054428744, 13.308632414667699,  4.159443186381918
16.146702040966293, 16.951577859359620, 111.934931795359915,  3.948802920639642
13.743730756864499, 15.190990699895920, 96.002430552373681,  4.159817537662580
12.151082995050182, 11.835116178359284, 70.990286585386585,  3.995188702016713
 8.369653681112977,  4.149051053276049, 68.626899256013800,  3.851540883993316
 6.555905456504833, 15.905236464026094, 25.282123258111103,  3.914163933670608
18.462309002851583,  3.181786155191404,  2.779986285629472,  4.141957248924460
 4.852414298493935,  9.564122058388071, 73.561369503880613,  4.479486651687627
14.372926974289228,  9.734078806927407, 19.135491624480242,  4.066004830727806
 2.829593827506427,  2.340529712591600, 31.638689640144761,  3.849836660709009
 2.126930536106438,  0.383465188227342,  5.335101241731380,  3.804301950733336
15.706749985521329,  5.410278543779700,  8.063023281781247,  4.238410936260625
11.584078360034443, 17.616050711341217, 89.048552432676004,  4.335978244132919
15.353355673779253,  8.298719988605221, 116.134333085677753,  3.780043931734242
 7.619140341145340,  6.903325671273064, 41.838709500493792,  3.954158374369926
14.740883293366226,  2.178067765153867, 46.284577310511871,  3.751272290996630
 6.920457582460848, 10.897050607833092, 26.971345642958116,  4.009394351520293
16.107473564860211,  1.995701617209474, 111.066249001786289,  4.083797925764657
11.073981201784127,  4.201119668659828, 97.644935209573575,  4.126358421506473
15.850686364515276, 16.680188248668344,  6.297239733536202,  3.812409611380749
 6.200003685267664,  0.041083499690037, 62.975762502352737,  4.211350287852733
 7.910041430824538, 14.089598352436752,  6.522223264554808,  4.194680346070562
11.049533682495385,  2.648026777108833, 90.243008801371246,  4.033621938602619
 2.069219327423586,  1.598817297013452, 104.612076243568822,  3.880074052545951
16.211711707347298, 14.896923045715397, 48.141892856525445,  4.282582245104216
 2.002812629084871,  8.954961056562505, 59.483548327249622,  3.856018300235721
15.541176357966833,  0.659702851408386, 42.307696926221752,  3.990421473426156
 4.802896622614510,  0.754336088343883, 16.348558460387935,  4.226531244135124
 2.745121373186210, 15.182223177053578, 40.050021261524563,  4.254430893828567
 8.729470977758789, 16.457872428855602, 38.901201266148959,  4.148820068931271
 1.200365772967858, 13.201185620396110, 100.629047490346196,  4.352044823478080
10.713126231842415,  9.354769298134832, 93.817393862331983,  4.015862174931379
15.049381394089151, 17.006394817271058, 107.886937989843105,  4.425802016379774
17.347397723996380, 13.410906138452797, 96.653709712246851,  3.932625006995993
 8.335677711148367,  0.519803642559257, 100.952978992611705,  3.882786626425531
14.743570315386943, 13.400982587231166, 75.425910976704927,  4.203647257266021
 7.827243534318112, 12.112698634498161, 100.159133409632943,  3.705383844715848
 9.430108414149389,  5.473126459070873, 84.585140357011099,  3.765303909309079
 5.228129778614577,  1.879538787245770, 69.839832061890220,  4.178622657031203
 6.615402878720834,  1.213431686222688, 51.442669707078352,  3.878066551113418
13.050394670240959, 16.669812210933195, 50.107742852225826,  3.778540183274821
 6.965091950441041, 15.311101604773299, 75.359495186076785,  3.770055547433621
 4.785311659284209, 14.315767475202312, 92.014995319063033,  3.990319610112974
18.489739752404294,  6.452245074130985, 61.612800797726365,  4.191201434019334
 0.697046390044450, 12.674411480604677, 30.977207237995199,  4.081868934856991
16.594745937137453, 17.868616547685953, 73.816626029083253,  4.063901401603665
17.245638888305677, 13.984589167633814, 56.019357691710240,  4.069520169873281
12.356272071323412, 16.104631711360252, 20.524799010084507,  3.851699384029779
 2.303688029965955, 17.079930994234271, 88.588785624927766,  4.060661557257938
 6.837425753239148,  7.199333247749987, 63.948524123473248,  3.702694262665934
 2.991642545880169,  4.954629317184241, 114.566328280368609,  3.474120709211072
18.574859860826948, 10.560921986578981, 106.316164228552381,  4.055586102996613
 5.571642065991567, 14.083942896308164,  9.759783347624497,  3.770605564330840
12.154651416032447, 10.473647533612120, 110.473487025624507,  3.659598613499498
18.071084486269385, 18.711485776104574, 15.710255905473408,  3.833730550975342
17.652557207045799, 13.048620004504107, 64.899033059943775,  3.869392018225820
10.499207576805238,  0.961380622497838, 52.466180902325888,  4.164665179914016
 8.779457428920786, 17.245753912569743, 49.453208060395468,  4.396699432516390
12.946172299466630,  7.645418404819955,  9.925856887149966,  3.778565087167509
16.368375766107203,  3.065838540769374, 17.653486728117937,  4.056547905773960
17.151361531309600, 13.277863273945139, 113.244428054463981,  4.102736707256072
 3.218387405144354,  8.552290135316129, 105.625447358523388,  4.256076561254996
14.040712019109270,  8.935277338576647, 27.664125551095886,  4.237381954618216
11.304064383165143,  7.951500523831621, 14.099879304731903,  3.917899072398833
14.581537529344093,  7.201779374431365, 62.901493624307960,  3.959543883945901
 1.427165936127934,  3.292885132048793, 63.111861276827973,  3.658982616046352
 7.099328139736548,  2.382800227442272, 113.345673537039730,  4.014023928868296
 3.065090882570134,  9.026904965663009, 48.748537728342811,  3.827515793757366
15.777041431411298,  7.661436203007645, 53.396664129008244,  4.173676558402195
 8.783386453381990,  4.627224115813355, 94.223285380274589,  4.121938792380253
 4.842060102993885,  9.712172653289947, 19.073458478633928,  4.051021143105348
 0.474321928165705,  4.700671763549395, 29.530531165310400,  4.005266208167692
18.375757515363095, 15.286141208560563, 25.282890575847315,  3.712688102055258
 9.442268569193237,  2.200377878147269, 10.936950078859976,  3.787527641357806
 2.113505899715154, 12.643856670019565, 26.833619650175528,  4.404742533586209
 5.378981790840624, 10.680032457377768, 23.133531112554671,  4.273144729784777
 8.554677342794932,  2.443754745836741, 87.002568234283444,  4.146739038162464
 9.044749750746282,  2.493526852760762, 81.447100355562256,  3.941407967864303
12.362476927403007,  1.571763418925113, 29.503078986186871,  3.624809713775823
 5.894173476658955,  4.337948090823903, 75.923767964002280,  3.995918951532492
17.851650851468424, 16.378038412404933, 41.187683182139814,  4.127356324269369
 0.159624998165698,  1.628077725579063, 66.227892623067092,  3.765746019086737
 8.403429664662882, 16.031216208965191, 21.790421196795016,  3.928976355128768
12.210866702254702,  3.136257025661845, 112.623768206276623,  4.048599548477333
 2.734930603014827,  2.303831332336762, 77.232086159056834,  3.953257874145861
10.054578038258269, 15.267912276839013, 94.299158636823108,  3.954324036308599
 8.582542768095335,  3.328661165680409, 48.819374330972614,  3.888737161586223
 5.073699328666316, 15.059112294775517, 84.001012479661654,  4.017531700212259
 9.341209665185216,  3.989439825870841, 43.947795676808823,  4.010388137103342
 7.394645888955825, 14.161441296387881, 52.019724239548886,  4.089017014261306
 4.982908183586970,  5.655509379377294, 93.418126413649574,  3.867145704692303
 0.296219079824397, 17.319717579716510, 37.472989672521912,  4.003087814713137
 0.822857298570065, 15.705283364081710,  5.557798486381230,  3.928214519950984
17.997033702350379,  0.525388999665732, 97.374766726679340,  4.204328491094437
 3.972621461352129, 11.501758642919945, 85.692265352304418,  4.143495599368528
17.011096663527489, 11.878437784968856, 27.885233342492054,  4.126447431110249
 6.691043298741360, 16.225562545140779, 45.493483747014700,  4.022417718348963
 0.173690812458540, 12.089128547971736, 22.977258574477784,  4.291925026091351
 1.124594959114012, 13.095704759126992, 88.718570517259096,  4.093206244630639
14.066968701819416, 18.460346666126416, 16.098258389865510,  4.213724987852356
 6.615494619730839, 10.238500414519482, 107.325839409664709,  4.015162455683400
 3.610031349763588, 14.418767265597731, 23.090222142337410,  3.991720293834227
 5.757921336033807,  7.277500104938674, 25.527004970391527,  4.056866913335205
15.880577985037011, 13.504172276844567, 92.934300831203572,  3.826127496675158
 3.730499770815197, 15.015085944281207, 110.195852781927897,  4.035740629838746
 5.090951761312924,  5.889022945720285, 67.417100126758967,  3.907468772303325
14.669082720955156,  1.451588613042929, 51.667505540915819,  4.380968145091360
 1.810964612703595,  0.344485369781760, 56.567600606039449,  4.007148709781001
 9.770778160820864, 11.645341742723268, 54.095251551997450,  3.924076254166355
 4.266047595095487,  4.720061147056121,  7.703446999242423,  3.710614349754308
15.781010935574344, 11.708060696188650, 102.754582404474533,  4.638725996371787
16.531653746563912,  0.659661512460879, 114.877932021597331,  3.996808624370768
17.574858760903346,  8.607230512705559,  0.733622914733815,  3.887880607688685
15.390417258759433, 10.811462046607756, 78.412080723467724,  3.776822267177021
13.636817352897626,  8.467200567415698,  6.127086979505601,  4.087080712997345
11.715606948592248,  5.179632312965426, 46.946116483311677,  3.992875598340229
 7.310543332500000,  8.466318024897481, 15.666008574471213,  4.393149105766389
11.139607543840482, 10.382533409885117, 100.617421164635445,  3.803896721840637
 5.733811131959842, 14.467757130171357, 113.731674648439082,  4.099183097661975
 4.294968736548965, 12.311329842889720, 16.164292156147976,  3.813491219891383
18.693064288489335,  1.652124020802119, 53.141696771593551,  3.958516393143515
12.597285259228441, 13.099468686351020, 46.714928245964579,  4.263817341665800
11.483071196017770, 15.710794678962809,  7.557904217987920,  3.911388613427727
17.045899081347965, 12.399001974346682, 41.397343324785240,  3.949692029312233
18.060993343206018,  6.660577383435684, 107.510272299882885,  4.139931690292538
 7.316384687684790,  8.451917737901431, 91.527909503665853,  4.313721097520529
 2.837553945102606, 16.791531398969028, 26.406701523711735,  4.053554711052403
12.282495367834642,  4.315905173629417, 86.839168914834232,  3.844704896051623
 1.172611261704778,  8.889632100346827, 87.500789424574606,  4.316731553937012
 2.012003955723743, 17.365695493315435, 99.478364631406777,  4.210589978878736
 8.246377612368361,  7.207176705853938, 46.200500980180131,  4.130907445938288
18.784914582856114,  5.278725691626174, 72.074989984027781,  3.891571925365205
 2.164273414714683,  5.934403300734235, 75.342992010392621,  4.188514507159330
14.016821128494955,  0.905386706806429, 104.909578686553274,  3.914222570395032
10.370662505165015, 10.016465188133964, 28.069812420769846,  3.432091012295445
 0.057996267341879,  5.416278420568803, 40.890144478624549,  3.800517089662478
 9.614715475545408,  4.258271222151104, 106.561412979014065,  3.969629534384537
17.067111131310526, 15.953274358108517, 99.770437457080263,  4.102953156246512
 8.008098694287098, 12.434867728565605, 15.707911868136305,  3.644436485124021
12.360616522333128, 13.436686280154241, 67.244231938103439,  4.119823541770390
18.902259684081645,  6.573184133441337, 116.090053016167232,  4.074744822548724
14.560110333044658, 14.817007540082074, 89.585485315736392,  3.832908291913072
 4.242111610232072,  7.849706912873804, 52.163394945121915,  3.751908019419307
 3.289948622760575, 12.730809968405506, 36.726360769604511,  4.053418305564038
18.521291100051858, 12.501472942865121, 79.840891470710517,  3.879763072303540
 1.295632869795800,  4.756109537835388, 87.012448333836204,  3.865738199023371
12.328927210080778,  7.060852615497242, 39.730597580341495,  4.288369367287993
17.548108260083065, 11.750188892172844, 12.293247480652459,  4.403011342815461
 5.088685222145871,  2.796474875531207, 116.805477478296396,  4.022948716438459
15.361194252039603,  3.992620976842841, 39.831814283572193,  4.297291019251388
11.871325337424709,  6.041976363798446, 35.719911666075738,  3.984635425270423
11.012649788507577,  1.324239047151838, 66.817850001368740,  3.887977438013211
18.355809862293352, 17.698376924069137,  9.110400345724269,  3.981689266809327
 6.095464579333240, 13.324172730041496, 20.125878069068516,  3.855821812617098
 4.284201794530733,  3.607818317852499, 101.314308070021085,  3.952942920806223
14.990990166251931,  3.897686377489237, 90.561518409629471,  4.229117912893496
13.366315082701819, 11.087616565889036, 42.917965632289317,  4.405096562650477
 0.341104006135125,  9.836581857230664, 52.324150806887502,  4.093684822858951
15.947623299272452, 15.298374165121146, 60.052642475532572,  4.283501200000503
14.080029913616309, 16.280074854609424,  1.107915334065557,  4.085083530273748
14.138614324940809, 12.236797543749258, 98.793154001023041,  3.993343851689781
18.778071320918020,  8.560152869179436, 77.289206029248021,  3.763326242757199
13.933847941259186, 18.190938441367695,  9.333768925036599,  3.908907383261719
 9.068746951452370,  9.061046029174779, 24.269779605583082,  3.777249898188814
 0.501325052546676,  0.767840581284323, 71.104451615936227,  4.242030156524099
 1.377651284998218,  5.417692286260466, 103.562652553569194,  4.048498416377605
 6.422289981041858, 10.488685748976676, 42.571351596983867,  3.725121288528602
 8.685069872414998, 13.564633283580765, 47.575366923277898,  3.794362094537470
18.489538385685467,  0.565915282358387, 20.048900876274669,  4.040161803819104
 2.878873778582714,  5.585747195840933, 79.653891932567788,  4.195833426189554
18.265570965616856,  9.617558107812540, 93.138388551756762,  3.965941973698942
 2.238059686152023, 17.867294511118690, 95.280372112250149,  4.070139807634656
 9.445583899998399, 15.191753253515666,  2.964907015522681,  3.848709333200345
 1.286817885554081,  2.540469603131689, 17.134663805800109,  3.781300890408750
10.832280539590579, 10.265811714244956, 17.277535254296151,  3.977178129710228
 2.699099440557910,  5.300821700327959,  0.547222979903106,  4.221608588331191
 8.851068142167266,  1.391710219384480, 38.185071891244419,  3.665626291627660
11.475291671552460, 12.659847023989073, 83.567616469444673,  3.851898263559933
 6.875175593925627, 18.896594996954477, 83.939953394390699,  4.417198871392447
 9.441168216681785, 15.025760773688923, 86.383465622456796,  4.222563222594330
18.786598897917617, 18.519915183856426, 32.518545578033240,  3.917473633757446
 6.186334916743363, 10.680745599732345, 50.390069010877752,  3.948198346008553
18.458047276389951, 14.385343757553605, 108.662581679332106,  4.309614698002235
10.285375297842334, 15.643914914435298, 70.380622160013360,  4.142420037073677
 5.299882124394111, 13.690224648573789, 29.176621395311361,  3.700594988838113
 5.243880099628538,  0.270345318882425, 47.808543992243656,  4.091929653672903
14.121505585706803,  4.189491778902323, 79.117531333127957,  3.930248240317136
17.342970121740134, 17.172207358896653, 64.779446746285984,  4.322164208849653
14.502711121695885,  1.312241426403964, 59.547840671046224,  3.965435247640849
13.292640754963076,  3.650459532423210, 32.692465186870002,  4.209620095347971
17.263982383578359, 11.788123351077441, 34.766827452360801,  4.069917262069051
14.329185066804616,  9.069034105329711, 34.995719301433034,  3.928840532577146
10.224967179249351,  0.065910470453812, 96.040965534993035,  4.248405699585937
 0.966895122591009, 13.375655112044047, 93.304066261925826,  4.256421358051985
 4.054224081157131,  4.059124839701327, 51.902435048735235,  3.789546457915829
16.810580869591938, 18.083762988747317, 56.894763113975571,  4.303378718115180
18.180742118870338,  6.627787406822183, 57.550573340224680,  3.808293887678807
18.406374789267044,  2.967161255396042, 58.860707936493640,  3.953937447564674
 0.805609220046541,  2.956512724280624, 108.426085693988114,  4.163226256982592
 0.714409850499620,  1.040134706370416, 112.516666509823239,  3.838571450555993
12.788580225770946,  0.339267179056174, 55.940869203316048,  4.248261320354818
 6.742872915298697,  2.479710688205317, 104.369059165178030,  4.006872506693845
12.485692689528133, 12.328812936277622, 87.371569185560574,  3.988535755016927
13.229908935276342,  3.024811434228136, 10.366364265537451,  4.034945058117780
11.848428863663752,  9.429276628877913, 90.000316494365634,  3.910376534985029
 2.407028307842533,  5.129972436269274, 26.127259177465167,  3.857730840732172
 6.409441506028442,  7.267519942163407, 59.876330134041517,  4.480066777092034
 4.456590016278899, 10.953948790459282, 89.717850673008002,  4.034225857894647
14.817994741182297,  1.787379705679869, 76.040293933890538,  4.000178058626684
 2.139365433010109,  3.811625265648501, 90.852754396602649,  4.146650168798469
12.092172125227986,  3.813984806838158, 57.848072144063714,  3.760498682697359
 3.454320869420639, 13.890041502788462, 74.516663500223260,  3.901099208350721
 7.280796542798207, 17.886215993350643, 88.312822047012318,  3.770110146408615
14.996181086016982,  2.857868502536741, 13.926177422065926,  3.897122425942962
 4.614538385880198, 16.825203807101293, 50.943097106937465,  3.892793964144068
12.049377664110587, 12.901976623594896, 91.800762584861118,  3.818628873874632
16.257796498070743, 18.014180759687981, 83.411429337891647,  4.109150461855580
 1.537482122806166, 10.913620651065779, 110.181702773035383,  4.192493361360308
18.094386931212345,  7.135335257502200, 84.119599968695155,  4.100923321440557
11.154881398719217, 17.502576300435138, 102.985740767573148,  4.034534991519267
 1.138131842214261, 15.180056988160569, 67.235707604531200,  4.067870609930720
 6.407538570324752, 11.100263990246264, 12.409377384053736,  4.157983861052180
 4.328891266682516, 13.129922148629587, 32.855598362497901,  3.988711658849407
18.521525765047322,  4.587254954264763, 14.305784390007581,  3.956740806039867
 9.082848561774989,  5.326671299674975, 111.737458204039982,  3.740784863199643
 7.135796994684188,  8.595557930125048, 95.843389295520282,  4.294859932088998
17.540987760777529,  7.182455469209495,  4.593164122065112,  4.325388164222437
 8.938866350217008,  5.750449622164977, 56.912775262875364,  3.831291042862490
 8.534770039806983, 10.239686628756392, 20.526436554002160,  3.945619021679042
 5.575071202681982, 18.573284931992301, 73.362180632008787,  4.161260908112483
14.428355688133594, 13.015626197386890, 106.639823664574081,  3.951684399276672
17.689622599091756,  6.559719232210878, 89.508289825388104,  3.523220914983758
 1.588767930711442, 17.091943343978581, 106.419439159437999,  3.870870172832214
18.035094557435610,  6.774384181329447, 23.040574183879450,  4.089771069454567
 4.020875740868346,  0.000665982389106, 39.715806430611423,  3.656541384946781
 9.195813750477761,  2.988153566328732,  4.536817144404948,  4.099357059761351
16.831507536615756,  9.437303263485601,  8.699911380510752,  4.187882713028623
13.399857002416159,  7.688269089626053, 77.782070549092850,  3.695145074813275
10.319039070942940, 13.446715756522986, 63.335695456534800,  3.703054361456333
16.305598239466121,  2.927962880522728, 22.302397245746423,  3.742317135266290
12.038685978856739, 12.174712095531387, 21.673358882305500,  4.350315895049567
 3.882361619912664, 13.714097531287598, 117.468438179012395,  4.345051158963908
 9.653116325134194,  7.679418901637264, 66.855368651887858,  4.442358553770146
12.178685075814478,  0.029251984591171, 33.655621596207148,  3.599868746714912
15.462670383767280, 18.575402101562300, 90.292110322483154,  3.830158785878076
 7.220243529993757, 14.257211044806551, 107.251522688586832,  4.102987242722655
 2.053325332446057, 10.461171040363647, 45.178283623975403,  3.933793234108217
12.636440717722053,  2.508107415991460, 83.271364338274168,  4.113349248821163
 2.249987480146699,  8.205404804613227, 55.560712325836178,  4.096908194269467
 7.371519784788595, 12.576585944803643, 59.785779287724154,  4.037357842031408
18.772681838202185,  2.496687103782760, 74.693767303758193,  3.742701573624284
 6.794866364090735, 10.993576044092359, 35.377406103529950,  4.221247320308560
12.652903939375530, 18.063432959156845,  4.761596615362874,  3.742927538836327
11.159227564753511, 13.212441120483444, 50.655394940895967,  4.119131393281974
10.344399467125500, 11.715493064429849, 107.360832686120489,  3.926571518413053
13.500911190089154, 13.426348352316340, 18.001712170116164,  3.846996561700830
14.843406668614325, 15.042088163396198, 43.708432130300494,  4.108515647521444
 6.854172928941606,  5.955136724973450, 81.006540309402894,  4.176717347051676
 6.629148233795952,  8.869518934173739, 69.679434706058998,  4.121472409427093
 5.563272003948486, 18.552425603794848, 12.652786673415035,  3.458721736178187
 7.673329140012975, 15.166074965044224, 31.957312092114588,  4.027014036835513
 6.220932499159272, 17.471329188163541, 28.946938565854083,  4.060207220638759
 8.824196429019123, 17.711233999031599, 34.973044550194814,  4.017845178038476
 1.821687445981739,  4.047757376070774, 68.859152349035384,  4.067339007473919
 3.150707597096340,  3.885567491843300, 42.880720749571736,  3.967082573860079
 6.986371642239129,  6.725582538882390, 104.405804454602162,  4.381638714319840
12.095582036006466,  0.029594202314550, 12.644156078875605,  3.797845468632457
 6.174867716007533, 15.788204654789505, 16.963376286616430,  4.149185509680338
 1.906202939744358,  8.744798584592385,  2.739575005695262,  3.793110789490587
 5.074203837375322,  1.810980274345471, 94.269697016039203,  3.949879995758726
 3.318854126685815, 18.832301921422697, 109.358088978547173,  3.778990728412352
12.233725010733007,  9.299624842886875, 51.752964984382757,  4.285978647198980
 9.347427900279301,  6.714023347629700, 50.519934086079445,  3.799825219669456
16.795912682000409, 13.666244731403728, 86.564372748299320,  3.829626808775035
16.169217891583287, 10.813445377703911, 109.843512850267274,  4.478774395668323
 7.009905117261226,  0.461637531961384, 23.434226897079881,  3.971726245149716
13.755703015862402, 15.544210190398106, 56.741955495988904,  3.647146077872660
 0.860913481435959,  0.096600436544618, 91.729960360363378,  3.885252561886356
 1.982855753159849,  5.116729083205289, 47.964836107771198,  4.425040249706180
 2.136476180613253, 18.459587937853890, 63.693771679396981,  3.904187239892720
14.682460593620316,  7.844565460778117, 87.928411589871942,  3.704819935214731
11.151460766702929, 11.923460060845631, 13.460246995987612,  4.127338862970536
 6.451341607236794, 13.514420414954314, 72.051715011888092,  3.815448962289906
 9.652955025566575, 10.063889477281329, 48.719868423152519,  3.817973662915517
 9.623699277688031,  9.287509198746623, 10.881209081536513,  3.819789895266644
 0.111788550935665,  4.973684414295593, 112.026316337322399,  4.172471484284174
15.625707842731597,  4.648402518093389, 114.389563526661661,  4.201187881815566
 8.685223453115423, 10.673501780225738, 103.778734314417065,  4.220073135613439
14.114317542826516, 15.315320864847770, 71.817875246634344,  4.049303881238284
 1.044863622890627, 15.024644922385663, 34.264326627781315,  4.012785418091223
 7.490724709778696, 11.346899848697619,  0.186986568750503,  4.074554727635612
 8.059568008819017, 16.525962569667058, 60.401766722524599,  3.827863777075409
13.718952706960136, 17.504697843855059, 46.518265188630451,  3.625643940858194
 2.432301436046809,  0.968768563681339, 35.305145539208169,  4.011859282150312
 4.366624653064159,  1.684911846749893, 88.013462655024043,  4.218211108772143
 5.785200692380070,  2.950024862866916, 36.343061896322077,  4.019686440644566
 3.634892286154170, 17.421132620731800, 81.087256397244602,  3.989538289354032
16.389064710982264,  7.449288944032151, 80.351803569333228,  4.191352074476068
17.446362137794463, 16.675420008450587, 94.465255382540420,  3.854656989492662
12.438225337399176,  3.636341561565264, 69.802636112779851,  4.172005675113795
15.326774274172818,  3.849487982858072, 97.159417019157672,  4.298321732732658
12.343833382944640, 16.717740770686287, 36.711172986817402,  4.023979712952113
 2.807267878120552,  6.961007029184421, 109.519992127644997,  4.190103037243595
18.864819414972743, 17.706540075894097, 102.910335774161638,  3.848601370172158
16.737592504624555,  9.045217303314546, 65.748877761903955,  4.001068157294958
18.601226415906911,  3.376552715543727, 33.772154585055311,  3.917864091008028
12.109018045261990,  0.748904191259291, 44.072904236101429,  3.666048433801115
18.124114848318875,  2.070238029004257, 88.987038840701487,  3.661754443270455
 9.189646997046342, 13.025031418219250, 10.164103122681107,  3.785357431329540
11.650831123182597,  8.076215052709932, 21.589115588240308,  3.881875019956117
 4.354488237991850,  7.275166577008428, 44.597593281554637,  3.986865456800071
15.744360406983237, 10.865765676420292, 62.346032761193641,  3.803624191950701
10.853258712516913,  2.504446624993843, 103.230392131630850,  3.924577747822988
 9.410836134159688,  2.803298472861895, 34.231601330806818,  4.266813929464580
 1.361146996370781,  2.568243375642900, 94.524493259352269,  3.597789770838267
 1.847647724848914, 16.647069587179004, 47.943140996920633,  4.232681933138922
14.404549452381600, 10.622117059574936, 38.762789260568709,  4.162547367702875
 6.838154074740645,  6.392038096263066, 108.657730639394728,  4.129986808184571
14.112716926527957, 17.911027157228688, 62.527865324366012,  3.674478992574755
 9.492996509943438,  8.273817433310262,  7.270572632257323,  3.678879392747294
10.947107552996018,  1.050784226291470,  7.579475689025992,  3.906226314244419
 5.243317377198844,  5.482966476143748, 55.362899820867050,  3.983600278699893
 3.703610895516988,  7.229150634718015, 40.491658483800364,  4.318773709687904
11.368019569733642, 13.294051628665741, 39.411032995625462,  4.019738134656325
12.101249138429161, 15.301110798820462, 11.430335625237616,  3.953391769840259
 4.609299833983028,  5.836680113091436, 97.857031801230704,  4.195017264484693
 7.746534999506864,  3.656714349871002, 15.647721646736768,  4.153671859428745
16.767178835254335, 14.240458295043673,  3.359263351681018,  4.026053440402659
10.891937620539753,  6.982390664346553, 102.689227973850294,  4.151591037756911
12.105226457844518,  4.278719816533668, 50.597234468827828,  3.506192998004082
 7.974862122188892,  2.786057884842817, 20.032502503050377,  4.309180870832995
17.004638713805360,  5.162984638579787, 65.190794809778211,  3.844488316480915
14.058218809160760,  5.939478043794663, 24.133209676410001,  4.315188386501841
10.756317564381728, 18.604866245714177, 85.205212020193343,  3.755054684876433
 6.041688426756812, 14.581147833738839, 79.328048967197972,  4.143292811037632
13.682873171380097, 11.424481316035580, 10.451824865136937,  3.734866897075635
18.870754694369484, 11.256879861975527,  5.417350887279655,  4.353755619007334
16.730523154025047,  2.084057792500803, 62.779116025384809,  3.962614844913914
17.526967045648998, 17.434794667290436, 87.201114763888228,  3.945363193818169
15.333409157807472, 10.987516285466647, 49.471010920173107,  4.098487544145074
 7.564899303037594, 18.238534214257069, 79.904412698559298,  3.751372050152391
15.714999608703931,  3.736398882107507, 55.513993705904284,  4.721298510360335
 6.437066605702888, 13.235133956449145, 96.773243470333270,  3.835456241771497
 9.692204792599272, 13.903484774419175, 18.753443732287053,  3.899996250551196
 9.903381108878436,  4.446960769261474, 30.385684361989153,  4.138799789821674
 8.863426929243051,  4.461674766308104, 116.274643329509132,  3.978365520754870
12.440166614249119,  5.924939374238454, 116.449960218337580,  3.743628283644519
12.764347252468617, 13.966460246665727, 114.626398168819421,  3.935450567479503
12.525745404167697,  2.727936901369956, 63.046345123765128,  4.554965305078341
 5.085011685353914,  7.390024600678673, 10.530680564588790,  4.208774901113382
15.805200817190572, 11.094141665476407, 72.307500265197675,  3.800859511762753
 1.282868589967378, 18.341441703829457, 115.882332175899293,  3.741733323108280
13.333058331107280, 17.107798164847466, 66.127745846757563,  3.793626016763525
 9.863384816090322, 10.021880862243449, 40.994099522427106,  3.814336026522855
 2.823683173121291,  1.110032411860485,  1.333415081815499,  4.182912292363015
 7.534385723709767, 11.480411971938723, 76.423189080349729,  4.234191590328735
 8.731315839118691, 18.919315007874918, 14.464778564790260,  3.843456243168701
 8.788702537722854, 18.739899033724253, 92.090952924761993,  4.151867789926007
 2.046068948889852,  8.870479860286119, 24.867962356876372,  4.048720146115062
15.485042477697645, 13.964615133182830, 31.975091578910579,  3.819807928538512
15.767239941878074,  2.594809583088555, 72.105088432456796,  4.179332911423888
18.513956026088888,  1.668585621237907, 85.327950197529248,  3.706193698750870
 5.552079835035825, 11.376616688455215, 111.056809383391766,  4.023986484174772
10.365174751869844, 12.083567628312093, 96.972442048630796,  4.355505269736534
 8.697242221764359, 12.200806897131617, 69.322769924134931,  3.701400343050955
 2.789674628081659, 18.692897906140889, 84.762008110445691,  3.919551179738820
15.058398157767156, 14.647223723060744, 38.856777194930316,  3.913504601805243
 9.354067179861877,  8.286535027954921, 78.712795563029132,  3.970374174943573
15.093119651870468,  1.760562876097894, 66.672949298999185,  4.315854496292951
 4.190983254266059, 10.700891843421752, 93.752594952160010,  3.999032103352588
 3.998697782395982,  4.495819987495872, 106.449217284630762,  3.948742303972965
18.433797181399697,  0.067556647049821, 77.583554284078005,  3.788370710763705
 4.760229759993361, 16.423175745340210, 65.886653855175865,  4.049707975580743
 5.858940186186400, 10.521021690805897, 46.418516109277498,  4.026020056997746
 5.585286507066582,  8.069429874811746,  1.611970875221539,  4.015274927555104
 1.334382161636748,  7.008136369304465, 66.182770430427581,  3.950429873889294
 4.605351948323064, 11.486110943744947, 102.717633013165653,  4.338395164182134
 8.040911520399643,  0.963870700335576, 76.368645074865654,  4.014424722528186
12.949237860933863, 17.162633423823287, 75.599687325143719,  4.128496372088996
 8.496577277837353, 13.754079340964115, 42.202995187696011,  4.016639476728065
 6.297275045484449, 16.885496482697604, 94.960564936327657,  4.304181610302086
 2.393559797660996,  5.971438862771024, 32.976813928477036,  3.814075546319177
17.261497269125890,  3.425892643299177, 49.086308251120883,  3.931428168711716
11.416716815575743, 13.291050811680481,  0.021906279288545,  4.102890352521981
15.337405310473809, 10.082975191122035, 23.660130476917146,  4.403017972402177
10.984574987040824, 16.241521969892641, 24.941232073369179,  4.197772733651022
 2.153129876913036, 13.230686023497404, 19.409466003413787,  4.155076950259680
11.687976755516294, 10.956736469824525,  3.232666959675191,  3.801195422949221
18.136753819554695,  4.017897563370227, 78.343048926074076,  4.249301652332774
15.019587009218496,  6.756641399479567, 13.120863982377591,  4.035263711067988
 1.509166203063804, 16.100522051944331,  1.608228594455901,  3.988704915417952
 8.771777838509609, 12.887715099437058, 24.093466736810484,  3.896726933564991
 9.404811081974589, 18.685828634359225, 31.112058265237263,  3.946277722493255
 3.191776423646637,  1.221917447415549, 60.265017300255728,  4.049865839458233
 4.746848145158630, 17.841503379503006, 77.286174545266249,  3.972698384601423
17.383597756488385,  8.379252312595725, 69.794675901601934,  4.236767002630024
11.323584394001596, 16.898722321096038, 116.799083728490032,  3.895364958885671
11.765384131677756, 13.466023423529386, 103.023553399203138,  4.101009948956539
12.936277940477106,  1.774989484749054, 116.720886893329194,  4.350179246145037
12.766004243187142, 17.860326872452465, 93.029095212904124,  3.963563086046883
 3.180111369000659, 12.940150485843272, 64.422382552262945,  4.139401158966400
11.620141752370465,  5.003042716543895,  7.176862117833612,  4.121314731918109
16.005174937642654,  7.542873220357561, 104.037710621707987,  4.008778966938058
 8.950882646099776, 16.904275041910925, 113.649828649902034,  3.965846418435315
 7.711209171026321,  7.653511155844233, 29.235098515818986,  3.957980944577872
 6.321724690884042, 16.741470353857906, 69.687613490000260,  4.176188529074328
 5.124988871561882,  8.792488057985331, 32.196623936929200,  4.190088983071528
 2.497355222494779, 16.181167224816971, 70.866221369149059,  3.893235714877152
16.229713279799423,  5.286798098218620, 75.027495682351471,  3.804451914554909
 6.195448276642590,  4.976402373761321, 32.974830922397096,  3.884504926346749
18.595070164765389, 18.293428205181378, 109.376357393383529,  3.611149021853405
 5.407287667296231,  0.888392444775839, 43.620069073771603,  3.668069142639325
14.219230806961352,  0.103469919100922, 96.353392109493043,  3.664775407942419
 9.076313126431961, 12.514280046732758, 115.156810541864374,  4.029107288044090
16.770702343305878,  3.575855908116689, 103.749446788345324,  3.982365615553532
 0.616521574272442,  1.142542371496953, 41.216099992818137,  4.072827104540291
14.759843291842458,  1.295893049009983,  2.172446356487459,  4.242685400584967
 0.571590013084930, 10.170146237960360, 62.983335127344183,  3.993410901022652
 3.394851447242912, 11.260266463231224, 40.503602416060538,  3.734077933388722
 4.118365601750693, 16.324862504646070, 60.823101643712214,  3.821473769716372
 4.290407316746254, 11.704846471281016,  2.493851855358701,  3.810273749087090
 7.533859101930076,  6.650434135239716, 21.705267160333616,  3.864191843928724
 3.255088573242455,  2.788461596698673, 73.186340440722972,  3.714396296803862
 8.973900471564397,  9.678654896879072, 57.469718131860795,  4.044493949906315
 9.702946426178725,  6.248017723298668, 18.336652542682796,  3.977932524904523
 0.365701765489331,  0.777432612703153, 81.340174741534241,  4.020995198050913
17.505389088579424, 13.511991150185153, 51.956849084858277,  4.115994913123960
10.582708961745617,  7.135192553779983,  3.784878810640793,  3.951605855233720
 5.700654299034682, 18.213813294409960, 57.749528558552370,  4.020343470363232
13.019928450742976, 18.579924626020834, 69.728465528256635,  3.948421601963071
15.631710693264315, 10.080832408518958, 31.330732615567946,  4.059284747393587
 0.181379726583388, 16.731568201080673, 53.783891412892160,  3.904687254404976
12.664760540617849, 12.713241702853910, 29.418756290880815,  4.017229417103747
15.428891843364660,  0.087314845058254, 27.259939972052180,  4.524305820422668
 0.025041565986581, 11.350778947575238, 83.865409067916730,  4.522378980691168
18.641468873728247, 13.504691633178920, 38.035718066702501,  3.771872628763092
 2.794736133291484,  5.109639086212544, 59.246471795228999,  3.994586507962956
12.623690188316740,  2.878431960864972, 94.008640365880268,  4.118648550652261
 5.854461869735417,  3.846765453141578, 46.003598972516158,  3.981925715758754
11.324097840820366, 11.732479314077066,  7.113394503081707,  4.092389395448794
17.656874623741970, 15.816413913792948, 29.144456594504369,  4.183225337133643
 2.013001705823489,  1.529811021452001, 45.848401935485178,  3.867802118031703
 5.574510911892830, 11.401084182038987, 54.112949952332244,  3.692856675269435
 3.257217224383404,  7.336949958233332, 62.812467817699613,  3.814104038015433
 9.302946004950080,  2.159249706643307, 56.113879497988840,  3.484135702444273
18.828501734082863, 14.996650204583796, 16.554338735275707,  3.912679204934419
16.806734246238356, 17.029593821707543, 69.078141058600934,  4.335548362633321
15.458033093168078, 10.588608091033263,  3.328515262317861,  3.732624125467540
 9.895278265673841, 16.812204216714967, 57.140579480443286,  3.667974854749854
14.988321351259573,  7.792028093264960, 91.881016078595209,  3.934714049467462
18.353282385282590,  2.273712760342028, 37.551624239545994,  3.968664823585067
 9.221874092601704,  8.815430158813232, 82.638243854663187,  3.872882527238512
18.916961351164236,  2.655459147885717, 117.324583266198474,  3.881751170102625
 3.328605901943764, 15.297418636812116, 103.475963278749092,  3.814016402394034
 2.139172182726790,  7.473919584169980, 17.169473932180171,  3.790022843117240
 5.721988468579381, 18.182241641398143, 98.630398971294667,  3.559835930734955
11.983203922103549,  5.281462373587963, 109.400034846278203,  3.694170855412936
 3.107925606589323,  6.897690601593518, 21.472050419424942,  4.064081570709357
 0.096971489347227, 15.850932364524194, 81.642399060775034,  3.797123922938513
 9.064307076151380,  7.990017250779721, 33.441312162088629,  4.223103156505545
11.708205210122481, 11.118150132696487, 77.119543891659490,  4.051290222880766
11.190069722263880, 17.020173510343085, 110.061718300827707,  3.588880821696941
 3.701330345350206,  9.178830780446626, 28.448610296491360,  3.862381178240526
12.395356053080496, 11.659035456231965, 60.731055179922883,  3.793442952183414
 8.405653559672794,  5.735637982724260, 37.985953336525192,  4.232135930170923
12.319013700820429,  9.037579084344205, 73.781854156747855,  3.900639427044672
17.082376409007811,  7.484491856540004, 16.793580920922256,  4.202313200565992
 1.580370404457472,  4.078424075798782, 83.190418186629941,  3.904509205448134
11.002452085546091,  6.418127871790972, 63.377650717995451,  3.424509437517337
16.862764571220264, 10.177843127613558, 45.430606912182085,  4.382238493135462
15.809479067341183,  0.582787957044836, 101.336923153220837,  3.874280607231800
11.285191002770331, 15.516267269970779, 106.529292285823047,  4.076873615380591
 2.607625673293661, 16.308829642066865, 30.585147937965303,  4.155832155387483
 6.416851848811203,  3.247620834783116, 40.642798674067265,  4.047195208032963
 7.396427197218093, 14.132846090834237, 56.093848813518470,  3.951137816881637
 1.200320856994859, 15.147702031542348, 85.286142216493019,  3.903452690485928
 2.526326823175411, 17.370165802575904, 43.524025635709030,  3.937204184480425
 4.927275098839298,  6.143634304894968, 88.619316985803636,  4.156669295419046
 2.897709473488514, 16.551671167603612, 14.682353756886387,  3.842871502689047
 4.887248585185073, 13.915203595093923, 48.300934224588488,  3.958799366198261
 3.790712843537948, 12.954054009952907,  6.322282103549931,  4.273229300597615
12.918625754291332,  9.309521376590714, 56.121612452734368,  3.907643612013546
13.559087481177869, 14.083207585913129, 110.701724060009525,  4.034155751688670
18.691620639572697,  7.748909267545318, 11.945335961676452,  3.920285873270327
11.191540458359409,  8.653608382359431, 86.115539043335659,  4.116856960638405
 0.331568960991709,  4.549602098256806, 97.460546849065878,  3.777751882527144
14.438767171160210,  6.510535512199461, 71.777492900971964,  3.772413156390955
15.210911410907372, 16.612260046288643, 53.340922582766375,  3.974504750515825
15.109972195581507, 16.096900580460037, 103.548515375165280,  4.360022579120399
 0.403089291201772, 10.965390232463125, 16.248295685687314,  4.183670595570162
 1.412691549292148,  9.339160299392541, 37.752920996599968,  3.960543290564719
14.854507831034958, 10.573445615135807, 84.621717755115867,  4.013618457087794
18.892485982240419, 14.802477845548841, 116.644440339092029,  3.952767390743926
 1.923645489902497,  1.356613884892255, 49.745057035477878,  3.893566477793967
 2.445596233673601, 17.179589674795928, 18.594717784762882,  3.918089176580469
 5.028436385650298,  2.257031694054470, 80.835135382612663,  4.050580015175107
16.156261293210470, 15.797665746790367, 78.726357087891969,  4.424715833550858
 9.358510506270431, 17.632688016797871, 73.619732318893341,  3.599746503001537
 6.923258977624337,  8.191947187736645, 85.746046446801756,  3.941367129521572
 6.559784666970035, 10.573382585806801,  8.331034567828972,  4.059756119398252
15.677306916546240,  6.060513545622237, 46.243040674109814,  4.233151162777987
 2.880343994346545, 16.713082580759821, 10.750454841674133,  3.951605617528680
17.535928699295638, 18.268371915697767, 45.719333606549149,  4.318573482408312
 7.703984002734550,  8.269251343674291, 100.059721223661199,  3.985956338204056
12.891755065820000, 14.373675641678028,  4.283430427056742,  3.686328312333380
16.575282584454914,  1.449926574902984, 93.574992088757838,  4.004400892821681
18.840067582796166, 12.289863275131440, 75.749234598458969,  4.297597000529145
 3.089883530930392, 18.462168395328057, 22.560619822763609,  4.221318295483047
13.581127662817115, 15.896392039695282, 85.740965692724956,  4.117513824448745
15.853626665757377,  3.470277994432457, 107.510550716942831,  3.615029944871802
 2.445029293141484,  7.858447415605157, 91.366526449587568,  4.002276223011191
 9.234844864022079,  0.852520950792573, 27.033542954397369,  4.454057716631865
13.494514835253733, 13.015025331884575, 35.598040046933669,  3.971737922887405
 2.265921432849118,  5.444524229130377,  4.598282758251740,  3.807966656478115
 8.805472616424751,  0.603856197126185, 45.972394655926422,  3.926964421679793
10.994343609281056, 15.694632120358810, 15.397357367339000,  4.141476482213958
 5.088874092736567, 16.545210498169670, 36.686065244671724,  4.376045935833980
 0.477339155249324, 13.762942337757034,  9.061612945999617,  4.093979525898290
 0.311655378183923,  9.234339030400914, 41.458716737279644,  3.771973232208246
 5.672392007574588,  3.192339607101663, 11.586514249749165,  4.053872657954110
11.678414636888382, 10.975928110789258, 32.772156591491381,  3.738841529590038
 5.602437464895414, 10.097007959618438, 81.211414125947982,  4.291526062050899
 9.053424672526658, 14.201072840976819, 28.108864943550259,  4.167505222700144
 0.289470028132697,  5.622681244114568, 52.023963174295602,  4.337597510654965
17.928523699258164,  7.970236967397705, 34.467571672473746,  3.652300379089466
 2.049338363035039, 10.062245209172819,  9.663534440902087,  4.033179047564311
15.631121607123228, 14.166958005834012, 22.406459641885544,  3.932111185877609
15.233682219129252,  5.178994998308663, 59.567422256367465,  3.898519146639351
10.653543868587356, 16.139157649914210, 44.640347092887922,  4.043979865664579
15.591288222578624, 18.534073001009926, 38.468807605052469,  3.969547289673695
 8.469548329236924, 11.210654086768431, 88.241687223965116,  4.462654149018900
12.882696163725795,  8.998903867180587, 46.818794195823173,  3.948688280114105
 8.847325885180110, 10.483140000132062, 72.708504010563900,  3.894070522730556
10.079059069751981,  6.886481702962469, 71.123070411960384,  4.270421071609476
18.614920776301812, 18.380575814374357, 60.578792367397689,  3.910465446096075
16.362346960055714, 11.053220460311531, 89.698788421261270,  4.348278802021024
 8.519810254889526,  7.231401324238963, 74.949475104362747,  4.018945752428415
 2.761943945004444,  9.071934739361899, 117.533946283024889,  3.850601900568183
13.404949812515627,  8.119290608779304,  1.053236948659550,  4.108796744073359
 4.683036818280337,  7.133016495964129, 36.226570286220230,  4.425416926624425
 1.683494632296543, 17.647658018628231, 74.574354496869219,  4.163355384735079
 8.233754153792651, 11.274624102415714, 30.909960146872937,  4.079970078404648
12.679138918092505, 18.194498422453631, 113.354229215913804,  3.944987144324574
10.844924878083527,  0.171670221976690,  1.502152642756937,  3.986493238104909
12.164346248115381,  5.077883889747999, 74.983259815220094,  4.335799159947222
10.509550784104041,  0.711446340523377, 59.719382217452100,  4.115293115386675
 6.028498201398383,  1.862875838048161, 54.992044413035103,  3.433334080858130
14.422362055683598, 10.486420088974040, 95.089760141164362,  4.143346930803170
10.931722005619207,  3.321829507143464, 40.503200242818586,  3.661843311154253
 6.567100232285643,  2.254170401892369, 30.205129534941136,  3.846614070540351
15.563756242193040,  8.994305165747880, 59.025874916712802,  3.825037635547826
 8.726874773350302,  9.183745221771359, 110.633299623064715,  3.667697143997534
16.254789498751983, 12.772836225468080, 68.689902550934661,  4.217855382011635
10.742224782445410,  6.399534950364711, 26.782982426248623,  4.209188110548957
 5.497788652696311,  8.023937669100771, 77.566033048051779,  4.088928385199005
 7.299356350197749,  0.329516514101407, 66.804340742881180,  3.763904392513954
14.096736832083268, 14.191640942109276, 63.627680665582531,  4.012540121758454
18.763327239484294, 14.165977526476825, 104.540256097360071,  3.872346011065142
11.113190883202462,  4.164652292272983,  1.140427411811064,  4.020964448479305
 1.385935748577888,  7.904162128532761, 98.843716234318819,  3.674878604860769
12.150301151046490,  0.788664622876994, 99.716984682907153,  4.130591916817957
 2.592476318912474,  7.938578205900115, 70.224100872717273,  4.195147545046311
 3.738603374758463,  3.225847760823062, 111.336089458822286,  3.980982387637814
 2.822235894561001, 13.456888840444940, 81.381961591829864,  3.443320237675156
18.043617415728555, 15.817312330694241, 90.735572970039996,  3.761647601223373
 1.637649413830215,  9.313004248945717, 80.554895399617735,  3.862995232694677
 9.215448205884583, 13.565284242696986, 111.018539854667409,  4.509273858824783
12.537211956595257,  7.459579357690794, 31.224455165484411,  4.029856100581449
17.140179911739665, 12.576567892159353, 19.185892554995863,  3.846770043268835
 5.396923967994672, 10.428402512458851, 62.377141038067862,  3.644416051195238
12.900853394128143,  9.537682051388687, 81.201928156478701,  4.106001449270876
 9.348748534926347,  4.381712276893256, 77.973609385704080,  3.976558409587369
 9.584106383645008,  1.112291317814479, 110.853650904665926,  3.461462852936262
 0.058465868040774,  9.213711382748519, 19.968001199350091,  3.999564459838211
 0.648908149629975,  0.692475985190692, 28.496964032540077,  4.254867099488885
 9.507275784051854,  0.223079002897241, 106.304749028997819,  4.086501784918001
 6.752206085502150,  9.316425359716341, 38.953516512839009,  3.678748984596528
 4.885380387672217, 18.227032382119514, 91.336735204777185,  3.812837654114854
 2.529877461278190,  1.492031572807194,  9.163100858529006,  4.177705148543185
11.837188047126892, 15.558138740954009, 60.492146607617634,  3.971887281240277
10.600119403449224, 13.931381919596651, 74.226319517152390,  4.295920915375995
 6.011788576133552, 16.647721370968672, 41.732055172363587,  3.648660947576373
11.556093970090403,  6.118695426295596, 91.878274574065529,  3.700093615029358
14.397287494725324, 17.773920682268940, 23.375150537214857,  3.895747643905688
 4.998136750280651, 10.389746065575560, 57.624973437733736,  3.703508961326708
 4.459669221049902, 10.327232434164218, 98.631759208414991,  4.114885298317782
 1.039301876853482, 10.941480815795090, 67.545822475718239,  4.355465915035919
12.441968836026492, 17.163677700544181, 81.832216274709239,  4.312138885808240
 4.867947409394792, 17.752170217713878, 117.161917413677102,  3.951769882553273
13.267209785118855,  6.691651152539144, 95.157286035867187,  3.778510748166984
 9.373308536827784,  4.408944445653916, 60.784477468353955,  3.891359250411656
 9.430916234376973,  7.764148847417005,  0.001297313017902,  4.048312738498635
12.241472764033972, 11.826411855180098, 25.683355588251338,  3.629901242472701
16.561954076110496,  3.681720666451515, 82.361135619262285,  4.217566424181534
 8.662682089777094, 14.883100996863851, 90.507387750234102,  4.158532131768304
14.278247375821607,  4.769798024498034, 28.316981441371240,  4.116885311269863
15.539105154629731,  0.720783212929967, 79.878536142134706,  3.694555557213877
18.467451526558381, 10.595425047411371, 115.953430492045328,  3.945601288926229
 1.247150640628332,  3.246064594645607, 22.786978719283017,  4.122596087493492
17.396007414285208,  8.437190182805940, 112.955878322749555,  3.727996128960454
 7.672813597030043, 12.061112506034952, 84.187445094197017,  3.920367895116269
17.975998900955396,  5.338129565674740, 93.140336354469255,  4.158958624020900
15.556869101266464, 12.557352373442820, 118.144535483656043,  4.328691134731322
 7.119322184017749, 17.264369630865641, 110.046316609389564,  4.104463552158827
 4.086073088541998,  7.546271473360807, 101.523285539375763,  3.934789463123191
 5.373981432427993, 18.445113873908927, 32.861558000772284,  4.180841555306498
 2.839512347919998,  3.534444065724506, 38.952707170563897,  3.868379957597708
13.302877535321295,  4.878100240373251, 105.143423402444483,  3.884535584856132
 7.933244603426585,  5.000563050887942,  8.764168373123834,  3.897036062169792
 3.492795531788202, 11.644569839146625, 77.876783873750540,  4.149151443839700
13.245855348354244,  5.499287785644451, 66.250782281760436,  3.987329787929772
 3.350319787336768,  0.612441954103319, 53.119708637194975,  3.560774649422207
13.319750004471379,  4.278672458022548, 43.395929017334772,  3.910416425542040
11.741890870949650, 15.227931586980878, 32.653023644997731,  4.185925315866741
18.266264382043193, 11.882798199095644, 59.398700522505266,  4.073705013400908
 2.204042518589446, 11.904444514792432, 71.364268452461346,  3.833820468477767
13.500255212490435,  9.049621804211364, 68.292157923210553,  4.196457543521543
15.945717845811284, 18.366191887508062, 12.587993779489725,  3.740260699016611
 1.572699316746741,  4.138297645538101, 55.631160355658587,  3.819353585134742
17.577530863969336, 10.422347826742705, 99.109574534210495,  3.799985010542965
16.516840355796035,  2.303476414371467, 30.657562957471992,  3.871783223449476
 0.945238625433474, 16.133676841820900, 112.770332644015298,  3.871286266244154
 7.257632927943139,  2.602675261713317, 97.594128250439496,  4.135918708423769
16.895069709318570,  4.540196230556090, 68.890928115509183,  3.654369335847801
 2.581377472170893, 18.600395344786524, 68.065240254389067,  3.440177387656098
17.648284743944686,  2.591028530600545, 10.712170259941027,  4.385168320426503
 3.961553325533984, 15.893808708124190, 54.878124743649238,  4.137751006264618
12.429373947446111, 10.355180347164877, 64.470976398716758,  4.054041908749105
17.008870993847971,  7.607446121536868, 96.426652463698844,  4.043631296498928
 2.099603259445893,  4.786393265404477, 11.415841372940514,  3.738470566394467
 7.137188380913874,  4.417959507388754,  1.325887375595782,  3.932495494338219
 9.201206303982499,  9.718567001243464, 62.049971844812170,  4.109094040520184
 3.164014083235904, 12.621312055128032, 60.105402620332001,  3.908011204373754
 0.584793741242040, 14.859747054324709, 62.023264338581356,  3.900887853653186
 8.285441559300542,  4.220733450480377, 53.234407922143696,  3.846460686505237
 1.864220554114314, 10.288631234469584, 33.988737224588832,  3.808793003649585
18.094164074315081, 14.375664454416265, 72.148537700750339,  4.153114802184031
15.843085116365971, 14.918980628787036, 10.255516228992468,  3.823872029511274
 2.812097021681159, 13.206467422520918, 51.812785345328031,  4.306702420384805
 4.541393999397660,  1.664616102546838, 26.688448025684199,  4.353597893557250
17.875168456352359,  3.262778495119418, 44.201418613159788,  3.960596789818832
 5.565536876730160,  6.701807085845469, 112.511974121496195,  3.938843788035391
14.447633729389935, 12.219202517647647, 57.809588068461778,  3.395037173526388
11.846531240047781,  4.080112741499124, 21.065808077404338,  4.110519699316089
16.933693502619779,  7.489573775003296, 38.295128424808006,  3.919775511955388
14.011193681569832,  5.035286255177874,  3.826879026283666,  4.069209101079092
 0.301063268966032,  8.951126350750542, 73.419029601186622,  3.875101169340374
 6.651543808958068,  2.207358615824229, 108.600100591290072,  4.246737708423076
 3.912853508638909,  2.458199378070558, 19.912573500737722,  3.831893365824934
 5.532406130882406,  5.650005635889623, 71.950614408956312,  3.962387181770536
11.920185856590125,  9.985905378224604, 116.355370288575017,  3.872575952132889
 4.042284471174248,  2.334396164828279, 65.871963139294095,  4.097762687597128
12.031282907239129,  1.335287724604936, 73.160318683325173,  3.940209252569105
 9.429632261220403, 17.788547268010987, 18.450352178401104,  3.881763955233157
 4.689481147670873, 18.741730150817038, 102.256676118198115,  3.970997268401076
14.018391563506903,  6.608167787164542, 83.915975056355620,  4.124865653271051
 0.379049703471080,  6.926378033735178, 44.556401141003484,  3.933047330130708
 5.174926094729925,  3.990022598716942, 23.287128630753287,  3.915115265136472
 9.064115765915929,  3.838721527614535, 24.006304397258472,  3.982150238224946
 3.775540449372662,  4.669735920615170, 14.938003646600423,  4.064198547129357
 2.709544182591066, 14.269267117354326, 96.938588758417538,  3.897096606702237
 5.361572672208720, 15.595353862895518,  3.232626769319543,  4.347456066333181
11.950756722642167,  5.805573829602036, 54.210869091698086,  4.250251054226174
 9.212477067798414, 12.042655026973021, 80.234590616849957,  4.134336237723263
15.605190915165728,  4.775843614069433, 35.832521633719935,  3.842876274045135
 7.781422848334393, 10.420500635211686,  4.303596687847623,  4.354358910745879
 0.893924766465904,  5.713205678557646, 36.591590615091178,  3.624790706304396
 8.832567645901777,  8.216356603590970, 114.446408191501050,  4.187723136886141
11.248612157964475,  7.515222941510216, 43.599669360172868,  3.777766445178887
 5.638752167905205,  6.703661038842044, 116.416784491761433,  3.866823674677029
11.806770014203575,  1.087893072732765, 48.610207658264329,  3.975151513569747
17.702899236221050, 10.071449566723524, 55.948480652093586,  3.796725993993638
10.923760883738677, 13.161247133585539, 57.508354086304550,  3.882109550425263
 0.445238573221954,  2.356298472074973, 100.874267003858620,  4.161587868761498
 6.605243356941704, 13.079002117196952, 38.838074311576442,  3.815670727583583
13.825636030156886, 12.706047682917776, 53.920613040914560,  4.310516581533070
10.591053437470222,  0.268914131961054, 21.885918881826214,  3.822152782912607
18.101245441342197,  8.097238086301351, 48.868202123715569,  3.989344980902296
 2.685427873144607, 13.040442235287559, 12.536466300847110,  4.204505934988526
 6.846930451880466,  0.312735797033944,  1.772790164834675,  4.016168150786744
17.420398624097185, 18.111867760678411, 118.446948515053862,  3.885301601178837
 5.287906947383025,  4.002190610255314, 62.361515370021110,  4.008462132813496
15.793251120406911, 14.014912085130032, 82.766161269814944,  3.999386114301004
12.487332439681166,  7.271190736559311, 112.722608352856099,  4.111739410799003
11.223709223146294,  2.263404542798864, 17.393457259223997,  4.109041697561733
 7.857083802696049,  8.148058311547919, 53.859614673942019,  4.054059713104066
 5.489389081396977, 10.579581329602135, 115.050850464243510,  4.063305127283362
13.987271587232030,  0.803903428759160, 19.994058490961365,  3.991520323018150
17.785018202454701, 18.016617111561409, 50.332401150656203,  3.904914915389178
 0.793154560983745,  6.507608313731353,  8.128106189936396,  4.105412473400205
 5.543278030034644, 17.899367758055231, 106.163175564825522,  4.198705499275418
 8.717143900077975,  3.552649958378093, 73.178517041599619,  4.022460236697573
 4.409151790511936,  9.369557776546740, 65.845398861661110,  3.818041159698134
14.286556069972571,  8.205046300590011, 99.452189723515190,  4.157084507669246
 4.295846215122617, 18.340654918152119, 113.184183780344767,  4.168892301450891
 6.320668206937975,  3.186245463552198, 58.513459220534116,  4.087665068608738
15.290545355301782,  5.975318789326174, 20.179892666655718,  3.944987475521621
 7.894346457837175, 15.267356643543767, 117.859870959944345,  3.983610900373162
 1.921551906200573,  7.158634091438995, 95.195144937307845,  3.818384804284444
11.828306093054202,  7.484776774925670, 59.638589357774499,  4.301328927801318
 7.592925475780369, 17.584034449459160, 54.207843475954490,  3.916657785605179
15.016888877015916, 17.778544057140120, 31.527617905359790,  3.895968663446556
 4.833897690574862, 12.965653805070884, 68.339563710687870,  4.356784007303476
 9.591571872059179, 10.869824592833055, 44.847474251263037,  4.083209794882504
15.447614672744951, 16.202220540667692, 116.007387395898689,  3.429830989532373
 0.007631759790610, 14.175753120434251, 44.762600126814590,  4.554669496019637
 3.686599313584795,  8.709700297827119,  6.246863843806541,  3.948569639580578
 7.848475097735371, 11.360617254409791, 65.578328426097627,  4.127444455516526
 5.357257702313430, 14.486120768953990, 88.071581844098461,  3.950501721698839
 9.965703431992980, 15.583266046821239, 78.129207011691406,  4.212166622387256
 1.314643579947396, 15.642201113793023, 58.162209902542067,  4.026413518930954
 7.559396781977674, 15.294696196317686, 13.042591702425975,  4.220339937372242
10.259937506675257,  7.917477899410875, 107.483928673666341,  3.673923913499398
 3.261087563635312, 12.748980555137745, 106.678012334555376,  4.348274742732233
 7.884053639320855, 12.110328458887530, 93.347352350413061,  3.920120052938128
14.339352290239301,  0.897945386362156, 86.691636832887468,  4.116367686753802
10.770280994972319,  8.113532239120790, 97.567805355932080,  3.707487076774401
 0.531057996589508,  9.308118493105312, 102.442404503015467,  4.203065981336499
 8.887531498035314,  0.275280484092939, 41.961893671081768,  4.078313821801109
 9.191854237888306,  0.671406462879098, 70.348044477281022,  4.076548189143257
17.598655811607177,  3.668332402302098, 26.007152875618967,  4.205201871715789
12.168585626327465, 16.749698552303812, 28.861892132148064,  4.015871583814593
 5.059977005623261,  2.746941059939294,  4.381030645905500,  3.961176320193890
16.284507818483892, 15.764851765399793, 35.304799996789406,  3.819176649906655
15.493173856134911,  5.863781725181206, 110.550965651029401,  3.763713939470665
18.642133591244370, 15.694923802452138, 12.751892573456191,  3.826293917014287
 4.391582722066013,  5.451767844996781, 29.490649038873524,  3.971466269017341
16.239785763345516,  4.523106817203413, 86.655974411469543,  4.060550631505285
 7.760540769917910, 15.036204373485134, 103.150481179289628,  4.306428937018511
14.602737115331784,  6.650225525129013, 49.911488940505691,  3.450452102405268
11.250781838941496, 15.998517509696798, 53.628302814808706,  4.030818290717580
 8.335555789803690,  6.034979008817063, 12.485740979842170,  3.845153010044659
 5.009636351187511, 14.705230597286112, 100.046273203727452,  3.869838962127125
 0.120778265103330, 15.908296519002791, 21.623890292152947,  3.806351379116856
 8.184669913092623, 18.075134816232787,  5.433080138824149,  4.084197737437050
12.491144317398250,  9.979694743534187, 104.689145829131320,  3.722182564019615
13.346168176756985,  5.691289218294560, 16.686143860039468,  4.069548734574227
 7.036495148599269,  3.298848349163418, 90.739929085550003,  4.052871881801488
18.679893937842809,  2.952412912861277,  6.741949632441013,  3.759319589180697
 8.149603787862857,  4.445435259859539, 101.099478280451237,  3.959806184485261
14.099453999296889,  7.916890839165018, 107.545970071510567,  3.992867070152836
15.865497903351470,  0.784873025201788, 34.765678014033014,  3.840260486280360
16.066527007216578, 16.399477276546776, 19.095898218655687,  4.086464418575756
10.609303524893713, 10.031049044640051, 36.977082123994165,  4.189310557913386
17.881514995413550, 18.383614031354426,  3.666636082411241,  3.626094924498821
12.965913792847742, 13.470313609275276, 80.061499209809867,  3.888006610343063
 2.241425851301844,  8.616424346885784, 113.496481850868989,  3.957089176033244
17.530025029407415,  6.014973305363589, 100.656245000884297,  4.014675575191831
 5.466943755910357,  4.112934907130188, 84.606518068701774,  4.348412310655838
 8.620360989832365,  3.757230099650620, 64.670460973180397,  4.089951586598771
15.757929732757759,  7.487760090723741, 42.264813786364691,  4.186310460580260
 6.328429604082182,  1.574104838619779,  7.928174019149942,  3.807211948576507
 0.371485761744926, 12.013512218870396, 48.534232839132386,  4.167729840250352
15.738786932666208,  8.929041882938643, 75.282406066314735,  3.555076033204938
 1.662799404170780, 15.348557765535118, 78.013881570939660,  4.083154517943354
