BANDS
8 8
NANOPARTICLES
cell(1), 18.966
cell(2), 18.966
cell(3), 118.539
13.676493160597996,  2.807813510056854, 13.259891474868313,  3.937550296113606
 5.910064478353141, 11.666154524981826, 75.254128385753461,  3.795834449394597
18.077679399331977, 11.982712686931810, 71.075005128053988,  3.903448043180821
14.734007218564994,  8.413913294942155, 24.963111671039012,  4.090867993952378
 3.771808167361168, 18.108677776851021, 114.444491492132627,  4.100995000319092
 0.566600599883152,  0.255689653968292, 67.871534495056935,  4.019981789013720
 8.983899810071215,  1.380197781911348, 51.133630488037753,  4.036358700013774
 9.021604828618258, 14.012494236556694, 47.453811820852110,  4.301702578786418
 4.983450103129623,  1.239245837342215, 80.196928758878343,  3.598539572136803
18.543941872990388,  4.473083624698328, 58.722002913815295,  3.885972714313244
 7.992759425725966, 13.470414136016274, 18.857856743574203,  3.942378461923781
13.122524878479339, 15.242116389733411, 42.941299563509240,  3.941253333740602
15.110204414781309, 14.407429532373657, 73.787252234318288,  4.291869133058245
 2.356564632344787,  6.552604443257506, 52.021444864081765,  4.251020368063372
 5.015062240105618, 16.458676812420045, 93.908965750607834,  4.016144848023735
 1.868873804477238,  3.773198813030934, 69.660932103082061,  4.202161057231558
 0.389187427272412,  0.815595447555267, 85.895228340632869,  3.899500332580752
17.084617131325878,  7.195994790984367, 29.184847574094366,  3.847628481257605
 8.487956748561951,  7.184375086783768, 35.180665336683617,  3.924212013953016
11.903219363217650,  4.798961238552466, 41.627147730527881,  4.058094269550105
 4.495690814227159,  6.009175793680980,  8.850915832354865,  4.173347712288435
17.874245258240023, 15.997769622406857, 69.935099822572766,  4.213447434251419
 9.474740771844873,  1.556011952834549, 32.051567487755463,  4.055358019398913
 4.200071633206626,  1.942480972768524, 19.753756752500664,  4.283482011276416
 6.668040266820096, 17.578170621450511, 85.134522754410455,  3.718189489305025
 5.721028435923614, 10.003301515936540,  7.727524764225355,  4.214988352173231
 7.279894007405208, 13.674606361786040,  8.454799647512470,  3.816715033275958
 2.699950489000255, 11.667936307651631, 12.906443060642850,  4.076188880708520
14.660951187974756, 14.190083677658514, 16.417639839900939,  4.195839022879382
17.907537779523324, 17.380637974690337, 32.881007220639383,  3.965534235883291
12.440305931430775,  6.766222314942437, 101.256839024948263,  4.303584278393071
 9.474909211040220,  5.117360085567595, 103.674731811960285,  3.997956129507755
 6.425779100718310, 11.485946538463757, 109.063782013072199,  3.776527518986116
11.183310285833597, 11.790633289946419, 117.992718649600334,  3.860629422438654
15.245717698725390, 10.047083746677870, 89.185474241059950,  3.664138487425095
 1.932741819674210,  9.278460067379145, 38.508320126798552,  3.817578524591275
 9.954288526683081, 13.543129110701743, 12.566221659481457,  4.076166060122497
17.741677238192047,  1.688408935738263,  9.117402545928384,  4.060461447443264
18.075127994086138,  0.085252322598960, 92.978446320459341,  3.910260191594292
10.009847778026222,  9.426928380791287,  6.130877232505486,  3.864300670897358
16.567882840359854,  9.695099481871848, 94.899752124049741,  3.834586013726605
 3.938443542394747, 10.146238729567449, 106.519349653522369,  3.793010930880879
 0.912031360510242, 15.424198937652259, 21.526849480775009,  4.066443841316541
10.203086006332608,  7.074796032925668, 106.966550724599330,  3.747079419226432
12.500677643700836,  8.320248593909529, 72.836642708392603,  4.049075697712408
 8.415969227039088,  7.131266527385740, 93.696452451734132,  4.211043389077198
 2.900677030582372,  0.644842650190392, 95.068934767033269,  3.905492801443071
 2.778037909657543, 13.724701850021111, 95.622267019203761,  3.815324305225460
 2.740034542675070,  6.549146895562924, 59.740007804310949,  3.827021887691373
10.585057022197011, 16.485142502754570, 50.566819988383017,  4.239381213749948
 1.789607470737613, 14.146304853629157, 81.383738078368680,  3.951172949154540
 1.416055236494619, 18.871001472900652, 11.448924133573277,  3.835645942797367
14.509374193614454,  6.851918756920492, 84.625148013156661,  3.774712470523112
 2.751487345877777,  4.126305467824830,  2.134082913556757,  4.027773449669072
 2.662047662097955, 14.196775641098851, 71.456982987864237,  3.922286249310627
10.773684842570839, 14.497142365771081, 108.326864252926867,  4.342702110892317
 7.530803057048732, 14.934444112834157, 22.618048447973106,  4.144001015475881
18.028550760729267,  9.507242095088552, 12.400424782296843,  4.432539050683411
 2.803012173985812,  7.186457506296762, 104.122992068931751,  4.152206902520283
14.837577794387732,  5.124771731412757, 39.078371185806738,  3.733327363260849
10.843004166194252,  3.504680225713111, 65.827198267617888,  3.947679805625927
11.047871190408891,  9.734315895978117, 80.020567384509690,  3.882347078949844
 1.162374922437761,  7.260224980039053, 63.223248195085176,  3.800875803212675
15.827118426466759,  2.732985618403208, 76.181253049981947,  3.601566622226080
 9.430544669826920,  2.447971754568777, 75.038320560027913,  3.971848907640990
 0.872091870464652,  8.944548992104524, 97.705769554473420,  3.968394982869078
12.181712137257039,  2.629689050221200, 101.747250114625061,  3.964599996534555
 5.193652453669775, 10.330767353844928, 102.744238895692931,  3.853378707682869
10.213229262376142,  8.492648274506678, 41.467773883283698,  4.061779363524268
12.960659679246062,  2.797404174874162, 56.669075517015074,  4.097521498782628
 4.696684134094392,  0.894305704208949, 118.148661952460742,  4.172714850442634
11.150500814523458,  5.733563325114511, 14.238992576739589,  4.016716701818571
12.890288753947505,  8.922659826117025, 104.813934539763167,  4.055347248944453
13.869006025180015,  9.890098747258074,  6.790339103643186,  3.960952876981859
18.325124914057387, 16.904077902125099, 79.575030851517553,  4.229819138877641
 2.740015656051681, 11.530202953456859,  5.334827449151919,  3.990880995166190
 9.569062633294253, 10.792722766322667, 106.935012671048980,  3.731347347113968
15.501193053370017,  3.728388807744636, 82.069531623609961,  3.911497264695313
 1.939912443769070, 12.610246254189965, 28.123633872175485,  4.108046147632024
10.225101543505168, 18.197388422692917, 57.331468242855124,  4.135421212929885
12.224312975935602,  7.097142217412191, 65.456195210836427,  3.772482283222397
 6.670992309747657,  6.827897368872986, 60.258707497518508,  4.077318368882905
 5.930819732778223,  8.590641270179358, 38.088502801063960,  4.229221585397379
11.218595956579568, 18.533782265535375, 67.340364955222981,  3.926967963423916
 9.123734329231278,  5.649785713714039, 38.795910157273596,  4.030197140132009
16.057948112647725, 15.346539380241847, 61.150790435150888,  4.156840426212427
 6.782758055914496,  3.632643956281417, 87.608102820591725,  4.492420118605530
18.712782402589379,  4.814959474048035, 66.113214144788131,  4.266012014111634
 4.495670932546181, 13.264656377812910, 64.326382559119708,  4.142063749950604
 9.428373020907737, 15.039237800396830, 102.116011684569628,  3.695317278875939
13.610185939333633, 12.250454253106206, 79.310689458834929,  3.437179507436523
16.273394087720764,  4.935531293962820, 55.452306228018088,  3.679679562155383
17.852257613676528, 10.139887417002475,  5.471740174219906,  4.040710674727221
10.517112278489185, 10.018574761082675, 19.639058653880269,  4.259332911258916
 3.984955181713534, 17.288537206037869, 37.802194094038619,  4.116274560624354
 2.073056184422029, 12.980572971410636, 107.954938747618357,  3.486301835164468
10.565840065601908,  6.492094030653731, 59.446356721173593,  3.870600166346252
 2.918308537714066,  3.304600967223226, 77.818415072500585,  3.925909061858354
17.323773953244537, 12.037442027960385, 67.179632098317612,  3.989276266948989
 8.526967916558265, 14.142530002946666, 83.766713365250951,  3.805512726860119
14.490897696478125, 18.628572502367465,  2.065065554182782,  3.930732314226747
 4.571765979439639, 12.344657354844440, 78.977409322936154,  4.200451052220266
 8.161110748174254,  0.007938270888746, 81.925940313683171,  3.863424908972492
 9.029446634334953, 17.494833917475230, 19.698974623133356,  4.169761621323863
11.988164729767734,  3.931696418849008, 108.485078837108077,  4.021708660876279
 9.606875713980539, 10.315218177895209, 103.216391562709020,  3.759699105972455
 8.729300964575437,  9.747417174581603,  1.610620101009548,  3.759960016733946
 9.369569558025464, 15.555967062661876, 29.031426712311305,  3.964321363688768
 5.348505438463360, 18.789689940380924, 51.285873004426378,  3.851529016787910
 0.020536241040403, 14.182761563882126,  6.421321802273306,  3.890616938665452
 7.573887177596853,  9.532350484127370, 97.057596058344089,  4.152198232004110
12.174647930560182,  1.174985389344306, 60.246400426513787,  3.859906221971526
 6.388111370876234, 17.960020243346666, 30.880805223376260,  4.018382043011309
 1.168635358174805,  3.536524778539148, 109.043345346151185,  4.039328434522620
10.301653715947143, 13.849752940288894, 94.499102553130967,  3.995135447545457
 3.400605825375635, 18.053892406612636, 28.196807273316995,  3.978285359141266
 3.644552777729838,  9.526874253263218, 114.387883184156237,  4.502282896430391
16.923992390395345,  2.762771071746716, 69.531076286310594,  3.832722108660113
14.928349817692386,  3.792189083361044, 91.776295478199998,  3.590332144884382
 5.057235982694769,  8.718975293573362, 56.947314682196435,  4.137284912801663
 2.546876222447877,  1.996749690097948, 36.837925999480973,  3.969060609173841
 0.800689696185625,  3.009554298464838,  5.682771487809318,  4.328104564849177
10.951590837209217,  3.129781462265504, 26.962553711216206,  3.628658959167105
 4.354578510488658,  8.467051762832392, 45.730249746720602,  3.889271101178594
 3.181644730591619, 13.057733065409652, 51.125057217138675,  4.181418668311822
17.154678470085752, 11.696073172765624, 98.382644023771164,  3.821355030624744
 5.837740758031441,  5.083124081186716, 80.095640459012543,  4.271638250100165
 8.811824839517531,  2.477676447080449, 78.958082588524917,  3.955332385987777
 2.973479014563045, 12.908103500421698, 38.074495479263156,  3.778461357614663
11.676669646194902, 14.775314538534021, 24.114482390758482,  4.242129930679205
12.694454151500757, 10.327776283396222, 58.226202529376607,  4.339511807385034
10.044384059522788,  9.666993149204227, 13.498353790844872,  3.898503127944726
 2.312896054740480,  8.538146835772418, 42.369238920267769,  3.868989532025088
 5.824815315195785,  5.746253267123478, 19.732865855289255,  3.980199721828561
14.463778844939574, 14.885398794585866, 84.964334645773633,  4.139769871049922
 4.245331881137897, 15.974836303452337, 53.643014379305903,  3.804854411462861
15.910687806540164,  5.666560141572174, 94.855057997440781,  3.877826335195638
13.697331367576252, 15.788235427384258, 80.540749674953659,  4.035125649255981
 5.593914260803837, 14.315277953246140, 35.379623393526494,  4.149537609406512
 7.846447565237332,  7.980166376023933, 109.782812011906287,  3.804861585646328
18.660157316505540,  8.487180566023619, 72.951609421441091,  3.881986526683772
12.712095275029244,  8.249639133017572, 10.562414649938040,  4.519960544660121
12.879644460268183,  8.363048966905298, 61.907249016468199,  3.839487224251926
16.260753970170637,  1.636019018706824, 27.509468125721455,  3.662896569338194
11.144306920681938,  1.254826840182780, 113.513279148764681,  4.263390837204494
11.079999749425360,  7.774014888262673, 117.618902271491606,  4.193494774655883
 2.437417815025125,  2.148684734098732, 25.893875401916834,  3.754892748058624
 8.387569841341600,  2.604904069169787, 20.118058665800010,  4.030090509394941
 1.027980260444744,  0.064017165754644, 89.620189817450083,  3.806575272516696
17.077123522494809, 17.966539499651855, 22.563722734664658,  3.704796339657249
 6.237783060166714,  7.189369013673694, 116.492805975306680,  3.632800171434612
 2.258516170481704,  1.631320158152948, 58.410076893683510,  3.891905894268281
16.197969971261514,  9.904086707737536, 77.508896514932601,  4.372420767055180
 6.117820958133042,  5.984185945588678,  1.509687243555087,  3.758199734064652
 1.441435843527169, 11.165642720566737, 45.237865122175897,  4.096899061230058
 6.991240332599035, 12.853081462025592, 39.264990979928996,  4.602548824403000
11.197257148706429, 14.405110816509991,  2.992042185130132,  4.136560397306662
15.420869308373490,  4.801331758647348, 23.343634624657906,  3.934312341401491
 2.077919920400523,  9.911080616617955, 76.954191951648497,  3.835829965064987
 2.228153240949870, 17.902103305782557, 110.703267643320103,  3.979418168305706
 0.922099795806398, 14.347107348107537, 98.977519904922829,  3.841793790600166
 5.700820028585246, 14.538500464104088, 68.464972174454772,  3.658606595378841
16.087819330656362,  3.316102262449054, 107.975760713429182,  4.320051867758857
17.428904048098961, 16.476367323581368,  3.589134116296993,  3.940539234713928
 7.564100860842329,  1.241315041072665, 102.888915301126019,  3.838010498670894
11.309197546971017,  7.531542464245827, 28.716507255367947,  4.274642688486400
 7.759608447047152,  6.444956395831429, 46.005045008126707,  4.036878755371795
11.928017749425992,  2.905125022138868, 38.177470077012131,  3.803522697258772
11.583893516681348,  5.948825067872061, 69.382411645058070,  4.492735554874724
16.111478155865527, 10.983654387544558,  2.113258001393330,  3.654469855555694
 5.823938798843291, 11.561296947082795, 71.098419435605393,  3.815190127731843
12.067083780946367, 12.833964539251820, 104.764904208002108,  3.914181615798169
10.293540589448542,  0.747383033582305, 15.103406170977653,  3.912698800938903
 2.764083567062913, 18.960652793391244, 32.785968416057187,  4.277300558581813
17.050224634305827,  6.005163705816458, 105.003759288138994,  3.918588783823556
 3.999425434723038, 12.868051698363706, 92.043564644416051,  3.936285160209851
17.344969791771312, 10.702478788105717, 39.149083879239427,  3.920622375342869
10.246695107287517, 15.867555202905175, 40.046121993592998,  3.947448200998692
 3.038147240486818,  3.412345909130306, 12.673560860681306,  4.263098147219379
 4.423953603061157, 13.516519868741561,  1.966066588639940,  3.945254611562084
 3.798282739857297, 15.122473789808357, 41.286499542658497,  4.050649001798027
10.376062043064465,  0.070064254294774,  7.721586199035092,  3.892615010283119
14.359944696927458,  1.112278040423218, 24.290936429276432,  3.867711368967934
18.726362677911162,  2.181599732225532, 104.658227689945733,  4.455320683465417
 6.230976420302906,  7.410414615573000, 42.230912810327844,  4.281931564363108
 6.942328711995071,  2.010765653860767, 114.345977394783091,  4.339449897615611
 8.190369694048441,  1.450130350068059, 38.470148900689658,  3.425272009648492
10.560364004165237,  5.241895974586415, 86.012470939043851,  4.309352680712077
11.866700623305231, 10.878965158993180, 65.677323268537762,  3.760505246022089
17.390215213534770, 16.795396975829298, 87.647387571515779,  4.058396502991896
 7.353500715173275,  2.319202983618788,  2.628174029567990,  4.283764485263850
 1.066780256447414,  3.907361589270245, 43.044114208828475,  3.762364779176339
 5.233201089098337, 10.482755375177540, 29.275583646192551,  4.047521429513226
14.352793645130483,  5.003922054691009, 27.212201557253341,  4.101236665141866
 8.505434659206841,  7.113066532419357,  8.997555692568843,  4.083639212710454
10.037123460423008,  3.143960795747497, 44.950065192434103,  4.225547056769049
18.438009922115981,  5.205702729610664,  0.010251852038066,  4.032153131400713
13.405470220483958, 12.921043232859310, 97.151934907812603,  4.039270489371593
 0.708821816754967, 14.146560853370813, 60.288061362700361,  3.625204200078236
14.101771205337000, 10.763789642546191, 13.919304299965820,  4.311565667954420
 3.813431900689019, 17.694903924855460, 66.103188491825776,  3.955191430715161
15.796219492613833, 12.565241219948195, 54.313103423310629,  4.150403390179046
 1.550653268977565,  9.272354503404825,  8.670271766952768,  4.405024667333633
 7.618800716196339, 18.462602848633438, 88.877263822638128,  4.142877606978360
12.329147741839684, 17.184668964199929, 17.548886865290289,  3.712201838691291
12.876579453439447, 15.284657570860322, 54.249158618442671,  3.779132813256779
18.924580028481703, 15.802677041783417, 73.806323981314890,  3.811570449889545
 4.172513653475547, 16.343764875250262, 89.840045659822039,  4.090496522866476
 4.826719348498410,  8.552409507390980, 22.688195763166910,  4.202108313005190
12.978541677066310,  4.195534820868899, 73.693817682317189,  4.381760036445455
13.478760886459932,  0.208754673186853, 44.551533797924087,  4.017884238604750
12.047547281841760,  5.995526362078444, 81.481696936145710,  4.389130042220806
 9.850248079939167, 17.589316683794355, 44.825807295738997,  3.884365364679509
 0.637272881035428, 15.931370919106945, 29.745399047985206,  3.634958216350733
 6.521789584762422, 18.952864879548784, 22.616525507700182,  4.052332601150757
 8.228818027938862,  4.699751796220857, 29.112761035624683,  3.888941067038948
18.411447499104430,  2.300934602967255, 34.164973925112477,  4.215741667060581
 4.721609130236095,  6.578647257305218, 30.401557385784951,  4.083482483503942
12.843915694547594, 11.688720855099399, 47.421583702948240,  3.849860142613065
16.244343991641188, 16.282155919586842, 45.003973060591093,  3.761025933620008
 3.600643672321112,  0.300569636567971,  3.724804949416987,  4.389107328261000
18.185129075643410,  0.960411101202035, 82.217656052378729,  3.786306090205934
14.909725818705645,  3.048492446562643, 65.499770511157465,  4.200143093855347
10.162914759741437, 12.030426632422859, 86.685311335896699,  4.095813209094390
13.370138709402148, 17.919254136494981, 38.910158859407154,  3.813904947807071
11.581707228951753, 16.462871918489604, 111.925694398357081,  3.919353286905884
 1.805423985147256,  5.366629719768922, 19.616393671230611,  4.066278953555754
 5.635422989300714, 11.646176294863343, 60.001982155406338,  3.769392159659207
 7.679952303893292, 14.565897171681598, 111.176485291775649,  4.054180060990413
 7.720519961807399, 12.092367075076618, 100.259836791171324,  4.043435883519671
14.618401955034578, 12.410360986679024, 25.786163417795617,  3.985464242670075
 5.891474969371684, 13.295858545958250, 114.528321830008295,  3.940036719102322
 4.259181691904617,  9.299832948278887, 49.576611197318499,  3.950327987519228
12.359585009815669, 10.426845163134988,  3.038521275524500,  4.153014933008339
15.800429795896653,  4.624374323650171, 10.693278876343042,  3.649890969384766
 6.348159257617822,  9.739435592024252, 18.942308447111991,  4.205385624943234
 6.787726443815261, 16.924778115718542,  2.367182370761544,  3.898986900782348
 7.378288776708463,  8.976523312108247, 81.472821394136062,  4.045311445342901
 6.412711472830338,  0.847584244649834, 34.787942745147390,  4.212511495030277
 8.287501236465820,  7.058592845215973, 89.632064975359981,  3.915849381987186
10.527031012612490,  8.851390486474273, 84.078722092827277,  3.864114583610881
18.368864801726517, 13.991242817736120, 25.119077837338121,  4.220974508996412
10.661749243407826,  1.618896378717601, 105.388384053768661,  4.136360829859627
 7.992426647358281,  7.656755182007688, 100.752199699453570,  4.157405369511272
18.129490011741868, 16.283738531167845, 83.682498615131408,  4.062935502497814
14.949292561481819, 14.684315813052002, 108.267751956790477,  3.854956482799887
 6.911397374126031,  9.878471879269755, 85.434825797600652,  4.062205257647754
10.096571280634327, 15.958109825815134, 70.228675033775389,  4.048607366511780
13.271623771557516, 11.031080540478657, 108.343871932885421,  4.185773945299275
 4.741676326613960, 14.556921606580554, 83.877992697121186,  3.811711162740934
13.955996530173620, 16.837301726739767, 70.676743178085971,  3.917461341034196
10.504592898230809, 11.492384621605984, 91.066996812845900,  4.341566919725652
14.869108186750074, 14.580490653005267,  1.141630736975027,  4.066807294383384
 3.258458277592463, 13.342757565154828, 104.393663510545167,  4.003409082648884
17.416149197820467, 13.454695528983711, 102.012469559391107,  3.934268462475444
 2.794410968067492,  0.498481263198692, 43.985367066436851,  4.090067633235500
 8.342233970872250, 11.869765410173558, 64.301642506885187,  4.040569953980518
18.886298091780947, 18.053387118398568, 54.454078439518987,  3.781455282551862
 2.853151475534475, 18.090694135323933, 82.797464220880769,  4.340659598703447
13.223173930649203,  8.417418528858702, 92.053827847079901,  4.072514201417958
 3.417676033034310,  0.634937544511200, 54.507467144409006,  3.818649179949182
18.587484728111331, 12.148538555370603, 74.979441430418973,  3.885162176675131
17.631144722662537,  3.508924832475247, 113.974302299849299,  3.890043544553949
 2.209882676440929,  7.797163757354862, 84.674090570292833,  4.103559209009018
 8.188085820581167, 10.783341443135440, 22.951477291916781,  3.879775282712469
12.105457569800253,  9.685291421536538, 114.052596109542833,  4.140695850235616
 9.341440698154079,  6.535636716291039, 78.150488075395373,  4.245110161411249
14.197517615129247, 14.175171112975239, 57.733269349620095,  3.965532708661224
 9.466266664297178, 13.536369903101891, 53.439229630727183,  4.045955866682748
10.907992462224533,  5.492417554101505, 18.924660584172436,  3.855560719110085
 0.256762809560703,  3.831342566623384, 91.815233260066478,  4.098908180288346
17.004373681323603, 13.265469345811727, 28.897291332755422,  3.935125506435874
12.882218326688950,  7.716020867731753, 76.681338777654403,  3.719068977458721
 5.739199424621208,  4.585281848211099, 36.690117123113637,  4.172496322017749
18.204918220901433,  3.044201352452508, 79.022907456633533,  3.829770895439254
 4.048274958001781, 10.870324265884250, 82.770201267869837,  4.003352275487712
10.195662987343058,  0.323029435117834, 63.542843995215414,  3.968148124782806
 9.767303520770280, 18.736625437152252, 109.017057606127040,  4.195959635599278
12.034269732850504,  5.223244096222716, 94.249071915210735,  4.013651765910488
 6.103042444154336,  0.861635823646796, 57.134791312816020,  3.705835100701859
12.906279895150314, 17.584485129149719, 106.753741674764257,  3.792361013768023
 1.428683086878990, 10.796326465591958, 23.479600362636194,  4.019830712226486
 9.830379385357080,  6.310860523991142, 114.010878269011030,  3.937220531660637
16.336917875096354, 17.655425951056408, 76.058767491548124,  3.980607822817612
 0.534849563750189,  5.311563957862337,  9.900341352383291,  4.033536793162120
 4.054299895138545, 11.148726295644593, 98.222804353610442,  3.832427457471711
 3.874708136736257,  7.592610105164927, 100.089470354316731,  4.160723913752322
12.524163590347564, 16.513957997451431, 13.707900783957793,  4.094903105748282
16.898160211986909, 18.140642412942718, 101.951095406587811,  4.405953447313816
14.818675302811855,  1.825518895561421, 95.055348605035192,  4.053448405910250
 5.909247913621805,  6.096247219219832, 84.199742115892732,  4.075129174444674
17.525841382449702,  8.783101210575397, 86.293118262795517,  4.115341718908242
 5.804165626287128,  8.267548658477853, 73.321437328558730,  3.977168152216825
13.815556692848352,  1.948804473156276,  9.031868487898755,  3.785309335729367
 0.433835077200676,  7.012035529861476, 45.663784534407689,  4.299636409559230
 4.213762749723161, 16.825086309334285,  9.731370567126646,  3.848645967813658
 6.726102436104139, 15.967332124010726, 57.333698051324397,  4.125106425630752
18.357083320449881, 14.686344538982453, 38.869998820808590,  4.191012018673567
14.589898672510611, 18.865888026973710, 90.893176340953019,  4.218232661803597
10.550927534498070, 16.018587497814007, 87.405287058692124,  4.038550153689937
14.298917375510689,  7.840507913906824, 41.801263662927823,  3.664447704759660
 3.893399989715588, 17.811361314919207, 70.144793751218899,  4.125470313005746
18.798183403012676, 17.343377370876595, 113.857853250529161,  3.988262170691089
12.926671590959533,  2.916267749172252, 30.360501592673604,  3.956826985442799
 6.239883736976584,  7.842549498487737, 69.531176643968010,  3.664559150965020
15.114363379420757, 16.449077845903183, 25.461649652495847,  3.858504942897141
 1.124368417281833,  9.444478353245030,  2.520581787229773,  3.494751950331416
 5.545470238962823, 14.542249551723964, 28.295890843853464,  4.075290635939304
 0.265855688727799, 17.873783688386958, 60.469252713447524,  3.884763488561990
 2.780476879577117,  8.159251321045661, 26.467013861182210,  4.347625946216225
11.420308217561265,  3.908912971572160, 53.037018679515640,  3.869891854972217
 7.406879252904942, 10.847493576114282, 34.776697850111184,  3.748639812748034
12.958589033922630, 12.355242914599350, 10.418291735654421,  3.652127763739686
13.241188002920181,  2.249074617150692, 69.172422182055229,  3.624033997979270
 3.018051785232852,  4.531444239701141, 97.436280691863161,  3.999760976539295
 4.190337278695243,  7.908077698142336, 95.534820011432927,  3.941938943624498
 9.652017653709089,  7.356830881757359, 52.419973720330269,  3.969128583759659
12.794717923543466, 15.135251236590323, 76.888197505306394,  3.561421792881590
 6.625413498616017,  1.019627173923159, 44.831175538383391,  3.805390535340164
18.269345379570805,  6.444764281876536,  3.837523829261648,  3.991452612541450
 4.856026622500789,  2.593784085143620, 30.111045714975464,  3.879017513649924
 7.866984319293298, 17.001094499676576, 37.230842322619850,  3.746356899765003
 1.878911396873127, 14.252404760550807, 67.466996821573630,  4.207693242445921
 5.528439133349639,  4.551767590747203, 71.512087222470925,  4.145196026087145
 7.932334267954693,  9.856586666119002, 114.193020744741801,  4.084498480565120
 3.637719300251594,  0.244919508101888, 62.304896871830366,  4.218582258865602
 7.184088977928143,  5.106570606774157, 66.681095311564690,  4.213885942431458
 8.074765062218278,  5.751716960364340, 55.822862805584322,  4.159912613841774
13.513437973478400, 13.569164253850930, 88.863756312351072,  4.175938485140518
 1.321584954916928, 15.665362639011482, 17.456400861925186,  4.128042200210902
 9.521590402812953, 10.859352685828565,  9.668454428083750,  3.767122525021645
 9.946307208173291, 11.171107886643824, 110.847752717374206,  4.125703844273059
15.565819795889809,  2.004544270971585, 20.170591184924906,  4.498163823090700
18.672874723468315, 14.679998005659172, 105.639664660105709,  3.909716281334655
14.953052760212181, 16.321718138071468, 35.557936440432762,  4.259242807080531
 8.823545105063397,  0.097810892616049, 117.841892688155241,  4.237058754555211
 3.515344043701655,  4.540320087376580, 89.861885351796431,  3.563208896489142
 5.022500238985740,  3.080633604911849, 110.158296363542945,  3.785556190171018
15.763219471057582, 16.354737223959070, 111.614961006473450,  3.797557228405067
 5.265474708675899,  9.239504283776938, 63.616085334340944,  4.154587514411028
 1.704594453129713, 11.384268955086688, 101.342503256950152,  3.883575335352414
17.996379028625441,  0.874977133099474, 50.448616909218060,  3.826692102948367
13.484402206611653,  4.080635574739193, 98.212981283198246,  4.074219066660912
 7.331311389712489, 13.139508907517664, 104.730676915156494,  3.982031045562666
 3.874806741706939,  4.526577835235098, 23.079719277873995,  4.105188015989950
 6.600957965861323,  0.179776423421273, 16.720441323099795,  4.190002454999222
 3.583370492645381,  1.027954614596406, 102.466843776063129,  4.017199806002495
 9.054687947282574,  2.408209617275549, 69.338979635366940,  4.205162055422872
16.135958153688890, 16.941346287769885, 18.971891830375007,  3.794734647117302
10.159993389133072, 13.350683895079239, 114.388468562609035,  4.184710052146992
11.222841347295565, 17.012758471244027, 83.523418228094059,  4.079115317019489
13.915953164348194, 10.727652771394945, 85.419599452875516,  4.223768665737845
 3.794666885411558, 16.835786553740210, 97.830387892880665,  4.075891172474390
11.696821061771820,  5.194455044516427, 90.303475138893631,  3.846065804883820
10.171386600076588, 11.556823047363919, 29.344403560474099,  4.165042515047249
 0.872126568599866, 15.058702319812298, 44.090186756038612,  4.047697157099297
 1.769343976457408, 14.707248255625252, 77.082625756540907,  3.973113978230670
18.016425517969797, 10.107699285940001, 26.675238818086878,  4.045216897661105
10.913366093772362, 15.348958696323319, 64.696897865987921,  4.343687633590047
 6.804836326751338,  5.500466528680982, 12.471628788973446,  4.294543416654794
 2.556745295098111, 11.932194976739533, 57.559733457241421,  4.080250477202146
 2.929678258190801, 11.544686600173820, 17.110647147385055,  4.344130162602410
 1.451815308351854,  0.923826339085059, 99.055239869048137,  3.993519683239656
13.682005834658566, 11.974206573687530, 35.533373950105812,  3.709834610131965
12.948922290909348, 16.766164446827403,  5.781784585345287,  3.956169584503936
 4.516734660718956, 15.395020145784374,  5.788307370659387,  4.560841958646931
 1.898458412000570,  7.684581434031834, 16.471270255286505,  3.701711186351738
 8.962930690792600, 16.889088880454860, 105.443435530228598,  3.973790909242716
17.235699362077742,  0.846700222474227, 57.582039544317936,  4.106842262883931
14.745034205415894,  6.923798197742678, 52.465937742213256,  4.093970061542147
 7.143530349062592, 11.709522142349716, 15.349130815851137,  4.031776658900101
15.777153554447397,  4.281266117607506, 101.719098474639139,  3.925230864296132
 2.998859085009524, 10.145928418280718, 110.267585544101792,  3.928778295144511
16.595260908363592, 13.425468701346045, 42.363344341451857,  3.977915104551099
11.359972987961285,  0.435787643219913, 11.380974801555382,  3.613580138774367
18.082470799956813, 13.838974003973052, 117.611809006792669,  3.562734503204501
 4.854349250890337, 12.722965973031709, 47.215009408166686,  4.347867813409575
14.608596598893085,  6.437681376999811, 32.149566327073117,  4.011339317347709
10.223217424170576, 15.078797457533851, 98.313616659569618,  3.974858053125111
18.340225903760565, 12.703182132025759, 63.444757665327337,  3.778036176825926
16.327118772486255, 13.997250365032128, 77.650689892984630,  3.801870038886143
 9.039291837679821, 15.878731523840012, 15.813065967065722,  4.096444465814486
 4.410966340948062, 16.743346387644806, 19.954477598029467,  4.043159759801745
14.620506500199998, 13.376826089177218, 64.472179074679616,  4.054845835100271
 2.138968800160657, 16.015688469550796, 86.361516081019346,  3.947040830831728
 9.037494092321893,  2.916698917185144, 58.611548695043524,  4.019825975344047
 9.540827175909525,  1.187055258631327, 85.471300178921027,  4.023860504195500
 0.143916212022125,  6.667829471820540, 77.922696151087266,  3.956088899947937
 8.045510385796227,  4.064618862553902, 16.318789221883513,  4.131579599763317
 7.461760848538466, 18.710186273137797, 60.620133657603901,  4.095598416196228
 9.125870664250042,  7.963194282107454, 63.276564979304936,  3.997871070777575
 3.713243788273335,  4.268810997166213, 115.897349193026884,  4.113013074361772
 2.918142994188321,  7.598113074105976, 12.352187827536548,  4.128792924286499
 1.490000976290342, 15.235208093270652, 35.214880871708644,  4.145471282590834
15.156746505984760, 16.685594312000706, 94.923260868797328,  4.184054365327602
 4.074356156575073, 11.321766455670369, 32.874380372095239,  3.668962282562765
11.978793863145558, 12.446164442344243, 71.808351591243877,  4.051613706971634
 4.173300601816258,  4.503152949188292, 56.320852016639193,  4.042424945115231
18.671507252463520,  0.987969163152185,  2.196013930807394,  3.899366297306910
11.292197392704709, 18.854593674335231, 35.478747714970886,  4.368661786957769
 2.808044307929656,  7.448910655429505, 70.952262937504429,  3.787809589009581
 3.418398128789694, 17.608303974669333, 74.182100901212905,  4.007448177347906
 2.099155229830965, 11.443282166962954, 117.948180515229822,  4.114003822443759
18.714780265102096,  7.191201811780265, 23.205528308380909,  3.915741311731246
 6.962369156467173, 16.500831900039099, 63.979330141678020,  4.005463577652145
17.695174504060393, 15.875678849217659, 57.520220986389866,  3.819289977723315
 8.587588230813928, 12.265944404461738, 78.269731536421943,  3.955688126122605
 5.048640344388160,  4.747920206310382, 26.887128909277330,  3.867426247467873
 0.618437348347641,  6.690751468882006, 115.045899741008739,  3.864921438015601
16.728328174073589,  3.469705221198901, 30.738227446031448,  3.736275916661421
14.616864445019653,  1.349229590139263, 104.673239830110816,  3.854024699897731
 0.818578154425184,  1.272939588037862, 116.588804600336800,  4.210003691862340
 1.781458453040474, 10.401334463885155, 65.657966366688981,  4.169236869169414
 8.365432815702938,  3.452284497706627, 91.678321681964405,  4.153394272849606
13.586228601785596,  3.917078290125111, 46.736816005466963,  3.809997704045418
12.649661696260377,  2.277825947472877,  5.272696307286047,  4.113742607652122
 8.068796630421668, 13.719432436398654,  0.611245168742118,  3.819923102022519
14.884234379536251, 11.919498620310709, 116.237391569313473,  4.219061213055947
11.289042092510496,  6.255575713471739, 24.748541373883810,  4.047144228204794
11.752181989727259,  7.114434739573152, 45.058457548140922,  4.214995667196121
 9.092421359467711, 12.523135894224529, 68.245658851463858,  4.087104368704608
11.917135273011375,  9.423626879662399, 33.038122467652471,  4.169136167822593
11.587989057416394,  1.555928435089621, 92.931971005824082,  3.671794941087987
 8.998548912801429,  7.846885497359460, 16.681598736811313,  3.676531027356120
 8.968859431655879,  0.358294265959450, 28.334406390147869,  3.705382935663399
17.833154628731236,  4.416249498489492, 52.056409939710932,  3.863512226188075
 9.266330838058149, 16.674801678560460, 76.799725082555113,  4.103466442635888
14.875331352071088,  0.831964694128785, 32.988878016777541,  3.791210456044374
10.528521361966032,  6.431310418766132,  3.055734587413782,  4.270480560963791
 2.706574498955531, 15.729874051514376, 13.535303265121289,  4.133480072742029
16.020613100652266,  8.787158416300029, 56.075248975750775,  4.120417076198325
 6.220599578919354, 18.356038767282875, 111.108393506636787,  4.068475539957655
12.822632312219937,  8.220481051654600, 16.838581742129964,  3.832172771691242
12.626615137281201,  4.237851309969991, 116.061580590036229,  4.122874190883103
13.758103049552055,  4.206365074880766, 112.112717320954260,  4.068290413431821
13.177043163228522, 14.340902154028322, 28.992282072919515,  3.990323246782824
 5.031201275211054, 11.521413417764030, 43.046204679504456,  4.310798130276496
12.602258394292784,  4.515618286873368, 62.447973247944887,  3.929166834407603
 5.696938404407208,  8.534128598124802, 77.756532351585747,  4.064607694619271
12.113005214815226,  6.859947276440954, 55.720823500514996,  4.209046158702528
 4.764590603412770,  1.189007922396685, 91.474335851872794,  4.261423255424869
 3.436583170446995,  5.520214385029126, 48.184362581592524,  3.975226472139106
15.942179369175305,  2.385695686416129, 117.325918176240762,  3.882444107367666
14.560317179138258, 10.978329805192407, 18.966679195818429,  3.942508735162827
13.724415470374225, 18.538146417129497, 98.205223744613392,  3.762887770627649
 0.365151358093527,  5.903833328718186, 88.412241014213251,  3.869618265932457
 8.601467396464137,  4.007763471203447, 62.525178165081265,  4.094380547846479
 9.135846826081821,  8.642613162310038, 67.206036494649851,  3.928176237012011
 2.123227075454293, 17.955795342996389, 106.549799467812562,  4.328020665955691
13.026471142519810, 11.276719698307629, 22.456127885487806,  3.684268218589388
15.418319963323269, 18.200660662178567, 11.352288883162647,  4.034274858592158
 0.671890576243619,  6.556061104092302, 94.642491160584953,  3.782254181470738
 2.295667952051124,  2.571665843494879, 51.402601093276139,  3.766268805403140
 7.585556394989561,  4.121736377781429, 107.211353096314738,  4.072070010913301
15.200739582566579,  0.389212513674890, 114.017591088058936,  3.970725812270094
 8.384430582345695, 17.054892130143227, 114.268416018710866,  4.001636544921319
 6.760550270469796, 15.013414617724585, 50.833143763851666,  3.973222415172060
18.382545628388055, 12.823309715883148, 15.104849607156053,  4.135177833400805
 1.689034980776135, 16.436204440968229, 102.453937507362312,  3.888312215404627
17.429105182205024,  9.698259167455140, 43.093112137826232,  3.777532310848321
11.231881000297273, 10.280482064560555, 99.327539788586265,  3.995032679210718
 9.019608479510135,  9.970848842415551, 59.933665283686409,  3.782702362097752
 3.777421778676421, 15.094838138718121, 31.854728688916978,  3.927463184713207
 1.837812211863675, 16.609337774507306,  0.463974433619465,  4.597832856293929
14.043748667990457, 17.831398727154234, 56.665161487636070,  3.609055835601786
14.956976437671736,  0.635313795380345, 79.430652804199553,  4.274449183421908
11.126095173919758, 18.511060771507150, 79.673511266650181,  3.630296997203233
 5.582066144158857, 15.285257743838795, 76.473251192581415,  3.768089511070140
 2.848906146340490, 10.150262793527112, 53.910407521453656,  3.892960666653947
11.995084026199706, 16.137830825897208, 60.530468383169925,  4.155288191268314
18.668461312512832,  2.891353156841924, 95.724220266752312,  4.014692584128123
10.412292024263571, 18.448827778071539,  3.130717344565633,  4.105369719731596
15.530358430550788, 11.181619302514379, 61.213036210255360,  4.011203552802477
15.634464458756385,  3.602659859119787,  2.601416211883762,  4.129857277971261
11.806165587313123,  0.020575838903866, 53.640083794257286,  3.979249556831943
 5.573023780189002,  4.621832189416917, 102.311288896138521,  3.991690698698276
11.807999051856871,  2.861655487052316,  1.300351671539625,  4.071391565372174
10.172902158305503, 13.664582670592736, 57.459753593325189,  4.104886270501496
12.547341306835404,  0.068545324485471, 76.004737423077330,  4.083437454178529
 5.416042036114531,  3.092158782970537, 60.077796630109148,  3.794493594310373
16.112164675049776, 15.483802371427833, 98.746818396044631,  4.051914669941787
15.025770755434513, 15.364449529767644, 104.463890802957735,  3.837644914822004
 8.882555190195891,  3.682096366370478, 111.023930327189902,  4.015223616595930
 4.746257498349729,  7.873691598070899, 34.273816206443783,  3.885692093293482
11.890025149848391, 12.743784730220742, 82.513199986391129,  3.891987045176196
17.511460054742052, 11.494492395860014, 108.975986704330523,  4.431560631395742
14.257194852272409, 18.445788947447962, 50.316999408185993,  4.098099664647498
 9.383425191989662, 13.337226658037967, 74.623007233891130,  3.803715736823408
15.384347182586611,  1.623021940957668, 36.879083952048035,  4.002310797324766
 3.741893672882698,  3.465114871605241, 105.798878342262626,  4.194061857395297
12.210043584657313, 17.705058374242078, 102.838591766599890,  4.113920657989060
11.878467822098017, 13.991999923591322, 19.875310421223976,  4.147584399012714
 4.905528841471741, 11.671226575042921, 25.403463531033491,  4.064098698879316
18.405078146364406,  8.037251894945118, 101.737950228094505,  4.237113448730196
 7.511057617017137, 17.883127134759008, 48.077598062365993,  4.094374771539795
 7.210265201932705, 11.185835720378947, 93.456451694993348,  3.761738718622454
17.596186401752892,  5.653626110114528, 98.447231633014411,  4.027833477473535
 3.313581109438253, 14.013638531466910, 111.424346883010912,  4.115044615658209
13.841516652582754, 11.021497406399236, 43.765136267243882,  3.844880387758952
 6.046120073536144, 10.815571662436060, 117.596940829089505,  3.902822616878421
11.694189128235047,  7.431155612086664, 110.601178282288103,  4.128696416832420
13.019779974487680, 17.674626946231964, 21.398256647356586,  4.115262316218461
 1.499687208384102,  4.362084669872883, 101.288259171326260,  4.186786243352602
 5.999393933228420,  1.146129604683349, 26.272435487167947,  3.682904943723873
 5.867269214478833, 16.093740745447413, 80.349162874479063,  4.139147310911411
14.774372608534058,  1.835327555896842, 41.139659446733603,  3.965902115665711
14.171038149731023,  3.133404172888041, 85.770457154506985,  4.029275759114961
 7.877054347161547,  9.940001579166974, 47.984528303442573,  3.984642776582767
 0.135890409848421, 15.259332662790241, 10.312323313941338,  4.150929541652265
 8.728186430159276,  3.678811649626385, 99.974600240769519,  4.062675163755658
 6.396917281882306,  9.759841571529265, 11.837170771993323,  4.115861242416453
14.220003366863141, 18.153578200663389, 63.779757085332179,  4.355083707939895
 0.424816437063486,  0.132589879620537, 19.566605097324647,  4.094717175037332
 9.044107027176512,  9.899611341788818, 55.858065250659884,  4.353577351672508
 5.655207767112577, 16.053790893855247, 117.249009237240287,  3.803888221664730
16.305049320029802,  6.242235232151922, 62.987125776874656,  4.120129834158231
 2.606694166831979, 16.760493853479513, 57.243428907511415,  4.124435115999476
 0.957232096134053,  7.215447679432180, 56.042261991175813,  4.257769110045289
16.703988300664548,  9.866888312821564, 32.329496079719725,  4.017642475839560
 1.233072008104003, 12.120509870461262, 41.368223965335773,  3.836113357781233
 2.089117869706528, 10.699009766828045, 61.427685347317016,  4.084085629984893
12.382549672436351,  6.956088633644772, 36.441670446066077,  4.219104387908096
 6.823469430485895,  0.723839511407884, 72.445041937853901,  4.147752102587486
17.447812857366177, 15.798712190854136, 65.905802901167121,  3.874974613260018
11.981052187907698,  6.006423754638317,  6.954411819800026,  4.087431728470055
15.483706533505838,  0.908301966338078, 72.792812390095975,  4.054103096862523
 8.735980411741885,  3.797557789429106, 82.634521540657346,  3.847244709711581
15.059346488516129,  9.294074502329517, 111.419654816292677,  3.709535978942615
 0.394947762585294, 17.973302991583459, 47.045704008353425,  4.209389153301044
18.878999356675251, 18.050487336902901, 26.068909325324839,  4.178279042183278
16.695633373684828, 10.442548585980770, 22.193638066831380,  3.809830639300510
10.912391893129696,  4.170208032478681, 10.491982251468617,  4.084606146377578
18.643889867379091, 18.373566434000196, 36.936769124790857,  3.762713034250473
14.154436628822097, 12.292492081413689, 93.081877773824417,  4.119935106495746
 8.255849955188173, 16.995730660866244, 10.660348733092825,  4.364048127384989
13.733402302478185,  0.528620448047520, 110.192846375941670,  4.197573618653308
16.297565190501700,  0.791271569134176,  5.273031419205257,  3.730539469395318
14.250711688148456,  8.104797174768528, 97.688860431313159,  4.074317931858767
12.696534875645531, 11.508311579059875, 75.765010626398237,  4.022637734518177
16.373308192412061, 16.771888846351246,  7.736698346071099,  3.907439879552033
 2.963422604038735,  7.243501111381488,  5.268577789903074,  3.997901561167068
18.400629333422568,  2.760623028621653, 39.465457384445962,  4.202534864396434
 2.846440310787171,  4.002350181603919, 85.998560443593945,  4.024274056579982
 6.105629187259503,  0.301031796025771, 107.109935433156423,  4.121808702078219
14.084909177998295,  9.889426638097968, 69.056288425705475,  4.552800512103559
 5.260423321137199, 16.731954113349044, 104.115796110554811,  3.886051319853085
15.688180908279762,  1.406087369800425, 53.736177055512975,  4.247175081732645
13.123931705128269,  7.382776161303105, 21.445023094255237,  3.836692422980803
 4.624826133548171,  4.355527835415395, 44.530096286176871,  3.975613625837143
15.189653320816619,  0.548725438683217, 16.171305186302224,  4.015299705650719
16.021019911562465,  1.111322062486426, 47.279832003539184,  3.645607026234614
 0.967610880721100,  3.426328334613328, 62.306927576375969,  4.080652633772988
18.307829134457123,  4.673205559835301, 26.246731869752846,  4.021894011367168
 5.969778253761491, 13.842565489586752, 12.102523642227037,  3.931812074123477
 1.419583379100303, 10.388341916215001, 93.935435164100042,  4.122863290642798
 7.000299739550004,  7.039374635196215,  5.152464847799446,  4.024115155479977
13.629020212332515, 13.675412058093780, 50.757703776579596,  4.005603853618792
15.323857128654772,  9.517500296892992, 64.989845488283791,  3.789410749728614
15.891805993089616,  4.468115813668114,  6.687885273155808,  4.188685569455927
17.726635234139863, 13.300728693501167, 113.397479708491019,  4.208539795340422
18.128516408355750, 12.795735506424508, 51.015366855184602,  3.855791869725137
12.921953705710120, 13.937181187970419, 68.121964311404170,  4.066706530272094
 2.208087263474272, 14.491653998474330, 115.303855883569838,  3.956946440115323
 9.781760395577365,  9.948089067439421, 37.714770309612625,  3.966636734422320
 0.168112389302296,  0.696907911263761, 29.740302867194885,  3.834524718424559
 0.249941269149417,  1.294801658322819, 75.788544602019485,  3.785808948373251
 0.308508981481264, 13.103548339583176,  2.609415248374175,  3.936501916648391
15.058454911018369,  6.753541878855599, 13.717490879267435,  3.877808519640996
 5.308368785216225, 18.914631808711086, 12.871402542022008,  3.937631601257062
 1.536834485120851, 15.854561306820749, 63.517350476762694,  3.849475823701761
 4.805561459589318,  7.441312915526396, 87.829030761006521,  3.955314105442647
 5.939440593279523,  6.029668650940540, 112.738234500161752,  4.233092497926662
14.783758763862890,  7.268953697434203, 107.968494199222064,  3.954502190942664
 0.234074192709250, 10.676269280480623, 80.319221923506930,  3.934131665473877
10.317425481470769, 13.816776175121928, 36.519275719842597,  4.176772990680323
11.583715366056438, 16.137998678345536, 73.710593183660180,  3.522571015548231
15.525293864463102, 18.675052560995706, 67.647528919811350,  3.813513911273895
14.242256582709723, 10.434529112009169, 29.228844223137131,  3.941999008911552
11.453502811532640, 16.177752261149109, 91.412358994361725,  4.069418401139378
 6.460680049192748,  2.312161161354086, 95.075593703627220,  3.947831287053704
15.683927491374439, 14.306569520559529, 12.364393499334556,  4.027534578543266
 5.521542522372709,  2.064059637650834, 83.850356048537208,  3.848827542919888
 8.122420783530945, 17.385665277372130, 53.763868657732374,  3.991908230692947
 6.539447246414055, 15.387947854856460, 72.442989165558345,  4.391035700419146
 0.477434838257621, 12.839476555853286, 32.037085355905560,  4.050655291275882
10.330940134580217,  0.183167261158305, 24.309537133683307,  4.271519647287915
10.005277872354322, 10.775485137494609, 44.763104906640422,  3.906556808070289
 0.846620034757822,  5.838062784574893, 36.596844038207067,  4.009456341853784
 6.185164256885225,  0.484937961518306, 76.579833948719482,  4.170048159792406
 7.539648865466384, 17.877884866649115, 96.761357585973343,  3.940073740465637
16.855064728323686, 18.092603075960120, 107.193686837597213,  4.203229840103816
18.775396111721243,  5.711922509570862, 14.008957924020290,  3.863180697976690
 8.784451961466862,  1.999886745594767, 54.909705647779319,  3.600578781132681
16.565579496973747,  7.850515181533101,  8.834882277731008,  3.934651536834132
 7.395717710154082,  3.382225495221228, 41.717060531651384,  4.125117322516456
10.748192617577363,  4.393438363337032, 49.257750473685725,  3.800519839857190
 1.009481828979528, 18.080129932139045, 40.596806259173036,  4.044845242003936
17.554932215915422, 12.415271477934150, 35.574096007621677,  3.969855894177277
15.502670780558361,  8.429488476954523, 46.309412946435906,  4.088180281383861
11.100885779160825, 10.243427156322134, 25.603807117537468,  3.977607836442346
17.549761932611339, 12.034308297194441, 57.890061196076580,  3.881114126266492
 6.802099068703551, 14.371811579657670, 87.351801446764071,  4.071752058564942
15.494635519773183, 13.625526715760762, 32.468161520361811,  3.834948558442315
15.729935460185319,  6.321508468459449, 71.103183836985039,  4.288254916501700
17.094486111274666,  8.888914468428892, 16.544443009041157,  4.146060170389280
11.363687598197346, 13.138593409552712,  6.937950494290556,  4.153066869845136
11.823161123671895,  1.796471966178092, 18.489027987232944,  3.708437258912312
 9.201196004926464,  9.667918133889129, 71.060215528487674,  3.904651722249484
 5.207955937008473, 16.256603246797646, 44.935318487096879,  4.079007010064122
 2.443389210845487, 10.893804495252533, 69.510211977212833,  3.709616796501041
15.410771948595558,  6.188222146006473, 79.072579794257393,  3.842495233179389
 6.718245421157117, 13.745803468164565, 96.570921633596924,  4.280415476203612
 0.765551752033992, 14.125254122765671, 54.498406013077151,  4.254684258483818
 0.479377538739675,  0.327683417611573, 71.937545333531972,  4.113699207587491
 6.532868411417379, 10.793193519224578, 89.495831852320123,  4.275864559002236
 6.598095306262149,  1.415488890765068, 64.931424077393473,  4.017457946877961
12.805331973629823, 15.909272091986885, 47.018277486978818,  4.194083529501624
14.764954635151128,  6.622207952085746,  0.157970682438200,  3.817677054593288
17.612128932931643, 11.470088801130387, 91.513713617347562,  3.552308830746648
 5.062803259072318,  7.773251012974528, 91.673004329612183,  3.481982769018809
 5.499516230055381,  8.063485564213561, 15.348739978116875,  3.824505015866691
 1.382672094025859,  4.435935095655726, 29.685510639231207,  3.973469882869105
 5.393078500818035,  1.626490881518599, 98.875026831081371,  4.020342272497113
 2.239463704881222,  2.403625834443149, 112.708706163974810,  3.834912133695963
 7.463661330622271,  2.112456146208988, 10.140823703346559,  3.975391235933592
16.679848090396124, 11.971380465688789,  9.030179290723021,  4.295585161473540
 9.239594379919147,  9.441931033547652, 75.184368830435034,  4.046192602840901
13.517960568221485, 10.082751363749299, 38.874945281910307,  3.851401074878684
 3.779125441259108,  4.589585519072501, 93.515413668310160,  3.744306634960167
 3.194652058233566,  5.363370346323496, 39.972041029122785,  4.257124288280400
 8.714046908219279,  4.309490331395392, 117.492359293770249,  4.199849401717113
15.736798330665426, 11.665540495978817, 105.228254000112173,  3.843422930203729
11.229744404940451, 17.596564240562486, 95.397618809262781,  3.929515642596010
 4.049206526124202,  4.489139868286652, 16.457393995516327,  3.850712683560013
 4.979328608908041,  9.532950274065721,  2.659456215375414,  4.029764679555161
16.619924370113822, 12.367140774033139, 46.258153923324180,  4.074860871914957
 8.294195856851500, 18.531466083243188, 92.886735826970465,  3.972588818257460
 2.786144682149821,  7.735081220214417, 80.646512097420015,  3.872012402562793
 6.512107822122463,  0.086156411351830,  6.818311726627570,  4.012530214347096
10.425239388438596, 11.604210427242784, 50.263509600687755,  3.613226839769162
 3.390698129696074,  2.505737359084961, 74.102840446268317,  3.712168131913540
 2.579041852932549, 18.764259012966143, 22.882245794094217,  3.796173378595442
 1.009749339573380, 13.770421404213874, 89.493735454076486,  4.078880347323917
17.743813889771200,  0.922193676812391, 110.955879295406618,  3.993803674519606
18.199155875648461,  6.894009460945544, 40.306604258484938,  4.221592364695310
15.453163513756087,  7.031263743509863, 114.690982072247039,  4.271128327630040
14.647757381768857,  5.881312923214579, 59.069714301132485,  4.406314129719900
11.309547251547782, 12.279222722221999, 41.150100485723598,  3.843646055555532
11.926182095415216,  3.288158245245631, 22.061716070455144,  4.030470870062424
 2.786981396652489, 10.755919598971962, 73.270682941808388,  3.811340986906990
 7.224862136866218, 13.061182808176055, 31.653022715801967,  3.891122642010996
 8.353035950100374, 14.357223001387540, 60.959957809329325,  3.899084352428173
 4.395438366695658, 15.377361920047470, 60.728954103431327,  4.181282033579121
15.966408107729720,  2.355215885884541, 61.326685476288759,  4.352992014772443
10.706936083994519,  5.569939506464860, 32.301222145236167,  3.973956221702432
 5.240501854029135, 14.976906306994582, 16.528353832754476,  3.841669238750233
 0.324133718494982,  3.050881688258988, 46.716325798503561,  3.872238435900271
13.752808446023241, 18.336371041473349, 86.943371726198038,  3.897432745766629
16.511753904812416, 15.513147479836473, 48.755475984234977,  3.913450378271728
 6.983730013558326, 11.192245563561364, 51.539037795483267,  3.756892353499820
18.111310528941193,  8.364409284417164, 59.714364444795621,  4.168634654030071
 2.849055181294476,  7.437194719298089, 118.333190438708485,  4.048744467731403
17.031594546343932, 12.679988021346073, 87.089742314273494,  3.825651666840646
14.307604932251442,  3.478037856947460, 50.487493552294531,  3.876220270466820
10.130440199338516, 18.864417500635188, 99.574518930165183,  3.947707906167526
 7.554656694788219, 12.324254297705389,  4.533067643815637,  4.366911708152914
11.888531290792804,  8.189155466084582, 49.121900434574449,  4.124524892786142
11.285308243660843,  9.957431364724508, 95.296294299726753,  4.083606710357961
14.240691579987713, 14.061307274429721, 39.061596360401190,  4.089784716242947
11.210226727743700,  0.604475318575960, 47.915026631287326,  3.902671002791469
15.579105204156159, 10.518548246530919, 73.468566966926218,  3.566219863697256
 8.372073688710909, 14.166849273564186, 43.242590777647024,  4.206404762601319
16.962901071454890,  2.521161304879815, 88.656748958843849,  4.089583097131537
 1.018242542869365, 14.050837421726239, 47.908251960835301,  3.803587297845991
 2.377750484079052,  0.511924761855725, 15.825125848171226,  4.370350243073122
18.639395533964390,  4.118788170685431, 73.077110532716560,  3.939870445865849
18.030401279934868, 12.847829548181453, 19.142028643710962,  3.840296714848284
 7.469537484031049,  3.099775039945394, 47.971380416703838,  3.698193540142795
17.889920447587428, 17.047994465262335, 14.432352696671146,  3.991352295956665
10.219058398149045,  2.372343805941155, 96.441200415640665,  4.035344472163202
 3.499928686944695,  1.964548976229452,  8.781509733893575,  4.074644860773736
 4.054810771612751,  0.421593279193201, 87.242575573941409,  3.903831846261564
 2.665557399695437, 18.455513470449027, 77.981460666569035,  3.655924194894907
13.058489806598075, 14.081324092984168, 101.059526550501459,  4.096226745538622
18.107236156229011,  6.851386236643058, 81.976553210896142,  4.070046155711454
13.985972642597098, 15.725598965740161, 115.002950422175473,  3.917474611748433
17.191747349721609,  6.062660514139774, 110.943703842640588,  4.059325635780211
 3.140212300589398,  4.207816582803549, 33.417255923944737,  4.213655799325857
11.574827772093510, 13.463521261933092, 32.656801981102980,  3.969827814067568
 4.205983973730504,  1.441249164222607, 40.334994950991465,  3.830872335349805
 3.322822487630249,  6.802801239742022, 67.047644911436393,  4.126592208207784
18.661241973305131, 15.357564122319120, 109.369351024993009,  3.654586560778509
16.929774621545505,  5.492837693301214, 48.503091027731564,  3.769443473535112
12.066696380064798, 17.354605757084364, 31.530416378078737,  4.189264110491679
14.207895750008230,  4.487242444329816, 16.914685000815403,  4.116202715245395
 6.750984709115825,  5.560985770255717, 97.178503832134098,  3.737526211918911
11.463641326446982,  0.592423862400190, 72.134255087834745,  4.013804092577982
16.206710706557892,  6.407009603479719, 75.221899490789667,  3.982100821444700
14.835588218694831, 10.314591721715081, 101.395524528879307,  4.249246166644876
 7.581427369841465, 16.851510256458130, 25.972209468827252,  3.580922171251854
16.414972340919906, 13.098177812462529, 81.822022538632865,  4.023396403764869
10.720804554992423,  0.775144744696236, 41.431015474812959,  4.333768074851158
 6.959516785301840, 17.757915396826828, 41.514229887043967,  4.165862383471952
 5.230543666008336, 15.217605905931197, 107.900506380837584,  4.225898733857465
12.793501027909747,  0.159947284527118, 117.091412374633308,  3.839471133705918
15.025646059195044,  6.054866421267651, 88.415587727744722,  3.971863752708399
 7.597357962452731, 14.568625011794197, 91.385688566740470,  4.121882583497630
 0.574060641507887,  3.085483803873150, 55.240215395411816,  3.825935610255935
 0.329920162569016,  9.690815425567504, 48.872322073888270,  4.032908868672240
 6.192689125476699,  4.860859787657595, 75.833511714227839,  4.250348902095901
 0.640633975388941,  9.254090222555126, 19.805596233525588,  4.058202475165197
 8.826455613254053, 16.021532706444628,  5.840621219485018,  3.829551637526387
 7.036495826150123,  4.542861225268716, 32.785113743694446,  3.705688856682605
 0.462689502223239, 10.625862191813720, 104.921554056159451,  3.840943316233675
11.740862184084287,  8.594443931948518, 88.249362928213884,  4.083437961511867
 4.526664086277354,  6.516204681578756, 108.382905843986279,  3.954885129512699
16.647987162904183,  1.844919195037436, 98.871912814859854,  3.753031389987914
 2.885508116419439,  2.414044302129221, 65.642514208616461,  3.689199823169424
12.235906747259467, 16.088331084510617,  9.678526542103096,  4.022515769893500
16.013837476714816, 17.106193486157643, 29.401383877692297,  3.933862751699392
 5.552828190152765, 10.824700296733649, 67.317307883801689,  3.853950826843332
15.220388749622760, 13.383846309780441,  5.124987956380840,  4.231484972842555
17.599437260770731,  2.003429015999679, 13.303822810168466,  4.012640938270116
 0.071753902524104,  2.911256807588272, 22.594071909616865,  4.153226560631147
 3.336317584335748, 13.037044577646379,  9.166845853684377,  3.967137239363176
 2.124140716676607,  6.516958979259500, 111.472767139376273,  3.854116512298786
 4.817050434529413,  3.798630852538322,  5.501079482884304,  3.815688772641327
15.383303403498562, 10.130201114828498, 50.014906475062467,  4.040129154496739
 0.806708227125836, 16.389677790973970, 51.039363442503145,  3.998368146389512
17.273843881783737,  7.561693152265939, 91.516424054311287,  4.255358483223583
 7.914459479211392,  3.869471278338739, 24.061703472371988,  4.304815637808916
 9.344953396530526,  3.446484489036052, 35.486990299435760,  3.732267262294047
12.775865195099128, 18.763339318218200, 27.701501135123380,  4.082583956729607
10.429856566283547,  6.680534115350476, 97.618178146265137,  3.981034037473525
12.448871173585630, 10.280201442578161, 53.318030555422276,  4.175614901696134
 1.723431565455941,  9.593729816555182, 89.750482132965075,  4.408994029492832
 6.713467596991769, 17.191912106649458, 100.532030030404485,  3.897790568465195
 2.119366049814818,  3.805532134543721, 81.861358118861318,  4.319136597393860
11.208694722057970,  1.476419560470794, 89.111410593571719,  3.995057422846548
 8.703980818258295,  3.530956503036061,  6.462274533447728,  4.177989221358430
 0.007329109681363, 17.225349233372278, 96.419360325169848,  4.039289234026894
15.961257357973082,  8.921555362580200, 36.007177849984515,  3.705195104383361
16.074208317391616,  5.225882900854470, 35.552216403963392,  3.734449174461616
 4.251200550204635, 12.744089859178233, 21.113525288147461,  4.289234592084211
18.549388411605086,  8.316247256563210, 68.583456566178157,  4.200670614621323
 3.506465776031856, 11.958015369615453, 86.665187139416545,  4.074841156325072
17.966578538323123,  4.390397516941385, 85.101985599130828,  3.872518421848413
 0.570512927799282,  7.724749525261799, 107.851880078785285,  4.379449183764145
 4.560787702884447,  5.156469580122091, 63.376592813143922,  4.139887248118608
 6.063477170022336,  3.806316307083686, 52.628922112529082,  4.116292214577856
 8.148361019449947,  8.589367923603710, 31.422285676017623,  4.115212711396361
 3.864588564850674,  1.447328969232050, 47.898771773309100,  4.222988872479893
 1.458510897390679,  9.156746158036730, 30.422271033617140,  4.216258209716691
16.767149600753012, 17.441127380626376, 117.405447667286310,  4.107533196003994
13.238148434586583,  4.959348496727364, 104.889969519607916,  3.861755792422803
16.213774791955679, 17.151094662224356, 41.324384078645906,  3.793202094243097
 8.747524510559652,  7.152581775372709, 21.876675036017666,  3.751125235409793
18.205437051886673,  9.166471189713063, 52.691072723162520,  3.969614946192610
11.641558466881364, 12.222381894563521, 61.899561445851418,  4.146401266083807
 1.204463035677238, 17.978228467890840,  7.062958708915414,  4.150310242757503
16.724626445918926,  6.228742140054354, 19.759292320300190,  4.196962215003209
 2.520427884260475,  6.383248122382240, 74.724384828614319,  3.997950044012136
18.588317133360615,  6.297185245773821, 32.766756941169895,  4.040545225373145
16.558068338787713, 15.163468816751204, 91.312574977565433,  4.132220012318888
 3.872918086156755, 16.457737256313489, 48.647469256763245,  3.772791766749604
 1.156447421471392,  9.496323624431614, 34.689126554178998,  3.976519419702842
18.731470421846200,  9.467558946381160, 112.416527619721961,  3.890170260052532
17.826381413974566, 13.473008502955752, 94.896110004210740,  4.119214816645928
18.267307208607335,  0.207797503607681, 64.079360729294280,  3.965800053381965
13.694731740228759, 12.970174268064707, 112.039139130003647,  4.178873117782577
17.631363308417541,  0.888540013015844, 43.798277289461211,  4.033334100251173
17.674866802448250,  9.110605431312814, 117.604675499302189,  4.141263532678564
16.144006611007715,  4.824568111482010, 43.700962139247757,  4.332255285893121
12.505464514489807,  3.726135140764071, 77.901183929068324,  4.122076972054695
 4.356993063415028, 14.119854884209433, 100.693544629204482,  3.837508478022420
11.096573023073658, 15.671519110880471, 117.677238565876877,  3.924638278630580
12.923888895869343,  3.512511028720145, 34.652106169687507,  3.612089057477478
15.378891562969491,  6.522607028541450, 67.210429548026440,  3.530222701691942
14.868764986514954, 18.429824073995363, 83.276025675620545,  3.733930821563618
 0.385854036863227, 11.668091498246572, 84.129522373870628,  3.939878775899387
16.299014728548354, 16.050259729918185, 52.634739102846524,  3.644001110178924
14.420383990777680,  7.140039967551234,  4.029633017071760,  3.824420330560406
 9.831423818993294, 15.163618223762366, 80.413574226215744,  3.656113302420457
 5.831378266133676, 12.595445329363397, 55.097508217273010,  4.147570532443297
18.341990632764549,  3.237546811172613, 17.097656731115894,  4.084493721236394
12.007333848250818,  1.833158006645488, 82.505585151862405,  3.755171876190381
15.507475685681523, 14.340128776297496, 21.984454974122844,  4.253592822082729
 5.224704441168989,  2.102702537625224, 68.462106546758946,  3.656575851138343
 9.142707417227509,  5.965941610850041, 72.993261562897558,  4.157053010575302
 7.386878121020216,  8.216300196963394, 26.239320527216854,  4.574504841337312
 3.407780494963672, 15.460723213240952, 24.841621222657881,  4.056037426274036
 8.509910477385661, 13.180061571100296, 26.071272835915714,  3.816741602545034
11.010539809031059, 12.337494594890778, 16.273110015166470,  3.962968880180240
 6.848165854127047,  6.457458290425399, 49.801302802425312,  3.752017024586596
 8.736904271359283, 16.165100110445927, 33.565271998712412,  3.965468503332561
 5.915083775188027,  7.980942984747472, 53.161040211822971,  3.743628037552513
14.791118402565738,  9.333217969772521, 81.516652863051732,  4.198046983679472
 7.361008420629854, 17.926305588456959, 67.938448577733197,  3.855543123992989
 1.302299997148373, 15.859187271442389, 92.819971354688775,  3.775667214595821
 6.744565090790613,  7.669067542932017, 105.233873352650662,  4.064569494046015
