BANDS
8 8
NANOPARTICLES
cell(1), 18.970
cell(2), 18.970
cell(3), 118.561
17.124468114087190, 13.024167366425893, 43.581023415410144,  3.840705317306877
16.260145360355324, 18.592577011597292, 34.582819720523958,  4.085746799304582
16.935055690513881,  2.818522092839634, 78.964566451822009,  4.121155407417481
15.229682058869280, 13.955436377155262, 79.998059856183389,  3.824571669273868
 5.383269358984364, 13.470995407453129, 59.969372696066344,  3.664742330902803
 3.522705544146239, 18.639869811287983, 66.325758770895916,  4.104505745693523
 6.645772461569607, 18.003282973225559, 54.488598490538422,  4.028135167248005
11.853479977030755, 14.190349146962083, 21.476044832102332,  4.318696665907570
 8.901223056297420, 18.663018579083278, 25.336605712660514,  3.903253583431193
 2.722570500510684,  6.011486186184785, 28.165062270083929,  3.794915421185032
 4.044621477084616, 12.242719574024031, 47.870635054884175,  4.353538897357439
 2.679155151761777, 16.303378098897138, 69.378116556758130,  3.755745708963187
12.458890494244764,  9.323431149097852, 91.518266229189834,  3.867912692145758
16.457585515231994, 17.844660159730633, 86.606176730187300,  4.005880103842624
 1.017961502525448, 12.051577782290199, 27.807154618291467,  4.076972549009981
 5.963034727556791,  7.430389078244941, 99.868199980326168,  3.894110588201614
13.698534387395798,  5.843727018686508, 35.205456669816051,  3.696454464038716
10.101472269031865,  5.848633177721650, 33.605328694302393,  4.176183403374291
13.759360011270601,  7.924726431204050, 83.463491836431089,  3.632202305789602
16.741399007218231,  4.275493885796036, 43.737423667104693,  3.485098336052306
17.116129920715078,  8.066375212546768,  5.858705019984659,  3.753224364892523
11.055833823781198,  3.721288367521678, 59.666482043722453,  4.005475187447037
 4.272366642709684,  9.144256005499097, 64.850594186369079,  3.613124781044053
 8.081659188199817,  4.955740592083471, 70.870787263971962,  3.831352922250821
 5.257701426708351,  2.613343773290642, 90.736008003023812,  3.871107459778155
13.226000557862966, 11.981727847685619, 58.765404789267414,  4.101867305640880
13.992496110957806,  0.210506948687764, 77.630300769511791,  3.789495350688455
13.674345105189801, 18.640626970399421, 31.616820915349454,  3.743505243961045
 0.197965692466134,  9.794967864344599,  2.849377957319230,  4.046024599516991
 5.416482807968706,  9.237307803031959, 114.047843460659834,  3.911278366013323
18.417826402781550,  1.589546581069344, 37.281104299382875,  3.862179663950757
 8.547848026007387, 13.978792179124273, 49.759899893289131,  3.892311385829080
12.772974346216605, 14.236933978129922, 100.611598228948040,  4.079203082142746
 9.110071632289849,  4.540596525845065, 12.057544778101288,  4.088298864545669
17.362012690854304, 11.059214623721253, 78.110504792035641,  4.240971944851824
13.134982605222058,  0.633888785391175, 52.244543931141642,  3.831938884817874
15.687290973256609,  8.776542888844244, 58.262443948850091,  4.027895700378259
 6.750648278859962, 10.238307032879771, 102.316204746130097,  3.666313702239073
10.398105262196149, 10.259960773124105, 76.617056352877427,  3.800518428356814
 8.317806086568650,  0.113220613012081, 102.719856266643134,  4.085056145504380
 0.822724074763624, 11.244572839972633, 103.170708893678494,  3.829565602814666
11.958930562788035, 18.743405700120981, 90.271795215563756,  4.041758211595618
11.601879950344674,  5.982787755669767, 47.280997864700396,  3.913662985424076
 3.565903311831438, 17.546075545678068, 43.433314092644011,  4.115713415596992
 7.674380503377500, 12.181292281732006, 112.864000566749070,  3.877448699028438
 1.142424196785145,  5.857059917249917, 44.584484677815574,  4.030530526893566
16.168625834585381, 16.103600696141307, 23.806498159491472,  4.037912538568158
 5.454019612843640, 14.844321745225843, 116.256047102813625,  3.990507084931455
16.821888446842035,  0.051112607531987, 10.506199364852918,  3.890107655641236
 1.056072386497528, 17.562277725185055, 103.458953460523077,  4.309486370219494
 3.978566647475430,  6.730923824431112, 58.696175619586583,  4.007540705314044
12.460270457499874,  2.588610576823008, 33.749399942227910,  3.833715127265825
16.683943149629275,  5.042917504448314, 75.506939222283606,  3.896137205688347
 7.160278987395323,  3.621188679094148,  5.139984338608548,  4.288549125202474
 5.527389680059902, 13.504332080097326, 10.680123989480908,  4.044009749736206
17.462777424839562, 18.795162100060608, 30.703411135895493,  4.043293511191249
13.200766784749593,  6.282235540899484, 73.899724222283240,  3.904412611233522
15.653433221926969,  2.663329916233845, 87.194566516729296,  3.712479760282524
 6.973630663486119, 13.953967496603749, 106.074136108120555,  3.874738699249179
 0.938777737011930,  0.220518864601063, 58.556362895723716,  3.808843668379440
10.463247509539460, 18.411612065473118, 55.040529153334980,  3.659209725620600
 0.409738024689490,  9.332777341126512, 34.078846136276390,  4.031537297289749
13.443251711948999,  2.792276019260674, 62.944280219103632,  4.269876979754246
15.112871029615482,  7.252054257207170, 52.609022644796262,  4.013281272360500
14.503753045535461, 11.793212944483459, 70.269807419122770,  4.048956841064109
16.178075487251963, 16.654006151155809, 72.657035877585258,  4.382332267612067
13.195831652841740,  7.193366331475660, 103.937280190226019,  4.123674235822405
 0.954955958364739,  0.309355192895086, 16.935677315195722,  3.893149454841510
11.163356322180643, 10.756281530872245, 83.405571982776621,  4.015458219480834
 7.280779030684891,  2.832440743146195, 23.422785507244274,  4.110441606681729
 8.778553681022634,  8.459368959873203, 46.004831681894622,  4.001034587578340
 3.452060190591569, 14.317977240726464, 90.213103722863124,  3.866931097896857
 7.511564329615388,  2.527517651774778, 115.953331660470255,  3.728703171638451
 4.631250267594292, 16.775761307685826, 75.043504998429924,  4.257077159817425
 7.726132394627185,  0.760891039942074, 73.881226756731593,  3.882859839056318
13.265696251238069,  5.887103402427448, 86.927751772554331,  3.982220713250896
 9.434956349227532,  5.433216455112728, 117.771636043807604,  4.132119326900479
14.838409778439404, 14.783168095972547, 50.018229067326544,  4.132757968237281
 2.053178862832854, 12.131904292522915, 31.714256666253128,  3.989324560717360
13.145802421812510,  5.446724407813861, 31.074533497661310,  3.708846521319844
 9.000551839413635,  2.510006922936688, 77.814280974255425,  4.190197965743150
 6.399084545134919, 13.971053467635947, 55.883225881811221,  4.037758618198468
 8.035868005334249, 17.240043287473945, 69.152369600182325,  3.896286482334328
 0.796891564519944, 11.431203339156051, 20.293528947074702,  4.385028027413868
16.090052320511774, 10.963759282619016, 51.156593110603978,  4.169116667310484
 2.272733616883404, 11.306197674309136, 75.731790763298989,  3.845130181472388
 4.139273404374151,  5.725036737866794,  3.068553587556631,  4.148700634333956
 7.389529419565751,  0.695197200223385, 87.719373925524238,  4.144019354366139
11.401391979561037,  4.199108490067384, 83.915227886659437,  3.827897152850479
12.733427513111769,  4.514855352335262,  1.638694279335920,  4.246226149665402
 4.958803861295164, 13.443318430020115, 17.438278356172628,  4.266589079222680
 5.903523367120070,  8.102112236036447, 95.895770492080388,  3.860445052432998
18.287096383942472, 15.132059439773306, 97.089451691396448,  4.247781905457138
 9.536605380809231,  0.144788198074555, 32.976353396570914,  3.912924979344296
 0.419582708609186,  3.202426890558812, 98.086554097233744,  3.378365930111314
15.929865053305120,  7.516930306156907, 107.719687019247814,  3.754453715306124
 0.108829716035275, 12.166881115502882, 62.610133521663961,  4.096891056110408
12.735345332783657, 12.026230275345638,  1.249923266542924,  3.868348254950806
12.821531873177793,  3.983970492921717, 77.156015546690227,  4.090867985569132
 0.979499342939173,  0.956988175533459, 89.283732487114619,  3.699452280286486
 9.510879464415778, 17.801857752526434, 16.505481083302460,  4.304576831053967
18.531535533590496,  8.497326444203496, 75.117544460019275,  3.976792217040547
10.401355961851904,  1.144625077980543, 67.684025453170989,  4.034396342673283
18.096061936316751,  8.344672932857076, 15.210614312585143,  4.123650216182957
12.962767580652040, 13.740602332079826, 28.195337551516165,  4.137084442112090
10.850086771230130, 16.796837006632913, 40.411940442426726,  3.979631413486938
16.820739787040438, 14.419301096844412, 27.357962271970607,  3.848576685456951
 0.198473944645474,  3.267311560415492, 29.422796502571618,  4.043234744257680
16.910009197528243,  0.906674391795950, 82.602101253253394,  4.045792252376126
 9.719336408777329,  9.517666928824427, 88.761214829409170,  3.912457648197645
16.291585397520635, 10.553246449498818, 27.261836124961327,  3.931585805138004
 0.448145596555350,  7.978468181483888, 88.550626940300049,  3.707941632548824
16.348433334276681, 18.673504716611749,  0.488710257802171,  4.043640021991144
 3.473514168542833,  8.864089969042785,  9.563653436381943,  3.794784940201505
 6.145202953145946, 13.969707048733023, 98.930195878951949,  3.596698649378585
 5.148907141652209,  3.066477197251943, 64.324805819930489,  4.406490623573051
16.112160006377927,  7.545354247276416, 32.462303430406365,  4.070135254279435
18.018835199361746, 14.375906608179672, 52.749090999959805,  4.289996983785161
15.576254444688821, 16.345201416381911, 13.162452937852146,  4.027384323623441
 0.652494634919110,  8.726759269480580, 30.100886710287810,  4.027511407069752
 9.727368170669644,  5.127274040853450, 67.283029680909308,  4.059681510106933
15.404371402824195,  4.709219204194071, 20.416934931019608,  4.094726531069752
 8.212779692088755, 12.458474961444677, 46.130097575641308,  3.996879761222415
 1.933248849730431, 11.894902179702942, 11.703342609117971,  4.051237387143718
 6.326990493172231, 14.500966175421878, 43.151889278196094,  4.111193140802367
 6.512967637287981,  5.684692964562448, 75.153159674673958,  4.044350732987890
 3.106259655288159,  5.101683146093237, 104.448974091334392,  3.694793489543116
 9.233056774296321, 18.666965205773487, 51.156253937276276,  4.481667990718177
16.790545933731707,  1.827057541513978, 100.313024879813284,  3.993306215782884
 0.339530482421731,  7.570603050352998, 65.779520400954240,  4.213188848359746
 0.251282120660496,  1.352158335177456, 110.079475907159534,  3.989698949429866
 9.179443167059302,  8.273725497909112, 114.711897273604450,  3.959352774862423
 0.720508090781365,  2.500881138834584, 116.977105734318329,  3.704435282182991
 5.602363239336912,  9.559792854962534, 71.883262955737223,  4.345363838872914
 3.206821328342590,  3.106029354208823, 49.073127600144879,  4.065958700226751
13.272878342589902,  0.664099084527773, 84.638678585804513,  4.286490932030105
 0.443756197931303,  6.328610210259625, 69.914987521594085,  4.376300439274846
 6.702285869465082,  6.482530605063996, 29.278967589606644,  4.246055848755192
 7.860873372162702,  6.546122387295275, 58.190963584384043,  3.765981374220019
12.350903853658204, 18.059528939918952, 35.576290621948225,  4.033807307012117
14.255308429381607, 16.215676131953554, 97.357473251354463,  4.083721584969485
14.503733531286548, 14.734059728407606,  4.384137076574155,  4.366443885965787
 7.198467415496533,  9.230411512643220, 79.868753404536321,  4.387096772990874
10.558614430804713,  1.673008052547474,  3.731362513502488,  4.024241264443265
 8.886337435210583, 17.770050282535173,  1.544560684737718,  3.864936941546226
17.135695453576613,  0.647271517454450, 25.460251153754189,  3.858303468638023
14.062995398230660, 12.364847112783661, 24.502078100048298,  4.015396650531853
10.218956556273586,  0.799621743758633, 12.713293513137947,  3.798793232686567
11.877746216832442,  0.388538719617601, 104.701472021311801,  4.037756369876425
 4.421318844674291,  3.719583132123558, 83.277625118405837,  4.030481749207361
 2.701848217487545,  8.241413444826247, 54.990821726394920,  4.344802804085951
 4.110672823973577, 14.305961596208343, 34.267913435690190,  3.875432457948970
16.642040969734456, 12.778107134957347, 38.191026123959212,  4.114041260084872
11.703903238517707, 17.460395907745884,  5.960426367866667,  4.041305789152947
13.620765373010352,  8.724300795515099, 62.068197382597290,  4.145536021987277
15.560952519490465, 15.153422346173816, 31.127559816646606,  4.182178999034464
11.441708937519227, 17.571843000627691, 75.093937247713782,  4.019980469343498
 1.816260340180638,  3.685583149121917, 56.775850580611689,  4.159065145848261
10.223592466906776, 18.475582193002801, 80.400158383258017,  4.003975456441291
12.779224290226875, 17.669257392901386, 10.486870587689500,  4.141167076429870
 0.655209939021124,  5.624675517941615, 32.610788621567224,  3.937884528572627
13.815661947236654, 16.899526133636208, 115.518742677549255,  4.227465307683965
 1.278426640717810,  1.793022147893214,  9.411519763671423,  4.098637259794807
16.278803887049612,  8.555648363360580, 71.874068901208929,  3.852195188065317
 5.059699511866553, 17.942030307669707, 26.525899822361875,  4.229902924171587
 7.982748927381123,  5.773805823799754, 17.963786554421063,  4.089260456764681
12.346235906188076, 10.333559636414124, 113.213834485689176,  4.114431378784473
 9.496400724300569, 18.825354692093832, 110.815343353314901,  4.165487506090868
18.616858168581270,  3.507574877109965, 18.557276221830659,  3.703098348410583
12.578667537774018,  7.972386801137307, 70.145149366427987,  4.326291062370486
 8.936958879765461, 13.272966001102585,  7.033373679667064,  3.974716761797247
15.810616165969128, 10.207121024759582, 21.461368704134941,  4.215171320132388
16.655906228731883,  6.477600404886702, 28.517183109985279,  4.010359032378303
 3.298600500041157,  8.184914432853672, 41.801982647942729,  4.097208215617123
14.468365382845093,  6.273421344475805, 12.599374652503151,  3.701246181381456
14.461951085723427,  6.572290125751153, 42.150100261426751,  3.715959394373889
14.885536893845050,  2.630335960670060, 36.628277554091220,  3.591193612106250
 2.417538146400283,  1.465379346051906, 20.288745336065485,  3.766097894359247
 8.907508684285204,  6.362522200890422, 107.560187363650314,  4.236643486337831
 7.892555213396246, 18.024543090809036,  5.184176630869971,  3.657623024114792
 9.494878379598116,  1.641511380446025, 41.213963801727303,  4.139321320992847
11.162608623153966,  7.784577359525900, 16.094163283423988,  4.197888398619317
 4.393092147502846, 10.094346450360222, 51.728272224017879,  3.877478815023115
16.418075495363965, 10.754619333465834, 114.212091895331127,  4.241625350210218
13.444396984018770,  4.364636467437739, 50.387110680810302,  3.998504923972843
18.739835061372649,  5.358056576482182, 94.837789040788692,  4.315542428408413
 2.931882069565923,  6.551821511920221, 35.904785271939112,  4.279051826536970
 9.363563122502310,  0.814080122962785, 97.934748807634080,  4.367400753150200
15.285682341502570,  3.993220186477188, 97.100945424766863,  4.311647317462097
 2.312114992849645, 10.413261862873032, 16.524939527899598,  3.908647375957591
10.362744563607201, 18.224382909378857, 21.542747509890127,  4.257541979273507
 8.973399795805610, 15.228789319891220, 53.265300768459973,  3.599288749114407
13.742967676758663,  8.861412724631778, 29.616195714328050,  3.773169861324706
 1.655065450835160,  5.910341324114161, 115.685564021564574,  3.786276418732490
16.223247938175163,  3.489056875471033, 32.846531043948843,  4.077519316809809
10.686552689792567, 11.588568566271940, 13.851659922201103,  4.069427546046129
10.876720454682655,  6.072370380012269, 90.104383828716877,  3.835457494743104
18.444919847307848, 18.223192244630390, 92.965106427805310,  3.943685745875467
 4.392800834123493,  2.644872516353136, 17.033934733412011,  4.187017410027472
 9.634339772393025, 12.218387703959575, 73.345896024041238,  3.958688641150613
16.816446201188892, 16.709279808346515, 16.936351942559355,  3.947149062622789
10.811048263272836,  3.497517297355093, 53.108468790622503,  3.694612275581594
11.502840135094702,  9.949077064257455, 48.439736979298488,  3.875744823036837
 5.198889087996307,  6.474875208387222, 45.299880606625010,  4.298875511498975
 3.150678491758185,  9.618501127557026, 38.285965634914689,  3.498012182199003
 1.321583703139376,  7.965145289080776, 84.667210129184369,  3.910363420011981
12.168939532930784, 15.768558418422808, 61.944774631406780,  4.273941414284463
 4.384512241441725,  7.021739096088408, 16.525363458107190,  4.012533435764384
10.559597660156491,  7.278226658505378, 81.441050255490879,  3.960508722436650
 6.469785188370577,  7.625730385539306, 37.992248113247001,  4.209455373220030
12.365503280343631,  1.521650881872003, 26.141650785968082,  4.065224371424979
14.615728822773272, 15.518822970916689, 68.223953423439170,  4.195785197073814
 0.023045316325452,  7.975355502157233, 51.772937849671187,  3.956584005954138
10.329475103588919,  7.503266002803645, 37.370426960226240,  3.595711251806806
16.674886040352469,  2.071753736371421, 49.878351617241869,  3.975197808375937
 8.866587099045509,  2.723915212615404, 56.401991156190377,  4.102233329340493
15.340528127198086, 15.669160838366915, 76.569943156158629,  3.843737483714341
 5.597609758266523, 10.230304304037919, 108.979657453389862,  3.776842723547462
10.705684513648761, 17.232138620703005, 28.745743093040055,  4.248124048353295
 2.176934020898095,  4.059808348885555, 76.600629987626093,  4.051481925198701
11.087206182274963, 15.161917026379816, 118.079599875994617,  4.016883111119633
11.284566972334281,  3.163939811848137, 22.602422378009468,  4.023112154818880
 9.960306236214377, 11.994313740658390, 115.900812385922464,  3.724666116016614
 2.489391701526744, 12.469804144760946,  4.599644724484572,  3.812771538990834
 0.304569905625455, 13.189536100078779, 112.537986234322545,  3.885850891806200
17.152733864002606, 14.520259909319595, 115.813814281840507,  3.931765206021967
18.969059351515043,  3.586280338450354, 63.927982581185532,  4.484356886672027
 2.002042150926379, 12.748543753466413, 58.370360252609515,  3.911966368723463
 5.236230840100122, 10.682518302121469, 44.244355654971152,  3.891056726230600
15.333304756339681, 17.305696471178443,  7.420176915825604,  3.756066907752475
 3.499953605736041,  4.284543404328994,  6.748060795702497,  3.801537965919830
13.229515982286042,  0.966492115858096, 39.685998980968641,  4.010836207452456
 3.229631553509796, 16.187477710423330, 97.964170517891716,  3.972502807836138
 4.060264771339162,  7.961356023654807, 32.128367587187405,  4.048719912316649
10.875460681279604, 11.809453457364963, 62.843187841995132,  4.158572173202473
18.814681847674667,  4.518608823937701, 25.698712901117371,  3.830014828057456
14.379866542748365,  1.671252232852764, 116.448714720995113,  3.563688848478598
13.576576119819428, 18.614871299334524, 48.237151791702217,  4.451643738164429
 0.447747627578442, 15.101921265237491, 76.089845414822904,  4.418045834358060
 5.381902601348444,  1.922741635123435, 10.417236628027633,  4.319763952339878
10.446194761929803,  6.369283837661018, 62.444432760324986,  3.751070923746730
 5.870783992989755, 12.956310318172532, 74.211001412624867,  3.893592166761324
 2.857213674828854,  6.686852106588610, 73.464647971676214,  4.205559450243079
 6.405870581240417,  6.816887524738318, 103.867256795261284,  3.805681939694967
 0.724998105231500,  2.456507255760211, 42.494176630874819,  3.837149920831522
16.856380343093800,  2.345228707922758,  7.273841090340269,  3.888380807567868
 5.189283279854897,  5.080970411745080, 113.786386845852107,  4.402765740642439
18.791476765544111,  2.410624135442603, 46.404067510935555,  4.188789806398854
 3.651075780920793, 14.078526255977234, 103.767494850286738,  4.213961423404194
15.661677731838861,  5.973822703237938, 63.958454507384417,  3.673642932889090
 8.670983617857381, 13.721757058074846, 76.861873375190257,  3.927513201549777
 6.749898450974448,  2.746365360915699, 38.704171837762686,  3.571885636811975
12.302989837679574,  7.052692560462096, 97.173511837017983,  4.229781417948554
 1.021350009553065, 14.538201786918821, 100.725111693286109,  3.826916557596545
 5.154780054632148,  1.285348797438187, 57.604548003037912,  4.207545775992987
13.465519376789976, 10.051229124922251, 86.858177451842280,  4.354137896104883
12.789871769230336,  2.134110300876007, 55.929991528219453,  3.639365679071013
15.316636150722021,  4.452242998983322, 83.789127442822377,  4.004951510878690
14.682553630773386,  5.974462020759012, 100.472188288617332,  3.553361440730208
 0.308235830127527, 16.678199251919487, 36.637338373722628,  4.156078357952366
 3.356096107266415,  4.515439247154284, 100.211854735099251,  3.956764394658257
 5.121042604769094, 17.175564975118249,  1.248046263562207,  3.762598607767782
13.090520835203971, 11.550953517468470, 37.340942230402852,  3.477821190241115
17.445539851391032,  2.483197195944396, 106.775488355191683,  3.806950785123303
10.989868536212947,  2.647308810718885, 87.587734065848750,  4.018894663651729
18.846478760143299, 16.642125865591240, 44.848878199056500,  3.857048968135445
 3.490990250671822, 10.332047757733340, 61.235810536908303,  4.039819889251524
 8.183584265155327,  3.762822930596216, 110.626317993501715,  3.917903673020252
16.822694551264256,  5.564327027635054, 104.509119441179251,  3.909628853795439
11.246638586132116,  3.623171491910428, 94.574170613202213,  3.971843040386948
 4.182332674933768, 10.229914931512740, 83.084760150295693,  3.914830689646759
 5.132233447253876, 12.482238977289908, 78.120348199459187,  3.965609731341008
 1.698414279901066, 12.853026600288505, 37.037196629850015,  4.015666047623912
 2.154104358089909,  7.937286942193166,  5.907451739674876,  4.058520147530880
 6.534034100910826,  4.458840014397693, 35.244233207611742,  4.152044082672841
15.997283994296438,  3.905465136306117, 110.244597876330246,  4.230192308923374
 5.828531754852814, 11.512343234030457, 40.300698511911470,  4.168988808599434
 2.447268780257104, 13.682531868650837, 44.220120090762705,  4.074130551533931
 4.210384243756311,  9.691465789491705, 28.506135922208994,  3.968055613296654
 8.737661852959205, 18.641849457136583, 37.453467246496984,  4.159738630501642
12.137139411937545, 11.638182138147091,  5.519976066129111,  3.748466735128586
12.877286660556628,  2.238819243089015,  7.016470149990880,  4.080267801080357
15.892897646628224, 14.336818011102096, 20.090524565411513,  3.999025780850064
 2.686953193539509, 16.560408863913764, 53.975925914997823,  4.198852649993094
 9.465754597760434, 13.987089573855689, 10.864224258245992,  3.864462286875742
13.242325025190382,  2.440384705429567, 80.884961459694750,  4.013628829720655
14.398080812278616,  6.169541164025892, 93.447612631175318,  4.376063908113279
 1.628417006689295, 11.421195017634153, 66.425457057431231,  4.009752399322633
12.685887296785063, 15.886618866009416, 53.269712616510091,  3.916139924167489
10.407708787607211, 11.592884764254055, 102.778658774716845,  4.174553634683641
 3.584844926495271,  7.666797563055047, 110.975693664670132,  3.859404720937945
 2.768257217007475, 12.507746502902769, 54.530464550721440,  3.805049329922824
14.680646285142272,  3.475343860190812, 46.720830988703440,  3.939384450686860
10.431156059283651,  5.713455312810050, 43.596813394515038,  3.792457699740265
17.755138509298188, 18.512822243457073, 115.150763240419991,  4.247841495847151
11.736612395704809, 12.838632104056234, 89.408377186436240,  3.948100877814513
 4.305992297986494,  3.878147611765766, 117.881373600266343,  4.186565360054185
16.534240761277289,  3.707822606807750,  0.228064484527259,  3.954666100773865
 2.276398139664380,  1.750784230653411, 69.589825197965482,  4.019076655041060
18.528115058117606,  9.334923814516850, 37.876363397951295,  3.745956161530763
 0.174535238836805, 17.344276754766074,  7.746615216903577,  3.790243183550870
 3.339608468760694,  2.448518502838904, 36.871848414325591,  4.043366125555786
12.284865764630331, 16.569639293549926, 24.922318220415452,  4.075705612746241
 7.756179134038347, 15.384299936925563, 23.292261882087413,  4.154454695375586
 4.741947856101855,  9.891369563672217,  2.336154017914517,  4.395916446310453
 3.991396647313097, 12.869280401603397, 113.300027903818901,  3.658646799424883
 7.353009008095822, 15.650839825149868, 88.547565480774708,  4.042035107319474
 9.674578773151151, 12.265309228167279, 33.908674310577013,  3.942477290350253
 9.072094745603591, 17.347836991756022,  8.964738914821895,  3.893582860529496
 5.154656597124894, 10.456089767358193, 57.565946677742865,  4.019042151324378
16.901716776862411, 15.501033049583272, 83.284525143300570,  4.168845614364185
 7.628380525882117,  3.318042099094844, 44.202947418150877,  3.655480907154506
18.313703135982962,  2.667490354118047, 22.292913758472054,  3.942637579801512
11.395993863761046, 10.927823345914016,  9.307035329496912,  4.000445955660051
16.370156541284643, 12.985208355363170, 101.708121191032404,  3.835041887883825
 8.039151161664170, 17.603133076634691, 77.145388332231363,  3.906637325486666
15.997829717372312,  0.107222418228152, 103.930785631229000,  4.145588896159383
18.431711708930177, 15.568876492881994, 40.775724374997992,  4.163069397946312
16.636708739394262,  7.535367554740738, 85.830395250943212,  3.806831988374358
17.599416195601261,  8.614569919292672, 61.922734826859383,  3.712015411186130
 0.724900341646924, 15.648734990356916, 60.689875238475409,  3.920480672547280
11.093620264809658, 13.137214284348921, 55.562281408937409,  3.907381598059062
 7.719176830977299,  4.207013037939770, 85.680115182812415,  3.999911374033242
15.063833286556575, 13.791766851926461, 55.665732538919457,  3.917528146559957
 9.130148734301628,  2.330601733537147,  8.588756130729736,  4.034745532189968
 4.442500770622611,  2.901507307597048, 73.081971989071334,  4.014070891051405
 6.102034224626975, 13.326718862393225, 26.521121294999197,  4.139559719592116
 2.308676177229218, 16.048324393323128, 107.219229227426339,  4.152998556023887
 4.562681035575662, 18.942170658727278, 116.318448095437176,  4.084494618745610
 4.848404815086759,  6.760933095787257, 107.407353439416539,  3.916618660184374
18.638825940425725,  5.364670525464971, 60.025142490469236,  4.086029081827187
 9.959621209840373, 15.565380773081490, 91.595914415239079,  3.877860970238861
 1.569820563381272, 12.671952228170117, 116.171919703513595,  3.813647610834709
 1.149337213728751,  0.045760339399405, 51.151992167437555,  3.810443528504118
 1.239688659107639, 18.322312675646813, 72.891713262157666,  4.320692424142554
 1.182957489687497,  4.724165661732195, 112.003259956152775,  3.986866544667070
17.365419071990008, 14.427847252275621,  9.949561269939753,  4.250496495455479
12.336955685888077, 13.246910761235176, 40.420282083611795,  3.697628562191573
15.016934187528454, 13.555615193034070, 107.923855440721695,  3.982674028488780
 0.206102200941132, 14.181742224034856, 80.173552442330930,  3.958333374953957
11.131134190413050, 13.381957144717322, 106.511115858515183,  4.219616992483405
15.435515891778994,  1.372601684581156, 18.033483811813937,  4.020425452860136
11.542648081256132,  5.521941583588335,  8.959862085606847,  3.984269044905094
18.897137077480352,  4.969250256163074, 82.387348898600024,  3.709237266088680
 5.421581314712522, 14.284961066839141, 52.051672843994346,  3.866010462450570
 2.640656806682527,  5.169451988157578, 89.682022102271603,  3.728032694442959
 5.503470495909036, 18.900262379271084, 61.424765253187800,  3.904613917777919
 4.102203829784364, 10.220953380215171, 105.314148776187906,  4.129149005930122
11.231139592064610, 14.820359350131382, 82.447112023536107,  4.143030485104267
 5.994881243864036,  7.966108430711540,  5.689290570902261,  3.633919866930310
 8.929240275157673,  8.980019256408593, 98.045488807979396,  3.718436063385026
 9.739919079877451, 17.201878157711324, 47.259746688164284,  3.877784646899308
 6.267942595905065, 14.706663877425997, 93.104923448260891,  4.212798339371362
14.670333711798913, 18.778232219644224, 65.629352022202923,  4.098062164244525
17.384538118155458, 10.785205742891552, 106.818685363603024,  3.621205521442084
13.945321167981282, 12.919976089581439, 11.738272491067631,  4.031378939402047
 9.888528815515299,  3.436041706122384, 49.597166756384304,  3.511796156116347
16.637867886147259,  8.095126930570396, 97.630025067057886,  4.387932656977064
 6.108272611507684,  0.239746349805713, 108.658548596853620,  3.862748596671904
 5.403403465416941,  0.592605751996586, 33.654794743992021,  4.453627656087162
18.573897549787148,  8.719601389359434, 92.357554710482972,  4.038382501381851
 5.262815147226688,  1.663429154046187, 76.673563530993732,  3.745784694050125
 9.022125033412523, 13.228955633888948, 29.513850256392352,  4.218986668499955
 1.485822817100151,  4.956769050634660, 39.499592735640476,  4.095291229457739
 3.252723426693326, 17.151551579734402, 10.723157681302174,  4.307978004157773
 6.005769052245873,  7.613326075793192, 117.607792014242762,  3.992212626269869
 5.149357038561566,  1.069817658573948, 98.782003293554126,  4.243189873377537
 3.804316265972147, 11.306928566561266, 92.855157127718684,  4.096042872064682
15.894233397550659,  9.439474064441484, 65.171533490209413,  3.649622658433679
 0.331519690014440, 17.277321266196346, 27.641165959829486,  3.706952868501669
15.673304679087405, 16.006653695678594, 59.691878303195629,  4.003976324065928
 1.326457300069026,  4.678774122041577, 14.770171576593011,  4.449811840711395
 0.965444127205578, 11.570876158615144, 40.921890047743169,  4.290626339739994
18.754550229441875, 13.525843128840497, 108.819478965018206,  3.650459938566525
 6.707355129850187, 12.373122685402887, 36.463365589739901,  3.866025085195975
14.109385478460368, 15.394232684701301, 104.344494383343687,  4.168194098218808
 7.523188460642322,  8.080246429958152, 42.077532343185496,  4.270609371892807
15.020863197727587, 11.327690710351844, 47.171268676477624,  4.080247813411169
17.022101757052376,  0.645341323237176, 61.358215895135039,  4.217242271420583
 6.541999094718686, 11.810882321378626, 89.720605028553834,  4.150074307244168
 4.020475895913414,  6.170728265447655, 51.577427827020962,  4.006094751993207
 5.928176552239870, 15.961658332816604, 47.030613268395811,  4.111522770103626
11.257843685941145,  6.861233464624149, 110.994568394001405,  4.128319219698807
16.501156888489795, 11.272640232216018, 17.546208288188630,  4.009163547190807
18.386161781057069, 14.107804314067280,  2.082154934459461,  4.249691236194991
11.956944467498069, 18.499366096874862, 43.681993465969519,  3.658322050635092
 2.120666528387955, 16.151558968166995, 114.446749688485255,  4.021665579680879
 2.940609795215284,  2.954137206866390, 60.694003716394292,  4.083308366636269
13.638572148039986, 12.208712654744422, 77.014384580196491,  3.761995592663994
 1.255017342688026,  0.116383337738538, 99.704795331770512,  3.771173758450621
12.908529617599514, 18.858719418510955, 100.527329029980663,  4.598381797393701
 7.349032803101641, 10.207095922069042, 49.216534787336187,  3.830325643062400
 2.628547744666605,  5.302563763365355, 10.824344716305717,  3.933490948324727
10.806218936994181, 14.537834222818088, 37.085883943695137,  4.026152836354880
14.176190694068440, 11.201512301787991, 104.567949533036526,  4.202304858736561
 2.661442725097990,  1.300982111062568, 106.747616133496209,  4.201849411545332
 9.562725908949915, 12.616719504629456, 99.033099816046672,  3.747690778895562
18.061515837329392, 13.675506319593621,  6.066165527743160,  3.775525288227017
11.245507122750309, 16.528316255339629, 65.980526015372348,  4.080724152887628
 5.993195879535503,  1.084602776627131, 112.645601201725654,  4.053830919091665
18.286481515244972, 18.069643781417735, 69.246016616058355,  3.843995318695852
16.992028067421597,  0.950677494046587, 14.358374215762066,  3.982285877863170
 7.582951076142355,  2.433571312950332,  1.227317821515383,  3.880535200013898
 9.190729167321431,  2.708633459857153, 91.200088490472083,  3.994451035102641
 3.995068018291065,  1.630085988633837,  2.795252286548188,  4.050489026998084
15.876448186808902,  4.348974233693467, 71.473838533195490,  4.285594008484560
15.227426271547793, 12.185234436099762, 97.899412601166077,  4.274145794355969
13.394333952223219,  1.846108007275707, 73.715741439987283,  4.025854260209132
11.844564584070413,  3.846588466366052, 70.527854701020530,  4.041641306292943
 4.397720009642772,  5.359925043420686, 70.039406771696349,  3.759590235157445
10.552190998516036, 13.867563322217569, 17.206711019519492,  3.875548462540289
 3.193204452318244, 17.700132453236446, 110.864061068137119,  4.043258367476053
 5.663912416280639, 16.010676254818911,  7.609396075161775,  3.878112979082796
18.107057769364481, 13.717510055901945, 34.054540825062531,  4.018513959734705
16.036577901773985,  7.259175853196146,  2.092738400359989,  4.106391251133008
11.631759294521006,  6.059916002847632, 19.797867542331460,  4.011770529564868
13.382202093052975,  7.444267937469071, 23.401006187027914,  4.094173450063549
 3.188580550485691,  3.875491142652583, 23.450451374882729,  4.329700135439799
13.077610982427878, 13.573907631336606, 93.098398713205910,  4.031142728427482
 5.340222038797317,  4.558961332529221, 13.571491866335132,  3.900159164024926
 7.149229970319555, 13.490337522499832, 70.417974148105259,  4.127387149301778
12.153998945358637,  3.909715938838313, 14.811116059544810,  4.196428918826845
 8.165555687965687,  2.627102985092930, 15.481643123780501,  3.934714117072546
13.303785700699015, 14.184044431818933, 85.953023452983260,  4.076631921210317
 6.441899252503526,  3.259939184374344, 105.946448605631417,  4.275616565321130
 3.267757135894339, 10.848858946347843, 24.580352092135172,  4.140813444470257
 4.648639873470241, 17.107982657153045, 37.057043743174468,  4.020611303249116
 9.485684309408116,  8.035786836591319, 73.231858750065712,  4.398602398145973
16.999219531010912,  0.357728930473951, 40.700749259396702,  3.873929508265971
 1.760898416945295, 18.755451316069166, 62.769174046612292,  3.832506418223684
 0.307245512292346, 12.104138035350340, 90.474387990813071,  3.825122463900930
 0.705493344039751,  8.087439927067498, 105.424978853061106,  3.877334429290000
 9.978213737424154,  4.559079875945865, 113.946181770811449,  3.770361493751845
 6.936281015924951, 16.447264818754103, 19.450130446277651,  3.936216685149652
 4.842745786558129,  9.687611153790414, 19.801637948271598,  4.459537595610478
 2.929755251606006, 16.674214356714511, 19.254330642154905,  4.082901250854998
 7.365264319031441,  8.770480042350934, 34.188260330008774,  3.826415225458581
18.415061481049044, 16.815769197494966, 111.571768663418837,  3.781288687784829
 7.491839345285190,  7.419718179463391, 52.809934269313260,  3.763615184541477
14.359941650359893,  9.860919429500127, 14.386890681291579,  4.089026454143939
 9.975738438757681,  2.153653908190295, 107.611299417578635,  3.757095326903340
 4.960263751685596,  4.448323499888457, 41.628093821560299,  4.071289880720276
18.245726678930097,  4.579554341793765,  4.277135342046178,  3.995893255862610
 7.305720090235829,  7.437193896071002, 111.332014576176789,  3.571779831378465
 3.278973964369024,  7.017779496621256, 93.102970075095939,  4.097827467889625
 7.516033786113465,  7.833544222201492, 13.742186731824189,  3.959681421171877
 1.722772324736112,  0.069743440351060, 76.970331980960069,  4.013359947956526
14.010517920251145,  3.389069093372809, 102.964330259710366,  3.734696629856038
11.212893417569102,  7.559333771216047, 51.563718439581116,  3.998240413413261
12.323559413332415, 10.640807510569042, 19.038422059711646,  4.314298983210421
 6.230269885831732, 14.101898209125151,  4.008459034898665,  4.303323106352257
17.168955024215453, 12.355142861428163, 59.029820681292009,  3.816316723176352
18.844713697728505, 11.090811846203614, 99.434464368895192,  3.873355328450614
 1.424936313590206, 16.741095713568363, 32.613161820729822,  4.048394947800610
 6.385668662911570,  5.982175843585178,  9.158602706054197,  4.372984800175561
14.765231227428609,  9.317307275483834, 10.440709756934339,  3.777423504797919
 8.651595291704131, 10.622312989760228,  3.933373227482984,  4.174055496914259
14.975018176000043,  7.013775824537290, 112.902406188798153,  4.186678921094172
13.067993446243072,  0.784896246357812, 96.376028375477475,  3.618969523752747
 2.626668230958789,  8.300748468041048, 13.281445340214182,  3.795482514286900
 9.448206229567798,  8.296017013945924,  7.120133510350709,  3.868336839329604
14.637971031316557,  5.364602435708827, 59.992904982075537,  3.903002360828909
10.830653505880187,  5.303077156436125,  5.154032053338087,  3.770593162737782
14.419650995983304, 17.555804961267558, 93.397939406998290,  4.260154921287735
14.041369827352778, 17.505302812163269, 81.139793180396168,  3.948715761615504
18.307309942270685, 13.910410541184973, 69.857200647936565,  4.478888269458626
 4.099226910073744,  4.347618188040276, 96.184191712914938,  4.185082733535578
15.793835887328857,  6.543944851455982, 67.837026336569295,  3.980433998413802
 3.484654037825218,  8.682171943540332, 68.509715440049362,  3.776092187807646
13.523061319338481,  3.460852312271689, 66.956919725688138,  3.863978219057464
10.475698713415669, 15.059904718546525, 95.931276820184991,  4.209196161874398
 6.323389951716328,  2.116434797204471, 68.437067397672223,  4.349053840354808
16.974129760607386,  3.588870962806772, 114.329248115221944,  4.140916259846665
13.138282217220148, 17.012254958428450, 18.609125752649145,  4.126428748025758
10.576698301224857, 11.538688763915646, 69.568292948102936,  3.931952698743736
 0.692661684133192,  9.023255652839349, 58.664319503075120,  3.974101449320708
 2.190869656162715, 15.075561368596043, 94.026057108100645,  4.138146874373570
11.018908753702211,  1.411268931658072, 118.110037504616287,  3.932504616004461
 3.889260433469068, 10.559160060298684, 34.889665819642914,  3.521834993805958
15.859594174217424,  2.333923701753760, 93.461500312139734,  3.759425359457286
14.900530117385010,  0.115303369271946, 111.973184802674140,  4.369202730169116
18.020584310179682, 14.233136442684147, 105.085336515822618,  4.083965663510688
16.582476546492835, 10.999586762055385, 118.440584144477583,  4.166866920253206
18.637206310827796, 13.376945103711902, 47.324810265145743,  4.236342772199791
 6.464635765352214, 12.117306040591288, 63.512688340540976,  4.217538960734697
 2.539655904372812, 14.219311750338388, 72.597212447403251,  3.913005560934092
11.430995036608085,  0.987215346155749, 114.212030513428672,  3.940171625767838
 8.333299153943852,  8.393883899814346, 69.061302134347088,  3.841174940486117
 6.025128615198046, 11.570327062020626, 31.794529841410085,  3.992749679998712
16.800628725185760, 12.215547423833007, 73.881810283918455,  4.513431308741337
 1.962861784175344,  9.149731794008618, 117.837471154752393,  3.999379070235157
 3.705336139670025, 14.670363027062796, 13.892439742759818,  3.607080685931698
 3.531738311850935, 12.507550785197022, 96.784093552409672,  3.767097581088140
17.565568141193495, 10.003544730536644, 68.505599881493779,  3.871085194005014
 3.564144636008421, 12.615877869731847, 69.415249804194602,  3.477725022533485
 7.247404938881130, 15.295179193607337, 80.256427216916848,  3.996192670008657
 5.139553587773539, 18.481296393231990, 22.417234082082356,  4.040329077110663
13.886791152335844,  5.743396793417831, 56.172439165567027,  3.890668245318009
15.266697665430254, 10.252870914689250, 94.184543539852527,  4.096016867474975
 9.347649258339571, 10.239737634019578, 109.910055489312242,  3.921652660328548
 7.536991540719675, 12.223198948938711, 82.738152486983779,  3.919528004791480
 7.241397017086340,  6.177023862701209, 49.041814422008059,  4.180841835339305
17.274701240895421,  6.879441036438775, 23.103338710937688,  3.759192136299711
16.524028674596103, 18.014883349241334, 52.206662802442800,  3.651192397030927
10.052295566553580,  3.352157132398725, 36.637147820640337,  3.677899442004593
 3.573583403860745,  1.551485074912737, 53.798988788865763,  3.924592386288386
 0.420117247808870, 11.700167529765860, 83.403291893142807,  4.172475995168908
 8.723946854014217,  9.089193909878189, 65.163970832083521,  4.027198625541672
 9.605458137865021,  6.569432314638757, 77.628549479646836,  4.006059018815940
 8.153471101358759,  3.967363611472441, 81.612127752110666,  4.115069451986725
 1.122700127489543, 15.399147899413100, 65.937550222207065,  3.995987668425296
 1.296277472201379, 17.284770864303869, 118.429082401746456,  4.354502101222674
15.191763491750867,  1.852080081626032,  3.704978129965239,  3.999096249391889
 1.901784354040341,  1.453874695691043, 26.449315444622965,  3.698016901297966
 1.621265087923891, 15.380679440545155, 85.486942220797559,  4.424658193651087
 8.151212886316028, 12.707133301761795, 20.204630147498214,  4.045383921711232
15.301778798537280, 11.541054034636423,  7.481617293468082,  3.698743474047759
 7.710313525350076, 16.039692942319729, 84.193979082522006,  4.062625186688602
 0.592139624191719,  3.912970159804983, 52.230558075166613,  4.271928521188595
16.669689818061272,  2.541509079372449, 57.546319965274954,  4.320621337506147
 6.760239441911548,  8.803023700607818, 92.265667755839019,  3.722212541985196
17.653531909835298,  2.828485200989457, 67.967667831295941,  4.129596192720661
17.507723346850835,  3.732436033269140, 11.595062119632559,  3.804628475636832
 6.114766385637298,  0.346434230939932, 80.424266054498560,  4.332653419716651
15.751873071891874,  0.219445920176529, 44.543207185853184,  4.173382401193879
18.682063372927988,  6.606855755346388, 78.743318367385299,  4.205200521023005
13.211058344397378, 18.958351089194629, 15.038599322462812,  3.935802173752333
 2.178060260137276, 11.184643582768047, 87.114100978270130,  4.080370757358728
 9.702237275937689,  7.587125198108138, 101.688185031160430,  4.217772729385541
16.940736455471686, 16.112281381906453, 63.543526887692046,  4.038769277452295
 7.578496031997695, 18.318814987410985, 44.079471557134966,  4.125551955909608
13.059961417072874, 11.975766306610861, 31.856493142042808,  3.983421792613960
 4.080882251889006, 14.160639528225181, 82.347664587726342,  3.861768423540584
13.021972608439672, 14.186049194415341, 73.740409150927078,  3.914859410367340
15.135738591941454,  2.704636868447952, 28.938199446474528,  4.151524948217602
18.862457860613336, 16.110360440747478, 89.475458405124101,  4.238830347974043
16.130436437644104,  4.674998648846204, 15.753292277989594,  4.104960481233738
13.316814686125319,  8.392983867770157,  7.043023370555325,  3.739773585370814
15.159518414316121, 10.354765276238252, 110.290113008772408,  3.967354962061336
 6.596167679235931,  1.371714257514509, 94.808924682999759,  4.031390743190555
16.952993764088962, 12.971318215083841, 65.999746065402121,  3.906394496569233
 8.174626325639837,  6.803898554323578,  2.786620865056275,  3.845345720576204
15.639582615249482,  7.722388043690228, 89.678313034455428,  4.146870151789655
 1.275003888954396, 18.411626874828940, 23.319710651225030,  3.845020071602045
11.591514565391037, 11.011906404907769, 95.959041867449528,  4.172954194802922
 7.424677723941713,  1.439186336936825, 19.595855818273428,  4.035808790241286
16.465519765770491,  7.701965235511136, 45.217211592820092,  3.918428641355387
10.007036581489286, 12.924322966996728, 25.578870611502150,  3.906398873431756
12.095760231559490, 12.165592140995114, 51.761865490895168,  4.184294318084074
 4.346964905508720,  3.470155768219814, 109.929200757231598,  3.881989940405457
 5.540956859344822, 17.463132013831327, 105.187082314092322,  3.897593494439865
 5.142238961081781, 11.210557888306919, 117.164241440957440,  3.439231297817236
 3.977891907207011,  4.057697487782818, 31.317325206674198,  3.843498807264673
14.904816050132402, 15.035775018972016,  0.336115565308675,  3.755089317995450
13.346931956421020, 12.840006905593432, 43.979485681898474,  3.728230742734686
 0.902672443136105, 14.125042166749751, 16.859625311455581,  3.994501202749603
12.089753749102572,  2.939063916731685, 110.893030531661879,  3.864981047198905
10.294482630239669,  4.190610985935053, 104.182608102062886,  4.231219812981180
18.126625553276650, 12.417768960204839, 24.154877219398493,  4.123086859368417
17.783109747805522,  4.142918614526066, 90.393170274739646,  4.318727651097639
 5.271928012652337, 13.436531446036676, 85.979399949310661,  3.887027936931233
12.871575585355718, 14.399108620350511,  8.172743859720384,  3.864918620497276
 2.026410049028734,  1.293327236363177, 113.591928862041186,  3.737934597734443
 2.067551476584077, 18.791555891698369, 39.775243561217430,  4.167089107346206
 9.437092761424854,  9.382349635997553,  0.125630040799785,  3.974735888633799
13.239721616442312,  3.059477358254306, 43.070071917271271,  3.946076930553265
 8.274685610239651, 15.925983804417918, 73.448085742257462,  3.840393918553067
 6.022463093035621,  6.072553924741466, 21.483906746963179,  3.823914854380124
 9.060183145819892,  5.212770572087451, 39.852252522540084,  3.546777689117147
 9.950148466020043,  7.506071752850591, 85.380373966029651,  3.953338213818766
14.530311015100942, 16.061681214543292, 42.154554560823584,  4.035062662108880
13.272014660363315,  9.933223913377672, 80.122091037907921,  3.905587875131324
13.142595933793611,  9.150462777683916, 117.086580101561722,  4.092686973503474
 7.518170550129605, 18.485156737602569, 65.340985104886727,  4.075731469012390
 1.408670411875888,  9.441381602340522, 113.826584649745769,  4.114799697770755
 1.157952184432156,  1.380379016294914,  5.495430390969736,  3.775011319863298
11.177448188197699,  2.257177492869554, 29.998920645078552,  4.077912537698899
13.957936835082956,  1.004114353611845, 108.035275818917299,  3.914617480330047
 2.130275728053699,  0.606889535993730, 95.803649845547440,  4.274269911577707
13.050813891901802, 10.218869656864666, 73.678459209226688,  3.984052994701909
16.978669068636265,  7.242324047750303, 116.591771470634470,  4.184728917371927
 8.023619608111678, 15.832595287310772, 62.303328561378819,  4.044036886439081
11.630265213805790, 15.526967899448643, 13.758363046670837,  3.990338864941279
 7.831464569452430, 13.036158308356612,  0.361431579138213,  3.937543921310635
 7.310477776332082, 11.835048394092558, 95.917780784836694,  4.089215041974434
13.140578078682118,  5.216813202756445, 116.104574160958578,  3.973685576201026
16.871101927141599, 11.367902324961671, 31.078037789611120,  3.825656940454072
 4.986756628392138, 18.067945795955200, 50.739457329972041,  4.125392947552649
 1.255174232877560,  5.062741604112737, 107.972674740182313,  4.098479029991890
 5.137052962055987, 18.392772393049352, 71.397203446025159,  3.775531135946328
 8.981006381806417, 16.243239925814823, 99.966105396889276,  3.815925987959306
 4.068985635647319,  8.674070743938007, 89.573312043782437,  3.836850696438184
 6.855688640464405, 16.782966329777906, 96.539250180925976,  3.888983521308041
10.014480873705807,  3.958157153509163, 74.120625313451441,  3.976241684162239
10.275510716900401, 18.732461697891786, 93.958848638891197,  4.034308996345794
13.693020067914572,  2.726003133701034, 11.044967024369196,  4.150537759600035
 0.802184997108128,  5.766809808774936,  0.890082802175994,  3.804034202709112
 7.764579186063114, 17.113047128841362, 58.276297381393576,  4.061788217138733
16.565046980023968,  4.172477693820059, 40.100117889059362,  3.796625868240457
 9.506640074036389, 11.740759718400636, 92.518064523360422,  4.002800153145293
 6.189611251714801, 11.098033760553031, 67.390723266797309,  3.778247206844147
10.674767545447772,  0.084082094912866, 71.471165763385613,  3.850028893378260
 4.443155778444725,  6.389868640175803, 86.459201732328566,  3.906797471060822
10.233182211173803, 15.113789177558917, 43.961979023672640,  3.960128803863479
 5.512495487386953, 15.011740827602603, 66.901412215558196,  4.196138016568448
14.951835996621490, 10.419659905388057, 41.289886992626521,  4.176437355527569
 0.533516824987909,  3.386978717716747, 73.072507067864407,  3.843370852895933
12.549631928527889, 16.406800591318852, 109.387609534567403,  4.086879100059945
14.513278235525208,  0.526672350791391, 21.992480003755617,  4.282978460537564
 3.687592752219392, 16.383009501603677, 58.010973034248288,  4.110107035415297
18.901284321079817,  0.433809483225485, 54.802000726660189,  3.870569724903117
 5.522711049031265,  5.009833024620816, 55.284310855869954,  4.186466913313986
11.908327181292838, 15.394547714726510, 78.466293088860581,  4.007703623204357
 7.200984798798447, 18.299753277672014, 91.481286600877070,  3.864841613705180
 6.596140825803274,  6.664849059825467, 62.887800166830054,  3.828325543414661
 7.418713003280463, 15.127855945680663, 39.200822183833964,  4.023541696578319
 9.144581259853966,  0.850683803298660, 84.011148295337335,  3.996811634350473
 5.355973915607804, 11.446977967216986,  7.196664009611752,  4.051027146222586
 1.974748550888968,  7.697678243860385, 22.476824182476577,  3.853180938890134
 8.058215930747339,  9.878715019860984, 27.371330593048761,  3.953196130504019
 3.054879261058838,  6.888112286432634, 81.248436075621100,  3.964198629251980
 7.740348714814218,  3.332515077025617, 31.602403634128258,  3.801854848628059
11.373835575100310,  2.126585160316680, 18.551315837383228,  4.227402518847006
 3.291264291578509, 15.202697405084260, 29.243160170629075,  4.193947710269454
11.786863864033743, 13.798329394931899, 47.438865998550625,  4.067632185521136
 6.938215072859585,  5.895446916018838, 89.410476393084664,  3.869746961322660
14.446650330892645,  0.578463976826763, 69.818419754086804,  4.431010443447670
 0.309098541813897,  2.681230867290924, 103.325369519910637,  4.004162987218515
17.549326970969283, 17.607974784772097,  4.194077411489113,  4.012255027260413
 4.477735144459758, 18.586217119377718, 84.268434773530203,  4.148421437099831
16.743530208279992,  9.033620763379322, 102.287164152771126,  3.893753910915509
18.514153014519312,  5.764737535891144, 100.767055094408704,  4.138900112640015
11.566681846941419,  7.573181922433058, 58.763302194182877,  3.968307585539843
 7.031738067420716, 17.614746932286202, 12.305383945378763,  3.929512745511845
 2.147504639265350,  7.917539596327373, 97.816562729060976,  4.569553551583611
10.803915365941121,  2.255043129702205, 46.138458030626765,  4.022978499681205
 3.636571539991774, 11.576273122908919, 100.524012379006976,  3.917652435429958
 9.239269275159087, 17.158566985145068, 106.999259311689315,  4.173432433950683
 6.948110758918849,  1.486411002903318, 47.760669794457087,  4.434228340164422
12.318804060305915,  9.014481191185352, 107.538555365940951,  4.057489299511512
 1.719245782523481, 10.244173618293063, 108.607573168360830,  3.967870322498602
 0.278741085147226,  1.691073968762847,  1.934878810561325,  3.559091956476921
 0.531894963545020, 16.794421156196243, 13.865335981286220,  3.997840292744925
13.195539620369924,  9.531703838130065, 100.462804608269721,  4.139129665932531
17.479240957277341, 12.742764326751745, 13.823105338315397,  4.172328783902286
11.070738654334024, 10.521807397591173, 22.831083809792212,  3.603757975626342
11.390611595250874,  8.294437690533361, 40.838162029864165,  3.775367519330514
18.165998292058045,  7.759805008607176, 41.493457921718438,  4.167973745503554
14.730989183305239, 17.720633346752596, 27.939631222534803,  4.009551691579010
11.853494319845895, 16.253608707758094, 57.843999289483826,  3.934615976666341
12.145848656702878, 12.681110890264705, 110.189822192495171,  3.526176849616010
 6.556521800722740, 16.003325322680311, 112.514438710847656,  4.095661915774111
 5.282197155204564,  7.243249906012140, 25.313700339496435,  4.248403298937350
 7.829865845028791, 15.810092232608980, 34.550810372775302,  4.151063282338434
 1.029685891954147, 11.555137920172930, 50.675680252881399,  3.738685246175245
 1.260139230119697, 10.311878472089480, 71.697564352144383,  4.464487050818509
15.164027556351876, 14.373754704779408, 112.160088934864447,  4.381807456645383
18.307537245544999,  7.604639575557138, 11.156773885813228,  4.125856944574311
 2.664192162145890,  6.583570305315722, 62.505014269494204,  4.021643009219286
12.652482008099405,  8.977833529293168, 44.703166329810607,  4.176334039373656
11.370990685400798, 15.601224086369603, 32.499201818137223,  4.043452485416671
15.151180784026726,  3.884445133979314, 24.394657158309361,  4.017744901486638
 8.512708524323513, 17.613911369948951, 115.940912320978683,  4.280011257233416
18.484843826023248, 18.848749858609203, 65.661147202137187,  3.490271532541291
12.162820328153968,  8.469594565151128,  3.089195589513373,  4.218505672444286
11.217531482648978, 15.350951796772938, 70.436341983501023,  3.891280150770473
 0.148583806845482,  4.476769317439908, 86.398751218141243,  4.124624136235834
14.795328344577227,  8.298780483173493, 37.878874328149223,  3.854856882331283
18.598248331338112, 15.667415058280433, 56.763673586725368,  4.220539712207108
 3.794405766478378,  2.530977338260818, 87.071400561220244,  4.012211827958718
17.365866448425205,  8.435585356629812, 82.119693850767376,  3.871217839257640
11.115342601493440,  8.025123304504259, 12.023337311353789,  3.946375296739025
 2.110783222850793, 15.251496882278021, 50.082030060030050,  4.011364887056780
 6.006900228495502, 18.557790424464972, 40.454474212879724,  3.783710061631961
10.694080259419779, 15.045368341345954, 113.120845637330731,  4.440865780232731
 5.215644007815228,  3.235939015283388, 27.093999211810402,  3.935748946950321
 6.926772202842487, 16.618060780508358, 30.617547212658501,  3.920704157385486
 3.784874700622536,  2.507362924245145, 45.048384298514151,  4.131443943481989
15.279122594706179, 16.716072590092018, 38.145095237972889,  4.202296976513686
 2.694125500671768, 16.638837753736972,  4.531927551158737,  4.463340102279306
 2.058150343851377, 10.704801898310496, 79.841932577023456,  3.895448296911511
 9.172558780110961,  4.011043191838571, 26.889977697039164,  4.109414627050096
 5.235258653690737, 11.128290617631414, 13.937702911796443,  4.003946207109457
 3.180742166161749,  0.376906099335886, 29.989919786452745,  4.129225874834704
13.468887385885649,  0.566168848798646, 59.320987483214637,  3.952779498609117
16.107355388421333,  0.404852679014172, 90.139137317520039,  3.721990205533829
17.222894200741880, 12.901535123626514, 86.870810513166617,  4.346011862443383
 8.901886648462769,  8.837455448041872, 20.303138214391840,  3.822422010231318
 5.322408995739404, 16.841420003759399, 101.308774909847713,  3.900459520297173
14.813255218980537,  7.660871193355410, 48.712513897382351,  3.796966662352060
 8.117556697126098, 11.383569964824531, 53.025118414974038,  4.253799970117692
12.110309982529891,  9.245172614959733, 34.550708793010735,  3.917752303555741
17.698332407149831, 17.343988970013335, 48.563080661827449,  4.026082268193657
17.256039824806237, 17.470587761566680, 107.713292663090314,  4.377695609225092
15.730678223970280, 10.669173340802228, 34.910724075368286,  3.889792870713672
 3.327305439273270, 18.417123695064607, 92.038546908866905,  3.959895941757373
14.663849949205117, 15.676286231262971, 89.596695878149717,  4.205554940213607
 4.618291003480231, 13.879064439405711, 109.718665579769208,  3.888223109120680
15.669868276197519,  3.332231406061401, 53.568352624202049,  4.030190544896783
13.021816567363219,  9.590628962359668, 55.248942252061582,  4.177221543504561
 9.251996452077671, 12.862657020410714, 86.281042688132871,  4.038724110381465
 6.673722997543456,  9.699851396472525, 86.170289046574439,  4.084095330763788
 2.531190484352169, 18.312055880726088, 47.411965930915365,  4.149872600278463
 6.827385807995435,  5.109231547155869, 93.277946080143280,  3.913692501390542
15.251964884592363, 15.441784855452887, 46.052884782169038,  3.937586127786825
 2.016173753881533,  2.962652015371562, 92.608849112531118,  3.609674172237440
13.071327053414612, 11.868808010276837, 66.393497480275030,  4.167218279909116
 5.244892497062405, 17.604669165876818, 15.941235693362446,  4.164660325238967
 3.460714588394423,  7.902420085099037, 77.376499275876981,  4.073513338116793
 5.329115783311878,  4.749251600022265, 78.897083650954883,  3.848196157420201
10.663571639220587, 17.174459724535126, 86.772148831104943,  4.049830157019637
11.897228411572348,  9.635605100848045, 26.355588070272603,  3.815158720531278
 9.978307163607832,  7.384071914034503, 93.830620334498462,  3.935816261105427
 7.226853953424203, 10.487332252343309, 23.482226117875779,  4.081865857721558
14.582761577543323,  5.344108966373200,  5.259667473403822,  3.726414707647240
 7.107435231093327,  3.486825840154721, 60.537414012054491,  4.090150908827146
 9.354463154493590,  2.912672050851725, 63.899563300394476,  4.042299500178891
17.090154991232328,  0.978996405353513, 75.261961429778893,  4.139493540298187
18.212568691064543,  9.290799194836602, 48.236454684954765,  3.738693261646269
12.492033976535694,  7.775964568840171, 65.910076810583888,  4.045537453635374
 1.298003434850877,  1.759947315443516, 33.331758816183225,  4.004034288283027
10.248104061247160, 15.683795719747904, 103.463324188635681,  3.601113002420418
 4.368473996673386, 13.593321969601964, 21.621492650324942,  4.187866220368210
 3.395228593249896, 13.679131943191141,  0.951967067309970,  4.051909282903790
 8.205951306598775, 10.147518293444307, 105.981107254069400,  4.082936553228595
 8.055568907324469, 10.476117447684857, 16.787544000914849,  4.114107129481617
16.699275016529981, 16.758105417470368, 100.582574890070987,  4.054445276557974
15.468001488468996,  5.801236477241878,  8.961920918791060,  3.871359136816864
14.727027349401000,  6.152012029727685, 80.103398907725733,  4.131787429267002
 9.878800133785704,  0.165267986979335, 61.027458226221611,  3.949279113499628
 7.563632191461320,  9.943727831477641, 10.289962180814316,  4.119044881688485
 9.062768353937276,  9.968897429375126, 56.790674334517497,  3.993288667347823
15.086010494629255, 17.882983932074065, 55.912175747651347,  4.239571802210735
 9.987228598475271, 11.351481391865349, 42.764260633212601,  3.926257165582920
17.010843866536696,  0.185772811437110, 96.604248351672595,  4.095165950734282
12.878592226823390,  5.847300630991277, 27.159384873461633,  4.111786204640162
11.340580862989812,  4.000087652331208, 100.057736527617834,  4.242263019773790
10.100826694245843, 12.008031474640491, 79.930687648493787,  3.645998334469512
 4.752375039191293,  0.659051731222797,  6.575767251165637,  3.863328559286202
 6.416168059198979,  7.113127781248667, 83.255736488105839,  3.711101436380137
17.534039750588608, 17.747632542559252, 79.058294572846577,  3.968298350805235
18.119442704643927,  5.555067446394621, 48.777938231573117,  3.782307045836168
 0.303215224423638, 15.179592520757314, 21.670131816755177,  3.645610218402026
 2.510617114208541,  4.530553247625440, 66.970999937745063,  3.617333240197654
15.185310543833738, 11.632855577519683, 83.272041350582683,  4.195266648190037
 0.758893058589658,  0.674621222236053, 85.369830359208649,  3.844575757639240
 0.040289259257713, 10.538467509922151,  8.292562820817677,  4.148001424225330
 7.707870629814129, 14.287650277949867, 14.418799638241973,  4.043982302584820
 0.034915820009785, 11.314397756497996, 95.458298473483879,  4.076104198876942
 8.597308924540762, 14.132313404610802, 109.614411819659338,  3.921347044902696
12.809831721375474,  4.968211787634018, 38.950443304311626,  4.162840201660365
 2.960402578273556,  8.234813811524637, 48.320214195842127,  3.987713778417085
 8.279843500825336,  4.988388699806695, 97.184493129550134,  4.382546074306371
17.920938252623181, 10.721900289869593, 55.190779856759072,  4.501557176695814
 3.890445075530978, 17.641841862854900, 88.194979228809473,  3.957688071531230
18.265233608057205,  7.981775236745644, 110.733483898169112,  3.865668226679922
14.258280332952401, 14.362977528792657, 34.950127055869231,  3.924750365191927
17.632521716173915,  5.616573428648849, 36.329086372808931,  4.494239321747684
 2.332327828440678, 13.929763391857472,  8.235044991229522,  4.028652411717564
 3.504846144819913, 16.028685618013181, 78.951775742266392,  3.972846716466770
 2.390014339196681, 14.926204337783307, 25.114403576941605,  4.262084210552574
18.025814371559616, 18.390886279635104, 20.212168509731779,  3.786761496447418
 7.298062547400467, 13.855642552801928, 102.327585317806694,  3.541371991048460
 3.473875987111524, 14.887987637570490, 40.266031519074161,  4.037180304394658
 0.973600216343124,  9.920364484628081, 44.776838510889412,  4.081647556852635
17.145288823838118, 14.297450806737976, 93.100957535764451,  4.208696071004284
14.668646181383945,  7.590042514091867, 17.914039895882716,  3.657878015644647
 9.595167554951681, 11.084109543775877, 38.806286918962073,  3.965540081587131
 4.183454951615087,  1.485919624834015, 102.858393371759703,  4.155592803180340
 9.939857098291474,  9.247567884754295, 31.023678276008841,  4.360080193711800
15.399574512203356, 11.706211239909752, 90.422196690732378,  3.967655051684839
 3.995453686226285, 15.460756951497990, 63.042271907870656,  4.139650050742862
 1.332092836851993, 17.577951346394073, 81.903651311669151,  3.953975131724816
 9.226681962690192, 13.128479469164336, 66.278651102773267,  3.844825873364016
13.699999908026934,  3.384573645386090, 90.432139236105016,  3.948368207837782
14.567584839323303,  8.428416296729511, 76.812931636644095,  3.808437335054903
 2.921196514613354,  0.993656992401093, 13.663505350688476,  3.854895105012810
 6.700618271306833,  3.109473869058498, 51.781152607909675,  4.107058366760236
 6.689496180873782,  9.556453887688805, 75.816271393479084,  3.800476875552496
13.586235030686572, 12.941159289320300, 116.033822718538090,  3.768378414079141
 1.990636211134672,  2.365895103892378, 80.307919656151768,  4.098765845873070
14.968956781692341, 12.637571089671233, 62.484610838979407,  4.172882540237538
 0.110386581184077,  5.353862252536824,  7.943491379022105,  3.677809110307920
12.773833057664422, 17.752407223988492,  2.078804237357866,  3.971266336842189
 9.262624443207638,  6.846619395986178, 23.808520858905538,  4.242985642991518
12.913793984249779,  4.909202925998937, 107.436573427918461,  4.236297700541037
17.853458601192131,  6.381074528366491, 55.542994218564296,  4.176365479676326
18.397808345460295,  7.432276066020413, 19.290453613077744,  4.255248815447126
 8.102935248640794,  9.567919283664184, 60.681486002895369,  4.061475557392517
 9.283154845753785, 13.328320198087049, 59.229362042156716,  4.270226264748039
10.238929739011414,  6.535472454094321, 55.254210985254232,  3.790947330913697
 7.287984289828069,  3.819233303952022, 101.206117864172029,  4.172261774496747
 2.821430379384663,  8.093368860476765, 102.102346280978580,  3.894182840693580
 0.417800718387831,  8.374106116358032, 26.099479125865152,  3.984513173462993
14.242297764318542, 14.037720952971378, 16.121901565918883,  3.644077183377294
 7.717853486350147,  0.880857047955414, 28.763802302016892,  3.693840343156702
 2.791974395757564,  5.218143767868775, 19.627776257186053,  3.769932299994227
15.462741994504034, 10.794722166740730,  3.801450970768167,  3.809930725528809
10.373154535850308, 14.534782850648982,  3.463349655481224,  4.084806252969409
 5.985641473156787,  6.367456280565407, 66.706518054135046,  3.884436942865644
