BANDS
8 8
NANOPARTICLES
cell(1), 18.937
cell(2), 18.937
cell(3), 118.357
18.257834674729153,  7.190478091913375, 12.524986683112227,  3.824951304465286
17.836582327443352,  0.042096556001445, 66.105605356125437,  4.136395030102374
 2.284722379875305,  2.105907493425979, 31.347111597620906,  4.343632747878743
 0.923520248531679,  1.525297755809157, 44.704501594301178,  4.229459457452004
17.916399444161740, 10.937619718491913, 50.790984238795701,  4.088045573791645
 3.021386447780801, 12.118269207805932, 44.383938071750727,  4.243879569258947
18.531200690592616,  1.764294349599980, 24.800637991335456,  4.111702272148491
 9.150940684803137,  8.167149875930464, 111.284011725285396,  3.877337504175333
 7.049989919557683,  3.464042591748294, 23.875709643605198,  3.555357630496384
 8.916375683373685,  5.525659413212953, 47.745759584000858,  4.084479451991249
 2.946035925840857,  7.051884302844160, 86.627341859815246,  4.534524948705150
11.389987493676342, 10.493742255465104, 54.838558781912219,  3.973219866835199
 2.999996447762078,  0.516287111218804, 27.490281749134496,  4.110016163047400
 4.653356114230565,  9.425050655646523, 110.669984984786296,  3.770689188907352
16.977370744489725,  0.951722862188456, 74.657173839126173,  3.877021844165936
 7.978460558504115,  9.070603219455577, 18.212740097025527,  4.169020909678103
 5.781622969183307, 11.825505542032580, 66.743242837021825,  3.878792458725983
 6.989663927787097, 16.930563681275252, 100.311995358504490,  4.024592095034377
10.417555392909760,  0.595261801162489,  7.661874096423227,  3.975658916679640
14.971860148545987,  9.925646992808540,  5.441228927636817,  3.925577790455986
15.872418710554628, 12.355419653182956, 87.514408982023099,  4.285358193631192
 0.630774849967121, 17.279059160787476, 76.059439217750409,  3.979457787527263
 6.019890832642403,  0.219770546596805, 55.424863847429286,  3.960902305196556
12.901634756798689, 15.865547605817810, 58.624548232573382,  3.827873571502710
14.541553266393850, 14.217339411872361, 68.816994665625785,  4.298736714881304
15.049389265822832, 18.414524053941310, 11.848982946292100,  3.996840035457011
 3.155633509797698,  9.443829272709074, 94.067538727288664,  4.126566544973054
 7.371266756198681, 10.026118182614452, 23.363174979207578,  4.114203808194451
 0.323112669323614,  3.613315831857475, 52.847325489632425,  4.168237156412583
 0.724153944178214,  4.340510309631238, 48.856849600634376,  3.806952717995483
10.739611180172695,  4.275850548958610, 34.875363805463031,  3.995378603574169
13.805281441150459,  0.510784994502204, 48.516972098947299,  3.950606844967908
 2.273448211765991, 17.682080656540514, 24.072182639687028,  3.672291361632946
 8.921676892110680,  6.004529875012063, 82.087365273863739,  3.863743967777585
 9.965413578461867,  6.628846745123774, 96.916880686610554,  4.035042095063155
14.831443893794328,  9.385827110845904, 38.749381120345156,  3.858972744057572
 7.137951336893997,  6.509939111724296, 71.541381809796334,  4.418975181148620
 1.868676854193979,  0.682675808734814, 20.769202864437425,  3.964413381387733
 2.292199233794052, 15.368767683925762, 60.979754182090119,  3.705480952867534
13.642267871964162,  8.337240859499467, 96.945535597481168,  4.072232519697379
 2.911167332287904, 14.399650897516345, 82.551417362467618,  3.952817701788634
 3.237951879414315, 15.971643307320827, 90.420148923036592,  4.043622198808635
15.669845564434656,  5.893158078738632, 69.167139340151920,  4.249576483239213
 8.140943260771362, 13.574024048967763, 37.182061880894700,  3.677891615491981
12.935531069099172,  9.163124638955017, 75.933756514392414,  3.585697564567630
17.445163101135279, 16.809247270344674, 113.244588443102231,  4.100652113881903
 3.151016177763716, 13.141624269853827, 118.148989301312653,  4.104729690723471
 5.939311784945785, 12.856697933242700, 20.658767643934823,  4.222582468906696
13.904761959800513, 12.515295399683989, 13.836693726875790,  3.953433999835054
 2.420969579144424, 13.905291125029168, 67.285601327027251,  4.054828563311514
 8.200645044305068, 14.078144728300302, 102.841641077450220,  3.951906905148772
 2.821735098532256,  1.124310344255174, 48.640839173601677,  3.737080248874340
 3.442275391556032, 17.095977220214664, 57.705810053324853,  4.037965185417396
15.810527936405670, 17.941484836186167, 23.276093020975914,  4.200979066322486
 3.033535234246586,  8.734974481337492, 37.893084655300235,  3.801446113386536
14.601240678773070,  8.854534695732521, 35.009053341176447,  3.709561849586470
11.187563036747717,  7.618273196363577, 90.505965282241391,  4.291318895146809
 3.451599685679708,  5.754519511732698, 111.637435055270814,  4.114085143112534
 5.029990562829370, 16.736674485219847,  1.217423188162123,  3.925857810877414
 1.116103776910115,  8.278393736634373, 21.660425929981191,  3.925542377948551
 9.625465958205224, 14.114061973500407, 99.104783176927072,  4.035453771605678
 7.385670184119850, 13.400439398200465, 12.372175308956852,  4.239121028634795
15.413471381984607, 12.802383317988522, 47.950327797436252,  4.234496921984827
14.805835112287260,  5.923982204896786, 79.251125150669850,  4.054733725162341
 3.295028429768953,  7.846824926551608, 61.125853369612145,  3.851979220033635
 2.101642325545842, 16.773444368802391, 105.265724260963594,  3.759487536503339
17.782633667947156, 18.707719726059633, 105.824369203760142,  3.826259135664964
18.423763941936976,  8.421699123523011, 67.333236060758921,  4.045098857117026
 1.008327758191088, 13.680925741699221, 112.153658847421411,  3.951975327678450
 4.959991702691863, 10.648733045446701, 10.227723258273411,  4.258538245187684
 7.955103680186125,  8.906030752719756, 79.757300867223805,  3.791248144257112
16.112133235397948,  7.215710579377411, 103.768187599914228,  4.023944618983694
13.942644628066816, 15.614727276742750,  5.094965698457893,  3.749233933686835
10.452209296826176,  2.666645568546690,  4.349933581481807,  3.822129102408804
11.437838916801985,  4.833864101735570,  7.478097464286259,  4.010221798033058
14.848367959730119, 14.683638362188066, 84.170558595307938,  4.096413324086071
13.353271695955486,  2.084057450724298, 111.670214976127298,  3.964723523361004
 3.688894716092269,  5.370926173975689, 51.284589583122511,  3.922760028742335
11.691688060340896, 18.471466853629696, 40.056021061323698,  4.012362471481671
 1.388780085823243,  4.883488069424176, 67.837137237019874,  3.944737245629209
18.904130624977899, 14.822242016931778, 97.194570946399352,  3.870385422326322
 4.580449263427488, 18.932747521767070, 45.489888381107448,  3.824515432874003
 7.942141476903886, 11.762031981229507, 53.409859953133321,  3.897890357501161
14.483121042894927, 13.761696887579244, 33.243840445234291,  3.788997566388578
 5.447681621693059, 11.068927081947120, 102.879236325454400,  4.021187746495983
 1.192611977007278, 13.845430560501292, 57.675802106696004,  3.856169862435039
 1.986686682953635,  7.055512638500585, 104.957218273679928,  4.090573600838658
 5.817053878410604, 13.055090634772835, 99.355422597057100,  3.881819268520448
 5.336381588947783,  0.213827830542947, 83.761690715744095,  4.258467739444106
16.992532244698324,  1.359221649234555, 36.436379931871159,  4.317069857206874
 6.751015479338313,  0.403343949936298, 42.257319526831601,  3.902608304485534
16.645964542879749, 13.860570934416812, 100.329487264588153,  4.072958998598009
 2.865263999513191, 10.151260865253702, 69.188685906569503,  4.380290483612501
13.111803620797337, 16.095838155343802,  1.306757309955846,  4.037091726907073
18.193262534764369,  8.065848098836149, 71.855639053139612,  4.309286767990971
12.711624937735230,  2.282059152356311, 102.802615022800211,  3.828290832390454
 5.109099453220136, 11.310814964630103, 81.140460439153799,  4.117178382621256
10.445215778784238,  9.208102758835478, 51.192129730905783,  3.921975671644571
 9.124527523134407,  3.419772334999918, 115.790580600347653,  4.266499308359049
10.200897853618310,  6.667389804309341, 28.624262423202676,  3.951170276873896
 2.065931005528341, 11.535774118979322, 60.747724141115711,  3.960540002564795
 8.231630596483807,  1.619646275649858, 86.308852324314699,  3.941390123860166
 5.926901867493297,  3.547819659897494,  0.078398408350734,  4.022452556027689
 5.128727264161963, 15.909484851831689, 28.290518004372718,  4.299693200910900
 0.386801033249479, 13.541913719611772, 63.812179268288460,  4.018123523599012
11.107631530347426,  4.468289884066306, 39.796224120733719,  3.620928942310369
 9.728215308327055,  4.555579590815212, 88.330122176977724,  3.765421229302207
17.615763869036893, 10.014740192620481, 62.867995021264747,  4.025742790919654
15.783742967467207,  7.141665241140173, 51.308172973952310,  3.957667079381751
15.616713306402925, 11.186596977369915, 73.579501464279602,  4.379757948469556
17.910117910870159, 18.817701102439781, 14.705486069371956,  3.626864269488281
 2.139949952145962, 14.006858451061104, 32.999154940123077,  3.927703501361534
 5.338943057484497,  2.723702647500252, 20.131322243675307,  4.106261050703405
10.257097423048643, 15.553273317372586, 42.482020067090090,  3.992368062477390
15.797621436027331, 14.673442289590632, 94.933969645340241,  3.805319686067564
12.387862705945459, 14.424093076719025, 109.868132146958530,  3.858298386544104
14.278984055324186,  3.681578537128089, 30.012181921095834,  4.084093851611724
 1.923289539556201,  3.516793660668606, 117.844902835096136,  3.908763249811391
 0.500412841419401,  4.979951711845938, 101.562671399286003,  4.308277580483785
10.796224152233071,  6.499796242228343, 78.731930205979097,  3.880269739585546
 3.438508188684893, 10.992875200923555, 23.368040515339306,  3.968318240889858
 6.346607305754308,  9.194580225841330, 84.848636846484581,  4.155651050861796
 5.721620694349798, 13.240384772780743, 31.411062418564516,  3.938618629733050
12.776298750760908, 16.602957612073926,  8.471739952615238,  3.660045987303600
12.719249603326181, 14.061459833435961, 45.184300427308600,  3.875983877711787
15.778682036791908, 18.648419631627341, 51.922458347087428,  4.038085344959531
 0.998189985425409,  0.340515703727746, 98.857066622136159,  3.810736181787171
16.021978954980778,  2.455611946357386, 80.969563446621066,  4.041397862017423
 5.194237751636823,  2.480279297109862, 10.690232650860878,  4.065710945767843
 9.882728435201999,  3.944333197210707, 54.720357642256502,  4.170077599691538
 2.377335645661700,  1.909564087511694, 95.480533241133486,  3.909944445451965
15.125705221623695,  0.293077192828727, 59.662994049801910,  3.926052212191979
 7.933216270576952, 16.670837783924281, 81.987881800937089,  3.748419592961882
 6.233793131486011,  5.547995372798128, 17.193869308641528,  3.934182080830033
 0.417828601971081,  7.822347642602024, 53.245721853523968,  4.267351663881755
 8.989095720632310, 12.996850223774091, 69.029356477688850,  4.323130395180752
 9.363934358455699,  4.242476823316787, 58.814650944957073,  4.078789097401742
11.488561058902427,  8.335817309207600,  1.551086120783850,  3.971231147800099
 0.099720732317374,  9.077606182149070, 101.840954715967754,  3.890963424887984
12.686490295365344, 11.910255245464777, 90.340410309358560,  3.767965818312835
 8.602389791542805, 17.263176972646765, 30.113975673299883,  3.923724344915843
17.952551436839940, 13.585306106742541, 44.618162770162172,  4.077844125237605
11.820980480025897, 18.137975734600829, 52.363251039746743,  3.977461245886992
14.089759529469802,  1.570455745404052, 63.131335230800808,  3.689278455335878
 6.125816290628304,  8.501659607075647, 33.408344835735129,  3.942608851508753
 8.885210422766271,  2.334720923760321, 17.869927515862873,  4.281297679518191
 8.963660026182293,  1.078665536828623,  1.001314796959199,  3.935855028681235
11.926251991706891, 16.655264644780260, 32.475638481874554,  4.063075292414648
13.600930686082918, 11.254476689382699, 82.782657321674719,  3.711161060743566
 6.939537042259738,  0.596570342987991, 69.212699759679424,  3.711588581173350
15.547451698686942,  1.352497128586823, 44.759695707274794,  4.133930961058810
 3.861913954598750, 11.636587734104257, 114.103405917577376,  4.061857403570827
 9.848985724069866,  0.734215548460250, 66.232137054543642,  4.460061865012507
12.033601850177059,  3.439906409613025, 81.029086502628957,  4.133013572919287
12.975086193642445, 14.418937717252431, 79.214352804054244,  4.368474746070052
 0.146784744891223, 10.629075378330588, 76.453257453092135,  4.196052756262494
 3.996139525084921,  8.892200034617641, 16.789354422185493,  4.027409493028432
18.309254099260535, 16.001238949083916, 68.853212678163118,  3.968414689684778
16.586414075437805, 13.879656589566318, 23.735792507280852,  4.085569555907202
11.293586574713265,  1.979541793716195, 94.907559650067782,  3.984910365038095
 0.714303619738696, 17.381061930089739, 17.721916775331575,  3.848942853012721
12.496207495926351, 11.943934935767182, 27.674801103936730,  3.875608356285649
17.959509996454553,  2.821726998404086, 86.123172063619805,  4.227651487240935
 9.062603562132487, 11.258692171152925, 76.816744232654713,  4.044390052921169
 5.867403140068493, 16.635589049711825, 60.978557856878652,  3.822622637891866
 3.739454099891812, 15.777076052549104, 114.893569136218971,  4.335377094576065
11.275345281864551, 13.933409046541948, 11.288366303640164,  3.860597022653864
17.353293268012898, 13.344004709008010,  4.627285893608524,  4.492187433826455
15.885965043703946, 13.259568945370003, 111.625600527114557,  4.272664322244043
12.433988784654693,  6.570775422384868, 116.508701847777772,  3.885759715899524
10.486976793436913,  9.794639929468680, 43.863554336465597,  4.033905227987475
 1.910562131464293,  1.723215731072332, 113.926799288088759,  4.150182275023834
16.151139575232477, 11.351686273188550, 103.600792112852815,  4.230281783238830
 9.532867923768114,  6.740045609504548, 10.517756989525699,  4.107953140208735
11.122662007120477, 18.753479992951434, 116.260286616653104,  3.998114053537001
 0.591914421716774,  1.631830218395956, 79.410264074879407,  3.807294175753172
 2.887661186722064,  5.762911739579154, 19.230557139660466,  3.906504867303356
17.993871001327538, 14.799083320294061, 35.440396836805732,  4.089524383985688
17.880727595027015,  3.703143736545251, 96.571435546189818,  4.113065519175512
13.650224020556037,  6.456517963440001, 109.746504478721079,  4.217683956307919
 2.075530725577909, 17.456972720981430, 111.367040711750718,  4.048532168730789
14.559244520497337, 18.905890688257337, 16.485984977888471,  3.900050855585923
 9.293087179047367, 15.521701757958473, 113.301012583956634,  3.988373897172676
14.726571999660656,  9.049820357326141, 106.940517464548364,  3.689262208100753
11.928821883413530,  1.368034473487368, 87.637288551393667,  3.902574305108087
10.391570777287315,  2.092975444965842, 42.893828713288407,  4.038046794390151
 8.248786633565718,  1.141756926876664, 52.195502463226454,  4.045471117671103
 1.557212140790412,  7.862636119236493, 108.830889864652335,  3.861457139032744
 1.053889443656501,  9.697830082000777, 10.257467187740515,  3.740586276441678
10.567688060643611,  8.704351145474469, 21.399844556301360,  3.815838393861459
 9.573522218257740, 13.181957617487592, 92.549637161596735,  4.177216802836344
 3.689233880217186, 16.158791865702639, 86.085682384394872,  3.995938891440872
10.179575572034263,  0.884902054340828, 105.429694501063736,  3.979959912628924
 1.279835478943488, 14.322906718103894, 41.207952608719133,  4.208173819299542
15.026312249583432, 10.991004202610569, 30.548786915625289,  3.999023298412626
 6.740624416412549,  5.188823472114950, 78.750636190195166,  4.246376317597633
 4.497281175826541, 16.594304943136912, 108.332428604980592,  3.745695940720810
 6.507843673876824, 13.611791150159139, 84.329238740072896,  4.177015888988874
16.528118928533090,  7.254444973850108, 23.251450118855253,  3.989864036657846
11.337391937750629,  5.356293383673048, 112.924375606278176,  3.920234798162198
15.541271520583804,  4.537516129518194, 54.260412594424707,  3.905329549643695
 3.333105429671960,  8.070510216092089, 44.227435246393327,  3.825253846731745
 6.524070714637145, 10.452410830505196, 56.895400278448321,  4.062504809742397
16.577802272068638, 17.701767294749470, 82.251924367007987,  3.801939229358483
 6.432027813101577,  5.033354639292263, 85.055802056470853,  4.109261161076272
 5.359326724810120,  0.199611689468467, 97.452909617358245,  3.702342616070418
13.399596313828033,  1.274315137922866,  1.890422042838637,  4.267108796720882
12.666527543334928,  7.115060729824314, 24.364095330450976,  4.006102799466275
 5.263155101460037,  7.624504513610574, 40.876614041500019,  3.927671740832349
 0.100377525011066, 13.435051299043318, 17.498214335814826,  3.828324101944888
 2.011561618451442,  4.227381762105022, 60.877691231722785,  3.820263408409410
14.694610657489225, 17.141798921649727, 55.430398228217221,  3.798115586633745
 0.576022793690465,  4.605616211508565, 37.067313879690687,  3.980846437288221
16.691909426688980,  7.890030706226349, 41.911309270342080,  3.950086077347784
11.532082942171092, 14.834428872612760, 65.043886898689649,  3.839150592235929
12.086371447486124, 18.352838250735573, 28.940397135233653,  3.689590044698606
10.430864869423413,  5.894405990171692, 43.616589440641199,  3.698717390369402
13.822625791326052, 18.087660742408897, 66.160501613233237,  4.082077343136532
 6.182853813270743,  2.950760105870331, 49.073789403249506,  3.858392691831039
 6.159389384641364,  0.227775171188631, 64.062615943491252,  4.148914409531582
 1.644496910054776, 12.734524634741343, 100.106353322067037,  3.981166343842709
18.554221221980200,  7.455130516651719, 78.981213677270972,  3.800643995291121
15.609177780861112,  1.597218800241531, 89.487945761845083,  4.331835952715440
13.662805373489659, 16.734176247721923, 62.363356185061981,  3.986564595047177
16.250926952390500, 15.792268605424132, 19.167543259282457,  4.133279936572495
 5.404499009277788, 12.596342968742432, 92.122312172786479,  4.129887255576728
 2.030182694125841,  0.884226354547547, 55.229368691738983,  3.837177661731546
16.738747418198745,  4.222267273403434, 17.026027365190302,  4.095043846682730
18.169638461014333,  8.446813374393477, 36.719868297959600,  4.172118300377149
 7.194289691574509,  9.267464199819948, 13.800103592199756,  4.492250300877339
16.181210413333602, 18.000367211849678, 86.172970804278620,  4.082336163069526
11.158213743778514, 14.631692393655577, 116.577164816938023,  3.753919661025349
 0.590662062765342, 17.874553801713052, 116.523088560877625,  3.903222781793866
 8.175328254957487, 13.637443708796534, 61.877413860553972,  3.920200586362647
 4.574247767497748, 18.245510127227629, 72.024999791594126,  4.045187294296289
14.278002067878537,  0.560997133954352,  6.175516818732408,  4.294349830971037
13.163500155900625,  2.428875778000416, 10.065338239638757,  3.828771023560120
 8.141223657843730,  6.759217003207682, 61.498621206015002,  3.657462376353186
 9.260023589232587, 11.735106183863637, 65.078162926961113,  3.829472283271531
13.555274111473246, 14.541085809752706, 102.925534177251620,  4.103239181708096
 7.521384110731415,  0.720598386405200, 94.305810076514916,  3.901180797026452
 7.058264937874968, 13.626420845278107, 116.207248884052547,  3.961481838570144
14.117681520830232, 14.954458443685454, 29.576531092238501,  3.939951196703881
13.061511493202195, 14.823049914486196, 92.498436554486545,  3.513080334797861
15.170622007344825,  8.850138925569055, 89.785975480341662,  4.169469123861528
17.772518291622237, 15.880055370762179, 49.584775367294903,  4.136213476178016
18.789768039766770, 14.863916943767663, 85.463396576739285,  4.187558488004651
11.715169812692704,  6.825898835930428, 61.008198773503473,  3.546051873051798
11.094341519254810, 10.760339286573629, 37.457592651442845,  4.217463298315239
 6.889807443975680,  1.075739296060034, 14.357584573022729,  4.147049010790806
 8.978832506867038,  5.482332391551347, 75.242855940033053,  4.088488231267109
13.196495292176701,  1.725387688196082, 73.575474652130822,  4.099279430811539
10.505489122298552,  8.056074986125678, 86.077014977972951,  4.662703246734926
 2.488109513891466, 13.005548621541323, 29.283255539292934,  3.770820220239144
14.089496762365064,  1.990219500535902, 84.418144561657627,  3.908489799619772
 3.365109422517778, 16.090933169173827, 98.739387622002369,  4.013633664535031
14.284379311226893, 12.416045073190324,  2.035414738466124,  3.725613016099006
12.636160017740208, 16.238399257518662, 14.115506371049070,  3.925591900287271
 1.113580595365617, 18.675525260331973, 84.053058949635769,  4.242810400707119
17.464845638832120, 11.390383320042528, 83.866060249015050,  3.902640053042064
15.839299672882492,  5.224558896643431, 39.041179806785863,  3.843869017562863
 8.742252749320071,  6.650287469910146, 24.970166554333048,  3.842410498739423
 7.782832127472619, 11.749347645646692, 112.656719829870013,  4.200340837693171
 3.615140163325272, 12.466073541827695, 54.852304101037141,  4.035656828588767
 0.524180031922963,  4.241014395124571, 82.405254072747809,  4.129146488642947
 4.360479996200869, 15.486101273051194, 39.053237887170063,  3.630538620021009
11.107645083177998, 16.432939924533304, 68.501280872551888,  3.807759757991837
18.258351324105266, 16.330255207242214, 89.312521025328607,  4.118371530746283
 7.441854000603739, 15.862695695793589, 18.180579251778635,  3.894323679282842
 3.412251390558955,  1.264371098881281,  2.450283701038227,  4.102895774824420
10.190669618260959,  6.598045388503632, 15.063496344505351,  3.906645616303539
16.123161504938782,  4.567046572618130, 73.122069602385920,  4.087428771044456
 7.312138824062225,  2.740799315393306, 45.346482725505282,  3.922851809849799
18.496810945353172,  7.359171106809831, 59.926560428783219,  4.040556291194072
17.128310855970494, 11.393578880907349, 117.816430162388940,  3.646406061653725
14.626237330424470,  8.175825765663983, 65.789353731868729,  4.125263825082553
 9.588975442091288,  8.203018949654542, 58.205498438133091,  3.931491057359646
 0.796669105395277,  6.102350542662082, 114.972259686510284,  4.092894440945447
17.094925996569529, 16.463159449783436, 27.047612550237066,  4.249349003904170
 9.964091063532848,  4.976822784553656, 103.562748883010016,  3.925898230586413
 4.284477423267819,  1.534185858060542, 52.152531406861591,  3.897419582047082
16.738304713169061, 18.206716256853532, 78.532213802582731,  3.706807068833189
 8.230313757900694,  8.905938715816005, 68.130543430122913,  4.169572474350956
15.035095880167873, 14.657203428313906, 10.737694077427095,  3.826634126292665
 0.921132515800575, 10.168497655742732, 41.315214136919550,  3.726563460884402
11.338904338359441,  0.226492507128705, 59.401835608664250,  3.585814256826793
 7.163876688477157,  9.387813510635839, 99.651365602358453,  3.922672444421850
 3.286431722830328,  3.107385656698794, 23.673070589875486,  3.998617395896159
12.561063008725320,  6.683558443833313, 49.117545565950230,  3.853988707613596
16.821754277045848, 16.466346946467926,  7.597361321813751,  4.065035540233940
 6.712898868653834,  1.373983958359651, 76.820355399143338,  4.157223577721729
 8.849696976731336,  1.828340958566314, 37.747230755283390,  4.444632805540445
14.972132783917003,  3.114958430118438, 23.055745202324960,  4.190955365550816
 8.535471363564461, 12.323926346958205, 49.522899368577050,  4.003536823135324
17.577100919423970, 10.660016743618614, 114.198492628310618,  3.786311405914220
17.352719044531810,  2.737831273368975, 32.561157251976901,  3.809786733784798
10.684065478223372,  3.511338218710150, 108.811634975236686,  4.348659280176147
 4.973129713090355,  7.360611624102693, 47.749029992131078,  3.804384102935106
12.680665160184684, 12.753028229991942,  7.658775124768055,  4.188079562823460
17.670374835763290,  6.928907907363767,  4.607863297381074,  3.934136300844364
10.046877275215381,  9.037604477473872, 73.439633817676395,  4.003099178503650
 2.437493931153830, 15.279363918537223, 70.737349644453545,  3.343825673342264
11.858021222905814, 10.212414024316685, 79.493189661847808,  3.969625084000544
 4.433755603761879,  7.959614503425441, 54.230780173168164,  3.999538460924103
10.904119055873540, 13.591192779510914,  3.621774767591483,  4.082509789969119
17.130118303627924,  1.730659416734291, 112.565510126310485,  3.752010068041455
 8.356271972752563, 14.965803778802290, 109.269803849753146,  4.356379248553935
14.194024986455226, 15.870361454111585, 89.031607490092327,  4.074266123361673
 8.134303196720580,  9.331851637511628, 46.966487407289449,  3.802999245793196
17.213112894916410,  7.547191570145281, 95.086356278294090,  4.123731876744339
 4.512823363732493, 11.685998904560842, 40.280853918460217,  4.339341717228411
 6.538081352388939, 17.374239517113399, 49.350950560816280,  3.933672087908019
 8.408723496398087, 11.642845651435300, 33.936747169046313,  3.887908951451596
 3.371201445363909,  4.007656513145294, 13.986262416548286,  3.561985678288127
 4.410842269575705,  3.217384215646741, 70.627883480229002,  3.899653820387407
17.680530827278510, 11.338787740456073, 20.674546118975631,  3.999527506217522
12.727769252495989, 11.695815251618477, 41.121589687554774,  3.969458830131357
 5.292055220372061, 14.233912782107247, 72.868554796599852,  4.081110010025487
 4.820774693358740,  4.725294986724672, 74.878425954040168,  4.381176336412544
 4.169421470536409,  2.619552878912577, 58.023620417319300,  4.008779710142856
 7.697439669840504,  2.445841133117322, 72.761722140890186,  4.086266843952795
 2.780654399885340, 16.339568590567161, 49.306724445681432,  3.815607791574941
10.492497470750710,  7.646574942677626, 100.655485732955725,  3.784477917447253
 5.278806137862939, 16.168950923287341, 68.804857686187432,  3.708114166900498
11.215639609729612, 11.525746935152318, 101.690749386544027,  3.889859346543191
 3.688485583515148, 17.387219238438359,  5.315597542631496,  3.935182462665924
17.547870647762309, 15.004684670602623, 104.672968111292647,  3.834309439218686
 1.355771734203555, 13.800680876701344, 74.008112932478440,  4.131951458624828
13.892091654259527, 15.921174100668921, 49.942895318859463,  3.651536746389293
18.440697942022592, 11.727943522694103, 54.872604290468288,  3.910028755515170
12.939880804935786,  3.475289562441572, 60.176464958402171,  3.699860539392278
 6.072911042876815, 10.505069343480718, 60.826721836436114,  3.842125864600057
17.068761357725837, 13.958126993073471, 80.655066977049813,  4.330974694975494
12.700069571288457,  1.666220901549377, 19.700970432427347,  4.192793479584693
 1.551444280649523,  2.477625004167298, 17.123510298056658,  4.171078901569138
16.236246255456823,  2.654504541280347, 100.178491541243275,  4.054858760293042
13.734874010766390,  5.170018405964316, 87.496961362077030,  4.444147617400052
13.837286696480714, 17.149651362625296, 75.900065855105240,  4.364630202933672
 5.837068544841638,  0.034067354054358, 24.696941496881006,  3.893817116523648
 9.682054299646444, 18.777680579264505, 97.918358436350616,  4.045849308988559
13.268880480022549, 18.495563287738758, 80.286297789340367,  4.050822587355081
12.944823120400329, 14.312569140292888, 17.420795944742771,  3.726711144948975
 8.661332754538082,  3.954408017337136, 68.619689415193591,  3.888240291921103
 4.642838521361500, 13.331944070400253, 110.463879033833280,  4.050962690545502
17.020267055553610,  7.568557319028463,  8.574100198183606,  4.203276406117979
 9.901445118749729, 18.383305460907408, 55.869448869898619,  3.995902699536063
 6.291534284621002,  7.641034051056296, 28.005776904112366,  4.179080562504130
17.786682076402286,  2.230745816046265, 69.687064375804539,  4.252388152729750
 3.653354901094504,  9.994992427523783, 98.224846196490631,  3.743437208471480
10.000484339574863,  9.202445482666723, 114.948137006098264,  3.879588884088801
14.266561030287306, 15.550868452770416, 41.627817881182459,  4.173911263973673
 9.745991762527355,  8.146637563967044, 34.774326384776053,  3.740198433065563
14.983176472698757, 14.184259512340429, 115.620841969857779,  4.118600798121312
 7.298618648490642,  3.644870827729533, 106.268358633581926,  4.113472522705173
 4.631859434126723, 16.929562048789727, 75.833899891258312,  3.993879705561924
 1.180249968191686,  6.580092822614240, 29.451118992041824,  4.169031204120315
16.577187454712540, 11.732155023643633,  8.612055177872103,  4.019874847475616
15.013754298976316, 10.334947291774432, 53.407416900355884,  3.810522450187438
 6.386154385252878, 13.081278046274075,  2.390979501965604,  4.174679134139431
 0.142412439592801,  6.284762102550277, 63.845318249011960,  4.147550735134157
 6.692962160023170,  6.988409148255926, 108.460602509323806,  3.967744076581404
14.237782644512722,  9.328961877912860, 100.698836752261741,  3.754216844136771
 5.244694904666030, 14.651817467241655,  7.786105452364392,  4.041947653405999
 3.900648303258741,  6.929689202913339, 117.934301813696223,  3.918600522018709
16.552793938988657,  3.183801625384589,  3.917349225247174,  3.967108188793691
16.532324838776905, 15.301968402228580, 72.439223382137598,  4.129433500986908
13.671631011747593,  9.885074512676210, 62.323110827562971,  3.828601145662593
 3.299770634266705,  0.551490278020452, 61.274861195656797,  3.839618101293627
 5.227235077613130,  3.018990765692890, 66.818305549966226,  3.897653171491322
11.975072304708295, 16.826245338743764, 85.948849606383007,  3.751939604871416
 0.781192951035798,  1.842070337071749, 40.112502203399536,  4.251273932598098
 5.089034532723131, 12.268699050511291, 76.477996153758070,  4.132119324324703
10.665914512354869,  8.262061271813536, 64.824179346106604,  3.672685676814563
 6.374013102053052,  1.635765015870722, 30.438241816926883,  4.078885972024667
 3.909476108046098,  4.416857862076249, 27.395444318353864,  3.901194411623892
17.324718061062285,  3.102435970756651, 116.198383345236053,  3.933597240813387
17.122434947522081, 12.386196760776690, 27.455421547299515,  3.916080517101129
 4.363914184513320,  1.879072098157323, 110.462916502870058,  4.141320667316123
12.838032567887508,  8.470389987738050,  8.679296537040939,  4.133409869742359
16.175708242202756,  5.029494690764285, 47.166575981394672,  3.997247605096566
 7.584919774630837,  0.158777976326623, 108.480629836969783,  4.155368554742116
 0.022169836003357, 14.094634551291133, 115.896492580915805,  3.824630629341097
13.200460909612168, 17.049379711036671, 112.995481902947688,  4.413313988255735
13.050412428148629,  2.228078839470039, 37.407558402861831,  3.983929211280598
15.454014465172181, 18.232153957181389, 102.596620204312416,  4.153238312975346
 1.155136693198769, 13.889310002965395,  8.014182104238055,  4.280839830186703
 4.478498158146723,  0.368693858949472, 38.990694143724625,  3.988902035385425
 7.551472092045731,  4.388635756424230, 41.187457447012370,  3.991579620223682
13.802998378356367,  8.759185749650209, 113.177087151336096,  4.024814782905161
15.894474160926391, 18.507203669302172, 30.560615270700961,  4.218936405187179
12.237557135110697,  3.620436535413332, 91.036268040207389,  3.784571538355076
 9.220151795251063,  0.740535242456379, 33.376096026898708,  4.227281934425098
 8.798060537625275, 16.479863828053897, 14.502439319574441,  3.739131813743647
18.660507009686995,  3.387141759614460, 13.644156001629970,  3.840142091593415
17.383746631439923,  7.834171570369009, 18.783586592446525,  3.945883364187856
 0.988986354145883,  5.082678433075459, 93.282165184942258,  4.030971186175893
13.170148248963280,  0.388243594934872, 99.514511457084183,  3.683723157151646
 9.052137272676797, 15.926124640201309, 58.841936273981752,  3.855671842942590
10.588314147638021,  4.147621333724000, 22.383033238159246,  4.229357358101320
 3.595628632575403, 16.689852613830258, 53.641469776216972,  3.768648212380753
 3.556585015909273,  6.200646876452623, 35.121081273341389,  3.734842776429567
17.401647288683414,  8.521058957844883, 27.199841829316707,  3.820652993302857
 2.971703318654626,  3.088543459686816, 85.320131560404050,  3.811370267088944
16.265608360479035,  3.258798033097729, 104.129857316486721,  3.919022217210872
16.651321086556663,  5.293697797377299, 91.026675208808385,  3.923661970935161
 4.549463711188087,  7.022276589090518, 24.194070176442828,  4.293201132106859
 3.728067127218396,  4.023538727584311, 46.281370574992046,  3.876189925666798
 8.425238253416138,  7.839552449539453, 54.428191596062995,  3.986864299123096
 0.003037288134082,  8.707362025896737, 91.520369014557318,  4.104690733979048
18.719910132706755,  9.584411510267135, 44.985166415977638,  4.034040726213656
 7.469468619703243,  3.707485439064745,  7.377204812198833,  4.238284730236845
 3.570773422332300,  4.737953970602451, 107.793064702380562,  3.824847529121723
17.822873436613364, 17.332678714019931, 42.831735882443652,  4.125067115542740
 1.889998038431656,  6.584598267551187, 96.977193520996252,  4.115293539393346
17.750493551297009,  1.123224148673203,  9.314384799447758,  4.074062356957690
 0.002035324944284,  1.361935593779521, 92.032124429835477,  4.055164792849875
10.319039447773385,  5.948171737452848, 18.823318453774050,  3.722076543628624
14.300794722986410, 15.851853959451319, 106.727165149374400,  4.025845846051482
 9.628189738268853, 17.370878989028949, 62.568794028895212,  4.192613443439893
15.312373772410464, 17.184299643514105, 34.122511265738147,  3.441392475959235
13.363767909021405,  2.926871200898840, 116.081148229073719,  3.637009960520500
 8.046857096060007, 15.074165670272086, 76.482689147035146,  3.869800411294647
15.067714051484394,  4.890900089685994,  0.581984796889718,  4.006405533778471
 6.053705005264274,  7.971671255702169, 114.268785835750307,  4.480369158061181
 3.780328635432730,  8.026966048320471,  3.368091064020070,  3.969617452088303
 3.117366693487026, 11.899575535554359, 13.834679356301232,  4.187013920734867
15.526293456049524, 10.948054703952296, 78.319440967287008,  3.856790465071840
14.056004535901252,  5.572910162060213, 19.871346918814151,  4.056565531722713
 0.821409469428233, 18.696859293908428, 51.681730736821294,  3.929103446841784
16.160745892724041,  3.832362966014222, 65.539466798180328,  4.102483585649008
 5.075768069340609, 15.769384923607817, 14.770536393318656,  3.854777909485131
 1.018467052458772, 10.844796746195041, 80.609708864454163,  4.153993141220418
 8.912988911167391, 15.549885990433953, 22.455500440814149,  4.450716363134307
12.363873446248023,  3.653189090651277, 46.284852497051851,  4.259580120910907
 9.646438217045832, 17.814391178937406, 78.782190271803771,  3.850513327342513
 1.302142454055186, 16.632189060492625, 29.736222835899504,  3.841765801118175
18.933739656215707,  7.870880112264786, 83.842343338134953,  3.721297643229259
10.799427877230993,  9.573573242033213, 94.223187393875492,  4.111237619828575
14.026069424694029,  0.762399926677929, 106.058698465069284,  3.803104976747776
12.699181054382343,  4.123197810774235, 16.528102708764898,  3.710271320962454
 3.438218927574403,  7.572066331083341, 81.982132802763928,  4.110701540772628
16.088686746701629,  8.857955551898673, 81.414348264160765,  3.659630797119847
11.678383720871444, 18.267652923935387, 108.952382302465224,  4.164046101061527
17.517120538467641, 11.111590801766111, 58.786043279903495,  4.020510023035508
17.754143039751728, 12.297789183836430, 67.176396318350186,  3.809413928167855
 2.321004382949893,  9.958190137803035, 34.211158801250896,  4.083743966094142
13.059624840773790,  5.815107939535623, 12.350145368843384,  4.049577064305621
15.887888698592565, 13.466163770867754, 61.656665921753252,  4.043955219797035
 7.485743832473213,  8.179349229275928,  6.747077306496176,  3.908336472517747
10.124627833254895, 13.370743686240152, 30.720943240403500,  4.179012991478303
12.264961435166107,  4.718287585232012, 64.591150372848148,  4.101528311531322
 4.391034532205372, 17.358047756051739, 32.249089524311344,  4.248200858941696
 5.821111952837352, 13.588056645487017, 106.114522119933667,  4.152387953896883
 6.997418985673857, 16.411335813648076, 91.977284582046195,  4.142058165564241
10.725489682818148, 17.510087812718130, 102.054523645616854,  4.246184040665060
 4.539219896799102, 13.473091680755958, 63.460813450142169,  3.852137495244998
 6.434517591966966, 14.280459446700048, 88.447228663621402,  4.160054233593906
15.083624413406241,  4.927880756616763, 35.060882367420383,  4.194958081882374
 6.871560086996400,  7.264246806220277, 88.482480701871125,  4.111154270625319
 4.469298634598118,  3.696642606479011, 81.801437807656555,  3.914942960394756
 2.515042894803666, 17.082579600655929, 64.579902850411415,  4.257405127542126
18.924848532043274, 18.169033196703449, 33.341134880054049,  4.024343948082765
 4.580123276016284, 18.624975358675758, 17.485238560372181,  4.085454783983236
15.337435936433735,  7.704891446108439, 15.250260484392404,  4.195809252498957
 2.551725678693121, 10.844410333781006, 84.468705010165166,  4.150164995627687
12.163411683937870,  9.291571233117429, 17.590088060881435,  4.299272955012176
10.606968205671025,  0.318598818558524, 83.230460483277213,  4.020988638649558
 1.892654083516027,  2.478572983344331, 64.540031472357924,  4.189792939447514
 1.737303351326785,  4.769815576842787, 10.392110998591566,  4.234829877364548
11.509195059105755,  9.520062229611115, 12.740868313470175,  4.009833078873103
 2.788268871463297,  1.516690487848983, 76.346196224300272,  3.717100071685044
14.739539770830676, 12.989256445857599, 37.107412543191757,  4.058621128292744
13.673344370106127,  8.264659840488548, 28.002000239225286,  3.787340451886773
16.518349871618977, 13.410025724974915, 91.391320025142264,  3.850624774250596
16.476025347707946, 15.416702176929352, 65.494524215040272,  3.549908223552940
 4.896710494282518, 13.585528512901618, 58.864311172825182,  3.820970438115088
 6.486026597983487, 18.625147883099956,  7.949610565077709,  4.113993710558114
13.668281763692795,  5.608676464422045, 101.201863436249980,  3.728040215717400
 9.677999674555325,  0.907560643702427, 48.256695023772416,  4.340300142390456
 1.267874845196952,  6.888761817737384, 75.262872015049950,  3.941446256990440
18.352498683064741,  5.225713524060556, 110.939733893170498,  4.116780685775102
10.555443010021255,  2.485958547614816, 77.406205714225948,  3.870457943595402
12.318169774099802, 12.776657495691969, 51.470738220832082,  3.980533941822051
 3.638572808085352,  7.026938832892837, 90.871682243182406,  3.933278307933948
 8.707007155673628,  1.461903205421297, 90.557033994613434,  4.095906999188596
17.431719251780759, 11.128319011094508, 33.765770472226912,  3.940012812987963
 0.610737358687441, 16.361584501340452, 101.618136055550238,  3.942216069502526
 6.386043663707951,  8.621271674883657, 75.189773834596792,  4.020702994650898
 2.601048841466039,  4.887643373153788, 78.463570206021615,  4.036339100830332
13.045529617654097, 15.516243194615566, 25.569105701396694,  4.431563620761426
15.871121219142655, 14.220216908873027, 52.889897206036103,  4.180868290968663
16.502265756219202,  4.000496482644124, 58.290318945723023,  4.419690252390046
 7.311792518922664, 17.581457279642876, 116.119664755570582,  3.962635733578344
16.593786331469378, 17.487085269678271, 98.844543889963376,  3.729552244386668
13.217091424310285,  2.737629220292569, 68.041227272236227,  3.925077401601894
 7.183855265180685,  5.533036302401301, 100.655693390384940,  4.020335117672540
10.520098535329195, 10.441826918454311, 98.072236025041136,  3.787668022683499
 4.264191363643198,  4.498039953917914, 115.142208215471754,  3.502857660626795
16.219097480199718,  8.876765723327903, 47.892092948996314,  3.748190561181115
10.959919726443662, 17.644787730120992, 17.477000726328125,  3.974346007627281
 0.060721252671391,  1.102923943831715, 102.494070543822389,  3.689079968133331
 0.080170080193812,  6.171128844602420, 33.422525171584695,  3.997877377587814
18.783082227136777, 16.449237018997891, 54.903473058174569,  4.150494576025048
18.904128256281457, 10.012527682033763, 15.611616598279726,  3.963458269603959
 1.154212101500327,  3.221717076750782, 73.132002100565842,  4.255040056176018
12.687819595585692, 12.158595810351006, 106.050390379292608,  3.944322341715790
14.772834163361738, 10.549519257741492, 93.595285313199454,  4.163075437229029
 9.607553379206573, 11.645938572516934,  0.224008630542351,  4.041166863131127
13.719777593869241,  6.248532544392522, 93.495963221060009,  3.965205552903587
 5.095992533396583, 15.004407285478599, 46.483615238330017,  3.914304602687582
 5.812892790193731,  6.484201836141763, 58.176739185147795,  4.362696543585518
 4.255206383345167, 14.931442195344992, 102.536487423464322,  4.078833552679799
12.292171155358623,  8.507685007755599, 104.004600157376302,  3.975637783276905
 2.986813334426647, 10.056321550694944, 73.451005469750129,  4.102898055133931
 2.368924562912037,  9.441710755437438, 26.799048187819320,  3.844432774162758
 4.111984116759613,  0.088322013718929, 79.801365591749047,  3.895521041260062
14.460000814865909, 12.319718737597119, 65.200976031471626,  3.860968937067536
 6.220917553002009,  4.985356474590501,  3.740055378808420,  3.851489222130067
12.129758005299882, 10.391308483047087, 109.683295778434825,  4.203844136459759
16.346418850541944,  4.394300977369173, 10.852041038150746,  3.680643752374621
 9.294114790362412,  2.672169148472253, 10.970649747586151,  4.059349309714753
16.880819093793665, 14.217447629608674, 76.420913821188279,  4.147374602077910
 3.735575606133330,  9.581708042412915, 30.477338551484827,  3.881511694632003
16.387380857410324, 12.494218103078216, 107.561415154676240,  4.026301337523154
 4.866658204835370,  6.729749177316219, 68.091996328643631,  3.835776048646649
 1.779524435926680,  4.690998569956823,  3.608744716371189,  3.797613116335969
 3.562109345070088,  2.440957122521751,  6.397855444771360,  4.122246851522323
 9.950106718578329, 12.155218136382924, 58.210067421913777,  3.992877738457991
14.489501807773770,  9.241518327338119, 20.770260185971008,  3.544815619436673
16.270333533558269,  7.182533005633211, 30.697585245610224,  3.997635872151462
18.681127165832642, 11.797783960589530, 94.433126906763206,  4.190251622151683
13.559735881774758,  7.536674073689269, 45.371074211140353,  4.053831582589950
 9.752498002977164,  6.314150550064717,  4.381470582198725,  3.567360710685554
16.488986343486715, 15.276284317343316, 15.126811343904130,  4.024676259230541
12.101830836301541, 11.459679275780349, 71.241241771706910,  3.686746395204569
 0.876316900693785, 10.673815961999699,  2.232975227954894,  4.192775535436830
 4.122938193638773,  5.869084252156675, 64.373251217122515,  3.923772115738804
 6.891071602961397, 17.388369533278510, 104.651607413602989,  4.025638795142563
 2.587524164753248,  9.940214245143975, 64.720748189300949,  4.536508150720813
 6.779306047814452, 15.090469047419052, 55.542680157028606,  4.300373593673242
 7.646793947330808,  9.147473700713858,  2.853548624099895,  4.108307709523921
 7.683711053821586, 10.794007917208628, 108.729243163695358,  3.865525758878993
 4.283287805093042,  3.926790297098611, 103.320574870261908,  4.293300297949663
 1.576113531556413, 12.111698271672202, 104.307315046233285,  4.466408628478837
 7.651362842318431,  4.005776825494938, 27.378832683855737,  3.626178911161632
 1.595676064587856, 16.448540915574739, 45.636188636885933,  3.836932636539249
15.469697160218304,  8.722241637615149,  1.676193971048470,  3.989709849865104
10.426882440258904, 15.701310981343669, 105.726994838743110,  3.935560641890317
 7.563698509940225,  0.652863685645007, 59.075795484007870,  3.960551649505061
17.630143850616779,  2.540249960382720, 62.022342774214664,  3.876993399891865
 4.579598796246204, 10.816184406371690,  6.140263053596270,  3.952567844093033
 3.394077154169434, 13.163978399946455, 95.930495726550859,  4.080047419987388
15.226038429892519,  5.044411083217536, 113.491556170777685,  3.927882322599278
15.348757561518347, 18.342351479864856, 116.756037882143346,  4.519440589807167
 2.030315406721666,  9.425482183030454, 57.236023569086846,  4.199135656545347
 6.266371892869721,  3.485107369051254, 34.341918630530387,  4.063951894008190
 7.265600963579505,  6.048937563564506, 21.267655307523373,  3.724461856781354
18.671111254764902, 10.633276578424063, 24.339751047356458,  3.718754116101725
 3.538032458752882,  8.810539173310941, 78.059075228123490,  4.066336559640516
10.284368635614376,  2.800060829248463, 29.944351099715174,  4.052053745715996
 4.969126737796988, 16.958837760916794, 21.273304618452421,  4.211262331632804
 6.509008544928500, 10.181107855192412, 43.566175117512657,  3.899288923480380
 8.314376248722182, 16.483681801010114, 71.280870659820465,  4.073027865451170
10.976547903105601, 17.845103375284040,  4.102090399962969,  3.780884842388872
 8.618391983497991,  9.646760538892911, 30.623706210968706,  3.843542944308853
12.020819658042994, 10.740805568535739, 33.039503039907892,  3.764332065465914
 6.216384452260129, 12.406524908471239, 16.538818139752884,  4.057512336214857
 8.608612075873273, 13.167273525644033, 45.436051744489404,  4.281433079300545
 6.984054137230432,  5.033776392888672, 13.308071425399064,  4.032137965764227
12.319212245940015, 18.661686042986794, 91.313588179707864,  4.012197165542892
 0.845353415947109, 12.025791756383816, 37.811164738598983,  3.974370339278823
 6.504933646970370,  8.992898130946346, 50.959909864379171,  3.983199862105253
18.005912520748211, 18.689850420847332, 95.539145680663438,  3.831501528492824
 5.789848021092304,  4.208063969259348, 54.653640713670164,  4.003266001302388
16.917083460717620, 14.962598573770949,  0.741267356982952,  3.943682701188041
 0.039506614720101,  6.850525591042532,  0.755998394136070,  4.141004303636686
 8.206476958637641,  6.951176346876329, 117.812493375477587,  4.058240364243082
 7.518309266691523,  4.427597477622662, 111.675089811090359,  4.308552570471242
13.294031040786704, 15.569162529040835, 99.085689699908855,  3.838059340038856
 2.715894864005813,  6.673246889105186,  6.921901924362331,  3.885907468035097
10.965567770701529, 17.432767630943978, 36.142389320899440,  3.669128265066699
13.192576992003584,  5.091518164704508, 105.888978318247354,  3.967054779494810
11.120848625945609, 14.819209955847745, 82.842226885674663,  3.791668449597400
 9.140216315357124, 13.012969004022244, 73.193000801396039,  4.001033394834806
16.333005535939584,  7.673171615221361, 75.638162528798702,  3.854602721077538
 4.454988586178746,  4.407358494691816, 38.509479845959092,  4.131552230434741
12.079635508616638, 18.076921764038200, 45.135677197867764,  4.107567723082473
10.665456702830376,  3.516002566230109, 99.555099793494605,  4.231598209638212
 1.127367725773779,  4.296698201790769, 89.295750205657512,  3.937884684155639
 6.908355853418787,  1.147505823462816,  4.296065412322009,  3.787657760649119
16.910513536991129,  9.175575609106977, 110.372455337117103,  4.358966659702555
11.418892532996553, 14.626948494299612, 55.078136595773856,  4.248993222756016
10.868221238973941,  9.853921695471236,  5.309952267250723,  4.075084730728912
13.366021749959023,  1.475975211710849, 33.400175369155001,  4.188346595319279
 8.683934928774054, 12.188464798231736, 40.821532307621915,  4.131543726048288
17.545776843251666,  4.140157508621076, 42.657751531869408,  3.862007758988800
 3.391704086972666, 17.065172617567949, 94.852599643855740,  4.000118131638187
10.363331430983550, 16.821754039226462, 94.387942411145914,  4.101512184026793
10.922387172700454,  4.448584871334072,  0.999568789796199,  3.820875375874106
 6.093289103942094, 18.675939919978624, 35.576128338497902,  3.659610003686518
15.635601049753626, 16.499337207100808, 46.198775049539158,  3.952727878529326
11.667290767990188,  6.584745812538784, 68.175005583105445,  4.065792511717409
12.633917959266787,  7.442056550645150, 82.320334997188695,  4.022359726196012
 2.901556461240274, 10.522210809000470, 51.455720272199827,  3.895392688374946
 1.205147911189206, 13.959931481953735, 52.117648648837132,  3.779595698074639
15.482171960829993,  5.202925903803663, 26.494153998179204,  3.914690026091875
13.328735315602790, 10.544531007885157, 116.932539174433771,  4.291638093870279
 3.604387333785219, 14.813955856008789, 18.118217711818609,  3.696639368011788
17.841184284464394,  0.870089363731820, 48.288889206123656,  4.098423380532433
 1.008924105736815, 14.971379855950248, 21.281934374176920,  4.482108316020281
13.302974716683229,  9.830607001710389, 58.354164303402882,  4.135355205313241
 8.939076429659798, 14.374654763694323, 26.722973173756401,  4.382830208635310
 5.890579305859457, 10.261028393102221, 117.817472076003583,  3.841565008751429
 1.958331691417731,  0.432117306127268, 88.152999153257284,  4.195075868692278
 1.332567629928029, 11.831200289096381, 108.582976763330180,  4.101458155401408
12.298327868187794, 15.461045271684165, 72.223915109693877,  4.218654085424662
 7.272107977455813, 11.443731094127234, 95.787614052901063,  4.397280595128272
11.141004974188803, 11.977399954758329, 23.783734254326795,  4.357647197397804
 9.523718964566411,  0.668595457923150, 112.414679291222001,  4.328300635832708
 0.705976584217580,  5.783806133721437, 25.409371236161817,  4.073574867962413
 7.072623313416443,  8.732329669693534, 92.414880767985792,  4.256355598337649
 8.112348376405480,  5.232885580938275, 64.959521721197206,  3.904115819626897
 3.894954767443711,  3.308395104844279, 42.395029106368490,  3.999158807771332
 9.825066158952605, 18.345152888372969, 74.726556698322170,  4.307330637987870
 6.574033776740944, 17.214854726115579, 11.602385547604861,  3.710189586593422
17.690763191401409, 13.982562669590244, 31.004061441285472,  3.931718179188035
13.698190627861907,  4.177630935244133, 42.459474444456951,  3.825731956635082
18.892250783784018, 10.337694671380881, 30.256575275657280,  3.817001187488281
11.684702998379198,  3.798755935601454, 26.322685930817119,  3.941397542514168
 7.550181690690655, 15.351661662162845, 65.636742203326563,  4.240447235624132
 1.316771229459298,  5.314363821999917, 56.575479218830317,  4.238308013897795
18.538830713900165, 12.123125327527791, 70.888112335811272,  3.766164691916043
15.227473443752586,  4.248381479916073,  7.356450739578452,  3.659809292376147
18.555782323050359, 16.518065968016149, 11.271036989310678,  4.055061989698746
16.664209608842299,  6.672055173106274, 99.017890643768027,  3.940664526972586
 1.757303873710452, 14.003395376961572, 78.062823294650087,  3.940437029525000
 5.954532110626713,  1.535340968427096, 114.035296119859041,  3.662456263799907
 9.187099084498131, 15.311755083630546,  8.301471473442247,  3.920829905112409
15.835888727281883,  5.514352730517454, 83.825321196250442,  4.026871686070057
 5.912478881437909, 18.307023971438149, 88.575776572663599,  3.930848160152692
11.845818960014308,  0.430537159761712, 23.961630112055889,  4.220558181324576
13.987365870881080, 18.068900794628643, 95.881381058762969,  4.087498894770299
12.686760861941975, 16.700089545383790, 20.942654341124157,  3.982806495484320
17.668528605053307,  5.931491954154996, 107.112390875819756,  3.762355589035298
16.813461529945720, 15.848790306418744, 58.390136581405805,  3.893502248155847
16.867707568714874,  0.959676681730904, 19.675746456706797,  4.213276895835931
 8.850908748820553, 10.897126127772346, 89.078493473709273,  4.237916844454793
17.628299786811830,  6.723990443153502, 87.345416292943199,  3.936257915870856
 9.208490301977168,  7.969342341675731, 40.253650759455411,  4.057750473226990
 5.394433266671161, 14.344868762806959, 24.458121679150146,  3.989773092670746
 4.411246551125800, 12.926558124617078, 36.136756725546029,  4.085473036062768
15.199904308342280,  2.442987835190980, 93.659333716719473,  4.193801365831616
13.932514730094763, 12.944116996536494, 20.860515691534054,  3.927441520142384
15.961750298312106,  3.375214110649784, 50.636745404193206,  3.692913124909594
15.610330547369042,  3.113580580210763, 108.646257839020933,  3.832670371730136
 3.769608824040311,  7.639914936209086, 101.353403501806511,  4.031619665251258
 3.767210714070095,  0.021161907443538, 101.812561560225305,  4.102156824683357
16.661983554712798, 12.302543005675892, 40.687719995643576,  4.030774484640588
10.058537036224219, 12.507053697275548, 19.581039324065230,  4.225135734100041
 0.181590172042968,  0.612538314612451, 58.772836315612814,  4.156821529016277
 4.384728422012310, 10.621304043231810, 88.632360710035627,  4.101005721781597
 3.633194065784335,  3.410096374986747, 99.098266593469162,  4.256935468894294
 5.133484441305882,  3.422527388915248, 88.760369801511828,  4.330118335895730
 4.035122889400827,  0.768556731851390, 91.845209672937997,  4.099556780584300
18.775052069715077,  4.273437531422316, 21.437145632747811,  4.188398916147415
 1.159418904371228, 12.934787897034974, 48.009161834918082,  3.996163487068848
10.157002971361990, 12.357023148631997, 15.380612990227441,  4.157343721254645
 5.966258202913290,  7.383581019282023, 96.334641626648533,  4.177865031827481
 6.012686092471011, 15.028562361135180, 42.538532441104337,  4.127472606250961
 7.957229674929669, 15.669739319818438, 33.826193373878965,  4.203038703581279
15.491042081339470, 11.739775446997051, 97.277567425813046,  3.695929769540607
13.020371657656899,  5.318060427430461, 75.644995989453832,  4.039900574865343
 6.920120069058657,  9.763375884697505, 37.249639192469118,  4.285432095880039
11.964812378642902, 12.421295675942726, 113.375212396430214,  4.176356533324138
 8.537358283672875,  5.727275383119467, 32.022554271072273,  3.771314626913398
 7.931398675906207,  5.300242764541212, 51.538628403994309,  3.759750860246998
 0.512167219840307, 18.155820106105121, 72.046722977199735,  4.044201705030720
 4.821820860161724,  8.764513149566238, 20.563458599811966,  3.699402800217898
 9.065806876367743, 10.756232256812677, 104.983830204802118,  4.101375120249431
14.387340068808488,  2.010125350761555, 77.385987611014116,  3.851661500941053
 6.924778824488426, 15.679676767897870, 96.412012594066198,  4.163999098824547
11.231038321205245, 13.894101069681911, 35.045452266278502,  3.597610433929988
14.834541833012645, 10.439566689752720, 24.913564036407873,  3.944647402217849
12.137331070264738, 13.382059184437386, 95.942573020248076,  4.157308300273439
 1.042364618206881,  6.259541385760079, 15.848768602642048,  3.855423521826952
 5.941212923543433,  3.543917530059952, 61.599518178361983,  4.110059124674605
 2.417516992234050, 11.390963390108908, 19.611841414672629,  3.650411767658592
 0.424983879367894, 10.227343214854697, 87.835380508742503,  3.909070541384859
18.234622443990556,  1.136480554938125,  1.052427278900335,  3.796993937262759
15.327328010843614,  5.954373446081364, 62.091349492980534,  4.131326281063745
 1.164552516311939, 16.825783244934456,  2.301605279125528,  3.996270043402515
 5.483019606423365,  6.514364692483855,  9.800533140406566,  4.104942300106751
 1.209597523310989,  8.268809603647169, 48.612257628303539,  4.039691620752278
16.217415681378178,  7.683898927404494, 116.274574856479887,  3.943928683962094
13.627140835044859,  6.088709556172288,  4.238151762490086,  4.190411125452503
 1.401431714240077, 14.104658584754295, 25.567273475482398,  4.274532894324302
12.875357259663966,  7.748954533724121, 41.540332457144693,  3.702400942671251
 8.868563422627913, 15.484439031068167, 51.954342950705325,  3.988503238734230
 2.753170466160342,  1.640349940219332, 35.515338483094418,  4.003626685436767
 2.537104315832247, 18.356433652211841,  9.052198650661273,  4.101058056168979
 8.463368455291679,  0.713820977102520, 21.699113420159204,  3.932907137639182
17.721318922783407,  4.159452425996554, 76.950316002809743,  4.117632229527667
 7.469194894785725, 16.226932355461468,  4.794106737730260,  4.029963328199538
 8.006872181414977, 16.855027005522853, 39.340668239864087,  4.155641544873572
 5.757235718784197, 11.706536641540977, 27.529838513756207,  4.043455549061452
 4.757485811201382,  5.497827180351001, 31.149398370036963,  4.000560134183737
14.914739819368986,  2.759494841000811, 13.863324599542286,  3.705395332591445
 1.470810080379878,  9.753918589582801, 116.680924766033044,  3.907276095330241
18.863642436385796, 15.713425679604441, 108.358730225392648,  4.082871549734904
10.365414320878301, 17.737096762056360, 11.206428349800555,  3.962428127140617
 3.028521629609105,  6.700659593466856, 71.402873089711818,  3.734493655309356
 0.102176006061852,  0.329044660041668,  5.398144321188675,  4.150811680274793
 1.441646767559863,  6.275633189553729, 40.703668323065244,  4.180662098190692
15.369506268325646, 10.099584859054680, 69.475944594687476,  4.116252889950103
18.093735318394376,  3.022396942263637, 28.690617062207039,  4.060129377728944
18.284289276148279,  9.462776777848394, 106.325687390292615,  3.538741383857293
13.231911501333380,  1.867125472277637, 56.374775404711727,  4.271530795578315
 8.025623183281862, 12.442109797416066,  5.955608730769056,  3.673982036751234
11.989897969853876, 13.345196670402736, 61.316641566174404,  3.765761320990352
 9.885781088936493, 10.141887601259118, 61.589121938153731,  3.874850211221614
16.449214862568830,  7.901280027787291, 56.368105315431094,  4.235323821651315
17.130541227066523,  1.169778560793231, 55.341801077802771,  3.837562594048035
 2.537154645199485,  0.233401377886168, 68.405237929280091,  4.412167089883846
 1.425916643512321,  8.963369709829538, 112.429029975458405,  3.623984401717927
10.436890729526120,  7.480897301502573, 107.405738372158268,  3.842233664365932
14.733689542927850,  8.881520750605068, 85.597033330277966,  3.883146253626193
12.456410385602194,  6.661881288117465, 53.318351768828194,  3.804910358240716
 5.366274361481252, 15.102449590779463, 79.440673578338263,  4.083037644235748
 9.585877798808299, 11.064097806548370, 82.860953814320041,  4.313496402349897
 4.050346275499180,  0.465243359246082, 117.018407281839799,  3.705420567454409
13.915419481344006,  4.180549484395415, 97.169538623075113,  3.937972946132386
 2.826009934475964, 17.894872239453527, 42.257120334229150,  3.817226160490122
 6.816200342288203,  6.449230149018722, 44.417194490981913,  3.780559102652200
 3.215152575048253,  7.856705408532550, 12.942366989070514,  4.072783624299063
15.632247301218552, 11.538750070299439, 17.258423453382701,  3.956520663200474
13.692424701551055,  7.686681282486984, 72.382338667871068,  3.951549163682189
 9.275464052485944, 10.026226870704669, 26.847342544825167,  3.800635620967792
11.468918116370077, 14.673513381299596, 38.770088456594728,  4.002451242511787
18.744917485917224,  9.874288687971964, 98.012111206328512,  3.931467931416111
 4.867781742777659, 11.328280910328845, 48.045201996266954,  4.078340706118417
 2.803211573851005,  0.052298975974027, 13.324961452581508,  4.520970736975974
11.884242388543484, 10.501877199153416, 67.591504272101545,  3.843292995301459
10.137618453992031, 15.845685631210769, 89.371393498369457,  4.063010917257779
15.827063584296674, 18.205009150563480, 109.711345572930725,  4.154005433072908
 4.122498308793199,  1.038143740729875, 106.369554891373411,  4.106729880177181
11.153799574104179,  1.265642718132189, 14.314732339684275,  4.085865582427746
 1.341981313443332, 15.345922057532752, 14.499722174425667,  3.628429279309028
12.295240972180196,  6.934034423743617, 37.257045591432792,  3.777716833020394
 9.115530786854697,  5.024965744392940, 93.190870474688353,  4.246486573063958
 9.744137875482348,  2.486344319866663, 62.389574124334658,  3.915365715700608
14.840146022161505, 13.055688923043707, 56.586441833590136,  3.832627554026537
 0.888284209562919, 16.927662887223079, 80.434448643225821,  3.778002394518185
 6.067478166811445, 17.333574377657477, 111.821380232447254,  3.973862936305267
 7.307176024387847,  3.559777356008500, 97.108588363453109,  4.070620745465976
17.831055018194807, 17.262793106127436, 62.169530466895985,  4.422104240921700
11.028849763177417,  4.714107216359969, 71.768057406566356,  4.117267888528708
18.913130385004592,  4.001960234944455,  6.883904335743331,  3.759239169502857
 6.708220267804259,  7.355076113315418, 104.350812303672825,  4.271092175273500
 4.376363232877861,  9.799691036165184, 106.785865325758564,  4.025185318476542
12.725780816963921,  5.951438929866901, 57.208467104863182,  4.030786456274948
14.554272010531061, 18.455487302541894, 70.258335926622593,  4.246109079005872
15.975652260949326, 17.563342590766592, 92.381076738928869,  3.894483657038894
12.017776690217618,  3.191773944282817, 51.143322262700430,  4.256458231890165
 0.240560925459060, 15.555137705042773, 93.108148362131232,  3.785055087180004
 4.996739523044869,  4.385918780517756, 93.605233203375292,  4.120838516536573
16.230393886599753, 17.772706466281036,  3.177601367212247,  3.607691418338814
14.907905159299032,  1.192701359687617, 26.773837069540658,  4.179618441491056
 6.417674128895504, 10.693950435808615, 71.321179721476554,  3.939233180636185
 2.735855180709163, 13.709370729756538,  4.193748590876448,  3.919891864478095
 8.161350518693007, 16.786200083469865, 85.918610116422215,  3.637407129402415
 6.686078918192305,  8.867523095602211, 64.333442440250252,  3.963358075197123
 8.118523037915567, 17.322805662532087, 45.339362528911892,  3.952223663679139
 1.571574616061980, 12.399342961807635, 90.878246358480411,  3.889529742267545
12.365646592072927, 12.931236600383604, 75.411125122301272,  3.787573204341743
 9.269864690832268, 10.838691287156804,  9.439044985838844,  4.381264743036027
10.643949340486390,  0.865197503435350, 70.449410571939325,  4.024134875289830
15.070828744359902, 10.920064781286749, 44.123542502037033,  3.758105285627610
 3.398202683742702, 15.083754786188587, 11.310828907021891,  3.955687298745385
15.522363443451709,  1.069143138589156, 40.530687072914290,  4.292914196635312
 0.608781434502390, 10.056655368279207,  6.359383620488359,  4.134631769381198
 0.542966652298708,  5.837886050824573, 45.399272747256688,  3.655940604278052
10.862941562143787,  4.055344486232475, 84.758171261565835,  3.766499271043423
11.889414264247153, 10.549016058938227, 47.676605347396745,  4.136709415770206
12.405927728606885,  6.830661134112280, 32.094758150062191,  4.247318257556413
14.538672102592168, 16.964952875219272, 37.737847448682530,  3.924580668464667
 0.936430155253680,  3.250596165197677, 105.493609336016888,  3.768999724446998
 7.765089215323936,  1.675119837428527, 102.139773143089883,  4.325169804146457
 2.599339962625499, 16.612413740605113, 35.908487020166078,  3.918316217801278
 0.397453248847838,  1.581299754874321, 109.114326404989797,  4.247209020983509
 9.013973029029797, 13.708427900517213, 79.887075834880577,  3.709490299632592
 7.955956809997024,  5.830121545993555, 37.178981602386166,  3.833165530897317
11.685792167317272, 12.708228533491637, 86.333203133686723,  4.440098948115299
 9.066184608180725,  0.556046646185639, 26.908615279646163,  3.873996599085393
18.061557981817245, 12.528858017421575, 12.415353953859420,  4.285600471046142
 8.945961984168733, 16.051813600139099,  1.055775214062410,  3.976577005275235
10.427556277467279, 15.689852246345426, 48.235529844281913,  4.085296292763673
18.386243542439484, 17.105118486496856, 38.754502426197178,  4.020017504767882
 7.790673363309055,  1.738019185757810, 80.721424244308324,  3.966877346006329
15.333245963911452,  9.556127165680707, 11.664724747300211,  3.857394632498992
 5.173486166930698, 13.856285614366440, 51.308548674899924,  4.157483695695298
