BANDS
8 8
NANOPARTICLES
cell(1), 18.933
cell(2), 18.933
cell(3), 118.333
 3.347756991035703,  6.144744747866729, 71.276309868827937,  3.920839321460843
12.095834753638668,  4.837118331186256, 84.916939093978314,  3.687350554310455
 9.563975401634115,  7.983477429989585, 104.590533694442783,  3.711774969476757
15.013587067858547, 13.982510721527429,  6.970237745852244,  3.793746620886417
11.416986677322219, 13.929587365949645, 91.492280437542775,  3.904061186766464
 9.732061162797956, 15.600652826191272, 51.303768541296492,  3.941596321142750
 7.920876065716547, 11.153831196268291, 12.345846991621046,  3.868520554730907
16.489072143278126, 13.812387050344219, 90.957780661680133,  4.085997793440175
 5.091585155207468, 11.996388007790232, 108.109685868174964,  4.241327392103508
16.374464641787430,  1.071231070569114, 16.140915061199749,  3.834258062116084
 0.315389256002548, 10.942034454839254, 12.983572301934945,  4.247618180750430
13.181477465342999,  6.185771079829052, 93.150293465613402,  4.197657968722467
12.976816921899623, 16.867987650213319, 18.210093421275040,  4.085335557326238
13.710260863181619, 13.193422670509477, 38.701580901629718,  4.146935291945612
 6.107884580450865, 16.791956442219433, 62.309804367961924,  4.104450923391349
13.244750624122348, 12.121391011468043, 32.288091111179433,  4.057823573423456
18.270374904421665,  1.438390443828736, 84.670596982065035,  4.125824086589113
 9.581704786131176, 18.419559952949484, 93.286649866455605,  4.235130949590957
 8.781081670748305,  7.906465950213279, 23.690898358638165,  3.760716421732135
 2.714271797743008, 18.074623693935941, 103.725574031419484,  3.960959120506972
 4.939571829096532, 15.430507690029895, 66.154390582755880,  4.335462786105785
 5.245618116042292,  5.572112439822433, 106.295478241474697,  3.938688069763159
 2.491136190874602, 13.901799681039929,  8.522480531282142,  3.944699163974552
14.896601151652938,  4.623685388022853, 48.850478824058214,  3.828299943649694
18.696245034719588,  7.222653365797504, 41.731275020064402,  3.615070473712643
 2.967355372053708,  8.029627406248975, 108.345048454084903,  3.863016193129118
 3.894621351305528,  0.864702864746343, 47.745131134597550,  3.717109168923150
 7.935720392468991,  0.174459021288706, 85.970396749312073,  4.130376680597927
 7.668520485247284, 18.601510504486921, 52.387903905509681,  3.653517080415007
 0.404232827879763,  2.382917094246265, 104.380250287808025,  4.100926968330018
 5.597276288241359,  9.829722933621390, 25.331616556187143,  4.015561622360773
18.763797446336650,  2.539745241499226, 90.533009455913827,  3.997919970665079
 7.697884736130520,  3.553337963277274, 103.897394022508252,  4.012535385581187
 2.212534153556948,  8.668810006335395, 15.916844911185667,  4.068361826499428
 1.488193434934488, 13.530014267259201, 34.699792842105808,  3.926315241712295
 1.627273140536338,  7.399510441165360, 79.524240438706670,  3.550857875259387
 6.761163884839552, 14.496644190925631, 38.467840736165023,  4.013709006977354
 4.457137230905521,  0.389369020576860, 59.573062965643842,  4.008949149830120
 1.754447213435239,  3.720489362364667, 87.115837642888550,  4.125674516661301
 1.024259773225239, 13.928095512801068, 45.267806887246486,  3.962774801961606
 1.459851872877282, 15.556373542389393, 78.084931980109644,  3.674780584486798
 5.290341864513142, 16.203284483281127, 70.191995524945739,  3.863674004939760
12.344818110718855, 14.551848112004638, 101.375066404472520,  3.711077282613479
17.918545391921107, 17.682952618675539, 51.610161803367731,  3.712717869989347
18.630528532495273, 16.747619014776834,  2.200279272748180,  3.983921236648098
 3.703022186549414, 18.370976102336925, 15.409526079304374,  3.914814381897815
11.119593690245102, 18.118527590363268, 21.542819969789104,  3.942470077792458
 1.003337414139235,  1.912531491960221, 58.086869827853988,  4.071918822729149
15.591568854151220,  6.078531417611836, 26.626526866868211,  3.912847598615952
 0.530677633853698,  7.424341715398048, 34.224958528045114,  4.235317540672379
 9.908454972249780,  4.560753858522109, 60.842043238095179,  4.154542068538518
 7.869158703356616,  1.240371208206628, 61.204313773400607,  3.618666005649072
14.267310977073112, 10.134701241838673, 36.102191347612511,  3.937402828918699
14.067925893950530,  6.033132086608751,  8.189072472659134,  3.879648604309917
 6.693272627888752,  1.918595315888225, 15.514851092368925,  3.745335880755994
17.071777047995365, 15.449958466319258, 98.808829842501069,  4.215570661902360
 2.795573229231006,  9.521543541316591, 54.925742819746311,  4.002943445712513
 5.536723766532238,  2.533748836937700, 117.831769705241086,  4.098467111392473
 1.890524427611600, 18.451989519556740, 19.032099271211095,  3.930880978715079
 9.318408422291304,  5.140230261701851, 107.475181981769282,  4.374674553299941
13.255769429420388,  4.576197766101543, 58.476740402772819,  3.969272735696334
 7.879201230883260, 17.755229595806313, 58.314722786008574,  3.890994051346236
13.149951478154106,  9.942084841929860, 99.448080902683813,  3.853333050549286
10.744247586927168,  7.756846076737531, 82.652851937183897,  4.150080123735866
 8.060604306083254,  8.496741431932751, 79.990633340461002,  3.536097173869596
15.960661965036877,  7.409321291038568, 57.812548860727169,  3.865019953436199
16.835385985138657,  3.499902357274713, 60.652768697554734,  4.557717695640014
15.241574095791476, 12.319515558651148, 94.398558294506103,  3.806096793594120
12.865531905344470, 10.959371796809178, 89.323673113001760,  3.985012059375071
15.578661671712663,  0.587102706002291, 49.039740526207531,  4.134954107762552
13.778081602949051,  3.997165712810558,  2.066557170423068,  3.920770812239599
12.679221785149856, 11.175970997163635,  3.767183824959520,  4.084776321479009
 9.618797477224328,  3.012200697500686, 67.642102982186515,  4.317313929466999
18.167640803464444,  2.680267739104469, 19.480581456058701,  4.370978747647683
 5.731904271892840,  4.354581019445727, 59.954788555185623,  4.316547544774502
18.911043918527177, 17.740202971593838, 14.179024917156191,  4.007606389437996
 0.654841778417310, 14.365241011724281, 20.237648729024023,  4.221942450335739
 3.151992830551364,  5.280164232288648, 41.404039457187260,  4.221370664439078
 6.845494226571948, 10.955090034067345, 101.643121864929441,  4.250839779904977
10.094646873048717,  1.490785366940210, 101.757041719807120,  3.607072493061274
18.562430694033544, 17.418243755079118, 116.644671061136719,  3.903445438693452
16.986933384672675,  8.401174557597777,  7.612506205408511,  3.716688028722174
15.127645212522978, 10.886752131511098, 55.796799901291656,  4.328959191828987
 9.347096414690867, 12.452779985879921,  1.049395017461727,  3.950918777687787
15.771135897756317, 17.382392505097080, 114.075832199333192,  3.642547367350488
 7.922039245923738,  6.347999440255018, 76.601385804066609,  4.088450929710547
 6.007747832417558, 17.257537686006067, 110.190856270392132,  4.029178239811731
 3.921563498287064, 12.392962929557603,  5.069989380798381,  3.758698715055211
12.475276748821731,  3.944194922421099, 26.730269300948589,  3.618788553271577
13.816463277003837, 17.513090156241585, 45.282946410025239,  3.735801061766264
 0.848950870170429,  4.490232496792484, 82.203995033404425,  4.263054053561561
 3.155332519128387, 12.713980231917427, 102.961105480071026,  3.912885936827871
 8.642479820383484, 17.242733158249752, 100.116847654613593,  4.117976791271024
 6.175519040776180, 16.666858177189752, 31.988790671635165,  4.159144100188725
 0.137165344220522, 14.131701748445469,  5.297642185449066,  4.030430190863119
 1.214077413797349,  1.658884916691705, 50.392688868707104,  3.964041033103504
16.439954932662463,  0.217172208569185, 40.632213532746036,  4.212811317746631
13.701219510704986, 16.156598976503016, 41.571925544052917,  4.093223916981490
10.824237648709216, 12.330098614461026,  9.622047166714522,  4.289771081997372
13.805287259870775, 14.606901778070872, 80.520073328518606,  3.769270532834378
16.548780301358349,  2.476808101914401, 71.763208748931191,  4.060483758244086
14.675610616599720,  5.712830171188567, 53.183295447635871,  4.151724731545839
 5.884769661996518,  8.268396678788992, 14.113167982906045,  3.967695992002236
15.867235536284456, 13.653754155892416, 74.213120065035582,  4.154100035074931
18.330865702927799,  9.912221816867429, 116.645752305542359,  3.871673772006355
13.494783240471422,  6.499614550347410, 106.240448961676179,  4.053558886170282
 8.857539659847053, 15.732549123970301,  8.410357235781198,  3.927909295626883
13.705448617422615, 13.804053125696035, 45.800399630850720,  3.551452346738736
 8.232746794750357, 16.176467015954188, 113.616587971273034,  4.142509083421278
12.571328787293767, 17.070464494080191,  7.584583695104762,  4.125653189715627
17.869417866555597, 15.279918159204080, 62.272716753356853,  3.846653406750024
 6.263330319592834, 17.740713263751093, 116.687718147283064,  3.780683552228512
16.752840131326121,  6.602585109058679, 31.303336675085301,  3.886064118032938
13.241288238749087,  3.023176223095886, 74.033882293507318,  3.778505767075982
 7.838482137585290, 16.136649456211398, 96.132858012635111,  3.683196696716931
10.811959365579753, 15.790160692634997, 47.274709527819631,  4.034692269887604
14.880322598032814, 14.780495832907787, 57.320065300986862,  3.964886833070167
13.620057114503144,  6.227193949256343, 37.242427291980107,  4.028551803284754
15.983706374247058,  6.721633498669347, 45.595101927005132,  4.175802878546450
 4.342256952792794,  8.051213189654755, 67.808030766407271,  4.232161862157202
11.293804276826412,  3.465141296266620, 47.872882878322478,  3.950438650451642
 0.515262127610168,  0.289573754563768, 61.735822876126825,  3.951090615658716
 9.813768215200156,  8.592270490571956, 16.073517102789967,  4.031965634958643
 4.133033331815811,  7.430548704124925, 86.862293334219373,  4.087955086321596
15.014199054713208, 15.844718328315246, 103.674569297198417,  3.794156707015294
16.916378377018415, 11.424402283159134, 97.712759519170717,  3.774752150957104
17.318089029511420,  7.997650769825389, 37.831816178805440,  4.229941341577642
 6.565972493018540,  0.381134705357656, 74.382824725092306,  4.283105119494600
 3.323704531233259,  6.553040035681011, 96.504904383991587,  3.986103430424602
16.531846009468556,  3.335244458062450, 23.599363136142603,  4.442524213720813
 4.511540491913326, 13.241456303062531, 99.380322706917539,  3.634130320273093
 0.727437007134192,  5.840390612089354, 13.261705997307153,  4.165556294517472
10.801022300465993, 14.463085036030607, 82.767873954837199,  3.723825173851807
 0.945334061335595, 17.020771726651883, 41.900042371942398,  4.241284315400763
 0.169016728976277,  9.211779348339494,  2.695291224978629,  3.863016498734429
11.824824067385384,  2.027754319335766, 87.745800948023557,  4.296487591098137
 7.699891113032160, 18.437564713500841, 103.923059834397833,  3.935887317395580
 7.849017309623677,  0.872476641984999, 97.076921253459304,  3.874311684048334
14.497515211303329,  7.258650096131820, 61.611743952300294,  4.244011591530459
12.469756018756122,  9.337639802698982, 39.582723515613687,  4.056053146810008
13.900054091714191,  1.993747560169633,  8.703574716176886,  4.227512020137871
17.529026766782454,  2.114116649530922, 94.439343505598885,  3.924718115054886
 2.875454693952209, 11.381900391278830, 18.700231538226351,  3.808526762978292
 9.280804506812649,  4.866890465923450, 80.132805831624069,  4.018751137963160
 7.163636999389825,  8.588572875821578, 107.717021152896024,  3.734439301401550
 2.051471598998333,  4.130900865405629, 114.887149006880648,  3.838182664123854
 5.966054247620788,  3.198588948376390, 109.622282935815079,  4.335032258053135
 9.400268034640145, 10.401996767071779, 32.572830851705589,  4.085098175953627
 2.927455470359053,  0.026135764934784,  1.226570328104898,  3.876052096167881
11.860975795950537,  3.984417616276853, 11.694329632820429,  4.027714069957252
 1.100886201360214,  6.131569618077939, 57.686439018456575,  4.348478645036697
15.078647956689071, 16.740257123719015,  0.199353335265291,  3.810611732953425
11.987256261495821,  8.353596544516652, 47.209621778445999,  4.115114655342875
15.701690022245696, 12.326262384961154, 105.455535224472143,  4.170871548973729
15.255089000147283, 18.676324290914270, 74.451768369060801,  3.948564319148453
 8.671408460616796,  9.600497873709742, 56.388041326703380,  4.320095562986832
 4.226833804399337,  3.855755524831491,  5.212088299782942,  3.969310535313346
 6.462937799427567,  4.408122682457542,  8.455565889456961,  3.929520967224849
 7.432677481907639, 13.304907859747924, 79.282463838726741,  3.899957427627212
15.662230181701377, 12.466630218749577, 101.307358650762424,  4.044893619878001
12.096168042898020, 12.576961543501699, 42.337173431992788,  3.864284090930292
 3.789450748666609, 17.665435763567036, 50.902134819049252,  3.871215881576569
 8.264146545954492,  6.921915081188433, 66.819387837269460,  4.110437605609543
 9.165894682874985,  1.805351309405338, 116.215468559777378,  3.974912492681691
16.824720548147781,  2.358411172982382, 52.454367782292564,  3.947070410897195
13.793112398045642, 10.417463773036454,  7.525480953077720,  3.813090910153276
 6.916462578790814,  8.463459042983922,  9.554363938924451,  4.097635781319264
 3.317974613703157, 15.639233842420072,  3.187882894546025,  3.838704915617196
 9.731383332095284, 16.149740731063122, 117.833676441078893,  4.089468800206721
 7.785018830784770,  7.894358831174524, 60.096148529687497,  3.870218235420956
16.618648789764293, 10.126341564777821, 32.961136943257536,  3.894300391540450
10.027471320978195,  7.798790861728018, 100.412825557264171,  3.942602982190071
 3.945678334989757, 14.327596381047030, 80.626626985957500,  3.844766618165613
12.792127527260357,  3.481501294295397, 70.208828726600700,  3.893114889309863
 1.133259991595383,  0.000287348079343, 80.364114565844972,  4.447984037210506
 3.800387484654796,  6.603759439632002, 24.231600937436273,  3.679311185775634
 0.119440941739043,  1.858523068018216, 32.956019639206751,  3.907749040140115
15.712393893720590, 14.303464607955313,  3.160333231966389,  3.838145360875934
 2.978315598075493, 14.746948373767891, 110.173449251299317,  3.830782380789673
 5.190119043485387,  6.085316842028116, 79.815870557556309,  3.964250211648217
10.869376862522930,  1.860340111472478, 105.582391690363750,  3.792409097041282
 8.719032670538256, 17.627159122827301, 82.315867839093997,  3.897066632343250
 1.834932735188058,  3.910496612721698, 108.176558642479378,  4.522804751030144
 7.737696428123396, 15.872959341769654, 21.690450354203691,  4.142679225569753
 1.654794942577470, 10.932251416815959, 25.236087992645732,  3.818814004047945
 0.980088176272492, 12.188352292728235, 99.867829265933608,  3.691495380231109
 1.554089735542755, 18.389309453500651, 71.362711482779929,  4.297428940392193
17.184924608425892, 11.761608394486645, 22.555307778441033,  4.218081801550157
12.548109249575104, 14.023456538391022, 60.481864737869238,  3.987103532454277
 9.881611595845378, 13.729308892904264,  5.161706828382852,  3.965157034005205
10.379837847609521,  9.558388385900301, 116.778498363368897,  4.011615923360834
17.482944817644650,  1.709748593935366, 77.161166408218747,  4.050231808003725
 4.655051407640658,  5.126806700313827, 83.589504443246298,  3.886745669911729
15.852363601833721, 10.891171884757942,  1.237013448702535,  3.992659071640423
15.552327792642936,  7.326240391818738, 112.422382133669458,  3.982419255649222
14.652984173090237, 16.561282962384208, 67.578166982078443,  3.926190417583128
 4.608005531882466, 11.862886984636612, 45.267688943758266,  4.170341841070023
18.001656128462074,  8.021115094594036, 54.205518505133824,  4.150123558792306
 4.030589758626890,  5.264763076292254, 34.724782047499687,  4.034136846147329
 4.707864521803287,  6.481839469821406, 116.600240987409038,  4.034863888996668
18.413990883444026, 10.111478213592157, 44.675176977453667,  4.251440058449962
13.046012515527865, 15.460141189161565, 11.449041262717094,  4.149848104487487
 3.259006769169460,  1.470999320842259, 83.717248537355673,  3.915101279619403
 1.210616858319863,  9.261439320344314, 70.154611606701792,  3.952000714324869
17.500590326754601,  0.997342646906166, 36.726357370959668,  4.015272233246766
 9.968721153307655,  6.349069646950628, 70.564498456129172,  4.178569476500542
16.009969398207762,  3.625764788229714,  5.465858017986902,  4.136540207859204
 6.729825347557165,  0.033248056371081, 44.897643644345436,  3.665167699363359
 4.266708838105974, 13.798615372354140, 26.014453989954621,  3.832115422609298
10.383343860629111,  0.216999402106562, 35.526466157516232,  4.117014789554216
 9.421119304170647, 15.219973081229554, 18.183345761870619,  3.746010396814317
 2.343707886533902, 14.687616884545703, 12.667699997945407,  4.279957104212840
 6.720594532552473,  8.731557636011855, 83.750167921270503,  4.393250002883724
 9.195231604577453,  3.451552889710733, 28.755292939968783,  4.142621104961812
 1.975298351484127,  4.067059886531736, 93.658542292139117,  3.894488486708892
 4.123083836868591, 12.189102362396010, 22.358131740394892,  4.015530163337652
 2.008643427960410, 10.998333521283145, 110.799960791039368,  3.916496508111790
16.623329218894600,  5.411453817216833, 116.056819254475386,  4.505585665652490
16.608312550408748, 15.065316508325582, 53.891329137388816,  3.698015983798682
 7.870421574170288,  8.928338801863813, 87.867543596898159,  4.135970401620654
 0.181010709053242, 11.540443737386287, 94.477186725207133,  4.046809031806385
 3.675757543088046,  5.374851284536057, 90.341749533428853,  3.960673480309486
 2.916233599784002, 10.554129073102697, 73.563380010773145,  4.083527432845453
 5.850950396906326,  4.330048647271342, 68.786138861432889,  3.984959859395931
 1.376306138331228, 17.625226254059065, 65.345523846418260,  4.121987845737164
 5.484604722556596, 10.845237429790414, 39.774255632881285,  3.981766368573500
18.792960574288475, 10.468364897224012, 103.146686157816475,  4.035339689321702
10.437449665991348, 12.907589127285458, 71.352042201381835,  4.068081152521210
12.416025116525542, 15.261310897886554, 28.098445894828288,  4.164811538145045
13.924822460444798, 15.962007865865784, 93.772615207384973,  3.995332212426487
16.463965785928746,  4.475020234818365, 34.753525220216616,  4.235931727458309
 1.656480015891273, 15.486944454786885, 53.623037237980228,  4.274731740344934
10.394865192084604, 13.465550945718391, 95.233571664547455,  3.903952278504305
12.080274974742775,  0.551446524675175,  0.565782270683602,  4.323755738169857
18.399248279943141, 14.478521654673999, 58.682266517945322,  3.585826714836421
 4.489131391433900, 14.556276133816745, 41.979369318086391,  4.327050855490054
10.097658621382189, 17.102310141703740, 61.538191800568093,  3.990541336576395
 9.886520676376309,  9.932542563115192, 96.973628349812003,  3.884716310636529
10.352019885347204, 18.817446675465121, 10.895426164425718,  4.508390160503426
 8.923598799768435, 14.393807601411645, 102.842266807255015,  3.644059298393136
18.363999979740331,  1.345344844524548, 113.889062429545760,  4.047514080047382
17.737620024513770, 12.165906228230746, 69.160583205354314,  3.848330903445432
 9.367075812604455, 12.718595734645602, 88.298928762517761,  4.057151653307986
 8.887604103511286, 14.414265759209158, 64.534224280504517,  4.411683455219200
 1.861522148514764, 15.878905093866475, 100.504894447235330,  3.992942583506201
 1.074130038613350, 11.255433205442193, 90.425207799103916,  4.189559352631782
 8.612454786978798,  4.832794802017421, 37.059313552158237,  3.797649658923755
 6.185497135821144, 17.352562316757925, 25.263885086332280,  4.148674393427529
13.647226310528078,  8.467338899036758, 29.349725212692640,  4.277482856049536
 3.769813211288565, 16.137281372024223, 22.169717647921647,  3.866400649560809
 1.709570280077867, 15.078232254371837, 68.813815314629394,  4.051032411398111
18.855056705159139,  6.778683808258401, 85.399438348760626,  3.759342690438917
 1.340578327276055,  5.514514484892604, 44.865987887347629,  3.504215423977816
 7.777198230359768,  1.239590733924942, 89.938687640182792,  3.978834133797434
 4.177047736314960, 12.807993148324121, 76.892635200417146,  4.226408047770247
 8.315284795988955,  6.257213628751427, 111.574008481358604,  4.279377653225514
 7.885488752410294, 12.221578117548377, 42.793859336233510,  4.054223396224906
14.926993483407548,  3.265935960036863, 112.699227953492809,  4.143394656498658
 5.210944034858888,  1.640469958240780, 41.674493786532601,  4.097456839367868
18.890324234564826,  2.623053202083055, 64.994924675914532,  4.131935231603205
 1.190687032792754, 10.062404582287794,  6.310939206936323,  3.810421377727457
 9.919192842531119,  2.237612100031184,  7.401233987454685,  3.945775065076445
 7.439220748663609,  7.350837105394056, 34.338753472039180,  3.959123656592591
 4.255248555259112,  6.049969182461052, 11.289744216699418,  3.874267568370696
16.250280317286716,  0.961846722123736,  2.086727049212881,  3.889184628451943
10.204191959306277,  3.370057117018004, 15.252099915707127,  3.864882987760847
12.884313309077806,  0.637655509784626, 28.385266093083718,  3.587129265399888
18.861788638248328, 14.118950444269053, 16.116629176927603,  4.157315000824274
12.777215677707236,  3.241684321121062, 80.929901844332448,  3.810391577343477
18.815535299897945, 10.110762915071817, 57.648668970078070,  3.926561488369540
 5.611019030524009,  2.564028918561112, 25.860682497277249,  4.033113715048900
 6.096737439817902,  4.697980397975288, 21.703103195632593,  4.125866629718132
 4.517556148691993, 12.007032304696274, 15.126155573900693,  4.131747635364170
 6.641996532992681, 12.414586655414142, 96.205269523443334,  4.126570096135017
14.713619153412337,  3.195963850211472, 90.623575565461465,  4.150488722251107
 0.626016015100069,  6.474187661267510, 67.534541300598391,  3.775657961217263
 3.997992922601532,  2.359991349604791, 12.727308130197711,  4.033554474660788
14.874278631814406,  6.698004621014974, 41.593810134525178,  4.101643728382796
12.512639188760268, 14.864783314471181, 112.125727480277945,  3.919279774972326
 3.574563177054314, 10.696451661691079, 28.731558774388589,  4.007509306949554
16.151976039628920, 15.796229777726923, 109.416097899946863,  4.135360864834196
10.918250007556153, 11.093345309173639, 102.509463986666049,  4.016165880926668
 5.319166748321677, 16.978845149518243, 90.360309842621746,  3.970352741003659
10.615193041664524, 16.199433458339225, 38.646510837402190,  4.404813796096165
 0.160769907327992,  1.999694177739671, 11.900552508785422,  3.841178943616043
12.269872661376807,  5.333753179243420, 44.473619166996620,  4.043555527656057
 5.914579219038039,  5.522189029620632, 30.802683062942798,  4.491211301052107
16.657893805099572,  9.743806937082807, 91.954392820600077,  3.748411644265152
 1.019987762337290, 17.342493236104733, 48.261401381500583,  3.769976904497752
 2.177505780683354,  3.734481407239299, 78.157242237813094,  4.343834664568912
16.608302824619503, 11.107475596853005,  5.037494264769208,  3.768221993673790
 2.046071933178481,  1.773776721767802, 44.375726036023522,  4.102347626347218
 7.009259609926080, 15.631002717261268, 76.140595328305508,  3.867395681914435
 5.474395501646695, 15.746999657406972, 102.115193814601838,  3.906592523703946
12.637902236313584,  5.584201541886826, 110.129915871592743,  4.116648148056756
18.293840328005533, 10.144627829929441, 50.878223028349225,  3.761275167812007
 8.245026581788521, 11.560632738921845, 105.481722987461723,  4.002229033336378
 4.862969288213562,  3.027523952757510, 37.894535044495875,  3.898637894082722
 2.767450235600382,  6.695228437871956, 28.064925329752537,  4.156223827801824
 0.636623173865277, 17.926221847325603, 88.773648668956469,  4.073574171674315
12.864495491689254, 16.980455086442788, 107.447349024229737,  3.881457100810216
16.813198349470778, 16.260385124475604, 71.039111442939429,  4.213262230297355
 9.320495425681951,  7.447167319495319, 93.944164865306419,  4.029844721385209
17.330052870634443,  5.755696084315221, 92.630473102563414,  4.186368016301166
 5.553957042404454, 13.007205826420893, 89.926200690883263,  3.747640698429022
 0.644969854457056,  5.898035301817242,  5.826516307463207,  4.275369475909379
10.508739937482908,  3.805764231287294, 91.212380075027298,  3.923798576731842
13.046971289411005, 13.499198132222421,  0.550655408177643,  3.789235380340133
 5.089513593179531,  4.346150870288858, 44.880840868472532,  3.923675692975214
 4.053191907511181, 16.682001058299821, 28.514002660159864,  3.737376138064076
10.132149526162340,  1.250128508734513, 72.277475580820763,  4.155292777328585
15.347668080522253,  9.938461294314987, 25.775793501104157,  3.994093808832613
 0.227702482584328,  4.273433759404506, 97.462767528629243,  3.891890794827283
 4.008580079188022,  7.279355787730161,  7.319983833693417,  3.584104880082162
13.321030530021314,  1.812005750332657, 94.270143416757932,  4.130691009652613
 7.441888651788366,  5.396136885191626, 17.664504469282246,  4.454328576019746
 2.791628023612655,  4.599496560414234,  1.621254986820516,  3.884848079161750
11.505132766046504,  9.283142663268078, 59.498375432854246,  4.114192451744794
 4.800842115858226, 10.493944550818970, 80.426423624138138,  3.996926236420435
 5.444962580282373, 16.810029508140982, 55.166735382387365,  4.288531219608458
 2.759862663537886, 18.180221278123152, 10.420601631864164,  4.064285542508844
14.371968105338061,  9.198113212929663, 109.130525826175372,  3.925256044326170
 2.977795331338350,  8.770757563066732, 100.844814055596402,  4.305144099325692
 3.698287071285542,  6.647630622738986, 19.027182932516535,  3.876211052139608
17.332356833741574,  8.249170161772895, 100.218639239869077,  3.852191156274327
 0.642749571557466, 14.857852757175728, 24.499052747312149,  4.303081382638262
10.099328395891581,  8.340275566691592,  2.349072768011473,  4.085098920412367
15.087371690665714, 16.022336871930097, 30.863542981286020,  3.668058440026330
17.150023968241864, 14.411845758471866, 12.408939068317334,  3.942372693905701
 0.517149930615516, 15.065040073785493, 107.174772669033644,  3.953216459817866
 6.508822258959760,  7.596710404009895, 43.106549993897630,  3.993302870943817
 7.471853861998230, 18.832092109886013, 65.656355297385900,  4.194331815588026
 3.465713797574948,  4.686102462108662, 65.624044051408845,  3.940073061361912
 3.866339085696717, 12.414046163891530, 93.303826369807453,  3.866659119683317
 6.409098056577121, 15.548287942442171, 15.391520442857196,  3.896316398631533
14.971323392866193,  0.303517643118871, 20.962828177092693,  4.125063065506682
13.510604471156359, 13.546807293602198, 97.765215620407432,  4.118637616436957
14.249794937034345,  0.887115057845295, 33.898578079426471,  4.337431810957759
15.165288189290131, 13.607484158302210, 19.148009470385126,  3.901254065128149
 3.091009103960394, 15.505379093583601, 117.528092732949190,  4.097575805322113
11.620231475036075, 17.320626482527405, 97.039507093419218,  4.443120264985902
 4.333027807383321, 11.936533610972241, 69.709777798076558,  4.293616837594295
 0.405369487198787, 13.097821114856481, 28.267610268853677,  3.948907587845375
 6.681642308852842, 12.562814061903358, 73.348563237957876,  4.437613005904895
 4.551426891016236,  8.695449955302932, 76.851221646512357,  4.016757601539124
 0.932821450669869, 12.908106124687141,  1.535378788209197,  4.034034089967673
15.636266021148229,  0.041912526485243, 87.870898086455199,  4.234479730406836
16.304775181181551, 17.821838494828832, 59.678834160717159,  4.020517792073234
 2.419687738847911,  0.777444792701891, 35.937870335006480,  3.810568651564265
 5.069977185655104,  2.549238845693254, 51.541091564639984,  4.271966203339375
13.304922276653075, 10.428420335818780, 21.707407805046081,  4.138873415130359
11.580594973979954, 12.409134753905725, 57.072329375829689,  3.788890292391399
 9.755114916209886, 12.162372823120295, 39.339750632488936,  3.776742075225690
17.523487032427870, 18.344830308525204, 55.790809159131669,  4.074425085071127
16.397989037931254,  7.714842449616130, 21.999697105488238,  4.100964314971848
13.306026191032663,  2.072353780959402, 38.013454469747273,  4.407226420197945
17.546677168034478, 17.140066853828788, 33.747831682742145,  4.137793228160993
 3.723012138742536,  1.550574550467194, 90.117433731657158,  3.652973499785670
10.906123449060228,  0.337421853678682, 41.662433442562154,  4.149307122248449
 2.007080981032811,  8.345332037001885, 64.327267029414486,  4.144841381835535
17.977205741563434,  5.764137135584583, 50.847031965077235,  3.857028131985203
13.784713452761126, 14.833651140692570, 115.588105468260196,  3.454409782286823
 7.167182483178385,  3.903540078721575, 64.042315928645053,  4.259584674803579
 4.804858738403895, 12.640621220242503,  1.462441210155362,  3.626985621806407
 7.218642911797713, 17.452756840019187, 48.608936185337960,  4.295803540131286
 6.136264867790524,  5.007025094330962, 94.118620744771093,  3.987692944669872
 8.061241515126731,  9.962412168012841, 69.765167719277585,  4.138245720812542
 9.783586436497043,  3.638373142876567, 95.079131976335205,  3.939022001905873
18.545360239300972,  8.074213027214883, 96.472965404359442,  4.027365782045594
 9.997907113636646, 17.105507230568225, 110.094416140814701,  3.920178313798240
 7.709628854568611,  9.620407760417073, 46.114458022116729,  3.629188952145935
 0.090991070253728,  7.222743641329086, 25.038112913131876,  3.986630455601633
 3.349180998971053, 15.268551651894876, 17.542871531480593,  3.599603435516069
16.116707711386233, 15.651395888887032, 22.291755642731381,  3.835694990526101
 4.607468656999576,  5.190210620877592, 99.860432756796470,  3.697350042941621
17.623231903918864, 12.240971004920741, 84.079426103254676,  3.906117698735659
10.074363231349645,  9.431396484504987, 73.097098221983558,  3.717212303527428
16.411293422247713,  2.643209240960455, 100.049405595302247,  4.312895152778125
14.256775560089281, 13.228628020222340, 70.378792638305228,  3.820873012251180
14.407628492524150, 14.485051977918500, 63.971960794928030,  3.974644168029936
 5.308161545526299, 10.143510349529683, 49.082455184025520,  3.908949270962988
10.512148822710198, 13.157172911247722, 115.071200180269756,  3.952218267053065
14.293339716408678,  1.723669936262742, 103.582484328081918,  4.058678763514251
16.405610203512069,  8.380796241022562, 68.916211872239487,  4.095260369035460
 0.282146401729748, 12.316513969287419, 75.896832777100343,  3.771529478872481
17.350070376761998, 14.812380107571897, 87.113670021892588,  4.018911521066526
 5.011901086652239, 16.851892351866539, 83.441271034046693,  3.990208227519739
 2.983572092692850, 13.465850810679072, 38.315970277746501,  3.823124740457591
10.321689882615532,  7.066774610541229, 27.240746078965543,  4.005602566059415
10.424585617046251,  1.648077878568593, 58.190081236493846,  3.719116659327531
 2.899658918172374,  0.810360482165747, 111.554272274542356,  4.343918661503971
 5.944852707291035,  3.673316863060651, 87.167444195881657,  4.245702426973094
11.634738847164204, 10.979274525109085, 13.462765750594372,  3.872268759718667
 1.573360310642979,  3.406990814704438, 25.300956969957642,  4.193735891015944
14.910861486447420,  7.254122597255341, 89.220226437375686,  4.425810115306084
 5.365664834393489,  0.063311869421074,  4.366178219068224,  4.073287285573568
 4.157488242085995, 16.230847337931014, 113.612276455027612,  3.970536499020222
 4.465977982071180, 16.207054342030663, 94.230416491363854,  4.027545374079835
11.819380156704813, 17.265675383585261, 65.038605595464134,  3.810027336230550
 0.260368251815962, 16.540454654306060, 112.452187503741257,  4.093425079941753
 1.330631344626803,  8.363612782031801,  9.866554044240095,  4.067705193134836
11.393907291450619, 10.352205823784471, 25.275727196669479,  3.934512918223964
 1.276067657241141, 10.303656350185422, 86.404626526110761,  4.052563494934779
14.325040999256265, 10.267318420760459, 44.549686030165013,  3.920351494892778
 0.806359088430296, 12.623246782334490, 41.480190151263400,  4.040171043220179
11.694239037157608, 14.171013231273163, 21.222849103213093,  4.053271912839158
 0.244015551204656,  7.308845817439033, 89.275563893097384,  4.077930825328811
15.906790792703161,  5.112543858037037, 83.685141740272115,  3.818322270216549
 5.608686584642603,  8.977719802406291, 94.312702462921976,  3.981869760814929
 7.889337334961902, 13.823594751063446, 68.506458128760030,  3.783804413727354
 3.455344871074793, 17.031651694710217, 45.151460825246382,  3.915713728383273
 2.416714503361061, 14.280549496327930, 87.848690386774251,  4.157303966723224
 0.876735058161041, 11.310133084447045, 80.960112803090908,  3.883154554108141
13.284115425563529,  1.279581145056718, 67.071530530019515,  3.821961193784476
10.539423236319246,  8.846527347020187, 109.365478148327796,  3.780388522262646
18.131633183326976, 11.828173811632295,  9.177162872538783,  3.870757039513450
15.086231608669808, 16.567541943378171, 14.884289976117389,  3.809683661519072
16.810106899637972,  4.127576308504262, 39.118283419656080,  3.978260245756047
18.570017942790564, 14.421391047014616, 103.415526200261226,  3.873041376989907
 1.851639515921595, 18.697446257524678, 107.720141562723668,  3.805271913273431
 5.606744135701970, 12.894802442387522, 62.264621130231028,  3.748442787758081
 8.634063472000108,  8.579390941329649, 39.628226334701331,  3.726176783326274
15.583260586667535, 18.705010516310548, 96.881702804037246,  3.880184909817801
 4.428977304380782, 15.682559512882154, 35.687208862450575,  3.595838622414796
18.701040990719797, 14.086927827489275, 50.112267738391800,  4.120775175399736
17.056945980835014, 16.937566137013803, 18.375774587927157,  3.856209948755453
15.943591474088256, 18.461401030389503, 11.431374773802478,  4.179884051973092
14.162695300207279,  4.776321105409076, 20.483797822236859,  3.870774624258430
 5.892831948797896, 18.089638986816464, 18.745427052605795,  4.065139930698001
13.075382616281409,  2.537725829366120, 51.449112126700193,  3.757381661710999
 6.965936128570750,  0.715983610084949, 69.772809090034983,  3.829390924101935
 5.596827416710518, 15.222441623945745, 10.360584060246730,  3.734222144811076
 6.287221016012647,  0.096402930501145, 35.557829803525344,  4.050384195199701
 1.670228416128313, 11.567868905268778, 66.695800750983125,  3.781973214339198
18.706653378890753, 16.613097962581325, 74.734120641599873,  4.102678328149920
 2.935528880411862,  9.335079966199265, 42.494230551011945,  4.043150091548135
 2.447123656265666, 17.242622220176806, 33.095213605452010,  3.633974669337805
14.547579422410292,  2.302215615860837, 45.581105054172617,  3.831642377681479
12.026895850022955, 13.889813609716024, 105.083875257473963,  3.838816498123625
17.527725839278496,  3.562721469839790, 43.061619834987759,  4.103603490075536
12.091672397246349, 10.244065126545149, 106.196718955166261,  3.753394283225718
10.866895521504302,  0.016640631048469, 49.651335767281630,  3.810157017894697
 5.729343219880300,  1.042120704063730, 93.432585308871552,  4.078036104551056
 1.218315300718280, 16.790661068903674, 84.830598791900982,  3.955958590528889
 4.002176793977829,  3.693466486807326, 56.430999807324824,  3.605785614367590
16.284736555136387, 13.621303116666061, 112.947837223877841,  4.164298451631259
12.899692810836473, 10.876274208618421, 62.984732643431215,  4.032279364100114
14.161690552070604,  3.856279255538108, 64.099585493281367,  4.186902274699462
16.808269805434417, 13.843860748701760, 78.347774697068900,  3.744302928303462
18.409791062366214,  8.192813793517166, 109.915682827306327,  3.796132605142048
16.794327914644104, 18.073862243281273, 91.788985383808779,  4.098296414666656
 2.866219433172259, 18.826604528359947, 76.408755315233051,  4.187904738233481
 7.458202491613063,  6.895965008099417,  5.433775510940730,  4.132498087092874
 2.629450650997007,  7.753069143578945, 51.138655904800963,  4.354727621807791
11.847271359327186, 11.613402743780034, 17.968185858012255,  4.177859160090393
 5.396993973635227,  7.141383052237980, 37.932039722719537,  3.679783695664563
 1.711958194709401, 11.206695775168958, 48.007600470730203,  3.880665644807004
 8.988212849481124,  1.702247258660955, 18.832280456905963,  3.851140215587902
17.044670287763605, 14.967805968429804, 39.880061343570887,  3.753291348434320
 4.961217793998182,  9.331971856632283, 32.126325195474379,  3.776462975295996
15.945741375538496, 13.676219491078356, 35.313662460068514,  4.023516552906839
14.515093708454796,  8.530114717542707, 18.306946731243123,  3.998982775720986
17.916823473828629, 10.828572970789185, 18.400282080408715,  4.002199440192594
11.882772941642886, 18.041270134146394, 114.829896497973948,  4.146795109847446
 7.355497044029902,  2.665691007315901, 47.726888921945218,  4.085510887621988
 5.469045545196894,  9.145941734802060, 111.090824302129590,  3.880594705416797
 2.581127999014616,  8.442693718469727, 83.062854124645256,  4.002033399579726
 8.280882763202703, 12.824853727627989, 26.232127676840435,  4.212194554320278
 6.530562479806058, 15.277355807903588, 86.859501297578774,  4.090762988529416
14.703226814275006, 17.009968208801581, 37.418430816652425,  4.133982592233403
13.792782379992948, 13.490841715222452, 24.640381223504548,  4.052621139590341
 0.763822737902039, 18.373044912612201, 97.124379023090896,  4.290867381369910
11.050835974270536, 12.507365347101940, 35.664677244579103,  4.030626587520458
 2.993167797722983,  4.634687478400164, 48.295996056841162,  4.101977089784260
 1.684215839776958,  7.930789567683442, 114.223624358319043,  3.795187079113067
14.603517446767661, 10.823514584693948, 81.685840748197180,  4.283967351893939
 4.127085861898463, 17.577094834957823, 39.022748865466120,  4.094394307758670
 7.449420394715127,  4.264527724740035, 73.115199283921825,  4.071615055965037
 4.827517469853795,  1.542391348934349, 106.036781411327297,  3.878876594841253
 6.770121876906313,  2.185854612768928, 81.910362012485251,  4.097617258278190
12.901461598088886, 18.519120163757929, 90.885687809951747,  3.939243952865464
 5.275486266197762,  7.373128067877233, 57.151015102024601,  3.902082343861836
 6.376420970836519, 13.322728507332133, 29.766835387919798,  3.859292238187703
 5.741325331947460, 17.832481374650310, 79.425869857232783,  4.380499039492327
10.443042435357427, 12.168855516960489, 45.746934993542055,  3.742820881700230
 6.527512785916227,  6.279921344910649, 26.767201853333663,  3.793345434573495
13.876340096759632, 18.818903674379609, 70.513426849527320,  3.624856090480689
 8.625513253330150, 16.360385655071877, 72.337325340196216,  3.966019863815475
10.404573917584123, 10.486683998177421, 66.297964911465584,  4.267798395099642
 6.489405726376045,  8.311135873606530, 98.344716479121956,  4.123614516115183
17.693480634348941,  0.216766853978855, 68.143205656791110,  4.117578772066729
 1.907678832517496,  4.900336366819710, 31.471802044294627,  3.723690716088236
12.278992239378949,  8.699452288848100, 10.502154317160311,  3.683650134989692
18.523384687639656,  7.946868110015463, 61.105802018535002,  3.947235958477723
 5.065675511503447, 11.521843019961207, 86.444933649532700,  3.880990329717768
 8.277621560903590,  4.481376239573683, 98.741214434078088,  4.071720581404009
 6.529448528014238, 18.209958114965488, 12.551456216771564,  3.888315955286936
10.401294394533037,  0.401016078889457, 45.624019887826165,  3.819480000478577
13.317784624589750, 10.904970595174939, 73.561507309651674,  3.440289979232260
 4.126562039541591,  1.781712428471424, 32.469988842818253,  4.163771724935663
 3.546142649654685, 10.109168933184963, 35.885632373501629,  4.398520573172796
 9.975176262125252, 11.203086403315105, 84.611107954315401,  3.924240880040601
17.149332153585370,  9.869497254165362, 78.331587064121592,  4.121635246201673
15.608876458512141, 16.604758700552836, 83.811819908910039,  4.254825363773390
 1.426471696030028,  9.122965968299081, 21.679873893852264,  4.172852331511355
 8.073960621054269,  0.390996873050228, 107.646759376760414,  3.713306418422091
 7.493412820316489,  2.095419464762550, 55.561571250150770,  4.191624653367910
 2.078817360176882,  8.134232573139863, 39.003618941802259,  3.523071780690122
 1.912260082693179, 11.806555832889362, 60.882787426509168,  4.411319515836494
12.494883856168800,  6.529436698107497, 67.092346491010588,  4.387771073699517
16.166676374631532,  4.186464982318519, 67.888866075874816,  4.387466845755188
15.166875686997408, 12.132652746082599, 51.868244499447499,  3.907577276842435
 3.921749442484713,  7.925823603796433, 46.120289031185180,  3.975166819579457
15.489572412059758,  8.717140755944239, 85.119672636177896,  3.890876239239967
11.540051095578638,  4.016250573911905, 34.571450457496915,  4.045899990071805
 3.957298465694019,  5.183680756761769, 15.355860786988321,  3.640858346648123
18.647314217545524,  6.830683397839311, 18.658341002751420,  4.118730956775791
11.575992450659657,  6.271765690789794, 50.622994398579209,  3.922774674766769
 7.784107898345945,  1.087101871591386, 22.610800445846351,  4.009569312757666
 2.316710632524360,  0.726171182421887, 54.289069363615397,  4.272397820693709
 8.408925108258943, 12.291302982611978, 16.000405464142986,  3.831285143731009
 8.396925656205402,  4.984800956662862, 84.010359158061789,  3.600543699749118
16.192353417448157, 17.482083293036627, 79.492410283543478,  3.977007352853189
 8.672002979998540,  5.584342690638292, 57.182643660541899,  3.755005225917211
 2.781604905455121,  9.859306550194489,  0.029888160701583,  3.702697157865477
17.964793106311138,  1.140308627892225,  8.150346154421030,  4.132080479200982
 7.914183618630061,  3.095956702954866,  4.176377593874677,  3.838542620367313
 0.615668632605666, 16.462138561968672, 37.265254518128124,  4.056783053668767
 8.891250190429565, 10.827632836652432, 62.423519766545724,  3.900454353247030
 2.454846757260957, 13.012065371438162, 56.842751180975675,  3.989087208984851
15.203825346531078, 12.054519137275186, 15.273151301093908,  4.405982449702890
12.776743324881833,  1.134439832438642,  4.735936169957421,  4.143843489772600
 4.109764250007631, 18.436174016411915, 86.942509621884483,  3.829202673565366
17.690300189465781,  8.089795820723674, 81.916461483607009,  3.954058134530178
10.107116308667425,  6.066339285425071,  8.608526693195243,  4.074792664700673
 3.475618616819682,  5.848697341948302, 111.545197716106046,  3.876554216058199
12.106917117118398, 10.272004968748519, 93.222955117556069,  4.031653724158416
10.671380965702152,  1.799413426104674, 63.759569539078839,  3.928392612877778
17.742741457510387, 14.594422863864274, 66.106188758081259,  3.939236385841272
18.219848120602251,  3.176540981797153, 47.133566619699941,  4.180565904281589
 1.905580349131079, 14.081440129923768, 64.098071468503363,  3.450724468840361
16.462514673395894,  5.371719080504893, 103.449896323919958,  4.393737209035703
17.658277345730088,  0.344915159033915, 26.530229621811003,  4.209631639623428
 3.787876838470908,  1.134524227489207, 67.518222162748458,  3.992995314329931
 8.656820263543054, 15.507127286822316, 106.604160475257103,  4.208288357596309
 7.633778479776115, 10.535647471931116, 36.541682738703756,  3.759030511084323
18.717927229178102, 11.947616433965621, 54.197722704760537,  3.809761353567935
14.175400334884953,  1.584642370756428, 84.269779152581862,  4.090481971404749
10.303180180925093, 17.868361734593801, 75.707894946512354,  4.120104019820996
 1.910102776411041, 14.375285637796551, 96.781643138259810,  4.034865760316806
 9.186009593717472,  3.153005786856236, 51.351048535921407,  4.053388578478392
12.656482384408962,  6.745928802766395, 23.705395379538515,  4.225788126998764
 4.474641274336747,  9.323206762877868, 104.812105587249505,  4.239583444416536
18.776451318171304, 18.621106157349569, 22.519063408085238,  4.141341109049813
 2.860941366885238, 14.112367177449235, 31.087091602827535,  3.797760486868254
16.782104696406133, 15.632955315918746, 46.898043333020325,  3.923178215567019
15.416086354865913,  1.262162609217813, 116.572085853148650,  3.879628472254399
14.029263328961816, 15.677763613811670, 50.006353518759241,  4.351958963036488
 9.240263094544797, 17.933206967573511,  5.186734707251994,  3.914631313197920
13.627925723454547,  7.585437019909054,  0.095185344938637,  4.269933163986400
16.169504060206862, 10.621330656001215, 40.939547693165700,  4.214653880154869
 9.125258177173713,  4.178479286929732, 24.764966564146963,  3.962025744278801
 4.025216295746571,  8.360651886179156,  3.550863857568357,  4.211883998855404
 5.122389406155359,  5.897516457869441, 53.673928657149283,  3.644200059449435
13.217834322872125,  1.243009148349508, 60.799123270048966,  3.956923192280092
 2.889448188205998,  0.421120690914224, 115.671128741147484,  3.926124436770063
12.304183429809740, 16.297571094038396,  3.268880536998324,  3.957018315800301
 3.681330077918425,  1.333322148596936, 22.301038289573214,  4.220394708661639
 1.986205251350403, 16.983932078969417, 57.434920524903085,  3.894735420501299
 2.478175722282328,  1.355779766608794, 28.759034670651946,  4.001342315252578
 1.846239969862325,  8.075278672963773, 93.018997898255165,  4.143730255728433
 9.551001060295921,  0.966783417692306, 79.251365536416813,  3.792086047481668
11.335987135826350,  6.235662843475198, 74.616263399986764,  3.779676706332949
 1.462671461504343,  5.178433008331957, 21.742716754262428,  3.695082180526065
16.131092324798587,  0.760503501800156, 30.243670137179894,  3.862313589797158
12.409963905523488, 11.955201377492999, 49.052178728120701,  3.949301971361316
 8.983344497094093, 14.998637771801821, 12.397271697263164,  4.058588366257066
 1.469370310836592,  4.730588452225294, 53.764119395794317,  3.965475357719481
18.370496965985570,  6.127195817767875, 71.788413772414145,  3.835922581269664
11.518145714292302, 17.493613959258763, 103.671589681583086,  3.930710355055897
 1.359683628446418, 15.206094832381233, 91.769424404850170,  4.140671490367220
 0.358845780668234,  7.595362211156138, 47.723210804382887,  3.802712988808432
17.782327941921224,  5.056330538222539,  9.587675983814799,  4.208878325333499
13.335703008780271, 12.974139182537904, 108.713164317214094,  3.911606105279693
 7.504925459244611,  9.503148570153190, 28.988675429816734,  4.219184689070950
17.412758909505261, 18.825947186009984, 44.681682977222408,  3.843227036140219
13.071514024584655,  0.892979842879243, 14.015991943021433,  4.012046240971145
13.434945955492806,  7.372685446034138, 33.360889410298959,  4.015159838775882
 8.681130658882047, 13.494923573670619, 59.482000771656097,  4.011783842995729
13.866611121197989,  0.875786605133682, 56.850484476347141,  3.823417337226469
 9.501671857963927, 12.172688784502013, 53.276002481601260,  3.921327065315903
17.073007404412053, 18.262484489783965, 106.148313400403453,  4.252547738182638
12.357990622202387,  7.500235121095490, 56.040205755318190,  3.823399633345032
15.774834064802848, 18.617984166609510, 63.930118210465707,  4.691134420040559
10.832323234765436,  7.778963483788520, 90.310720951682015,  3.811690933110373
 8.561462626655207, 15.596340510271057, 35.075052855732785,  3.917039318072277
14.212233286708855,  1.951220723826784, 107.702816272561677,  4.056763933974320
13.563039597719786,  4.771900707277028, 77.449015075487580,  3.917153475615581
 8.261377187469675,  2.383275038232800, 32.679348388695253,  4.199265546694932
13.675596408372359, 15.867878334126519, 76.829418539292519,  3.980350753103833
 8.094496328798241,  0.247787697348962,  1.499007211932183,  3.822934499223717
16.460526282962718,  4.799400171271800, 74.919088991291105,  3.774256010881535
 8.826724537954037,  6.063347008955580, 46.432924014262142,  3.753971072021089
 1.069700918597686,  6.815887274107403, 117.608255991783693,  3.422824260632962
 0.608910325502008, 13.575408257315482, 72.305695977219571,  3.818310155013949
11.901106331726812,  5.752949445496218, 17.621854029524897,  3.661736752760897
12.394276033253036,  2.559903782567689, 23.192868752949348,  3.967518511092855
13.615198805151783, 18.616270599276326, 111.073658996871131,  4.137622466395944
14.153225500462044,  6.869277727568863, 80.702647741827946,  3.900829449585086
 0.791917942609817,  5.471599734786354, 101.101195287415337,  3.624996864731976
 6.022779768175515,  7.992502593678267, 63.603816818691527,  3.947228849137721
 6.520260932447903,  5.725428318279085,  1.707957931786732,  3.886605639680488
15.584842863508641, 12.123958406368541, 29.043648952877710,  3.878400771544348
13.865586308401838,  2.905643475517632, 41.930969619832133,  3.670716473018143
10.326196380576766,  1.924380475444753, 83.438830412304128,  3.658699457568137
10.216149941187668, 15.747949895675688, 43.386177847311089,  3.792341451510305
 6.558217077884967,  6.259964305365670, 49.900432672014851,  4.364006717240402
10.717874745402163,  7.527636897729290, 63.475463276610995,  3.902143575235630
17.640393694438853,  5.453453488714908,  2.018607065173723,  4.307978445327160
14.472054508928760,  6.579164133352238, 72.025277617862614,  3.979821388839835
 6.659306316565860, 13.640573156690161, 116.511616082589214,  4.171835323446929
 0.763135827240955,  2.042992298425671,  4.095121848563349,  4.157662355595720
 8.774775696338926, 10.136730443418717, 113.081395064798542,  4.040160599345224
 5.448698309453740, 15.613096643833115,  6.481813283368686,  3.885429213088079
10.668830820825306, 18.604828616215222, 54.750510630508273,  3.960120272183759
10.143540709455198,  9.587702123921154,  6.674726965841185,  3.841730649450020
 9.588602000442535, 18.105941535797285, 15.443440188923880,  4.212869089124598
 1.969280068180318,  4.467119094156520, 61.865873661306516,  4.108581161695392
 7.890918620255548,  3.244284159841198, 12.033616898478927,  4.063475642198553
 9.815944167648864,  0.453550673261937, 26.037483067836991,  4.019543939638202
17.322986044934492,  5.494571691278550, 78.686176278144231,  4.058052148585046
17.817472189781149, 13.634985278365802, 31.823601825780230,  3.835026231257649
14.022310129326462,  6.112108821086236, 100.083288706770801,  4.025867742248853
 9.944624150143497,  2.892213900059974, 75.978251249328466,  3.841285587421511
 9.255953279622570,  9.598351247762965, 50.130475263957543,  4.214895603143885
16.664892541378677,  5.083344815313497, 108.331267381866141,  3.984119472538186
10.831600817100039, 18.322337188359093, 31.374529156322115,  4.079494710183996
 1.301378198336153, 11.206843697965962, 106.796629143578159,  3.933818912353384
 9.215864843723173, 15.131018330240529, 55.803290609246829,  3.848132552868249
17.836172588581732, 18.161924225396533, 102.025291880196150,  4.074229443405551
17.684622791667248, 15.663475983780065, 94.812274753869332,  3.788594275510829
 5.896321050827831,  3.663927789371361, 113.909099881729006,  4.087395707908175
10.798481316692166,  2.022611856536069, 109.615806468108374,  3.735734445368708
 6.698544887634236,  7.012815762640220, 102.388502971965266,  3.772024975940799
 1.417200317675638, 10.701518652834972, 31.998327142582461,  3.821939968449992
 6.163950380497712, 11.365819629488199, 65.892344511449167,  4.164567314786182
16.520487967037127, 13.757631249349192, 43.451354598423400,  3.780782195772106
17.256353407778363, 11.905626343344393, 109.317929559166160,  3.954536778215134
11.380939638526325,  3.717980849201642, 54.891883492844528,  4.257994906580906
 0.887955884620305,  4.366005062923764, 36.790486804452172,  3.591815065468651
13.635844316960590, 15.368790648898930, 88.553287443082937,  3.997890815207246
14.633348015076814, 11.844998368252069, 10.956673809401501,  3.793463300022737
 7.435853183148264, 17.274220458768340, 41.243699440009223,  3.815297143194091
 8.193515559402934,  0.951459881084175, 112.174773705524231,  3.791571711515672
 9.385872767164994, 13.302805818205368, 99.151041110061925,  4.092882512471092
 9.305622951751623,  6.972653564442682, 12.438573827469598,  3.944354897911929
 6.774037882066879, 13.212897204540713, 83.247398148853151,  4.103508494066434
18.332493359776137,  9.167067129946711, 28.626973129448064,  4.158811287293793
 6.986199969487834,  4.881634170272934, 40.432631063642120,  3.684395569343803
 1.082478297771663,  3.222538960128094, 69.633425556641939,  4.015718007811100
12.680341350567378,  4.050957926563550, 116.574172323209424,  3.894104001854217
10.456024925448039,  8.945120487984996, 43.306977040673374,  4.337223436345934
 6.465918648288609,  0.198622231634587,  8.545560829591025,  4.316601806140580
11.847540319537886,  8.302459944404847, 86.539300129889128,  3.965034938735745
 6.128129535087053, 12.708082744613572, 55.317268384554119,  3.986369399913521
 6.308944876118695,  8.245321268548240, 73.156798357631658,  4.161013202451034
 5.594468917087482,  8.589684640514827, 21.672491849317858,  3.686621789268005
 0.625968582129107,  7.496600495078058, 75.587745779977780,  4.548554224441157
15.698867901083469,  3.723380966422201, 12.880152757295935,  4.018141959857173
15.331328385365035,  4.814431583929850, 96.453843107263836,  4.100724792725002
13.805724603940417, 12.469457995418599, 85.567868003404683,  4.294209943025489
11.025935247246659, 11.575081522082062, 28.978136007806008,  3.884288474088756
17.048853726502969,  8.291658030803438, 15.217872336794455,  3.963003555233110
 2.472593280198720, 13.193558248972867, 83.997579117069009,  3.839696511497659
16.065347770774292, 17.604032223088929,  5.402103691160229,  4.169828124707466
 7.339266810691341, 10.768179805674682,  4.086975012683522,  4.044306076308525
14.860528982362041,  8.474571029925022, 50.094871867848738,  4.017344474204194
 7.738649762772910, 14.721609463551385, 92.556141145944153,  3.899506085501718
10.753772968209978,  8.545662078435946, 35.951943816919361,  3.722289729086782
 7.236660505029646, 15.448561918970647,  2.666836338647950,  4.048660403159243
 2.625397805894966,  3.130881864584148,  8.918130797154747,  4.201374661037344
 8.343376622202525, 11.645469099083339, 22.079523005936146,  4.410505350670543
 3.512330259392765,  7.978259622414411, 60.580881857073244,  3.893327858268518
18.727017776185097, 15.068377433634760, 81.518212142354344,  4.017156004294510
 4.048777372184008,  1.212260627030479, 63.496217218967317,  4.023808962178324
10.472434498736686, 15.784624825362787, 24.618073107197883,  3.821203807631773
12.534156282183289, 18.130996282242908, 81.479635471319014,  3.945522509176347
 4.842640228544527, 10.259005443146375, 114.940478917783366,  4.120256096356827
 9.552282924399750,  5.370588501475904, 87.605357900798680,  3.733904157096845
12.565341074400212,  9.624975408435187, 70.041947581590264,  4.162283966354046
 7.856327778483672, 13.236324345158856, 48.560304396150137,  4.169801877347087
 0.249884780368723, 16.942771295483261, 29.795740874338463,  4.296372949882417
 1.981088593383913, 17.699312245887143,  6.389054835337654,  4.201888393690660
 3.873254941011179,  2.437264147055795, 96.948710209336085,  4.330703606185285
10.156529001498990,  8.722056016508299, 19.986092362633535,  3.615888796462841
 8.780899858407912,  3.366297900035295, 43.545512978063151,  4.114563692876313
11.643739353286144,  6.463366229877845, 96.964437745225908,  3.801956055483997
 8.263835413537233,  1.303303418724951, 38.793237656780192,  3.846096395610053
18.423404145267678, 11.894983317356521, 37.788843733411788,  3.826272854716325
17.708082969283289, 11.119323904398213, 63.884216436031053,  4.304102476818309
16.369572933803401, 15.416062332508480, 27.048155021757687,  3.961461384271795
11.182810588222210,  5.276628471290236,  4.786635710180682,  4.020794611192347
11.389257479666256,  8.075885371956829, 78.091034918548189,  4.064190735740485
10.618280982131012, 11.264454138476617, 80.526959097209684,  4.053685465064281
14.362660927033998, 18.247028278711387, 53.282973445296378,  3.989878972930112
 6.711351194156407,  9.476408775037363,  0.236474382659053,  4.153265440726845
12.200690148269771,  2.605974946657857, 98.447010118056298,  4.523523179657663
10.991555492144480,  5.374274122592941, 40.422684070565786,  4.369668262431953
14.624034866017817,  8.135969486004479, 75.685498681803253,  3.968507298401826
 6.325519826748840,  0.702933446128264, 29.286116451590576,  3.860307365096806
 9.338696475158869, 12.641860293186914, 109.611682485928270,  4.193079993458748
15.779309228280519, 11.485622162346571, 60.045941803285885,  4.267801636396956
 1.594232816082037, 12.987428825699864, 114.435249530973451,  4.398321704855814
13.905607300385959, 17.998038395347482, 24.879343243066526,  4.351808105321934
 8.354128023503247, 10.430558851407124, 76.647761031210905,  4.099278770053765
17.102223948273391, 13.729372119899002, 116.998250646840134,  4.053951093678055
 0.119003150440323,  2.337259806804243, 117.880921652628416,  4.127442493249247
13.251912713796139,  0.806525858583514, 77.854960367356938,  4.073907089021083
 6.990518974456433, 12.217541893436286,  7.905714179610292,  4.090658944688257
16.723297548847651,  4.073599118940845, 87.282937655403188,  3.835638018697807
18.194230417983789,  3.854623580031671, 28.749022451568514,  4.138384150123717
 1.429109130929122,  1.800988115199180, 39.706607856787521,  4.240113712644995
 1.784909692213297,  0.120508991168446, 93.145911313190439,  4.023391554772579
10.441067355058566, 15.779282152835059, 79.121119475329408,  3.883458413324689
16.224713444874993,  8.357533208883686, 11.365522327356915,  3.901488977529425
16.236303574200019, 11.710387561998340, 47.809322529443897,  4.020946396696024
14.049997078996460, 17.977981791948825, 100.493029621769978,  4.096858982905122
12.845554534493916,  2.011531609347616, 17.901353581847385,  4.070061319944180
 6.274597884809832,  2.800954127059867, 77.773610275537536,  4.067732948350375
 8.716544604556715,  5.865018603482399, 115.960139133655616,  4.155661257968323
11.756506972298842,  7.442754064593434, 113.658084623078295,  4.002210160280246
 8.277682054364234, 10.768185740722181, 91.757452508248093,  4.168400782463559
17.041730724478345,  8.507597501458070, 106.232414092783770,  4.065664697692109
 5.890886487725825, 14.526844650972077, 51.818835254330651,  3.855523651739726
14.711541397646540,  7.537082659182142,  4.400167453922500,  4.296481332960473
 2.466728260775878, 16.065852926456042, 61.283460981637127,  3.524360783993176
 9.896384266380130, 14.286998038363159, 31.602084816482037,  3.964190287193741
16.532956307161349,  2.235153047287116, 81.037498305217326,  3.966923271896099
 2.398889481515452, 18.301037352434875, 25.469930408203574,  3.661411668722846
13.229288780364561,  7.132804473190627, 14.089172070114504,  4.331701009646075
14.374859421245407,  9.065354428410213, 103.193319730717008,  4.095955487640208
11.804599520672035, 14.540227124292540, 15.176819012994395,  3.898989678176620
17.040338244550473,  9.825845286753394, 72.802291964120656,  4.268977995716981
16.657228176987353,  3.730963328894596, 56.284739506141662,  4.194808938974721
 4.732754960167409,  9.263309610358631, 90.424264374239357,  3.963261294332377
 6.220223739827301,  9.539326727682655, 52.914906835135056,  3.939580763429208
 4.728096965560360, 17.410971191229407, 98.106721240556283,  4.076193382412361
10.016054092132677,  4.136592165083245,  1.061280891881844,  3.866199102879583
 3.697903422972794, 15.634415039290083, 73.831346965853896,  4.157031080884455
 3.820201740169262,  3.854465307475415, 103.208914108299922,  3.676709338827601
 5.121354543322528, 15.073169446016870, 58.853452375249958,  3.855461116864575
11.718259211258516, 17.321563773403160, 85.439408966762926,  4.293055350840279
11.473965510043893,  4.899715233418520, 103.042472055412546,  4.149387781615129
13.423102385602089, 11.734437645431827, 77.418913920703872,  4.366925490088388
10.047531618178706,  6.571756088238267, 31.284920999728712,  4.052288972649064
 7.460329056876271,  6.096235682989967, 90.658493521311769,  3.733128487617109
 6.178277281801464, 13.352668917721068, 19.014635608436009,  3.834015057794188
10.936368809927833,  3.531061201912765, 113.129363061625924,  3.894097876539943
 1.132097143396380,  2.519178343377762, 15.707156998135847,  4.080821991688621
18.621044541274141,  4.791021602760138, 111.821069763582457,  4.003525504769487
 5.557072244912044, 10.947317089005931, 58.886911666857337,  4.040514676093428
12.701995354511149, 15.969700785278860, 72.866073149574632,  4.119469362766802
 3.878007040723303, 14.573881459536246, 48.339377005178591,  4.141572584930761
 4.476015027380584, 15.891585315458522, 106.654341796608733,  4.147513412395829
16.711489563519734,  7.210123005937058, 65.028190397426130,  3.872883644617671
 4.157670011191069,  2.784575765755838, 18.377197127362066,  4.006788232094733
15.572571577840577,  4.889862688789941, 16.777622759179426,  4.057814259257875
17.691854784470028,  1.270030243378143, 109.844038802043897,  4.113204193565573
11.623988673031770, 14.108207410312792, 67.714276583834931,  3.869608012397201
 6.318250076252949,  9.523790994932838, 17.952092179484996,  4.115431570308897
11.706959593169136, 16.894325524134192, 58.026907169056535,  3.661412129805328
 4.089742013799289, 11.175457669999163, 11.089718541693287,  4.154751085390771
12.445583620813471, 10.989585804513830, 111.971464777500287,  3.814719846489464
 6.025378996548359, 12.977927661060610, 112.086446401065245,  4.103893018727576
14.626178688920488,  8.795071284741958, 95.987047879407911,  4.000894606299209
14.539204047479167, 11.442134486706868, 66.752609515842209,  4.261966570432221
14.363842530870595, 10.819704005436975, 115.612195725209475,  4.402126313295283
10.362585709361420, 13.713881832276105, 75.339234504198330,  4.019596955453054
18.010057985830244, 10.183705363427007, 112.964033746162599,  3.527796090097422
 2.882427935566508, 11.932173128265459, 51.709631089437217,  4.017463040583009
 1.441301432646749,  6.471372424070272, 104.774895932273012,  4.006317938802230
17.945395337978379, 15.972515244240785,  8.769516846778419,  4.129622710742341
 1.766657190399551,  1.750783917338320, 100.550213206727761,  4.106584126365282
12.397108195016980,  9.663444125328111, 52.903922102711753,  3.768852016692878
16.653004339757903, 10.938198305166587, 88.143134339475409,  3.948853215872193
12.769265949649254, 15.821450257028491, 33.977851519811786,  4.093379343888359
 6.884624557942858, 15.218463822581453, 45.211852195951280,  3.826323717375768
 1.001594475791128,  3.007759927090009, 74.094329584621775,  4.187689679958600
 8.873562358469044,  6.662980775759825, 53.467764928692908,  3.958676526151983
 6.050412073251538, 12.776012838820208, 33.710096919873983,  4.110257775165381
 4.142928960317110,  5.298773506303034, 74.963987656003553,  3.774568482839315
 8.493569147491263, 16.416924871005502, 28.516123578085807,  4.030992513594594
 5.988122180489603,  1.527008597034020, 100.690134394928506,  4.298808650734948
 3.110311375525523, 10.531753685842325, 97.059845954571799,  4.017682754840153
 9.749144028276616, 16.727805726094790, 89.116873992909731,  4.126085203038108
10.109793611088330,  4.980287451841545, 20.957011086592093,  4.048937455789011
12.697044330501770, 14.579315283187348, 53.899276538111508,  4.140317073279764
10.464197928170707, 17.849031345776982, 68.795328812680239,  4.250734787432238
 4.230152780394357,  2.435892107007575, 71.785065744382990,  3.755456706528995
13.474816476807366,  3.986769651394072, 30.715023382601480,  4.545466975117623
