BANDS
8 8
NANOPARTICLES
cell(1), 18.956
cell(2), 18.956
cell(3), 118.477
11.905664082766709, 12.532945254939275, 25.091196528309968,  3.936348737113331
18.653736812885708,  3.099141509672062, 77.313893699345300,  3.853823541685717
 6.561915241701944, 12.576329267517934, 54.081010224336104,  4.020702237555754
15.368419963743747,  2.682963932487570, 98.382689157311063,  3.778500793825545
 7.143364034692461, 18.140583458635778, 21.828560944785636,  4.316644947792824
 7.308192077888026, 13.912156908843233, 45.274923421616101,  3.750609016493223
17.519126715220676, 16.306469506458260,  0.508318937871954,  3.909101446677773
 4.604789403741406,  2.624455279668874, 79.615351109928810,  3.752860754198494
17.392223677685983, 18.397152539065626, 41.266503539764884,  4.051695778266200
10.005421396231053,  1.882413185058369, 111.352038032236933,  4.089374958631245
11.480393103794910, 18.699794122587271, 40.790439862608814,  3.974653899024418
 1.369183269356159,  2.203772102891077, 113.372851383555670,  3.980629748492844
13.959946087982075, 11.186815546595444, 84.173389990475641,  4.228699414751611
14.348572308881170,  7.151393455539727, 15.002984235931814,  3.750748443666776
10.260090281720252, 14.044373077751652, 107.458383870609552,  3.492854321423150
10.935268657090978, 16.441507276414644, 22.218105543685155,  4.029112169708622
 9.424928784841642, 14.066115806363308, 94.372017026797906,  3.960604114559924
10.280679326188164,  4.851854150735707, 35.257618094739733,  4.037050316352478
12.224948710352354, 10.033954754484881, 41.467900886904296,  4.015931520917106
15.607112511077787, 11.700789117331631, 110.278502340743103,  4.077409202337872
 1.541602077729622, 14.741675591857446, 62.895783155753030,  4.140281398023037
 0.595473916624214, 18.085927530587021, 106.763645244998244,  4.035261204635762
 4.649568077029228, 11.095074384382960, 85.917583979220069,  3.751897733359014
 7.491422608150104, 14.707339202607956, 13.162577557131829,  3.783102874098987
 0.260487738626096,  3.335506435956471, 99.079563919302132,  4.137429694647537
14.603931191048369,  5.264848654871738, 18.466895164391289,  4.148686297851990
18.456782213812939,  2.802084268430637, 117.129543421969501,  4.361859828866508
13.165691878042990,  4.286508188130793, 55.809254886074712,  4.097491361605808
 0.649420754235898, 17.395142727440078, 73.873397470275464,  3.885870812349491
16.138180112422727, 13.292837493770239, 57.884450111931947,  3.983584422982687
11.483141988954650, 17.707744332360893, 71.127625928810176,  4.029033109506955
 3.860891603973159,  2.578529876792029, 37.238291446141361,  3.679239738845644
 8.551309731412006,  8.465072913189184, 69.357308821300734,  3.956256821139459
14.827298313314722,  4.291250877130883, 36.484317528511632,  3.871298442357854
13.342136020580202, 18.402468407228984, 90.545860522466668,  3.719336302472797
 8.780554848788503, 12.790526203672247, 32.339729990439174,  4.300554750430789
15.607233634620684, 14.178823612041972, 32.343331002357651,  3.948367199992133
11.783125086930768,  2.063665775455529, 73.418338958546258,  4.033363162020268
10.241576904536606, 13.850936446025390, 74.333260645386730,  4.286724066481241
 0.556551500040004,  8.577400523743254, 91.609655114276762,  3.956463084173742
 4.739060010185233, 12.670060389769311, 64.321431915807509,  3.601709251971640
 6.916567543984041,  2.302463820529631, 103.763241517734940,  3.928223243565061
11.648733926780091,  2.578892380199622,  5.041444818320334,  4.061571002889261
 9.019665508913809,  8.536132745508862, 78.629804095005042,  3.925209977546795
 6.967649950009946,  8.741480095339750,  0.362148019812123,  3.945961536384350
 4.916271434129888, 11.268799033445889, 50.814670072467464,  3.730949145620369
14.587354834453718, 13.715848186295426, 36.233616386294642,  4.102891621586881
 4.210329786984311, 13.366925364975106, 24.272502059768495,  4.136166471512141
17.021129945689243,  5.583673049230098, 66.110828698914247,  4.169853116979882
12.216550495498137, 11.143150476952574, 117.583828766038792,  3.779655950128516
 7.542428807601127, 15.761041751179791, 109.373488735639711,  3.984307433144972
 5.113225270969762, 16.105227044202110, 77.429522810517895,  4.075677199809267
 8.104526716437244, 16.474491825703726, 60.987681903270698,  4.141369618881389
15.899618963071136, 18.880165117060677, 95.547327457797394,  4.201402633849787
 3.488535496367696,  2.979567878361479,  9.969497234433252,  4.233130402342155
10.019344889105490,  1.318195268370246, 61.376441094280814,  4.401246193175970
 4.675106929431736, 16.474885602665044, 45.878341084747646,  3.668736701606022
 4.153582235215740, 10.643913514755935, 74.016106407771659,  4.084154312670591
 5.231147049650303,  7.457437669835012,  3.743040371407292,  4.058671656395725
 8.425022603643075, 13.223658425209853, 104.383991380615868,  3.705231785781248
16.514021969507315,  2.810495736221262, 22.755540711719892,  4.211698153582438
 4.626825416509040,  5.692105121252271, 18.642696830248177,  4.141757884404142
 0.867412808664820, 14.296146615345682, 58.937355485928002,  3.931832341842147
 2.789041095648200,  7.663917195559463, 49.602048745743026,  4.317864160303364
 9.135793307597343, 11.329315300812350, 14.218367030860676,  4.013176566188550
17.864288274667892,  1.725104910785295, 110.056498460699729,  4.295055306975146
 1.042432870325192, 11.484989473399128, 50.425821058583864,  4.036144126046299
 4.774848299987401, 18.276794827561016, 107.707262873975296,  4.156237718517088
 4.919091183572018, 11.865793529699010, 42.864916220034672,  4.144254961134719
14.005026608069773,  1.092700106859051, 43.699839562424025,  4.179278597519938
 7.451825165595298, 12.311973051774320, 116.927814271568153,  4.210829027854554
14.967840273630888, 18.064398505331631, 15.973389785019924,  3.977558344959389
 9.867389678460738,  6.121009634146297, 52.889323825529935,  3.914889705227326
 8.094636055916395, 12.066908766706478, 112.792542383748440,  4.060568814775725
15.387676546945997,  2.163667464790977, 33.143233022366395,  4.119734686991617
 3.865980256665001, 18.232970315936640, 114.429140724094651,  3.933428407483023
13.153073465725434, 10.699921905166651, 13.653543934128292,  4.191728887121471
10.805735647511941,  6.313603440473971, 24.987095158542424,  3.951407675727436
 7.607140127321842,  3.606034818927359, 50.529742477704715,  4.210074809599258
 2.112346043668581, 18.146390780344237, 110.804994088985055,  3.952192797210138
 8.465606153933319,  0.745805845764876, 57.373120574830999,  4.243214023398232
16.266805292201898,  9.452980471687010, 40.466111989910388,  4.375814626041711
 0.709331850148371, 13.629568765116934,  6.693138465148419,  4.359523051930351
 5.414994808842250, 15.088205575922105, 112.662553291223176,  3.890799367926129
12.170068901226793, 12.817718287501942, 50.337922605576118,  3.792069116867851
16.106335730776923, 12.100025938829820, 23.871301193653906,  3.874675515015901
16.201842967178806, 14.725672881685892,  4.651179342500160,  3.962792029908050
15.835187637691103, 17.469079474373757, 49.983004358929975,  3.823374300928029
 0.727372368054498,  5.248754369076977,  7.330274982722871,  3.888247915051039
 0.555245834975889,  5.656847950224010, 23.539948304610846,  4.039036181944884
12.258114001862751,  3.184059388515556, 90.406487589865449,  3.895048667579743
 9.680682631057834, 14.521203135863669, 27.771533809002356,  4.020700164311283
15.938405403391918,  0.879426797393490, 83.363590623818794,  4.121383989391766
 1.720212421542038, 17.593582425732492, 39.432787660295318,  3.574083759814204
 0.719274713300736, 14.673350697102711, 10.797348512002332,  4.052821705294336
 5.960891154021172,  1.022584046986767, 53.552563010460076,  4.315023028907873
 0.711222531402076,  1.613053610932398, 102.767553831906625,  4.003745563682070
 2.212479726274562,  6.867638740067287, 35.950762265573850,  3.925402984547694
 2.375308669742605, 18.071978680171597, 53.160338308579441,  3.839772178199525
14.430899436654473,  8.607339424782619,  1.531788760761700,  4.272774711902894
12.208997801817906,  1.191029484451664, 35.833144622778285,  4.293461073944744
15.938157563593073,  2.181054919310918, 91.936217436407716,  4.295579822469493
 6.905698328690222, 15.420205215885515, 48.673572901852545,  3.720094259627288
10.497261261753728,  8.335195116497149, 11.814044139385615,  3.738201591906395
11.977220076339810, 15.147432030355175, 33.448867362770926,  3.869925035841022
 9.991056617223228,  2.289153286263968, 53.531935296030220,  3.820246630397473
15.955639090804688, 11.890636946631181,  7.404113641336918,  3.950488018252905
 5.682817240496895,  0.301645514142915, 70.713124513555186,  3.823842800708987
16.306032201534872, 18.705640605527702, 103.803836038563617,  3.909570552402188
14.517609361800373, 15.332269103815630, 53.766253240758743,  4.292291279431254
12.600338724926784, 11.411699033039731, 33.717730591685033,  3.722166345752989
17.496614785523384,  9.988931356765786, 73.189333252487756,  4.041990095851311
 9.780216680103679,  3.270352849668028, 101.080185335126302,  4.109875901710806
11.868065473373955, 15.106623000233705,  5.796526562501476,  3.840215361437888
15.878288299648693, 10.688485717138796, 61.981836549256137,  4.254675458659218
16.487241749045911,  4.287186663137836, 45.852637120989002,  3.841460353670582
 6.579319547530746,  4.860182335173765, 84.207528982419319,  4.160580005029741
 4.291707571643452,  4.090507450707968,  5.890825384414939,  4.098558413243690
16.750568276536917,  0.159453667652295, 79.319239366913010,  4.070751413771954
 5.061830078438252, 18.314928616719499, 11.101251308719487,  3.958938189226411
 4.423298577877205, 11.348399106552055, 111.302305862964516,  3.982628512160569
14.297229220277231, 11.036948708644537, 47.361370888733092,  4.340727904489063
11.140255367771267, 10.684230526715401, 109.588166224424441,  4.111499500544533
 2.193902100445130, 10.343663774125567, 46.557772580634101,  3.874922663106555
17.768913174064433,  2.644116382890646, 29.949563114429708,  3.845225328335100
 9.513623113529000,  9.788687035905159, 23.677748014312737,  3.865001464921336
15.710915376607703, 13.528557058577835, 17.988532912762853,  4.298650674784910
 9.436262738981538, 17.448227462880158, 113.288726608778290,  3.738258894029765
 6.381199388215683, 13.364130084084467, 67.653222928665897,  3.677587947562078
 7.808337359982965,  3.324671360824669, 72.710338763873509,  4.406772332310558
 2.497090073161461, 14.931544875855472, 35.703534516112192,  3.982246099503845
14.636317017275440,  1.996114472005425, 39.735014928817705,  4.045119072048584
13.224026922388665,  7.744187958600925, 35.094595083810326,  4.180691170392500
14.040040742220743,  4.136699981137998,  7.918980523445803,  3.975049143824766
14.393133404101642,  9.566458219065645, 18.062101065037201,  4.040534389733685
 4.763313431831819, 12.371187703356497, 32.825938233658967,  3.774158420306728
 6.127513518846293, 10.622342113491751, 47.146178829969628,  4.037885579146404
18.703989728888029,  4.538310277595873, 19.718255055405070,  4.023672375764316
 5.854149398907087,  8.620207187037108, 95.578940607616317,  4.282513688295846
 2.711691107555235, 10.870030628917275, 35.726754507587330,  3.922861251258710
17.301888501853245, 16.609011570473996, 61.055111717190968,  4.112196575607490
 8.353423361086222,  3.181945720490525, 91.001797354681472,  3.981646524501529
16.120462101585566, 17.869040648383937, 30.494094149297549,  4.343421880585623
16.797652364908384,  1.011820795877162, 36.707761860416731,  3.620153398701409
10.458185553960748, 16.194823997055714, 15.426101062700532,  4.196067083447788
 3.754862804081067,  9.120220259029752, 63.858702697501613,  3.794617979026420
 6.145472029202400,  4.825359205082375, 94.105908594866733,  3.868837452396885
 4.310744684970124,  8.368959610922873, 32.794208498590926,  4.195140244092403
 2.120287754618854,  2.899563069412028, 54.209887897505062,  4.022084580366647
 1.858639363182797, 12.594383007103932, 53.817710555423943,  3.265640428367009
 0.171275366699352, 13.090454185888531, 96.341273263878648,  3.817281276049300
 0.201315599341551,  9.682902852890805, 85.115464073919824,  3.892908068108353
 7.037456301676393, 11.750735607852503, 108.017059449725096,  4.447833426281600
 8.883258121272567, 17.800836507377856, 34.002621972858101,  4.340913415679875
12.750497667609393,  8.331138245126054, 81.568257304158806,  3.826576461753688
10.185999537246412, 13.063212541105601, 60.518726493726795,  3.903079708639179
12.312222918750544, 13.824958188178210, 70.787213662655674,  3.904723190733878
 9.111307814801030,  6.389646758061507, 29.345397186274162,  3.933079924902886
 2.407925087090121,  6.324774361244684, 94.481571977462195,  4.202827278851097
13.700626394459832,  5.275968982845562, 51.777529521571225,  4.238886973912318
 4.307416960924155, 12.495560032494440, 90.913507916131380,  4.134681594802559
14.651113728520063,  6.929439769804969, 48.104573114500184,  4.007401403536909
 7.215875361074978, 10.089203985824405, 35.363624058363072,  4.114006992715018
14.548626308045748, 10.539723655356756, 103.827344470309782,  3.874605403384408
 9.036155317871355, 16.164960652669173, 77.376633585724534,  3.695397915885950
 6.254687903865292,  0.196085777157110,  0.612584898961844,  4.337423772762007
 7.581385876709122,  0.085355469654167, 42.096151880898702,  4.263730053478888
 7.917643869998353, 11.020933845669871, 10.206714853173327,  4.361426348453893
15.872092867751631,  5.679188405365475, 89.577334781595326,  3.814015884896431
 3.716787999382094,  1.383346928086147, 41.203673057742670,  4.063139233425552
17.064660298387746,  0.948540516558247,  2.161490657720166,  4.024740387246309
 4.619901801404282,  8.047829720091601, 44.380254469949463,  4.090438041740422
17.240055005688713,  1.802815225820259, 55.973424026271552,  4.106624214367335
 8.122237043570772, 13.538036475009571, 22.793235745061228,  4.132409646161316
17.506142974100865,  8.286302746754259, 109.453444578834734,  3.803732779092955
 3.935920997649057, 11.490540000906920,  0.628456163616738,  4.103711783845412
14.148277727738860,  8.450767936180691, 95.590858442004546,  3.917445940777034
 1.064991418627219,  6.722327124231590, 45.861403556989544,  3.824551154342124
10.638279905035606, 14.510841143599517, 115.529109321401592,  4.017632107093032
 2.740271445802292,  7.268292572995452, 105.703327674152675,  4.132382875221944
14.012742201975351, 14.583745852511004, 14.435803166639539,  3.847060747996699
17.311514469822612, 17.410468072429971, 112.533247146524843,  3.977951176696836
18.702533097211788, 11.941923257571059, 79.175164646724909,  4.084616773515016
17.007025238594640,  2.979660103372457,  5.565993609156557,  3.904594011214318
 7.075132518115616,  7.812286390313264, 14.871029254474799,  4.203015121364934
11.427483821039070,  5.598476470502656, 75.191435924378155,  3.883121189606295
 4.956926052498998, 14.829958489633990, 20.535848502203354,  4.024359018237493
 9.610974205037813,  2.449399221547596, 32.097063073892848,  3.942286762035192
 5.290329082627979, 14.347661882270954,  9.875638788780764,  4.137705512510570
 4.905954386195407,  4.443715770717244, 113.236781819229435,  3.995674018578359
17.163891864209347, 10.834341246274754, 14.989347993914109,  4.261073746555626
 6.228571968886892, 10.411621077256870, 81.710634404297764,  4.436788359349626
11.348791674922758,  8.281331577326139, 20.444662940476437,  4.074550571426717
 8.624758249372444, 16.987651758406948, 105.665533236388427,  4.088142844649322
 2.194369523537830, 10.886437926866176, 30.203438906851211,  4.144478538217109
 8.073864797813231, 15.701982626106368, 39.549709349020191,  4.159398179527750
17.682640336152613, 12.961840797175791, 83.108684735008083,  4.281550475595872
 8.488370358011530, 17.180025866867869, 86.802813090190966,  3.985515117685779
16.136221949743909, 16.210542431034266, 85.429224399682994,  4.228509535664768
13.514401471296763,  7.608062781099096, 115.400315986039800,  4.202229046731838
 0.380682528739437, 12.808427630819859, 33.206855051662593,  3.817544260269799
17.735085283817337,  6.674779137526074, 13.581827608276654,  3.643324123403581
 4.704867815307427, 18.020879792906396, 28.611773108614305,  4.086080876749434
 6.020587019196829, 14.401144449174607, 73.704937315559988,  4.298655128776591
17.213843513234075,  7.725979702678538, 29.240812658199996,  3.672148509338848
 4.707524287910702, 17.548169582454275, 85.892902218710049,  3.608393972435142
12.139524203458233,  0.887116140732929, 66.158555352631780,  4.079719569168950
 2.402554875805829,  0.353070798567431, 68.327901631660581,  3.846752050361942
14.594405849412910,  3.160831842356209, 63.943478995836806,  3.942284638563801
 5.545216056467082,  7.533777017318567, 87.655099218355844,  4.288961919148993
11.306740912580551, 13.921300102133356, 99.474890075476054,  3.706999431230824
12.770060935815430, 17.106477773525366, 105.343786494809279,  3.944191781713204
14.125590353753697,  4.545310696801890, 95.163483611399471,  3.912153618052513
18.594181983632836, 14.744999013279465, 30.105199522975919,  3.545957705987693
 0.152489031494069,  8.752513005767632, 62.983950584342139,  3.528647594561693
 4.210475471493475,  4.605249390328630, 25.182876230910104,  4.187284550297834
 2.413677269061864, 10.435652243820485,  4.365968818954501,  4.223070053434395
 0.460514497073973,  2.396783081470901, 84.025301046760660,  3.574129558318908
16.277400760205548,  0.311784659083555, 26.175446586241467,  4.208169199271913
12.573775230263356,  7.201559924557364, 91.806433447052072,  4.635801294922326
 8.082328370829714,  4.610449150252950, 68.620292598481868,  3.866698191966686
 3.620116117608964, 14.636328997145069, 109.168078285055060,  3.975503404461528
 0.733837663305448,  0.334382496203467, 93.080599012289412,  4.277064276169987
 9.900397806759937, 18.006972432866991,  3.912750523777355,  4.091623073882564
 0.370610140424079, 13.886492612225556, 72.088663295384222,  3.869347916526988
16.011055662580780, 12.828001050933164, 11.386575844969762,  4.227991984029057
 0.853074202254352, 17.972962424243395, 86.070644672135558,  3.902666606978491
 1.826240954664146,  0.905209413549750, 32.047259468255284,  4.272056342098024
18.194751847883342,  3.707886994094527, 95.114152138091043,  4.072122879289938
15.276546737087289, 15.546108150279952, 80.612459414410296,  4.048855508580811
13.367565110685574,  5.433113698598765, 100.241317894694262,  3.938411597171786
 3.118274926074277,  3.312498427237723, 60.888153058420961,  3.851535599557620
14.566524454934894,  0.523850204704655,  9.422376293818866,  3.560515963152699
 9.465922499912059,  9.810105983725911,  6.308466978017808,  4.200501511883584
14.448437909405175, 17.266655002321606, 68.370834915078945,  3.995446260725665
11.663929211660125, 13.828730108782651, 40.178044751764233,  4.019238726369741
 2.441314507622161,  2.907021782795690, 28.462142007047685,  3.949228385423742
 3.151652307046686,  2.900856516197475, 21.477044971686254,  4.194740896594015
13.474564249218242, 14.398089290791035, 77.106730841396356,  4.013265278972455
 8.738796998324311,  6.600776509240209, 45.676033035535973,  3.951294012235487
 7.977770365028418,  6.569157157673956, 22.257025257875448,  3.768390969344945
 7.179330028407330,  0.655733326323018, 77.496999190839773,  3.986169868941197
 9.032235964514953,  5.359180835731582, 87.465525065035095,  3.926147907197038
 0.506975442903132,  4.474057870155967, 91.203598879627847,  4.217474929550810
12.404289541780782,  1.240340085275672, 18.157316603745496,  3.991016522715839
16.627678074639991,  9.344078078567998, 58.135905810480729,  3.982224636380423
10.781810025960128,  1.513401196913039, 21.838908408987969,  4.057416733058219
 8.123404290005951,  3.263063052329598, 24.491424454640768,  4.179064504543057
 2.830236073504476,  5.477663216827636, 77.652008754675379,  4.004778768889060
 7.083357583059349,  4.189936086426675, 60.112596423874777,  4.189571432454187
 8.577846415587192, 13.810130900121935, 64.297105985001508,  4.381852477194946
 8.396360458544372, 18.020584786621907, 73.878525646823292,  4.261159257856982
 0.478804616491079, 11.666620662691566, 65.367192400427314,  4.024480563951347
10.986156311598396, 10.525279636632380, 105.526863079643647,  4.005567295158222
10.981290188934921,  3.551644399394852, 39.003956717529093,  3.973103926344248
15.712768309681939, 15.226387189981448, 72.097545790777446,  3.828059380546415
 7.555904177733408, 16.218035263033336, 52.588354007995676,  4.053222858733198
15.276324527858563, 14.349716111934793, 28.497777258393171,  3.761157670094587
10.261214630680437, 11.868845082992129, 82.205307139028463,  4.193611510327369
 6.064184979008379, 15.040120516946429, 16.739417963333345,  3.888706697598744
16.255695302851805,  1.904674009596865, 113.867433134761299,  3.687607897658238
 1.783553814802808,  4.094496659458808, 67.133444032886089,  4.097928869420048
 3.563395517520292, 13.633701163991562, 48.132044318590019,  3.915928358583916
17.129088305996138,  4.359538812204259, 26.503772190721257,  3.957700082045088
 3.963494358790372, 12.955229170329496, 38.952655407368098,  4.156359719658837
 0.858510025319587,  5.214148181259870, 108.685066515877210,  4.016788459712990
10.585796846251016,  1.159911143484646, 104.324530331271674,  3.760087972460216
 3.051394091450350, 15.639935845831374, 31.454687715951394,  3.977983644535970
 5.236779733731776,  4.952244378270072, 47.213572275522239,  4.345294175880766
 4.741994818967632,  9.657275100532541, 17.729981874594451,  3.987637538639754
14.417428489590625,  5.269512535287418, 83.150012904179263,  3.804024166490528
 5.073018461964193, 15.026662708842645, 105.173446850755397,  4.064871415680535
 1.034203161941208, 13.776120680061426,  2.344119088051334,  4.018322742150676
13.938882719403765,  8.006005915670849, 111.164022290885228,  4.124963495700412
 0.510724447465057,  3.437078118055636, 12.760743713940492,  3.878549585349981
 1.845026476490898, 10.265963589315115, 108.362408271287435,  4.015043616484470
 3.885134561260593, 12.731044843250306, 70.534128685325300,  4.026455914798052
 2.396246289390128,  8.838701706959109, 80.117150034945183,  4.249585599864840
 2.092065691742185,  5.730630111062661, 63.604023708017934,  3.698649511169534
14.101022451539308,  8.745921802754017, 107.216888248023537,  3.825223185291307
 1.051267006088838, 18.752551355007633, 11.210468416917786,  4.108487462199983
12.421024708881587,  5.344712549000183, 31.754290222067407,  4.143709580372639
10.274835342534246,  7.128553023831087, 101.842414010246699,  3.795919832841696
12.253129482114437, 14.770150702026463, 57.359243563281254,  4.226660508277654
15.377729690273750, 18.282958752442688, 64.243509550571900,  3.889102252506361
 4.265026915431136, 18.566927963840030, 49.420567487157697,  4.535779770632415
 3.228137469103245,  2.565846715512042, 96.232725534950021,  4.207277320277692
10.576389029400181,  9.295441777219315, 61.626345045376333,  3.981541859332195
 1.008619926210832,  1.782345785930082, 24.873455260981757,  4.084154162184615
18.078367708084336,  9.355332816990709, 95.424667189038971,  4.151468304260545
18.370650480413396,  5.956865478514156, 73.568381386482315,  4.157214176190884
 4.943238392366620,  5.474596648215618, 53.008751207496324,  3.967691322277672
 7.756675607100792,  2.465396624480926, 96.838688845331006,  4.010541601776629
 2.072381951399239,  4.996338394125778, 81.660969114384429,  4.045183223754403
11.871081442774077, 16.820935074233056, 50.688217841993406,  4.260643665834714
18.371902344346502, 14.747882033487645, 99.679745787176785,  3.733235813240914
 0.313310848439242,  6.537845501347770, 55.299885890007566,  4.011530377989622
14.690548163856120, 11.768552243655503, 99.902015738848505,  4.341740466103978
 5.465292504706057,  5.432935928585342, 98.297792136917778,  4.012298711799996
10.272971635028702,  6.670206554527308, 41.923137079468049,  3.812079094901685
 7.784803772234999, 11.949203151080479, 70.949748607323912,  3.852798698227131
10.010796619280837,  8.820698547329989, 88.834394096358039,  3.654505738368842
16.367512237450345,  8.108434601582790, 44.527076422491469,  3.988418394046034
 6.333787806163544, 15.041935219661383,  1.315640467733517,  3.965253633513570
15.627733519713528, 12.146076696689008, 93.776531382827372,  3.912765163276793
 6.015161378015714, 12.040064800538181, 101.523428405944145,  4.106835044812637
17.924999544765221, 18.391622682460380, 70.291526352117558,  4.239626701560917
13.110291015893692,  1.101358258746423,  1.609661215475697,  3.952236864942285
 3.139742884038129, 14.578435928960303, 98.533663472587705,  3.945788510987010
 3.224019567920619, 15.709720968364332, 117.412721346263467,  3.929208269814093
 7.897110826815059, 15.920309420231124, 70.272995619441886,  4.079504174664021
10.858006149731432,  2.044564071552447, 77.371167661564201,  3.866353005413659
18.785909759906055, 17.264267536432317, 66.078049051914746,  4.106731301104127
 0.019016663864101,  3.633231337103353, 34.766077668613306,  4.200197971048612
 4.500537530903848, 16.024822339768551, 41.821865872419131,  4.311282782648239
 7.781552664200419,  4.748144955810866, 76.906544254163293,  4.350177778454118
13.323357325378305, 10.474319574799173, 37.859493303376958,  3.571775880231063
 6.381071837192186,  0.043685292427816, 111.436306211382103,  4.014147555344200
11.890100494734218, 11.568289064952966, 92.256125482287089,  4.092555325169350
17.550782183475484,  5.390876888827485, 112.334577411825677,  4.350842598284392
17.966394157435683, 18.053172392299363, 22.696872405029200,  3.762069444435503
 8.151842375787041, 17.813693762218691, 45.990886716216544,  3.782150939903780
16.851841910111446, 13.600636031220695, 103.012535075954361,  3.925844434327047
12.754283778160229,  8.653942128815322, 68.410936804074396,  4.044040262703235
 5.481186557031960, 17.263506808577631, 67.476517297671336,  3.620754226361645
16.180257459331187,  6.802839630554554,  5.805606725497648,  3.909939275359059
 2.752774739497013,  3.526123018786453, 50.282700932952800,  4.012970807218934
 4.401123716353794, 18.063708992874030, 74.068430803787379,  3.730860396179483
12.414451191310292, 18.699945655873019, 32.012873797653299,  3.831300406473896
 4.020580777978343, 18.602860605303690, 103.725043149597425,  3.924987321106033
 7.134606064756875, 10.994530050754364, 88.717531990569327,  3.552463097684725
 6.709027700022411, 10.716762753244385, 61.557332737037370,  4.230230574423843
 6.812385028193207,  5.674088193072095, 101.933047096425796,  3.698380015976878
 5.135430699752333,  0.755255836863675, 24.905858535643517,  3.665664146797958
 7.939936741244222, 15.726273936969925, 98.186452407246293,  4.312972006396921
10.002820793495632,  2.792757692483164, 28.058809300503228,  3.904125357363958
16.231054589852892, 10.879815723849660, 34.151084282950166,  3.656480777099001
 8.292611881110705,  7.077173769725409, 91.762999197224389,  3.915589381965078
14.295975762964988,  3.929422218934112, 117.324223817682906,  4.243052659767685
10.972357407867976, 17.805641978064752, 108.958048799230767,  3.859617885624125
17.294524861335361, 11.340726651791886, 54.131821813714510,  4.153994011108693
 4.183279736142655,  0.197762042333352,  4.384167494249590,  4.201781313147640
 6.351580602255659,  5.466972076934151, 106.073696246737640,  3.956042361026639
 8.523123855772702,  8.078034298579523, 111.735176283739435,  4.199108742641722
 2.690596507899590, 10.935299806547780, 94.288629655517354,  3.968095049232228
 0.385004244644559, 17.263483287080476,  4.367191872834317,  4.105735579139435
 0.364039117240848, 10.668653737298360, 69.458828165597595,  4.360062896809580
13.726131693924183,  7.549561630469890, 64.536922537631909,  3.918270841922789
10.199576778095283, 18.549209714029828, 25.642467491648542,  4.101869031178453
 2.976169340188408, 16.527992836893954, 70.903646247651693,  3.813969737703382
18.546012672268812, 18.949146136509540, 14.849883740949510,  3.726734250719435
16.671760678765189,  7.980292726973826, 21.313680541386727,  4.479168179992039
 1.537451907177528, 15.275034299099579, 113.407749309845954,  3.864756486135897
11.946268991832564,  8.875334937638758, 98.849154077752232,  3.888949218172662
 3.095214967828718,  9.063681184169909, 53.616768000108912,  4.196729096243066
 7.643439483038205,  2.462809038270314,  4.214602268536416,  4.066124162610193
 2.636412520543777, 13.000828508703762, 17.486346366869611,  3.929224965994156
 0.843653094445324, 10.584951274574541, 42.711869214419536,  4.287173459960227
13.987031822256411,  8.821450162704709,  9.984408745453669,  4.171443389305296
17.731192865390572,  2.872277255326696, 106.054757321100027,  4.029079454063037
11.088695433863021, 13.917147835309732, 11.944437873303233,  3.887981789393089
 6.372083220770843,  2.211364130329762, 87.494517857479721,  4.289073491445998
 9.084792062496943,  7.411157810293588, 82.364188908978321,  3.867404819816477
 2.995399335050081,  7.359376135044675,  0.141765345544411,  4.416416171681093
 3.777505275140588, 15.046432581115479, 56.038716824473404,  4.366462332514272
 3.779279861553766, 10.683739511871414, 98.479634821406179,  3.915728472680251
18.727184313187184,  1.972213065169276, 64.097757502798913,  4.222023830537367
 2.549557921594619, 16.998432587490289, 24.692670428207226,  3.819858852868063
 3.185797658706945,  4.382015750645701, 43.701722045333753,  3.814460904688411
 3.099580623614908,  3.007510745615948, 105.751090722486438,  4.121851633889821
18.839428244330257, 10.799801615146844, 99.636782590657106,  4.194573490217643
 2.217988104043862,  0.027805763547753, 77.143239666732782,  4.023418005466739
13.240988161984484,  0.939579195284412, 101.299213335379392,  4.235641516776392
13.159736644421159,  4.680295309059928, 67.432981398972274,  4.169042850335055
 4.651749609193286, 17.472839544864691, 96.092185764574637,  4.207822892306910
10.817936082629210,  6.244085468262033, 49.032612141755649,  3.905205063201459
 5.242143460124437, 17.721814231769454, 58.644297810921287,  3.655850020555249
 1.514811640912841, 18.266852369057741, 44.000005573951604,  4.161170034423708
13.304913774842085, 12.200642535727416,  3.683220592422619,  3.881677847777706
 5.394244592928279, 15.906288483239507, 101.379703202584622,  3.694763071075462
 4.783683839811950,  8.853770963914840, 70.444732898678083,  3.915141687083961
10.222972593956294, 13.736555870011170,  1.499146455179436,  4.231715404537757
17.167560377235144, 10.149368366885152,  4.121117233896040,  3.824166648346938
17.436666219693091,  5.379421090944462, 61.917341164803098,  4.267285093268571
 0.008537314296556,  9.177105976896621,  7.519536857121343,  4.091458326957714
10.119025967265570,  4.695554804352348, 94.399795743017336,  4.059851863189031
 9.498778441449335, 11.371877409134841, 56.818949583861276,  4.341874901514192
17.258994025908279,  3.824608239490145, 80.899075167167553,  3.973709875850708
 5.682011430868509, 13.173984179655911, 95.760018825840248,  4.050694510599403
10.848986934646627, 16.054214115744308, 67.635070508119711,  3.733418023827323
17.840834440442968,  9.135850319762426, 47.987237375643240,  3.716691338195983
17.046516325457471, 18.906748068469657, 46.378701869322349,  4.221440219714949
 0.939584156904494,  7.288499034314400, 59.184998749078936,  3.991522800834751
12.482096813743283, 12.025102948793466, 96.282574908628732,  4.076346064736160
11.544242208406397,  5.537960818461468, 79.115004593926770,  3.958866875709146
16.359620069969420,  6.217688708111715, 32.770748533251236,  4.150380206802322
11.634644693668141,  2.704963250612316, 97.596885376164025,  3.849603685616742
15.136961977791040, 18.721031007861551, 116.929235895775165,  3.992119211530055
17.490931851727378,  6.991799121293226, 105.637608818766267,  4.247220286453152
 2.251928420280966, 11.078509725946709, 60.887583227164740,  3.839037091617722
16.173235314281161,  1.755295582904093, 67.308633605112902,  3.990590463190015
13.149277949279483, 17.898636825925788, 78.528899684156244,  3.505339728553131
12.441251910414440, 11.926498978280369, 64.128277300509509,  4.180346375881451
17.721070623049492,  1.905861992133342, 73.700651696190874,  3.969378581172755
10.348493481009152,  9.988716513064151, 52.619977737343795,  3.896053030785372
16.505771059238871,  6.627981714434096, 93.114147597231010,  3.618201106251469
 1.743224196971250,  4.611281192161395, 16.172750761761694,  3.706043363523369
 4.821535775688983,  9.109863718328963, 38.432083229155673,  3.758955927062330
17.262426105083875, 10.977902691546033, 106.641998567033838,  3.977253426546499
10.519356855556198, 14.747617925821508, 47.348258279598170,  4.046433436736054
 9.002740314535261,  0.800346470977000, 68.730034752401963,  3.970092315017518
 2.006175890628566,  8.336127482883915, 14.987839019981818,  4.102543773267052
15.504299125463504, 14.821290410947345, 96.875876472743599,  4.230383088722406
 4.629347651092866,  7.378881216793837, 60.545417792354257,  3.869924988653419
13.387517567730111,  4.324238395360871, 112.885207847239684,  4.068085321405666
 6.854394421061355, 10.254878264264397, 21.103736439416394,  3.579783048203787
 0.518210663723560, 14.243059589670837, 40.771529009491957,  4.007158812021979
 0.103077334846728, 13.167881348487949, 116.893779801392427,  4.103027896843989
 4.497200217882265,  2.724026847744674, 75.325498304878977,  3.885207038751638
 7.693802540110902,  6.146443912552274,  6.578803504351627,  3.887574782901274
15.297296818824027,  7.596414848513555, 54.795960703918730,  4.008276778739410
 7.083502420023841,  2.424947855129691, 35.172212234246672,  3.941199890996776
18.727728079315391, 16.610146730799929, 33.405412294472541,  3.863861305453591
14.761540365800851, 14.257039932249320, 90.594569290229444,  3.881304440492535
13.431469725957788,  4.388243258645690, 86.830741439745736,  3.945118026178364
14.312716968822260,  0.571291193622387, 87.011754308818865,  3.865773330805381
 2.966882814735992,  4.370847972668032, 86.221355335473078,  4.161529560155200
 3.338523705613732,  1.198385027568754, 14.568121060158036,  4.165968587674261
 9.121564124331995, 14.645323824416902,  8.758004183387309,  3.731714708301649
 1.592946440466957,  5.689800904894554, 115.118348629725233,  3.812230369562965
12.234729552642825, 17.449508081844765, 74.993103031116561,  3.795323877045381
12.663305467764230,  5.099225252085099,  2.350920923750591,  3.576628064866641
 2.179536823047310, 14.240312583532003, 75.515159416245325,  3.838457411072777
 2.231313350392053, 15.913025470685781, 89.764817219654233,  4.181956472646584
14.276822769096324, 18.525808846149761, 21.710215432834417,  3.909010058848780
 8.408302203584919, 12.634064970592275, 50.647842015966120,  3.739268340558460
11.033161725771023,  9.502966869367905, 75.423826193149438,  3.887226921784495
 0.639800857414790,  6.664330328302352, 42.139788913090634,  3.639811086011147
 1.445605184737860,  6.746097986788091, 70.171200092988968,  3.899788862307464
16.474388396693410, 15.715340000501497, 106.186679684257058,  3.717075027397738
 4.707165185777640,  3.914145879657325,  1.873200231983305,  3.971057125805149
10.737812207736450,  5.744195505567989,  9.113719890542372,  3.726186347789861
18.534741410766948, 15.213724367673539, 55.181600080303248,  4.194918803280237
 9.164176726142214, 14.766353993982095, 19.087922897246255,  3.905669444479159
16.671186176138836,  6.341916730868268, 97.847413811932554,  4.055850157326680
17.449614969371794, 18.598551215154451, 99.913879560257939,  4.197590200239549
 9.555336002218725,  8.949390328026082, 115.662130891839752,  4.050789506460108
 1.245606751345738,  7.978628546284239, 66.495619371986280,  3.819319091541590
 2.758861582203275, 18.536844099741387, 99.771722963613840,  4.267241953353831
15.199835473003741,  0.274364992614121, 107.430821350654256,  3.727709083366575
10.515322688293276,  1.679854837161174, 87.171367392713876,  4.028065986927461
17.704315814580667,  2.525335993501643,  9.457489838034141,  3.815141607544608
10.437306202316435,  4.819411244410224, 18.263835456172000,  4.170668743964470
 1.715374625756794,  6.600645328033438, 10.915921547983441,  3.818287870398768
12.773668281961761, 16.268830942584007, 18.725427225995009,  3.863755078030878
13.920650620986063,  7.242346981178515, 60.429004793685188,  4.221896427442799
 8.338210063055618,  3.215560504803866, 80.737689373571286,  3.969338021527195
15.884621667966364, 15.129879833976931, 21.596199538547733,  3.602893660097895
 6.882492614472016,  4.156352412448422, 43.438937766554723,  3.552273557065905
 7.751688243303562,  4.670463279735447, 56.019995314414373,  4.148367797225263
10.079360095325352, 17.029952497650079, 101.713142980698208,  4.334174314515683
17.118531361515618,  9.377608114014622, 113.103563661703063,  3.806965346014640
 8.445699488472618, 18.147827009049344, 64.891662629570092,  4.309417485378364
13.859567404117438, 16.097816869495251, 42.606929584468446,  3.915989269762468
 0.094199365323290, 10.101701789989846,  0.799520662694634,  3.653116029255410
10.744611174451094, 17.585822469514696, 54.557120321293297,  3.923527370985545
15.721498455885799,  8.294491682560535, 86.569289228664715,  4.066460752258375
 7.566388567925982, 11.308789449113698, 75.646984519594142,  3.523267666641036
 3.615314967793928, 15.463434548843679, 13.588441311473501,  4.133980298464932
 7.701866219354227, 10.937397058557767, 92.579383631707316,  4.021329985449960
14.896064793983649,  4.240473449568495, 72.210860575649491,  3.852004630476904
 5.155274221805562,  0.436612604459431, 18.385852860624947,  3.945261987684791
12.711558270243296, 11.413993297844408, 113.496763620164671,  4.434085726443059
14.780182282877286, 18.798693415656469, 72.621516514028571,  3.511830609168901
 2.698360848573900, 16.771827205391379, 17.161881030222936,  3.638552074977693
 9.324359393589566,  7.685307122822764, 38.152779320556967,  4.151636994896578
 1.070838495631879,  3.750345621299281, 57.797571052549912,  3.605032740016820
17.571448231375069,  4.059144389448445, 52.595069892936074,  4.034734855738948
10.265418216934952, 12.515366628733824, 36.613289511692656,  4.035184368308733
 7.457555904669833,  8.995970200840897, 104.026002861221841,  4.246640684256731
17.483127838970827, 14.352995282629561, 68.612314313465959,  4.022395048014127
13.494245276960433,  5.506720714221348, 22.285521863369880,  3.803589118463177
 1.116869440690341, 16.568993484988194, 47.571682956635101,  3.785948600310598
 1.282038366774588,  1.241627138400847, 18.072583821538743,  3.957745867176229
14.676324951564656, 10.728047337307972, 27.311987796577135,  3.943286824397334
 7.269180302774265,  5.569837186755684, 32.735317914011418,  3.947307917840542
15.883528237996279, 10.692421363818246, 116.497344379660191,  3.874288099808633
18.068942673739585, 13.086997080196042, 47.147649062035164,  4.155279098703800
10.029039120355280,  6.881629890874221, 66.026584353482789,  3.980231443262050
12.595606361486917, 17.092612665292986, 28.505573112339313,  3.886562059989641
 7.325357043999139,  3.149760084845048, 20.434305128226409,  4.088496214887208
12.755568020330404, 18.114933896858190, 12.612176651135698,  3.965714681078857
 9.405280461585852, 18.261124996235576, 90.620545337010824,  4.075887380820957
18.666090747841963, 15.279083269798990, 109.550146635195091,  3.815560884370697
 1.660059394974451, 18.531697636243294, 57.010968024590447,  4.001079855802012
 8.804587685213209, 11.779779207367911, 97.678858083393621,  3.771154520175099
14.042033209851285,  0.957474188708471, 53.099039881679566,  4.653273077227460
13.829744058010666, 12.995086345978235, 106.890356450844919,  3.997859534362942
18.095613253577557,  8.056192370750244, 51.730434780093802,  4.085620377018312
 4.105069296386686,  7.963186299208103,  7.820719322803258,  4.446593348331207
 5.095401829454829,  1.281174979461320, 45.192779332116714,  4.025413551916341
18.480382725838567,  5.265697094609300, 49.004264801679760,  3.754308462155642
 7.886225556121219,  7.638619525358170, 73.379510830538223,  4.317148637600573
 2.940577066045819, 14.795637970499707, 80.575954669789454,  3.973410734097506
10.730758715222553,  4.051731972692722, 83.874128872839563,  4.090052033568352
 0.353450111723532,  8.943885698448156, 33.233334547293246,  3.843086894885002
 8.851793897717164, 10.397347349875282, 43.932332742751889,  4.369560488903675
 5.333367725061541,  8.425798181308727, 114.770255381701290,  4.563348617368844
13.835190696382730, 15.742070393976482,  9.324251256294067,  4.058271083222047
 1.040981296059620,  9.417963612377882, 76.273042511079353,  3.975924065873936
 3.927333077567985, 14.787733764128710, 51.867239247833915,  3.868348583374154
15.243363223202412,  5.629282927413478, 76.229374363328162,  3.991053752143284
 3.897384529418053,  8.452974290815012, 101.842477873364160,  4.152805681642035
15.028121631396692, 17.376659722568416, 34.596409947574017,  3.942752260210188
 5.731008223289161, 17.729555823626214, 89.450585930357619,  3.689974765729779
14.010448138579418, 15.988677093294193, 24.888754683343166,  4.158209211153803
13.939157292886950,  2.980348352013463, 104.805572444926071,  3.928161910754831
12.502237492322179,  0.673810553091696, 57.298423726546567,  3.765087203872846
11.196068381124681,  5.641702808878765, 71.084277866549456,  4.325075108589864
 3.602834201634344,  9.885707238218105, 26.443828701309478,  4.124669506851958
12.250762512423838, 12.567662353154509, 30.086211082889122,  3.923325273907309
 7.322630363559072,  8.738804547911190, 99.579182173562373,  3.978414062635464
 4.341194394603040,  7.889508731419328, 22.693532484076659,  4.017865807397976
 7.117792223895790, 11.600582181618627,  2.935586527671573,  3.752960339259860
11.236527734846234,  5.106415541496034, 62.667616662159269,  3.961127137023893
 2.744416245181429, 14.560200181434610, 67.061578405223841,  4.058940164588693
 6.040977265653949, 13.932669985601226, 29.442708826829584,  3.919432968827038
 3.822829257139424,  2.722315957176624, 109.784328791449809,  4.011751881276280
 8.313258612617588,  1.747851122095020, 107.565254433935948,  4.139347958772367
 9.155731675372985, 14.081495050099157, 90.157968327741045,  4.318697930171441
13.411417429876590,  9.359967569631442,  6.151267353666206,  3.647425758430682
17.000887209127544,  6.225115701279500,  9.967833181360893,  3.784456782988230
 2.508546391038887, 17.862999953697994, 20.953195672295802,  3.810775699826574
 6.798598853672168, 16.285601512665085, 25.572521586543637,  4.037056610343061
14.639799447301566,  1.674190880773259, 76.210738552543589,  3.992187718328287
 4.719564870199873, 14.182940179819065, 60.237222384188804,  4.170423069076374
11.927227941778172, 18.452393894405379, 46.815752651984560,  3.941583963976995
12.107570124432641, 12.158830682086544,  8.467805999563671,  4.050070915420105
13.994190175054925, 11.975633437688217, 73.903797453804671,  4.083367939758177
 5.682666895701155, 11.778992689317892,  6.620510618297821,  4.153020717873189
 8.985985289323219,  3.206862530502141, 65.183920304123077,  3.766995645911617
 5.507469697173500, 14.166406273836756, 83.616117436163549,  4.078243871214034
17.391402892572675, 13.271344370312038, 75.587151239335512,  3.898271951635411
 9.023818997246927, 17.754425342185868, 11.230830554993494,  4.019823742640798
13.879916502610733, 13.620016782438723, 67.369229124825750,  3.627076855076204
 6.034492816024804, 17.703009239329916, 81.062159656314165,  4.064914578459482
 8.228364502418527, 11.314485514705632, 17.929001146449313,  3.580892807592387
17.227797663445465, 11.216670210921713, 30.512096070318329,  3.720476119548202
14.500134081519519, 17.127195995330329, 38.973944882652454,  3.737125471587439
11.521845700937103,  2.322606611457417, 49.706626990378332,  4.168852052518806
10.105090423642643,  8.777375845579540, 95.181550276771588,  4.236183799162498
 5.444819695387745,  4.036083103970849, 63.914610011143488,  3.818961307155967
16.543424059308666, 16.863729735710081, 12.227726510828003,  4.040817148692040
13.571969071348940, 18.147688987620899, 60.748803108325760,  3.974550675230695
 5.259318036044474, 11.939445662763855, 14.561104354291157,  3.842195185281732
 3.873104934805810,  4.051712359850706, 33.773074481702544,  3.775730220904530
 1.398034738501586,  6.613930381506696, 27.354784621846381,  3.969732498606056
16.375741461284733,  7.240914630808746, 69.911277357490661,  4.220818730592526
 3.334570442262496,  0.332193570512529, 64.668698593322020,  3.704486398795311
 6.645125814365438, 14.501994520890934, 35.729501103863406,  4.335803461694081
10.767027679888347,  5.258080559703854, 58.809018681241760,  3.810632773475992
11.656435832002236,  1.293007535701910, 115.159129422883055,  4.242124712841740
 5.801976221772038, 14.356199195831929, 87.639412440608510,  3.968468282909779
17.589272974082331, 17.162947046459138,  8.172216305847055,  4.269326525388721
 2.275473899983386,  1.476826403784255, 72.006358269636024,  3.816490206875713
17.182388997289969,  7.896513928355703, 36.489921002148613,  4.154011050164328
16.016590459933695, 13.028494792462837, 50.666912497668811,  3.935596770237274
18.035565489395900, 15.310466877716051, 25.791240488904602,  4.195200115693636
18.086405963409646,  5.930622095974192, 84.312531335579834,  3.983919187969752
16.343999446838076, 12.667542251392939,  1.319853820801418,  3.871420606562768
 4.003039364405304,  3.202639793081518, 101.231617323346811,  3.912790035671248
16.321470067782322,  1.434832110439267, 18.908309889003672,  3.961931431299146
 0.782755728724255, 14.354249992146269, 22.003695920925537,  4.283813417299071
 5.829148582102649,  1.616096597389285, 31.554906652002327,  3.877294590325528
11.151786340180740, 10.238267263078217, 71.635915608654742,  3.814740558133616
 3.347210940874622,  5.626981076305952, 39.611046677076317,  4.052837056727509
17.733734130621762,  2.720570959236184, 87.557153801919782,  4.249020289947820
10.231974317220562, 12.227523749706705, 78.093692264258991,  3.904831213284639
 1.206276469458529,  5.556137539523320, 31.267399257666032,  4.129840598323243
12.704105658477475, 14.874793295086748, 83.715192789913971,  3.563365006667651
15.680127643670691,  1.806408378530697, 12.736296433867237,  3.795969991718729
 8.698500483646848, 18.077933831766373, 94.682523191456198,  4.147297395463820
 0.554027497705287, 11.993010856619577, 111.647550545760026,  3.817846133086261
 5.177492263613049, 18.149637640118641, 38.234826560377059,  3.824977835175301
10.322395518488563,  1.293217858937723, 14.843914815101225,  3.829988571541302
14.629536118602411, 18.546696972695543,  5.309869020032090,  4.384225895752952
 7.361834317074402,  1.344124987363780, 115.157319434828125,  4.097511462780846
10.898426417422733,  8.422617368892093, 16.357121320734169,  4.009703860886160
15.626755279993947, 13.619363548485662, 40.109244868607796,  3.897963391905756
12.243406517345630,  1.179441522192072, 93.939800731285672,  4.158056404894010
10.830000861050284,  5.954974895002284, 117.785949647254583,  3.694167407193064
12.219242822373293, 12.866784588446546, 44.260731835086496,  3.931253247567712
 1.373879316957833,  0.020494847256599, 36.002927479201688,  3.850769538463172
13.821958736601367,  3.124696795256663, 60.028910440304664,  4.026313046875275
14.152652019629375,  9.448634776439057, 51.320288801535028,  4.191234170388436
11.963858502269048, 18.689621507905834, 83.832345859447628,  4.193171346217052
 1.270855019201373, 10.792384813952115, 56.984388260940499,  4.096265266139143
16.756402367185398,  8.987871063303778, 81.778310903697459,  4.291914107041147
13.829903484913073,  2.304180826919999, 29.280964310369370,  4.169236358500837
13.928902646129288, 11.765741328721315, 80.099647740759707,  3.998429936619866
13.996842374568256,  9.071924840090020, 30.933710910987401,  4.068206528756696
 4.115029549587656, 15.035196940891218,  4.661033488290882,  4.043871840188141
10.429811888816815,  2.923042959313391, 42.981475549268346,  3.967085903501173
 2.498901820493614,  1.207029076145067, 89.199601635278768,  4.403772172978126
10.147506594224058,  5.167707295490402, 14.097753204252152,  4.048248476547397
10.928421079141559, 14.498573962975438, 111.156186773901638,  4.051631071387471
 1.778735060468343,  8.199052928180766, 111.895375526783127,  4.163941268628791
10.344736864819891, 11.972402341111348, 67.757601794244948,  4.195857419086495
 1.918339080030591,  0.077232352950104,  0.862315719527450,  4.145533591280784
18.104439422870080,  3.614503197333725, 70.165898237259441,  3.820995134595066
 8.033542470766657, 15.456906617958140, 56.847512174149337,  4.335860997797940
11.311517458371355,  6.418269593566503,  5.470532508308720,  3.692733299064300
13.646344320332020,  5.143852090888543, 11.759311495480091,  4.003583946308328
 1.054416339682381,  9.488578095616537, 115.635423074575925,  3.877963340165828
10.792934768198840,  9.645087809430871, 27.666569721224150,  4.102958503220335
 6.207465121456097,  2.587477987292002, 27.912682823660575,  3.686496670709972
 7.399058389539217, 14.075264979039655, 80.089774448279115,  3.877056369234838
15.748569591621081,  9.705353951913226, 76.977390653515101,  4.298928975922208
 7.353916425051341,  4.570942003244485, 110.197501046221660,  3.794502269874027
14.392969276794148, 15.946231621298024, 100.712067336756988,  4.015764262499598
 4.018525440047043, 11.100074789125173, 105.028809814943884,  4.046337918033686
 5.067816581470485,  7.785170401061414, 109.249478527088201,  4.309594651768419
15.244473799240414, 11.280066061998848, 70.132049384959458,  3.968150201134285
 7.446747780812391,  2.643505581246719, 12.049884752130962,  4.359353256720468
17.707554925635527, 18.277702353389870, 53.106484635946295,  3.374048387158275
10.453421547909439,  9.658468546179011,  2.287335075224880,  4.073155335762172
 8.733447235438479,  2.692445265912660, 46.618589167337284,  4.060611621350965
16.883553536184067,  8.083450940110428, 25.443679780013785,  3.784756553401882
 3.660829354243172,  6.435310295834264, 73.653942458115466,  4.350868040463353
17.738292554549290,  7.506563171720628, 17.278700284922440,  3.887092179638110
15.808841177701526,  9.873781377274229, 90.403490772033138,  4.202092515127927
 2.155711133684366, 18.387832187013132, 61.041940209910287,  4.124020185805681
 4.056537700308198,  6.370404331309924, 56.787485291845726,  3.985636857713518
13.071721868235244, 10.946003674031266, 58.897798576983170,  3.954881255612093
17.874362716184642, 16.041708163320894, 37.270453600127574,  4.125789444443935
 7.067640130307050,  7.593584553831733, 26.018547316824908,  4.204685216236506
 7.291248608455420, 11.676148321692020, 26.305379692817166,  3.966224567661483
 1.315157301295915,  2.524969890614083, 46.622129135611544,  4.044512306740231
11.750725356989925, 12.504575589939707, 17.088097087788970,  4.035420338248237
13.286138409863799, 11.306368792257903, 54.931826244491084,  4.018938342755582
13.103158825496427,  2.147973243319247, 80.656971885890215,  4.084291683399336
10.152994702998733, 10.144077597928716, 48.041447183720422,  4.243204261425609
18.203396157812335,  6.817641895433479, 78.570025692049157,  3.833212785489220
 2.838336880794368, 17.028793355911695,  7.958813793231978,  4.051704603512762
11.151708850629218,  5.412267981042929, 109.665454610963934,  4.046776502214824
11.176748570004223, 18.527664552423694,  7.838870214312089,  4.156581479394268
 5.350313362399914, 10.917464625874336, 57.605870173067828,  4.135391600258565
 8.782084730336216, 18.138036799457492, 29.676927788207802,  4.338654691479224
18.678278207910743, 11.329744192474708, 26.845036326265650,  4.135772755197189
16.592596984429534,  7.876202361878498, 101.635157043216111,  4.116480941102011
 4.725580033921015, 17.913339882112780, 34.266944991452029,  3.974670265242631
 2.527242321474177, 11.436995900826791,  9.558168029913601,  3.710640283638016
 5.753554277680832,  6.329501916036854, 80.399822645461597,  4.146882352417061
 6.973713454053281, 16.370410360443913, 116.067076255773415,  3.978073391563616
15.170641699320877,  4.861396854321065, 108.641863874489303,  4.242465925254372
14.311164470749786, 14.806701021459704, 117.201540260932575,  3.970673092074884
 1.023827498268403,  5.636097479646948, 102.396184417897970,  3.963069966238934
 5.884875014171667,  0.747813397795805, 61.844541910616414,  3.871408415910345
13.445613513033638,  9.090493118566465, 23.835400994742074,  3.977619779273580
 7.127136155645780,  7.881278495589700, 50.252199744524965,  4.409128025448046
16.126553142153011, 16.983277088127085, 75.627466180400361,  3.942027114408485
 1.105179356103789, 13.949025379301595, 105.954906102422854,  4.287534054155958
18.663099214178512, 11.259473911160480, 19.603442533162543,  3.802658172065388
 8.109840858141109,  0.970388084889969, 83.988266235429577,  3.906362759586063
17.697721623617927,  1.632080301163343, 60.057267190621857,  4.092555783482930
 9.875833723761929, 18.539333714974713, 80.257311758245493,  3.954999407986179
 1.916434605809366, 10.465298701801576, 88.468316377992778,  3.797457718904154
18.340331673375982,  9.581166482466500, 11.371537740655432,  3.745530583813580
 0.534341499929894,  9.875917208601622, 103.554466280344712,  3.902325354198875
15.629069602388652, 17.261615825637865, 57.369811700183995,  4.080951617844505
11.510842716556430,  7.888889209881731, 55.912643041026428,  3.809616795007365
12.937240895704365,  2.729183001785492, 25.195535802218377,  4.235987959401159
 4.540518663514518,  9.123024203748489, 11.914203696825030,  4.009626266304382
 7.286233619593292,  9.936075507979128, 65.682338388132422,  4.241863961447909
13.456653750716718,  1.737662012191968, 69.917729998139862,  3.521558079602755
14.154194586724593,  5.107138615743769, 42.671994309115355,  4.046649938999074
 6.848744978124224,  0.377158103909969, 100.218418428316625,  4.090200791551177
 1.334299351208828,  1.497427700001440,  6.852998140812564,  3.741625305940558
 4.483740241884483,  4.194441263184797, 70.206800443692501,  4.030722473055122
 4.938687952487220,  6.061917838631532, 29.328367315308668,  4.210223421098792
 1.991676359205359, 14.156081344703814, 44.508056075138960,  3.933226006478945
 3.618459848043642,  7.886766599262118, 84.000292834752244,  4.002378648646259
 1.692536742447831,  7.193138982924266, 98.513685635871980,  4.165628548242490
 8.832499861188348,  0.352409453080982, 37.957538547152545,  3.830274931428850
 9.588587431462596,  4.879940591550142, 114.001500516777938,  3.918055154127314
13.398953470978174,  3.452424665628258, 15.194001592038001,  3.612005140451678
18.129296520128246, 11.891033502827328, 37.438295155383820,  4.180495731128808
 8.118656181524223,  9.657331483339270, 85.346490391829676,  3.824222218062971
12.382596306730294, 15.851298751626127, 87.553480297536694,  4.366520630999094
 4.609384301691618,  2.341825619084571, 57.350078220370200,  4.047634640724302
 8.061862939745870, 14.664542956789921,  5.015368219745154,  3.847086791539003
 8.913749703179365, 18.543349148567160, 18.235188459207198,  3.726737647730087
 2.533992305417932, 11.720695118580803, 82.877523122954116,  3.736148633560102
 7.033499528965105,  5.046855695552267, 117.151924386609124,  4.173882628358568
 0.492580665985551, 17.029715416037202, 96.608491356700569,  4.075054460299397
13.768831072688181,  6.315965853654498, 27.825322300031935,  4.244870532227099
18.881243227895450, 15.873141582957787, 78.234130534206528,  3.922647370700555
 0.528794021776372,  2.324466934100255, 39.014675645340908,  3.889040135912396
16.070683943215137, 12.087310656096410, 43.736027454617485,  3.995595024520654
 1.245426631358471,  3.103320075380666,  3.417370982315032,  3.776338815702614
 4.640619098710942,  4.604022096516265, 90.457249748490256,  4.011380751639658
 0.167613964049489,  0.543303281277486, 49.937439522642727,  3.893658577808293
 7.078567016305217,  3.321635663060374, 16.249960685204393,  4.168525782876281
16.458669684245923,  3.769209848185073, 101.954401500680845,  3.839000029017407
13.490282661732598,  6.792233541344219, 103.942802253757577,  3.889183566427470
 0.221316288495187, 12.577256875959616, 91.308036080010481,  4.046418210504843
12.229492165682363,  2.239850043992504, 108.061553137129707,  3.351312950806287
 1.684645845058000, 11.889318601113741, 13.351671188849803,  3.704366552209045
 6.975235986783128, 18.253225000389993, 14.669302568605357,  3.968636525988916
 8.032338208663660,  8.022752989766312, 58.748582256199249,  3.923469027087382
11.466822529458071, 15.089222393734611, 80.294215045618657,  3.643889148967212
12.549403039250164,  4.100945371124432, 46.196708916966820,  3.952476030658329
 4.562880752469158,  8.467604651307150, 91.606536816295403,  4.051339985053649
11.691383983510514,  7.831034825561157, 85.422149974420051,  4.193739487872195
 4.361347864049884,  5.119185913635614, 13.378281477247846,  3.985977556172111
 9.056778049424741, 15.932513785392899, 83.094558553343958,  3.911178345976496
 2.184065884138178, 13.098066685182724, 102.070909411531460,  3.912309812863296
16.338620626816734, 14.267924310480682, 64.372181006323345,  4.227422379249155
15.718951086496890, 10.472973672336531, 66.275280274799101,  3.964542115083710
17.298158431855565,  6.955690518851156, 117.313817981931948,  4.260645562550583
 6.035935213524209,  6.013096740726978, 36.462777393667068,  3.953906169532258
 1.251118701871861,  1.372085386777356, 80.619269280730222,  3.672796816999577
 5.652918003350735,  2.022409642043622, 67.152085630987912,  3.813614668713144
13.908868011748496, 14.202066575285219, 61.073008650055776,  3.960892000405566
17.431750682160487, 15.733450562665306, 93.261546207842486,  4.150556520999485
10.240663882678579, 17.662174479793940, 118.232983701961246,  4.272059138351899
 7.944326500067620,  7.796275488501759, 18.695777428213873,  3.617560958136635
12.148486506579616, 13.725033592338825, 103.277106157334202,  4.067377353017160
 0.252821590832569, 17.927561761859192, 115.897037716178644,  3.809609760669838
 3.719714889699711, 12.421890492311347, 115.122145882888404,  4.074326541247548
 5.034983586501962,  6.626222353762111, 66.931996350590310,  4.140927649381089
13.874290225506032,  0.742691124864933, 111.045833447209105,  3.982628067624966
13.213083335775963,  6.885252578410904, 39.142527673721517,  4.029581131088509
14.655580643384212, 15.840859188156045, 109.779203229567088,  4.271520748210191
 0.130619741520932, 15.466680382889898, 51.146040667875610,  3.924057051564771
 6.617911214131929,  7.180399167644562, 41.127918496743980,  3.737520736266078
 9.414353129576376, 13.296179381627775, 86.064928183164838,  4.009923386559425
15.668170818643103,  2.533072544349822, 49.335807423340675,  4.092647842704771
 6.969507428975358,  9.790735882188864, 29.893755221211229,  4.160229933150705
 8.847106058849485,  8.010837557590810, 107.703499020354229,  3.857301223085725
 0.593286909538471, 16.601873951051282, 102.846095039689914,  3.931344270742608
13.401861471156561, 16.087246474924228,  2.282363073538991,  3.761756803525017
16.366346434242161, 13.667119324176491, 113.806028818939495,  4.132551856546399
 5.147370404098305,  1.091794991805334, 92.690766376943245,  4.359797906475959
14.963687149964453,  6.322291896008036, 79.787430422698350,  3.126143865094221
 4.163813686519990,  1.527645764274641, 83.416855521147070,  4.123190187622833
11.985211050166306, 17.472035264986541, 97.482988042297407,  4.538586098500702
 2.519135512588483, 14.345756611570096, 27.793073022563359,  3.837417136475486
13.965183563740275,  7.964259234857633, 73.209058696195498,  4.054774665942206
 2.447336260486387, 14.918357185723194, 93.713486457926024,  3.970467082403538
 8.630741788915108,  2.669690407279143,  8.054880780174193,  3.868488388427372
 6.180695377215387, 15.654083943907708, 92.639323308241686,  3.932244251086746
17.443145854876288, 15.688746137402600, 44.069675998370997,  3.725256969971549
 1.616263035028219,  7.982440833707736, 19.871381527541406,  3.795169069719234
 0.676772691337584, 18.159958552050753, 28.262917006086244,  3.986996512381665
 8.796004464232446,  5.988312614032526,  2.618036427759147,  3.958780211907083
 8.444955767857744, 18.724702370805478, 49.678597232062081,  3.825773077837984
10.353017343922344,  4.890748467715832, 105.655721487648634,  4.166831886675974
 2.095512471406663, 14.141046360110217, 85.985352646854423,  4.149222210282548
17.229895188217171, 17.695358500850048, 89.398504519975347,  4.508983246146475
 9.594879621759247,  2.636191938404254,  0.711917610590112,  3.883206785145888
 9.569599334717386,  5.902127754282126, 98.129822973963670,  3.803015853629818
16.939047967280551,  5.331628927987991, 39.682180752040317,  4.050288626186706
12.387229511531022,  8.072810704302551, 44.991411926795600,  4.021466921861168
11.262863297187772,  2.225370265874342, 10.777377245444070,  3.716503576381539
 5.162069550856347, 16.241450616881366, 63.594523611143643,  3.709747584404387
10.492333283787744, 13.781152078238147, 53.641436022694194,  3.857784540784229
 0.483073174585946,  6.937780833595411,  3.504167548994035,  3.947920901762531
 3.722486469166755, 10.719806983456170, 67.241073704907507,  3.687676183675477
 7.838559131304303, 11.409273811071557, 39.817602597862169,  4.300156879262374
 5.551533790717623,  8.225452002379066, 76.859722655913643,  3.885502117742138
12.997512600218920, 12.284649082395902, 21.101675613189865,  4.320790745247225
 7.660805053287474,  7.013448393546694, 62.922678862491743,  3.826053959743173
16.381167149360909,  4.873645659366412,  2.240359443287611,  3.846769826585239
 7.178194933008764,  6.508386238696152, 10.467780637689343,  3.943760696124722
17.065750858146277,  3.672852473530618, 15.765060315815484,  3.822479833245412
12.008891053747750, 16.252460441763279, 63.909390034688322,  3.977280493974316
 0.930905299482159,  9.607596009902020, 23.493168939160977,  3.778344527037112
13.532781710736058, 16.677126759496382, 113.714330142185787,  4.062759762409809
17.338140795060067, 12.591587642622111, 87.436685602157539,  4.387226530924132
 9.956341426196964, 15.888920156872318, 43.174471168795336,  3.912434330463647
 6.958221525318358, 17.850485624425755,  7.402534109170995,  4.398251586589111
 7.125768888644400,  8.558737467716089, 54.674987190198202,  4.170125940274406
18.821620407819452, 16.985728856650287, 82.239690906585736,  4.249729988230882
18.722149094371481, 14.907440159368754, 15.213212438912713,  4.295938252927933
 1.101194345949212,  8.799103923424790, 39.099606286322704,  3.783569276078543
18.570848626629846,  3.047798250468603, 42.769390729134194,  3.970122534872692
12.874044477758472, 15.975634111879573, 93.591387345698450,  3.986107544686013
12.691659245038371, 11.617614266756195, 88.181758586217981,  4.202980205189007
 0.335368579642872,  6.951918479436408, 87.953818247531856,  3.954409800356463
 9.971977887479220,  8.649057982446633, 32.614300218965219,  4.172761586263093
 9.964557461505882, 10.940838888907058, 101.468488862474516,  3.867345544830966
 3.713346778544870,  2.621539486053679, 116.644931089766402,  4.088900008991622
 3.278045774162634, 11.293975356632824, 20.986334473223781,  3.848564432638515
18.197138644402504, 16.803355437018201, 18.953200241509172,  4.124156474572809
 4.532923879720348, 12.003598225129487, 77.996148378948462,  4.258975490585668
11.236646285727590, 16.354603835601157, 37.101046031218459,  3.933933196339223
14.503833076978252, 15.355231991931429, 46.688806076356371,  4.092067936729723
 6.909248494153645,  3.504235519179162, 39.590423986190956,  4.230824005313390
16.484716267932011,  5.291272331079626, 57.883993625831046,  3.983659833763058
