BANDS
8 8
NANOPARTICLES
cell(1), 18.947
cell(2), 18.947
cell(3), 118.416
16.690608814573736, 17.109333437664191, 51.707875886674479,  3.806811699232343
11.114455356283482, 17.915856083316754, 49.118731714230321,  4.013049931803915
16.824435847673996,  2.488565049037410, 82.561988941052988,  3.873877663590753
 7.030423759327977,  9.879520826562331, 113.317883922729351,  4.218973192014843
 3.043390276937428, 11.474907885380613, 85.003787271149037,  3.992699061982388
 3.146987097609051, 11.272955586707178, 111.754733520487093,  3.855761413670255
12.744466703795066, 15.256026666165345, 58.164373492157559,  4.293735947849230
13.558662268559431, 12.785687915629365,  1.477276559702922,  3.473355496584398
 9.738238761047667, 13.252415716407985, 100.667205644773489,  4.135562602968166
 1.463594065980208, 12.028621445111209, 33.042440751853533,  3.859921401918504
 4.664149199723769,  4.017866396757732,  3.413192087333795,  4.074650249273178
15.107064549403278,  8.666375766016705, 49.972724145608389,  3.772479821690448
 0.955385606340479,  5.388775731709229, 111.021581223427233,  3.809107419356175
 3.958789745836656, 13.204831011733010, 29.062602216836478,  3.759496748770109
18.239774360390136, 17.190171813916308,  6.490755901197484,  4.016649495147858
 3.626542047038054,  6.672117460143818, 105.589767413323244,  3.965767169357400
 0.989271132849248, 12.019987482278669, 19.049839733453371,  3.738244514827410
 8.345392482266620,  5.265111755271046, 24.684632667607929,  4.026345219045426
10.114065211294996,  6.050771453186951, 94.893620611501348,  4.239354858967810
 2.514251732513648,  1.104023826890594, 36.397355604414535,  4.401885775689992
16.204214641977561,  2.551428460944507, 29.334005998250149,  4.091279702025068
18.627841113503933,  4.303609871757721, 42.808996255942382,  4.102043948799068
 5.759553907188896,  7.917759949204229, 19.524469628590179,  4.052575987655936
 3.509410982065331,  7.857410358659738,  8.540053191678416,  3.772663347480864
12.254054812461046, 10.739934196036993, 44.934980454228082,  3.805408012215985
 2.941486040676779,  6.797405684814590, 43.882571465488546,  4.040986276958517
 9.824729777840270,  0.914274903216651,  0.462735062256749,  4.269975646240818
14.400304060693122,  8.235276776234519, 60.615572179805888,  4.145279524213857
17.232819317593719,  6.993224127020444, 92.615289298734240,  3.819755239010945
 1.986720793770965,  1.656223768344189,  5.138540752532021,  3.811912275748133
17.446728250583586,  1.841056018210276, 70.230685449335994,  4.041493876676485
16.139071049411736,  5.108788314293335, 20.712448717356814,  4.378276045544815
11.360816584334817,  4.186612322312294, 98.481408329902933,  4.128841496659513
13.356133694465687, 15.021042385269627, 51.545941156800225,  4.001832304908595
 4.072874857489433,  4.662345043458542, 74.081237688737204,  3.919815100305731
14.423715928463707,  1.074218850698092, 50.270275513621357,  4.098716641910952
 8.920093136833335, 11.695674624195897, 11.179492802694620,  4.041420280308584
 6.075323634603319, 10.444254662951140, 109.341573566700561,  3.832943038188868
 2.732809165588839,  0.263441857508845, 25.024784224310643,  3.926307591305903
18.491749814636712, 14.603186001405883, 92.298084062178432,  3.912940629439436
 9.274156584233307, 15.352523976234631, 104.895259146558629,  4.040104896954733
17.571814098182763, 13.095583242062872, 77.678309234651792,  4.305125567269789
17.256474036947775, 11.143388298123424, 30.678981048243593,  3.917604109352216
 4.171558775189437,  7.875693992297327, 59.763557761761376,  4.144605677597000
12.958955947146661, 12.800973440363641, 10.728151367237034,  4.081149048268209
11.543299982291515, 17.761383089195338, 37.336004069737896,  4.175751773752655
 2.573858836535791,  9.689139473837816, 29.669204790538373,  3.890135558032132
16.818591248565856, 14.267938024182250, 18.476438719371895,  4.012031267752080
18.615348422957631,  2.026968260183331, 109.406648946215569,  4.026680228055652
12.772436330004501, 14.517879445262704, 106.571205207919334,  3.730256761356419
 1.918238817165237, 11.415876533190845,  1.757129769413571,  3.826595698795723
 9.797635542362807, 10.183654818205461, 55.901565003198435,  3.919889532941412
18.487054051435162,  7.414115262923794, 30.587662987364251,  3.912354888095932
 6.437366056831880,  8.287417797612731, 29.145612741687792,  4.390838256449167
 8.802859771287537, 11.339930186651001, 106.840860374544377,  3.779833039484285
18.466775561812849,  9.648761453263855, 27.180974224928022,  3.944641194711086
 3.869705076867957, 18.681165236679647, 79.270515469924248,  3.724864411576810
12.644319668398245,  3.281037733655684,  4.138246757088281,  3.943104619114044
11.312990905925092, 12.090341328161715, 104.220086604466871,  3.619470532400700
13.903308324861115,  0.044924590056553, 73.732229281296696,  3.564361827095224
 8.745674514716008,  4.469201811160522, 77.570865629812076,  4.008755913050125
 4.550028455568128,  9.614956790537168, 73.596023570287670,  3.967142063453065
15.871197014573839, 12.621019863226305, 44.400364997137338,  4.233099238823061
14.532580398683448, 10.288888604634145, 68.641508138292451,  3.767514098680950
18.052620623714624,  7.547560472646607, 62.389692839527449,  4.038095934645392
 2.439489527172920,  8.208130594805708, 33.322913702501893,  3.978146788498219
15.291621174970135,  6.402191716389280, 28.518267962143554,  3.942961414702339
 0.958098602183589,  4.991289270615194, 52.570636150982168,  4.078726387459702
15.046031440025072,  7.815187907828738, 75.855220620174762,  3.933228951758160
 6.916722143069239,  0.140383088714017, 42.132529153645052,  3.941983761851712
11.225027847003236, 16.856310348728297, 71.897164083775507,  4.029665574007368
 6.065935228727069, 13.402487514723092, 117.484905375523866,  4.001888023333248
 2.764527087153153, 15.087099942574246, 83.072080848668804,  4.205547570829171
10.416961787196939,  6.411909502791730,  5.277769730186566,  4.057941140454377
11.944392112081038, 11.230549080910125, 59.154229913749155,  4.129281254512906
 8.495510741284885, 15.395689285250393,  8.109175288661721,  3.923699915368097
12.419370215460651,  9.999434961735361, 107.374982648415667,  3.970705032014488
 3.792821690301437, 18.073777666612298, 55.240019392590071,  4.238145433278098
 2.300798198829286,  4.294160540698381,  9.332160268757063,  3.750844093871438
 7.176534477346923,  1.641913290839853, 22.886424763141097,  4.070816021361914
11.603949261091973,  3.879476163638746, 65.795327820453949,  3.866388238932831
 5.264748889477072, 16.298784053911007, 90.305996771357101,  3.930431572230709
 0.066790322984862, 18.203596188369744, 82.897264961472942,  3.923864378246665
14.710274872513367,  8.281052861682861, 46.299938682724786,  3.639746692011763
16.861515055251832,  4.653816565317019, 79.237470140982722,  4.017233640177509
18.308267620880130,  0.612234616827474, 32.205573229290451,  3.979016278735810
11.922389651331157,  6.088107858206162, 108.749211876474192,  4.254293311491645
 1.475454988008015, 14.812467306687127, 118.156872920599881,  4.088557885031352
10.116830967839425, 15.783276303900687, 112.935777535394465,  3.947884301278676
 3.309835824795215,  5.391392245645886, 87.522548953666671,  3.906859970145646
18.279589504677801,  0.832195413423463, 59.888188209158407,  4.301039544007036
13.365678543683856,  2.135383622415014, 84.517489063857482,  4.091513541832875
13.212363299424830,  5.496271992478020, 113.079164096330175,  4.184842886491475
 9.009653092727142, 12.798077665356130, 23.481096218506757,  3.918457516154223
13.675604289716652,  6.780650658519668, 67.378174291793968,  3.716261378462520
 3.242314081150266, 10.434382131050564, 52.730275875278785,  3.746349622699344
17.435295076299376, 10.591226614916424, 47.600284647247634,  3.879992785884102
 0.220240986001494, 13.539510990060188, 27.811732687628609,  4.060263134500661
 8.358378562227164,  4.743797466297107, 20.757445890464087,  3.785722785524746
14.992712498256404, 16.486106236533931, 48.250047651810647,  3.902656873693163
 6.758841402983685, 18.000284975684757, 58.291728190784958,  4.271920980590848
 0.979746679946732, 17.117914317465669, 108.446273991948559,  4.231118744184762
16.868938788233123, 13.641668552037986, 88.599125697574252,  3.938846217389519
11.637875657073561, 17.476183052287436, 80.429561549064417,  4.025736266507253
 4.846389184895756, 17.100173276305256, 22.585437525330700,  3.728970965022516
 2.089874880004921, 11.537232460435723, 91.647753749654285,  4.135063222946649
 5.592024258586836, 13.740885249600348, 10.215036781004100,  3.970499248118068
13.256954271663263, 11.330725648383323, 90.509767661257698,  3.772107693647784
15.307082124477606,  8.552053095243911, 114.736569662429233,  3.784922937512899
15.059841020041807, 12.171558957907955, 21.293356083132835,  3.777842041627150
15.125286302167439,  5.083501274329053, 40.653503989218187,  4.268358295555338
 9.660047479979092, 11.322629395763425, 110.578981442424293,  3.826891610988307
 5.106581485847355,  5.055731683695981, 78.986358504875710,  3.885590826420518
 9.042551816145826,  8.054325094465161,  9.168596945704882,  4.272310070468691
14.159229631745577,  3.315375486042417, 89.232956120364861,  4.012424453094992
15.046365904475651, 14.275545205890994, 29.105838440255564,  4.270925511296596
 9.650501386141139,  8.762831518599363, 26.573169129077765,  3.876826614007358
 3.706500086229414,  9.690458051886262, 62.912420759343938,  3.153882096732899
 9.986728017497306,  3.366085051886583, 111.363459172082770,  4.207486900008183
 3.842631339704498,  7.506892513129227, 112.457591503346876,  3.898238346856744
 1.276317605730046,  2.004776079108390, 93.585354931049650,  3.682063703234968
 1.753841433222105,  6.390351815222399, 19.944879375715068,  4.111594786022915
 7.552169394766127,  1.197068520444264, 54.655289430495742,  4.286218106651622
 3.672834875620716, 12.538365464245450, 60.458031969212456,  3.882800973823123
17.311059997955020,  5.206318134935151, 49.321574450581984,  4.202987664037529
 3.945704569363636,  6.878397472396108, 26.181991399503541,  3.843938725053490
12.262929219842237, 16.455101992061063, 65.552782971250664,  4.094233826310715
 5.009659142626854,  0.522534934801921, 92.836218255760741,  4.164677624857649
17.413098374481962, 18.202759722672663, 93.772263694861607,  4.127726637136692
14.701959995227906, 17.244929931592221, 55.059753754440251,  3.985965026561423
16.501570279954628, 15.386499375006174,  9.722946856100856,  3.944756275217873
18.763554501892052, 16.502597284692122, 25.218598424185210,  3.834877961765866
 9.534234179915419,  1.761099672636944, 39.672026347815269,  3.819849874020763
 0.819727097790588, 14.087679322599358, 50.327378551947540,  3.812058350224892
13.585144711995369,  6.824202118047652,  3.107405136682259,  3.663988723969895
14.540752808346552, 15.062403771256820, 73.477382424651864,  4.141846195079770
12.413558092182665, 10.982158721996448, 51.918343865558207,  4.323240667166681
18.589810955935111, 14.196070821329338, 105.235317924579320,  3.880041196951687
 6.069631107625375, 13.667621586011242, 102.885800471637253,  4.228418533754156
 8.112156639376000, 13.324609657765361, 17.348701704822265,  3.965011384482225
14.626809843545070, 14.947250552909477, 91.601888029667180,  3.969499025545921
18.799110183796564, 11.599067291292480, 116.261990906351869,  4.030552322448798
16.473569942069329, 13.512891143881376, 70.073129113426859,  4.274092268736115
 2.460943554752804, 17.201894787289799, 66.353806439253049,  3.657513548305622
12.923849703776048,  8.165794014622964, 38.978521780035464,  4.009031087596886
17.316044158138823,  3.867254997396876,  8.007808900881921,  4.328476775178749
13.829959467915236, 18.187035740005847, 29.954529854700763,  3.847214931112420
11.610449238925044,  5.361953325988434, 10.999108269588584,  3.921267614243092
 4.662088842284633,  0.635014365324618, 72.635750290813320,  4.333318361177755
14.220610841215388,  6.003631487858668, 117.654221351212826,  4.256017386436407
18.756060811719021,  0.808975360192667, 66.355348040195153,  3.596067811847663
15.513181073878512,  0.308916799858384,  9.330138789071698,  4.054662094729222
10.516965125123093, 13.342477804878342, 42.727830104172298,  3.844741071938131
14.931374515938039, 12.384083536170529, 37.778378638698833,  3.996825103067268
12.208956381112367, 12.826215895868790, 62.982697614094448,  4.075113735595928
 7.382911079293820,  7.613606830237662, 106.821790345632209,  4.149619706134045
 0.809888208899489, 15.407146944326890, 42.266447829816443,  4.383638916020852
 0.096507020489050, 12.531113552242186, 36.919503062955819,  4.251572901328294
 6.058540988953387, 14.008695071934934, 98.667201309748364,  4.198898444184518
 5.681579174058628,  6.753173694923993, 102.079429336896752,  4.170295599694752
13.060119710777840,  5.321529458364604, 48.826916656192090,  4.353166676247284
11.199654422116891, 14.287896258906944,  4.722683250112894,  4.247753568429198
15.760603685432782, 12.900445783356284, 25.164316005383778,  4.142052556038310
12.317100339170507, 12.415417818635529, 113.318330004696037,  3.364506289200378
 5.504535359625554,  1.992737126649392, 96.563071256777746,  3.791137423131324
 7.021235440454236, 11.876282727865812, 26.898544254593649,  4.154978771921413
10.234897216479748,  2.423897086470330, 87.754496878485071,  3.815618847807579
 3.042270200195754, 15.511160412216009, 72.376023149179815,  4.439990108233472
11.568666763919143,  1.789942480220950, 76.505210376871105,  4.058458694592024
17.637851208982458, 12.153822315459562, 40.777925248877011,  3.835018967021692
12.691447390958320,  9.986364564533238, 35.308846930136433,  4.170285471046579
10.460618786860930, 16.465530056680940, 61.682154488109070,  4.406906979976966
10.011449935570221,  9.511320498623139, 92.426729664520266,  4.252630129125265
 2.258577428769572,  4.498375838773631, 114.970063399343402,  4.390314418753026
17.833056104207895, 14.573138149922107, 100.517041150571600,  4.087544714213064
 3.529156146481461,  1.005159758533353, 59.538731061409301,  3.649052337190554
 1.345049055703105, 18.154038671920002, 51.986374960937397,  3.704925410856574
15.669846287663152,  3.582244490469585, 12.144826774176959,  4.124593552173261
11.708989174871945,  1.531723824866885, 62.486656456852451,  4.130484917325087
 0.120121990150018,  5.665516987373154, 107.209221119010081,  3.989979486018336
 8.702923298217593, 10.447363521240899, 81.400115418628644,  3.700112946026948
 1.764560721340063, 16.808222363984321, 58.508580250863645,  3.830537740367576
11.006491763794545, 17.965230225014928, 53.297718031410028,  4.303106706964873
 8.886718347875155,  2.376125107126583, 16.508438643797316,  4.097224845572734
 5.086133749552022, 16.988389337053132, 51.353980193121053,  4.207843733851210
11.305402016981301,  5.974255448232977, 34.747223755204693,  4.324687376714700
 7.367449354320309, 15.695164010329716, 72.157814264259073,  3.971569030316578
10.214320522787766,  1.289393192701402, 20.149996831173951,  3.919585486671986
 6.222138501086970, 11.180725950428108, 91.627898954517079,  4.153725133357582
 1.538671491977426,  3.629408899941752, 46.429400909419897,  4.115220863199278
 1.896596806284391, 14.570854307469233, 16.146808260925940,  4.156519563632393
11.326362143947769,  7.462316435362166, 58.232156149696948,  3.704323589303936
13.911246146689622, 12.552271706757551, 48.211962071340096,  4.254142052893702
 3.563256598732903, 13.811838296158225, 64.356703073572220,  4.197576227979082
13.309839106975087,  4.619763585067497, 74.277618236694622,  3.928249739613718
 4.323862233710774,  3.774025129746669, 49.331625344668680,  3.924995995595177
14.975901331662834, 13.311710832017022, 66.090528858926618,  4.188073097060784
14.882634142096579, 16.849775297846147, 25.811351522945799,  4.043314028849379
11.038711298765334,  8.718580177322769, 69.402444396529447,  3.906792328187503
17.140975913711550, 13.119675504015808,  1.009278097065124,  3.718597942383114
 6.043511797970347,  9.203825753354506, 48.843371474628690,  4.077148853349941
11.737264270918651,  9.196654116318896, 87.793297009869107,  3.760813081765907
17.096168534168410, 10.899834373307614, 102.338732954408883,  4.223036348343388
 8.972459843315097,  2.813833645507323, 12.477925364085792,  3.982953594057098
 5.047785453578610,  6.920025574768367, 39.672765432065859,  4.601296933551410
18.910646079699063,  8.179591634913434,  3.187213184496758,  4.256571252111820
12.641415134644133, 14.336207088861903, 69.068217507981458,  3.638586465113370
 5.768491082111740,  8.500366768309627, 35.678975266291118,  3.816346468251048
13.723238608734183, 14.027173274786907, 79.321625009741027,  4.267390688971202
14.176969104810674,  0.902649665130103,  1.222197199302768,  4.165019935957149
17.426916453193691, 16.342310758514596, 15.255689595471781,  3.730522260573175
 9.241333342532140, 12.711053042278285, 115.240216410118123,  3.895824959538041
 3.372480617693522, 18.248077505577221, 40.258090209925896,  4.202095195952289
16.286484473113198, 17.148811367451582, 77.058951948603791,  4.281962517558065
12.192079439740493, 18.531123098357305, 41.771810821348147,  4.213156630664049
12.124888396282568,  4.780164545186229, 18.869124526834707,  4.391278747151224
18.509883547378021,  0.954595732965258, 79.293352150854588,  4.080665869526113
 1.057184994559929,  4.499329622313417,  1.683772823551623,  3.964172840233575
15.986222675802511,  5.215222842459982, 109.902859015536478,  4.219832858212484
 5.782760313752652,  1.657226078799486, 67.039948159320673,  4.028920621747524
 6.331732238470700,  1.663522648664905, 45.972939256204803,  4.155715570738353
16.894149434340999, 11.485831596344019,  4.457823187198874,  3.893871563465158
16.022960868941610,  8.038109868752498, 24.334358085754911,  4.186782071805991
15.491094474580157,  4.580167947477154, 105.907547045850137,  3.919586194820348
15.733415079905161,  0.989645521901504, 63.244016873094729,  4.095166438597117
10.731155064828469, 13.894192256145260, 54.223227753516476,  3.827617655453494
15.445834485502070, 13.526886002792914, 13.702672408736001,  3.792474508913029
 7.303974600810534,  1.304197210021668, 50.184064903681545,  3.990360100525763
 6.586119966150316, 17.972118387554506, 106.535130642809861,  4.009525040432931
13.043288133686127, 10.425605723583438,  4.393036365758088,  4.041341703877261
16.583076363547601,  8.768136113572243, 65.880849756874568,  3.715374099837013
 1.316982684815321,  2.267183198962697, 56.073291288036877,  3.833879777766722
 7.240539062412418, 17.168172142182961, 81.657969107700254,  4.026657927360720
14.212222497088955, 18.945258395130793, 59.635706287158584,  3.974434812338334
 8.242949782566880, 17.325263273542429, 99.720092388051469,  3.953424351295100
11.487960426916199, 16.760040784815335, 101.869570957351385,  3.899366584193725
10.333633211552717,  9.973212314966634, 17.443812829258803,  3.979021223512334
 5.901177961184682, 11.001859083184218,  2.387441333604395,  4.126273262089395
16.927580247567978,  8.416915021104325, 96.159947502890702,  3.827894054203241
16.526520062715665, 18.420075097397806, 18.690646602894230,  4.319429161404951
 8.397590900399052,  4.697309724279672, 28.578834878182757,  3.836529909890797
 8.786263388034822, 15.244029664654343, 51.098533209574562,  3.980714505180342
15.151300311815069,  0.398074903405541,  5.162714076276924,  3.966657843668314
 2.834365205905591,  6.689898994822676, 12.815660915072193,  4.077237874868748
12.379649441924352,  7.548027944775268, 42.758709016452606,  3.703865370573023
 6.890741453518481,  1.090883931844386, 85.968035704436616,  4.095123210722233
12.148957576853977, 16.674279982277241, 76.447000674809289,  4.132877424799726
15.095563192090793,  4.495730825300125, 45.082435743935406,  4.303597842456295
 9.361499201913247,  8.768884412448314, 37.205612324223573,  3.833504777229340
10.926642530062766,  5.648228304583107, 62.179953219572759,  4.269527840914342
15.896239653059661,  7.909115391014208,  6.174494510341841,  4.246099212962586
16.498835473102172, 14.771332937853751, 108.574308226677076,  4.070028609282781
 2.813937759042424,  6.205552155378952, 63.277448797250969,  3.985385509233383
14.469703094803934, 12.876895756344798,  7.095769198093947,  3.787694312201282
 8.663501050409939,  6.855665489175021, 13.282980584314835,  4.033787128747333
 2.520839676067433, 11.233883461286144, 48.053126530222727,  4.152518803840803
 7.937206832855013,  6.560372983364315, 59.597960268166688,  3.821079042231603
 2.720451208921501,  7.918707566477553, 80.394475579049285,  4.028911616726877
15.315816248006039, 12.996150341301266, 94.835194198925734,  3.653752912848696
 6.419372199234457,  6.285422191110808,  6.360446622506231,  4.145096109331763
 5.588511610728697,  5.791163842084512, 32.754587544539469,  4.034544672717821
 1.249940521208098,  4.812803508386797, 70.246973989691966,  4.054025516355813
 8.933797993805641,  3.827097132521200, 32.249109448863692,  3.753886551523208
 9.814106805588192,  0.094036289333990, 108.800577680322974,  4.029405434690090
 2.247558309061017, 17.583716716059623, 95.279087425758803,  4.082369208123300
15.364275371820684,  6.506151694908326, 35.991561620978779,  4.214246678293770
 4.050432659129592, 18.165941520652442, 98.714438299611075,  3.757709490256502
16.733597458550687,  8.361740491551062, 57.451918222592568,  3.712449159961936
10.202726515485992, 18.229532925451736, 94.133119890144584,  3.880499016220754
15.034039721259086, 15.874298860498495, 62.383933550129029,  4.314290294660335
 6.519988411268398,  7.486475884579506, 63.055183041893784,  3.867138666508525
 8.413914313944243, 15.030688085000623, 77.405450268038493,  4.227600361209985
15.517179956514434,  9.550066066242996,  1.104608300311812,  4.123786555086868
 5.492648384279323, 12.891844326442824, 50.604073331952144,  4.147009032097791
 8.812414549830144, 16.205497920497756, 87.150978486373290,  4.537395355518678
18.058909204649467, 11.048348859222253, 109.512875900147847,  4.205498360826387
 1.138969533451886,  7.629299126136678, 66.592177774977202,  3.759352619856360
16.578914504699288,  1.223691739974267, 97.162074994093217,  3.831690911344857
 2.624435673515578,  1.001098023312478, 102.089246382298541,  4.331705027028093
15.612963192979429,  8.811247566355609, 88.532551032625889,  4.034631858581881
 7.202214979673910, 18.300799300084801,  5.645943012374462,  3.994426245821339
12.841245541652015, 14.929101825915920, 40.159005230464331,  3.729877195228353
 3.334926020100359,  4.056328472819971, 91.186712825613967,  3.853282434894521
11.429877912247109, 13.168495789150388, 19.825810470527070,  4.282873821683402
 3.234689947772176, 15.982035574454537, 105.114121708122639,  4.108841610212132
13.937643363915772, 16.760636062450970, 12.322082320854440,  3.855698124266606
 5.608923481079906,  6.839043885191758, 115.870522056198155,  3.902685701657928
 1.607432116603708,  8.489630751236730, 94.496740231950199,  4.146303584418312
 7.520973890671331,  7.870401342539541, 42.985474627935339,  3.865571069353722
14.057187943074121, 15.638606609902105, 113.017348944622242,  3.939018381563379
 7.335763327829130,  4.602607551827406, 52.378797898797309,  3.911672206362399
13.276340991508897,  8.753643385713474, 79.296569854068295,  3.846151543325953
 5.253308094894718, 14.482843137538215, 40.428905341033470,  4.176566721282162
 3.768379406907244, 10.429337132154364, 66.610534586255028,  3.913882360280214
17.430377974009673, 15.453044324659473, 96.694168290245941,  3.797481596531117
15.284830949822883, 16.291457049024956, 37.293479146452029,  3.857036479681740
13.089003235103757,  5.080178098823613, 78.151515455880457,  3.856251797010449
14.714926876342723,  1.119717223647877, 38.860215831604769,  4.079738846577001
12.185899781898122,  4.009301541936319, 38.160155988523435,  3.722768134129320
 0.088483288768393,  5.479170634006562, 26.959064364952930,  4.372660197501379
15.703343868152658,  1.152028659228385, 42.901815118688582,  3.750030696006196
11.076923207658632,  2.543418806819760, 80.879235269282049,  4.006230486982206
 0.201900589703269, 11.864087061486652, 23.359677649641135,  3.755972544659570
12.223155464220094,  1.428273590440701,  7.510808929910852,  3.780371948973227
13.853010575910579,  9.551521123350740, 93.843550245460790,  3.868667975832552
16.029575659140196, 12.886421861985358, 33.974859920925475,  3.922652354409792
16.556460263665596,  4.568229498451577,  3.935292741814459,  3.890121274238062
 0.200910106337946, 13.910360835544120, 12.416631067614409,  4.054541733189621
12.968448203447435, 11.778154810760096, 31.644534885053165,  3.781236469946552
17.438944387340250,  7.802461168515949, 69.657066822760513,  4.142949742656572
10.908274998115369, 12.422584352801241, 38.023755089368443,  3.872572200134346
 0.003636706009520, 17.289275144227972, 63.287266099054101,  4.189679553863426
14.342167406281884,  8.949813267684101, 110.839579489962290,  4.126323686857909
 7.069234487424941, 14.151263010714320, 13.724634674473988,  3.647139138450858
 1.754321942968921, 11.581228607358332, 71.741051129059784,  3.766197776972901
 0.799420318422701, 10.713513777133659, 44.153287667128822,  4.413271235258119
16.937077638055158, 16.935724897188944,  0.350180758276032,  4.006762424212791
15.400057137554928,  1.439177866655828, 103.754297709811013,  3.675691367803361
 6.951351533365188, 11.489961591823908, 20.532482322898758,  3.733106066770730
11.118556278742485,  2.110369235242686, 72.293228357078604,  3.818794728411417
 6.099808110519506,  2.259354803539643, 34.571073058833591,  3.970703879970575
16.356336623112124,  2.340936843189948, 75.738139907785666,  4.209654686405149
18.876368585040275, 14.391052375479966, 66.111035481171001,  3.897312394916963
 4.750846450455028,  3.993229935876239, 84.172167800585385,  3.901026301394290
14.690184728211129, 13.090487715801364, 54.977190969323019,  4.300131234146511
18.163419545761201, 17.628571473015764, 103.195636027028868,  4.055812102236246
13.337478743656305, 12.820606770186782, 109.902890435843588,  3.806179344535191
15.998502462308213, 11.972770581423836, 58.817481212515780,  4.115219863029834
10.017282373633099,  8.142086676842037, 84.320716718443421,  4.177354026462231
13.289915648704557,  7.421351478036113, 97.061472293077003,  3.913303905678099
10.032023130427389, 17.745222581195808, 23.268673259436031,  4.017563140042860
13.516840322142258, 11.361559685198685, 41.305539664794686,  3.873783128353076
15.393234974750600,  4.541589593148998, 98.472805573289619,  3.666615976342997
 3.317279858474829,  7.629783866318760, 84.281375540100498,  3.843917397235482
 2.733717821242388, 13.987256007948194, 68.634946489816073,  3.643470464487027
10.063639350744225, 12.221929738826178, 85.570404155649413,  4.346926113901822
 0.100351096346341, 18.140091759371018, 99.318871483284468,  3.815157371224339
16.971883134593732, 10.912174477946669, 91.761876042228778,  4.089404876221198
 1.766754353731819,  2.004753941320170, 97.339810271611199,  3.815162176156479
16.140708958197393,  1.431403508593762, 56.626775142243112,  3.577586717054905
10.450931494080168, 11.326871570905491, 77.895738795702670,  4.261117026828756
 0.551791795486673, 10.904869485619651, 64.244787116695832,  4.100050700506100
15.638499828422599,  9.647021241155215, 13.582151522326729,  3.852160132780758
11.492302461898964, 13.324707517432451, 93.408174050426808,  3.956860174774763
16.973870793167233, 17.626686643370000, 89.660192517426225,  4.135414922514134
 2.654662524247320,  4.136254817310347, 66.614173604259875,  3.845091577959346
 8.833270975811715,  0.995732513376466, 103.851564116377560,  4.020492985112102
 1.708714628769119, 17.828066781970790, 18.759428359705268,  4.013247416157727
 4.777673581877119,  5.220983985435637, 22.589806067131825,  4.220606378157947
 3.994924133028269, 11.310045175313775, 96.326644926761944,  4.007289634427443
 2.223563863283009, 16.587654631565346, 29.662351130815811,  3.935627157991105
15.857807635089472, 11.307848657382143, 62.740795823916926,  3.809415035195773
 6.203379198570282,  4.242469134094581, 112.883213140127225,  4.087331708624577
 3.525372392632304,  4.385976800303260, 99.715085153294282,  3.750672355445301
16.345456720847224, 15.791511647941729, 22.182849007945624,  4.005485786976358
 2.206420058235088, 15.437114548933907,  9.434051546132174,  3.751878790522138
 0.899147647708987,  2.312717854533746, 73.471516839219021,  4.071381584281320
 3.392984709304042,  8.165852409218820, 69.690095799953454,  3.712785049916163
 7.825122515119521, 15.469651519821136, 20.920623914492385,  3.812738906828534
 1.674994065318493,  4.774603232650355, 102.933369294935289,  3.626990540899310
 4.251712454438002, 14.384939365740932, 93.685587881978009,  4.094122300791635
15.242213442793281, 12.443742979713445, 85.054071675244828,  4.004688346367710
 1.734652295010382,  0.392432114453570,  8.949509124809394,  4.134512631049195
10.750119329176181, 13.482968583512850, 74.389871183395300,  3.947337353990348
 6.248828007517707,  8.082784643576383, 94.804130295985345,  4.128650901281071
 6.614505057933082, 13.745432293760659, 83.688844142436395,  4.009148027816395
 3.221005657285436,  1.264110632522807, 63.623550769625488,  4.524376768615230
 4.459048687421563, 14.842125950536030, 32.740163609315090,  4.351159854510912
 2.260340992748705,  6.915423057788584, 55.997180147337140,  4.185827738258665
18.044469586045853,  1.152280241579804,  2.530810981323828,  3.970210014191900
 8.163187810535504,  9.997639701796931, 103.130838500324145,  4.206750482662116
17.106297341790441,  1.653377017949349, 47.292983865641595,  3.862463575419442
 4.182739452648701,  9.112451728395396, 87.852117394103132,  3.750230293262273
10.049396314323946,  2.643649117628965, 47.494606338038075,  4.104100208828648
 7.957336394655173,  9.355983008029508, 88.468585898710955,  3.892916882416748
15.010698369586050,  7.224115195005641, 10.576028138793305,  3.861814496550582
15.346089771593466,  8.047947555252929, 100.215720280431455,  3.697518422587576
 7.554384823459946,  7.226449498853173,  2.483160423657501,  4.056365004037849
13.106771076900788, 18.532542317630110, 87.833357661066159,  4.226664897558463
 9.207451034907336, 11.631303208682310, 30.415916950229114,  4.122073264361442
11.009025894679466,  8.903280622154568, 113.308620125166740,  3.932040330629157
 1.676213289404838,  1.762254439869111, 28.821180579678458,  4.490627788324884
 3.049274918257750,  2.324746431342350, 111.636663815249904,  3.694790671127532
 4.748975486200806,  1.288767614369435, 115.077340132470297,  3.708018423306763
 3.728658108985761, 12.071287251764039, 13.498066324771958,  3.975404527651610
16.788369463557224,  3.057629840553575, 92.225636368088146,  3.955506825574509
 8.045876686460153, 11.966662535693754, 95.414769099017533,  4.387090104655008
 8.086273636809606,  3.579136802232542, 107.550207441421691,  4.128148363744073
13.987119937472167,  5.364166822216037, 82.038761023436436,  4.132774495339251
 2.321856102761293,  3.289663697115233, 81.142692600900460,  3.978610273120048
 5.164923816150988,  7.821901381371575, 15.761499491287122,  3.346255143357456
 2.308841078364800, 11.612748801564189,  9.737789154017870,  3.895529165890377
18.339779172174712, 14.389203451787250, 53.802832819239185,  3.713374537937356
 9.226827144206645,  4.583529501142115, 101.997626131377388,  4.082410281623563
 3.732581127122841, 10.851591032607709, 56.706099799241613,  4.302708621107770
 7.504297849394360,  0.617985074943608, 62.143219868752006,  4.151224908365829
15.822879377913745, 18.550742658265637, 115.194775909262830,  4.142557448164430
11.882259078198349,  9.166538535178598, 12.356895266989472,  4.093589996221708
10.511416066059981,  2.828560937687758, 92.203567362096962,  4.189777376522250
 8.404040316529526,  7.068726078458422, 110.691811672889557,  3.910372626641001
13.427090956656732,  2.177334633126157, 108.644545888489105,  4.085895880730645
17.384838123690535,  4.940562610494868, 55.752903376164490,  4.031935677629429
13.521995411772330,  9.460320585890331, 56.060245173220409,  3.622951496904777
 9.113021189645771,  2.387167385338818, 95.899951715574275,  3.569273055730717
 0.024968772839473,  8.880048465893859, 113.058112251490058,  4.298538036811074
18.873629637055291, 10.291499196617009, 54.823064676296276,  4.087700798203135
 0.747864564213449,  3.153465585717329, 12.707311017866724,  4.016099379768314
 4.733633376967206,  5.312546174440054, 109.219279956635916,  4.080911304604929
 4.616258101378096, 16.703220243584298, 86.390103314509147,  4.010867608452158
 1.112120254798176,  7.896855937593052, 23.661761179373375,  4.000268636002044
 8.634045767774065,  1.358740196773859, 114.874272782924393,  4.057133461415289
10.877655589712683,  2.866114883513702, 51.547624300643974,  4.143134258808114
 0.077042888569909,  8.762977226478112, 50.888283671931944,  4.272673420736326
 9.022021379369653, 10.215214584803633,  4.931730726278576,  4.066629419199502
 3.595316927260452, 12.730639643251035,  5.904480205362702,  4.174150592399725
10.763709530037156,  0.009674512655153, 57.404073321814664,  4.147285261659691
 9.553216044312213, 12.675258252871329, 70.653113419216794,  4.053613858581396
18.323710882007688, 18.361109247913330, 12.100760953492815,  3.931436052058949
 2.398191402707221,  8.628309352389884, 108.906010321477893,  4.042015128105140
 2.097834414232409, 12.460219708790545, 102.656097338174149,  4.014771638172415
18.806154191275226,  0.001876399648161, 22.094889882655387,  3.932180459650463
12.879475690648176, 17.148169668390711, 20.422605938967710,  4.107066655680949
 8.122829278256168,  0.157565019095179, 90.213176566784355,  4.001398165386996
 5.769821806733777,  1.944726948091972, 76.461545746204465,  4.048053029141213
13.923727051191580,  3.973618172500597, 70.301001488118601,  3.914716471161702
11.242684721701911, 15.212248122785764, 30.625990867345557,  4.118423313919636
 7.543657137951202, 14.253676772953138, 37.059146366103384,  3.956041960055026
 9.675038077872648,  4.794158430273709, 55.744085412280789,  4.293511104874082
 9.553336413768680,  5.505100837092693, 115.391186578263699,  4.464819041863657
13.717463320995243,  3.269237164947989, 95.001859064528006,  4.325363508482841
 8.103691633401247,  9.044622456321356, 52.397936444068542,  4.143588166098272
11.708491510889848,  3.656195516411497, 42.673602975900032,  4.164909914648831
 5.224637032953446,  3.177295445189766, 26.117362105185169,  3.981432270902649
 7.496834741362893, 10.433756947283987, 14.701870103014413,  3.960622921532658
14.810807179531004,  8.210477358071437, 32.153717468421753,  4.214921245697136
18.745278772601196,  6.338803612676062, 76.102093232760950,  4.036019501568054
12.032991199699236, 16.240950015604898,  0.770273009263512,  4.199014156756754
 7.230502136013346,  6.703431141373792, 74.716253649364575,  3.665242059070026
 5.457505474773224, 10.754599385691712, 32.450769937900965,  4.060738482425263
18.698775100605641,  3.691185298228813, 63.152449627145273,  3.929083839429122
 2.965670278974237, 16.914179417335806, 12.967412758320073,  3.964971143886294
 3.320886687470184,  4.865226865195659, 95.136531225954471,  3.959043647090843
11.644653940007020,  6.839748162531598, 52.574568495904025,  4.199161584265930
 3.638062570224564,  7.699319334751993, 97.855162560468358,  3.842999893101706
 0.916073123772858,  2.951965924195124, 85.275509944684956,  4.267355007437598
 4.838906161236646, 16.460935257393384, 109.877323417249485,  4.008380711539764
13.574944184279447, 15.914735358712100, 16.416266316147446,  4.324609389784800
 1.151228223024984,  7.887025319088247, 72.736321619635618,  3.847682187453148
15.511365402136711, 11.937779456145281, 105.910916758378377,  3.856276362504311
 7.415942276626196, 18.294882899223051, 37.079740970611887,  4.130420665115867
11.111619996406430, 18.655818608545005, 14.340801452421267,  4.044040707965398
12.379627679023240, 10.349153526201928, 23.834507202855679,  4.441499012616736
 3.434970579527737,  1.523247314985201, 21.344044777746248,  3.979901430219764
 3.974011632427427, 16.105096484561976, 36.787079447056612,  4.037917664783357
10.643583092513374,  4.994900066151449,  1.100265255451207,  4.045192251443665
15.286736271629813, 18.407598467618183, 100.438396728960754,  4.008556235407112
 1.312581261056485, 15.241664615225988, 21.879924695707370,  3.900740479052638
14.577270817638286,  4.856244934319498, 102.119695943997968,  3.827666033852883
14.908694159491876,  5.162145790513834, 63.719740801734773,  4.266735710819140
11.490675697586179,  0.069658820957449, 97.935533085895329,  4.172170510339000
16.275756855351101,  3.922248734993390, 16.433664018891015,  4.287362112451996
 4.512677770372757, 14.932573977879347,  2.501358907174616,  4.120339052813039
 1.024502133067350, 18.625081687419051, 116.518355042903451,  4.194869271733018
12.570782575346637, 16.346306512445324,  8.312773038919829,  4.455102573239681
 5.574035740927290,  7.246760262240066, 90.909042532146003,  3.930355752810529
 6.179437624013668, 14.088847654710316, 107.046482470578681,  3.826398277589390
 7.195161923610730, 13.879394858244074, 61.421457312180742,  3.867790979920346
 5.124351096566139, 13.325598269496068, 23.411707580273731,  3.883046746467174
 2.410830040456198,  1.130438103000064, 69.138111473328848,  3.965721438039362
17.529913596283578,  8.945654632951966, 79.404647064371758,  4.667667301127187
11.391431390864186,  7.582019960894869, 29.921407579256382,  3.977726734398213
 5.829517833260049,  6.592379668137109, 66.955200817417236,  4.210317361284353
 0.556359832205626, 14.315556955535243, 111.400764299510570,  3.813835805562100
 3.442878732380883,  2.187320061041979, 118.365438569203846,  3.500063678337235
 5.473726206070658, 17.684578050377652,  9.378653246208986,  4.070016318384287
 9.615653023728417, 12.813018587442011, 89.813489099718041,  4.205829288217566
 4.372378245594158, 14.468213801614016, 19.729459761132549,  3.688578668377078
 0.072121915222632, 14.027366206513282, 46.512513506414074,  3.847412859991364
11.609081616471462,  3.635037211228938, 105.254296372071053,  4.117924805238704
11.897837588957970,  0.132544295702144, 112.442679224345625,  3.604191841000707
 3.642640337553075,  7.697696949174563,  0.991030302964908,  4.349970887460403
 0.765545122558945,  7.529900801153930, 40.640781787167477,  3.858689152366177
15.915731413929526,  7.920313548685881, 53.630162339865606,  3.843334577250039
 5.229254729887883, 16.964485757236815, 75.784895857507820,  3.866438378141950
12.378993264075897,  3.774713619720900, 14.689675869770181,  4.201224794032035
 5.409122443456688, 18.494394113093694, 27.999622654504513,  4.187998900969321
 6.445355325434869,  7.601246185871750, 55.985577034235874,  4.254699579121294
 3.345690380366766,  0.044470651184788, 48.202206784632757,  3.932767575313900
 3.735987665951330, 10.379083302592724, 116.013766014711251,  4.105722587982081
 9.058893833194420,  6.524437939519532, 49.316962879540242,  4.034589164458942
 8.616164559511992,  6.329722999981088, 17.229995325124463,  3.929912288157245
 9.633728744814862, 18.546507769787162, 44.923449251591954,  3.899892153262959
 7.741080487637464,  3.411358937524327, 73.207563860269829,  3.575664202956950
 3.896252009371728,  0.915652086626372, 15.993257407474250,  3.974311142671071
 2.062026581177347,  8.499986770010795, 102.459749569241794,  3.896844805972756
15.270040651555016,  4.263228611083783, 24.977060721466646,  3.618263486343892
18.542990430027917,  0.946025400506169, 40.227699045960662,  3.995991354815429
 8.638946646969782, 18.805799585849901, 74.406931648412268,  4.096992439868428
14.883256844097758,  1.265973584697373, 22.441874557467155,  4.252173723456351
 7.216177215141395,  5.456808749023740, 98.150429586771438,  4.544297174514463
 9.662873017178514, 12.618575465463460,  1.057802215228635,  4.351502368263240
 2.087750363543710,  3.674212898753980, 32.954905684192887,  4.156168489609503
 2.064177871039575,  3.263910675980207, 77.184523524145121,  3.902712492146013
 8.503438095020297, 15.401253037078206, 33.488825577152419,  3.755252188082555
 3.034370062160795,  5.861443450962295, 29.764707314551618,  3.798599686095453
 0.808104758656205,  2.226280889321799, 49.938584347373158,  3.558849519529681
 5.881663952500225, 17.654238001702389, 102.735014163960884,  3.721793053846095
10.342906192889103,  6.519927667007196, 80.598703275179446,  3.968481234428020
17.580162573548886,  6.920737009668920, 103.501561671491530,  3.887422270914336
 8.059081889414356, 15.114052842578838, 92.747510266078180,  3.848423030472166
10.937034189857197,  8.824789709530190,  1.587272694248440,  3.617239869004785
10.340371129648789, 14.330525204873444, 46.869085529871519,  4.148078536579699
12.169404464916550,  1.733386713071376, 101.671280425820527,  4.017952122137790
 0.052748559950613,  2.102176630774106, 105.270178602088308,  4.100231099628976
 1.972845127799681, 17.725470809661189, 112.291453965129804,  3.781807424792051
18.568045572690963, 17.803140473190791, 55.468827231552083,  3.868265295776617
 0.539074606613786,  9.605318907335027,  6.931109728949499,  3.831224232620086
14.577298452667893,  1.624604919385284, 67.097347696589921,  4.020146771441611
11.741523906275662,  9.183157534699463, 48.343175079392658,  3.755947668980418
 0.290488088166601, 11.122817837225455, 68.231992122969899,  3.884100649299050
 9.252318632459559,  4.032799176855223, 84.251009720784893,  4.111055545130903
15.507010925387460, 16.895183751446101, 33.340204504966103,  4.066324799067429
13.367237915109431,  5.058148082399473,  7.530458110264403,  3.827961527791304
17.403974033253519,  0.320361369170979, 36.014539330278055,  3.871747699704373
17.493598985230225,  5.330201148588861, 89.176658868910991,  3.776096748712687
 5.271386727697614,  4.113957546780483, 70.245669356279478,  4.098496364933014
 5.404277809369537,  2.941430166490422, 30.112043419807346,  3.740476448158207
13.892058934535962, 10.271423261044328, 27.957158778539327,  4.341728657654323
10.296901021397673,  5.921737921406129, 72.111135551333646,  3.899634475561077
 6.194855804801348,  5.871361933506086, 46.312902558679760,  4.288655328428412
16.069784930002260,  4.963822815621075, 85.542948773670787,  3.998552846029185
14.261790116847790,  8.516945924819311, 84.697014738302073,  4.111360109687626
 4.909194614599115,  9.873485988856570, 45.163029850306813,  3.696750776287144
 3.287121327824476, 14.186958854553620, 53.823650105681423,  4.070375277039751
18.853464185119261,  7.232831803441209,  9.943599357333820,  3.925975901867693
 9.726091819789156, 16.997421673982970, 17.785936622691477,  4.088079029191335
10.954911486916430,  7.617270463198571, 75.785940763459578,  4.257982020631117
 6.483442397065003, 10.851409835786585,  7.843460311134566,  3.710720513277811
 9.162453843890205, 11.756951875186321, 34.497048601551391,  3.891395443758467
11.092455852840917, 16.497298259235301, 90.736910117467488,  3.926409989211981
18.173808248339288, 15.266303260341228, 114.889294769130302,  3.885623812742737
 1.725959607642165, 17.693094226662634, 91.297552703217619,  3.910613915286126
 4.338438142097837, 11.045279102235286, 77.812946982163425,  4.078821374584762
12.249644768532551,  5.515735037605050, 86.514228115458053,  3.956029508670333
 5.002823675729895,  3.692317804524865, 57.020461176125082,  4.270871440560141
 6.757064844507975, 10.946306204789272, 38.892646624570560,  3.742223893886317
 1.568028554541350,  7.596389341210642, 90.425010134795826,  4.156040705251595
 0.015248840701676, 12.125870813158425, 95.356042633827599,  3.910043488811181
12.484362563847601, 14.616586153509081, 23.518432410920521,  3.920557691069912
 6.711256447144844, 12.725909710418060, 46.805838070933142,  3.749891064255322
16.751143786540229, 10.849208186542965,  9.784460637164814,  4.331543011425085
 0.516157955074299, 13.350273206088964, 57.315026890522745,  3.884593670296402
 7.087047004755117, 18.150841886479821, 13.220212867477118,  4.294870312676962
 4.795230036183460, 14.775172947312100, 79.468970898476854,  4.083397153471579
 6.173546630241026, 17.010724220175653, 65.129523188255860,  4.124098848286354
 9.949686097409215,  9.960045088448078, 40.866927189787603,  3.812900843213376
10.189697936713253,  6.092903898071036, 45.483951449657042,  3.812689829326271
17.623507629895826, 17.819952530260224, 73.106056284483515,  4.147260895884924
12.987710569945484,  0.973704000280593, 17.507248490547308,  3.714752987549070
12.281609924794484, 14.456244741747017, 34.729476412023907,  4.296308050514615
 6.464991582989629, 17.220104468916251, 113.418132829163795,  3.929502739646193
 2.027048493249086,  4.617900098078112, 16.167830813273845,  3.894741762531011
17.658407189309614,  1.313716549312260, 25.698185133205840,  4.057135702648849
11.309272672074862, 11.621958416481908, 66.724424430646010,  3.978212084287100
 8.959482266466237, 14.149766604393939, 64.863200137556674,  3.863242377981868
 8.483443036062454,  2.806725774127717, 59.005003015072873,  3.705021181217020
 8.500327380151555,  9.278406514250527, 117.103342134930386,  3.974346262033648
 1.523141740016282,  8.617198072286808, 16.440913937209181,  4.173031231997512
13.091581250957963, 11.490655359954333, 71.976948597284334,  3.858541243043029
15.306281890314525,  0.473453100095008, 14.647882292403258,  3.712503094284267
16.963235712073178, 17.756708344123609, 111.270887144534058,  4.027835335802088
 8.643867819822821,  9.532394913293963, 98.927710999963892,  4.216337316107623
 7.426983080094535,  8.312549986617812, 78.319659912177769,  4.213970223016084
 0.818791941684537, 10.158133983911386, 75.873669818766558,  3.845018966535498
 1.935916871847348,  4.048635167348862, 39.256967729124050,  3.886793497460837
 9.737431234449266,  9.662958361677319, 62.256829433648356,  4.052882301977733
16.833460864984744, 16.063086741876567, 58.596682183301660,  4.064061791651533
17.624891560195600,  9.178160331896764, 20.612134492262872,  4.210352112801813
 3.411574665508159, 15.578260215855494, 26.125999477139619,  3.780242325308221
10.936247196012616, 13.231214162945651, 27.030146745191079,  4.105707683704855
 0.129734921539388,  7.249455012194201, 86.354412174596618,  3.701189666185058
 2.534925456617656, 16.006254703865675, 101.316103271697060,  3.608496244151338
 4.763547867081330, 17.200358595145303, 117.483791845521296,  4.013731277426453
 0.101819756419144, 16.756824270388602, 69.404819442701196,  4.044201114751632
 4.579144291603679, 11.282196083425315, 17.398612160084671,  4.138417789108494
 3.191856031936600, 10.751614294435395, 25.783471357620915,  4.075489232640877
 1.943308550669129, 14.514633729736795, 88.679760830597260,  4.272720834362763
 6.568393689162014,  8.974766623143621, 23.780883076328632,  4.393121116561166
 0.380682624692227,  0.540909952497937, 44.107448053347483,  3.885786945516334
18.680113622854705,  1.713254459869567, 113.307102573493495,  3.795010222153789
 5.715060928544387,  4.284634325172203, 14.545229385131980,  4.182949321205661
 8.680963082747189, 16.430201557433339, 116.732882330016480,  4.108146751157649
 8.793284995040956,  9.696580207025507, 46.075811136655787,  3.735046915255121
 0.929808449994366, 16.074582723214252, 79.509816600123898,  4.046539475172913
11.097616859844459, 18.447261213720608,  4.226931835236583,  4.129353385065023
 6.852612853267210,  6.510584393580263, 86.158547984268239,  3.758341398844999
 7.849364226400506, 18.911399766952055, 31.510432151708613,  4.403642010823687
18.340221887778188, 10.174569471549887, 83.592981659153764,  4.201200383380319
 6.727476606313575, 17.189239221647423, 95.928298565717000,  4.187410485324663
12.326060288147819,  3.576865269019486, 58.785235053132347,  4.111676789057877
12.528916876359546, 15.294290869251901, 83.805578931676465,  4.177285206111829
 0.265484799329936,  2.651160779647148, 19.135152895262557,  4.044992355907361
13.309865440623982, 17.152624490929355, 109.424790866976338,  3.999174946388344
 5.407850249812510,  3.994337753998047, 61.172095386417112,  4.018280401634187
16.106297154909630, 11.585849931618254, 98.328226364324763,  4.023995148606017
14.853333979683681, 17.520058512357938, 69.924927702753294,  4.299230518539586
 5.681004619099576,  9.336113344669256, 11.365978870061378,  3.943233365388685
 7.267315985705237, 10.551726466494527, 59.071402191833791,  4.129283035241407
 2.455280867897502, 18.250424730269405,  2.120351228555529,  3.712158340320661
 9.123077672747138, 11.642853004650947, 49.565089743715859,  3.807283973735636
16.092550202600297,  8.301144215071735, 107.215123070171970,  3.947612196870689
11.026771979198809, 12.645813030479646, 14.504910233401448,  4.052274008622041
16.130728366812416, 12.119538247321723, 113.109863607408599,  4.224483810806464
11.675487921065761, 18.318289842200649, 33.256728873927493,  4.039440531199298
 9.298548389543068,  0.010650417790320,  9.651538027026364,  3.995583185728123
 3.932306520675855, 17.533718351245895, 44.428431241352591,  4.193664989105693
 6.848961567264469, 13.655957035974128, 111.844887498520535,  3.875610492175299
 6.517128680575747,  0.184825140493487, 19.126114809226983,  4.059244937226873
 3.467398746786312,  7.468298633930478, 76.571607853180950,  3.674677012023675
17.593483958815735,  1.739144305278350, 53.017920601660812,  3.941778350171590
14.712668824461655, 14.342757123675977, 116.698026071182980,  3.968966709273614
14.193395317608623, 11.421636749650512, 16.958864584213575,  4.302489224830960
 6.477847514159218,  1.912276781809741, 100.544725724469416,  4.092612062194914
13.167730694523044, 15.599875460806938, 44.333508167208045,  3.812510802192952
 4.168674958245648, 12.100939362233701, 36.082880160817240,  4.092608390105372
12.072616785979925, 11.427196908508655, 97.091791480529096,  4.392469554009268
16.525062173933364,  1.341058954626185, 86.799304678787351,  3.715645771991070
 0.186763558020916, 16.469911555022971, 38.215965413569933,  4.022254990087422
 0.500187225883377,  9.906869809273751, 12.731945169454626,  3.870576877874506
11.536195579221411,  0.429683463865315, 68.991286051851347,  3.520664412695933
 9.611562187232209,  6.130303507883309, 40.128427148768409,  4.011369649017183
 6.634861189807075,  6.938981586377699, 82.182784043289047,  4.114680764938987
16.547390041361972, 12.044667737033281, 51.356782219389366,  3.951164713407806
 1.521434717281430, 11.989087757216529, 80.500766697935362,  3.856518780494085
 9.749425400567826,  7.420588580861830, 65.817992092509385,  4.114242163707847
 5.716169600184005,  2.565946242069133, 39.041423319992511,  4.072248249955982
15.332887723540901, 15.335273527556685,  3.919475408942530,  4.426976486941194
 0.047486667601459,  6.481762749707740, 99.462210316288392,  4.361886492953063
 8.602185741024595,  0.002630351097474, 78.397318563103383,  3.832662559749105
 7.057591634319020, 11.684439373976744, 42.658824981734817,  3.808317432685342
12.625209985558641,  6.189135523097824, 22.889493776182800,  4.051223694501101
12.482901767416125, 10.664542380514105, 116.772656729156992,  4.352665745127677
17.324213266078910,  3.025739212663864, 117.273769390698121,  4.358396825600991
 6.978328592224251,  7.743279290020959, 71.037132351139746,  3.968430922758992
 8.639597602171298,  8.339452777901963, 32.676917078080940,  3.917175563379172
 0.523797374550219, 14.725110179807318,  3.637925917188663,  3.861984337164760
 6.774297013098873,  4.221043223083416, 93.226277431828294,  4.035265361931690
18.872235130739732, 13.613156019664441, 85.392269632587045,  3.606172885207253
12.962304565497297, 14.349315403820984, 87.843302962026641,  4.143684235121975
 1.452979336885870, 18.201908628911998, 76.102056289592241,  4.052142495681040
16.153099310005498, 16.463817416881934, 85.678259787963370,  4.287499676263133
 3.589544770834755, 15.105060210346716, 47.840244452723496,  3.885889944418136
10.133483578891308, 15.589724343996629, 11.800627577930531,  4.139070118024551
 5.126166142155133,  3.992542304974278, 18.631063883851617,  4.079017940413757
13.463523057318799,  1.476822049971729, 26.663564282716834,  3.820030098749018
 3.862457758173347,  5.157015349902002, 36.130942406104637,  3.625462627679447
 9.064478372255913, 16.169286171496900, 40.301468215215188,  4.144228886858525
 6.981951276401378,  2.299325126506257, 81.249358755599644,  4.172694787748168
 3.485154115584753,  1.566706460509324, 107.677755190250451,  4.327674212546436
 1.054101083484261, 10.605955718038160, 99.059377078918445,  4.136802710893664
 7.679109626317747,  5.223913232052842, 36.717832913517746,  4.001311280056045
 5.215504193012520,  2.372748382495848,  7.533062869724976,  4.086471721490565
12.621353210665818,  2.358180097922194, 115.928765699136633,  4.354977042613166
18.802591753068675, 13.371006260481293,  7.272527036930392,  3.852876616065474
 6.432215844465909,  1.042095873075336, 110.566830283504203,  3.824496710470169
 9.641914761245070, 14.965138619891524, 108.975744823945007,  4.129247967993167
12.962913790573543,  2.207823121901873, 54.901211076439530,  3.808509760503230
14.042114018273393,  2.424503655565345, 34.892209884092331,  4.334701157282777
17.491128294960031, 17.656844040185913, 28.729828941164783,  3.937178191183395
13.925502965860934,  8.517843890010596, 103.828098663693453,  4.065992955664885
 3.641624553973795,  2.772503744481004, 42.832049952361785,  4.383360229168384
 7.378473175880110, 15.776336180055546, 25.595415603286249,  4.062899761575073
 9.474879789794160,  0.492715563680752, 65.788104907084815,  4.086143018374318
 8.635645348147154, 14.226670722443785, 57.643800942021898,  4.214976811058425
15.083845891066016,  2.088555080332380, 112.213792101339990,  3.753970981123923
16.126601145052398, 17.141413328225557, 66.095423495747880,  3.764523103731497
14.510536944198163,  1.386254938429432, 79.248179520475631,  3.932259250158294
18.255974806841866, 14.790074495094830, 31.476306384127081,  3.775274632861557
 5.486703466250391, 12.377028366628865, 70.831164010733204,  4.067415829585241
 5.435732794998690,  3.236710147368766, 104.321484693876783,  4.122029233684630
 8.577712915160681,  2.898329685654138,  4.131009157857418,  4.189855631340797
 3.976600475873214,  0.177623668898648, 83.181068105034228,  4.113129787891897
12.416331582544194,  1.622580974282346, 11.245543941300449,  3.678659928450267
12.801904115543392,  9.568465271568620,  8.336681294289816,  3.961657787595822
10.420285849557413,  7.180393650858472, 104.507622489691542,  3.494796603163950
16.541496868345718,  7.960035206885170, 16.928852838559219,  3.833204208643005
 2.050486549801948, 14.441217967585210, 97.861788055932408,  3.974913752261880
13.800014788381331, 16.622175122574301, 95.276532358203028,  4.252949247106016
 4.708623855656574, 14.693504310077754, 57.426899379033173,  3.698651932980975
18.688474863529716,  6.104105269601186, 82.609438195570419,  4.168367919918039
12.496147765053083, 11.309904418070612, 82.244169748086321,  4.081065122114606
 7.287977150846708, 15.183720253807577, 29.606414848061519,  4.035410948428810
16.940296940667391,  5.049450343804565, 72.669994290317945,  4.051549859047989
 4.328311388137927,  1.796543199361062, 11.670269200346013,  3.883499361253170
11.168859914474300,  2.572638808812893, 23.742273822997312,  3.920297196813517
 4.910260649210622, 10.484827184280793, 100.488831480331370,  4.044381840401432
 4.373535747271638, 16.673102351889533, 61.469888778782973,  4.059392576018985
 6.644356116417306, 10.089776009560772, 84.934531059309379,  3.699084967150551
 2.385754159369483, 14.202186708925929, 76.299935661905948,  3.933393249293803
12.926911763313010,  7.545913057467449, 15.849370631581170,  3.753423618457425
18.209446710366080,  4.636327599119055, 95.682571612128015,  4.158239980822651
 6.027640656190447,  0.529215274592736,  2.021182871451944,  3.830076931572195
 1.583193272749340,  4.509003604472810, 59.523654074576818,  4.349251076333307
17.852531671701101,  6.511310126754462, 13.614577475025314,  3.726819936567925
 6.857822461687747, 12.399720651264950, 54.431611185571875,  3.983734178606422
 9.690769606974538, 14.105724775999928, 81.220586913124549,  3.831872131064886
 4.671579612539147, 10.639540819351323, 105.519353530576737,  4.239468803687463
10.330727210862010, 12.234633601177126,  7.803444805064425,  3.348136812481538
 8.037366249055117,  0.865614323532977, 70.235613137290855,  3.948702918851917
 6.857079676060999,  3.925489660742964, 118.354926279319642,  4.123965841457092
18.321481229910855,  7.080862801634249, 45.784371246827838,  4.033247484542810
 3.363164768552702, 10.377277340218843, 21.554118434210313,  3.897190138459044
13.616751394931255,  5.795484315878316, 55.843696883818275,  3.693846048062563
13.743502934126939, 14.849393679457872, 99.101304485270362,  4.175336052551098
 0.335064159126162,  5.965511428627339, 35.583926566010035,  3.643671557858080
 8.701111018330135,  1.410902847989652, 26.556244264115605,  3.865406105335455
17.035265131627771,  4.460621118731448, 32.812583746940859,  3.995446799483692
13.390937383281329,  0.573479568141920, 46.095072622968111,  4.194573101122811
11.019463481781184,  1.907780218821926, 29.641359290172883,  3.908478968654088
 3.434406142451096, 14.485322595811025, 114.378452730706982,  4.414208855866883
 8.277012459362060, 16.323103085392887,  2.332188126124851,  3.884744737185888
 8.498807108073036, 10.257000906919851, 73.748197986669140,  4.020372931965161
 4.982049030809584, 10.830073925513359, 81.681220588966070,  3.754173424539111
13.816845375665730,  0.290221281962545, 91.979419755097638,  4.157092825851704
16.253652153780884,  4.590342407179748, 59.740082669714397,  4.211812501473124
 0.023223095786199,  0.782373292334438, 15.704772501022115,  3.757967814203415
 4.305415546449359,  6.910917150417683, 51.666049620076599,  3.838788190094817
16.296384746360886,  8.704432536070057, 42.563013107297394,  4.151051629330808
10.036845203080350,  6.209073060134645, 89.842026441669489,  4.108771829834046
11.054302276889056, 17.271067219768600, 27.106710067128020,  3.934343766208682
14.066301927857808, 11.709275330343376, 75.827074339363207,  4.090029048009077
 8.952170655950715,  4.588648126298473, 68.688755336363158,  3.921036944692808
 7.304838878203809, 16.184567332681343, 54.508656440611091,  3.639576556754419
13.105363296784152,  9.053265897736413, 64.342073969034772,  3.892969611713992
17.842908248039816,  9.419310231164397, 34.572415799488127,  3.899771747697934
10.144563874205968, 18.709260952909172, 83.947578429950198,  3.982553380089600
 0.586914200453188,  3.897923818158065, 23.030512162338681,  4.146230951628361
18.746484840742770, 17.300058460793245, 48.463723403826116,  3.786543053099845
10.242367862862420, 15.235050458742858, 96.942424916805848,  4.034565922348121
 6.626227461209237, 11.189620380538912, 64.123098215614874,  3.811818561028535
16.284506663702974, 18.591666655171032, 107.111513723421652,  4.062582265447929
 6.746630836919573,  3.825593088751086, 89.081029136069020,  4.154392069098232
 1.981441733009774,  8.953582181502973, 37.145531900483661,  3.847016822622338
 0.491005831507037, 10.690175342696351, 87.987582440784962,  3.947757718296746
 3.734442680415305,  8.839420630063008,  4.896600910810006,  3.773575386580685
14.780894184904971, 14.922515457815710, 103.229701228041122,  4.103263195017912
 4.074723456600578,  0.797579415469983, 88.857520503105889,  3.880744759914548
16.856870766416726, 10.301425801458226, 72.980720308189319,  4.244410155351908
 0.420047556552556,  1.986606000468207, 89.447710779586330,  3.886408313769755
14.857745271654126,  4.431080549244794, 52.430258366455156,  3.819358037285338
 7.858309023078784,  4.009021390723706, 64.450246696491675,  4.036276638741525
17.206114860894527,  5.239773320658895, 113.788009288016895,  3.886171013579146
 7.407344221411257, 15.409740247289305, 43.938664141627569,  3.992579964111167
16.085155659808684, 16.801450265542140, 41.028245529954063,  3.841908156471989
 1.805046643028978,  5.569702830097262,  5.741756145688223,  3.915145102722625
18.398750930686241, 13.957795696504176, 73.719358875848030,  3.825080481721437
 2.660216320960406,  7.143561846600827, 48.088412656417994,  3.963772361306890
17.431375297558642,  3.673759889966845, 37.757779077539290,  3.635478520353452
 3.600553096920158, 18.893503133454530, 32.539204589727888,  3.931386286231059
 7.206996492554501, 16.932629434486834, 47.729642186483701,  4.177501725702810
 9.122443611783824,  3.760807698797096,  8.170060231315516,  4.073411387428469
 0.931210558086528, 16.676532708459689, 34.358644039672448,  3.826562880641494
17.139928166141708,  9.239832772178817, 38.353787249605503,  3.763811009883273
12.379886477247648, 18.420285997669577, 105.543798335447704,  4.347405551085176
 7.288692380532129, 13.681724421404040,  4.943052664188338,  3.656875467891587
 3.351238535201601, 16.932945553141781,  5.940987709896282,  4.148549666034080
 9.764800483225068,  8.388790874356996, 21.085156301672239,  4.013369540682129
18.839441047199987, 13.674092295693450, 61.253691010524413,  4.102158700927147
17.822209421428965,  2.638766781240747, 100.912707049171246,  4.157521707072926
16.795306336053343, 16.655643723471140, 44.828216477086130,  3.802405831221931
 3.955861845631582, 13.457968589942499, 44.193647559387877,  3.951104634157661
13.340154003501111,  4.502984756827157, 31.411888167853256,  3.882900828578809
18.547937519398204,  7.361174433549326, 117.237837019659509,  4.634163525226626
17.234363247118090, 13.953893381856528, 81.829060044222118,  4.152492887504299
 5.905200111203658, 13.137830711126002, 74.793323544100417,  3.906656934623253
 0.652337459814466, 10.020899602066995, 59.539530288160989,  4.109983786269571
 2.459756179159313, 13.111564058684172, 108.073878728249255,  4.125620510370078
18.065379709450529, 11.744365438412499, 15.783868115912654,  3.770295490811014
 9.133190965174419, 16.199049230033808, 68.386432995278682,  4.241923397642767
12.112726168735740, 17.461280148089205, 115.561662152653554,  3.429463336658025
 3.121339051362067, 10.864151844920499, 40.505736751910561,  4.202430932208151
13.453683354080182,  6.116226988721405, 92.000669838818112,  3.960885010718554
13.688800608434635,  8.554384043286024, 19.852441127747703,  3.898739828329509
17.557615560196517,  4.521202081831838, 67.012619205126654,  4.281164135200796
 7.612279712360159, 10.288923606171592, 67.912512923468356,  4.174100361973524
 0.869692034625662, 18.057517495638450, 86.791897544616603,  3.986095070267627
 5.855507525053757, 12.932032947812601, 87.751578430933179,  4.362778148271692
 5.166077360439250, 17.161111352059805, 69.098094012103871,  4.037607839059583
13.246937165211733, 11.328358391654753, 101.078710477750221,  3.908590747184274
15.330288694580267, 17.500544828712794, 81.823557231460967,  3.862589994504061
 6.117068235858450, 13.829892350343741, 67.314196845780984,  3.584743893921711
11.878934346128263,  5.135589085774107, 26.748768402535152,  4.069487287015136
11.635954367094024,  7.487308545790591, 100.745632057247974,  3.865630393941563
 5.563068732125084, 16.235520710546357, 16.528812935555720,  3.926444733651868
 0.523457678076925, 10.296996935911883, 105.694462930276217,  4.071713154532784
13.964102779002856,  7.620569226944327, 71.796543550077345,  3.961013270927836
 7.662379793306537,  3.950471696096233, 42.862648699842339,  3.956236408004852
 4.079251952906739,  2.553918490561797, 53.026401661243519,  3.840083398889202
 9.954592942496470,  2.145292726505220, 35.599687750235240,  3.970456798781387
 6.013802086850004,  5.333055607603058, 10.462931606450301,  4.266503068525020
