BANDS
8 8
NANOPARTICLES
cell(1), 18.942
cell(2), 18.942
cell(3), 118.389
17.425369763106534,  5.317195973293713, 38.603943614608440,  4.359306439734320
 6.335141170232927, 16.110580325726826, 18.856043554851336,  4.018047198405328
 1.990101492166100,  3.186057019124836, 38.726431444205076,  3.848697420924861
 3.478183669430783,  4.572759318808995, 43.362524042063534,  4.171131167318470
 5.624092408023516,  8.237997099080363, 82.060079020788436,  3.964042268011263
 1.315121224680320, 15.020905199665380, 97.570755678206268,  3.856682498771663
10.007950387462762, 17.517045947820566, 66.751922413280482,  3.964318054447319
 6.184413415511273,  4.975983959570699, 114.890413935394335,  4.054215511967491
 2.504421538985748, 14.599721367643021, 29.976477817843264,  3.754104196464684
 9.853504552598173, 12.101742522036711, 77.937664533400664,  3.874215033734913
15.916438575565467,  2.118509918563794, 45.698311363052106,  4.138736592913996
16.372104455869696, 16.500169027341300, 10.994649632123085,  4.065790753782544
 0.750994445462803,  5.528567829545112, 102.318518602843810,  4.025704002469505
 5.256897877992245,  1.509047025865247, 51.484580261727501,  4.199086817060457
11.928061274091190, 14.918953396854144, 33.157990946924450,  3.903211639070840
 9.135250217130462, 13.915168408505108, 102.666087291233083,  3.666227637785473
 4.534993028489113,  2.533315706810038, 78.131367761129752,  4.121371091286637
10.067299230233475, 13.288821320009024, 96.141162338565607,  3.896882387219269
 9.603842907155839,  3.874656743053384, 91.901146258053856,  4.055502094365520
12.766193211738813,  8.281471184115031, 83.286226240698468,  3.840875642130569
 9.720082381981147,  9.500134418652573, 55.473370720031106,  4.273912259819345
 0.947563754478899, 14.546238618339322, 38.276612442849199,  4.029314718049534
 1.421828713255609, 14.946726962802055, 51.516081331532831,  3.838503296032248
 2.413352966025239,  1.319624330488139, 108.828581066620728,  3.816273129258453
 3.087556649562392,  8.311275010949792, 12.083163341509797,  4.144722155337575
 0.107902563727157,  4.323177372306906, 96.359818314475532,  4.149182734852060
11.719657188455109,  8.247304633252533, 68.352941196114116,  3.896366256505604
15.946972642384834,  9.429444755144063, 49.829975201561261,  4.300255672157933
12.533001262119866,  2.768432680004027, 55.436257435307866,  3.698108298375709
 3.386559249039271,  8.128795571284828,  7.710774143082799,  4.489036058714276
 6.345365260361786,  4.686631946841627, 15.523442481293527,  4.025062054124394
 5.430020375009782,  3.722877307820104, 86.969913021461281,  4.230700744841926
13.515214684802856, 16.208505722760577, 101.299245178256015,  3.866834885170224
12.288245893849041,  9.734566801285951, 22.612720427068268,  3.758561790702702
14.559188852135511,  8.321125624251234, 87.424182824402962,  3.811003522492717
16.168413805970840,  3.895528075114790, 90.114904954514145,  4.184326065475632
10.880659738062084,  8.981841704641056, 91.823964003671506,  4.113605285766581
 5.855847504454833, 17.663526754585433, 12.105877198179527,  3.970131054176888
 7.743978172590963, 15.533192527463342, 25.237860978179224,  4.138548208699198
17.166019321083319,  6.061882214939770, 85.408203326150200,  4.141529209436516
16.507632175441948, 15.809357173884752, 89.343817120190778,  4.015220845896892
12.716343780384912, 15.669109070915974, 90.743181671788051,  4.058076946410836
 9.146067635303176,  0.836346445273718, 110.398282356290196,  3.803893157546538
15.254925006659084,  2.042171922675623, 36.975481775570778,  4.123163215387268
 7.645293111333270,  4.716722526536624, 68.252223726501967,  3.625482156663286
 4.045768440526528, 16.927817230181141, 44.586635600290009,  3.709036508439064
 1.171890198969989,  9.529764349830385, 95.624646755370833,  4.080368969255608
 1.789226409376537,  8.378320025511325, 82.635488923170968,  3.762840572653900
15.210570166267047,  7.004898208816349, 114.719004054549472,  3.783454420658287
14.749750791594076,  1.551166842759027, 21.908538545570238,  3.898171984026401
10.223057662055036, 15.237313419110235, 111.478857461410399,  3.963337969981398
15.803610629726890,  7.947292108444158,  0.637125916194846,  3.817727258882744
12.178407678317813, 10.104049634429026, 58.944772952701427,  4.253265873178269
 2.537533543608926, 15.426757921484320,  6.274092613076105,  4.184171840383938
15.537429524091449,  8.229934004747770, 20.963517986651635,  4.082182999683913
 8.287235872721494, 12.537868695576631, 51.027934491229921,  4.301394594930090
10.110960358720588,  7.761383534809066, 25.256140796091138,  4.023971561100451
10.646143487443648, 14.623143942663523,  6.794811098962302,  3.871169806689597
14.434111043077435, 16.131036923996120, 47.147361840875341,  4.026023096365498
 1.487457391525976, 13.782275634375226,  2.684360523764834,  3.985074122959289
17.285573021038942,  5.542290139942595, 55.091397823947858,  4.174255070474974
 9.239941450775609, 12.168217939204183, 41.400648453179684,  4.250471471450156
14.953813052132141,  0.592589394043712, 53.592407633452446,  3.688037877179851
 3.642491223048574,  7.612891471571205, 16.070640978779242,  3.931011049566338
 8.543930428256848, 14.992594983446359, 74.477586029792903,  4.334001213550097
15.835078720614202, 15.232629766982170, 104.301259367159744,  3.849308655108246
 1.423688834962957,  1.308366287070180, 75.799059622894077,  3.929163240029728
 1.296691634362910,  3.850389127809218, 28.302389098695919,  3.894886830158967
10.631712634932596, 14.373324169766086, 17.042542153355935,  4.119932672116299
17.227159216660329,  1.768276007749101, 10.103307977101853,  3.886130305053785
 0.505892493824996, 16.063679729264880, 113.754169483486649,  3.841244086938127
 6.971240744345013, 18.039073648991007, 104.405219930132716,  4.177493606932706
 3.510484812302274, 18.203951596124650, 31.456683389149088,  4.246837353743852
18.859222445976524,  8.307303669339984, 34.629377425879987,  4.186254757529240
 7.149934586540463,  8.044373412162413, 108.098900199166167,  4.226864466477624
 4.092849644479641, 12.048986149340331, 50.966321286306616,  4.103155350618146
15.058532381503726,  3.615156593585227, 29.343755826448962,  3.720422092548932
 1.058360180266496, 12.735588579373035, 64.004525415833129,  3.585963525807529
 3.811810471601991,  6.819186159251925, 111.957890523305679,  4.318989158632276
 0.838618847100742,  4.209619532997901, 106.015041164835338,  3.825413146977459
 2.690745739917921,  0.595292115725632,  5.540906236839874,  3.978855089917754
 7.172274046504077,  1.479835118546039, 32.566345839820791,  4.043661544584085
 1.036368256463731, 13.078133137723096, 116.522819414683724,  4.100234152799827
13.839650505494697,  2.601300239100697, 72.540873112316902,  4.098745475967917
 1.943554331479218,  9.801750890754088, 102.853945443351222,  3.934789664821223
 0.258458393292413,  9.711284355309081, 22.870929857915147,  4.033765279351973
 3.688099725537338, 12.733579089126600, 95.517024176320888,  3.699199634176149
 0.749062274597375,  7.349132456353414, 117.640228963693858,  3.857837821450944
 7.279017445547466, 14.737551827082001, 67.610373731327996,  4.010753309060728
10.040848340841132, 11.277652904301096, 113.189143416070777,  4.178445054144603
 2.958389929219594, 17.282512123998650, 73.243519974226388,  3.744114098623940
 3.443974490607892,  4.230503780734425, 73.656334863452443,  4.357870102923680
 0.755775237214194, 11.584373219879645, 47.348415171350467,  4.052740893309583
13.004865941715776,  3.382832484743599, 105.380647352559834,  3.794525248329926
 8.296667090372388,  4.423915013079200, 22.227628698399489,  4.213774904008647
18.260221879064087, 17.686085653247318, 86.375108228406077,  3.788506819722900
 5.710227139045623,  0.196955956637700, 58.414503564716675,  3.877071175174196
 2.749357880915547,  4.550868585958785, 50.133368583489059,  4.080398564903926
18.069396769237951, 18.318378587897964, 55.533722205870433,  4.042016491180584
12.457586194447790, 12.712092614902442, 70.413534727640112,  4.268520411332758
 4.593480100601206, 11.292970407532565, 14.629802665094504,  4.173680013296513
17.275749644534134,  6.375899208916519, 27.347912914325686,  4.101252279251615
10.691712482615534,  5.210841738935667, 53.180501915768424,  3.890618668885800
13.337808677004578,  4.925323291625891, 38.967209022914481,  3.860272597784235
 2.168105562275978,  0.088698826513290, 27.729214829471609,  3.819947661740297
10.256449067830532,  8.832758152899453, 76.063068812285536,  3.674419094000045
18.252409199642592, 13.269924408405755,  7.769221530618029,  3.991376697730786
 2.450191867150499, 16.574506695026045, 88.090928335073656,  3.605174046997059
10.008750593779844, 13.017411354768878, 60.914594181145574,  3.881200104573745
13.398968384349075,  9.532854739462902, 106.008961481432721,  4.106921883549584
 8.872059182430078, 12.525188232874912,  3.790431382087077,  4.215497088356785
16.082907450473833,  5.972097662520619,  3.904258858716343,  3.779700900630525
 5.018479092697200,  2.500939934282296, 29.195968177872260,  4.192753191061907
 6.867531150011918,  4.437823115492765, 60.180692854730943,  4.232325098969087
 8.154940420212315,  4.191813331515284, 49.991152313052282,  4.239175434647779
 7.090562685080561,  6.178436757300159,  8.262112447362627,  3.951200422813431
 4.463693763534695, 10.947192635439196, 107.121273690423692,  3.901170278273803
 9.329576036464299, 12.930579478881457, 88.268246058585945,  3.710914898163073
15.674528919795804,  3.031526831244816, 25.516974990399003,  4.118328025632201
14.055410646006417,  0.707479993416944, 97.625331861465312,  3.892162319759336
 4.111390108490668,  4.214215435232741, 25.509675050672175,  4.045057806212557
 3.332511755854827, 17.162180883981861, 102.907876336399667,  3.868295666138070
 7.106679288078892,  4.211037130024233, 83.193733568331140,  3.861264394715294
16.764353817222286, 16.781966465317232, 98.428156828535023,  4.126765817769732
 4.168838347308995,  4.716661414273886, 108.002527084156952,  3.883236617430254
 8.805377701979127, 15.658677192073963, 10.190983659573071,  4.096702676796729
11.091769939292289, 16.897284326255164, 104.606182048345445,  4.378936172856005
17.786509739472198, 11.722862221940717, 104.762049232414384,  4.233103832618929
15.278644322972230,  5.480259517247475, 69.083311474675213,  4.137636675325233
 1.929901032880200,  1.188271329309706,  1.680284209632151,  3.975566314118359
 5.635972914098938,  7.793895564031055, 86.068021456267175,  4.099744322203689
 0.201817165187122, 11.400281026264880, 51.193225467184895,  3.681029482294276
10.157261665492667,  2.930637051419753,  1.590422428010002,  3.914561535158343
18.806006260314756,  7.489386725095392, 42.141426530912391,  4.375502099028533
10.197813012097672, 18.160822670826757, 100.764810823337825,  3.898951106836878
 2.858466601116619,  6.776096069570796, 22.134215188107664,  3.940610682638577
 3.748706384500252, 17.229791848727142, 77.091399145360683,  4.101853964042626
 4.812964772773173, 12.117484804168610,  3.933312322579156,  3.740330032213292
14.465912719810165,  1.113857234379672, 18.147491788126271,  3.674260097874520
11.259900080158376,  2.841831587890838, 41.174970684829532,  3.487856533854527
 4.822351606043933, 13.861071148253910,  0.304723303834408,  4.182647034405909
 8.979964744518586, 12.775466362237694, 31.588551485123283,  3.906233226491434
 0.114964484533470, 15.054650220608536, 101.512607687271355,  4.298376169030765
 8.291094964854858, 15.910387578520586, 115.100503843543322,  4.189113059515606
 1.121392079792911, 16.649170630628305, 118.373989701854185,  3.909087259460454
14.802276422844715, 18.624693525265165, 76.906888319080821,  3.928579167730388
15.077436500095100,  4.354172549395073, 96.852130837312032,  3.823969691285046
18.417626381696834, 15.722341049933735, 82.600855791858706,  3.824524783871253
12.608998187831364, 16.404480175073548,  0.156953828578921,  4.097534918386623
18.006684040556632, 14.628838633922518, 14.282099609225655,  4.151877666409996
 9.912335124195032,  2.482290820232771, 66.191582432733185,  3.919014071530240
16.566831812581373, 15.440050199536007, 58.176395329402638,  3.837680001793201
 6.698832277002158, 10.234884963107257,  1.016763931166788,  4.092897320062019
 4.805333446039887, 10.581026191851883, 110.899277539935483,  3.708648705279623
13.370464238051802,  1.745102841616678, 101.641697249127617,  4.384626627295604
 3.152043473219477,  4.122725219464007, 117.553613450082040,  4.130395593895385
 5.685728225611288, 10.873917196824250, 103.549320038124264,  3.618611432615046
 5.053285246941464,  3.420313281574011,  2.710485848781687,  3.969044226576724
 2.111789160407437, 12.963149853130959, 112.161037410448060,  3.819898221114235
 1.880974969880133, 18.406823691720721, 37.290064493375546,  4.125695535047186
 1.562019209199097, 18.787270797482392, 50.468921817022981,  4.114935411029029
17.046251114050257, 10.937815825450231, 65.610401041986705,  4.038753320023906
15.850014238512458, 10.439630071768535, 32.604334843140741,  4.067653717015113
 8.704509595046549,  2.491280165136663, 46.429286726406254,  3.591729236176972
 7.045023221440731, 10.109617256937398, 27.323614545701954,  4.259881414978468
 1.962089995751973, 17.876845078814672, 58.367167628362949,  4.020981321315653
18.289153406947150,  2.317265501130822, 52.818051293094108,  3.962171379805334
17.682753238706365, 12.093365041679098, 35.892814618485794,  4.060059311673927
 6.143223084640797,  0.883599661864806, 108.075319951433585,  3.787214287982059
15.200526506339095, 12.856774161388177, 81.919313405846879,  3.857730905072112
14.982408522736478,  2.447244961190311, 41.433477508166881,  3.810693594526151
12.086932636119171, 13.673422885711096, 11.646342072228663,  4.024122962884608
 6.225865397846206,  7.481844301667824, 24.184140049224890,  4.036619231196977
17.759596724255488, 14.340930809086476, 110.701256028842266,  3.892732796965357
12.365656039026044,  5.895197981943446, 89.612279256616731,  4.027729840329805
14.554646193883121, 16.842591503393631, 61.238941848703902,  3.879994171707794
 1.152549588287996,  4.523151997136770, 69.397438326246629,  3.959916613978653
11.898312954263449, 16.258130805779246, 36.877619321565071,  3.946555130381307
12.272587624254204,  7.221296288238271, 14.615066613128326,  3.894817376519478
15.508025792744894,  4.223101379203622, 13.962588131080780,  4.445261746091042
 0.371192226550730,  6.953372803414204, 59.847432872636084,  4.020367185636222
 5.021302689949469,  8.663568782816276, 96.792487471973033,  4.115564202319998
11.531322749871260,  0.004792216088256, 47.010332199226987,  4.009719115484579
18.016494160592249,  5.770937094452511, 23.298632053647847,  4.213617918859873
 4.337133939363409, 18.804380953878390, 90.783291707387619,  4.334656000931719
 9.124636576028715,  3.790017254846459, 112.684289012081436,  3.662674675076712
12.096994500073238,  3.414722121715255, 44.831513576990247,  4.054104502504386
 5.965267972096625,  7.101213306791539, 45.442051422436208,  4.025455443278612
12.706758397960670,  9.365054476551451, 101.800851895536894,  4.428350808664808
18.782235040646565,  9.544747864318717,  9.494857247762072,  3.934484922920372
 7.826717501262963,  3.223809472704661, 95.485550709473429,  4.016320196034316
11.486351687479658, 13.176977106669334, 53.917484121762627,  4.400048219561535
15.784968199116051, 14.708961014596266, 85.432539818364916,  4.155862384304544
 2.144348366182690,  4.736726749615138, 54.066534991398100,  3.831498934641817
13.408508020851876,  9.270179319245839, 53.303365378774508,  4.271905482498057
18.286497762238554, 17.777824690583589,  7.696046578883140,  3.950321300514454
 5.802733347597806, 13.974523467301895, 87.161881856753695,  3.907796869903368
 7.696625968404257,  8.137261993571407, 66.824379236663745,  3.788301848778818
12.321805537190766, 12.039371460915367, 49.755255107003201,  4.174634886067023
13.183146746901047, 11.517378334209225, 85.554899096777859,  4.071204875906268
13.005743119522618,  8.650859727092680, 45.853056177263731,  4.295816766083250
 7.116075481491910, 11.727026345550435, 81.257975496773710,  3.788202067214820
15.890836175227662, 18.644172461191211, 83.384054060545154,  4.057824869449861
 6.490554230982010, 12.338436515523439, 20.243001722867486,  3.990342009391552
12.470536886643110, 13.684859219691150, 22.871887734167100,  4.143423928054792
18.832870976979091,  2.528147949650960, 61.717996109257122,  3.469497912261765
 2.240904497697995,  5.756894719385753, 85.471549332354584,  3.904657345459358
10.622244127166555, 17.497983139973375, 40.357599374910599,  3.821671774783301
 0.915916580207667, 11.785034420975213, 108.576906906994012,  3.948513955380241
 1.956478489207495,  0.110639576070036, 80.448144284344835,  4.291282731255072
 9.359106136486060,  4.730847614227732, 38.473323424866969,  4.053868643582672
 4.289556320786388,  7.519452835101490,  3.433291766872406,  4.278783193093555
12.501141752976618, 17.403405255178921, 10.188184133629289,  4.017896081053822
15.578538230314985,  5.567835768121278, 47.919086186747933,  4.051701521278118
 3.736969477457744,  1.662556266182379, 105.051357216237065,  4.090974260909555
11.154716467207011,  2.117234767040834, 20.030758314747256,  4.155462126685727
16.821901756218931,  9.935886208839518, 80.044204468507786,  3.727342073967670
12.331268799201956,  7.318780264031839, 49.743109245590382,  4.026303943395466
 3.838081130903285,  7.399071271146417, 66.373592051380385,  4.091156142379678
14.122347288023615,  1.842676113839550, 61.823120279090446,  4.126393313412009
11.929335772400725,  5.115547720225345, 27.675601410808532,  3.941049284689464
 4.741845111501586, 18.316443417976799, 48.064251467595156,  3.878803948635877
10.469354464247523, 16.392819897702548, 70.646862099046245,  4.098013412256861
17.653145870343828, 11.338762247297035,  1.369934954381231,  3.818639024689088
14.260153241573802,  8.706058815031192, 110.955748031677317,  3.765905231711011
15.782250479528521, 14.953646281422373, 64.736281282388646,  4.437090455610140
12.838025721704412,  3.922536989983980, 113.977256434512526,  4.121568401453253
 7.095349608758221,  4.404522611967101, 105.543716254931638,  3.764588051042517
 2.736149775814209,  0.385250850804523, 41.506962158125752,  4.165584409010800
 7.214615694267941, 16.514374168505277, 31.677937332077494,  3.904373952248865
 6.333299555373133, 18.802487139368008, 74.452988668266883,  3.922691428003126
17.817793866859123, 13.472811176853549, 79.120701243831917,  3.795283040994295
 3.244437355518176, 18.425922696144585, 20.207251721214483,  4.158060993867307
 0.569446909187392,  4.284653089733845, 78.433495563490524,  4.172800596600667
14.324291371749187, 16.224100027494192, 111.888131771282701,  4.261333539385086
 8.872905814678726,  2.274573315371730, 80.164838273620987,  4.115856173204416
 4.502211772451608, 10.633455985262245, 63.698776867086131,  4.301854357912204
 0.577990647635758, 18.484619874436206, 95.859972829593232,  3.786709414088669
16.518552388503657, 10.462926866067011, 94.804668270233449,  3.510412304439020
13.016241572336199,  5.090043687763766, 85.665697976526090,  4.132382286529923
 7.325760179387383,  0.855450214775505, 114.328532258012856,  3.949352093054685
 0.668565430188625,  2.175616595528209, 24.764812355449813,  4.021772112706287
12.000953148598667, 16.325093025650897, 97.715991644143571,  3.915882963260112
 7.474627787690738, 10.801805339306471, 35.501747842212389,  4.285013116343859
11.719797734135481, 12.950146362055035, 99.992223347165236,  3.834922885256687
 2.078083165745339,  5.692472499895090, 31.788161143716753,  4.133492383704430
12.373460769974731,  1.241769410480741, 84.399093456419990,  3.884991601542402
 5.408101409154230, 14.074897837527825, 101.299387155274928,  4.207546809811413
14.812794276602030, 18.812280802093863, 105.738754222089938,  4.124035255502606
11.666458138477809,  9.808538616609965, 63.181646198123936,  4.258320068751054
18.081761692075084,  6.098499925427034, 51.081096876565624,  3.992858633021499
 2.033354773963743, 15.451953867760881, 47.652575863129030,  4.045066318520190
12.897149543831061, 16.042494635086488, 51.000820286412498,  4.247893512470243
15.899787241196121,  2.383346817930148, 86.390971107327132,  3.863522474300969
18.457378097611151,  9.239020515433886, 38.465045264717034,  3.747103666772091
 8.632338485303542, 15.459000645780065,  0.830972485532367,  4.121621575410947
15.670845646464802,  2.750263903317710, 33.042983184736890,  3.895612342859331
12.637336895954974,  2.235854170328981, 88.339260055358039,  3.723857651950690
 8.632769258930431,  5.616615809217540, 56.581105090101325,  4.073345225140199
11.515947046325362, 14.676110284032783, 64.301881669033008,  4.073084503632255
15.626949102151665, 11.769374212489273, 39.268129531550052,  3.867501067187992
13.905224211808122, 12.958058050661045, 61.518241201565729,  4.001123923381811
 5.016180893868142, 13.951051087819490, 41.042245714851212,  3.895847407806154
14.527692477187744,  4.209712412186414, 51.986275894413609,  4.241062248902476
 5.103730364811606, 13.331096330732901, 91.185534472881130,  3.791068305476864
10.221723976359566,  6.719245243560300, 60.041779173950928,  3.827996859387511
 6.715130007942467,  5.457746058830057, 79.529249284147781,  3.676035235987290
 4.424170828610252,  3.141514794773492, 21.622388816569586,  4.025918901090949
 8.262474054403526,  8.436395269688029, 116.263109900671211,  3.790608977577798
 2.224481135248922,  1.183505664419649, 86.901333495938459,  3.872083379900785
 0.222855644343493,  8.237862617385925,  2.907533109119479,  3.719080703061414
 1.393787758267692, 11.753046060447403, 32.830879031150069,  4.065164498085872
 8.111886526777178,  9.933489155139670, 59.300926062706054,  3.876481784424484
 5.495388376739149, 10.797787829832041, 38.976369875925883,  3.686311215920567
17.907800860761629, 11.919225308130677, 97.994638635166368,  3.959915859934782
 1.003501893051971, 11.800031326984838, 72.509024669210362,  4.192353296261015
 1.538124703018108, 11.528731395720094, 41.101869982465089,  4.310441239451557
 1.545491411611861, 15.657353769422302, 10.251773192123901,  3.971774363078490
15.909840841994956,  2.289631827691885, 56.634487743918832,  3.531843755921675
17.945383326479188, 18.043901553160300, 47.399634065227033,  3.879580831575093
12.664606855748287, 14.179927289242070, 40.224735153845685,  3.968593362169334
 2.543042332018607, 18.343270251667061, 99.250905873981864,  3.976600424961263
 3.930549188472100,  6.848616599444447, 61.932265892530651,  4.095509359016014
11.511221402763544,  6.016945074157380, 110.871099080215444,  3.785760482977146
17.556195863637491,  6.365689966250509, 81.359800795973882,  4.000156433114519
17.282667571316225, 10.051054933050706, 116.046822135575141,  4.044462126517027
 3.884397606445956,  8.088265710801181, 41.169114910363042,  3.982535748993349
11.981933714147532,  3.526167134215812, 48.798513175656495,  3.818613809926363
 8.448165920861683, 18.327211210075685, 97.018474263273546,  4.339795117459557
 8.932678971846800,  1.099218170148415, 28.882722300948856,  4.121195090488581
 3.471382731496550,  9.749978407964912, 19.486767912422486,  4.080026051177969
 6.504910181923520, 17.703768038603279, 100.544534539979153,  3.517306326820679
18.129380935011302,  2.180745240755282, 16.883301329788885,  4.338297490156266
11.047475630913874, 13.906029338611470, 107.601243251567638,  4.033957757423181
 0.653782347159977,  6.296100130801579, 18.890741987672349,  3.881498779556321
16.906695535966250, 18.038328219525958, 109.219777571593170,  3.986502511162794
 0.601205285143389,  9.356727523956135, 86.301791059942275,  4.131637570547574
16.681968479086297, 11.726204486897103, 88.377867656003332,  4.364215200559229
 3.048632313885357, 15.678075136944686, 14.124404282330151,  3.980458790406546
17.924944207604547, 14.691262134461672, 44.959316768458919,  4.227005986872002
15.732884625613549,  5.023283201634774, 111.384632954902060,  3.944965860381213
14.576461480132240, 12.121548637439851, 19.642225123830386,  4.144819710682683
 0.728505287732573, 15.823969920352075, 66.287007541500216,  4.084964925374895
 3.131514510384287,  2.022285074511398, 34.433945032273876,  3.889586709536960
15.530221351167940, 12.744751938208562, 101.169836930004280,  4.141487949838931
 7.190730342021548,  3.787452713485067, 71.928459443041561,  3.913052840348238
 4.382720480407763,  2.778718100129581, 67.765236024601592,  4.010727190985516
 1.061710048057849, 17.276969009205342, 17.068834623108312,  3.809885025840797
12.763944220063607,  0.629747340633110, 80.351649170427990,  4.290508796272232
13.159105035635431,  4.628232349819795, 17.432096034627101,  3.952905705966172
 9.509945325763432, 11.365372170205076, 67.798556560879504,  3.822533541141823
 0.627908692932931,  6.906307080604701, 75.002258906129825,  3.841158049109449
15.800234872883255,  8.138152995472156, 58.001896814183013,  4.160237104023951
11.175754704723669, 11.959238120648401, 81.846124550482074,  4.354852530844131
16.012956425277583, 11.206818144737611, 108.473375523743115,  3.813037345287748
11.890353748986058, 10.752013381878776, 33.227923742103897,  3.868677201669994
14.819559235985780,  0.660523001336216, 49.566550542093005,  4.323668236199897
11.266979558836951, 12.376069518695980, 45.655226809125139,  3.926826495260222
 2.469327235213119, 18.904078836449951, 64.330866057118357,  3.932461221661680
 6.520134279882774,  9.192944153535340, 78.159170744008080,  4.238011327608762
 9.646094356578431, 18.018172145635770, 18.058825341957363,  3.692612080296607
 6.395955968658799,  4.553259795269148, 64.489831125581929,  4.272106171322185
 4.661656629105090,  6.128692207366478, 70.082186380359985,  3.876191130379171
 5.187085479790452, 13.309690885751847, 33.010632772613732,  4.129290813155218
 4.072403940309444,  9.948090639903629, 92.843980763167210,  3.997237247203715
18.529469183614207, 15.420762028581223, 73.770098547572118,  3.953516590768848
 0.887401105909180,  1.024237880572673, 116.208814072240500,  3.982733421549966
17.727876052305440, 12.970062132999134, 29.802650442480616,  4.265150561478682
 6.709057332764075,  6.896178479357379, 74.588969412243884,  4.174782467488713
14.803662033367248,  1.281019790387974, 111.775116490998656,  3.789748709828035
15.004794821730473, 13.939755630760544, 96.256132331574975,  3.842662294631188
13.451256575159846,  5.918324467492659, 62.176411012714240,  4.051614547269548
 5.418387406289040, 15.378847641361535, 57.611728320695498,  3.823425734256158
 5.492601729269119,  4.689169624059281, 39.776240566844635,  4.035273051776382
 5.173012419619344, 15.784425613382666, 97.564899138453157,  3.976018313008136
 7.817447605043825,  8.159660062770891, 62.877584649025060,  4.104724020412699
 0.510644534528444,  3.209887320702113,  7.399574198398445,  3.672334424446909
 1.241201200063202,  4.561862855925377,  3.818752074607033,  4.119477152394599
 2.687797128039459, 13.449742529420691, 104.482310628284779,  4.171897825478502
12.035804501765323, 15.381780220453740, 78.078458901328233,  4.006917223819136
12.401633456487719,  6.511482057855115, 98.711878906832453,  3.990318140318994
13.173279005508816, 15.646115360728585, 67.705359032790668,  3.560569692195767
10.555086597906987, 16.861689594422934, 13.735334660770738,  4.145963750069937
 8.073396365555679,  6.797078907872020, 102.767228692367311,  3.764808031180373
 1.011340574789954,  8.209928796480233, 78.925765609431963,  3.754463415964053
 0.698503059969545, 17.060210403134644, 23.406353999731891,  4.446572090408756
17.528424126390064, 12.434708646804689, 60.306072137028373,  3.693310582738879
 0.755791958545911,  4.659934772354633, 110.073570726012505,  3.998688053856063
 6.949241330988582,  9.461516621227801,  6.001245381961496,  3.849421337786234
12.878620084264403, 11.348795283947993, 94.314299833769041,  3.819946553932418
 5.156990806715372,  3.579814396741255, 47.093432282152015,  3.899625250098767
 9.540030445389309,  0.013571863514672, 117.460259317709429,  3.880621425282390
 0.243000108494342, 11.900386181494259, 82.392166047616087,  3.930014539698423
 0.518802668197482,  9.041729407168294, 29.773253798534348,  4.278169184550146
 7.300849183839748, 16.880221823240479, 42.244379923869239,  3.880920053195038
14.170925004205628, 17.967840074156253, 87.053741898996961,  3.801801448601459
 8.059082929902310,  6.232528620498102, 98.693584419135178,  4.449571068027231
 9.658988847475134,  1.530499191828129, 106.407953128913690,  4.082531250164748
 3.372592656215073, 13.091635420324359, 44.615633871366882,  4.070445939641940
 6.093507575890164, 13.191100240394906, 60.795166252706352,  3.958231437043929
15.054876429116710,  9.050942154859255, 91.373650696295599,  4.282600567069403
 6.521528576193420,  7.072790383248753, 36.809597308188927,  3.841032768239176
17.709775178232437,  0.553913764969472, 39.563062783413486,  3.594958419972675
17.511949004428377,  4.163648032952624,  0.584148953881431,  4.287407651098302
14.060424285984620,  9.427131848794259, 75.364246943490173,  3.988836534770083
 0.198583306035660,  9.373470781185718, 14.867156809302690,  4.139657562612195
12.529029063344982,  8.959405257029861, 18.111126597973676,  3.903057247379593
 7.670623119385008,  0.827425399103274, 61.552383426001711,  3.629304074291096
 0.241818288150270,  9.683339344153289, 91.643480428496744,  4.037294659009896
11.561532635655482,  7.487242067243409,  6.804398553539285,  4.369860589193078
 0.718488747212740,  9.053087361974818, 63.220241616296519,  3.948735010714724
 7.876526228741558, 16.203313483409495, 90.190656634345487,  4.416386134719332
10.385467134100352,  9.646956630538330, 97.361319052170174,  3.786480296961009
18.544949034430140, 17.052924431599457, 77.495212281411725,  4.171408910256223
 5.147208961718974,  7.560268741239978, 57.889855997310079,  4.224035470937777
10.520958809628034, 17.556191812562158, 55.509610019820514,  4.066880664206154
 4.533601401831844,  7.848356800188945, 117.061940225888407,  3.852533039915380
 8.132978600444968, 11.175301918302432, 16.745880509800806,  3.987768166691381
 4.180613553515077,  4.709592736539258, 96.353447196020014,  4.007781978595348
 7.394914470118209,  8.280093878044434, 14.103056480796598,  3.979355773102851
 9.936321893532718, 13.003981529192080, 92.138798048175090,  4.115371584214684
 9.002220200514612, 18.081185324175824, 77.432928339877506,  4.201521598981389
 9.589878314636245,  8.529036574481770,  3.261686058479471,  3.964243039045855
 8.575191241078658, 10.417194342149100, 100.911581039754225,  4.238145101168180
 8.327372129807697,  0.121621910254089, 49.261564498198432,  3.822395375095671
12.771372622304895, 11.914404014789072, 89.624045974163494,  3.751093331530004
 8.700799450594916, 15.016696937294029, 99.220433948707068,  3.612185400702080
17.826363813285077,  0.003026455979402, 34.730729049556807,  3.824906822275101
11.773862401274416, 16.167585849482219, 25.994086482073499,  3.895610718683168
 5.884111447031943, 13.506253229687662, 77.728639580695486,  4.487244388475625
 1.310258336579200,  4.337513565182870, 89.267552955241271,  4.143613226418196
 6.621241479367661, 14.054591691939995, 105.645014250140733,  4.117580274072068
 9.853571743119637,  4.903386067378392, 116.557974967347803,  3.979217461234180
 9.018498223617597, 15.076982118927802, 21.498298768934596,  3.791438873804983
 9.438840025415017,  3.151871355619761, 86.243646982389691,  3.989633550958076
12.150406388223272, 14.389117008634219, 114.988593156448502,  4.103728172811517
17.152159849141402, 16.998026462413414, 51.845667180465426,  3.808037901128725
16.659484648893095,  6.950138033417817, 77.552761447686819,  3.807711251677307
13.870555681732752, 11.821971001261407, 118.011991994586339,  4.250100116390234
14.048991520795862,  7.801285625884328, 95.116524909402443,  3.767870283589673
16.326518668526230, 18.226702787811934, 114.997574771866908,  4.147065463976919
 4.082484225461662,  8.629221578185517, 34.151197957349588,  3.945606675766829
16.122323492387611,  7.358747049573536, 16.935883770590330,  4.160179169264514
 8.375881956245635,  4.880371829398420,  4.648822433431335,  4.111150362712471
10.500514860255471, 16.510821719352975, 93.963967384674348,  3.864946444350764
 4.533734461124991, 14.058627614510920, 109.400060085216552,  3.772558519797038
 5.694917634608587, 17.350220624090191,  8.120935229187479,  4.030703332135415
18.358242808302720, 10.463584371200925, 18.867925582773054,  4.240669082413292
13.880473749580213, 10.704868325450740, 114.146398107398639,  3.795790277285472
 5.677658317911245,  5.067121551035640, 33.530937084031649,  3.955939753842971
 0.104110033342096, 16.033236855899879, 61.786899493353303,  4.586038974444448
14.147115321698170, 18.482656833041247, 13.475103119507299,  3.636542065542072
 7.784138302902161, 12.013802031210577, 108.927852012844426,  3.951730630659769
14.605633311579405, 16.211168940533021, 71.245626196452989,  4.095783947505399
 1.824054026337583,  2.253762345774348, 93.024096467600017,  3.908215166863422
12.473649915877690,  2.745891419758043, 109.130266110502873,  3.829419149165784
18.904282582481365, 15.346637072279615, 106.949154902284690,  4.097320516217667
 6.821666406079949, 13.425845109745266, 112.369404838385620,  3.731684573803943
 4.613559755359273, 15.228057402863470, 22.510364006438124,  4.183655881024880
12.820384726746237, 13.601444611632903,  3.203893935026493,  4.007590551988985
 2.317429854459407,  3.294541646480892, 99.502942177563057,  3.789446631771098
 3.312060681556239, 10.085388620776612, 75.588847318436308,  4.031712926332187
 4.161521152144329,  4.137791348180961,  6.564340045456172,  3.941613582829804
11.833835128996729,  3.248425207020700, 24.066786516301168,  4.074999624712604
 3.458880890591398, 18.867254716365579, 113.226987870576721,  4.128360455152190
17.417763229500043, 18.182159158547787, 19.888344690583068,  3.964816340211683
 2.428639113548892,  0.616540605037516,  9.631684508540030,  4.118393739314072
14.673904554634243, 17.260122870034362,  3.669681122826780,  4.065435439555561
 7.418936382094207, 10.950304166278542, 74.510258565555262,  4.040380550313357
10.778316012903810,  9.198399275445700, 87.785008170259104,  3.916721867087843
16.284647934388151, 15.897284643547120, 36.801946080345267,  4.110285791959157
 2.236049849821106,  7.920453849222195, 26.025368522685490,  4.214099352366302
15.655923804502232,  8.396412976871897, 12.992887033022374,  3.945453794690378
14.509973080193914,  8.483711900416221, 29.356817580366556,  3.888692487178309
 4.226730253226751, 15.123222586834057, 114.786992993027539,  4.104029244736013
12.528024762092944,  3.942077370489685, 58.936015312528667,  3.682757411938646
 7.871192125619003, 10.371051411117564, 94.444153689537885,  4.009526763835965
 4.281870384158214, 10.261320305039705, 30.675686888670217,  3.727463683401375
 8.060348084389878, 15.076473159943477, 39.012863450108803,  3.635298024149734
16.928592103558479, 10.292848875543749, 26.880838230978078,  3.797396476664503
 3.515766271010241, 11.090060235421936, 88.465791769664648,  3.897088440120373
13.824720507517874,  5.296782980225562, 35.199560386686535,  3.726469558871553
11.851955266503698,  2.750269608521215,  5.254001507460022,  4.103085273090604
 6.936591877426699, 14.970351587615946, 94.126063147577796,  3.871615900484561
 9.160087178757610,  9.242012500651825, 44.292726402595136,  3.975828217059277
 1.364753299116547,  7.761243825002244, 48.201491135617246,  3.846752424841628
10.658346074386811,  6.234962471528691, 65.093982051635848,  4.037266507598662
 8.403533282821005,  7.674472271905638, 70.800945959213706,  4.265197370040444
 8.348942723067642,  6.146561865011479, 88.737729103159907,  4.100011290644355
18.281504629688708,  2.798976546434544, 48.894685808594382,  3.916174937996763
18.755937405162424,  0.256485000640644, 90.059401395044802,  4.227574494942157
 0.966695380437960,  1.162390717076404, 102.312336427327793,  3.753711697940678
 9.574177195074459,  7.741806371442189, 10.870657782635224,  3.875391447634219
 0.920490405839679, 13.556055253042167, 86.086714645890794,  4.253679003602849
 5.551447272163975,  7.305997618705216, 49.393019153433620,  3.908307375680645
12.664405928279328,  9.903518380710633, 11.142772408103424,  3.666363788649748
11.234041385619298,  0.986333328792644, 52.037887660383120,  4.400181521894494
13.341045534342246,  1.239923321344590, 117.043774263489595,  4.076644190322136
14.999110451792752,  8.108505914902116, 40.539517135962839,  3.976914906834180
 3.371439020228047, 13.785919065929063, 69.609785479762664,  4.280679589029059
13.230662404144928,  8.266977250689040, 79.252664247832186,  4.274803174827436
13.558876334550114, 18.406999856329513, 65.233128712699710,  3.710487905837110
 8.695783321177185, 18.554925176182770, 83.385773396594175,  4.244970628337471
16.697519735851113, 10.074605521489600,  5.278970131694599,  4.044591068651893
15.362481113052738, 16.351233446716709, 80.116740488371903,  3.984949311007725
15.000003679727280,  3.493502864958853, 82.556912529782224,  3.884215117621299
13.727491852287605, 12.832727756598150, 35.995439750181561,  3.933499142967547
12.256499599388510,  1.527103532040952, 31.306510233486222,  4.146469254283875
15.318516552095179,  5.734893645510043, 43.794957751439831,  4.089433029109347
16.400599429394315, 17.544827140808955, 67.902459803832954,  3.825515098800283
 6.658934294616762, 17.132216426416246, 111.573950674971655,  3.821284550321292
 7.870269331266534, 16.109225475117196, 63.486492126676517,  3.891174333783299
 8.428594818148447, 14.882899874062266, 35.134582801717571,  4.108508603684234
 5.553002932008478,  2.986324954105745, 111.374997906552949,  4.106711657319725
13.011707862297378, 10.940349543616446, 42.444387079067198,  3.882352172127792
 2.327078484130781,  3.592114544482973, 113.785387126885396,  3.615778021507787
 5.831654870418888, 17.581924154351416, 28.143580260975483,  3.916066104302350
15.829465636547058, 11.505330499161945, 15.848041406305596,  3.886536550853526
 8.807896640271039,  8.357593118368767, 51.528947641376675,  4.135100661790143
17.632023412168774,  3.485225467902076, 66.590110145203909,  3.776934581464642
 9.443269630149201,  6.911835214180241, 84.828156957118281,  3.979189980668033
15.771071275561074,  9.334400808490646, 62.021879832457017,  4.209782003175889
13.771999519155006,  3.592543710206634, 65.608253971567791,  4.182505771254493
12.376163424774823, 16.179872867705910, 83.139074986210375,  4.480420399234457
 5.652136737523510, 13.653012339960798, 54.192825293739226,  3.673758236819044
18.751274247013168,  3.278209189642051, 41.971547102058821,  3.943183648656605
11.410478253561660,  4.874869998370539, 81.884115272202692,  3.915888037345217
11.572587486392484,  1.417222748121532, 15.600488755044582,  4.017823790216290
 5.648546415517375, 11.219602173051955, 67.522951338272350,  3.742192383277139
 7.972911297790480,  8.086489156460761, 40.490513546388776,  4.249665383497401
 9.455643643919158,  8.226432058701686, 80.957386449301751,  4.003844490961565
17.601158080812752,  1.774512219540702, 99.216695766430405,  4.015108331114990
15.787591525486246, 14.387093784744284, 33.084137121811132,  3.841460082452536
 3.942897607681233,  2.163351253182567, 13.261302388993457,  4.218317150012596
 4.757483628810689,  4.534787629400499, 102.325459989513533,  4.050052324260706
14.012699176422212, 18.308610676565049, 34.239130611712739,  3.906136016016064
11.561540089971649,  6.605294558920630, 42.216186865749513,  4.226625522802104
 1.647394069681667, 15.493535896355221, 42.035345167078553,  3.765646061297581
16.757253403758298,  2.893418084897470, 103.840621909273764,  3.993204137673035
 5.085924387946583, 11.561465044250467, 57.303693469059141,  3.861375653357446
11.585116980432526,  1.269467790984617, 37.982262102872951,  3.641571740317829
13.876426670019848, 16.218133620198685, 18.963339216556136,  4.260271541740671
 4.119652756969009,  0.298246258730824, 24.402132475233710,  3.860263581023282
17.486892735370489,  4.651119234302463, 72.442886809274029,  4.059258489672031
 5.543674206851284, 10.788718888012118, 47.262097910878772,  4.179205660751111
16.235413833006302, 14.948015050332668, 22.072974213950808,  3.948946523211893
14.858434238445696,  4.645853402109523,  7.487984358259095,  4.245477497828151
 9.840372363645018,  0.494962103449626, 43.549577803950733,  3.747058468114036
 4.159800804670453, 11.089356886568270, 23.477252273596964,  4.319018762304155
 7.129469050044994,  2.091909393064468, 18.660152847508588,  4.252172376828709
17.748186342245798,  7.282316933288834, 89.031612803606407,  3.570250091399010
16.586135530479787,  2.960369728810478, 108.023574366926866,  4.123123533610297
 9.504473925623115,  6.423255421457244, 17.401070710285850,  4.092554764149147
17.938106498491820, 10.398285852797517, 111.960216075447150,  4.246384190881776
18.559702616875324,  7.336482515838232, 66.947031904599839,  4.102002938430719
 0.642251241479860, 16.797068918793766, 70.228633795656705,  3.908473065304747
15.474184218200984, 14.925990936127851, 76.077625756360916,  3.763736096726721
17.037107136825966,  6.151574436439907, 93.423159544775956,  3.843096599169904
 4.598544861455008,  1.278522627162044, 83.351670813177748,  3.837172575461036
 0.324510446513511,  1.911102090315346, 31.619523424546653,  4.019044557791069
 3.355224330113345,  4.778508721182592, 81.618122511591366,  4.346812427654857
 2.209620516652954,  8.035611794724277, 108.346821651844706,  3.854915431496871
14.610791037746468,  0.505906668273830,  7.386011356563684,  4.044069398710548
 4.431531355042726, 16.837094935550468, 61.459257620909298,  4.156933650451101
 4.350442034836662, 14.612280552540231, 64.879920263398091,  3.988039800835661
16.764983425670934, 13.892519757556565,  4.167049943140005,  3.897990919397150
 7.920233542646413, 12.777546884210858, 71.017674795961625,  3.869064376392561
 0.093746483815162, 13.130455186638249, 94.495829699531015,  3.754521808673966
14.653635476093029,  7.653056004323532, 65.658596997294694,  4.054829616442690
14.118638429632968,  4.205642529801652, 78.785249945251593,  3.973813229372384
12.087866126155813,  6.020308382772929, 31.680177450529150,  4.254487460796769
10.664318681426440, 10.179756747084305, 72.747990955606056,  3.495825075633516
15.521409437513144, 13.896057733971489, 26.281513178640012,  3.833611991841009
16.950890976679201,  8.571283612450209, 72.710474429406673,  3.869637551611156
10.459490205804354,  5.246596916515876, 73.803476608519134,  4.110927668153854
 9.766392095678292,  4.295890622244774, 13.119176795079623,  4.362591914820457
10.041579025536116, 18.539434928146019,  7.178013082664595,  4.075641780398778
18.915484996143242,  6.592501018301395, 113.563228702812168,  3.996392076191422
 8.210466341881506, 12.281564275571951, 64.295144372430002,  3.869621539578871
16.063491015649529, 12.221326754816184, 11.251512262973437,  4.460693764135883
16.974746889061436,  1.364036592373276, 79.791797105870046,  4.022812599752991
 9.481746404091531,  0.260469815078026, 25.065064537648404,  3.772713243070455
18.903030928572448,  0.313482672508930, 105.955071900133049,  3.938556428655121
14.759168014893117,  0.122860260039582, 90.704641273764580,  3.841898725875367
 1.924812222734734, 15.459167218023390, 34.418618345303209,  4.062045181886469
17.201017736882054,  8.727460010814919, 45.863925103900300,  4.089599081274659
17.162708942644784, 13.579630403990937, 68.973338635446325,  4.516236526749998
17.591443414956078,  5.782484123341783, 10.508018029647777,  4.192686819903765
 0.977582031656094,  0.941167030566586, 68.072914603248549,  3.649910950655920
17.061585006702959,  8.801556491982790, 101.570586804080151,  4.344975813088800
 1.151689097363783,  8.268687677933151, 70.495963141568652,  3.838127818899205
18.779270618753930, 17.323064791846015,  3.722409266193374,  4.097657717952614
 7.395006597203328,  6.220970067442808,  0.946214054435023,  3.889316978680667
13.210720315600376, 11.737528965372935, 66.479194080135784,  3.976299313774649
12.494310073582451,  6.664218673000453, 56.295941675038435,  3.821577508432307
 5.498337012328354, 17.703122228689427, 35.050401313404755,  4.025392269342306
 2.606420785028099,  4.642167949378269, 10.269721555910589,  3.983956521297278
14.250756169528385, 12.064180582836521, 78.267017140162494,  3.831937888244479
14.123313436394984,  5.574887056616987, 75.135301484495216,  3.712954960410324
16.823386797451150, 11.328765370082182, 42.900420765046178,  3.801094544023421
 7.167921219780088, 18.477198471937061, 22.006390701729654,  4.014952826180794
 2.127439314517633,  6.315029482114550, 93.169634022200597,  4.221339970844353
 5.411547831077990, 14.873447051881614, 83.234983869132378,  4.069937697833814
11.649948217887639,  8.307821124084285, 118.220765916183652,  4.033454230236140
 0.200367121722688, 12.945973873827235, 25.178224541357750,  3.901762248261486
11.042315324096100, 18.254773775103828, 62.364600573139064,  3.889011167462336
 3.106609377848763, 11.667069026258682, 27.364947895884924,  3.807878124236945
12.142950854894265, 14.890751388724928, 87.040914039101295,  3.563552227272485
15.154047399287082, 12.144493141554035, 46.741443735898152,  4.056107856618381
16.269577214816234, 13.839705194354041, 114.787459829912862,  4.187104639662769
10.824511134673040, 18.336666262774262,  3.226196825565296,  3.969511166227881
 2.017793894757613,  1.291339201443303, 45.653481149747485,  4.322781043771639
 2.777306324128630, 16.133413483083803, 54.920697046286215,  3.833755219461751
 9.902897132031875, 13.093066394628329, 27.727883150079162,  4.013257192091085
14.047390029508762, 14.893244234434107, 14.928375112072604,  3.837510403217463
 2.421173292191439, 11.031924841332170, 36.813569594785172,  3.808033028267197
 1.533693874491325, 10.934446510913055,  5.275741604116066,  3.695384004142354
 8.670277360344040,  8.415277521701839, 21.220309086327976,  3.849673597533969
15.652089172697316, 11.332422754895012, 23.430631254862554,  3.824615414815109
 5.062484555097422,  3.639361030162990, 56.506952271966135,  4.085904735151977
 8.771083214176834, 15.333798016542190, 80.622599150737969,  4.229094415081819
 2.597128446900960,  6.931927634747537, 37.504613342313988,  4.081568007063003
 8.711435669009983, 16.623010218142767, 59.497609183299907,  4.151573082296095
18.224670765490643, 14.383709842036831, 54.744141457372528,  3.984848605816599
 9.402154030219375,  1.760726771788003, 57.963553773937917,  4.183544190676129
 8.008658225608061,  7.678525424243952, 112.253703792115971,  4.228967216712390
 7.930359077684879,  0.884471793488398, 69.182696969315842,  3.924606644635683
16.256095537541874,  4.474209099915353, 19.826461459823840,  3.882218999742186
 6.150437468785201, 13.754333946655086, 29.035295621322849,  3.942920736686943
12.992576480118601, 10.780049992873590, 26.365198369069986,  4.156237536588859
 3.649037322249616,  2.131101046121778, 61.233087333548440,  3.953079231731278
 6.430889233059176,  6.609752356337472, 93.425467428645916,  4.248657735135642
10.396542021397744,  3.331800099046528, 62.364785375939363,  3.931379009683919
 7.815354681328997,  3.184988366528234, 75.956589648653832,  3.851594984945057
 5.869884305522969,  9.860066052477352, 53.868521894511609,  3.899270606801509
 2.900491975764004, 16.082839192828825, 93.672937560636043,  4.088439475999254
10.324232615828079,  3.215219948547933, 34.696495586238072,  4.299640620641950
11.266202184165000, 18.635241431613597, 113.719928597519427,  4.334249691132772
13.106909288836654, 12.449789836732409, 110.749630643700016,  3.967501651684873
10.767142936961479, 15.778617910855496, 43.837985189333764,  3.807689112342854
 9.323219835094500, 10.649866385012166, 105.255885965280214,  4.423118458918137
11.669683410218269,  2.100234718045587, 76.183510785989299,  4.097671826036816
16.215855898271183,  4.479020610537225, 59.622695890403875,  3.870855110391451
10.047796935050711,  1.048760837162144, 72.584990202304326,  4.066951320564090
13.775590693315364,  5.077935878886808, 117.611608847687791,  3.729790359247121
 8.917883366641822, 14.863357993780484, 85.038230326449224,  3.811813208282657
 7.505844063608228,  8.349700449035016, 32.027346487877971,  4.125688451262361
11.474375325480807,  7.688185111447586, 114.326404347951140,  3.844212670131135
 4.599781912603126, 13.698611610155568, 73.618529168303326,  4.030165529102796
17.325019928976236,  0.187607025554487, 64.347241449489204,  4.153019978757023
 7.180052903263207, 10.007923091160336, 90.047227165333837,  4.345083351187497
 0.239880279621424, 18.788927124310696, 13.276723521879783,  4.495861417965572
12.668315138177263,  0.895301218875610, 27.278082555247423,  4.019896710883224
13.453359125827124,  4.333441685723967, 93.226385783974848,  4.114990185667514
17.130768606745960,  1.977812618791322,  4.588325339404732,  3.944009060186539
15.028163882916663,  6.399779515522890, 104.187015144424464,  3.839023226072509
 4.550538434988729, 18.533434409403974, 16.284970170403117,  3.738486190972497
 0.058163002229740,  2.611981332208775, 83.585902491984214,  4.467758029330956
14.168091062085205, 14.279829209371011, 43.708106710424744,  3.611858135614646
 2.905708763766835, 11.389740999758992, 99.197263674036236,  4.251133108943324
 8.641061636512905, 18.173170106418247, 37.198862292103954,  3.624478405127653
16.465093130683076, 14.985986196017109,  0.355148339134590,  4.051004223806395
16.750873464174592, 15.295452409745405, 40.912645719872174,  4.231671822362975
15.536420240278222, 12.907375963131349, 52.168018339915982,  4.024712421120368
13.371832473350322,  9.638263922236799,  3.152690918983269,  3.885120106626344
 5.262360922270407, 13.725886740876591, 11.288057524070693,  4.159999874592620
 8.609727656789758,  4.353353258287445, 109.012633693424476,  3.796699416384341
10.230732028238050, 18.236395057941934, 87.255207051939891,  4.097970749348208
 0.909073519083639,  3.135552368868263, 57.808288579954954,  4.665574726076431
 5.038138145737653,  6.724120286683447, 28.973501646103418,  4.265073935671350
10.349257570842427, 11.663431110299998, 19.960092374185841,  3.859623795906684
17.074835696719692,  7.689587282715523, 97.542544209016071,  3.974816297045196
 5.968258572100313,  2.580165349681081,  9.727011261024915,  3.959403461264454
11.579320775956138,  9.313463614214978, 38.995538819620222,  3.901437919095133
 8.862680604792256,  2.719576151459282, 102.361938237256837,  4.242521313694970
 3.017425911902219, 13.675870150492932, 17.834952084307101,  4.412643694046501
14.946099315067196,  8.948760376951293, 36.429542506287653,  4.242726436633776
11.266419524987922,  4.438684322839845, 69.778830094213234,  4.251359108845828
14.032970160557973,  6.087129994112507, 107.971713470057651,  3.893222848825875
 6.041741233290134, 18.363044272099348, 80.222201960323318,  3.924214868727095
 5.785804193156745, 11.420783785798051, 115.525588103565553,  4.017554063302322
11.980204566205320,  6.089853229581317, 21.041779354294786,  4.179470548715975
 0.874401749238444, 13.407420718618441, 21.372007479210556,  3.847245188781443
 1.854473986607562, 13.698320688701539, 76.506209949903791,  3.921190104539823
 2.946231095588862, 12.144290980014196,  8.498027729786946,  3.741972805619946
17.392192532364160,  7.665129526186338, 109.039521172228049,  3.821777408611742
 0.904175628353982,  5.126622534911562, 14.134496496949440,  4.417707786588362
 3.191865639443172,  3.257068596018037, 17.735811829318845,  4.107057345105821
 6.643320042725097, 13.287854509841488,  7.326651940821321,  4.270519992921951
18.461632320392287, 16.840064924543274, 31.363403221060345,  4.182195337757127
18.540979639947391, 10.613690123136495, 57.499476126468601,  3.276840656077461
 1.834796537148829, 16.723051601199700, 110.211339391421262,  3.833079743942981
17.990003665182773, 18.492222135401562, 43.244947985204121,  4.057210129758286
17.444777328216240, 14.400750493606118, 49.059130228411135,  3.829934052253571
15.823364011198770, 12.450906922705627, 72.969809926471484,  4.194714068522826
 9.240471635905106,  0.681786100336345, 11.017488745376763,  4.031221844799677
 9.874793992467211, 15.203683762749876, 48.168888535926335,  4.067602347826170
 1.734566962853228, 13.732176429626428, 58.164378546229159,  4.287252525043495
13.115426681288326, 11.452173341388532,  6.723981545002318,  4.142048827607892
16.699068722026276,  2.928533684039423, 75.924952503155652,  3.837788370454928
 2.771473025903607,  0.995435787269316, 54.588045250628298,  3.801955222144602
 4.785342830736863, 10.068256643252015, 71.340180132051458,  4.386715235091224
 7.726960829371106,  1.038387037412386, 14.722321865937868,  3.904001598608324
 4.971337974883760, 16.431662057496116, 51.682881271409173,  3.805222526951099
12.001580084375499, 11.184546107114476, 14.847792328008817,  4.039760761415060
 3.258330188204602, 15.342493555645850, 26.287594024710867,  3.842304916116436
10.643302798925292,  2.744931768292557, 98.475485819889542,  4.192987858434553
 7.985082205662651,  4.663206064742963, 42.954112749084679,  3.997159900259681
 6.777302058892088,  1.348092293421463,  5.689198717867731,  3.899427085809124
15.726385863855285, 13.269426968677539, 92.421289480769545,  4.013642775983500
 5.339730509652989, 17.609762586510673, 39.040324535698034,  3.766402579886017
 7.865028467989112,  1.408455517692751, 40.291764154651908,  4.084301163303337
16.941951405444669,  6.244110706540586, 31.591969468994144,  4.060307217165404
 1.462330002980121, 12.092440676830686, 12.088200273381574,  4.020102998482120
16.328581835169341,  9.699862301367235, 83.916618817408718,  3.890890422226237
 3.964154864470216,  7.366268559250328, 89.682028253627365,  3.904629456550835
14.362092187028495, 17.358968903302305, 94.359464598103060,  4.020511896588763
 3.816857943657892,  6.327576116427426, 77.256409431503982,  3.774414463518366
17.201536886940584,  0.130024145327048, 59.401033907298277,  3.918270997007577
17.398613094150441,  0.838363829380292, 28.333822444474407,  3.808576100976407
10.877026057168427,  9.516302684576447, 109.200177802437352,  4.006526224863565
 6.686294145501464,  0.515326680792042, 65.180113409233257,  3.899212109156581
 2.188349035241766, 11.595871645919971, 54.592374136047297,  4.073971040447243
 7.654070752055967, 16.360883432618486,  4.718954280393236,  4.013248266431392
14.871808659076580, 14.868403250774600, 108.037612704223761,  3.893266147356179
 7.514743316558556, 13.703949197703865, 44.919373082169628,  4.163617130454712
15.070109452156229, 12.041331381537848, 56.312679049566484,  4.469078642746702
13.437349963979079, 12.741766645423620, 30.050013331628598,  4.238024413063202
 1.035665855616775, 13.716344211791123, 90.550835416646478,  4.434285071118861
 3.408860869706479, 10.980854433214949, 80.196689976104494,  3.981836345730155
10.133759311723242, 18.219320397271229, 33.820220321983349,  3.717212712361126
17.947278245157822, 16.482349684722550, 92.962387167664502,  3.861966804836465
 8.064568744218750,  2.478679254131280, 54.197103737904790,  3.824814885989297
 0.002262429812564,  5.017502344688914, 45.605551445241012,  4.118518593611838
 7.757780875789201, 17.499058794373763, 45.922759952639346,  3.624150120378828
17.395751477563326,  5.692130935323415, 63.292270356570825,  4.158102101467334
 0.917469828236793,  1.424263177838864, 71.877817482353549,  3.970631877574682
17.487511154190706,  9.461928256405576, 54.032644140087648,  3.940926376134340
 6.301431226492356,  9.838726606703474, 10.173532907823432,  3.864861660320354
11.389260204194359,  1.261528989598069, 94.773644774243593,  3.888421845357961
10.328837528207506,  6.426703465173357, 95.038359425127027,  4.155085265645976
17.571764002776465, 14.514830947010511, 18.332339607623645,  3.957504000678160
 5.926452722836880, 10.737398095286132, 42.969048740245185,  3.613316017655310
 8.643396994709883, 11.826281412702523, 12.676383854705627,  4.053731407610645
15.135517163143705,  8.561916343150102,  8.585300777611137,  3.828255682671578
12.206093020465644, 16.969023271765430, 74.415077635316933,  3.982691854088779
10.316715362685860, 12.589150927423738, 37.615998380323326,  3.632590120261791
14.486648974003812, 15.938144739585697, 54.815489305071900,  3.944420210806590
 5.880522313773592, 14.655882720791038, 48.433709020246972,  3.804960773072976
 4.354793265976885,  7.505857384058508, 105.049976520815221,  4.037191853260310
 4.504505734943231,  0.539541802792330, 95.640698342462954,  4.323173467889030
 7.643531441262851,  0.138821529237393, 93.105999167227054,  3.754406008715895
 9.809861073587786,  6.151444598853811, 46.755725857303709,  4.012257791176255
16.624804437742135, 18.268733553971241, 102.126223376378420,  3.772250766762436
10.607227986627132,  9.433151376064581, 29.486535244121487,  4.147799771035802
11.791669669527760,  5.369288460142012, 102.411259509173277,  3.650427266504937
12.613303628539365, 12.983022186058754, 104.011656430669404,  4.008808099234182
 8.280794612759848, 16.672914227804714, 108.127548398967065,  3.822497505530693
 1.515706708590849,  7.923068548001742, 56.134938428881711,  3.868411128918274
 9.762125569821901, 11.966552449904270, 117.304182720231850,  4.085094434120315
 0.570421986315248,  2.501727139392832, 20.795382311433791,  3.935586050236330
 4.688247727229523, 18.534580924311371, 117.322366486821466,  4.417657990421650
 6.692928169432949, 12.159790110476459, 97.768279558051020,  3.870797411017453
 6.992337918904966,  2.791622734676081, 117.908650546823196,  3.552561419571224
 8.898315211731308, 16.442127932043736, 52.060495489903680,  3.864277405374236
12.427008335112703,  5.848103441732503,  2.817611950107542,  3.852089429427397
 8.709324127916807, 13.222576687028882, 57.131381604528663,  4.092653675223407
16.627408290330735, 18.831871638532348, 73.463650849322093,  3.841998207496747
 8.131302523491726,  4.341098523466687, 26.420058829460082,  4.176484672258773
 9.355779255812344, 10.069871797549222, 48.044756017051959,  3.701224837884901
 6.566013931446429,  2.450477045756920, 36.505643048376299,  4.160307473676732
13.200354705507358,  0.108357892154794, 58.199582654803464,  4.069979394870722
 4.835772635103277, 14.200165425699842, 37.032338597524699,  4.130338355060517
 1.803643781905792, 10.797712597804773, 67.202221043245359,  3.999020040256037
10.656573678949588, 16.488198891577916, 29.757634880204080,  3.962608557914109
 2.641036743900601, 10.450066834296882,  0.875886301249610,  3.937080748858525
18.506157953959768, 16.172221242112965, 27.348550140408438,  3.944863408022111
11.854819700688649, 17.711829566745319, 22.333231434028566,  4.045012212030068
 2.641736874887660,  9.149953997729346, 44.770553572645433,  3.890480937013888
10.397527344034238,  7.537252348285048, 35.403866909655733,  4.443574441824737
15.413081094371215,  9.628907433725967, 69.166588754342314,  4.126810141104495
10.917699405737977,  0.243797175604291, 91.066432537601273,  3.835756169438946
18.723730898649176,  1.256276671257945, 112.052768651762989,  4.004407624963941
 2.120940363297101,  4.059934815980463, 64.533411348322218,  4.244850077424754
 9.746334682298114, 11.131022107466030,  8.908585303979759,  3.911068566873105
 4.969077652093508,  3.837516299290949, 90.936766447917336,  3.710053366416039
 3.941426215669750, 11.072760905908305, 84.428784959098280,  3.946016571930658
 3.849721310751473, 16.904425930868484, 106.824024230882813,  4.023652845320063
15.657691591092371,  5.033504456665311, 100.616457299890598,  3.878946498046199
12.091891196049849, 17.732465987958232, 108.663541822579447,  4.142213056908981
10.494527168296958,  6.516268115236893, 105.978668733865774,  4.262023753430646
 5.985550764303287,  5.625402999474245, 11.877275005450299,  3.486895891871108
14.168548320332240, 10.481867972207162, 97.971739989432393,  4.050937997665943
 5.898502734630014,  5.880683640609122, 53.151932856888486,  4.150141888987643
 7.019203050165497, 14.905583818222549, 14.952468829260031,  4.262367372799410
18.832013360657264,  4.254016757941850, 34.854870709848747,  3.925502853434824
12.203798199660628, 12.976085395032687, 74.846250611762144,  4.023097333819567
16.598002602467911,  1.821690552708226, 69.870348232249654,  3.722018877217228
 6.397359036619478, 16.447029496889062, 71.162597005195451,  4.064253407710910
18.021256673371024, 10.595661014940118, 76.184746529524531,  4.429113957948376
10.319981179158422,  5.487860856348510, 78.071333319791478,  4.081678904392016
 5.895655413539980, 18.156886356471436, 86.721711185873644,  4.451046590330433
14.686035448075714, 15.290258300118598,  7.374758411952728,  4.241514231854826
 8.722710372430051, 11.672898702469125, 23.705792781410246,  4.297932346577523
12.397031678100626, 14.934632335401682, 58.210790596150453,  4.266163142674980
14.239601225060843,  2.582318637715747,  2.187276744321386,  3.657039594219197
13.162700403460013,  6.130713033020987, 10.936714189942572,  3.941611294849219
 4.194856027058338, 17.582553939414304, 67.812375836029602,  4.259516654042240
 5.957437547671984,  1.306491722947905, 43.920994270863083,  4.068497764980151
16.813237643269137,  3.401604372639155, 114.912149925732578,  4.092851095489448
 1.854839185672257,  7.076503790394647, 98.769015302252399,  3.950435521563515
15.495608327230711, 17.775300978388962, 25.004144284832766,  4.322412447579734
14.272125858680091, 18.091251503132280, 39.474996300930961,  3.762429179464434
 2.492657528246942, 17.232400985279003, 84.398311720613023,  3.741743937047185
16.351343144344792, 17.612836462351598, 16.205924839298699,  3.593039429271801
 2.715467631283065, 10.141447120370742, 60.023197274301396,  3.889956740308796
18.458354019297960,  7.765841612683004, 105.322452065896726,  3.830278216806279
 5.042410076062415,  8.265769786851243, 100.828212618646376,  3.985831073804683
14.119905229517876,  6.813762309059796, 24.667598928905992,  4.225605144001228
13.427363777244558,  2.222340889975262, 10.939345838429015,  3.872039335931106
 4.146382849690839, 16.998621678014491,  2.810948222464194,  3.941393673183866
12.878219593105381,  0.494575262429701, 69.037893312569736,  4.229960042541324
 8.303403690248176, 10.867702000713795, 85.004159578700339,  4.240770178323495
 4.677360517214513,  0.998751504823220, 71.193701947484101,  3.716723929824396
13.789325691861984, 18.264110173547380, 43.575190704360679,  4.023430925364829
16.740973322102310,  0.077532450043860,  0.604432247259606,  4.027732202973686
 7.218997046480315,  0.213128544580883,  2.068548713680032,  3.708219096439082
 6.502600879999773, 17.901900198019060, 54.837835821860864,  3.774312886494825
 8.344562273955267,  4.705307361090550, 30.521555284081082,  3.863741483921252
 6.170822643769404,  2.342065029905152, 99.132030259284249,  4.183460613718963
18.507501778667084,  6.845177580319650,  6.723891338537502,  3.805870322078813
10.412144774784142,  3.978589943248511,  8.924723351410414,  4.115439893165663
14.789973952229067, 16.728720527105128, 29.160760297029839,  4.363840836387029
 7.673673896899431,  1.606735203390778, 89.461305710437600,  3.641692665261303
 2.538731654838276,  8.263487326035127, 52.073135630666286,  4.305908902474130
 5.791993311444160,  6.294104307565293, 19.308019068038135,  4.249946561260929
16.762567177445021,  1.795748319177169, 93.846807550804058,  4.317163774038936
 2.571211963024885, 14.918232102140680, 80.284714970823444,  4.066749801305964
 2.258585439960091,  9.792535971147776, 114.471094818853203,  4.012427676758214
13.222610214018253,  7.564540569898605, 71.934034189461272,  3.988952850979296
